NDW:0.0
TTFW:1.0
DFPT:2.0
DFPAP:3.0
DFPMP:5.0
SEARCH_STEPS:1.0
TIME_TO_FINISH:2.0
level,win/fail,% travelled,run time,game ticks,planning time,total plannings,nodes evaluated,most backtracked nodes
notch-1,true,1.00,7,309,5,1,802,176
notch-2,true,1.00,10,304,9,1,1094,191
notch-3,true,1.00,11,272,9,1,1504,412
notch-4,true,1.00,17,328,14,1,2073,535
notch-5,true,1.00,7,264,5,1,769,110
notch-6,true,1.00,14,322,12,1,1545,190
notch-7,true,1.00,11,292,9,1,1405,374
notch-8,true,1.00,13,311,11,1,1695,397
notch-9,true,1.00,9,289,7,1,1127,212
notch-10,true,1.00,13,320,11,1,1723,337
notch-11,true,1.00,10,267,9,1,1058,372
notch-12,true,1.00,5,283,4,1,472,53
notch-13,true,1.00,8,305,6,1,826,179
notch-14,true,1.00,16,279,15,1,1761,228
notch-15,true,1.00,11,278,9,1,1399,372
notch-16,true,1.00,13,310,11,1,1787,288
notch-17,true,1.00,14,303,12,1,1694,361
notch-18,true,1.00,13,327,11,1,1532,411
notch-19,true,1.00,11,271,10,1,1232,236
notch-20,true,1.00,11,322,9,1,1360,190
notch-21,true,1.00,10,312,8,1,1304,191
notch-22,true,1.00,10,256,9,1,1257,399
notch-23,true,1.00,10,279,9,1,1046,189
notch-24,true,1.00,10,291,8,1,1055,187
notch-25,true,1.00,14,328,12,1,1952,233
notch-26,true,1.00,10,282,8,1,1342,210
notch-27,true,1.00,7,323,5,1,791,132
notch-28,true,1.00,8,274,6,1,980,254
notch-29,true,1.00,7,307,5,1,716,129
notch-30,true,1.00,6,241,5,1,670,159
notch-31,true,1.00,7,276,6,1,727,190
notch-32,true,1.00,17,296,15,1,2202,331
notch-33,true,1.00,8,248,6,1,1027,121
notch-34,true,1.00,11,274,9,1,1458,218
notch-35,true,1.00,8,286,6,1,896,492
notch-36,true,1.00,9,306,7,1,1068,170
notch-37,true,1.00,9,323,7,1,1203,154
notch-38,true,1.00,9,364,7,1,1075,161
notch-39,true,1.00,10,246,8,1,962,170
notch-40,true,1.00,24,292,22,1,3110,346
notch-41,true,1.00,19,303,17,1,2243,287
notch-42,true,1.00,8,265,6,1,924,202
notch-43,true,1.00,8,265,7,1,903,136
notch-44,true,1.00,7,288,6,1,738,79
notch-45,true,1.00,9,257,8,1,1199,191
notch-46,true,1.00,10,284,8,1,1240,213
notch-47,true,1.00,7,292,5,1,690,161
notch-48,true,1.00,10,273,9,1,1347,251
notch-49,true,1.00,7,320,5,1,819,168
notch-50,true,1.00,9,315,7,1,962,158
notch-51,true,1.00,9,279,7,1,1164,126
notch-52,true,1.00,9,285,7,1,1037,373
notch-53,true,1.00,7,276,5,1,641,113
notch-54,true,1.00,10,338,8,1,1238,391
notch-55,true,1.00,10,309,9,1,1382,244
notch-56,true,1.00,13,282,11,1,1581,328
notch-57,true,1.00,8,290,6,1,943,166
notch-58,true,1.00,9,334,7,1,1055,181
notch-59,true,1.00,9,298,7,1,1006,288
notch-60,true,1.00,9,293,7,1,1132,203
notch-61,true,1.00,8,266,6,1,917,317
notch-62,true,1.00,10,317,7,1,884,171
notch-63,true,1.00,9,296,7,1,1058,139
notch-64,true,1.00,8,251,7,1,1002,359
notch-65,true,1.00,22,359,19,1,3157,319
notch-66,true,1.00,9,329,7,1,1014,195
notch-67,true,1.00,7,247,5,1,729,177
notch-68,true,1.00,5,258,4,1,580,118
notch-69,true,1.00,10,297,9,1,1297,214
notch-70,true,1.00,20,336,18,1,2415,444
notch-71,true,1.00,10,279,8,1,1273,199
notch-72,true,1.00,11,278,9,1,1355,302
notch-73,true,1.00,8,294,6,1,1053,298
notch-74,true,1.00,12,255,10,1,1084,207
notch-75,true,1.00,8,286,7,1,1081,198
notch-76,true,1.00,10,331,8,1,1258,239
notch-77,true,1.00,16,266,15,1,2229,347
notch-78,true,1.00,13,283,11,1,1494,252
notch-79,true,1.00,9,332,7,1,1083,190
notch-80,true,1.00,8,242,6,1,901,138
notch-81,true,1.00,6,245,5,1,702,189
notch-82,true,1.00,9,300,8,1,1253,205
notch-83,true,1.00,9,304,7,1,998,250
notch-84,true,1.00,9,286,7,1,1125,270
notch-85,true,1.00,9,288,7,1,921,159
notch-86,true,1.00,7,254,6,1,760,118
notch-87,true,1.00,14,245,13,1,1567,353
notch-88,true,1.00,12,313,10,1,1532,301
notch-89,true,1.00,10,306,8,1,1250,195
notch-90,true,1.00,11,332,9,1,1253,350
notch-91,true,1.00,7,305,5,1,768,184
notch-92,true,1.00,10,294,9,1,1371,111
notch-93,true,1.00,13,316,11,1,1651,385
notch-94,true,1.00,12,310,10,1,1264,208
notch-95,true,1.00,9,262,8,1,1147,311
notch-96,true,1.00,9,255,7,1,1040,179
notch-97,true,1.00,12,302,10,1,1328,227
notch-98,true,1.00,7,347,5,1,738,112
notch-99,true,1.00,13,329,11,1,1670,190
notch-100,true,1.00,13,288,11,1,1684,210
