NDW:0.0
TTFW:0.6
DFPT:2.0
DFPAP:3.0
DFPMP:3.0
SEARCH_STEPS:8.0
TIME_TO_FINISH:2.0
level,win/fail,% travelled,run time,game ticks,planning time,total plannings,nodes evaluated,most backtracked nodes
patternOccur-1,true,1.00,51,863,30,1,449,132
patternOccur-2,true,1.00,52,820,31,1,445,118
patternOccur-3,true,1.00,91,850,71,2,1019,273
patternOccur-4,true,1.00,39,877,19,1,203,33
patternOccur-5,true,1.00,57,974,29,1,440,171
patternOccur-6,true,1.00,47,982,29,1,282,37
patternOccur-7,true,1.00,35,849,19,1,155,12
patternOccur-8,true,1.00,4299,898,4281,143,74288,309
patternOccur-9,true,1.00,61,964,34,1,527,313
patternOccur-10,true,1.00,41,913,20,1,212,27
patternOccur-11,true,1.00,27966,938,27964,890,479769,420
patternOccur-12,true,1.00,6922,1006,6907,244,117586,209
patternOccur-13,true,1.00,50,944,30,1,386,112
patternOccur-14,true,1.00,27254,959,27250,927,483847,519
patternOccur-15,true,1.00,345,874,323,10,5474,182
patternOccur-16,true,1.00,19079,694,19076,665,337507,349
patternOccur-17,true,1.00,35,797,18,1,167,44
patternOccur-18,true,1.00,43,895,25,1,248,23
patternOccur-19,false,0.90,28897,997,28894,997,527101,504
patternOccur-20,true,1.00,48,961,25,1,304,53
patternOccur-21,true,1.00,38,847,18,1,185,20
patternOccur-22,true,1.00,27430,985,27428,941,506319,583
patternOccur-23,true,1.00,51,913,31,1,358,160
patternOccur-24,true,1.00,48,916,23,1,310,65
patternOccur-25,true,1.00,31,681,16,1,168,19
patternOccur-26,true,1.00,33,702,16,1,181,37
patternOccur-27,false,0.97,29114,999,29111,999,517841,497
patternOccur-28,true,1.00,42,906,21,1,231,21
patternOccur-29,true,1.00,375,759,357,11,6121,149
patternOccur-30,true,1.00,38,775,22,1,214,50
patternOccur-31,true,1.00,54,879,35,1,481,132
patternOccur-32,true,1.00,1974,990,1952,60,34455,265
patternOccur-33,true,1.00,47,909,23,1,327,162
patternOccur-34,true,1.00,33,769,18,1,159,17
patternOccur-35,true,1.00,43,942,22,1,224,40
patternOccur-36,true,1.00,7248,997,7230,230,127345,334
patternOccur-37,true,1.00,28704,966,28702,930,507592,414
patternOccur-38,true,1.00,33,767,16,1,152,24
patternOccur-39,true,1.00,24430,928,24426,764,395110,504
patternOccur-40,true,1.00,36,802,14,1,177,21
patternOccur-41,true,1.00,412,1006,393,12,5960,40
patternOccur-42,true,1.00,44,930,24,1,264,31
patternOccur-43,true,1.00,44,862,27,1,276,42
patternOccur-44,true,1.00,1763,973,1740,53,28998,288
patternOccur-45,true,1.00,55,974,30,1,374,79
patternOccur-46,true,1.00,42,864,21,1,245,64
patternOccur-47,true,1.00,28268,950,28266,923,492938,508
patternOccur-48,true,1.00,46,851,28,1,330,68
patternOccur-49,true,1.00,58,926,36,1,503,183
patternOccur-50,true,1.00,3707,903,3689,114,61393,111
patternOccur-51,true,1.00,6237,728,6225,196,106384,214
patternOccur-52,true,1.00,576,978,555,18,9346,213
patternOccur-53,true,1.00,36,834,17,1,180,24
patternOccur-54,true,1.00,44,943,23,1,223,21
patternOccur-55,true,1.00,41,740,24,1,294,60
patternOccur-56,true,1.00,35,732,15,1,184,20
patternOccur-57,true,1.00,38,881,18,1,188,16
patternOccur-58,true,1.00,19352,746,19348,719,369525,551
patternOccur-59,true,1.00,48,896,29,1,343,55
patternOccur-60,true,1.00,23873,820,23871,764,395807,481
patternOccur-61,true,1.00,43,877,20,1,294,41
patternOccur-62,true,1.00,39,907,19,1,200,27
patternOccur-63,true,1.00,39,893,18,1,180,12
patternOccur-64,true,1.00,52,998,32,3,372,54
patternOccur-65,true,1.00,46,902,24,1,299,60
patternOccur-66,true,1.00,36,728,18,1,223,31
patternOccur-67,true,1.00,13612,851,13597,424,210607,458
patternOccur-68,true,1.00,58,833,28,1,176,18
patternOccur-69,false,0.90,24095,773,24095,773,443046,428
patternOccur-70,false,0.93,29453,999,29452,999,543693,327
patternOccur-71,true,1.00,15393,997,15382,483,269798,341
patternOccur-72,false,0.93,28267,1008,28262,1008,479867,513
patternOccur-73,true,1.00,21206,738,21204,704,371633,546
patternOccur-74,false,0.95,29664,969,29663,969,526688,363
patternOccur-75,true,1.00,1611,989,1590,48,26561,158
patternOccur-76,true,1.00,256,863,234,7,4052,222
patternOccur-77,true,1.00,48,950,29,1,283,71
patternOccur-78,true,1.00,6062,959,6047,192,85227,333
patternOccur-79,true,1.00,1055,786,1036,34,19656,319
patternOccur-80,true,1.00,50,989,29,1,350,197
patternOccur-81,true,1.00,26907,971,26904,825,463980,380
patternOccur-82,true,1.00,40,802,21,1,272,64
patternOccur-83,true,1.00,36,875,19,1,186,34
patternOccur-84,true,1.00,48,870,29,1,371,82
patternOccur-85,true,1.00,6330,801,6314,194,88103,237
patternOccur-86,true,1.00,27938,987,27935,957,522752,504
patternOccur-87,true,1.00,36,785,20,1,182,21
patternOccur-88,true,1.00,65,839,45,20,771,22
patternOccur-89,true,1.00,49,828,30,1,389,86
patternOccur-90,true,1.00,2203,881,2182,73,39205,455
patternOccur-91,true,1.00,50,931,28,1,384,84
patternOccur-92,true,1.00,31,721,14,1,140,22
patternOccur-93,true,1.00,1637,966,1615,49,28026,280
patternOccur-94,false,0.88,22089,722,22087,722,380847,498
patternOccur-95,true,1.00,86,992,65,2,904,84
patternOccur-96,true,1.00,1042,961,1022,34,18096,281
patternOccur-97,true,1.00,41,754,25,1,269,119
patternOccur-98,false,0.95,29437,996,29436,996,490178,417
patternOccur-99,true,1.00,36,868,14,1,155,11
patternOccur-100,true,1.00,33,721,19,1,200,31
