NDW:0.0
TTFW:0.2
DFPT:2.0
DFPAP:3.0
DFPMP:50.0
SEARCH_STEPS:4.0
TIME_TO_FINISH:2.0
level,win/fail,% travelled,run time,game ticks,planning time,total plannings,nodes evaluated,most backtracked nodes
patternWeightCount-1,true,1.00,16,727,11,1,472,181
patternWeightCount-2,true,1.00,10,664,6,1,256,23
patternWeightCount-3,true,1.00,9,582,6,1,210,16
patternWeightCount-4,true,1.00,10,591,6,1,182,13
patternWeightCount-5,true,1.00,17,692,12,1,498,177
patternWeightCount-6,true,1.00,13,677,9,1,333,47
patternWeightCount-7,true,1.00,9,663,5,1,206,14
patternWeightCount-8,true,1.00,8,488,5,1,186,41
patternWeightCount-9,true,1.00,8,577,5,1,179,5
patternWeightCount-10,true,1.00,8,598,5,1,185,6
patternWeightCount-11,true,1.00,10,666,6,1,236,27
patternWeightCount-12,true,1.00,12,710,9,1,310,61
patternWeightCount-13,true,1.00,10,569,6,1,223,16
patternWeightCount-14,true,1.00,11,662,7,1,235,30
patternWeightCount-15,true,1.00,18,723,13,1,581,172
patternWeightCount-16,true,1.00,19,818,14,1,556,253
patternWeightCount-17,true,1.00,9,560,6,1,234,52
patternWeightCount-18,true,1.00,9,564,5,1,203,19
patternWeightCount-19,true,1.00,10,621,6,1,246,55
patternWeightCount-20,true,1.00,27,605,23,1,1033,410
patternWeightCount-21,true,1.00,10,588,6,1,237,23
patternWeightCount-22,true,1.00,16,712,13,1,506,263
patternWeightCount-23,true,1.00,17,683,13,1,604,313
patternWeightCount-24,true,1.00,11,642,7,1,247,34
patternWeightCount-25,true,1.00,13,717,9,1,346,55
patternWeightCount-26,true,1.00,9,605,6,1,215,13
patternWeightCount-27,true,1.00,13,694,9,1,343,74
patternWeightCount-28,true,1.00,10,626,7,1,235,25
patternWeightCount-29,true,1.00,10,603,6,1,246,42
patternWeightCount-30,true,1.00,134,806,129,4,5854,331
patternWeightCount-31,true,1.00,11,606,7,1,248,27
patternWeightCount-32,true,1.00,8,526,5,1,183,21
patternWeightCount-33,true,1.00,9,585,5,1,188,12
patternWeightCount-34,true,1.00,8,548,5,1,189,19
patternWeightCount-35,true,1.00,16,701,12,1,536,215
patternWeightCount-36,true,1.00,15,590,11,1,466,211
patternWeightCount-37,true,1.00,7,522,4,1,164,12
patternWeightCount-38,true,1.00,20,605,17,1,734,179
patternWeightCount-39,true,1.00,12,625,8,1,321,37
patternWeightCount-40,true,1.00,10,613,6,1,234,13
patternWeightCount-41,true,1.00,3416,728,3413,104,137235,1017
patternWeightCount-42,true,1.00,16,643,12,1,506,184
patternWeightCount-43,true,1.00,7,524,4,1,177,8
patternWeightCount-44,true,1.00,13,677,8,1,333,64
patternWeightCount-45,true,1.00,20,687,16,1,697,419
patternWeightCount-46,true,1.00,98,779,93,3,4238,544
patternWeightCount-47,true,1.00,18,631,15,1,604,384
patternWeightCount-48,true,1.00,8,513,5,1,184,17
patternWeightCount-49,true,1.00,7,506,4,1,161,13
patternWeightCount-50,true,1.00,15,705,11,1,460,136
patternWeightCount-51,true,1.00,15,704,11,1,441,85
patternWeightCount-52,true,1.00,10,686,6,1,259,28
patternWeightCount-53,true,1.00,12,702,8,1,315,25
patternWeightCount-54,true,1.00,12,735,7,1,279,28
patternWeightCount-55,true,1.00,10,578,6,1,272,51
patternWeightCount-56,true,1.00,11,665,7,1,263,18
patternWeightCount-57,true,1.00,7,459,4,1,140,11
patternWeightCount-58,true,1.00,9,620,5,1,216,13
patternWeightCount-59,true,1.00,9,629,6,1,212,14
patternWeightCount-60,true,1.00,12,706,9,1,344,109
patternWeightCount-61,true,1.00,24,678,20,1,929,550
patternWeightCount-62,true,1.00,12,609,8,1,296,107
patternWeightCount-63,true,1.00,13,700,9,1,380,53
patternWeightCount-64,true,1.00,9,584,5,1,201,23
patternWeightCount-65,true,1.00,9680,605,9678,294,410914,1246
patternWeightCount-66,true,1.00,9,569,5,1,197,19
patternWeightCount-67,true,1.00,9,578,6,1,216,23
patternWeightCount-68,true,1.00,7,496,4,1,148,8
patternWeightCount-69,true,1.00,8,526,4,1,183,12
patternWeightCount-70,true,1.00,12,682,8,1,315,57
patternWeightCount-71,true,1.00,11,649,7,1,267,44
patternWeightCount-72,true,1.00,130,606,126,4,5050,142
patternWeightCount-73,true,1.00,11,640,8,1,275,18
patternWeightCount-74,true,1.00,11,583,8,1,320,73
patternWeightCount-75,true,1.00,9,593,6,1,240,23
patternWeightCount-76,true,1.00,9,605,5,1,214,12
patternWeightCount-77,true,1.00,7,513,4,1,160,6
patternWeightCount-78,true,1.00,11,666,7,1,297,29
patternWeightCount-79,true,1.00,11,557,7,1,276,89
patternWeightCount-80,true,1.00,13,679,9,1,359,110
patternWeightCount-81,true,1.00,8,585,5,1,202,11
patternWeightCount-82,true,1.00,7,516,4,1,148,8
patternWeightCount-83,true,1.00,9,567,5,1,200,9
patternWeightCount-84,true,1.00,6645,726,6642,202,288038,273
patternWeightCount-85,true,1.00,10,652,6,1,222,13
patternWeightCount-86,true,1.00,17,642,13,1,552,137
patternWeightCount-87,true,1.00,229,773,224,7,10056,414
patternWeightCount-88,true,1.00,13,690,10,1,377,103
patternWeightCount-89,true,1.00,10,598,6,1,242,61
patternWeightCount-90,true,1.00,18,801,14,1,570,220
patternWeightCount-91,true,1.00,7,511,4,1,166,24
patternWeightCount-92,true,1.00,11,649,7,1,256,18
patternWeightCount-93,true,1.00,11,645,7,1,289,50
patternWeightCount-94,true,1.00,10,623,6,1,217,21
patternWeightCount-95,true,1.00,9,577,6,1,251,26
patternWeightCount-96,true,1.00,8,548,5,1,193,17
patternWeightCount-97,true,1.00,9161,749,9159,278,410130,1045
patternWeightCount-98,true,1.00,2034,782,2030,62,95820,374
patternWeightCount-99,true,1.00,11,640,7,1,258,19
patternWeightCount-100,true,1.00,11,588,7,1,302,116
