NDW:0.0
TTFW:1.8
DFPT:2.0
DFPAP:3.0
DFPMP:7.0
SEARCH_STEPS:20.0
TIME_TO_FINISH:2.0
level,win/fail,% travelled,run time,game ticks,planning time,total plannings,nodes evaluated,most backtracked nodes
patternOccur-1,false,0.44,819,999,809,999,6318,4
patternOccur-2,false,0.15,51,63,51,63,572,5
patternOccur-3,false,0.17,439,999,434,999,3558,6
patternOccur-4,false,0.18,556,999,549,999,5216,5
patternOccur-5,false,0.16,212,148,210,148,1918,6
patternOccur-6,false,0.03,2,21,2,21,27,1
patternOccur-7,false,0.20,511,999,504,999,4481,3
patternOccur-8,false,0.45,1388,999,1380,999,11991,7
patternOccur-9,false,0.41,299,322,294,322,3205,3
patternOccur-10,false,0.17,328,999,319,999,2488,2
patternOccur-11,false,0.30,573,999,566,999,5055,3
patternOccur-12,false,0.16,130,168,129,168,1190,6
patternOccur-13,false,0.21,109,177,108,177,1129,4
patternOccur-14,false,0.09,290,999,285,999,2008,1
patternOccur-15,false,0.33,462,999,456,999,3873,5
patternOccur-16,false,0.30,666,999,662,999,6264,7
patternOccur-17,false,0.65,705,524,699,524,6737,8
patternOccur-18,false,0.49,644,999,639,999,5965,13
patternOccur-19,false,0.23,66,134,66,134,769,3
patternOccur-20,false,0.30,918,999,911,999,7247,12
patternOccur-21,false,0.28,295,273,295,273,2765,8
patternOccur-22,false,0.06,29,74,28,74,299,3
patternOccur-23,false,0.00,306,999,302,999,1978,0
patternOccur-24,false,0.30,580,999,574,999,4135,8
patternOccur-25,false,0.13,67,100,67,100,600,4
patternOccur-26,true,1.00,671,702,665,489,5658,6
patternOccur-27,false,0.36,266,198,265,198,2052,5
patternOccur-28,false,0.10,400,999,392,999,3539,2
patternOccur-29,false,0.40,807,420,801,420,7706,16
patternOccur-30,false,0.03,10,41,10,41,99,2
patternOccur-31,false,0.33,420,261,418,261,4175,8
patternOccur-32,false,0.04,316,999,308,999,2074,2
patternOccur-33,false,0.56,1117,999,1110,999,9935,5
patternOccur-34,false,0.13,86,123,86,123,921,2
patternOccur-35,false,0.25,87,142,85,142,930,10
patternOccur-36,false,0.32,64,140,61,140,721,3
patternOccur-37,false,0.32,849,999,842,999,8595,4
patternOccur-38,false,0.21,75,135,74,135,833,5
patternOccur-39,false,0.11,122,109,121,109,967,3
patternOccur-40,false,0.85,601,548,595,548,6018,12
patternOccur-41,false,0.06,14,48,14,48,178,2
patternOccur-42,false,0.00,335,999,330,999,1978,0
patternOccur-43,false,0.34,235,270,235,270,2343,9
patternOccur-44,false,0.31,448,999,443,999,3689,8
patternOccur-45,false,0.47,1219,1008,1213,1008,10702,22
patternOccur-46,false,0.02,745,999,737,999,4855,2
patternOccur-47,false,0.25,217,181,216,181,2029,3
patternOccur-48,false,0.24,643,999,635,999,5512,10
patternOccur-49,false,0.29,2420,999,2410,999,22590,9
patternOccur-50,false,0.00,311,999,304,999,1978,0
patternOccur-51,false,0.24,303,218,301,218,2718,12
patternOccur-52,false,0.72,423,535,422,535,4276,5
patternOccur-53,false,0.14,329,999,326,999,2153,2
patternOccur-54,false,0.03,2,24,2,24,32,1
patternOccur-55,false,0.32,217,224,216,224,2057,8
patternOccur-56,false,0.13,99,98,99,98,815,4
patternOccur-57,false,0.34,269,246,268,246,2549,2
patternOccur-58,false,0.79,782,668,781,668,7554,8
patternOccur-59,false,0.11,8,44,8,44,125,3
patternOccur-60,false,0.65,942,1008,933,1008,7929,11
patternOccur-61,false,0.41,449,379,445,379,4715,14
patternOccur-62,false,0.54,338,428,333,428,3254,5
patternOccur-63,false,0.60,397,426,393,426,4068,6
patternOccur-64,false,0.27,505,999,498,999,4138,5
patternOccur-65,false,0.10,75,94,73,94,747,4
patternOccur-66,false,0.00,488,999,487,999,2957,1
patternOccur-67,false,0.11,91,93,89,93,754,5
patternOccur-68,false,0.55,1367,999,1360,999,12182,9
patternOccur-69,false,0.62,1445,999,1440,999,13749,8
patternOccur-70,false,0.07,24,49,21,49,285,6
patternOccur-71,false,0.12,71,126,70,126,795,4
patternOccur-72,false,0.20,205,166,205,166,1884,4
patternOccur-73,false,0.83,956,670,956,670,8764,4
patternOccur-74,false,0.05,17,43,17,43,169,3
patternOccur-75,false,0.13,53,88,53,88,437,1
patternOccur-76,false,0.16,21,62,20,62,268,1
patternOccur-77,false,0.15,436,999,429,999,3608,4
patternOccur-78,false,0.00,329,999,327,999,1978,0
patternOccur-79,false,0.16,34,96,33,96,373,2
patternOccur-80,false,0.07,571,999,566,999,5105,2
patternOccur-81,false,0.20,126,167,125,167,1181,6
patternOccur-82,false,0.69,944,665,935,665,8817,6
patternOccur-83,false,0.26,1183,999,1173,999,8882,15
patternOccur-84,false,0.13,72,81,71,81,680,9
patternOccur-85,false,0.00,295,999,287,999,1978,0
patternOccur-86,false,0.27,235,233,233,233,1975,4
patternOccur-87,true,1.00,999,767,994,664,9304,6
patternOccur-88,false,0.04,11,45,11,45,113,2
patternOccur-89,false,0.09,35,86,35,86,358,2
patternOccur-90,false,0.00,286,999,283,999,1978,0
patternOccur-91,false,0.07,29,52,29,52,280,6
patternOccur-92,false,0.23,244,194,243,194,2453,6
patternOccur-93,false,0.05,17,44,17,44,171,3
patternOccur-94,false,0.08,26,53,26,53,198,3
patternOccur-95,false,0.08,345,999,337,999,3337,5
patternOccur-96,false,0.09,5,41,5,41,84,2
patternOccur-97,false,0.03,311,999,306,999,2066,1
patternOccur-98,false,0.78,662,570,661,570,5856,6
patternOccur-99,false,0.00,304,999,295,999,1978,0
patternOccur-100,false,0.16,366,238,365,238,3165,3
