NDW:0.0
TTFW:1.6
DFPT:2.0
DFPAP:3.0
DFPMP:3.0
SEARCH_STEPS:2.0
TIME_TO_FINISH:2.0
level,win/fail,% travelled,run time,game ticks,planning time,total plannings,nodes evaluated,most backtracked nodes
notchParamRand-1,true,1.00,9,338,7,1,499,195
notchParamRand-2,true,1.00,5,306,3,1,184,20
notchParamRand-3,true,1.00,9,331,7,1,681,187
notchParamRand-4,true,1.00,7,356,5,1,401,59
notchParamRand-5,true,1.00,5,302,3,1,211,20
notchParamRand-6,true,1.00,5,312,3,1,236,27
notchParamRand-7,true,1.00,5,306,3,1,200,30
notchParamRand-8,true,1.00,4,317,2,1,184,9
notchParamRand-9,true,1.00,5,328,4,1,227,22
notchParamRand-10,true,1.00,8,360,6,1,473,239
notchParamRand-11,true,1.00,5,308,3,1,161,3
notchParamRand-12,true,1.00,5,322,4,1,238,23
notchParamRand-13,true,1.00,9,331,7,1,720,191
notchParamRand-14,true,1.00,8,334,6,1,549,251
notchParamRand-15,true,1.00,6,318,4,1,270,42
notchParamRand-16,true,1.00,6,340,4,1,335,83
notchParamRand-17,true,1.00,5,306,3,1,169,7
notchParamRand-18,true,1.00,8,336,6,1,523,128
notchParamRand-19,true,1.00,6,315,4,1,199,27
notchParamRand-20,true,1.00,11,383,9,1,846,236
notchParamRand-21,true,1.00,5,315,3,1,175,4
notchParamRand-22,true,1.00,7,375,5,1,420,34
notchParamRand-23,true,1.00,9,375,7,1,549,143
notchParamRand-24,true,1.00,5,324,3,1,196,23
notchParamRand-25,true,1.00,6,373,4,1,267,67
notchParamRand-26,true,1.00,6,394,4,1,287,30
notchParamRand-27,true,1.00,5,322,4,1,210,14
notchParamRand-28,true,1.00,6,335,4,1,340,35
notchParamRand-29,true,1.00,4,302,2,1,176,9
notchParamRand-30,true,1.00,7,354,5,1,433,57
notchParamRand-31,true,1.00,5,317,3,1,258,30
notchParamRand-32,true,1.00,5,298,3,1,166,4
notchParamRand-33,true,1.00,8,331,6,1,618,320
notchParamRand-34,true,1.00,5,325,3,1,204,18
notchParamRand-35,true,1.00,5,337,3,1,236,23
notchParamRand-36,true,1.00,5,294,3,1,161,5
notchParamRand-37,true,1.00,5,314,3,1,259,28
notchParamRand-38,true,1.00,9,326,7,1,515,132
notchParamRand-39,true,1.00,6,359,4,1,353,59
notchParamRand-40,true,1.00,9,352,6,1,656,155
notchParamRand-41,true,1.00,4,294,2,1,148,1
notchParamRand-42,true,1.00,5,302,4,1,313,30
notchParamRand-43,true,1.00,4,302,2,1,176,22
notchParamRand-44,true,1.00,6,318,4,1,272,31
notchParamRand-45,true,1.00,7,351,5,1,346,35
notchParamRand-46,true,1.00,8,328,6,1,633,209
notchParamRand-47,true,1.00,6,332,3,1,274,23
notchParamRand-48,true,1.00,7,340,5,1,483,207
notchParamRand-49,true,1.00,8,314,5,1,301,31
notchParamRand-50,true,1.00,7,349,5,1,367,31
notchParamRand-51,true,1.00,5,314,3,1,222,23
notchParamRand-52,true,1.00,8,339,6,1,509,212
notchParamRand-53,true,1.00,6,318,4,1,251,16
notchParamRand-54,true,1.00,7,354,5,1,386,131
notchParamRand-55,true,1.00,8,335,6,1,524,126
notchParamRand-56,true,1.00,5,332,3,1,220,12
notchParamRand-57,true,1.00,6,318,4,1,347,35
notchParamRand-58,true,1.00,7,339,5,1,370,30
notchParamRand-59,true,1.00,6,323,4,1,279,34
notchParamRand-60,true,1.00,6,326,5,1,375,61
notchParamRand-61,true,1.00,5,313,3,1,205,23
notchParamRand-62,true,1.00,7,357,5,1,346,30
notchParamRand-63,true,1.00,7,322,5,1,484,151
notchParamRand-64,true,1.00,5,298,3,1,213,31
notchParamRand-65,true,1.00,8,343,6,1,424,34
notchParamRand-66,true,1.00,5,328,3,1,179,13
notchParamRand-67,true,1.00,5,317,3,1,200,21
notchParamRand-68,true,1.00,6,338,4,1,322,37
notchParamRand-69,true,1.00,4,302,2,1,187,22
notchParamRand-70,true,1.00,7,369,5,1,403,34
notchParamRand-71,true,1.00,6,321,4,1,261,28
notchParamRand-72,true,1.00,4,298,3,1,168,8
notchParamRand-73,true,1.00,5,324,3,1,208,11
notchParamRand-74,true,1.00,5,303,3,1,189,26
notchParamRand-75,true,1.00,4,294,4,1,155,3
notchParamRand-76,true,1.00,5,343,3,1,237,23
notchParamRand-77,true,1.00,7,354,5,1,417,50
notchParamRand-78,true,1.00,6,321,4,1,302,28
notchParamRand-79,true,1.00,5,313,3,1,215,26
notchParamRand-80,true,1.00,5,302,3,1,165,12
notchParamRand-81,true,1.00,5,310,3,1,237,23
notchParamRand-82,true,1.00,6,322,4,1,313,27
notchParamRand-83,true,1.00,6,340,4,1,367,59
notchParamRand-84,true,1.00,7,323,6,1,388,55
notchParamRand-85,true,1.00,5,294,3,1,148,1
notchParamRand-86,true,1.00,8,356,5,1,391,55
notchParamRand-87,true,1.00,9,354,7,1,576,210
notchParamRand-88,true,1.00,5,330,3,1,226,31
notchParamRand-89,true,1.00,5,314,3,1,234,30
notchParamRand-90,true,1.00,4,315,3,1,213,24
notchParamRand-91,true,1.00,4,305,2,1,155,1
notchParamRand-92,true,1.00,6,369,4,1,318,42
notchParamRand-93,true,1.00,6,321,4,1,194,10
notchParamRand-94,true,1.00,7,326,5,1,412,145
notchParamRand-95,true,1.00,6,326,4,1,278,27
notchParamRand-96,true,1.00,7,352,5,1,484,224
notchParamRand-97,true,1.00,8,350,6,1,516,153
notchParamRand-98,true,1.00,5,314,3,1,177,5
notchParamRand-99,true,1.00,5,312,4,1,263,27
notchParamRand-100,true,1.00,9,322,7,1,633,130
