NDW:0.0
TTFW:0.6
DFPT:2.0
DFPAP:3.0
DFPMP:1.0
SEARCH_STEPS:20.0
TIME_TO_FINISH:2.0
level,win/fail,% travelled,run time,game ticks,planning time,total plannings,nodes evaluated,most backtracked nodes
notchParam-1,true,1.00,8324,452,8323,278,53126,148
notchParam-2,false,0.39,6996,227,6996,227,43728,74
notchParam-3,true,1.00,805,517,802,393,7006,66
notchParam-4,true,1.00,1133,605,1130,131,9116,93
notchParam-5,true,1.00,4263,993,4259,353,32312,204
notchParam-6,true,1.00,579,668,574,190,5056,111
notchParam-7,false,0.36,21421,694,21421,694,134279,211
notchParam-8,false,0.60,1051,353,1049,353,9066,48
notchParam-9,false,0.69,436,276,433,276,4203,52
notchParam-10,true,1.00,3265,373,3263,251,28106,158
notchParam-11,true,1.00,6343,421,6341,302,52051,234
notchParam-12,true,1.00,2422,509,2419,361,21693,132
notchParam-13,true,1.00,36,666,32,1,232,59
notchParam-14,true,1.00,19,654,15,1,106,37
notchParam-15,false,0.72,26070,823,26070,823,173655,184
notchParam-16,false,0.39,5181,171,5181,171,31791,175
notchParam-17,false,0.41,11518,367,11518,367,74065,170
notchParam-18,false,0.07,47,29,47,29,298,3
notchParam-19,true,1.00,8352,438,8351,257,50135,148
notchParam-20,true,1.00,21442,968,21440,662,144717,207
notchParam-21,true,1.00,8,429,5,1,35,4
notchParam-22,false,0.67,9670,301,9670,301,63549,201
notchParam-23,false,0.31,6158,612,6154,612,47297,124
notchParam-24,false,0.20,1947,185,1945,185,14898,94
notchParam-25,true,1.00,5477,974,5471,855,47033,59
notchParam-26,false,0.56,621,314,619,314,5471,12
notchParam-27,true,1.00,6776,319,6775,227,41785,148
notchParam-28,false,0.18,412,127,411,127,3401,16
notchParam-29,true,1.00,3702,388,3699,235,31395,165
notchParam-30,false,0.72,10222,332,10221,332,66919,159
notchParam-31,false,0.40,9203,322,9203,322,60683,172
notchParam-32,false,0.41,11518,367,11518,367,74219,170
notchParam-33,true,1.00,378,693,374,12,2399,65
notchParam-34,false,0.41,6043,246,6042,246,42713,128
notchParam-35,false,0.39,5154,174,5154,174,29681,52
notchParam-36,false,0.72,12765,455,12763,455,86349,170
notchParam-37,true,1.00,534,414,531,17,3299,75
notchParam-38,true,1.00,6235,773,6232,191,37856,121
notchParam-39,false,0.39,12573,394,12573,394,78675,181
notchParam-40,false,0.67,15739,999,15735,999,129936,232
notchParam-41,false,0.56,4906,508,4901,508,46348,159
notchParam-42,true,1.00,9566,556,9564,308,58360,160
notchParam-43,true,1.00,1162,852,1158,199,10013,89
notchParam-44,true,1.00,589,403,588,205,4469,54
notchParam-45,true,1.00,1016,390,1014,282,8606,83
notchParam-46,true,1.00,739,334,738,255,7138,82
notchParam-47,true,1.00,4,303,2,1,17,1
notchParam-48,false,0.36,5094,190,5094,190,34133,204
notchParam-49,true,1.00,6973,396,6972,215,44828,202
notchParam-50,true,1.00,13,603,9,2,61,10
notchParam-51,true,1.00,21132,802,21130,661,138115,205
notchParam-52,false,0.39,13893,434,13893,434,87226,199
notchParam-53,false,0.70,10263,324,10263,324,68100,214
notchParam-54,false,0.39,8349,265,8349,265,48565,97
notchParam-55,false,0.07,46,29,46,29,293,3
notchParam-56,true,1.00,6,365,3,1,27,3
notchParam-57,true,1.00,1542,507,1540,386,15824,69
notchParam-58,false,0.18,849,207,849,207,6858,14
notchParam-59,true,1.00,828,613,823,238,7933,41
notchParam-60,true,1.00,5644,437,5641,316,49018,291
notchParam-61,false,0.43,429,218,425,218,3927,18
notchParam-62,false,0.42,4925,262,4924,262,31240,151
notchParam-63,false,0.69,2008,233,2006,233,18614,177
notchParam-64,true,1.00,1424,618,1419,242,14447,85
notchParam-65,true,1.00,1303,519,1300,358,11167,45
notchParam-66,true,1.00,73,428,70,9,513,131
notchParam-67,false,0.39,4059,142,4059,142,25131,56
notchParam-68,false,0.41,12378,404,12377,404,79921,156
notchParam-69,false,0.42,23623,968,23622,968,153241,185
notchParam-70,false,0.39,8101,259,8101,259,45771,75
notchParam-71,true,1.00,3961,964,3956,827,39002,181
notchParam-72,false,0.44,933,252,933,252,7975,112
notchParam-73,true,1.00,698,493,698,387,6845,24
notchParam-74,false,0.82,5941,881,5930,881,55954,159
notchParam-75,false,0.82,1558,474,1555,474,14230,82
notchParam-76,true,1.00,1496,434,1495,201,13264,51
notchParam-77,false,0.43,12317,492,12317,492,88306,193
notchParam-78,true,1.00,3489,440,3486,382,29580,125
notchParam-79,true,1.00,1991,540,1990,444,17944,117
notchParam-80,false,0.07,46,29,46,29,294,3
notchParam-81,false,0.69,1021,286,1018,286,10078,95
notchParam-82,true,1.00,6241,454,6239,190,38770,197
notchParam-83,true,1.00,29,764,24,1,175,30
notchParam-84,false,0.67,15312,471,15312,471,93051,205
notchParam-85,false,0.36,16038,493,16038,493,108205,200
notchParam-86,false,0.46,8026,328,8026,328,76513,300
notchParam-87,true,1.00,2230,933,2224,104,15500,112
notchParam-88,true,1.00,12785,540,12785,412,78362,209
notchParam-89,true,1.00,8,465,6,1,40,8
notchParam-90,true,1.00,277,551,274,9,1871,105
notchParam-91,false,0.76,11807,949,11804,949,108036,239
notchParam-92,true,1.00,3939,571,3937,478,34188,193
notchParam-93,false,0.46,338,219,335,219,3010,33
notchParam-94,false,0.47,346,278,342,278,3284,17
notchParam-95,false,0.18,228,114,227,114,1638,3
notchParam-96,true,1.00,1372,435,1371,307,11061,66
notchParam-97,true,1.00,3006,382,3000,202,28636,188
notchParam-98,true,1.00,3771,657,3767,115,25394,155
notchParam-99,false,0.39,27687,999,27687,999,162220,197
notchParam-100,false,0.40,19224,606,19223,606,123649,173
