NDW:0.0
TTFW:0.4
DFPT:2.0
DFPAP:3.0
DFPMP:10.0
SEARCH_STEPS:6.0
TIME_TO_FINISH:2.0
level,win/fail,% travelled,run time,game ticks,planning time,total plannings,nodes evaluated,most backtracked nodes
ge-1,true,1.00,17,348,8,1,93,29
ge-2,true,1.00,15,326,7,1,73,18
ge-3,true,1.00,13,270,6,1,63,20
ge-4,true,1.00,15,287,9,1,77,17
ge-5,true,1.00,9,199,5,1,36,1
ge-6,true,1.00,18,339,7,1,103,55
ge-7,true,1.00,13,251,8,1,54,13
ge-8,true,1.00,12,259,6,1,56,13
ge-9,true,1.00,11,244,6,1,47,6
ge-10,true,1.00,9,210,4,1,38,1
ge-11,true,1.00,12,242,5,1,54,5
ge-12,true,1.00,15,304,9,1,64,26
ge-13,true,1.00,18,354,10,1,100,41
ge-14,true,1.00,15,314,9,1,71,11
ge-15,true,1.00,11,246,8,1,54,4
ge-16,true,1.00,24,455,13,1,148,31
ge-17,true,1.00,13,271,7,1,85,21
ge-18,false,0.32,31666,992,31666,992,575340,699
ge-19,true,1.00,19,349,9,1,103,21
ge-20,true,1.00,11,234,4,1,49,5
ge-21,true,1.00,10,210,5,1,40,3
ge-22,true,1.00,10,208,6,1,38,3
ge-23,true,1.00,11,233,7,1,56,8
ge-24,true,1.00,15,277,9,1,102,30
ge-25,true,1.00,10,210,3,1,41,3
ge-26,true,1.00,8,199,4,1,37,1
ge-27,true,1.00,13,256,7,1,59,19
ge-28,true,1.00,10,199,5,1,38,1
ge-29,true,1.00,14,269,8,1,70,24
ge-30,true,1.00,19,356,10,1,116,30
ge-31,true,1.00,22,447,10,1,124,46
ge-32,true,1.00,15,285,7,1,87,46
ge-33,true,1.00,11,254,5,1,50,3
ge-34,true,1.00,12,246,7,1,51,9
ge-35,true,1.00,17,302,7,1,89,39
ge-36,true,1.00,30,386,19,1,281,168
ge-37,true,1.00,9,199,5,1,37,1
ge-38,true,1.00,13,254,6,1,74,21
ge-39,true,1.00,15,285,10,1,90,48
ge-40,true,1.00,9,199,5,1,36,1
ge-41,true,1.00,24,210,3,1,41,3
ge-42,true,1.00,20,387,12,1,126,53
ge-43,true,1.00,16,310,10,1,100,24
ge-44,true,1.00,14,280,6,1,61,10
ge-45,true,1.00,16,311,8,1,81,27
ge-46,true,1.00,17,341,11,1,88,11
ge-47,true,1.00,9,199,4,1,36,1
ge-48,true,1.00,16,274,9,1,116,39
ge-49,true,1.00,10,199,3,1,36,1
ge-50,true,1.00,24,284,17,1,218,168
ge-51,true,1.00,12,269,6,1,56,5
ge-52,true,1.00,17,316,9,1,98,46
ge-53,true,1.00,12,260,5,1,49,8
ge-54,true,1.00,13,256,5,1,69,6
ge-55,true,1.00,15,298,5,1,83,33
ge-56,true,1.00,14,266,8,1,64,11
ge-57,true,1.00,11,234,6,1,53,8
ge-58,true,1.00,35,383,22,1,365,264
ge-59,true,1.00,14,270,7,1,84,17
ge-60,true,1.00,10,234,3,1,47,3
ge-61,true,1.00,9,199,5,1,36,1
ge-62,true,1.00,10,223,4,1,43,3
ge-63,true,1.00,14,282,6,1,67,8
ge-64,true,1.00,20,367,10,1,112,38
ge-65,true,1.00,16,318,8,1,83,14
ge-66,true,1.00,13,258,7,1,81,24
ge-67,true,1.00,15,294,8,1,84,29
ge-68,true,1.00,16,316,10,1,87,24
ge-69,true,1.00,10,223,4,1,46,4
ge-70,true,1.00,12,251,3,1,49,3
ge-71,true,1.00,16,324,6,1,85,26
ge-72,true,1.00,19,328,10,1,124,62
ge-73,true,1.00,10,211,4,1,42,3
ge-74,true,1.00,49,329,41,2,742,35
ge-75,true,1.00,16,334,7,1,76,15
ge-76,true,1.00,12,255,8,1,59,3
ge-77,true,1.00,16,318,9,1,88,32
ge-78,true,1.00,18,340,7,1,110,42
ge-79,true,1.00,11,225,6,1,63,23
ge-80,true,1.00,15,273,10,1,83,46
ge-81,true,1.00,14,261,8,1,71,33
ge-82,true,1.00,19,338,10,1,111,42
ge-83,true,1.00,25,415,15,1,169,59
ge-84,true,1.00,11,246,6,1,55,7
ge-85,true,1.00,9,199,2,1,37,1
ge-86,true,1.00,12,246,7,1,62,12
ge-87,true,1.00,12,259,6,1,57,7
ge-88,true,1.00,20,362,12,1,113,47
ge-89,true,1.00,21,350,13,1,155,72
ge-90,true,1.00,10,199,4,1,36,1
ge-91,true,1.00,10,222,4,1,44,7
ge-92,true,1.00,11,222,4,1,41,3
ge-93,true,1.00,15,289,9,1,84,30
ge-94,true,1.00,10,222,6,1,44,3
ge-95,true,1.00,21,371,11,1,140,48
ge-96,true,1.00,18,353,8,1,98,20
ge-97,true,1.00,17,331,6,1,85,26
ge-98,true,1.00,8,199,2,1,36,1
ge-99,true,1.00,9,199,3,1,37,1
ge-100,true,1.00,20,317,12,1,132,85
