NDW:0.0
TTFW:1.6
DFPT:2.0
DFPAP:3.0
DFPMP:0.0
SEARCH_STEPS:2.0
TIME_TO_FINISH:2.0
level,win/fail,% travelled,run time,game ticks,planning time,total plannings,nodes evaluated,most backtracked nodes
notchParamRand-1,true,1.00,11,319,9,1,844,453
notchParamRand-2,true,1.00,5,306,4,1,219,44
notchParamRand-3,true,1.00,14,339,13,1,1440,489
notchParamRand-4,true,1.00,9,356,7,1,635,101
notchParamRand-5,true,1.00,5,302,4,1,277,44
notchParamRand-6,true,1.00,6,312,4,1,355,60
notchParamRand-7,true,1.00,5,306,4,1,249,58
notchParamRand-8,true,1.00,5,317,3,1,211,20
notchParamRand-9,true,1.00,6,328,4,1,330,47
notchParamRand-10,true,1.00,8,349,6,1,528,198
notchParamRand-11,true,1.00,4,308,2,1,168,9
notchParamRand-12,true,1.00,7,322,5,1,384,60
notchParamRand-13,true,1.00,14,331,12,1,1392,341
notchParamRand-14,true,1.00,11,334,9,1,995,517
notchParamRand-15,true,1.00,6,318,5,1,391,61
notchParamRand-16,true,1.00,7,340,5,1,457,131
notchParamRand-17,true,1.00,5,306,3,1,201,26
notchParamRand-18,true,1.00,13,348,11,1,1261,495
notchParamRand-19,true,1.00,5,315,3,1,238,49
notchParamRand-20,true,1.00,15,379,12,1,1292,362
notchParamRand-21,true,1.00,5,315,3,1,189,12
notchParamRand-22,true,1.00,8,331,6,1,644,71
notchParamRand-23,true,1.00,29,375,26,1,917,280
notchParamRand-24,true,1.00,5,324,3,1,246,44
notchParamRand-25,true,1.00,5,302,3,1,181,28
notchParamRand-26,true,1.00,7,373,5,1,399,55
notchParamRand-27,true,1.00,6,322,3,1,261,38
notchParamRand-28,true,1.00,7,331,6,1,496,74
notchParamRand-29,true,1.00,5,294,3,1,183,28
notchParamRand-30,true,1.00,9,354,7,1,688,97
notchParamRand-31,true,1.00,6,317,5,1,384,60
notchParamRand-32,true,1.00,4,298,3,1,191,15
notchParamRand-33,true,1.00,7,318,5,1,494,52
notchParamRand-34,true,1.00,5,325,3,1,271,49
notchParamRand-35,true,1.00,5,337,4,1,322,44
notchParamRand-36,true,1.00,5,294,3,1,184,28
notchParamRand-37,true,1.00,7,314,5,1,413,60
notchParamRand-38,true,1.00,12,330,10,1,1187,409
notchParamRand-39,true,1.00,8,359,6,1,509,99
notchParamRand-40,true,1.00,20,388,18,1,2022,587
notchParamRand-41,true,1.00,4,294,3,1,148,1
notchParamRand-42,true,1.00,7,302,5,1,512,60
notchParamRand-43,true,1.00,5,302,3,1,211,47
notchParamRand-44,true,1.00,7,318,5,1,410,60
notchParamRand-45,true,1.00,7,317,5,1,495,106
notchParamRand-46,true,1.00,12,328,11,1,1176,407
notchParamRand-47,true,1.00,7,332,5,1,457,60
notchParamRand-48,true,1.00,10,334,9,1,914,341
notchParamRand-49,true,1.00,7,314,5,1,470,60
notchParamRand-50,true,1.00,8,349,6,1,657,83
notchParamRand-51,true,1.00,6,314,4,1,323,60
notchParamRand-52,true,1.00,10,344,8,1,988,455
notchParamRand-53,true,1.00,23,318,21,1,434,55
notchParamRand-54,true,1.00,9,356,7,1,702,280
notchParamRand-55,true,1.00,11,335,9,1,955,267
notchParamRand-56,true,1.00,6,332,5,1,309,44
notchParamRand-57,true,1.00,7,318,5,1,528,60
notchParamRand-58,true,1.00,8,339,6,1,580,61
notchParamRand-59,true,1.00,6,323,4,1,449,60
notchParamRand-60,true,1.00,7,326,6,1,664,101
notchParamRand-61,true,1.00,5,313,3,1,272,41
notchParamRand-62,true,1.00,8,357,6,1,523,60
notchParamRand-63,true,1.00,12,330,10,1,1036,479
notchParamRand-64,true,1.00,6,298,4,1,271,61
notchParamRand-65,true,1.00,9,343,7,1,792,95
notchParamRand-66,true,1.00,4,328,2,1,195,28
notchParamRand-67,true,1.00,5,317,4,1,259,52
notchParamRand-68,true,1.00,8,338,6,1,551,93
notchParamRand-69,true,1.00,5,302,3,1,233,47
notchParamRand-70,true,1.00,9,369,7,1,647,60
notchParamRand-71,true,1.00,6,321,4,1,412,60
notchParamRand-72,true,1.00,5,298,3,1,186,17
notchParamRand-73,true,1.00,5,324,3,1,248,43
notchParamRand-74,true,1.00,5,303,3,1,242,60
notchParamRand-75,true,1.00,4,294,3,1,162,7
notchParamRand-76,true,1.00,6,343,4,1,306,49
notchParamRand-77,true,1.00,9,354,7,1,595,99
notchParamRand-78,true,1.00,6,339,4,1,413,50
notchParamRand-79,true,1.00,6,313,4,1,290,60
notchParamRand-80,true,1.00,5,302,3,1,174,25
notchParamRand-81,true,1.00,6,310,4,1,374,60
notchParamRand-82,true,1.00,7,322,6,1,514,60
notchParamRand-83,true,1.00,8,340,6,1,647,97
notchParamRand-84,true,1.00,6,311,4,1,448,60
notchParamRand-85,true,1.00,4,294,2,1,148,1
notchParamRand-86,true,1.00,9,376,7,1,521,61
notchParamRand-87,true,1.00,12,346,10,1,1082,368
notchParamRand-88,true,1.00,6,330,4,1,322,60
notchParamRand-89,true,1.00,6,319,4,1,393,60
notchParamRand-90,true,1.00,5,315,3,1,318,91
notchParamRand-91,true,1.00,5,305,3,1,155,1
notchParamRand-92,true,1.00,7,369,5,1,469,49
notchParamRand-93,true,1.00,6,321,4,1,238,28
notchParamRand-94,true,1.00,9,326,7,1,745,277
notchParamRand-95,true,1.00,6,326,4,1,440,52
notchParamRand-96,true,1.00,8,344,6,1,674,305
notchParamRand-97,true,1.00,12,350,10,1,1114,277
notchParamRand-98,true,1.00,5,314,3,1,213,28
notchParamRand-99,true,1.00,7,310,6,1,500,62
notchParamRand-100,true,1.00,17,341,15,1,1913,429
