NDW:0.0
TTFW:0.4
DFPT:2.0
DFPAP:3.0
DFPMP:0.0
SEARCH_STEPS:20.0
TIME_TO_FINISH:2.0
level,win/fail,% travelled,run time,game ticks,planning time,total plannings,nodes evaluated,most backtracked nodes
patternOccur-1,false,0.44,929,999,903,999,6318,4
patternOccur-2,false,0.15,58,63,57,63,572,5
patternOccur-3,false,0.17,508,999,486,999,3558,6
patternOccur-4,false,0.18,636,999,614,999,5212,8
patternOccur-5,false,0.73,1395,999,1367,999,10349,20
patternOccur-6,false,0.03,2,21,2,21,27,1
patternOccur-7,false,0.20,587,999,573,999,4481,3
patternOccur-8,false,0.45,1551,999,1534,999,11991,6
patternOccur-9,false,0.41,347,322,339,322,3220,3
patternOccur-10,false,0.17,379,999,350,999,2488,2
patternOccur-11,false,0.30,660,999,637,999,5055,2
patternOccur-12,false,0.16,148,168,141,168,1189,3
patternOccur-13,false,0.21,126,177,122,177,1129,4
patternOccur-14,false,0.09,341,999,328,999,2008,1
patternOccur-15,false,0.33,576,999,561,999,4245,5
patternOccur-16,false,0.30,765,999,741,999,6264,3
patternOccur-17,false,0.65,798,524,790,524,6737,8
patternOccur-18,false,0.49,742,999,718,999,5965,12
patternOccur-19,false,0.23,77,134,76,134,769,3
patternOccur-20,false,0.30,1039,999,1009,999,7259,5
patternOccur-21,false,0.66,803,999,783,999,6279,6
patternOccur-22,false,0.06,34,74,33,74,299,2
patternOccur-23,false,0.00,348,999,323,999,1978,0
patternOccur-24,false,0.30,654,999,638,999,4135,3
patternOccur-25,false,0.13,77,100,76,100,600,3
patternOccur-26,false,0.21,1099,999,1082,999,6948,6
patternOccur-27,false,0.36,294,198,293,198,2052,3
patternOccur-28,false,0.10,467,999,438,999,3539,2
patternOccur-29,false,0.40,902,420,893,420,7705,16
patternOccur-30,false,0.03,11,41,10,41,99,2
patternOccur-31,false,0.33,472,261,466,261,4169,9
patternOccur-32,false,0.04,362,999,337,999,2074,2
patternOccur-33,false,0.56,1267,999,1238,999,9911,5
patternOccur-34,false,0.13,98,123,96,123,921,2
patternOccur-35,false,0.25,99,142,95,142,930,12
patternOccur-36,false,0.32,74,140,67,140,721,3
patternOccur-37,false,0.32,974,999,956,999,8593,4
patternOccur-38,false,0.21,105,135,102,135,833,2
patternOccur-39,false,0.11,160,109,158,109,967,3
patternOccur-40,false,0.85,844,548,822,548,6022,10
patternOccur-41,false,0.06,20,48,19,48,178,2
patternOccur-42,false,0.00,443,999,417,999,1978,0
patternOccur-43,false,0.34,312,270,301,270,2343,12
patternOccur-44,false,0.31,597,999,568,999,3689,7
patternOccur-45,false,0.47,1583,1008,1556,1008,10700,17
patternOccur-46,false,0.02,942,999,915,999,4855,4
patternOccur-47,false,0.25,287,181,285,181,2029,3
patternOccur-48,false,0.24,851,999,819,999,5512,10
patternOccur-49,false,0.29,2774,999,2745,999,22590,5
patternOccur-50,false,0.00,352,999,333,999,1978,0
patternOccur-51,false,0.43,684,999,659,999,5214,10
patternOccur-52,false,0.72,501,535,492,535,4276,5
patternOccur-53,false,0.14,385,999,362,999,2153,2
patternOccur-54,false,0.03,3,24,3,24,32,1
patternOccur-55,false,0.32,248,224,244,224,2063,8
patternOccur-56,false,0.13,109,98,107,98,815,4
patternOccur-57,false,0.34,304,246,299,246,2549,2
patternOccur-58,false,0.79,882,668,869,668,7554,9
patternOccur-59,false,0.11,11,44,10,44,125,2
patternOccur-60,false,0.65,1080,1008,1060,1008,7925,3
patternOccur-61,false,0.41,508,379,502,379,4723,14
patternOccur-62,false,0.33,427,999,411,999,2910,3
patternOccur-63,false,0.60,457,415,448,415,4082,5
patternOccur-64,false,0.27,614,999,592,999,4450,5
patternOccur-65,false,0.10,85,94,82,94,747,3
patternOccur-66,false,0.00,532,999,513,999,2957,1
patternOccur-67,false,0.11,101,93,100,93,754,5
patternOccur-68,false,0.55,1538,999,1512,999,12182,8
patternOccur-69,false,0.62,1660,999,1637,999,13750,6
patternOccur-70,false,0.07,28,49,26,49,285,5
patternOccur-71,false,0.12,86,126,84,126,795,3
patternOccur-72,false,0.20,234,166,231,166,1884,4
patternOccur-73,false,0.83,1087,670,1074,670,8763,5
patternOccur-74,false,0.05,20,43,17,43,169,2
patternOccur-75,false,0.43,370,334,361,334,3198,3
patternOccur-76,false,0.16,26,62,25,62,268,1
patternOccur-77,false,0.15,507,999,488,999,3608,2
patternOccur-78,false,0.00,377,999,356,999,1978,0
patternOccur-79,false,0.16,34,76,32,76,307,2
patternOccur-80,false,0.07,658,999,636,999,5105,1
patternOccur-81,false,0.20,146,167,142,167,1181,7
patternOccur-82,false,0.69,1081,665,1070,665,8817,5
patternOccur-83,false,0.26,1323,999,1307,999,8882,15
patternOccur-84,false,0.13,83,81,79,81,680,9
patternOccur-85,false,0.00,340,999,319,999,1978,0
patternOccur-86,false,0.27,268,233,261,233,1975,4
patternOccur-87,true,1.00,1146,767,1132,664,9304,6
patternOccur-88,false,0.04,14,45,12,45,113,2
patternOccur-89,false,0.09,42,86,41,86,358,2
patternOccur-90,false,0.00,331,999,318,999,1978,0
patternOccur-91,false,0.07,32,52,30,52,280,5
patternOccur-92,false,0.23,219,152,215,152,1939,5
patternOccur-93,false,0.05,20,44,19,44,171,2
patternOccur-94,false,0.08,29,53,28,53,198,3
patternOccur-95,false,0.08,411,999,389,999,3335,4
patternOccur-96,false,0.09,7,41,5,41,84,2
patternOccur-97,false,0.03,361,999,336,999,2066,3
patternOccur-98,false,0.78,758,570,744,570,5852,6
patternOccur-99,false,0.00,356,999,338,999,1978,0
patternOccur-100,false,0.16,446,238,440,238,3165,3
