NDW:0.0
TTFW:1.0
DFPT:2.0
DFPAP:3.0
DFPMP:3.0
SEARCH_STEPS:10.0
TIME_TO_FINISH:2.0
level,win/fail,% travelled,run time,game ticks,planning time,total plannings,nodes evaluated,most backtracked nodes
notchParamRand-1,true,1.00,6,466,3,1,63,4
notchParamRand-2,true,1.00,4,321,2,1,34,1
notchParamRand-3,true,1.00,8,539,5,1,103,11
notchParamRand-4,true,1.00,10,558,6,1,122,22
notchParamRand-5,true,1.00,4,294,2,1,32,1
notchParamRand-6,true,1.00,5,374,2,1,45,3
notchParamRand-7,true,1.00,4,350,2,1,37,1
notchParamRand-8,true,1.00,4,294,2,1,32,1
notchParamRand-9,true,1.00,7,461,5,1,61,9
notchParamRand-10,true,1.00,7,420,4,1,71,19
notchParamRand-11,true,1.00,4,323,2,1,35,1
notchParamRand-12,true,1.00,4,361,2,1,40,2
notchParamRand-13,true,1.00,12,661,9,1,160,35
notchParamRand-14,true,1.00,8,516,5,1,85,34
notchParamRand-15,true,1.00,8,533,6,1,91,17
notchParamRand-16,true,1.00,6,426,4,1,58,6
notchParamRand-17,true,1.00,4,322,2,1,36,2
notchParamRand-18,true,1.00,10,681,6,1,103,10
notchParamRand-19,true,1.00,5,423,3,1,56,6
notchParamRand-20,true,1.00,18,620,15,1,304,72
notchParamRand-21,true,1.00,5,357,3,1,39,2
notchParamRand-22,true,1.00,8,584,5,1,76,14
notchParamRand-23,true,1.00,10,643,6,1,127,43
notchParamRand-24,true,1.00,4,348,2,1,36,2
notchParamRand-25,true,1.00,5,353,3,1,37,1
notchParamRand-26,true,1.00,7,470,4,1,59,10
notchParamRand-27,true,1.00,5,385,4,1,44,6
notchParamRand-28,true,1.00,7,465,4,1,65,6
notchParamRand-29,true,1.00,5,373,2,1,41,2
notchParamRand-30,true,1.00,25,660,21,1,407,309
notchParamRand-31,true,1.00,5,396,2,1,49,5
notchParamRand-32,true,1.00,4,323,2,1,35,1
notchParamRand-33,true,1.00,5,374,3,1,67,11
notchParamRand-34,true,1.00,5,367,3,1,41,2
notchParamRand-35,true,1.00,5,351,3,1,42,1
notchParamRand-36,true,1.00,4,305,2,1,33,1
notchParamRand-37,true,1.00,5,345,2,1,37,2
notchParamRand-38,true,1.00,7,474,4,1,90,29
notchParamRand-39,true,1.00,3274,539,3272,110,75747,345
notchParamRand-40,true,1.00,10,655,6,1,132,33
notchParamRand-41,true,1.00,5,343,3,1,37,3
notchParamRand-42,true,1.00,5,395,3,1,51,3
notchParamRand-43,true,1.00,5,354,3,1,46,11
notchParamRand-44,true,1.00,5,323,3,1,43,5
notchParamRand-45,true,1.00,6,453,4,1,60,4
notchParamRand-46,true,1.00,5,385,3,1,44,2
notchParamRand-47,true,1.00,8,581,5,1,80,19
notchParamRand-48,true,1.00,5,415,3,1,55,3
notchParamRand-49,true,1.00,6,405,3,1,48,3
notchParamRand-50,true,1.00,9,692,5,1,104,11
notchParamRand-51,true,1.00,4,323,2,1,36,1
notchParamRand-52,true,1.00,5,390,3,1,51,11
notchParamRand-53,true,1.00,8,513,5,1,92,21
notchParamRand-54,true,1.00,175,721,172,6,3959,512
notchParamRand-55,true,1.00,11,635,8,1,135,37
notchParamRand-56,true,1.00,6,423,3,1,67,11
notchParamRand-57,true,1.00,12,676,8,1,136,19
notchParamRand-58,true,1.00,7,498,4,1,67,12
notchParamRand-59,true,1.00,5,353,3,1,39,2
notchParamRand-60,true,1.00,9,448,6,1,101,32
notchParamRand-61,true,1.00,5,314,3,1,36,1
notchParamRand-62,true,1.00,5,413,3,1,50,3
notchParamRand-63,true,1.00,7,501,4,1,71,5
notchParamRand-64,true,1.00,4,314,2,1,35,2
notchParamRand-65,true,1.00,12,630,8,1,163,39
notchParamRand-66,true,1.00,11,642,7,1,109,54
notchParamRand-67,true,1.00,4,294,2,1,33,1
notchParamRand-68,true,1.00,22,920,17,1,292,90
notchParamRand-69,true,1.00,8,471,5,1,80,22
notchParamRand-70,true,1.00,12,537,9,1,157,46
notchParamRand-71,true,1.00,5,372,3,1,44,2
notchParamRand-72,true,1.00,6,373,3,1,42,3
notchParamRand-73,true,1.00,6,404,3,1,52,6
notchParamRand-74,true,1.00,4,294,2,1,32,1
notchParamRand-75,true,1.00,4,302,2,1,32,1
notchParamRand-76,true,1.00,4,361,2,1,40,2
notchParamRand-77,true,1.00,13,628,10,1,175,47
notchParamRand-78,true,1.00,6,435,4,1,63,11
notchParamRand-79,true,1.00,8,498,5,1,71,10
notchParamRand-80,true,1.00,4,363,2,1,41,2
notchParamRand-81,true,1.00,4,294,2,1,32,1
notchParamRand-82,true,1.00,9,621,5,1,93,25
notchParamRand-83,true,1.00,7,500,4,1,69,11
notchParamRand-84,true,1.00,5,373,3,1,54,17
notchParamRand-85,true,1.00,4,294,2,1,31,1
notchParamRand-86,true,1.00,7,536,4,1,66,6
notchParamRand-87,true,1.00,12,626,9,1,173,70
notchParamRand-88,true,1.00,5,363,2,1,45,5
notchParamRand-89,true,1.00,7,479,4,1,78,9
notchParamRand-90,true,1.00,38,390,35,2,679,262
notchParamRand-91,true,1.00,4,322,2,1,34,1
notchParamRand-92,true,1.00,8,496,5,1,77,28
notchParamRand-93,true,1.00,4,339,2,1,35,1
notchParamRand-94,true,1.00,14,819,10,1,184,33
notchParamRand-95,true,1.00,4,355,2,1,42,3
notchParamRand-96,true,1.00,11,675,7,1,138,54
notchParamRand-97,true,1.00,12,810,8,1,139,16
notchParamRand-98,true,1.00,8,511,5,1,79,22
notchParamRand-99,true,1.00,5,324,3,1,37,1
notchParamRand-100,true,1.00,10,635,8,1,148,55
