NDW:0.0
TTFW:2.0
DFPT:2.0
DFPAP:3.0
DFPMP:5.0
SEARCH_STEPS:1.0
TIME_TO_FINISH:2.0
level,win/fail,% travelled,run time,game ticks,planning time,total plannings,nodes evaluated,most backtracked nodes
Krys-1,true,1.00,12861,553,12860,385,1632603,1469
Krys-2,true,1.00,28,463,25,1,2742,1115
Krys-3,true,1.00,10126,502,10125,304,1304760,1683
Krys-4,true,1.00,93,506,90,3,11021,1101
Krys-5,true,1.00,18,377,15,1,1977,494
Krys-6,false,0.59,32392,999,32391,999,4680971,2466
Krys-7,true,1.00,14,457,11,1,1267,419
Krys-8,true,1.00,23,466,19,1,2622,1116
Krys-9,true,1.00,33,450,30,1,4061,1600
Krys-10,true,1.00,13796,504,13795,417,1864712,4355
Krys-11,true,1.00,12,486,9,1,1113,170
Krys-12,true,1.00,11393,513,11391,350,1500244,3242
Krys-13,true,1.00,27,429,25,1,3167,772
Krys-14,true,1.00,22,426,19,1,2228,1470
Krys-15,true,1.00,16438,604,16437,487,2176852,4834
Krys-16,true,1.00,30,526,28,1,2935,1334
Krys-17,true,1.00,1075,512,1072,33,138353,460
Krys-18,true,1.00,21,459,18,1,2426,569
Krys-19,false,0.14,1264,50,1264,50,191105,2751
Krys-20,false,0.69,14258,433,14258,433,1925794,2456
Krys-21,true,1.00,13,420,10,1,1572,237
Krys-22,true,1.00,10,419,7,1,1006,125
Krys-23,true,1.00,199,548,196,6,25663,2444
Krys-24,true,1.00,5305,494,5302,161,684039,4087
Krys-25,true,1.00,1693,458,1690,52,229376,355
Krys-26,true,1.00,1759,384,1757,52,177754,2375
Krys-27,true,1.00,7402,437,7399,224,1021787,3167
Krys-28,true,1.00,12813,552,12811,386,1698148,1842
Krys-29,true,1.00,7406,519,7404,223,961445,3790
Krys-30,true,1.00,13856,598,13854,422,1781668,3366
Krys-31,true,1.00,14,449,11,1,1390,200
Krys-32,true,1.00,14,423,11,1,1598,272
Krys-33,true,1.00,13,455,9,1,1249,159
Krys-34,true,1.00,13,450,10,1,1582,162
Krys-35,true,1.00,33,516,30,1,3865,1684
Krys-36,true,1.00,11899,443,11898,360,1542435,322
Krys-37,true,1.00,3364,481,3362,102,475449,2054
Krys-38,true,1.00,9474,431,9473,279,1300462,2404
Krys-39,true,1.00,11954,440,11953,357,1611739,1766
Krys-40,false,0.80,13796,424,13796,424,1969812,2465
Krys-41,true,1.00,10814,493,10813,327,1408758,322
Krys-42,true,1.00,21,428,18,1,2664,474
Krys-43,true,1.00,17,385,14,1,2168,538
Krys-44,true,1.00,10138,436,10137,306,1336695,813
Krys-45,true,1.00,69,582,65,2,7916,1399
Krys-46,true,1.00,4904,535,4900,146,644235,3468
Krys-47,true,1.00,119,491,115,4,15706,518
Krys-48,false,0.14,1237,50,1237,50,191747,2751
Krys-49,true,1.00,10,447,6,1,831,102
Krys-50,true,1.00,10930,467,10929,323,1375559,2270
Krys-51,true,1.00,11584,462,11583,350,1559534,3852
Krys-52,true,1.00,490,468,487,14,55810,1391
Krys-53,true,1.00,9030,496,9027,271,1175434,2178
Krys-54,false,0.80,12954,392,12952,392,1718088,4532
Krys-55,true,1.00,6504,508,6502,194,839339,3313
Krys-56,false,0.59,32555,999,32554,999,4603879,667
Krys-57,true,1.00,24,374,21,1,2729,896
Krys-58,true,1.00,10031,494,10029,303,1362049,4131
Krys-59,false,0.38,32436,999,32432,999,4758529,1149
Krys-60,true,1.00,11508,432,11507,349,1500973,322
Krys-61,true,1.00,16,457,13,1,1841,228
Krys-62,true,1.00,28,522,24,1,2663,1678
Krys-63,true,1.00,5970,620,5967,180,799890,2688
Krys-64,true,1.00,2733,481,2730,83,366216,3285
Krys-65,true,1.00,16,474,13,1,1724,295
Krys-66,true,1.00,15857,611,15856,477,1966802,1832
Krys-67,false,0.71,11714,360,11714,360,1464703,3866
Krys-68,true,1.00,28,366,25,1,3543,1181
Krys-69,true,1.00,13915,542,13913,414,1765250,2099
Krys-70,true,1.00,8468,637,8466,255,1200336,4420
Krys-71,true,1.00,30,456,26,1,3938,2001
Krys-72,true,1.00,22,450,19,1,2195,342
Krys-73,true,1.00,13170,545,13168,397,1613388,1993
Krys-74,true,1.00,23,445,19,1,2418,753
Krys-75,true,1.00,15,452,11,1,1381,473
Krys-76,true,1.00,5177,419,5175,157,712631,1850
Krys-77,true,1.00,9,428,6,1,873,125
Krys-78,true,1.00,5558,523,5556,168,792286,4600
Krys-79,true,1.00,24,485,20,1,2437,1376
Krys-80,true,1.00,16,529,13,1,1642,563
Krys-81,true,1.00,15,447,12,1,1722,214
Krys-82,true,1.00,20,448,17,1,2003,1262
Krys-83,true,1.00,4125,452,4122,122,514404,2317
Krys-84,true,1.00,9,402,6,1,629,44
Krys-85,true,1.00,93,513,90,3,11257,444
Krys-86,true,1.00,4109,409,4107,125,564525,3812
Krys-87,true,1.00,21,492,18,1,1951,1203
Krys-88,true,1.00,11,458,8,1,1237,308
Krys-89,true,1.00,11,426,8,1,1029,148
Krys-90,true,1.00,26,394,23,1,3710,949
Krys-91,true,1.00,9,433,6,1,693,159
Krys-92,true,1.00,13915,494,13915,420,1759108,3396
Krys-93,true,1.00,10888,527,10886,327,1461742,3721
Krys-94,true,1.00,8,406,6,1,828,96
Krys-95,true,1.00,20,439,17,1,1898,597
Krys-96,true,1.00,32,390,29,1,4050,952
Krys-97,true,1.00,14,439,11,1,1618,293
Krys-98,false,0.83,16804,520,16803,520,2072001,3392
Krys-99,true,1.00,88,450,85,3,9389,1051
Krys-100,true,1.00,12,376,9,1,1516,271
