NDW:0.0
TTFW:2.0
DFPT:2.0
DFPAP:3.0
DFPMP:7.0
SEARCH_STEPS:8.0
TIME_TO_FINISH:2.0
level,win/fail,% travelled,run time,game ticks,planning time,total plannings,nodes evaluated,most backtracked nodes
patternWeightCount-1,true,1.00,25114,922,25113,866,670422,620
patternWeightCount-2,true,1.00,11,709,6,1,116,8
patternWeightCount-3,true,1.00,17,715,12,1,256,103
patternWeightCount-4,true,1.00,14,755,9,1,179,61
patternWeightCount-5,true,1.00,1609,923,1603,49,31871,191
patternWeightCount-6,true,1.00,15,839,10,1,179,27
patternWeightCount-7,true,1.00,14,728,9,1,175,78
patternWeightCount-8,true,1.00,30,607,26,1,371,291
patternWeightCount-9,true,1.00,17,877,11,1,210,58
patternWeightCount-10,true,1.00,15,663,10,10,244,21
patternWeightCount-11,true,1.00,11,716,7,1,113,12
patternWeightCount-12,true,1.00,18,936,11,1,213,46
patternWeightCount-13,true,1.00,14,780,9,1,175,69
patternWeightCount-14,true,1.00,13,829,8,1,154,27
patternWeightCount-15,true,1.00,13,647,9,1,164,22
patternWeightCount-16,true,1.00,17,811,11,1,225,32
patternWeightCount-17,true,1.00,19,859,14,1,262,67
patternWeightCount-18,true,1.00,23,997,16,1,353,113
patternWeightCount-19,true,1.00,11,627,6,1,121,8
patternWeightCount-20,true,1.00,3665,655,3661,113,70615,556
patternWeightCount-21,true,1.00,14,708,9,1,147,41
patternWeightCount-22,true,1.00,28,862,23,1,483,122
patternWeightCount-23,true,1.00,11,645,7,1,138,11
patternWeightCount-24,true,1.00,11,605,8,1,143,17
patternWeightCount-25,true,1.00,149,804,144,5,3223,372
patternWeightCount-26,true,1.00,17,817,11,1,224,74
patternWeightCount-27,true,1.00,19,883,12,1,238,59
patternWeightCount-28,true,1.00,14,728,9,1,168,16
patternWeightCount-29,true,1.00,11,579,7,1,120,26
patternWeightCount-30,true,1.00,29148,1005,29148,973,622309,751
patternWeightCount-31,true,1.00,2779,541,2776,85,57436,253
patternWeightCount-32,true,1.00,9,562,5,1,92,13
patternWeightCount-33,false,0.02,6,25,6,25,148,6
patternWeightCount-34,true,1.00,8539,673,8536,266,185920,362
patternWeightCount-35,true,1.00,10391,829,10387,331,230797,487
patternWeightCount-36,true,1.00,15,796,10,1,186,34
patternWeightCount-37,true,1.00,10,654,5,1,93,3
patternWeightCount-38,true,1.00,9943,752,9940,306,218378,235
patternWeightCount-39,true,1.00,9,523,5,1,89,5
patternWeightCount-40,true,1.00,76,682,72,11,1623,103
patternWeightCount-41,true,1.00,20,828,14,1,274,61
patternWeightCount-42,true,1.00,21883,917,21882,684,456410,332
patternWeightCount-43,true,1.00,13,752,8,1,159,21
patternWeightCount-44,true,1.00,14,776,8,1,147,10
patternWeightCount-45,false,1.00,29410,999,29410,999,660358,660
patternWeightCount-46,true,1.00,28791,974,28790,945,637541,446
patternWeightCount-47,true,1.00,11,688,6,1,116,18
patternWeightCount-48,true,1.00,8,542,6,1,78,6
patternWeightCount-49,true,1.00,11,588,6,1,129,26
patternWeightCount-50,true,1.00,9,559,5,1,92,6
patternWeightCount-51,true,1.00,27,926,21,1,413,128
patternWeightCount-52,true,1.00,20,955,13,1,249,73
patternWeightCount-53,true,1.00,128,959,122,4,2675,126
patternWeightCount-54,true,1.00,25,755,20,13,432,18
patternWeightCount-55,true,1.00,14,788,8,1,154,45
patternWeightCount-56,true,1.00,15,845,10,1,169,13
patternWeightCount-57,true,1.00,9,565,5,1,105,18
patternWeightCount-58,true,1.00,12,678,7,3,122,11
patternWeightCount-59,true,1.00,13,743,8,1,127,23
patternWeightCount-60,true,1.00,18,830,12,1,212,34
patternWeightCount-61,false,0.02,8,29,8,29,206,12
patternWeightCount-62,true,1.00,24273,997,24271,773,619148,625
patternWeightCount-63,true,1.00,70,833,65,2,1456,481
patternWeightCount-64,true,1.00,12,651,7,1,138,13
patternWeightCount-65,true,1.00,24,927,19,1,349,70
patternWeightCount-66,true,1.00,17,873,11,1,239,33
patternWeightCount-67,true,1.00,17,878,11,1,212,31
patternWeightCount-68,true,1.00,12977,564,12976,401,182260,93
patternWeightCount-69,true,1.00,394,1005,387,12,8380,216
patternWeightCount-70,true,1.00,16,830,10,1,194,36
patternWeightCount-71,true,1.00,14,721,10,1,153,49
patternWeightCount-72,true,1.00,20860,766,20859,712,464519,124
patternWeightCount-73,false,0.87,16455,642,16454,642,395290,131
patternWeightCount-74,true,1.00,19,839,13,1,259,44
patternWeightCount-75,true,1.00,13,796,8,1,156,23
patternWeightCount-76,true,1.00,14,735,8,1,139,12
patternWeightCount-77,true,1.00,18,873,12,1,231,48
patternWeightCount-78,false,0.81,26331,869,26330,869,580571,272
patternWeightCount-79,true,1.00,13,664,9,1,151,19
patternWeightCount-80,true,1.00,16,790,11,10,204,20
patternWeightCount-81,true,1.00,18260,782,18256,752,402911,391
patternWeightCount-82,true,1.00,8,552,5,1,85,6
patternWeightCount-83,true,1.00,11,629,6,1,122,27
patternWeightCount-84,true,1.00,14,821,8,1,160,23
patternWeightCount-85,true,1.00,4854,969,4849,147,113232,488
patternWeightCount-86,false,0.99,23340,773,23340,773,486162,415
patternWeightCount-87,false,0.88,27852,917,27851,917,652363,380
patternWeightCount-88,true,1.00,35,883,30,1,561,235
patternWeightCount-89,true,1.00,15,742,10,1,187,50
patternWeightCount-90,true,1.00,24419,895,24418,795,542899,411
patternWeightCount-91,true,1.00,13,773,8,1,147,12
patternWeightCount-92,true,1.00,23358,868,23357,742,504451,602
patternWeightCount-93,true,1.00,23294,845,23293,717,512950,442
patternWeightCount-94,true,1.00,13,763,8,1,139,16
patternWeightCount-95,true,1.00,152,601,148,5,3231,573
patternWeightCount-96,true,1.00,16,780,11,1,210,68
patternWeightCount-97,true,1.00,13,692,8,1,159,21
patternWeightCount-98,false,0.98,18772,833,18770,833,454204,763
patternWeightCount-99,true,1.00,8459,817,8455,258,178965,317
patternWeightCount-100,true,1.00,22,696,17,1,305,152
