NDW:0.0
TTFW:1.6
DFPT:2.0
DFPAP:3.0
DFPMP:5.0
SEARCH_STEPS:6.0
TIME_TO_FINISH:2.0
level,win/fail,% travelled,run time,game ticks,planning time,total plannings,nodes evaluated,most backtracked nodes
Mario-1,true,1.00,6,445,5,1,90,4
Mario-2,true,1.00,8,401,5,1,112,20
Mario-3,true,1.00,9,443,6,1,159,63
Mario-4,true,1.00,18,786,13,1,295,48
Mario-5,true,1.00,17,600,13,1,301,114
Mario-6,true,1.00,25,479,23,1,580,347
Mario-7,true,1.00,18,699,14,1,315,80
Mario-8,true,1.00,34,501,31,1,752,247
Mario-9,true,1.00,8,478,5,1,97,13
Mario-10,true,1.00,7,377,5,1,105,12
Mario-11,true,1.00,10,527,7,1,146,32
Mario-12,true,1.00,25,1025,19,1,464,91
Mario-13,true,1.00,7,425,4,1,102,7
Mario-14,true,1.00,9,545,7,1,124,5
Mario-15,true,1.00,33140,1228,33138,1020,869278,244
