NDW:0.0
TTFW:1.2
DFPT:2.0
DFPAP:3.0
DFPMP:50.0
SEARCH_STEPS:2.0
TIME_TO_FINISH:2.0
level,win/fail,% travelled,run time,game ticks,planning time,total plannings,nodes evaluated,most backtracked nodes
ore-1,true,1.00,11,491,8,1,548,98
ore-2,true,1.00,9,464,6,1,419,46
ore-3,true,1.00,9,518,6,1,466,37
ore-4,true,1.00,16,545,13,1,885,206
ore-5,true,1.00,11,556,7,1,569,118
ore-6,true,1.00,8,489,5,1,372,14
ore-7,true,1.00,10,497,7,1,521,162
ore-8,true,1.00,17,504,14,1,1220,550
ore-9,true,1.00,8,446,5,1,365,22
ore-10,true,1.00,9,531,6,1,502,73
ore-11,true,1.00,15,612,11,1,824,105
ore-12,true,1.00,41,475,38,2,2998,132
ore-13,true,1.00,26,536,23,1,2003,861
ore-14,true,1.00,11,474,8,1,588,214
ore-15,true,1.00,9,423,6,1,438,61
ore-16,true,1.00,10,525,7,1,546,95
ore-17,true,1.00,12,486,9,1,739,208
ore-18,true,1.00,11,537,8,1,681,124
ore-19,true,1.00,9,520,6,1,425,54
ore-20,true,1.00,9,467,6,1,475,43
ore-21,true,1.00,7,468,4,1,352,53
ore-22,true,1.00,9,494,6,1,456,139
ore-23,true,1.00,8,434,5,1,359,31
ore-24,true,1.00,18,470,15,1,1258,589
ore-25,true,1.00,11,480,8,1,671,250
ore-26,true,1.00,11,487,8,1,587,205
ore-27,true,1.00,7,410,5,1,304,20
ore-28,true,1.00,8,429,5,1,375,31
ore-29,true,1.00,29,476,27,1,2040,1628
ore-30,true,1.00,9,489,6,1,469,84
ore-31,true,1.00,9,471,6,1,499,94
ore-32,true,1.00,14,490,11,1,903,284
ore-33,true,1.00,10,495,7,1,455,101
ore-34,true,1.00,8,461,5,1,355,16
ore-35,true,1.00,7,424,4,1,357,49
ore-36,true,1.00,11,461,8,1,634,207
ore-37,true,1.00,10,471,7,1,560,203
ore-38,true,1.00,10,455,7,1,595,147
ore-39,true,1.00,8,494,5,1,400,23
ore-40,true,1.00,18,568,14,1,1086,200
ore-41,true,1.00,10,522,7,1,512,84
ore-42,true,1.00,10,528,7,1,522,76
ore-43,true,1.00,8,498,4,1,376,28
ore-44,true,1.00,13,464,10,1,770,206
ore-45,true,1.00,11,482,8,1,636,237
ore-46,true,1.00,12,430,9,1,711,211
ore-47,true,1.00,9,435,6,1,454,72
ore-48,true,1.00,11,436,8,1,563,228
ore-49,true,1.00,17,463,15,1,1119,323
ore-50,true,1.00,9,484,6,1,513,78
ore-51,true,1.00,12,495,9,1,742,112
ore-52,true,1.00,13,558,10,1,665,213
ore-53,true,1.00,7,431,4,1,309,17
ore-54,true,1.00,12,523,9,1,728,117
ore-55,true,1.00,12,496,10,1,683,241
ore-56,true,1.00,13,536,9,1,853,143
ore-57,true,1.00,7,412,6,1,426,30
ore-58,true,1.00,5091,464,5089,154,464104,27
ore-59,true,1.00,22,558,19,1,1658,520
ore-60,true,1.00,9,452,6,1,514,165
ore-61,true,1.00,12,485,8,1,624,226
ore-62,true,1.00,6,389,4,1,327,37
ore-63,true,1.00,13,503,10,1,714,272
ore-64,true,1.00,7,449,5,1,338,12
ore-65,true,1.00,8,494,5,1,410,21
ore-66,true,1.00,9,464,7,1,484,57
ore-67,true,1.00,15,475,12,1,995,545
ore-68,true,1.00,10,463,8,1,669,313
ore-69,true,1.00,9600,590,9597,290,823396,1809
ore-70,true,1.00,16,513,12,1,1124,343
ore-71,true,1.00,41,465,38,2,2869,33
ore-72,true,1.00,10,467,7,1,592,211
ore-73,true,1.00,26,665,22,1,1884,1154
ore-74,true,1.00,21,511,18,1,1330,710
ore-75,true,1.00,13,524,10,1,693,117
ore-76,true,1.00,8,438,5,1,367,18
ore-77,true,1.00,9,491,7,1,491,101
ore-78,true,1.00,9,462,6,1,388,58
ore-79,true,1.00,8,500,6,1,391,22
ore-80,true,1.00,8,454,5,1,431,95
ore-81,true,1.00,7,463,4,1,356,33
ore-82,true,1.00,1140,511,1137,34,101106,2087
ore-83,true,1.00,17,517,14,1,1069,196
ore-84,true,1.00,9,469,6,1,470,98
ore-85,true,1.00,8,448,5,1,331,24
ore-86,true,1.00,12,492,9,1,691,157
ore-87,true,1.00,8,444,5,1,339,36
ore-88,true,1.00,11,496,10,1,620,147
ore-89,true,1.00,9,505,6,1,480,79
ore-90,false,0.50,9697,306,9697,306,879235,2786
ore-91,true,1.00,8,448,5,1,379,70
ore-92,true,1.00,7,447,5,1,348,39
ore-93,true,1.00,10,490,7,1,630,98
ore-94,true,1.00,3990,462,3988,113,323518,869
ore-95,true,1.00,15,546,12,1,926,228
ore-96,true,1.00,11,552,7,1,617,165
ore-97,true,1.00,8,473,5,1,365,23
ore-98,true,1.00,15,512,12,1,731,273
ore-99,true,1.00,12,505,9,1,823,147
ore-100,true,1.00,19,551,16,1,1481,969
