NDW:0.0
TTFW:2.0
DFPT:2.0
DFPAP:3.0
DFPMP:7.0
SEARCH_STEPS:5.0
TIME_TO_FINISH:2.0
level,win/fail,% travelled,run time,game ticks,planning time,total plannings,nodes evaluated,most backtracked nodes
hopper-1,true,1.00,7,402,4,1,113,10
hopper-2,true,1.00,5,317,3,1,81,4
hopper-3,true,1.00,7,342,5,1,130,47
hopper-4,true,1.00,21,473,17,1,603,516
hopper-5,true,1.00,7,395,4,1,99,7
hopper-6,true,1.00,6,317,4,1,83,7
hopper-7,true,1.00,6,327,3,1,84,4
hopper-8,true,1.00,6,362,4,1,91,7
hopper-9,true,1.00,5,307,3,1,75,5
hopper-10,true,1.00,6,336,3,1,82,2
hopper-11,true,1.00,6,360,4,1,83,3
hopper-12,true,1.00,6,347,3,1,78,3
hopper-13,true,1.00,6,351,4,1,86,6
hopper-14,true,1.00,6,317,4,1,77,3
hopper-15,true,1.00,5,334,3,1,80,3
hopper-16,true,1.00,6,356,4,1,85,7
hopper-17,true,1.00,7,347,4,1,90,7
hopper-18,true,1.00,5,327,3,1,79,4
hopper-19,true,1.00,6,348,3,1,90,8
hopper-20,true,1.00,6,327,4,1,73,3
hopper-21,true,1.00,8,388,5,1,139,50
hopper-22,true,1.00,34,536,30,1,1022,683
hopper-23,true,1.00,5,327,3,1,73,2
hopper-24,true,1.00,7,346,4,1,88,8
hopper-25,true,1.00,6,346,4,1,86,4
hopper-26,true,1.00,6,337,4,1,87,13
hopper-27,true,1.00,6,336,3,1,87,7
hopper-28,true,1.00,8,442,5,1,117,7
hopper-29,true,1.00,71,318,69,3,2354,209
hopper-30,true,1.00,6,367,3,1,85,5
hopper-31,true,1.00,6,357,3,1,91,6
hopper-32,true,1.00,5,338,3,1,79,4
hopper-33,true,1.00,7,357,5,1,94,4
hopper-34,true,1.00,8,387,6,1,148,33
hopper-35,true,1.00,7,386,4,1,96,4
hopper-36,true,1.00,5,307,3,1,71,2
hopper-37,true,1.00,6,368,3,1,86,3
hopper-38,true,1.00,5,338,3,1,80,3
hopper-39,true,1.00,24,507,20,1,706,425
hopper-40,true,1.00,7,366,4,1,98,6
hopper-41,true,1.00,6,371,3,1,95,8
hopper-42,true,1.00,6,349,4,1,83,4
hopper-43,true,1.00,8,418,5,1,134,36
hopper-44,true,1.00,7,386,4,1,110,7
hopper-45,true,1.00,33,523,29,1,950,506
hopper-46,true,1.00,7,388,4,1,105,6
hopper-47,true,1.00,5,316,3,1,79,4
hopper-48,true,1.00,4,297,2,1,68,2
hopper-49,true,1.00,9,397,7,1,178,92
hopper-50,true,1.00,6,346,5,1,95,14
hopper-51,true,1.00,6,334,3,1,95,12
hopper-52,true,1.00,6,340,3,1,80,5
hopper-53,true,1.00,10,485,6,1,171,72
hopper-54,true,1.00,6,347,3,1,79,3
hopper-55,true,1.00,6,385,3,1,95,5
hopper-56,true,1.00,6,346,3,1,92,7
hopper-57,true,1.00,6,327,3,1,86,5
hopper-58,true,1.00,9,415,6,1,186,108
hopper-59,true,1.00,5,326,3,1,75,3
hopper-60,true,1.00,8,417,5,1,113,5
hopper-61,true,1.00,6,353,5,1,91,5
hopper-62,true,1.00,5,336,3,1,81,3
hopper-63,true,1.00,6,340,4,1,89,4
hopper-64,true,1.00,6,338,3,1,80,2
hopper-65,true,1.00,6,337,3,1,79,4
hopper-66,true,1.00,8,398,5,1,167,51
hopper-67,true,1.00,6,318,3,1,80,6
hopper-68,true,1.00,6,338,3,1,88,3
hopper-69,true,1.00,6,351,3,1,83,3
hopper-70,true,1.00,6,357,3,1,88,3
hopper-71,true,1.00,6,317,4,1,83,7
hopper-72,true,1.00,6,356,4,1,102,10
hopper-73,true,1.00,5,330,3,1,75,1
hopper-74,true,1.00,5,336,3,1,77,3
hopper-75,true,1.00,6,317,4,1,78,4
hopper-76,true,1.00,6,336,4,1,88,3
hopper-77,true,1.00,7,386,4,1,98,5
hopper-78,true,1.00,5,317,3,1,75,2
hopper-79,true,1.00,6,347,4,1,85,4
hopper-80,true,1.00,6,335,5,1,81,8
hopper-81,true,1.00,12,432,9,1,261,121
hopper-82,true,1.00,6,363,4,1,103,11
hopper-83,true,1.00,6,357,4,1,88,4
hopper-84,true,1.00,6,346,4,1,88,5
hopper-85,true,1.00,6,355,4,1,94,4
hopper-86,true,1.00,6,338,4,1,89,8
hopper-87,true,1.00,6,356,3,1,87,3
hopper-88,true,1.00,7,378,4,1,94,4
hopper-89,true,1.00,8,453,4,1,110,7
hopper-90,true,1.00,6,327,3,1,76,2
hopper-91,true,1.00,7,356,4,1,93,7
hopper-92,true,1.00,6,346,4,1,91,5
hopper-93,true,1.00,6,348,4,1,91,7
hopper-94,true,1.00,6,386,4,1,106,17
hopper-95,true,1.00,5,330,3,1,79,3
hopper-96,true,1.00,5,307,2,1,71,1
hopper-97,true,1.00,6,375,3,1,91,5
hopper-98,true,1.00,5,337,3,1,81,3
hopper-99,true,1.00,10,461,7,1,203,94
hopper-100,true,1.00,7,377,5,1,112,11
