NDW:0.0
TTFW:0.6
DFPT:2.0
DFPAP:3.0
DFPMP:2.0
SEARCH_STEPS:6.0
TIME_TO_FINISH:2.0
level,win/fail,% travelled,run time,game ticks,planning time,total plannings,nodes evaluated,most backtracked nodes
ge-1,true,1.00,16,348,8,1,93,29
ge-2,true,1.00,14,326,7,1,73,18
ge-3,true,1.00,12,270,6,1,63,20
ge-4,true,1.00,14,287,10,1,77,17
ge-5,true,1.00,9,199,3,1,36,1
ge-6,true,1.00,17,339,10,1,103,55
ge-7,true,1.00,11,251,5,1,54,13
ge-8,true,1.00,11,259,4,1,56,13
ge-9,true,1.00,10,244,3,1,47,6
ge-10,true,1.00,9,210,4,1,38,1
ge-11,true,1.00,10,242,5,1,54,5
ge-12,true,1.00,9,210,3,1,43,3
ge-13,true,1.00,16,354,6,1,100,41
ge-14,true,1.00,13,314,4,1,71,11
ge-15,true,1.00,11,246,5,1,58,5
ge-16,true,1.00,20,413,9,1,141,44
ge-17,true,1.00,13,271,8,1,85,21
ge-18,true,1.00,506,422,498,15,9505,581
ge-19,true,1.00,15,349,6,1,105,27
ge-20,true,1.00,9,234,4,1,49,5
ge-21,true,1.00,9,210,3,1,40,3
ge-22,true,1.00,9,208,5,1,38,3
ge-23,true,1.00,11,233,7,1,58,7
ge-24,true,1.00,13,277,6,1,102,30
ge-25,true,1.00,8,210,4,1,41,3
ge-26,true,1.00,8,199,3,1,37,1
ge-27,true,1.00,11,256,6,1,59,19
ge-28,true,1.00,8,199,4,1,38,1
ge-29,true,1.00,13,269,8,1,70,24
ge-30,true,1.00,18,356,11,1,116,30
ge-31,true,1.00,21,447,10,1,124,46
ge-32,true,1.00,13,285,6,1,87,46
ge-33,true,1.00,10,242,4,1,47,3
ge-34,true,1.00,10,246,4,1,52,9
ge-35,true,1.00,14,302,9,1,90,39
ge-36,true,1.00,28,386,20,1,285,168
ge-37,true,1.00,8,199,3,1,37,1
ge-38,true,1.00,11,254,6,1,74,21
ge-39,true,1.00,13,285,9,1,90,48
ge-40,true,1.00,8,199,3,1,36,1
ge-41,true,1.00,8,210,2,1,42,3
ge-42,true,1.00,18,387,8,1,128,53
ge-43,true,1.00,15,310,7,1,101,24
ge-44,true,1.00,12,280,6,1,61,10
ge-45,true,1.00,14,311,8,1,81,27
ge-46,true,1.00,15,341,6,1,88,11
ge-47,true,1.00,8,199,2,1,36,1
ge-48,true,1.00,14,274,7,1,117,39
ge-49,true,1.00,8,199,3,1,36,1
ge-50,true,1.00,22,284,16,1,220,168
ge-51,true,1.00,11,269,7,1,56,5
ge-52,true,1.00,15,316,7,1,98,46
ge-53,true,1.00,11,260,5,1,49,8
ge-54,true,1.00,12,256,5,1,69,6
ge-55,true,1.00,13,298,9,1,83,33
ge-56,true,1.00,12,266,8,1,66,12
ge-57,true,1.00,10,234,3,1,53,8
ge-58,true,1.00,31,383,22,1,365,264
ge-59,true,1.00,14,282,9,1,77,19
ge-60,true,1.00,10,234,8,1,48,3
ge-61,true,1.00,8,199,6,1,36,1
ge-62,true,1.00,9,223,4,1,43,3
ge-63,true,1.00,12,282,5,1,67,8
ge-64,true,1.00,18,367,13,1,112,38
ge-65,true,1.00,14,318,7,1,87,14
ge-66,true,1.00,13,258,5,1,85,26
ge-67,true,1.00,13,294,6,1,85,29
ge-68,true,1.00,14,316,4,1,87,24
ge-69,true,1.00,9,223,4,1,46,4
ge-70,true,1.00,10,251,4,1,49,3
ge-71,true,1.00,14,324,8,1,86,26
ge-72,true,1.00,16,328,8,1,124,62
ge-73,true,1.00,9,211,6,1,42,3
ge-74,true,1.00,19,346,10,1,173,62
ge-75,true,1.00,14,334,8,1,76,15
ge-76,true,1.00,11,255,5,1,60,3
ge-77,true,1.00,14,318,12,1,88,32
ge-78,true,1.00,17,340,9,1,115,42
ge-79,true,1.00,10,225,4,1,63,23
ge-80,true,1.00,13,273,5,1,83,46
ge-81,true,1.00,12,261,5,1,71,33
ge-82,true,1.00,16,338,9,1,111,42
ge-83,true,1.00,22,415,11,1,169,59
ge-84,true,1.00,10,246,3,1,57,9
ge-85,true,1.00,8,199,4,1,37,1
ge-86,true,1.00,9,219,7,1,47,3
ge-87,true,1.00,11,259,7,1,57,7
ge-88,true,1.00,18,362,11,1,115,47
ge-89,true,1.00,20,350,11,1,156,72
ge-90,true,1.00,9,199,5,1,36,1
ge-91,true,1.00,8,222,4,1,45,5
ge-92,true,1.00,10,222,7,1,41,3
ge-93,true,1.00,13,289,6,1,84,30
ge-94,true,1.00,10,222,2,1,44,3
ge-95,true,1.00,18,371,12,1,140,48
ge-96,true,1.00,17,353,7,1,98,20
ge-97,true,1.00,15,331,9,1,85,26
ge-98,true,1.00,8,199,3,1,36,1
ge-99,true,1.00,9,199,4,1,37,1
ge-100,true,1.00,8,211,2,1,39,2
