NDW:0.0
TTFW:1.0
DFPT:2.0
DFPAP:3.0
DFPMP:10.0
SEARCH_STEPS:3.0
TIME_TO_FINISH:2.0
level,win/fail,% travelled,run time,game ticks,planning time,total plannings,nodes evaluated,most backtracked nodes
ore-1,true,1.00,13,604,9,1,423,80
ore-2,true,1.00,8,492,5,1,228,10
ore-3,true,1.00,9,563,5,1,271,15
ore-4,true,1.00,20,723,15,1,595,171
ore-5,true,1.00,13,558,9,1,429,83
ore-6,true,1.00,8,472,5,1,205,15
ore-7,true,1.00,10,524,8,1,367,113
ore-8,true,1.00,14,537,12,1,559,197
ore-9,true,1.00,8,464,5,1,236,15
ore-10,true,1.00,10,503,7,1,288,43
ore-11,true,1.00,19,654,14,1,617,123
ore-12,true,1.00,26,568,22,1,986,687
ore-13,true,1.00,30,643,26,1,1408,500
ore-14,true,1.00,9,455,6,1,239,24
ore-15,true,1.00,20,546,16,1,761,421
ore-16,true,1.00,9,515,6,1,256,20
ore-17,true,1.00,9,450,6,1,295,72
ore-18,true,1.00,59,576,55,2,2580,669
ore-19,true,1.00,10,541,7,1,262,14
ore-20,true,1.00,18,531,15,1,707,414
ore-21,true,1.00,12,530,8,1,320,65
ore-22,true,1.00,10,535,7,1,311,69
ore-23,true,1.00,9,499,5,1,241,26
ore-24,true,1.00,18,570,14,1,687,207
ore-25,true,1.00,9,499,6,1,247,39
ore-26,true,1.00,13,557,9,1,452,98
ore-27,true,1.00,7,447,4,1,230,29
ore-28,true,1.00,8,464,5,1,246,15
ore-29,true,1.00,18,483,15,1,743,404
ore-30,true,1.00,9,488,6,1,266,31
ore-31,true,1.00,13,552,9,1,484,222
ore-32,true,1.00,32,526,29,1,1325,882
ore-33,true,1.00,7,445,5,1,196,15
ore-34,true,1.00,8,476,5,1,223,15
ore-35,true,1.00,9,479,5,1,256,44
ore-36,true,1.00,10,519,6,1,308,36
ore-37,true,1.00,10,509,7,1,318,105
ore-38,true,1.00,12,552,8,1,346,112
ore-39,true,1.00,16,564,13,1,673,414
ore-40,true,1.00,18,586,14,1,677,168
ore-41,true,1.00,13,554,10,1,432,117
ore-42,true,1.00,9,533,5,1,249,26
ore-43,true,1.00,8,530,5,1,237,8
ore-44,true,1.00,11,526,7,1,345,87
ore-45,true,1.00,11,540,8,1,303,27
ore-46,true,1.00,87,541,83,3,3762,910
ore-47,true,1.00,9,480,5,1,256,19
ore-48,true,1.00,68,572,64,2,3011,1238
ore-49,true,1.00,10,443,7,1,379,174
ore-50,true,1.00,9,518,6,1,265,39
ore-51,true,1.00,15,605,11,1,553,80
ore-52,true,1.00,15,524,13,1,478,139
ore-53,true,1.00,11,470,8,1,418,222
ore-54,true,1.00,8,436,6,1,251,23
ore-55,true,1.00,26,578,22,1,996,603
ore-56,true,1.00,12,510,9,1,475,117
ore-57,true,1.00,451,562,446,14,20026,1090
ore-58,true,1.00,16,632,12,1,628,250
ore-59,true,1.00,29,584,25,1,1177,788
ore-60,true,1.00,11,571,7,1,322,71
ore-61,true,1.00,12,528,9,1,395,153
ore-62,true,1.00,8,455,5,1,235,15
ore-63,true,1.00,22,627,18,1,800,158
ore-64,true,1.00,8,485,5,1,216,15
ore-65,true,1.00,9,539,6,1,267,15
ore-66,true,1.00,14,524,11,1,423,106
ore-67,true,1.00,13,460,10,1,486,245
ore-68,true,1.00,14,478,10,1,472,117
ore-69,true,1.00,85,577,81,3,4302,216
ore-70,true,1.00,30,649,26,1,1088,358
ore-71,true,1.00,8,466,5,1,241,17
ore-72,true,1.00,9,470,5,1,234,15
ore-73,true,1.00,14,620,10,1,431,103
ore-74,true,1.00,21,622,16,1,738,305
ore-75,true,1.00,9,504,6,1,256,17
ore-76,true,1.00,7,429,4,1,213,15
ore-77,true,1.00,14,535,10,1,453,136
ore-78,true,1.00,9,479,6,1,250,21
ore-79,true,1.00,9,507,6,1,243,18
ore-80,true,1.00,64,554,61,2,2749,695
ore-81,true,1.00,9,508,6,1,261,16
ore-82,true,1.00,36,562,32,1,1742,1174
ore-83,true,1.00,36,673,31,1,1440,945
ore-84,true,1.00,13,590,9,1,443,81
ore-85,true,1.00,27,614,23,1,1110,304
ore-86,true,1.00,15,600,11,1,534,80
ore-87,true,1.00,12,488,8,1,350,134
ore-88,true,1.00,24,533,20,1,962,575
ore-89,true,1.00,12,540,8,1,339,47
ore-90,false,0.51,9282,295,9282,295,508805,1322
ore-91,true,1.00,102,477,98,3,4537,1247
ore-92,true,1.00,10,519,7,1,283,27
ore-93,true,1.00,12,537,8,1,368,80
ore-94,true,1.00,13,500,10,1,410,116
ore-95,true,1.00,13,577,10,1,434,68
ore-96,true,1.00,12,615,8,1,403,68
ore-97,true,1.00,18,548,15,1,737,415
ore-98,true,1.00,6780,497,6778,207,312594,1290
ore-99,true,1.00,9,504,6,1,281,23
ore-100,true,1.00,4313,514,4310,131,222214,915
