NDW:0.0
TTFW:1.2
DFPT:2.0
DFPAP:3.0
DFPMP:5.0
SEARCH_STEPS:8.0
TIME_TO_FINISH:2.0
level,win/fail,% travelled,run time,game ticks,planning time,total plannings,nodes evaluated,most backtracked nodes
patternWeightCount-1,true,1.00,25672,954,25670,898,824289,709
patternWeightCount-2,true,1.00,10,669,7,1,134,16
patternWeightCount-3,true,1.00,17,826,13,1,278,119
patternWeightCount-4,true,1.00,13,779,8,1,186,41
patternWeightCount-5,true,1.00,1572,939,1567,48,39953,211
patternWeightCount-6,true,1.00,12,839,8,1,173,16
patternWeightCount-7,true,1.00,12,736,8,1,182,71
patternWeightCount-8,true,1.00,26,567,23,1,399,290
patternWeightCount-9,true,1.00,15,789,10,1,239,112
patternWeightCount-10,true,1.00,13,727,8,10,248,17
patternWeightCount-11,true,1.00,13,839,8,1,182,56
patternWeightCount-12,true,1.00,14,976,9,1,185,11
patternWeightCount-13,true,1.00,11,692,7,1,158,52
patternWeightCount-14,true,1.00,13,831,8,1,187,41
patternWeightCount-15,true,1.00,12,679,8,1,191,16
patternWeightCount-16,true,1.00,15,843,10,1,251,32
patternWeightCount-17,true,1.00,18,875,14,1,310,78
patternWeightCount-18,true,1.00,19,973,13,1,347,106
patternWeightCount-19,true,1.00,10,724,6,1,123,17
patternWeightCount-20,true,1.00,342,609,338,11,7526,309
patternWeightCount-21,true,1.00,13,700,9,1,177,51
patternWeightCount-22,true,1.00,25,886,19,1,497,121
patternWeightCount-23,true,1.00,9,645,6,1,140,11
patternWeightCount-24,true,1.00,9,605,6,1,147,19
patternWeightCount-25,true,1.00,610,890,605,19,16189,100
patternWeightCount-26,true,1.00,11,705,6,1,149,18
patternWeightCount-27,true,1.00,15,892,9,1,212,24
patternWeightCount-28,true,1.00,12,704,8,1,173,21
patternWeightCount-29,true,1.00,13,691,10,1,196,52
patternWeightCount-30,false,0.86,30112,1017,30111,1017,799655,805
patternWeightCount-31,true,1.00,3320,549,3317,101,82033,472
patternWeightCount-32,true,1.00,8,594,4,1,101,20
patternWeightCount-33,false,0.02,5,25,4,25,148,6
patternWeightCount-34,true,1.00,8540,673,8538,266,220898,476
patternWeightCount-35,true,1.00,8482,778,8478,280,227151,737
patternWeightCount-36,true,1.00,13,826,8,1,196,46
patternWeightCount-37,true,1.00,11,803,6,1,146,18
patternWeightCount-38,true,1.00,13154,916,13151,406,354023,245
patternWeightCount-39,true,1.00,9,628,7,1,109,6
patternWeightCount-40,true,1.00,63,754,59,11,1640,103
patternWeightCount-41,true,1.00,17,828,12,1,294,63
patternWeightCount-42,true,1.00,28930,982,28929,922,775061,824
patternWeightCount-43,true,1.00,18,748,7,1,134,11
patternWeightCount-44,true,1.00,12,777,7,1,152,10
patternWeightCount-45,true,1.00,27640,903,27639,880,756941,775
patternWeightCount-46,true,1.00,27640,926,27640,897,731187,604
patternWeightCount-47,true,1.00,12,864,7,1,146,30
patternWeightCount-48,true,1.00,7,558,4,1,82,6
patternWeightCount-49,true,1.00,11,634,7,1,149,24
patternWeightCount-50,true,1.00,13,626,10,1,232,59
patternWeightCount-51,true,1.00,5031,899,5027,157,138514,489
patternWeightCount-52,true,1.00,18,937,13,1,299,74
patternWeightCount-53,true,1.00,125,991,119,4,3126,114
patternWeightCount-54,true,1.00,20,755,16,13,427,19
patternWeightCount-55,true,1.00,14,737,10,1,228,73
patternWeightCount-56,true,1.00,13,861,8,1,180,13
patternWeightCount-57,true,1.00,9,635,6,1,130,18
patternWeightCount-58,true,1.00,10,742,6,3,133,12
patternWeightCount-59,true,1.00,10,791,6,1,124,17
patternWeightCount-60,true,1.00,14,838,9,1,197,28
patternWeightCount-61,false,0.02,6,29,6,29,206,12
patternWeightCount-62,true,1.00,28213,999,28212,958,853236,494
patternWeightCount-63,true,1.00,24,944,19,1,504,313
patternWeightCount-64,true,1.00,10,651,6,1,141,19
patternWeightCount-65,true,1.00,18,885,13,1,309,73
patternWeightCount-66,true,1.00,16,865,11,1,236,30
patternWeightCount-67,true,1.00,25,809,21,1,381,213
patternWeightCount-68,true,1.00,12084,560,12083,374,210357,93
patternWeightCount-69,true,1.00,322,1003,314,10,8342,88
patternWeightCount-70,true,1.00,12,766,7,1,174,17
patternWeightCount-71,true,1.00,14,793,9,1,194,49
patternWeightCount-72,true,1.00,24282,862,24282,808,664102,625
patternWeightCount-73,false,0.87,18681,697,18681,697,526855,202
patternWeightCount-74,true,1.00,17,835,12,1,286,33
patternWeightCount-75,true,1.00,2946,781,2942,90,81309,23
patternWeightCount-76,true,1.00,13,807,9,1,190,14
patternWeightCount-77,true,1.00,14,841,9,1,228,29
patternWeightCount-78,false,0.81,26281,831,26280,831,702840,280
patternWeightCount-79,true,1.00,12,698,8,1,164,27
patternWeightCount-80,true,1.00,13,798,8,10,180,11
patternWeightCount-81,false,0.95,28725,953,28724,953,792496,486
patternWeightCount-82,true,1.00,7,544,4,1,86,6
patternWeightCount-83,true,1.00,9,629,6,1,117,26
patternWeightCount-84,true,1.00,12,857,8,1,170,23
patternWeightCount-85,true,1.00,4835,996,4831,147,143829,315
patternWeightCount-86,false,0.99,28348,924,28348,924,726152,702
patternWeightCount-87,false,0.95,28280,999,28280,999,803020,686
patternWeightCount-88,true,1.00,3327,993,3321,104,86306,549
patternWeightCount-89,true,1.00,12,710,8,1,175,51
patternWeightCount-90,true,1.00,25991,943,25990,843,696371,638
patternWeightCount-91,true,1.00,12,757,7,1,146,10
patternWeightCount-92,true,1.00,24474,906,24472,780,679832,848
patternWeightCount-93,true,1.00,16129,751,16128,496,433727,644
patternWeightCount-94,true,1.00,16,779,12,1,283,121
patternWeightCount-95,true,1.00,88,876,83,3,2263,309
patternWeightCount-96,true,1.00,14,812,9,1,204,58
patternWeightCount-97,true,1.00,8,574,5,1,117,8
patternWeightCount-98,false,0.98,15992,766,15991,766,468759,670
patternWeightCount-99,true,1.00,9085,926,9081,279,235888,181
patternWeightCount-100,true,1.00,20,800,15,1,344,151
