NDW:0.0
TTFW:0.6
DFPT:2.0
DFPAP:3.0
DFPMP:0.0
SEARCH_STEPS:8.0
TIME_TO_FINISH:2.0
level,win/fail,% travelled,run time,game ticks,planning time,total plannings,nodes evaluated,most backtracked nodes
hopper-1,true,1.00,22,520,9,1,122,26
hopper-2,true,1.00,81,394,74,3,1236,22
hopper-3,true,1.00,34,475,23,1,372,186
hopper-4,true,1.00,67,579,57,2,958,253
hopper-5,true,1.00,16,377,7,1,61,3
hopper-6,true,1.00,14,345,6,1,52,2
hopper-7,true,1.00,51,686,36,1,566,389
hopper-8,true,1.00,24,381,13,1,226,49
hopper-9,true,1.00,15,321,5,1,48,2
hopper-10,true,1.00,15,339,8,1,51,3
hopper-11,true,1.00,35,337,21,1,52,3
hopper-12,true,1.00,19,426,5,1,72,4
hopper-13,true,1.00,44,423,19,1,298,171
hopper-14,true,1.00,21,324,4,1,52,3
hopper-15,true,1.00,15,340,7,1,54,3
hopper-16,true,1.00,77,569,64,2,940,448
hopper-17,true,1.00,14,345,8,1,55,3
hopper-18,true,1.00,15,338,6,1,55,3
hopper-19,true,1.00,16,402,7,1,65,3
hopper-20,true,1.00,20,472,9,1,112,23
hopper-21,true,1.00,37,648,20,1,339,88
hopper-22,true,1.00,46,585,31,1,515,243
hopper-23,true,1.00,12,305,6,1,46,2
hopper-24,true,1.00,15,346,5,1,56,4
hopper-25,true,1.00,21,473,7,1,127,28
hopper-26,true,1.00,16,394,10,1,60,4
hopper-27,true,1.00,15,378,10,1,61,2
hopper-28,true,1.00,53,452,42,2,712,97
hopper-29,true,1.00,79,585,71,2,1193,471
hopper-30,true,1.00,24,434,8,1,77,11
hopper-31,true,1.00,48,542,37,1,591,206
hopper-32,true,1.00,13,329,8,1,51,3
hopper-33,true,1.00,4168,356,4163,127,75028,440
hopper-34,true,1.00,42,808,22,1,356,126
hopper-35,true,1.00,17,448,8,1,71,5
hopper-36,true,1.00,14,345,7,1,56,3
hopper-37,true,1.00,83,450,72,3,1232,36
hopper-38,true,1.00,16,373,9,1,63,4
hopper-39,true,1.00,24,482,14,1,193,116
hopper-40,true,1.00,17,405,5,1,63,4
hopper-41,true,1.00,37,594,22,1,363,123
hopper-42,true,1.00,13,324,7,1,45,2
hopper-43,false,0.51,5844,203,5844,203,108786,444
hopper-44,true,1.00,14,339,7,1,54,2
hopper-45,false,0.48,9407,303,9407,303,173305,454
hopper-46,true,1.00,18,434,9,1,94,20
hopper-47,true,1.00,47,343,36,2,627,46
hopper-48,true,1.00,17,405,9,1,74,15
hopper-49,true,1.00,21,490,10,1,95,33
hopper-50,true,1.00,95,569,83,3,1482,187
hopper-51,true,1.00,84,680,69,2,1231,504
hopper-52,true,1.00,16,420,6,1,64,7
hopper-53,true,1.00,2841,378,2835,88,51513,439
hopper-54,true,1.00,15,355,9,1,57,3
hopper-55,true,1.00,18,403,6,1,62,5
hopper-56,true,1.00,14,361,7,1,56,4
hopper-57,true,1.00,16,393,9,1,58,2
hopper-58,true,1.00,14,341,6,1,81,20
hopper-59,true,1.00,16,387,8,1,70,17
hopper-60,true,1.00,19,427,11,1,79,13
hopper-61,true,1.00,73,493,62,2,1091,334
hopper-62,true,1.00,15,354,8,1,58,2
hopper-63,true,1.00,16,372,8,1,64,4
hopper-64,true,1.00,13,329,5,1,48,1
hopper-65,true,1.00,14,323,4,1,50,2
hopper-66,true,1.00,38,620,24,1,403,358
hopper-67,true,1.00,14,348,4,1,54,5
hopper-68,true,1.00,16,381,5,1,60,3
hopper-69,true,1.00,31,471,20,1,334,165
hopper-70,true,1.00,15,378,5,1,64,6
hopper-71,true,1.00,15,354,5,1,53,2
hopper-72,true,1.00,65,664,48,2,800,127
hopper-73,true,1.00,15,373,7,1,59,4
hopper-74,true,1.00,16,360,9,1,79,21
hopper-75,true,1.00,12,313,5,1,48,2
hopper-76,true,1.00,48,386,38,2,656,200
hopper-77,true,1.00,16,402,8,1,64,3
hopper-78,true,1.00,12,313,3,1,46,3
hopper-79,true,1.00,14,346,7,1,55,2
hopper-80,true,1.00,14,337,5,1,46,1
hopper-81,false,0.44,3896,136,3896,136,72657,497
hopper-82,true,1.00,42,469,33,1,526,220
hopper-83,true,1.00,15,386,6,1,58,4
hopper-84,true,1.00,14,324,6,1,48,2
hopper-85,true,1.00,15,345,9,1,71,18
hopper-86,true,1.00,15,345,7,1,56,6
hopper-87,true,1.00,17,410,6,1,65,5
hopper-88,true,1.00,17,385,7,1,58,6
hopper-89,true,1.00,18,438,6,1,77,13
hopper-90,true,1.00,13,323,7,1,49,2
hopper-91,true,1.00,13,352,4,1,52,2
hopper-92,true,1.00,16,394,8,1,63,3
hopper-93,true,1.00,17,388,5,1,61,3
hopper-94,true,1.00,24,530,15,1,157,27
hopper-95,true,1.00,20,429,9,1,120,31
hopper-96,true,1.00,14,329,7,1,59,7
hopper-97,true,1.00,16,398,8,1,61,6
hopper-98,true,1.00,16,394,10,1,70,7
hopper-99,true,1.00,53,438,41,2,770,533
hopper-100,true,1.00,17,409,7,1,64,4
