NDW:0.0
TTFW:1.0
DFPT:2.0
DFPAP:3.0
DFPMP:10.0
SEARCH_STEPS:2.0
TIME_TO_FINISH:2.0
level,win/fail,% travelled,run time,game ticks,planning time,total plannings,nodes evaluated,most backtracked nodes
patternWeightCount-1,true,1.00,10,540,7,1,416,18
patternWeightCount-2,true,1.00,8,456,6,1,417,111
patternWeightCount-3,true,1.00,9,478,6,1,428,118
patternWeightCount-4,true,1.00,9,484,5,1,343,19
patternWeightCount-5,true,1.00,54,466,51,2,4379,1007
patternWeightCount-6,true,1.00,10,527,6,1,429,31
patternWeightCount-7,true,1.00,13,576,9,1,652,184
patternWeightCount-8,true,1.00,7,393,4,1,260,11
patternWeightCount-9,true,1.00,8,473,5,1,310,9
patternWeightCount-10,true,1.00,10,584,7,1,439,56
patternWeightCount-11,true,1.00,11,597,7,1,503,117
patternWeightCount-12,true,1.00,10,578,6,1,440,16
patternWeightCount-13,true,1.00,8,483,6,1,377,26
patternWeightCount-14,true,1.00,9,527,5,1,386,22
patternWeightCount-15,true,1.00,759,511,756,23,62952,1074
patternWeightCount-16,true,1.00,14,564,10,1,767,283
patternWeightCount-17,true,1.00,13,488,10,1,817,315
patternWeightCount-18,true,1.00,7,416,4,1,283,9
patternWeightCount-19,true,1.00,12,483,9,1,644,277
patternWeightCount-20,true,1.00,102,464,99,3,7787,2126
patternWeightCount-21,true,1.00,12,531,9,1,677,128
patternWeightCount-22,true,1.00,11,544,8,1,610,177
patternWeightCount-23,true,1.00,4162,520,4160,126,345201,1523
patternWeightCount-24,true,1.00,9,464,5,1,387,30
patternWeightCount-25,true,1.00,12,477,8,1,604,137
patternWeightCount-26,true,1.00,10,559,6,1,473,15
patternWeightCount-27,true,1.00,9,489,6,1,411,29
patternWeightCount-28,true,1.00,10,532,6,1,477,81
patternWeightCount-29,true,1.00,9,510,6,1,439,47
patternWeightCount-30,true,1.00,7757,587,7755,234,652306,2193
patternWeightCount-31,true,1.00,56,486,53,2,4353,1281
patternWeightCount-32,true,1.00,8,454,4,1,279,11
patternWeightCount-33,true,1.00,9,557,5,1,375,14
patternWeightCount-34,true,1.00,10,452,7,1,578,160
patternWeightCount-35,true,1.00,29,448,25,1,2130,862
patternWeightCount-36,true,1.00,9,485,6,1,421,25
patternWeightCount-37,true,1.00,8,462,6,1,366,28
patternWeightCount-38,true,1.00,17,509,14,1,1091,329
patternWeightCount-39,true,1.00,8,422,5,1,361,34
patternWeightCount-40,true,1.00,10,506,7,1,476,124
patternWeightCount-41,true,1.00,10,552,6,1,425,26
patternWeightCount-42,true,1.00,225,445,222,7,18479,1505
patternWeightCount-43,true,1.00,8,469,5,1,336,25
patternWeightCount-44,true,1.00,10,547,8,1,453,35
patternWeightCount-45,true,1.00,13,624,9,1,638,25
patternWeightCount-46,true,1.00,494,557,490,15,38654,1455
patternWeightCount-47,true,1.00,10,545,7,1,472,120
patternWeightCount-48,true,1.00,8,470,5,1,282,8
patternWeightCount-49,true,1.00,7,431,4,1,277,27
patternWeightCount-50,true,1.00,9,466,6,1,481,44
patternWeightCount-51,true,1.00,20,544,16,1,1307,653
patternWeightCount-52,true,1.00,12,600,8,1,533,50
patternWeightCount-53,true,1.00,11,520,7,1,485,30
patternWeightCount-54,true,1.00,11,540,7,1,534,148
patternWeightCount-55,true,1.00,10,493,7,1,500,180
patternWeightCount-56,true,1.00,10,506,7,1,497,139
patternWeightCount-57,true,1.00,10,515,6,1,462,134
patternWeightCount-58,true,1.00,10,520,7,1,480,72
patternWeightCount-59,true,1.00,9,507,5,1,328,13
patternWeightCount-60,true,1.00,13,572,9,1,657,219
patternWeightCount-61,true,1.00,13,480,10,1,821,260
patternWeightCount-62,true,1.00,9,496,6,1,386,24
patternWeightCount-63,true,1.00,13,484,10,1,797,415
patternWeightCount-64,true,1.00,10,476,8,1,485,134
patternWeightCount-65,true,1.00,64,646,60,2,4887,1294
patternWeightCount-66,true,1.00,12,559,8,1,673,167
patternWeightCount-67,true,1.00,12,538,9,1,569,197
patternWeightCount-68,true,1.00,19,517,16,1,981,642
patternWeightCount-69,true,1.00,11,526,7,1,508,84
patternWeightCount-70,true,1.00,12,524,9,1,650,200
patternWeightCount-71,true,1.00,10,431,8,1,549,274
patternWeightCount-72,true,1.00,21,505,17,1,1319,731
patternWeightCount-73,true,1.00,23,539,20,1,1647,742
patternWeightCount-74,true,1.00,8,499,5,1,352,15
patternWeightCount-75,true,1.00,12,519,8,1,539,120
patternWeightCount-76,true,1.00,9,475,6,1,350,29
patternWeightCount-77,true,1.00,8,471,5,1,359,27
patternWeightCount-78,true,1.00,31,602,27,1,2179,772
patternWeightCount-79,true,1.00,11,470,8,1,468,154
patternWeightCount-80,true,1.00,10,563,7,1,426,21
patternWeightCount-81,true,1.00,14908,522,14907,449,1180860,1634
patternWeightCount-82,true,1.00,6,448,4,1,252,6
patternWeightCount-83,true,1.00,8,474,5,1,339,17
patternWeightCount-84,true,1.00,9,538,6,1,338,12
patternWeightCount-85,true,1.00,9,499,5,1,364,22
patternWeightCount-86,true,1.00,22,565,18,1,1471,641
patternWeightCount-87,true,1.00,29,575,25,1,1866,901
patternWeightCount-88,true,1.00,11,478,8,1,601,276
patternWeightCount-89,true,1.00,10,524,8,1,428,57
patternWeightCount-90,true,1.00,13,506,10,1,695,59
patternWeightCount-91,true,1.00,13,573,9,1,616,238
patternWeightCount-92,true,1.00,11,511,7,1,489,34
patternWeightCount-93,true,1.00,10,492,7,1,436,34
patternWeightCount-94,true,1.00,9,485,5,1,347,17
patternWeightCount-95,true,1.00,8,438,5,1,333,32
patternWeightCount-96,true,1.00,10,482,7,1,527,105
patternWeightCount-97,true,1.00,11,484,8,1,559,92
patternWeightCount-98,true,1.00,8298,523,8296,250,698676,1685
patternWeightCount-99,true,1.00,12,518,9,1,610,154
patternWeightCount-100,true,1.00,9,470,6,1,466,82
