NDW:0.0
TTFW:0.6
DFPT:2.0
DFPAP:3.0
DFPMP:5.0
RIGHT_WINDOW_BORDER_X:75.0
level,win/fail,% travelled,run time,game ticks,planning time,total plannings,nodes evaluated,most backtracked nodes
ge-1,true,1.00,1846,395,1846,367,160025,0
ge-2,true,1.00,1900,422,1898,412,172479,0
ge-3,true,1.00,779,399,772,391,69332,0
ge-4,false,0.37,3345,283,3344,283,300845,0
ge-5,true,1.00,24,268,19,261,3861,0
ge-6,false,0.55,1547,258,1545,258,132802,0
ge-7,true,1.00,249,340,245,333,24235,0
ge-8,true,1.00,953,378,951,371,83078,0
ge-9,false,0.74,496,254,495,254,44745,0
ge-10,true,1.00,51,355,48,347,8363,0
ge-11,true,1.00,354,394,351,384,34708,0
ge-12,true,1.00,20,250,20,243,2932,0
ge-13,true,1.00,1565,402,1564,395,132157,0
ge-14,true,1.00,688,382,685,373,58729,0
ge-15,true,1.00,3385,476,3379,469,288871,0
ge-16,true,1.00,1201,425,1198,418,128804,0
ge-17,true,1.00,1783,447,1781,440,178215,0
ge-18,false,0.09,2047,133,2046,133,208248,0
ge-19,true,1.00,4025,464,4020,457,337755,0
ge-20,true,1.00,1768,401,1768,394,148062,0
ge-21,true,1.00,1675,379,1674,371,136528,0
ge-22,true,1.00,1737,366,1736,357,145703,0
ge-23,false,0.76,3224,420,3223,420,284326,0
ge-24,false,0.71,2245,367,2242,367,193178,0
ge-25,false,0.63,2533,273,2533,273,217105,0
ge-26,true,1.00,1298,365,1296,357,120319,0
ge-27,true,1.00,46,344,42,337,7209,0
ge-28,false,0.52,3492,294,3491,294,279075,0
ge-29,true,1.00,2051,382,2050,359,171189,0
ge-30,false,0.37,3562,213,3562,213,314941,0
ge-31,false,0.24,2854,189,2852,189,245519,0
ge-32,true,1.00,131,273,129,266,12745,0
ge-33,true,1.00,118,335,116,318,13170,0
ge-34,true,1.00,3928,439,3927,431,337230,0
ge-35,true,1.00,2880,457,2877,449,240854,0
ge-36,false,0.43,2030,255,2028,255,181315,0
ge-37,false,0.90,1889,364,1886,364,155884,0
ge-38,false,0.76,4903,467,4902,467,439991,0
ge-39,true,1.00,1981,410,1979,403,184026,0
ge-40,true,1.00,53,393,51,384,9120,0
ge-41,true,1.00,1857,358,1854,350,158889,0
ge-42,true,1.00,3133,540,3133,530,264806,0
ge-43,true,1.00,880,421,876,410,80845,0
ge-44,false,0.71,4026,458,4024,458,329135,0
ge-45,true,1.00,2086,463,2083,450,181647,0
ge-46,false,0.29,27813,999,27812,999,2278885,0
ge-47,false,0.51,2615,303,2613,303,243473,0
ge-48,false,0.62,1931,337,1929,337,167162,0
ge-49,true,1.00,790,311,790,304,64511,0
ge-50,false,0.34,2900,252,2898,252,240433,0
ge-51,true,1.00,626,428,621,419,56358,0
ge-52,true,1.00,1135,412,1132,403,99735,0
ge-53,true,1.00,1900,464,1897,454,158797,0
ge-54,true,1.00,1364,383,1359,376,136775,0
ge-55,true,1.00,1786,411,1784,403,163058,0
ge-56,false,0.74,3410,330,3409,330,292866,0
ge-57,false,0.94,4792,485,4791,485,410797,0
ge-58,true,1.00,420,403,418,394,41134,0
ge-59,false,0.82,6097,524,6096,524,521455,0
ge-60,false,0.22,2833,191,2832,191,234214,0
ge-61,true,1.00,3757,435,3754,428,313060,0
ge-62,false,0.40,3782,318,3780,318,336972,0
ge-63,false,0.20,28972,999,28972,999,2447921,0
ge-64,false,1.00,568,324,566,316,49963,0
ge-65,false,0.67,3235,275,3233,275,274957,0
ge-66,false,0.25,2372,202,2372,202,207356,0
ge-67,true,1.00,1480,379,1476,372,121638,0
ge-68,true,1.00,161,291,159,284,14494,0
ge-69,true,1.00,1220,321,1218,313,102666,0
ge-70,false,0.86,2532,416,2529,416,218919,0
ge-71,false,0.29,4362,288,4362,288,395067,0
ge-72,true,1.00,184,373,181,365,19566,0
ge-73,true,1.00,1508,302,1507,294,129574,0
ge-74,false,0.45,4271,349,4271,349,372182,0
ge-75,true,1.00,1896,432,1893,419,165233,0
ge-76,true,1.00,5527,534,5527,527,466379,0
ge-77,false,0.11,1771,132,1769,132,161810,0
ge-78,false,0.94,4542,523,4542,523,388239,0
ge-79,true,1.00,647,365,647,354,56882,0
ge-80,true,1.00,85,312,81,303,10069,0
ge-81,true,1.00,61,299,57,292,7342,0
ge-82,true,1.00,148,372,146,361,16430,0
ge-83,false,0.10,2024,139,2022,139,202138,0
ge-84,false,0.13,1870,139,1868,139,168571,0
ge-85,true,1.00,1806,422,1803,415,162147,0
ge-86,false,0.93,6327,480,6326,480,547309,0
ge-87,true,1.00,4459,570,4455,563,383597,0
ge-88,true,1.00,5474,451,5473,444,472972,0
ge-89,true,1.00,193,370,192,363,20623,0
ge-90,true,1.00,34,310,31,303,5728,0
ge-91,false,0.87,2739,351,2734,351,230348,0
ge-92,true,1.00,39,291,38,281,5422,0
ge-93,false,0.52,3552,281,3551,281,299919,0
ge-94,true,1.00,2657,384,2654,377,233962,0
ge-95,true,1.00,63,338,62,331,8779,0
ge-96,false,0.32,2574,198,2573,198,221778,0
ge-97,false,0.62,2885,335,2883,335,254811,0
ge-98,true,1.00,29,294,29,287,4897,0
ge-99,true,1.00,186,260,184,253,15632,0
ge-100,true,1.00,1674,318,1672,310,146007,0
