NDW:0.0
TTFW:0.8
DFPT:2.0
DFPAP:3.0
DFPMP:0.0
RIGHT_WINDOW_BORDER_X:350.0
level,win/fail,% travelled,run time,game ticks,planning time,total plannings,nodes evaluated,most backtracked nodes
patternOccur-1,true,1.00,955,449,951,417,85979,0
patternOccur-2,true,1.00,889,392,887,360,79359,0
patternOccur-3,true,1.00,1436,429,1433,397,136307,0
patternOccur-4,true,1.00,1508,417,1507,385,144513,0
patternOccur-5,true,1.00,790,409,787,377,70173,0
patternOccur-6,true,1.00,1327,441,1323,409,123887,0
patternOccur-7,true,1.00,1507,426,1506,387,142123,0
patternOccur-8,true,1.00,1222,416,1217,384,115770,0
patternOccur-9,true,1.00,1300,404,1294,372,124477,0
patternOccur-10,true,1.00,942,424,939,386,86379,0
patternOccur-11,true,1.00,3012,434,3009,390,251264,0
patternOccur-12,true,1.00,1296,436,1290,383,124546,0
patternOccur-13,true,1.00,896,397,891,365,80939,0
patternOccur-14,true,1.00,2977,404,2972,354,270125,0
patternOccur-15,true,1.00,950,354,943,322,90811,0
patternOccur-16,true,1.00,2785,399,2780,343,242145,0
patternOccur-17,true,1.00,1191,418,1189,386,107595,0
patternOccur-18,true,1.00,743,355,739,323,68060,0
patternOccur-19,false,0.83,3244,397,3240,397,266104,0
patternOccur-20,true,1.00,1039,402,1035,370,99721,0
patternOccur-21,true,1.00,960,457,957,410,90629,0
patternOccur-22,true,1.00,3533,427,3531,376,325147,0
patternOccur-23,true,1.00,1309,410,1303,378,119567,0
patternOccur-24,true,1.00,1196,421,1192,388,116344,0
patternOccur-25,true,1.00,1376,408,1373,376,132389,0
patternOccur-26,true,1.00,669,400,667,368,59400,0
patternOccur-27,true,1.00,2896,434,2896,381,252061,0
patternOccur-28,true,1.00,1259,427,1255,392,118504,0
patternOccur-29,true,1.00,865,394,862,355,79845,0
patternOccur-30,true,1.00,919,415,916,383,82847,0
patternOccur-31,true,1.00,3971,426,3970,393,361449,0
patternOccur-32,true,1.00,3970,460,3963,427,342802,0
patternOccur-33,true,1.00,956,425,953,393,88052,0
patternOccur-34,true,1.00,1079,430,1077,387,103994,0
patternOccur-35,true,1.00,832,422,830,386,76252,0
patternOccur-36,true,1.00,1834,381,1828,349,175804,0
patternOccur-37,true,1.00,2926,460,2924,414,257162,0
patternOccur-38,true,1.00,968,393,963,361,91869,0
patternOccur-39,true,1.00,2573,438,2568,404,223078,0
patternOccur-40,true,1.00,1478,397,1477,365,145142,0
patternOccur-41,true,1.00,934,395,928,353,89235,0
patternOccur-42,false,0.89,3080,398,3077,398,261272,0
patternOccur-43,true,1.00,876,403,871,371,85772,0
patternOccur-44,true,1.00,1018,403,1015,369,98643,0
patternOccur-45,true,1.00,1432,390,1432,355,123053,0
patternOccur-46,true,1.00,888,432,886,399,79424,0
patternOccur-47,true,1.00,2937,468,2932,401,264933,0
patternOccur-48,true,1.00,955,418,951,386,88594,0
patternOccur-49,true,1.00,937,385,936,353,87256,0
patternOccur-50,true,1.00,1396,411,1393,370,127067,0
patternOccur-51,true,1.00,1302,444,1300,398,124890,0
patternOccur-52,true,1.00,1136,398,1131,367,110589,0
patternOccur-53,true,1.00,1435,413,1432,381,134306,0
patternOccur-54,true,1.00,1739,442,1736,408,167264,0
patternOccur-55,true,1.00,1313,401,1308,369,124647,0
patternOccur-56,true,1.00,1344,443,1343,411,127313,0
patternOccur-57,true,1.00,1562,433,1558,395,151933,0
patternOccur-58,true,1.00,4516,503,4514,465,397846,0
patternOccur-59,true,1.00,1111,427,1111,392,105968,0
patternOccur-60,true,1.00,1975,474,1973,426,172375,0
patternOccur-61,true,1.00,1267,411,1266,369,126719,0
patternOccur-62,true,1.00,1240,414,1239,382,116211,0
patternOccur-63,true,1.00,1138,379,1137,347,111487,0
patternOccur-64,true,1.00,1366,423,1363,374,128738,0
patternOccur-65,true,1.00,1043,445,1039,413,96333,0
patternOccur-66,true,1.00,1141,423,1137,381,105504,0
patternOccur-67,true,1.00,1937,417,1934,384,175183,0
patternOccur-68,true,1.00,901,445,898,413,79109,0
patternOccur-69,true,1.00,3542,469,3541,431,294674,0
patternOccur-70,true,1.00,3676,458,3676,415,304868,0
patternOccur-71,true,1.00,1828,411,1825,379,179636,0
patternOccur-72,true,1.00,3211,436,3210,393,272500,0
patternOccur-73,true,1.00,3143,462,3142,407,271004,0
patternOccur-74,true,1.00,2663,417,2659,372,231016,0
patternOccur-75,true,1.00,1523,423,1522,385,138706,0
patternOccur-76,true,1.00,1141,369,1139,338,111876,0
patternOccur-77,true,1.00,733,399,731,367,65121,0
patternOccur-78,true,1.00,619,389,613,357,53265,0
patternOccur-79,true,1.00,1162,410,1160,378,108711,0
patternOccur-80,true,1.00,2631,442,2629,399,248840,0
patternOccur-81,true,1.00,3233,457,3229,393,294743,0
patternOccur-82,true,1.00,1723,447,1720,409,151725,0
patternOccur-83,true,1.00,857,420,853,388,80045,0
patternOccur-84,true,1.00,1099,385,1097,353,103195,0
patternOccur-85,true,1.00,1691,393,1688,361,159999,0
patternOccur-86,true,1.00,2909,427,2903,384,259139,0
patternOccur-87,true,1.00,938,427,936,388,88547,0
patternOccur-88,true,1.00,1169,416,1165,381,112710,0
patternOccur-89,true,1.00,1369,450,1365,418,127416,0
patternOccur-90,true,1.00,1275,413,1273,379,121462,0
patternOccur-91,true,1.00,977,403,974,363,92193,0
patternOccur-92,true,1.00,751,411,746,379,65681,0
patternOccur-93,true,1.00,1199,424,1195,389,108489,0
patternOccur-94,true,1.00,3437,428,3435,380,278195,0
patternOccur-95,true,1.00,834,441,832,400,75703,0
patternOccur-96,false,0.87,2578,370,2575,370,212741,0
patternOccur-97,true,1.00,1488,398,1486,366,144063,0
patternOccur-98,false,0.90,2524,365,2524,365,214444,0
patternOccur-99,true,1.00,640,381,637,342,62457,0
patternOccur-100,true,1.00,1165,444,1163,412,102722,0
