NDW:0.0
TTFW:0.8
DFPT:2.0
DFPAP:3.0
DFPMP:50.0
RIGHT_WINDOW_BORDER_X:176.0
level,win/fail,% travelled,run time,game ticks,planning time,total plannings,nodes evaluated,most backtracked nodes
notchParam-1,true,1.00,785,314,785,298,76343,0
notchParam-2,true,1.00,1037,314,1034,298,98142,0
notchParam-3,true,1.00,614,336,612,320,65280,0
notchParam-4,true,1.00,566,330,565,314,58439,0
notchParam-5,true,1.00,617,330,614,314,64162,0
notchParam-6,true,1.00,554,326,552,310,58648,0
notchParam-7,true,1.00,938,314,937,298,95912,0
notchParam-8,true,1.00,1138,334,1136,318,117443,0
notchParam-9,true,1.00,627,345,627,329,65587,0
notchParam-10,true,1.00,1081,320,1080,304,109997,0
notchParam-11,true,1.00,615,330,615,314,62765,0
notchParam-12,true,1.00,1285,352,1283,336,133497,0
notchParam-13,true,1.00,252,318,251,302,26658,0
notchParam-14,true,1.00,247,304,247,288,25309,0
notchParam-15,true,1.00,1373,334,1371,318,130982,0
notchParam-16,true,1.00,2742,380,2742,364,281193,0
notchParam-17,true,1.00,905,306,903,290,89117,0
notchParam-18,true,1.00,247,338,245,322,27418,0
notchParam-19,true,1.00,219,310,216,294,24229,0
notchParam-20,true,1.00,213,308,211,292,22145,0
notchParam-21,true,1.00,245,310,245,294,24830,0
notchParam-22,true,1.00,258,325,257,309,28035,0
notchParam-23,true,1.00,1893,369,1892,353,194885,0
notchParam-24,true,1.00,1372,336,1369,320,140611,0
notchParam-25,true,1.00,1246,332,1244,316,123585,0
notchParam-26,true,1.00,1273,334,1272,318,129908,0
notchParam-27,true,1.00,221,326,220,310,24135,0
notchParam-28,true,1.00,591,322,588,306,62767,0
notchParam-29,true,1.00,649,334,648,318,67105,0
notchParam-30,true,1.00,216,308,215,292,22786,0
notchParam-31,true,1.00,1580,361,1579,345,158491,0
notchParam-32,true,1.00,936,310,934,294,95582,0
notchParam-33,true,1.00,212,300,210,284,22426,0
notchParam-34,true,1.00,1478,356,1477,340,144660,0
notchParam-35,true,1.00,1212,338,1210,322,122565,0
notchParam-36,true,1.00,964,306,963,290,95553,0
notchParam-37,true,1.00,209,300,208,284,21125,0
notchParam-38,true,1.00,214,306,213,290,23735,0
notchParam-39,true,1.00,1020,339,1017,323,102505,0
notchParam-40,true,1.00,620,322,619,306,63890,0
notchParam-41,true,1.00,553,322,551,306,57884,0
notchParam-42,true,1.00,218,316,216,300,24356,0
notchParam-43,true,1.00,1079,326,1075,310,108836,0
notchParam-44,true,1.00,1118,328,1117,312,116743,0
notchParam-45,true,1.00,1375,352,1373,330,141282,0
notchParam-46,true,1.00,1077,316,1076,300,107094,0
notchParam-47,true,1.00,244,304,244,288,27657,0
notchParam-48,true,1.00,190,315,190,299,21448,0
notchParam-49,true,1.00,259,318,258,301,28467,0
notchParam-50,true,1.00,304,333,301,317,30830,0
notchParam-51,true,1.00,213,308,212,292,22546,0
notchParam-52,true,1.00,799,326,797,310,81820,0
notchParam-53,true,1.00,1787,381,1784,365,195157,0
notchParam-54,true,1.00,1484,351,1483,335,147593,0
notchParam-55,true,1.00,290,308,290,292,32282,0
notchParam-56,true,1.00,217,304,214,288,23194,0
notchParam-57,true,1.00,1732,353,1729,337,180188,0
notchParam-58,true,1.00,612,327,612,311,61483,0
notchParam-59,true,1.00,1735,380,1735,364,175675,0
notchParam-60,true,1.00,614,354,609,338,63177,0
notchParam-61,true,1.00,1070,348,1068,332,113847,0
notchParam-62,true,1.00,784,308,782,292,77139,0
notchParam-63,true,1.00,628,330,627,314,66095,0
notchParam-64,true,1.00,618,354,616,338,65372,0
notchParam-65,true,1.00,583,320,580,304,60979,0
notchParam-66,true,1.00,533,340,527,324,56070,0
notchParam-67,true,1.00,795,308,793,292,80445,0
notchParam-68,true,1.00,1938,389,1938,373,186302,0
notchParam-69,true,1.00,861,300,859,284,81384,0
notchParam-70,true,1.00,1322,346,1320,330,128557,0
notchParam-71,true,1.00,628,344,625,328,68029,0
notchParam-72,true,1.00,554,341,551,325,60015,0
notchParam-73,true,1.00,632,332,631,316,65476,0
notchParam-74,true,1.00,589,334,587,318,60782,0
notchParam-75,true,1.00,689,337,686,321,76664,0
notchParam-76,true,1.00,1186,355,1185,339,122224,0
notchParam-77,true,1.00,589,314,589,298,62827,0
notchParam-78,true,1.00,1183,340,1179,324,122934,0
notchParam-79,true,1.00,652,336,648,320,69601,0
notchParam-80,true,1.00,234,312,232,296,26563,0
notchParam-81,true,1.00,601,349,599,333,65275,0
notchParam-82,true,1.00,245,313,242,297,25983,0
notchParam-83,true,1.00,217,306,215,290,24430,0
notchParam-84,true,1.00,1933,358,1932,342,192906,0
notchParam-85,true,1.00,1183,375,1179,359,119714,0
notchParam-86,true,1.00,1173,324,1170,308,122660,0
notchParam-87,true,1.00,248,314,247,298,27567,0
notchParam-88,true,1.00,243,312,239,296,25094,0
notchParam-89,true,1.00,246,304,246,288,25738,0
notchParam-90,true,1.00,213,310,212,294,22939,0
notchParam-91,true,1.00,1176,330,1175,314,114548,0
notchParam-92,true,1.00,1204,320,1202,304,118843,0
notchParam-93,true,1.00,1117,330,1114,314,115832,0
notchParam-94,true,1.00,1343,334,1342,318,136165,0
notchParam-95,true,1.00,1346,368,1343,352,142450,0
notchParam-96,true,1.00,612,324,609,308,65064,0
notchParam-97,true,1.00,574,316,573,300,56850,0
notchParam-98,true,1.00,215,310,215,294,22541,0
notchParam-99,true,1.00,1481,351,1480,335,147108,0
notchParam-100,true,1.00,1339,348,1338,332,128177,0
