NDW:0.0
TTFW:0.6
DFPT:2.0
DFPAP:3.0
DFPMP:7.0
RIGHT_WINDOW_BORDER_X:215.0
level,win/fail,% travelled,run time,game ticks,planning time,total plannings,nodes evaluated,most backtracked nodes
patternWeightCount-1,true,1.00,3055,435,3048,403,154342,0
patternWeightCount-2,true,1.00,845,352,837,333,42553,0
patternWeightCount-3,true,1.00,764,395,754,375,36951,0
patternWeightCount-4,true,1.00,749,337,735,318,36445,0
patternWeightCount-5,true,1.00,1695,408,1677,387,61871,0
patternWeightCount-6,true,1.00,1642,394,1631,374,66369,0
patternWeightCount-7,true,1.00,1061,378,1052,359,50619,0
patternWeightCount-8,true,1.00,780,394,770,375,34257,0
patternWeightCount-9,true,1.00,1233,400,1221,381,60354,0
patternWeightCount-10,true,1.00,928,377,919,356,44632,0
patternWeightCount-11,true,1.00,571,370,562,351,26953,0
patternWeightCount-12,true,1.00,1144,400,1132,381,54346,0
patternWeightCount-13,true,1.00,840,342,832,323,41928,0
patternWeightCount-14,true,1.00,1151,416,1141,395,55591,0
patternWeightCount-15,true,1.00,1608,391,1603,372,78970,0
patternWeightCount-16,true,1.00,2753,417,2744,394,139906,0
patternWeightCount-17,true,1.00,892,413,881,394,41375,0
patternWeightCount-18,true,1.00,981,384,967,365,46904,0
patternWeightCount-19,true,1.00,528,366,524,347,25319,0
patternWeightCount-20,false,0.62,4082,314,4077,314,182369,0
patternWeightCount-21,true,1.00,593,387,580,368,27098,0
patternWeightCount-22,true,1.00,2885,484,2874,447,142276,0
patternWeightCount-23,true,1.00,1254,408,1239,385,60993,0
patternWeightCount-24,true,1.00,1096,348,1087,329,50012,0
patternWeightCount-25,true,1.00,1809,414,1787,395,53730,0
patternWeightCount-26,true,1.00,1416,413,1405,394,69162,0
patternWeightCount-27,true,1.00,1860,399,1849,371,92631,0
patternWeightCount-28,true,1.00,1124,382,1114,363,55140,0
patternWeightCount-29,true,1.00,1241,380,1229,360,60244,0
patternWeightCount-30,true,1.00,3023,406,3014,379,148605,0
patternWeightCount-31,true,1.00,1303,393,1290,374,59364,0
patternWeightCount-32,true,1.00,715,362,708,342,35585,0
patternWeightCount-33,true,1.00,993,402,989,383,48624,0
patternWeightCount-34,true,1.00,1397,386,1387,367,70054,0
patternWeightCount-35,true,1.00,2237,426,2223,407,76397,0
patternWeightCount-36,true,1.00,1285,395,1278,376,63896,0
patternWeightCount-37,true,1.00,718,342,708,323,34498,0
patternWeightCount-38,true,1.00,2563,397,2548,357,120870,0
patternWeightCount-39,true,1.00,1228,374,1219,355,60506,0
patternWeightCount-40,true,1.00,1816,424,1798,405,71607,0
patternWeightCount-41,true,1.00,2076,402,2062,383,57559,0
patternWeightCount-42,false,0.87,3005,370,2997,370,130540,0
patternWeightCount-43,true,1.00,920,342,913,323,45232,0
patternWeightCount-44,true,1.00,1640,427,1626,387,78433,0
patternWeightCount-45,true,1.00,3046,444,3036,411,132630,0
patternWeightCount-46,true,1.00,5395,504,5381,461,226497,0
patternWeightCount-47,true,1.00,771,378,761,359,35764,0
patternWeightCount-48,true,1.00,792,354,786,335,38065,0
patternWeightCount-49,true,1.00,866,350,859,331,41211,0
patternWeightCount-50,true,1.00,873,374,867,355,40629,0
patternWeightCount-51,true,1.00,1049,373,1041,342,50999,0
patternWeightCount-52,true,1.00,1298,380,1282,357,62407,0
patternWeightCount-53,true,1.00,3769,460,3754,440,180717,0
patternWeightCount-54,true,1.00,765,385,755,366,36634,0
patternWeightCount-55,true,1.00,1044,363,1030,340,51506,0
patternWeightCount-56,true,1.00,1150,381,1140,362,55974,0
patternWeightCount-57,true,1.00,604,338,588,319,28573,0
patternWeightCount-58,true,1.00,1050,356,1039,337,51148,0
patternWeightCount-59,true,1.00,689,364,679,345,32576,0
patternWeightCount-60,true,1.00,1548,434,1540,414,74449,0
patternWeightCount-61,true,1.00,924,360,915,340,45129,0
patternWeightCount-62,true,1.00,2059,383,2045,347,102731,0
patternWeightCount-63,true,1.00,1499,390,1484,371,73165,0
patternWeightCount-64,true,1.00,1538,368,1529,349,76502,0
patternWeightCount-65,true,1.00,1809,395,1799,376,83979,0
patternWeightCount-66,true,1.00,1065,404,1049,384,49115,0
patternWeightCount-67,true,1.00,1049,398,1042,379,46653,0
patternWeightCount-68,true,1.00,628,365,619,346,28590,0
patternWeightCount-69,true,1.00,2219,395,2213,363,103917,0
patternWeightCount-70,true,1.00,1152,384,1136,358,55015,0
patternWeightCount-71,true,1.00,988,359,981,338,36714,0
patternWeightCount-72,true,1.00,6657,493,6646,469,296470,0
patternWeightCount-73,true,1.00,5320,446,5311,420,264562,0
patternWeightCount-74,true,1.00,889,374,880,355,43319,0
patternWeightCount-75,true,1.00,1112,386,1098,367,53842,0
patternWeightCount-76,true,1.00,1369,399,1360,380,69491,0
patternWeightCount-77,true,1.00,986,395,977,376,49560,0
patternWeightCount-78,true,1.00,2202,427,2188,404,104894,0
patternWeightCount-79,true,1.00,771,364,765,345,37403,0
patternWeightCount-80,true,1.00,1661,396,1653,377,83459,0
patternWeightCount-81,true,1.00,2709,419,2702,357,96985,0
patternWeightCount-82,true,1.00,373,338,367,317,15330,0
patternWeightCount-83,true,1.00,1015,382,999,363,48800,0
patternWeightCount-84,true,1.00,832,385,821,366,38842,0
patternWeightCount-85,true,1.00,1327,385,1318,365,66500,0
patternWeightCount-86,false,0.94,3071,386,3061,386,148338,0
patternWeightCount-87,true,1.00,4679,426,4669,398,221880,0
patternWeightCount-88,true,1.00,1716,419,1708,400,83676,0
patternWeightCount-89,true,1.00,1015,374,1002,355,47850,0
patternWeightCount-90,true,1.00,5549,497,5537,463,262818,0
patternWeightCount-91,true,1.00,1036,373,1024,353,50218,0
patternWeightCount-92,true,1.00,3204,407,3194,370,161831,0
patternWeightCount-93,true,1.00,2376,377,2365,346,116722,0
patternWeightCount-94,true,1.00,2041,406,2030,387,97995,0
patternWeightCount-95,true,1.00,1280,371,1267,352,60689,0
patternWeightCount-96,true,1.00,831,396,824,377,38806,0
patternWeightCount-97,true,1.00,1049,352,1037,333,51666,0
patternWeightCount-98,true,1.00,6468,538,6457,512,310097,0
patternWeightCount-99,true,1.00,1669,433,1652,413,81814,0
patternWeightCount-100,true,1.00,971,386,960,367,45494,0
