NDW:0.0
TTFW:0.6
DFPT:2.0
DFPAP:3.0
DFPMP:50.0
RIGHT_WINDOW_BORDER_X:295.0
level,win/fail,% travelled,run time,game ticks,planning time,total plannings,nodes evaluated,most backtracked nodes
notchParamRand-1,true,1.00,919,306,914,280,50760,0
notchParamRand-2,true,1.00,202,304,196,278,9825,0
notchParamRand-3,true,1.00,992,306,988,280,57465,0
notchParamRand-4,true,1.00,1489,316,1484,289,87496,0
notchParamRand-5,true,1.00,331,306,325,280,17032,0
notchParamRand-6,true,1.00,518,308,513,282,28441,0
notchParamRand-7,true,1.00,272,294,265,268,13487,0
notchParamRand-8,true,1.00,536,298,532,272,28178,0
notchParamRand-9,true,1.00,655,308,648,282,37511,0
notchParamRand-10,true,1.00,819,306,814,280,44671,0
notchParamRand-11,true,1.00,177,294,171,268,7992,0
notchParamRand-12,true,1.00,393,306,386,280,20278,0
notchParamRand-13,true,1.00,1624,306,1619,279,92798,0
notchParamRand-14,true,1.00,1000,310,992,283,55824,0
notchParamRand-15,true,1.00,643,308,637,282,35578,0
notchParamRand-16,true,1.00,451,300,445,274,24953,0
notchParamRand-17,true,1.00,102,294,93,268,3931,0
notchParamRand-18,true,1.00,1791,314,1786,287,104752,0
notchParamRand-19,true,1.00,304,318,294,292,15979,0
notchParamRand-20,true,1.00,1579,344,1572,318,89102,0
notchParamRand-21,true,1.00,115,296,109,270,4627,0
notchParamRand-22,true,1.00,941,312,930,285,53898,0
notchParamRand-23,true,1.00,1113,322,1108,296,62600,0
notchParamRand-24,true,1.00,338,316,329,290,16327,0
notchParamRand-25,true,1.00,124,308,118,278,5371,0
notchParamRand-26,true,1.00,610,350,602,323,29626,0
notchParamRand-27,true,1.00,266,294,264,268,13662,0
notchParamRand-28,true,1.00,535,310,531,283,28292,0
notchParamRand-29,true,1.00,111,298,106,272,4277,0
notchParamRand-30,true,1.00,1787,312,1782,286,102212,0
notchParamRand-31,true,1.00,423,320,417,293,23024,0
notchParamRand-32,true,1.00,168,294,159,268,7772,0
notchParamRand-33,true,1.00,1861,322,1859,296,107517,0
notchParamRand-34,true,1.00,908,312,904,286,50866,0
notchParamRand-35,true,1.00,584,310,576,284,33070,0
notchParamRand-36,true,1.00,104,300,93,269,4095,0
notchParamRand-37,true,1.00,489,310,482,284,27034,0
notchParamRand-38,true,1.00,1638,298,1628,271,93807,0
notchParamRand-39,true,1.00,1716,326,1708,299,97410,0
notchParamRand-40,true,1.00,1971,302,1966,276,114943,0
notchParamRand-41,true,1.00,106,294,95,268,4090,0
notchParamRand-42,true,1.00,502,316,496,289,27389,0
notchParamRand-43,true,1.00,282,300,278,274,14633,0
notchParamRand-44,true,1.00,369,302,358,276,19302,0
notchParamRand-45,true,1.00,946,308,941,282,52650,0
notchParamRand-46,true,1.00,600,298,593,272,33360,0
notchParamRand-47,true,1.00,822,314,814,288,44809,0
notchParamRand-48,true,1.00,1478,314,1473,287,84289,0
notchParamRand-49,true,1.00,754,308,748,281,41540,0
notchParamRand-50,true,1.00,1294,306,1290,280,73587,0
notchParamRand-51,true,1.00,261,304,258,278,13024,0
notchParamRand-52,true,1.00,792,302,787,276,43914,0
notchParamRand-53,true,1.00,1009,320,1003,294,55055,0
notchParamRand-54,true,1.00,1864,334,1863,307,103765,0
notchParamRand-55,true,1.00,1685,304,1676,278,95931,0
notchParamRand-56,true,1.00,737,304,733,278,40794,0
notchParamRand-57,true,1.00,963,312,960,286,56043,0
notchParamRand-58,true,1.00,792,312,787,285,44505,0
notchParamRand-59,true,1.00,469,304,466,278,25705,0
notchParamRand-60,true,1.00,634,298,631,272,34966,0
notchParamRand-61,true,1.00,534,302,524,276,28683,0
notchParamRand-62,true,1.00,473,316,471,289,24824,0
notchParamRand-63,true,1.00,1404,308,1400,282,81368,0
notchParamRand-64,true,1.00,321,296,312,270,16746,0
notchParamRand-65,true,1.00,2428,326,2425,300,136262,0
notchParamRand-66,true,1.00,623,315,617,289,28524,0
notchParamRand-67,true,1.00,351,300,350,274,17734,0
notchParamRand-68,true,1.00,1369,312,1367,285,79156,0
notchParamRand-69,true,1.00,284,300,278,274,14744,0
notchParamRand-70,true,1.00,732,324,725,297,41415,0
notchParamRand-71,true,1.00,362,312,358,285,19295,0
notchParamRand-72,true,1.00,174,294,168,268,7735,0
notchParamRand-73,true,1.00,455,302,450,276,23590,0
notchParamRand-74,true,1.00,102,294,94,268,3817,0
notchParamRand-75,true,1.00,104,294,99,268,3885,0
notchParamRand-76,true,1.00,1237,318,1229,292,69280,0
notchParamRand-77,true,1.00,1542,314,1534,288,86886,0
notchParamRand-78,true,1.00,942,298,935,272,53340,0
notchParamRand-79,true,1.00,324,298,319,272,16184,0
notchParamRand-80,true,1.00,345,304,337,278,17473,0
notchParamRand-81,true,1.00,355,298,344,272,18513,0
notchParamRand-82,true,1.00,772,308,761,282,42301,0
notchParamRand-83,true,1.00,1418,316,1408,289,80057,0
notchParamRand-84,true,1.00,357,302,348,275,19031,0
notchParamRand-85,true,1.00,102,294,97,268,3806,0
notchParamRand-86,true,1.00,968,329,962,302,53098,0
notchParamRand-87,true,1.00,1689,312,1682,286,97477,0
notchParamRand-88,true,1.00,352,300,343,274,17897,0
notchParamRand-89,true,1.00,396,302,388,276,21892,0
notchParamRand-90,true,1.00,649,313,645,286,35411,0
notchParamRand-91,true,1.00,106,294,97,268,3946,0
notchParamRand-92,true,1.00,944,322,936,295,53636,0
notchParamRand-93,true,1.00,355,309,350,277,18581,0
notchParamRand-94,true,1.00,1693,316,1686,289,94989,0
notchParamRand-95,true,1.00,789,316,782,289,43636,0
notchParamRand-96,true,1.00,517,308,512,282,27238,0
notchParamRand-97,true,1.00,1447,318,1440,291,80583,0
notchParamRand-98,true,1.00,267,294,255,268,13393,0
notchParamRand-99,true,1.00,353,308,340,282,18251,0
notchParamRand-100,true,1.00,1532,306,1531,279,87689,0
