NDW:0.0
TTFW:0.4
DFPT:2.0
DFPAP:3.0
DFPMP:10.0
RIGHT_WINDOW_BORDER_X:135.0
level,win/fail,% travelled,run time,game ticks,planning time,total plannings,nodes evaluated,most backtracked nodes
ge-1,true,1.00,666,229,665,211,64100,0
ge-2,true,1.00,2266,290,2265,278,216884,0
ge-3,true,1.00,196,212,196,198,20542,0
ge-4,true,1.00,1541,274,1541,256,148852,0
ge-5,true,1.00,50,199,48,187,6800,0
ge-6,true,1.00,571,263,569,249,51693,0
ge-7,true,1.00,195,220,192,208,21149,0
ge-8,true,1.00,214,232,212,218,22516,0
ge-9,true,1.00,559,220,557,208,55292,0
ge-10,true,1.00,59,207,57,195,7516,0
ge-11,true,1.00,228,231,227,219,23454,0
ge-12,true,1.00,65,205,64,193,8686,0
ge-13,true,1.00,491,243,490,231,47561,0
ge-14,true,1.00,262,223,262,206,26394,0
ge-15,true,1.00,628,243,628,226,61100,0
ge-16,true,1.00,426,267,426,255,44540,0
ge-17,true,1.00,402,234,400,222,42839,0
ge-18,true,1.00,663,236,662,224,69170,0
ge-19,true,1.00,646,252,645,239,61591,0
ge-20,true,1.00,455,225,454,208,44657,0
ge-21,true,1.00,190,199,189,187,19812,0
ge-22,true,1.00,425,206,423,194,41192,0
ge-23,true,1.00,1989,253,1987,239,193522,0
ge-24,true,1.00,549,232,546,220,53431,0
ge-25,true,1.00,319,201,319,189,33080,0
ge-26,true,1.00,1168,254,1165,242,115929,0
ge-27,true,1.00,83,207,79,195,10909,0
ge-28,true,1.00,504,220,503,204,47630,0
ge-29,true,1.00,546,229,545,216,53433,0
ge-30,true,1.00,1083,243,1079,231,114712,0
ge-31,true,1.00,826,236,826,224,78780,0
ge-32,true,1.00,176,221,175,209,19117,0
ge-33,true,1.00,153,221,151,203,17176,0
ge-34,true,1.00,786,233,783,221,77581,0
ge-35,true,1.00,414,243,413,231,38920,0
ge-36,false,1.00,1289,253,1289,236,126612,0
ge-37,true,1.00,380,206,379,194,36985,0
ge-38,true,1.00,3194,314,3191,302,293046,0
ge-39,true,1.00,441,237,440,225,44748,0
ge-40,true,1.00,62,199,60,187,9377,0
ge-41,true,1.00,320,207,318,195,32471,0
ge-42,true,1.00,1761,276,1759,262,167256,0
ge-43,true,1.00,492,244,490,232,50746,0
ge-44,true,1.00,642,240,641,228,61114,0
ge-45,true,1.00,540,238,539,226,51736,0
ge-46,true,1.00,959,287,959,270,89650,0
ge-47,true,1.00,2126,275,2126,263,202437,0
ge-48,true,1.00,482,225,481,211,47797,0
ge-49,true,1.00,160,202,158,190,17703,0
ge-50,true,1.00,784,227,782,210,72440,0
ge-51,true,1.00,143,219,142,200,15958,0
ge-52,true,1.00,348,240,344,227,35146,0
ge-53,true,1.00,320,213,318,201,32879,0
ge-54,true,1.00,966,259,966,246,97162,0
ge-55,true,1.00,373,218,373,206,38198,0
ge-56,true,1.00,1731,279,1731,262,165808,0
ge-57,true,1.00,1371,285,1371,272,132421,0
ge-58,true,1.00,518,282,514,265,44158,0
ge-59,true,1.00,895,232,894,217,85223,0
ge-60,true,1.00,1503,241,1502,229,134994,0
ge-61,true,1.00,691,222,690,210,66531,0
ge-62,true,1.00,467,207,464,195,47881,0
ge-63,true,1.00,1992,270,1991,257,186589,0
ge-64,true,1.00,565,258,562,246,51633,0
ge-65,true,1.00,738,253,735,236,71111,0
ge-66,true,1.00,694,216,693,204,68260,0
ge-67,true,1.00,482,276,479,264,44314,0
ge-68,true,1.00,262,240,261,228,25111,0
ge-69,true,1.00,226,206,226,194,23065,0
ge-70,true,1.00,355,210,355,198,35588,0
ge-71,true,1.00,2196,279,2194,267,215739,0
ge-72,true,1.00,220,240,220,226,23672,0
ge-73,true,1.00,438,222,437,208,44816,0
ge-74,true,1.00,1185,241,1185,227,112872,0
ge-75,true,1.00,345,244,343,229,35397,0
ge-76,true,1.00,1445,261,1444,249,137364,0
ge-77,true,1.00,2006,279,2006,267,195532,0
ge-78,true,1.00,2513,299,2512,285,229333,0
ge-79,false,0.99,247,217,247,197,25520,0
ge-80,true,1.00,219,224,219,211,21922,0
ge-81,true,1.00,263,257,261,245,23917,0
ge-82,true,1.00,150,234,149,205,16799,0
ge-83,false,1.00,519,240,517,219,57623,0
ge-84,true,1.00,666,207,666,195,66226,0
ge-85,true,1.00,1363,249,1363,235,131558,0
ge-86,true,1.00,1066,243,1064,230,101438,0
ge-87,true,1.00,576,229,571,212,58013,0
ge-88,true,1.00,617,262,613,249,57539,0
ge-89,true,1.00,428,280,425,268,40451,0
ge-90,true,1.00,60,199,60,187,8753,0
ge-91,true,1.00,248,202,248,190,25680,0
ge-92,true,1.00,61,205,60,191,8736,0
ge-93,true,1.00,954,233,950,221,93078,0
ge-94,true,1.00,401,223,400,206,41597,0
ge-95,true,1.00,349,257,347,245,32808,0
ge-96,true,1.00,683,243,681,224,67945,0
ge-97,true,1.00,2263,285,2261,273,211655,0
ge-98,true,1.00,64,199,61,187,9280,0
ge-99,true,1.00,234,211,233,199,23807,0
ge-100,true,1.00,1244,235,1243,223,117765,0
