NDW:0.0
TTFW:1.4
DFPT:2.0
DFPAP:3.0
DFPMP:3.0
RIGHT_WINDOW_BORDER_X:295.0
level,win/fail,% travelled,run time,game ticks,planning time,total plannings,nodes evaluated,most backtracked nodes
Krys-1,true,1.00,9300,579,9295,518,379514,0
Krys-2,false,0.79,25031,999,25021,999,886837,0
Krys-3,true,1.00,8833,548,8821,481,411582,0
Krys-4,true,1.00,4531,515,4518,447,185606,0
Krys-5,true,1.00,1734,357,1727,311,95578,0
Krys-6,true,1.00,1696,363,1690,313,77710,0
Krys-7,true,1.00,850,379,838,330,40186,0
Krys-8,true,1.00,2577,408,2564,343,84745,0
Krys-9,true,1.00,2425,346,2417,298,115660,0
Krys-10,true,1.00,3816,458,3805,395,173072,0
Krys-11,true,1.00,419,414,411,346,16105,0
Krys-12,true,1.00,4810,408,4798,341,178257,0
Krys-13,true,1.00,3925,406,3911,342,175558,0
Krys-14,false,0.79,26170,999,26160,999,946914,0
Krys-15,true,1.00,3533,408,3523,344,180769,0
Krys-16,false,0.69,25744,999,25736,999,941947,0
Krys-17,true,1.00,2404,449,2386,397,104718,0
Krys-18,true,1.00,2187,462,2178,400,90748,0
Krys-19,true,1.00,4503,377,4500,331,223432,0
Krys-20,true,1.00,4267,626,4256,549,189215,0
Krys-21,true,1.00,1737,347,1725,300,97924,0
Krys-22,true,1.00,2332,367,2326,315,133703,0
Krys-23,true,1.00,2883,469,2869,402,122582,0
Krys-24,false,0.70,27100,999,27094,999,985270,0
Krys-25,true,1.00,3025,423,3020,348,132541,0
Krys-26,true,1.00,3524,358,3518,306,192000,0
Krys-27,true,1.00,3177,376,3169,319,150632,0
Krys-28,true,1.00,8418,593,8408,541,363129,0
Krys-29,true,1.00,2728,466,2717,428,112148,0
Krys-30,true,1.00,3255,487,3242,415,126608,0
Krys-31,true,1.00,2291,473,2279,401,104812,0
Krys-32,true,1.00,711,387,699,332,29415,0
Krys-33,true,1.00,673,375,663,311,31379,0
Krys-34,true,1.00,3318,451,3308,385,151387,0
Krys-35,true,1.00,3419,394,3411,351,156847,0
Krys-36,true,1.00,4258,391,4249,316,153373,0
Krys-37,true,1.00,6215,483,6210,444,310624,0
Krys-38,true,1.00,5427,511,5420,450,268295,0
Krys-39,true,1.00,4053,405,4040,332,203032,0
Krys-40,false,0.80,3566,314,3562,314,146068,0
Krys-41,true,1.00,5227,406,5215,360,214325,0
Krys-42,true,1.00,2973,412,2964,348,163801,0
Krys-43,true,1.00,1726,350,1722,307,93375,0
Krys-44,true,1.00,5879,458,5870,403,296259,0
Krys-45,true,1.00,2900,481,2887,434,107520,0
Krys-46,true,1.00,2590,501,2578,457,104553,0
Krys-47,true,1.00,1677,489,1658,427,75326,0
Krys-48,true,1.00,1796,372,1793,325,99278,0
Krys-49,true,1.00,1063,391,1053,345,45215,0
Krys-50,true,1.00,6307,502,6288,449,272642,0
Krys-51,true,1.00,5039,425,5033,362,250847,0
Krys-52,true,1.00,3383,530,3369,470,134010,0
Krys-53,true,1.00,2655,459,2640,422,110443,0
Krys-54,true,1.00,4716,463,4709,420,223059,0
Krys-55,true,1.00,3370,498,3350,444,137343,0
Krys-56,false,0.59,26937,999,26933,999,967542,0
Krys-57,true,1.00,1792,358,1783,311,89640,0
Krys-58,true,1.00,3068,487,3048,448,128145,0
Krys-59,false,0.89,25590,999,25580,999,932707,0
Krys-60,true,1.00,3603,409,3594,333,170729,0
Krys-61,true,1.00,3099,448,3081,404,123812,0
Krys-62,true,1.00,2117,434,2107,380,77219,0
Krys-63,true,1.00,5833,614,5823,559,228657,0
Krys-64,true,1.00,2694,496,2688,453,116396,0
Krys-65,true,1.00,3155,479,3141,441,120537,0
Krys-66,true,1.00,3134,408,3127,365,123138,0
Krys-67,true,1.00,3283,514,3269,447,133404,0
Krys-68,true,1.00,2437,349,2431,294,128480,0
Krys-69,true,1.00,10160,723,10149,674,380496,0
Krys-70,true,1.00,6092,488,6082,425,257985,0
Krys-71,true,1.00,2634,354,2623,302,147491,0
Krys-72,true,1.00,1645,483,1631,423,68615,0
Krys-73,true,1.00,4832,529,4821,472,206862,0
Krys-74,true,1.00,2381,401,2376,355,120260,0
Krys-75,true,1.00,1788,441,1781,363,61906,0
Krys-76,true,1.00,3919,340,3915,303,190037,0
Krys-77,true,1.00,1162,366,1153,303,62477,0
Krys-78,false,0.91,24818,999,24812,999,997140,0
Krys-79,true,1.00,1381,402,1375,352,53874,0
Krys-80,true,1.00,698,391,684,343,30448,0
Krys-81,true,1.00,1389,416,1378,355,65646,0
Krys-82,true,1.00,1722,394,1717,350,67161,0
Krys-83,true,1.00,4490,479,4476,391,186424,0
Krys-84,true,1.00,411,370,402,318,18108,0
Krys-85,true,1.00,4079,538,4059,466,171493,0
Krys-86,true,1.00,1780,419,1769,369,74419,0
Krys-87,true,1.00,1642,387,1634,332,59371,0
Krys-88,true,1.00,1884,468,1874,419,82995,0
Krys-89,true,1.00,1631,460,1617,420,71131,0
Krys-90,true,1.00,2886,329,2877,267,153993,0
Krys-91,true,1.00,492,375,482,332,20589,0
Krys-92,true,1.00,4835,447,4820,357,214080,0
Krys-93,true,1.00,3804,379,3796,326,181262,0
Krys-94,true,1.00,1411,372,1397,310,78214,0
Krys-95,true,1.00,1965,424,1957,359,85056,0
Krys-96,true,1.00,3759,392,3743,337,207758,0
Krys-97,true,1.00,3356,437,3348,375,148796,0
Krys-98,true,1.00,7297,557,7283,515,305603,0
Krys-99,true,1.00,2359,470,2348,400,89776,0
Krys-100,true,1.00,2140,343,2134,301,124818,0
