NDW:0.0
TTFW:0.4
DFPT:2.0
DFPAP:3.0
DFPMP:20.0
RIGHT_WINDOW_BORDER_X:255.0
level,win/fail,% travelled,run time,game ticks,planning time,total plannings,nodes evaluated,most backtracked nodes
ore-1,true,1.00,1523,371,1522,347,124266,0
ore-2,false,0.70,1915,243,1915,243,145846,0
ore-3,true,1.00,1816,376,1816,352,142265,0
ore-4,true,1.00,1971,409,1970,379,149267,0
ore-5,true,1.00,1814,373,1813,350,146081,0
ore-6,true,1.00,1828,370,1828,338,140436,0
ore-7,true,1.00,1326,363,1325,340,106246,0
ore-8,true,1.00,2499,376,2498,353,198864,0
ore-9,true,1.00,1795,353,1791,329,142684,0
ore-10,true,1.00,1595,364,1591,341,132997,0
ore-11,true,1.00,1724,362,1721,339,130105,0
ore-12,true,1.00,1363,380,1363,356,105230,0
ore-13,true,1.00,2485,442,2482,414,193806,0
ore-14,true,1.00,1647,356,1643,333,127947,0
ore-15,true,1.00,2375,386,2368,360,135252,0
ore-16,true,1.00,1356,341,1351,318,114237,0
ore-17,true,1.00,1661,347,1657,318,133176,0
ore-18,true,1.00,1698,355,1696,324,132788,0
ore-19,true,1.00,1419,352,1419,323,110557,0
ore-20,true,1.00,2036,380,2033,351,150070,0
ore-21,true,1.00,2151,387,2151,364,147617,0
ore-22,true,1.00,1634,383,1634,353,129615,0
ore-23,true,1.00,1471,364,1470,341,98093,0
ore-24,true,1.00,1903,384,1900,358,104647,0
ore-25,true,1.00,2123,400,2119,371,132282,0
ore-26,true,1.00,2343,419,2335,396,135963,0
ore-27,false,0.24,3530,180,3529,180,188793,0
ore-28,true,1.00,1733,352,1731,329,111018,0
ore-29,true,1.00,1902,363,1901,340,109706,0
ore-30,true,1.00,1317,345,1316,317,104327,0
ore-31,true,1.00,1529,332,1525,309,95525,0
ore-32,true,1.00,1804,353,1800,330,103952,0
ore-33,true,1.00,1878,403,1875,380,138920,0
ore-34,true,1.00,1916,417,1912,393,146088,0
ore-35,true,1.00,1706,396,1704,372,138732,0
ore-36,true,1.00,1303,349,1297,320,107283,0
ore-37,false,0.34,1737,152,1737,152,122416,0
ore-38,true,1.00,1701,361,1699,330,139695,0
ore-39,true,1.00,2353,396,2349,371,175418,0
ore-40,true,1.00,1924,367,1922,342,146042,0
ore-41,true,1.00,1439,379,1434,355,115582,0
ore-42,true,1.00,1797,368,1792,344,143053,0
ore-43,true,1.00,1655,387,1652,362,132104,0
ore-44,true,1.00,2061,365,2057,342,167457,0
ore-45,true,1.00,2597,463,2594,438,197521,0
ore-46,true,1.00,1297,335,1294,301,109823,0
ore-47,true,1.00,2042,414,2038,391,149558,0
ore-48,true,1.00,1761,372,1759,349,138899,0
ore-49,true,1.00,1315,339,1314,315,105688,0
ore-50,true,1.00,1891,389,1888,365,141274,0
ore-51,true,1.00,1433,356,1430,333,121596,0
ore-52,true,1.00,1786,350,1785,327,139095,0
ore-53,true,1.00,1310,364,1310,335,102741,0
ore-54,false,0.72,3737,326,3736,326,268077,0
ore-55,true,1.00,1185,352,1182,329,98445,0
ore-56,true,1.00,1236,346,1235,321,100957,0
ore-57,true,1.00,1587,353,1586,330,123457,0
ore-58,true,1.00,2239,354,2236,331,184207,0
ore-59,true,1.00,1927,371,1924,348,150705,0
ore-60,true,1.00,2722,364,2721,341,207920,0
ore-61,true,1.00,1534,364,1531,341,120403,0
ore-62,true,1.00,1323,341,1319,317,110879,0
ore-63,true,1.00,1970,405,1968,382,147343,0
ore-64,true,1.00,1306,356,1306,331,103628,0
ore-65,true,1.00,1360,344,1357,315,110985,0
ore-66,true,1.00,1983,372,1982,349,159975,0
ore-67,true,1.00,1354,330,1350,307,109975,0
ore-68,true,1.00,1928,378,1924,348,151972,0
ore-69,true,1.00,2465,403,2463,378,184138,0
ore-70,true,1.00,1691,355,1689,332,130578,0
ore-71,true,1.00,2153,432,2148,409,171849,0
ore-72,true,1.00,1689,374,1688,351,137581,0
ore-73,true,1.00,1524,353,1523,321,121833,0
ore-74,true,1.00,1343,352,1338,328,103966,0
ore-75,true,1.00,2015,389,2011,366,157824,0
ore-76,true,1.00,1544,338,1543,315,133534,0
ore-77,true,1.00,1937,366,1934,338,143517,0
ore-78,true,1.00,1492,350,1490,327,126268,0
ore-79,true,1.00,1702,363,1699,340,128596,0
ore-80,true,1.00,1606,376,1603,353,125345,0
ore-81,true,1.00,1747,379,1745,350,139586,0
ore-82,true,1.00,3175,407,3172,378,238354,0
ore-83,true,1.00,1455,364,1453,341,113410,0
ore-84,true,1.00,3764,439,3761,416,262871,0
ore-85,true,1.00,1647,383,1642,359,127824,0
ore-86,true,1.00,2836,419,2835,396,228241,0
ore-87,true,1.00,1221,349,1217,326,96792,0
ore-88,true,1.00,1513,371,1512,348,122547,0
ore-89,true,1.00,2105,370,2102,347,161638,0
ore-90,true,1.00,2018,398,2017,375,156883,0
ore-91,true,1.00,1251,323,1249,300,103525,0
ore-92,true,1.00,2281,381,2278,357,175493,0
ore-93,true,1.00,1653,347,1651,323,135999,0
ore-94,true,1.00,1988,380,1986,355,145788,0
ore-95,true,1.00,2179,398,2174,374,163352,0
ore-96,true,1.00,1977,371,1975,348,152622,0
ore-97,true,1.00,1802,404,1797,369,138472,0
ore-98,true,1.00,1615,339,1614,316,130323,0
ore-99,true,1.00,1422,361,1421,329,115103,0
ore-100,true,1.00,1308,344,1304,321,106588,0
