NDW:0.0
TTFW:0.2
DFPT:2.0
DFPAP:3.0
DFPMP:0.0
RIGHT_WINDOW_BORDER_X:155.0
level,win/fail,% travelled,run time,game ticks,planning time,total plannings,nodes evaluated,most backtracked nodes
notch-1,true,1.00,694,232,690,218,63425,0
notch-2,true,1.00,1436,271,1435,257,132449,0
notch-3,true,1.00,880,237,879,223,81147,0
notch-4,true,1.00,1010,231,1010,217,91814,0
notch-5,true,1.00,824,236,823,222,76023,0
notch-6,true,1.00,840,253,839,239,77990,0
notch-7,true,1.00,826,263,825,249,74714,0
notch-8,true,1.00,1207,291,1203,277,102576,0
notch-9,true,1.00,1287,256,1286,242,114483,0
notch-10,true,1.00,1065,261,1064,247,98465,0
notch-11,true,1.00,1175,260,1173,246,108068,0
notch-12,true,1.00,758,236,757,222,66196,0
notch-13,true,1.00,827,247,826,233,74369,0
notch-14,true,1.00,874,235,873,221,79297,0
notch-15,true,1.00,861,245,860,231,76606,0
notch-16,true,1.00,1345,267,1344,253,120765,0
notch-17,true,1.00,1150,248,1148,234,101330,0
notch-18,true,1.00,2576,328,2573,314,194138,0
notch-19,true,1.00,1311,251,1311,237,117882,0
notch-20,true,1.00,1314,281,1314,261,117911,0
notch-21,true,1.00,1185,274,1184,260,110863,0
notch-22,true,1.00,594,227,593,213,52946,0
notch-23,true,1.00,1280,256,1278,240,115454,0
notch-24,true,1.00,690,247,688,233,61719,0
notch-25,true,1.00,1495,267,1492,253,134588,0
notch-26,true,1.00,1103,263,1103,249,95454,0
notch-27,true,1.00,1722,268,1721,254,156346,0
notch-28,true,1.00,1838,295,1834,280,158246,0
notch-29,true,1.00,1359,273,1357,259,122324,0
notch-30,true,1.00,1221,251,1220,237,108656,0
notch-31,true,1.00,888,239,887,225,80177,0
notch-32,true,1.00,903,250,902,236,79641,0
notch-33,true,1.00,902,239,900,225,81305,0
notch-34,true,1.00,932,259,930,244,86008,0
notch-35,true,1.00,769,236,768,222,70899,0
notch-36,true,1.00,1519,311,1517,297,131448,0
notch-37,true,1.00,1771,290,1769,275,163234,0
notch-38,true,1.00,1484,305,1483,290,127101,0
notch-39,true,1.00,735,230,734,216,64529,0
notch-40,true,1.00,1408,277,1405,263,127559,0
notch-41,true,1.00,1348,272,1344,252,123207,0
notch-42,true,1.00,1327,252,1325,238,120103,0
notch-43,true,1.00,1069,256,1067,242,96254,0
notch-44,true,1.00,965,237,958,223,85731,0
notch-45,true,1.00,1321,263,1320,249,118010,0
notch-46,true,1.00,1003,267,1001,253,88788,0
notch-47,true,1.00,1303,263,1302,249,121614,0
notch-48,true,1.00,1397,257,1395,243,129434,0
notch-49,true,1.00,1889,309,1885,286,152317,0
notch-50,true,1.00,1605,278,1603,264,132883,0
notch-51,true,1.00,864,239,862,225,78112,0
notch-52,true,1.00,1004,270,1000,255,90408,0
notch-53,true,1.00,452,239,450,225,39376,0
notch-54,true,1.00,1412,290,1410,274,124441,0
notch-55,true,1.00,1899,318,1896,304,166874,0
notch-56,true,1.00,860,254,857,240,76225,0
notch-57,true,1.00,1067,264,1067,250,93063,0
notch-58,true,1.00,1902,305,1899,288,167301,0
notch-59,true,1.00,918,262,915,248,82343,0
notch-60,true,1.00,1232,264,1231,250,110236,0
notch-61,true,1.00,1074,235,1073,221,98675,0
notch-62,true,1.00,1803,281,1801,267,156119,0
notch-63,true,1.00,931,252,928,238,84967,0
notch-64,true,1.00,951,236,948,222,86698,0
notch-65,true,1.00,2210,315,2208,301,199516,0
notch-66,true,1.00,1882,309,1880,295,163217,0
notch-67,true,1.00,850,231,849,217,73966,0
notch-68,true,1.00,715,244,714,230,64813,0
notch-69,true,1.00,1866,288,1863,274,161311,0
notch-70,true,1.00,1099,261,1099,247,102754,0
notch-71,true,1.00,1150,242,1149,228,106364,0
notch-72,true,1.00,762,239,760,225,63758,0
notch-73,true,1.00,1217,266,1216,252,106820,0
notch-74,true,1.00,855,254,854,240,77882,0
notch-75,true,1.00,1986,298,1984,284,171420,0
notch-76,true,1.00,1326,277,1324,263,119306,0
notch-77,true,1.00,1033,256,1033,242,93017,0
notch-78,true,1.00,1495,261,1493,247,134001,0
notch-79,true,1.00,1208,263,1207,249,109062,0
notch-80,true,1.00,582,230,581,216,51188,0
notch-81,true,1.00,1270,246,1269,229,115898,0
notch-82,true,1.00,1297,280,1294,266,115752,0
notch-83,true,1.00,1426,271,1425,257,127838,0
notch-84,true,1.00,768,239,768,225,68386,0
notch-85,true,1.00,1014,270,1013,255,90571,0
notch-86,true,1.00,942,245,941,231,85278,0
notch-87,true,1.00,1142,253,1138,239,104039,0
notch-88,true,1.00,1889,285,1887,270,171195,0
notch-89,true,1.00,1456,275,1455,261,135618,0
notch-90,true,1.00,1398,251,1397,237,130096,0
notch-91,true,1.00,1595,282,1593,268,142204,0
notch-92,true,1.00,1227,262,1226,248,112107,0
notch-93,true,1.00,981,254,980,240,89880,0
notch-94,true,1.00,2496,328,2492,313,221872,0
notch-95,true,1.00,737,242,734,228,65347,0
notch-96,true,1.00,750,242,748,228,70300,0
notch-97,true,1.00,1539,279,1535,265,139832,0
notch-98,true,1.00,1333,257,1331,243,124459,0
notch-99,true,1.00,1399,267,1398,253,131210,0
notch-100,true,1.00,993,259,990,245,88905,0
