NDW:0.0
TTFW:1.0
DFPT:2.0
DFPAP:3.0
DFPMP:50.0
RIGHT_WINDOW_BORDER_X:235.0
level,win/fail,% travelled,run time,game ticks,planning time,total plannings,nodes evaluated,most backtracked nodes
notch-1,true,1.00,918,261,904,240,47387,0
notch-2,true,1.00,938,274,931,253,48831,0
notch-3,true,1.00,929,247,919,226,47727,0
notch-4,true,1.00,1179,258,1170,237,59659,0
notch-5,true,1.00,714,248,710,221,36715,0
notch-6,true,1.00,840,259,833,237,41741,0
notch-7,true,1.00,597,269,587,248,29630,0
notch-8,true,1.00,700,284,692,251,35088,0
notch-9,true,1.00,1002,252,995,231,50317,0
notch-10,true,1.00,954,261,947,240,48920,0
notch-11,true,1.00,918,260,910,237,46163,0
notch-12,true,1.00,785,250,776,229,38857,0
notch-13,true,1.00,804,253,797,232,41120,0
notch-14,true,1.00,918,250,911,226,47022,0
notch-15,true,1.00,882,265,876,235,44911,0
notch-16,true,1.00,985,264,979,232,51149,0
notch-17,true,1.00,934,264,926,241,47670,0
notch-18,true,1.00,1387,316,1376,291,69170,0
notch-19,true,1.00,1047,257,1039,229,54222,0
notch-20,true,1.00,990,272,986,251,49720,0
notch-21,true,1.00,874,285,867,264,45051,0
notch-22,true,1.00,678,235,675,214,33750,0
notch-23,true,1.00,1079,252,1068,227,54425,0
notch-24,true,1.00,656,255,648,234,32978,0
notch-25,true,1.00,1008,284,995,262,48478,0
notch-26,true,1.00,871,258,864,237,42167,0
notch-27,true,1.00,1739,269,1730,247,86042,0
notch-28,true,1.00,777,263,775,238,39024,0
notch-29,true,1.00,1319,276,1315,255,66884,0
notch-30,true,1.00,1006,248,998,217,51054,0
notch-31,true,1.00,746,259,740,237,37379,0
notch-32,true,1.00,707,266,700,244,36205,0
notch-33,true,1.00,936,256,926,227,47725,0
notch-34,true,1.00,862,255,850,234,43816,0
notch-35,true,1.00,682,267,670,246,34526,0
notch-36,true,1.00,1169,279,1162,258,58565,0
notch-37,true,1.00,1360,270,1351,240,69222,0
notch-38,true,1.00,1016,281,1006,250,50701,0
notch-39,true,1.00,715,230,708,208,36131,0
notch-40,true,1.00,1069,261,1062,239,56240,0
notch-41,true,1.00,1069,278,1059,257,55286,0
notch-42,true,1.00,983,248,977,226,51156,0
notch-43,true,1.00,814,244,804,223,41957,0
notch-44,true,1.00,707,235,702,214,36596,0
notch-45,true,1.00,874,252,869,231,45232,0
notch-46,true,1.00,823,259,816,238,42104,0
notch-47,true,1.00,1387,269,1379,247,73418,0
notch-48,true,1.00,1019,251,1015,228,53548,0
notch-49,true,1.00,975,269,974,241,48980,0
notch-50,true,1.00,1070,305,1062,281,53987,0
notch-51,true,1.00,761,248,758,227,39584,0
notch-52,true,1.00,687,263,676,241,34791,0
notch-53,true,1.00,398,261,386,227,18999,0
notch-54,true,1.00,1290,301,1283,273,66651,0
notch-55,true,1.00,1008,281,1000,259,52026,0
notch-56,true,1.00,745,272,738,251,38237,0
notch-57,true,1.00,909,281,904,259,44906,0
notch-58,true,1.00,1509,306,1504,282,75870,0
notch-59,true,1.00,1016,273,1010,252,50265,0
notch-60,true,1.00,1000,268,995,247,51246,0
notch-61,true,1.00,857,229,854,208,43931,0
notch-62,true,1.00,1110,285,1103,264,55586,0
notch-63,true,1.00,960,302,954,280,49773,0
notch-64,true,1.00,987,246,984,224,49728,0
notch-65,true,1.00,1350,286,1343,262,68505,0
notch-66,true,1.00,1413,275,1404,252,71504,0
notch-67,true,1.00,880,241,874,220,44526,0
notch-68,true,1.00,595,256,588,235,29995,0
notch-69,true,1.00,1424,272,1417,251,72287,0
notch-70,true,1.00,1214,277,1206,255,63265,0
notch-71,true,1.00,1372,247,1363,226,70850,0
notch-72,true,1.00,792,251,786,230,39349,0
notch-73,true,1.00,914,268,902,247,45536,0
notch-74,true,1.00,674,252,665,231,33943,0
notch-75,true,1.00,1677,296,1670,275,87808,0
notch-76,true,1.00,1109,295,1103,265,57918,0
notch-77,true,1.00,713,255,705,234,36155,0
notch-78,true,1.00,942,245,938,224,49051,0
notch-79,true,1.00,1365,268,1357,245,71278,0
notch-80,true,1.00,534,235,531,210,27335,0
notch-81,true,1.00,1140,249,1137,228,58791,0
notch-82,true,1.00,933,248,928,227,48378,0
notch-83,true,1.00,1246,276,1237,243,63223,0
notch-84,true,1.00,707,250,700,229,36436,0
notch-85,true,1.00,737,270,733,246,37096,0
notch-86,true,1.00,780,245,773,224,39562,0
notch-87,true,1.00,796,247,791,226,41131,0
notch-88,true,1.00,1246,274,1240,247,62804,0
notch-89,true,1.00,1041,271,1035,250,52726,0
notch-90,true,1.00,1067,245,1067,224,54389,0
notch-91,true,1.00,1184,264,1179,243,60405,0
notch-92,true,1.00,993,265,987,235,50787,0
notch-93,true,1.00,768,264,761,242,37034,0
notch-94,true,1.00,1284,272,1276,247,64835,0
notch-95,true,1.00,663,254,659,232,33126,0
notch-96,true,1.00,677,260,666,239,35306,0
notch-97,true,1.00,976,289,970,267,51358,0
notch-98,true,1.00,1261,249,1256,226,66827,0
notch-99,true,1.00,1176,262,1169,235,61199,0
notch-100,true,1.00,871,280,866,259,45399,0
