NDW:0.0
TTFW:0.4
DFPT:2.0
DFPAP:3.0
DFPMP:1.0
RIGHT_WINDOW_BORDER_X:15.0
level,win/fail,% travelled,run time,game ticks,planning time,total plannings,nodes evaluated,most backtracked nodes
notchParamRand-1,false,0.29,148,226,146,226,13426,0
notchParamRand-2,false,0.13,3,77,1,77,633,0
notchParamRand-3,false,0.23,5,136,4,136,1023,0
notchParamRand-4,false,0.15,9,122,9,122,1704,0
notchParamRand-5,false,0.27,8,156,7,156,1243,0
notchParamRand-6,false,0.25,5,139,4,139,1025,0
notchParamRand-7,false,0.09,2,55,1,55,498,0
notchParamRand-8,false,0.36,710,268,707,268,52355,0
notchParamRand-9,false,0.15,12,144,10,144,2327,0
notchParamRand-10,false,0.23,15,181,15,181,2511,0
notchParamRand-11,false,0.48,11,261,10,261,2020,0
notchParamRand-12,false,0.32,18,237,18,237,3195,0
notchParamRand-13,false,0.10,4,72,4,72,891,0
notchParamRand-14,false,0.24,214,189,212,189,18655,0
notchParamRand-15,false,0.29,148,226,146,226,13543,0
notchParamRand-16,false,0.36,152,273,150,273,14045,0
notchParamRand-17,true,1.00,19,549,18,547,3405,0
notchParamRand-18,false,0.18,667,204,664,204,60209,0
notchParamRand-19,false,0.06,4,53,4,53,809,0
notchParamRand-20,false,0.18,750,229,749,229,57367,0
notchParamRand-21,false,0.26,8,169,8,169,1596,0
notchParamRand-22,false,0.15,2,94,2,94,672,0
notchParamRand-23,false,0.24,253,212,253,212,22651,0
notchParamRand-24,false,0.52,157,356,156,356,15074,0
notchParamRand-25,false,0.12,5,82,4,82,930,0
notchParamRand-26,false,0.21,264,206,262,206,23275,0
notchParamRand-27,false,0.52,219,349,216,349,19682,0
notchParamRand-28,false,0.19,163,182,163,182,15604,0
notchParamRand-29,false,0.13,14,123,14,123,2319,0
notchParamRand-30,false,0.17,5,113,3,113,1066,0
notchParamRand-31,false,0.23,401,237,401,237,33763,0
notchParamRand-32,false,0.48,11,274,9,274,2034,0
notchParamRand-33,false,0.18,637,196,634,196,54605,0
notchParamRand-34,false,0.20,4,115,4,115,941,0
notchParamRand-35,false,0.24,326,235,325,235,29003,0
notchParamRand-36,false,0.70,15,392,10,392,2748,0
notchParamRand-37,false,0.29,130,229,127,229,12803,0
notchParamRand-38,false,0.04,2,30,2,30,404,0
notchParamRand-39,false,0.19,186,161,185,161,16742,0
notchParamRand-40,false,0.04,1,30,1,30,404,0
notchParamRand-41,false,0.09,6,83,6,83,1101,0
notchParamRand-42,false,0.18,158,153,156,153,14757,0
notchParamRand-43,false,0.52,513,324,510,324,43866,0
notchParamRand-44,false,0.16,6,104,6,104,1111,0
notchParamRand-45,false,0.11,5,78,5,78,909,0
notchParamRand-46,false,0.37,163,273,160,273,15248,0
notchParamRand-47,false,0.05,2,36,2,36,421,0
notchParamRand-48,false,0.09,2,55,1,55,498,0
notchParamRand-49,false,0.14,4,85,3,85,747,0
notchParamRand-50,false,0.17,217,167,217,167,19884,0
notchParamRand-51,false,0.10,3,79,1,79,817,0
notchParamRand-52,false,0.29,186,236,185,236,16991,0
notchParamRand-53,false,0.12,141,999,134,999,28115,0
notchParamRand-54,false,0.10,4,80,3,80,818,0
notchParamRand-55,false,0.11,7,88,7,88,1234,0
notchParamRand-56,false,0.17,3,104,2,104,747,0
notchParamRand-57,false,0.24,220,196,218,196,20444,0
notchParamRand-58,false,0.17,4,104,4,104,895,0
notchParamRand-59,false,0.28,9,179,8,179,1705,0
notchParamRand-60,false,0.29,213,211,211,211,19216,0
notchParamRand-61,false,0.09,2,58,2,58,524,0
notchParamRand-62,false,0.07,2,45,2,45,451,0
notchParamRand-63,false,0.17,4,104,1,104,757,0
notchParamRand-64,false,0.36,317,268,316,268,27725,0
notchParamRand-65,false,0.10,8,85,7,85,1520,0
notchParamRand-66,false,0.09,4,78,4,78,825,0
notchParamRand-67,false,0.37,314,282,314,282,26848,0
notchParamRand-68,false,0.18,208,172,208,172,18393,0
notchParamRand-69,false,0.10,4,78,3,78,811,0
notchParamRand-70,false,0.13,13,122,10,122,2328,0
notchParamRand-71,false,0.24,281,202,277,202,23475,0
notchParamRand-72,false,0.48,21,316,19,316,3471,0
notchParamRand-73,false,0.16,8,115,8,115,1456,0
notchParamRand-74,true,1.00,28,577,25,575,4735,0
notchParamRand-75,true,1.00,29,566,26,564,4465,0
notchParamRand-76,false,0.18,225,194,224,194,19490,0
notchParamRand-77,false,0.17,12,141,10,141,2162,0
notchParamRand-78,false,0.24,214,180,212,180,18837,0
notchParamRand-79,false,0.25,7,167,4,167,1446,0
notchParamRand-80,false,0.10,3,60,2,60,528,0
notchParamRand-81,false,0.16,5,104,4,104,1060,0
notchParamRand-82,false,0.09,2,55,2,55,498,0
notchParamRand-83,false,0.15,7,116,6,116,1386,0
notchParamRand-84,false,0.14,3,88,1,88,658,0
notchParamRand-85,true,1.00,18,538,15,536,3356,0
notchParamRand-86,false,0.16,152,166,152,166,14129,0
notchParamRand-87,false,0.16,5,106,4,106,1041,0
notchParamRand-88,false,0.37,175,273,172,273,16134,0
notchParamRand-89,false,0.52,189,358,186,358,18435,0
notchParamRand-90,false,0.06,2,42,2,42,442,0
notchParamRand-91,true,1.00,23,567,21,565,4180,0
notchParamRand-92,false,0.17,376,146,376,146,31224,0
notchParamRand-93,false,0.32,10,201,8,201,1870,0
notchParamRand-94,false,0.15,3,95,3,95,705,0
notchParamRand-95,false,0.19,809,202,809,202,65242,0
notchParamRand-96,false,0.36,197,309,195,309,17982,0
notchParamRand-97,false,0.04,1,30,1,30,404,0
notchParamRand-98,false,0.32,14,201,13,201,2231,0
notchParamRand-99,false,0.25,9,150,8,150,1436,0
notchParamRand-100,false,0.20,4,119,4,119,913,0
