NDW:0.0
TTFW:0.8
DFPT:2.0
DFPAP:3.0
DFPMP:50.0
RIGHT_WINDOW_BORDER_X:400.0
level,win/fail,% travelled,run time,game ticks,planning time,total plannings,nodes evaluated,most backtracked nodes
hopper-1,true,1.00,1248,319,1247,283,117367,0
hopper-2,true,1.00,1369,317,1366,280,126829,0
hopper-3,false,0.25,1231,83,1231,83,91688,0
hopper-4,false,0.28,1242,94,1242,94,99967,0
hopper-5,true,1.00,1103,309,1102,273,100667,0
hopper-6,true,1.00,1033,307,1031,271,94745,0
hopper-7,false,0.84,2025,255,2025,255,158260,0
hopper-8,false,0.42,1655,139,1654,139,127743,0
hopper-9,true,1.00,1107,297,1104,261,105607,0
hopper-10,true,1.00,908,307,905,271,87233,0
hopper-11,true,1.00,849,313,847,276,76634,0
hopper-12,true,1.00,870,310,869,273,84862,0
hopper-13,true,1.00,2659,363,2656,326,216466,0
hopper-14,true,1.00,1039,309,1038,273,96967,0
hopper-15,true,1.00,1218,301,1217,265,107813,0
hopper-16,false,0.55,1926,175,1924,175,147212,0
hopper-17,true,1.00,791,309,787,273,73553,0
hopper-18,true,1.00,997,305,994,269,88206,0
hopper-19,true,1.00,779,311,778,274,84569,0
hopper-20,true,1.00,1325,319,1324,274,118121,0
hopper-21,false,0.62,1903,194,1901,194,148636,0
hopper-22,false,0.33,1508,108,1507,108,116358,0
hopper-23,true,1.00,1172,299,1171,263,109287,0
hopper-24,true,1.00,836,299,834,263,76889,0
hopper-25,true,1.00,1169,309,1167,273,121285,0
hopper-26,true,1.00,1257,301,1257,265,112299,0
hopper-27,true,1.00,1090,299,1087,263,100083,0
hopper-28,false,0.86,2788,288,2787,288,249673,0
hopper-29,false,0.26,1436,93,1436,93,106018,0
hopper-30,true,1.00,1026,311,1025,264,93454,0
hopper-31,false,0.77,2132,244,2131,244,176781,0
hopper-32,true,1.00,1280,299,1279,263,124081,0
hopper-33,false,0.50,1740,179,1740,179,130705,0
hopper-34,true,1.00,2755,346,2753,310,219251,0
hopper-35,true,1.00,1362,305,1359,267,133339,0
hopper-36,true,1.00,907,314,907,278,78271,0
hopper-37,false,0.51,1414,166,1414,166,104667,0
hopper-38,true,1.00,1739,309,1736,273,162645,0
hopper-39,true,1.00,3090,365,3086,329,239097,0
hopper-40,true,1.00,1067,309,1064,273,94741,0
hopper-41,true,1.00,1545,301,1545,265,144981,0
hopper-42,true,1.00,1097,305,1095,269,98686,0
hopper-43,false,0.45,2280,151,2280,151,175910,0
hopper-44,true,1.00,1107,315,1106,279,111889,0
hopper-45,false,0.43,1922,147,1922,147,147947,0
hopper-46,false,0.68,2148,234,2148,234,181701,0
hopper-47,true,1.00,1418,305,1417,269,136333,0
hopper-48,true,1.00,1231,303,1227,266,115374,0
hopper-49,true,1.00,1231,315,1230,279,118969,0
hopper-50,false,0.63,1895,201,1894,201,150404,0
hopper-51,false,0.34,1704,115,1704,115,127617,0
hopper-52,true,1.00,772,308,771,271,76117,0
hopper-53,false,0.64,2199,203,2199,203,175144,0
hopper-54,true,1.00,660,297,658,261,58711,0
hopper-55,true,1.00,981,323,977,277,91981,0
hopper-56,true,1.00,733,297,728,261,72564,0
hopper-57,true,1.00,930,303,928,267,86515,0
hopper-58,true,1.00,3359,357,3359,320,274251,0
hopper-59,true,1.00,890,297,888,261,84827,0
hopper-60,true,1.00,978,315,976,278,98698,0
hopper-61,true,1.00,3066,342,3065,306,243534,0
hopper-62,true,1.00,1376,323,1375,285,125426,0
hopper-63,true,1.00,2877,373,2877,335,221983,0
hopper-64,true,1.00,1194,315,1190,279,108430,0
hopper-65,true,1.00,1198,308,1196,261,111608,0
hopper-66,true,1.00,2784,360,2781,324,215156,0
hopper-67,true,1.00,777,313,775,277,73433,0
hopper-68,true,1.00,699,328,699,290,61520,0
hopper-69,false,0.84,2187,264,2187,264,172241,0
hopper-70,true,1.00,1270,313,1268,273,118947,0
hopper-71,true,1.00,668,303,665,267,60487,0
hopper-72,true,1.00,1387,301,1386,265,129124,0
hopper-73,true,1.00,1165,297,1161,261,104193,0
hopper-74,true,1.00,922,305,922,269,78417,0
hopper-75,true,1.00,1184,297,1183,261,107480,0
hopper-76,true,1.00,2416,347,2414,310,194029,0
hopper-77,true,1.00,1079,343,1076,290,97116,0
hopper-78,true,1.00,1102,308,1099,260,112538,0
hopper-79,true,1.00,959,313,957,261,86433,0
hopper-80,true,1.00,968,311,965,275,84808,0
hopper-81,false,0.39,1706,123,1705,123,133790,0
hopper-82,true,1.00,1923,309,1920,271,166188,0
hopper-83,true,1.00,1437,309,1433,273,136347,0
hopper-84,true,1.00,1268,303,1266,267,118042,0
hopper-85,true,1.00,1018,339,1017,303,93247,0
hopper-86,true,1.00,1160,303,1157,267,107666,0
hopper-87,true,1.00,1221,313,1220,277,117358,0
hopper-88,true,1.00,900,313,899,277,87874,0
hopper-89,true,1.00,1008,311,1006,274,91368,0
hopper-90,true,1.00,1208,323,1205,276,115301,0
hopper-91,true,1.00,1192,297,1190,261,113330,0
hopper-92,true,1.00,1168,313,1167,277,105804,0
hopper-93,true,1.00,743,313,740,276,70059,0
hopper-94,true,1.00,2530,356,2526,312,204167,0
hopper-95,true,1.00,929,297,927,261,85285,0
hopper-96,true,1.00,1418,297,1417,261,132608,0
hopper-97,true,1.00,1404,301,1402,265,125771,0
hopper-98,true,1.00,1555,329,1553,293,143618,0
hopper-99,true,1.00,2340,325,2339,289,209208,0
hopper-100,true,1.00,1304,326,1303,279,120407,0
