NDW:0.0
TTFW:1.6
DFPT:2.0
DFPAP:3.0
DFPMP:50.0
RIGHT_WINDOW_BORDER_X:275.0
level,win/fail,% travelled,run time,game ticks,planning time,total plannings,nodes evaluated,most backtracked nodes
patternOccur-1,true,1.00,835,506,831,481,99477,0
patternOccur-2,true,1.00,881,445,879,420,104070,0
patternOccur-3,true,1.00,1455,480,1451,455,192719,0
patternOccur-4,true,1.00,1311,507,1309,482,172750,0
patternOccur-5,true,1.00,730,489,726,463,89462,0
patternOccur-6,true,1.00,1651,557,1644,532,216582,0
patternOccur-7,true,1.00,1852,525,1847,490,237142,0
patternOccur-8,true,1.00,1958,479,1953,454,258891,0
patternOccur-9,true,1.00,1382,491,1377,461,171878,0
patternOccur-10,true,1.00,1080,558,1079,527,137238,0
patternOccur-11,true,1.00,3953,549,3948,522,432522,0
patternOccur-12,true,1.00,1409,527,1409,492,187303,0
patternOccur-13,true,1.00,652,470,649,445,81984,0
patternOccur-14,true,1.00,4136,517,4134,484,475957,0
patternOccur-15,true,1.00,1247,463,1245,438,155702,0
patternOccur-16,true,1.00,3927,509,3924,482,435378,0
patternOccur-17,true,1.00,1524,503,1520,478,196485,0
patternOccur-18,true,1.00,1499,482,1496,457,188835,0
patternOccur-19,false,0.83,4233,482,4231,482,473838,0
patternOccur-20,true,1.00,1275,516,1273,491,159325,0
patternOccur-21,true,1.00,1090,488,1083,461,144075,0
patternOccur-22,false,0.84,3464,499,3462,499,385188,0
patternOccur-23,true,1.00,1677,498,1672,473,198891,0
patternOccur-24,true,1.00,843,496,840,465,106349,0
patternOccur-25,true,1.00,1696,492,1693,467,212966,0
patternOccur-26,true,1.00,1036,481,1033,456,132201,0
patternOccur-27,true,1.00,3710,541,3705,502,418718,0
patternOccur-28,true,1.00,1538,522,1535,496,189262,0
patternOccur-29,true,1.00,859,431,859,396,104768,0
patternOccur-30,true,1.00,1056,515,1054,490,137794,0
patternOccur-31,true,1.00,5250,559,5248,532,587932,0
patternOccur-32,true,1.00,4321,540,4317,506,478781,0
patternOccur-33,true,1.00,936,514,931,488,119928,0
patternOccur-34,true,1.00,1196,443,1195,408,153801,0
patternOccur-35,true,1.00,946,479,944,453,112665,0
patternOccur-36,true,1.00,2323,516,2321,477,291329,0
patternOccur-37,true,1.00,3144,509,3143,479,376176,0
patternOccur-38,true,1.00,980,471,977,446,126068,0
patternOccur-39,true,1.00,2514,460,2514,433,315137,0
patternOccur-40,true,1.00,1675,480,1673,454,222848,0
patternOccur-41,true,1.00,1146,500,1140,464,151940,0
patternOccur-42,false,0.89,3649,479,3648,479,418723,0
patternOccur-43,true,1.00,1365,479,1364,454,177053,0
patternOccur-44,true,1.00,1228,437,1227,412,158385,0
patternOccur-45,true,1.00,1580,469,1574,414,182828,0
patternOccur-46,true,1.00,1061,450,1059,425,136984,0
patternOccur-47,true,1.00,3534,502,3533,465,406221,0
patternOccur-48,true,1.00,1000,466,996,441,133732,0
patternOccur-49,true,1.00,1104,459,1100,434,142091,0
patternOccur-50,true,1.00,2138,534,2134,507,251009,0
patternOccur-51,true,1.00,1565,532,1561,495,211597,0
patternOccur-52,true,1.00,1259,467,1257,430,162395,0
patternOccur-53,true,1.00,1366,505,1363,480,171964,0
patternOccur-54,true,1.00,1878,523,1876,489,246470,0
patternOccur-55,true,1.00,1457,452,1457,427,187854,0
patternOccur-56,true,1.00,1528,549,1524,524,198404,0
patternOccur-57,true,1.00,1879,526,1879,492,243343,0
patternOccur-58,true,1.00,5861,565,5858,539,690538,0
patternOccur-59,true,1.00,1302,478,1296,452,168200,0
patternOccur-60,true,1.00,2594,497,2592,460,302920,0
patternOccur-61,true,1.00,1334,483,1333,447,179854,0
patternOccur-62,true,1.00,1339,483,1337,458,169436,0
patternOccur-63,true,1.00,1405,485,1401,448,182478,0
patternOccur-64,true,1.00,2002,561,1997,523,258202,0
patternOccur-65,true,1.00,800,498,795,473,103632,0
patternOccur-66,true,1.00,1311,465,1311,440,168015,0
patternOccur-67,true,1.00,3170,513,3168,484,341201,0
patternOccur-68,true,1.00,845,518,838,493,106297,0
patternOccur-69,true,1.00,3831,538,3829,502,406454,0
patternOccur-70,true,1.00,3568,452,3566,417,415181,0
patternOccur-71,true,1.00,1780,491,1777,466,245668,0
patternOccur-72,false,0.87,2854,494,2851,494,299041,0
patternOccur-73,true,1.00,3503,550,3502,507,402343,0
patternOccur-74,true,1.00,2664,490,2661,443,314154,0
patternOccur-75,true,1.00,1951,480,1948,455,231973,0
patternOccur-76,true,1.00,1615,502,1615,477,213478,0
patternOccur-77,true,1.00,1315,489,1312,464,168281,0
patternOccur-78,true,1.00,883,423,877,398,109962,0
patternOccur-79,true,1.00,1503,549,1499,524,200910,0
patternOccur-80,true,1.00,2971,557,2966,503,354720,0
patternOccur-81,true,1.00,4021,485,4017,459,464373,0
patternOccur-82,true,1.00,1801,516,1798,473,219619,0
patternOccur-83,false,0.82,3843,508,3843,508,384784,0
patternOccur-84,true,1.00,1156,480,1153,455,141157,0
patternOccur-85,true,1.00,1985,462,1980,437,257158,0
patternOccur-86,true,1.00,5199,504,5199,471,531159,0
patternOccur-87,true,1.00,1180,509,1180,475,155154,0
patternOccur-88,true,1.00,1310,468,1307,442,177692,0
patternOccur-89,true,1.00,1276,516,1271,491,163198,0
patternOccur-90,true,1.00,1395,537,1391,509,178101,0
patternOccur-91,true,1.00,1012,495,1006,458,127443,0
patternOccur-92,true,1.00,1172,417,1168,392,154842,0
patternOccur-93,true,1.00,1179,483,1178,457,152068,0
patternOccur-94,true,1.00,4093,538,4091,503,442720,0
patternOccur-95,true,1.00,1082,505,1081,480,145726,0
patternOccur-96,false,0.87,2446,482,2445,482,279549,0
patternOccur-97,true,1.00,1311,456,1309,431,170269,0
patternOccur-98,false,0.90,2361,458,2355,458,261883,0
patternOccur-99,true,1.00,524,472,520,444,64745,0
patternOccur-100,true,1.00,1382,473,1380,448,175015,0
