NDW:0.0
TTFW:1.0
DFPT:2.0
DFPAP:3.0
DFPMP:5.0
RIGHT_WINDOW_BORDER_X:55.0
level,win/fail,% travelled,run time,game ticks,planning time,total plannings,nodes evaluated,most backtracked nodes
Krys-1,false,0.38,20073,999,20065,999,1189277,0
Krys-2,false,0.79,10561,999,10551,999,698792,0
Krys-3,false,0.47,10092,693,10089,693,926642,0
Krys-4,false,0.83,2027,626,2022,626,201297,0
Krys-5,false,0.61,20444,999,20440,999,1767457,0
Krys-6,false,0.72,2546,552,2544,552,250401,0
Krys-7,true,1.00,366,525,359,518,39056,0
Krys-8,true,1.00,2947,761,2944,754,308846,0
Krys-9,false,0.36,4837,320,4837,320,447801,0
Krys-10,true,1.00,2921,768,2917,761,335186,0
Krys-11,true,1.00,71,541,65,534,11049,0
Krys-12,false,0.41,107,250,105,250,13370,0
Krys-13,false,0.62,1188,396,1187,396,123465,0
Krys-14,false,0.79,11902,999,11898,999,770061,0
Krys-15,false,0.55,2628,423,2627,423,260725,0
Krys-16,true,1.00,637,685,633,678,63821,0
Krys-17,true,1.00,3882,676,3876,669,299439,0
Krys-18,false,0.61,1069,514,1065,514,122095,0
Krys-19,false,0.10,1564,153,1564,153,129233,0
Krys-20,false,0.72,2607,630,2601,630,264744,0
Krys-21,false,0.36,4462,356,4462,356,396352,0
Krys-22,false,0.83,7296,774,7291,774,703511,0
Krys-23,true,1.00,3194,730,3186,723,295210,0
Krys-24,false,0.81,4294,600,4289,600,392198,0
Krys-25,true,1.00,4539,707,4534,700,419687,0
Krys-26,false,0.34,3087,252,3086,252,284730,0
Krys-27,false,0.63,2608,515,2604,515,217095,0
Krys-28,false,0.45,2722,439,2718,439,262625,0
Krys-29,false,0.42,1357,311,1354,311,113539,0
Krys-30,false,0.73,2351,608,2350,608,196193,0
Krys-31,false,0.72,410,391,406,391,46890,0
Krys-32,true,1.00,285,546,281,539,31327,0
Krys-33,true,1.00,409,471,408,464,42908,0
Krys-34,false,0.61,804,347,801,347,76862,0
Krys-35,false,0.55,2600,471,2598,471,264071,0
Krys-36,false,0.39,643,238,643,238,61705,0
Krys-37,false,0.21,1381,222,1380,222,107530,0
Krys-38,false,0.36,4408,390,4405,390,410616,0
Krys-39,false,0.19,28907,999,28907,999,2510635,0
Krys-40,false,0.62,3500,536,3496,536,389901,0
Krys-41,false,0.34,1628,262,1628,262,143997,0
Krys-42,false,0.55,1941,343,1937,343,179786,0
Krys-43,false,0.83,5805,611,5800,611,569680,0
Krys-44,false,0.47,4088,362,4088,362,380139,0
Krys-45,false,0.39,21898,999,21895,999,1341365,0
Krys-46,true,1.00,1919,685,1915,678,149083,0
Krys-47,true,1.00,3156,730,3153,723,306262,0
Krys-48,false,0.10,1564,153,1564,153,129559,0
Krys-49,false,0.71,2804,524,2801,524,260057,0
Krys-50,false,0.33,3622,397,3620,397,344874,0
Krys-51,false,0.43,1526,311,1522,311,157211,0
Krys-52,true,1.00,609,706,603,699,71245,0
Krys-53,false,0.88,1443,577,1438,577,108836,0
Krys-54,false,0.45,4282,552,4279,552,412389,0
Krys-55,true,1.00,4128,702,4122,695,345860,0
Krys-56,true,1.00,1739,631,1737,625,155867,0
Krys-57,false,0.76,7668,640,7666,640,541411,0
Krys-58,false,0.66,2591,523,2589,523,211159,0
Krys-59,false,0.89,8011,999,8008,999,533594,0
Krys-60,false,0.57,5362,439,5360,439,468210,0
Krys-61,false,0.31,439,241,438,241,58373,0
Krys-62,true,1.00,432,544,429,537,42668,0
Krys-63,true,1.00,3342,749,3332,742,243403,0
Krys-64,false,0.19,345,122,344,122,29433,0
Krys-65,true,1.00,1973,613,1970,606,144486,0
Krys-66,true,1.00,1588,709,1584,702,145803,0
Krys-67,true,1.00,1537,759,1534,752,155445,0
Krys-68,false,0.62,2108,404,2107,404,183618,0
Krys-69,false,0.48,18802,999,18798,999,1048512,0
Krys-70,false,0.54,2642,470,2639,470,259931,0
Krys-71,false,0.69,9013,929,9005,929,899383,0
Krys-72,true,1.00,745,761,741,754,89011,0
Krys-73,true,1.00,6889,776,6886,769,655536,0
Krys-74,false,0.73,3275,461,3273,461,261568,0
Krys-75,true,1.00,133,494,125,487,17101,0
Krys-76,false,0.36,4409,356,4407,356,411854,0
Krys-77,false,0.13,2620,154,2620,154,224771,0
Krys-78,false,0.20,1981,234,1979,234,195097,0
Krys-79,true,1.00,508,528,503,521,50412,0
Krys-80,true,1.00,162,496,157,489,18303,0
Krys-81,false,0.66,1767,433,1763,433,167706,0
Krys-82,true,1.00,891,631,887,624,82546,0
Krys-83,false,0.54,1956,361,1950,361,198976,0
Krys-84,true,1.00,218,517,214,510,23756,0
Krys-85,false,0.62,771,515,762,515,106443,0
Krys-86,true,1.00,3721,770,3719,764,281604,0
Krys-87,true,1.00,257,488,255,475,29302,0
Krys-88,false,0.71,477,407,475,407,49961,0
Krys-89,false,0.34,1564,301,1563,301,137248,0
Krys-90,false,0.34,3087,252,3085,252,285245,0
Krys-91,true,1.00,298,473,295,466,30335,0
Krys-92,false,0.63,3052,594,3050,594,258770,0
Krys-93,false,0.54,2234,379,2229,379,279555,0
Krys-94,false,0.44,3629,355,3627,355,356565,0
Krys-95,false,0.75,3240,473,3238,473,236024,0
Krys-96,false,0.55,1858,338,1855,338,172006,0
Krys-97,false,0.70,2623,462,2622,462,249473,0
Krys-98,false,0.11,1278,154,1276,154,93871,0
Krys-99,true,1.00,888,613,879,606,80181,0
Krys-100,false,0.34,4746,345,4746,345,433328,0
