NDW:0.0
TTFW:0.8
DFPT:2.0
DFPAP:3.0
DFPMP:2.0
RIGHT_WINDOW_BORDER_X:115.0
level,win/fail,% travelled,run time,game ticks,planning time,total plannings,nodes evaluated,most backtracked nodes
patternWeightCount-1,true,1.00,5977,584,5964,572,363370,0
patternWeightCount-2,true,1.00,1031,424,1023,407,62595,0
patternWeightCount-3,true,1.00,1271,456,1263,446,76823,0
patternWeightCount-4,true,1.00,818,427,810,417,48210,0
patternWeightCount-5,true,1.00,2843,495,2835,485,169535,0
patternWeightCount-6,true,1.00,1730,486,1723,476,105491,0
patternWeightCount-7,true,1.00,1002,437,991,427,61083,0
patternWeightCount-8,true,1.00,634,415,624,405,32855,0
patternWeightCount-9,true,1.00,1034,411,1029,401,62311,0
patternWeightCount-10,true,1.00,892,451,883,441,53219,0
patternWeightCount-11,true,1.00,825,419,809,409,51051,0
patternWeightCount-12,true,1.00,2062,515,2050,505,121476,0
patternWeightCount-13,true,1.00,1282,411,1274,401,57564,0
patternWeightCount-14,true,1.00,828,415,821,404,50353,0
patternWeightCount-15,true,1.00,2606,445,2599,435,161823,0
patternWeightCount-16,true,1.00,4186,540,4182,516,264751,0
patternWeightCount-17,true,1.00,753,480,742,470,46357,0
patternWeightCount-18,true,1.00,1039,428,1032,418,63870,0
patternWeightCount-19,true,1.00,701,420,694,410,41890,0
patternWeightCount-20,false,0.62,3754,358,3747,358,226494,0
patternWeightCount-21,true,1.00,502,444,488,434,31057,0
patternWeightCount-22,true,1.00,4036,559,4028,545,254177,0
patternWeightCount-23,true,1.00,924,458,911,438,56733,0
patternWeightCount-24,true,1.00,2585,445,2578,435,162021,0
patternWeightCount-25,true,1.00,4499,595,4493,585,283160,0
patternWeightCount-26,true,1.00,1407,456,1398,446,89190,0
patternWeightCount-27,true,1.00,1907,460,1895,440,117671,0
patternWeightCount-28,true,1.00,1138,438,1128,428,71879,0
patternWeightCount-29,true,1.00,1880,429,1869,418,116945,0
patternWeightCount-30,false,0.81,4785,501,4779,501,292813,0
patternWeightCount-31,true,1.00,1299,480,1290,470,78909,0
patternWeightCount-32,true,1.00,556,401,543,391,34270,0
patternWeightCount-33,true,1.00,1511,484,1499,474,93591,0
patternWeightCount-34,true,1.00,3326,500,3319,490,196058,0
patternWeightCount-35,true,1.00,3957,573,3950,563,238560,0
patternWeightCount-36,true,1.00,2211,479,2192,469,137157,0
patternWeightCount-37,true,1.00,864,433,853,423,52253,0
patternWeightCount-38,false,0.94,6128,571,6118,571,372815,0
patternWeightCount-39,true,1.00,1741,435,1732,425,103142,0
patternWeightCount-40,true,1.00,2348,507,2340,497,150199,0
patternWeightCount-41,true,1.00,1437,490,1428,479,90057,0
patternWeightCount-42,false,0.87,6122,569,6115,569,367996,0
patternWeightCount-43,true,1.00,1158,456,1144,446,70041,0
patternWeightCount-44,true,1.00,2887,539,2862,520,181186,0
patternWeightCount-45,true,1.00,7180,700,7175,684,433782,0
patternWeightCount-46,false,0.85,5578,551,5565,551,330080,0
patternWeightCount-47,true,1.00,865,405,857,395,52419,0
patternWeightCount-48,true,1.00,786,391,780,381,48262,0
patternWeightCount-49,true,1.00,1416,429,1408,419,86173,0
patternWeightCount-50,true,1.00,819,427,812,417,48206,0
patternWeightCount-51,true,1.00,1959,493,1952,473,119862,0
patternWeightCount-52,true,1.00,2526,505,2513,493,155751,0
patternWeightCount-53,false,0.72,2443,398,2438,398,145580,0
patternWeightCount-54,true,1.00,1974,459,1963,449,125648,0
patternWeightCount-55,true,1.00,3246,514,3237,468,183785,0
patternWeightCount-56,true,1.00,1440,423,1429,413,89616,0
patternWeightCount-57,true,1.00,1011,404,1004,394,63998,0
patternWeightCount-58,true,1.00,1432,465,1424,452,90717,0
patternWeightCount-59,true,1.00,496,380,484,370,30174,0
patternWeightCount-60,true,1.00,3725,531,3721,519,233280,0
patternWeightCount-61,true,1.00,1082,425,1073,408,67798,0
patternWeightCount-62,true,1.00,4024,550,4013,537,249178,0
patternWeightCount-63,true,1.00,1526,452,1518,442,96863,0
patternWeightCount-64,true,1.00,2324,485,2320,475,141192,0
patternWeightCount-65,true,1.00,1650,483,1637,470,100834,0
patternWeightCount-66,true,1.00,1800,468,1792,458,112920,0
patternWeightCount-67,true,1.00,839,442,829,432,48559,0
patternWeightCount-68,false,0.85,21349,999,21344,999,802104,0
patternWeightCount-69,false,0.96,20065,999,20053,999,1071473,0
patternWeightCount-70,true,1.00,1385,472,1371,461,86546,0
patternWeightCount-71,true,1.00,779,441,768,425,47501,0
patternWeightCount-72,false,0.79,4509,469,4503,469,276562,0
patternWeightCount-73,false,0.79,7878,612,7870,612,480699,0
patternWeightCount-74,true,1.00,792,412,784,402,49875,0
patternWeightCount-75,true,1.00,2388,487,2377,477,148610,0
patternWeightCount-76,true,1.00,1471,495,1460,485,93211,0
patternWeightCount-77,true,1.00,1041,463,1030,453,65766,0
patternWeightCount-78,true,1.00,4673,619,4657,609,283016,0
patternWeightCount-79,true,1.00,1772,431,1762,421,105375,0
patternWeightCount-80,true,1.00,1862,486,1850,476,115012,0
patternWeightCount-81,false,0.81,6091,515,6083,515,357457,0
patternWeightCount-82,true,1.00,366,390,360,378,22554,0
patternWeightCount-83,true,1.00,1158,428,1153,418,72049,0
patternWeightCount-84,true,1.00,1056,442,1046,432,63738,0
patternWeightCount-85,true,1.00,1827,463,1812,453,112772,0
patternWeightCount-86,false,0.93,4272,482,4264,482,259641,0
patternWeightCount-87,false,0.72,3817,387,3809,387,229274,0
patternWeightCount-88,true,1.00,2427,493,2416,479,151902,0
patternWeightCount-89,true,1.00,745,391,739,381,46714,0
patternWeightCount-90,false,0.76,3718,472,3710,472,234819,0
patternWeightCount-91,true,1.00,1174,446,1162,436,73993,0
patternWeightCount-92,true,1.00,4600,524,4585,511,284217,0
patternWeightCount-93,false,0.89,4970,494,4962,494,291193,0
patternWeightCount-94,true,1.00,1441,437,1433,427,88118,0
patternWeightCount-95,true,1.00,1982,477,1974,467,118141,0
patternWeightCount-96,true,1.00,900,428,888,418,55064,0
patternWeightCount-97,true,1.00,1055,392,1049,382,65004,0
patternWeightCount-98,false,0.63,3136,362,3130,362,186857,0
patternWeightCount-99,true,1.00,2618,543,2607,533,166681,0
patternWeightCount-100,true,1.00,1701,447,1692,437,102001,0
