NDW:0.0
TTFW:2.0
DFPT:2.0
DFPAP:3.0
DFPMP:3.0
RIGHT_WINDOW_BORDER_X:115.0
level,win/fail,% travelled,run time,game ticks,planning time,total plannings,nodes evaluated,most backtracked nodes
patternCount-1,false,0.67,4425,478,4413,478,173245,0
patternCount-2,true,1.00,1354,473,1336,463,57861,0
patternCount-3,false,0.91,5890,611,5869,611,260759,0
patternCount-4,true,1.00,1884,538,1868,521,96059,0
patternCount-5,true,1.00,1692,496,1673,485,79089,0
patternCount-6,true,1.00,1042,453,1027,443,50500,0
patternCount-7,true,1.00,1334,441,1320,431,63348,0
patternCount-8,true,1.00,5565,635,5545,603,260375,0
patternCount-9,true,1.00,1197,468,1185,458,56537,0
patternCount-10,true,1.00,526,392,511,382,25303,0
patternCount-11,false,0.76,2732,495,2716,495,132062,0
patternCount-12,true,1.00,1025,449,1012,435,47299,0
patternCount-13,true,1.00,1028,461,1011,451,48271,0
patternCount-14,true,1.00,1444,456,1428,438,68951,0
patternCount-15,true,1.00,1562,511,1549,501,72162,0
patternCount-16,true,1.00,1210,464,1194,454,57183,0
patternCount-17,true,1.00,1754,553,1738,543,85982,0
patternCount-18,true,1.00,2225,471,2210,450,103393,0
patternCount-19,true,1.00,1018,447,1005,437,46496,0
patternCount-20,true,1.00,1418,458,1406,447,66428,0
patternCount-21,true,1.00,1354,504,1327,494,62864,0
patternCount-22,true,1.00,4195,566,4180,553,197213,0
patternCount-23,false,0.78,6849,523,6841,523,291951,0
patternCount-24,false,0.81,20832,999,20817,999,996361,0
patternCount-25,true,1.00,1509,496,1492,485,74190,0
patternCount-26,true,1.00,1047,477,1034,467,51254,0
patternCount-27,true,1.00,1751,525,1732,515,86937,0
patternCount-28,true,1.00,1323,501,1316,483,69947,0
patternCount-29,true,1.00,1201,446,1185,436,60602,0
patternCount-30,true,1.00,1461,524,1442,514,70816,0
patternCount-31,true,1.00,1849,505,1835,495,84211,0
patternCount-32,true,1.00,2500,566,2479,556,104788,0
patternCount-33,false,0.82,5937,552,5920,552,209631,0
patternCount-34,true,1.00,2881,535,2857,521,93665,0
patternCount-35,true,1.00,1698,504,1672,494,51125,0
patternCount-36,true,1.00,4326,622,4305,605,139726,0
patternCount-37,true,1.00,987,381,967,371,32639,0
patternCount-38,true,1.00,3830,513,3803,503,122209,0
patternCount-39,true,1.00,1426,509,1392,497,45899,0
patternCount-40,true,1.00,6995,596,6970,580,236970,0
patternCount-41,true,1.00,2437,480,2399,470,81704,0
patternCount-42,true,1.00,1358,460,1330,446,42741,0
patternCount-43,true,1.00,988,436,968,426,31363,0
patternCount-44,true,1.00,1221,431,1192,421,36018,0
patternCount-45,true,1.00,1789,474,1761,464,49951,0
patternCount-46,true,1.00,2224,487,2194,477,68254,0
patternCount-47,true,1.00,2637,534,2610,524,83539,0
patternCount-48,true,1.00,1192,449,1167,439,36525,0
patternCount-49,true,1.00,2313,532,2284,516,72899,0
patternCount-50,false,0.90,6785,587,6773,587,207386,0
patternCount-51,true,1.00,1632,506,1618,496,51927,0
patternCount-52,true,1.00,1585,482,1554,472,52499,0
patternCount-53,false,0.79,3625,396,3607,396,118406,0
patternCount-54,true,1.00,2143,505,2112,495,66835,0
patternCount-55,false,0.55,2876,352,2859,352,91792,0
patternCount-56,true,1.00,2025,501,2004,491,62407,0
patternCount-57,true,1.00,1400,477,1360,467,45997,0
patternCount-58,false,0.62,3658,434,3644,434,117025,0
patternCount-59,true,1.00,1606,504,1587,494,66854,0
patternCount-60,true,1.00,2015,542,1994,532,89315,0
patternCount-61,true,1.00,1291,537,1264,524,54942,0
patternCount-62,true,1.00,1274,472,1255,455,52706,0
patternCount-63,true,1.00,1372,453,1354,443,55897,0
patternCount-64,true,1.00,1363,437,1343,427,55313,0
patternCount-65,true,1.00,1521,476,1503,465,62228,0
patternCount-66,true,1.00,1718,510,1699,500,74205,0
patternCount-67,true,1.00,2480,481,2462,470,118362,0
patternCount-68,true,1.00,930,449,912,439,41387,0
patternCount-69,true,1.00,1168,483,1155,473,51503,0
patternCount-70,true,1.00,1171,436,1161,426,45584,0
patternCount-71,true,1.00,1498,529,1475,519,72469,0
patternCount-72,false,0.82,3466,460,3459,460,159859,0
patternCount-73,true,1.00,2572,576,2554,566,109071,0
patternCount-74,false,0.82,8310,630,8287,630,359168,0
patternCount-75,true,1.00,1735,503,1712,489,75785,0
patternCount-76,true,1.00,1921,515,1906,505,88839,0
patternCount-77,true,1.00,1586,449,1570,437,73875,0
patternCount-78,true,1.00,2400,469,2384,459,111110,0
patternCount-79,false,0.75,4058,475,4045,475,173139,0
patternCount-80,true,1.00,4115,565,4101,549,190270,0
patternCount-81,true,1.00,1616,503,1599,493,75169,0
patternCount-82,true,1.00,1254,465,1240,455,58074,0
patternCount-83,true,1.00,1199,470,1183,460,53444,0
patternCount-84,true,1.00,874,467,858,457,41000,0
patternCount-85,true,1.00,1085,456,1068,446,52570,0
patternCount-86,true,1.00,1448,505,1430,495,69243,0
patternCount-87,true,1.00,1842,532,1814,514,89239,0
patternCount-88,true,1.00,1629,428,1617,416,76395,0
patternCount-89,true,1.00,1451,471,1437,461,70359,0
patternCount-90,true,1.00,878,428,865,418,42585,0
patternCount-91,true,1.00,1774,539,1762,529,84526,0
patternCount-92,true,1.00,1471,512,1458,502,67799,0
patternCount-93,false,0.79,4782,503,4773,503,229868,0
patternCount-94,true,1.00,1707,483,1687,472,79509,0
patternCount-95,true,1.00,2201,503,2182,493,105034,0
patternCount-96,true,1.00,1174,494,1157,484,55396,0
patternCount-97,false,0.82,7253,539,7236,539,322093,0
patternCount-98,true,1.00,1836,521,1816,511,87399,0
patternCount-99,true,1.00,1436,544,1424,534,69543,0
patternCount-100,true,1.00,1048,422,1039,412,49591,0
