NDW:0.0
TTFW:0.8
DFPT:2.0
DFPAP:3.0
DFPMP:3.0
RIGHT_WINDOW_BORDER_X:295.0
level,win/fail,% travelled,run time,game ticks,planning time,total plannings,nodes evaluated,most backtracked nodes
ore-1,true,1.00,1358,427,1355,386,144005,0
ore-2,false,0.70,2012,276,2012,276,185893,0
ore-3,true,1.00,1916,432,1916,397,200127,0
ore-4,true,1.00,1848,393,1843,363,191387,0
ore-5,true,1.00,1611,413,1609,380,168206,0
ore-6,true,1.00,1369,392,1364,353,132427,0
ore-7,true,1.00,1315,391,1313,353,139589,0
ore-8,false,0.13,925,66,925,66,72457,0
ore-9,true,1.00,1001,369,998,337,101897,0
ore-10,true,1.00,1258,365,1256,338,140159,0
ore-11,true,1.00,1491,454,1489,417,154205,0
ore-12,true,1.00,1632,401,1627,361,166170,0
ore-13,true,1.00,1496,417,1492,387,153486,0
ore-14,true,1.00,1908,425,1904,398,204537,0
ore-15,true,1.00,1811,399,1808,372,183740,0
ore-16,true,1.00,1299,380,1296,348,139486,0
ore-17,true,1.00,1367,429,1366,381,149376,0
ore-18,true,1.00,1208,430,1203,389,127257,0
ore-19,true,1.00,1517,398,1516,368,161293,0
ore-20,true,1.00,1867,436,1866,400,191035,0
ore-21,true,1.00,1599,382,1595,355,176667,0
ore-22,false,0.62,1670,278,1669,278,141108,0
ore-23,true,1.00,1200,332,1199,304,131538,0
ore-24,true,1.00,1346,411,1345,370,138574,0
ore-25,true,1.00,1339,402,1338,368,144768,0
ore-26,true,1.00,1238,402,1234,367,121611,0
ore-27,true,1.00,2074,429,2073,401,205861,0
ore-28,true,1.00,1212,443,1209,411,114083,0
ore-29,true,1.00,1805,385,1800,358,180881,0
ore-30,true,1.00,1291,397,1289,352,131470,0
ore-31,true,1.00,1407,434,1402,394,144548,0
ore-32,true,1.00,1330,394,1330,356,136382,0
ore-33,true,1.00,1455,411,1454,383,147624,0
ore-34,true,1.00,1599,424,1595,387,168299,0
ore-35,true,1.00,1552,394,1549,366,173665,0
ore-36,true,1.00,1184,417,1181,374,126142,0
ore-37,false,0.35,1661,142,1661,142,135178,0
ore-38,true,1.00,1184,377,1182,348,122308,0
ore-39,true,1.00,1677,422,1673,393,180466,0
ore-40,true,1.00,1601,379,1600,342,163271,0
ore-41,true,1.00,1391,394,1387,367,153723,0
ore-42,true,1.00,1796,422,1794,390,190116,0
ore-43,true,1.00,1967,400,1963,373,193706,0
ore-44,true,1.00,1619,391,1614,348,177770,0
ore-45,true,1.00,2429,478,2423,438,240071,0
ore-46,false,0.13,830,48,830,48,68032,0
ore-47,true,1.00,1542,423,1537,391,163250,0
ore-48,true,1.00,2801,462,2799,435,291085,0
ore-49,true,1.00,1346,407,1346,375,139052,0
ore-50,true,1.00,1615,353,1613,325,170505,0
ore-51,true,1.00,1598,429,1596,392,169078,0
ore-52,true,1.00,1348,412,1346,374,135239,0
ore-53,true,1.00,1460,445,1459,404,147385,0
ore-54,true,1.00,1782,420,1778,383,192524,0
ore-55,true,1.00,1292,389,1288,353,144445,0
ore-56,true,1.00,1446,388,1444,361,153097,0
ore-57,true,1.00,1459,380,1456,337,152102,0
ore-58,true,1.00,1211,354,1204,327,126776,0
ore-59,true,1.00,1619,394,1617,365,167377,0
ore-60,true,1.00,2045,392,2042,359,215703,0
ore-61,true,1.00,1508,395,1506,363,151771,0
ore-62,true,1.00,1366,372,1362,344,150516,0
ore-63,true,1.00,1689,389,1688,362,171751,0
ore-64,true,1.00,1030,383,1026,356,109104,0
ore-65,true,1.00,1629,411,1628,374,169441,0
ore-66,true,1.00,1792,433,1788,383,186617,0
ore-67,true,1.00,1580,392,1578,355,165095,0
ore-68,true,1.00,1093,384,1091,346,113132,0
ore-69,true,1.00,2360,467,2359,413,236901,0
ore-70,true,1.00,1956,416,1951,390,201203,0
ore-71,true,1.00,1544,422,1542,387,162912,0
ore-72,true,1.00,1204,398,1203,369,131425,0
ore-73,true,1.00,1530,411,1528,382,166206,0
ore-74,true,1.00,1608,393,1607,355,156876,0
ore-75,true,1.00,1468,413,1463,383,156688,0
ore-76,true,1.00,1143,342,1140,309,123954,0
ore-77,true,1.00,1570,403,1566,361,163057,0
ore-78,true,1.00,1786,387,1781,360,198061,0
ore-79,true,1.00,2074,416,2071,389,225477,0
ore-80,true,1.00,1420,356,1419,327,149114,0
ore-81,true,1.00,1712,423,1708,394,179583,0
ore-82,true,1.00,1605,382,1603,350,171762,0
ore-83,true,1.00,1474,453,1471,426,152902,0
ore-84,true,1.00,2418,385,2416,356,217549,0
ore-85,true,1.00,1192,380,1186,345,123660,0
ore-86,true,1.00,1500,395,1497,363,165949,0
ore-87,true,1.00,934,356,930,329,95308,0
ore-88,true,1.00,1718,408,1716,373,186465,0
ore-89,true,1.00,1879,387,1875,360,192875,0
ore-90,true,1.00,2641,437,2639,395,284711,0
ore-91,true,1.00,1678,398,1675,371,179945,0
ore-92,true,1.00,1348,363,1348,332,145491,0
ore-93,false,0.14,2589,104,2588,104,201026,0
ore-94,true,1.00,1721,390,1719,363,176634,0
ore-95,true,1.00,2135,464,2132,424,210892,0
ore-96,true,1.00,1812,466,1808,439,188450,0
ore-97,true,1.00,1522,426,1515,388,153323,0
ore-98,true,1.00,1648,426,1647,396,175907,0
ore-99,true,1.00,1708,407,1704,373,174039,0
ore-100,true,1.00,1146,383,1142,345,125299,0
