NDW:0.0
TTFW:1.4
DFPT:2.0
DFPAP:3.0
DFPMP:0.0
RIGHT_WINDOW_BORDER_X:75.0
level,win/fail,% travelled,run time,game ticks,planning time,total plannings,nodes evaluated,most backtracked nodes
patternWeightCount-1,false,0.93,10453,860,10441,860,675657,0
patternWeightCount-2,true,1.00,1238,519,1230,509,78090,0
patternWeightCount-3,true,1.00,842,472,837,464,55217,0
patternWeightCount-4,true,1.00,1437,504,1430,497,88653,0
patternWeightCount-5,true,1.00,3843,655,3834,648,261802,0
patternWeightCount-6,true,1.00,3822,596,3811,589,242705,0
patternWeightCount-7,true,1.00,1214,498,1204,491,76614,0
patternWeightCount-8,true,1.00,996,491,985,484,60422,0
patternWeightCount-9,true,1.00,1951,554,1944,547,127574,0
patternWeightCount-10,true,1.00,1715,637,1701,630,109194,0
patternWeightCount-11,true,1.00,1459,542,1451,535,98732,0
patternWeightCount-12,true,1.00,1229,509,1221,501,79498,0
patternWeightCount-13,true,1.00,2898,546,2889,539,186456,0
patternWeightCount-14,true,1.00,1680,547,1667,540,109798,0
patternWeightCount-15,true,1.00,3784,589,3776,582,247018,0
patternWeightCount-16,true,1.00,5600,660,5593,653,368454,0
patternWeightCount-17,true,1.00,2693,527,2681,521,183081,0
patternWeightCount-18,false,0.01,69,21,69,21,5043,0
patternWeightCount-19,true,1.00,701,509,691,502,43259,0
patternWeightCount-20,false,0.57,23583,999,23574,999,1504927,0
patternWeightCount-21,true,1.00,565,486,546,479,38068,0
patternWeightCount-22,false,0.92,5396,647,5380,647,354623,0
patternWeightCount-23,true,1.00,1870,602,1864,582,115700,0
patternWeightCount-24,true,1.00,2612,592,2601,583,170999,0
patternWeightCount-25,true,1.00,6463,782,6446,775,412810,0
patternWeightCount-26,true,1.00,3198,612,3190,604,216507,0
patternWeightCount-27,true,1.00,3405,632,3397,619,219405,0
patternWeightCount-28,true,1.00,2099,587,2090,580,138351,0
patternWeightCount-29,true,1.00,3981,635,3966,626,258981,0
patternWeightCount-30,false,0.85,7369,672,7360,672,466084,0
patternWeightCount-31,true,1.00,5727,639,5715,633,370130,0
patternWeightCount-32,true,1.00,918,496,905,489,59366,0
patternWeightCount-33,true,1.00,2379,577,2370,571,155199,0
patternWeightCount-34,true,1.00,4302,557,4295,551,266390,0
patternWeightCount-35,false,0.63,20390,999,20383,999,1346234,0
patternWeightCount-36,true,1.00,3966,676,3953,669,257275,0
patternWeightCount-37,true,1.00,2474,542,2461,536,163034,0
patternWeightCount-38,false,0.94,9652,801,9636,801,639863,0
patternWeightCount-39,false,0.24,28041,999,28036,999,1669308,0
patternWeightCount-40,true,1.00,6290,720,6273,713,412765,0
patternWeightCount-41,true,1.00,2856,581,2841,574,185111,0
patternWeightCount-42,false,0.87,8746,709,8731,709,554369,0
patternWeightCount-43,true,1.00,1819,546,1805,539,118796,0
patternWeightCount-44,true,1.00,3587,668,3572,653,245763,0
patternWeightCount-45,false,0.91,9806,999,9798,999,588155,0
patternWeightCount-46,false,0.85,7813,697,7798,697,503366,0
patternWeightCount-47,true,1.00,2976,580,2963,573,182930,0
patternWeightCount-48,true,1.00,1025,491,1020,484,63754,0
patternWeightCount-49,true,1.00,1670,522,1662,510,104502,0
patternWeightCount-50,true,1.00,1588,479,1573,473,93553,0
patternWeightCount-51,true,1.00,1381,523,1371,510,85991,0
patternWeightCount-52,true,1.00,3191,661,3179,637,203913,0
patternWeightCount-53,false,0.72,5869,535,5863,535,362445,0
patternWeightCount-54,true,1.00,1253,574,1243,567,81445,0
patternWeightCount-55,false,0.96,18068,999,18058,999,969426,0
patternWeightCount-56,true,1.00,4915,620,4906,613,309443,0
patternWeightCount-57,true,1.00,711,482,702,476,46124,0
patternWeightCount-58,true,1.00,1722,537,1714,528,108167,0
patternWeightCount-59,true,1.00,699,481,686,474,44540,0
patternWeightCount-60,true,1.00,5588,703,5576,696,364355,0
patternWeightCount-61,true,1.00,2248,577,2234,567,140238,0
patternWeightCount-62,false,0.98,6020,671,6005,671,377351,0
patternWeightCount-63,true,1.00,4794,668,4779,662,303611,0
patternWeightCount-64,true,1.00,3607,656,3588,649,223200,0
patternWeightCount-65,true,1.00,2659,601,2649,594,165523,0
patternWeightCount-66,true,1.00,1686,522,1674,515,107864,0
patternWeightCount-67,true,1.00,2138,585,2125,579,128730,0
patternWeightCount-68,false,0.85,17803,999,17792,999,692218,0
patternWeightCount-69,false,0.81,2404,459,2395,459,145641,0
patternWeightCount-70,true,1.00,2048,607,2036,600,127424,0
patternWeightCount-71,true,1.00,1037,516,1024,509,63382,0
patternWeightCount-72,false,0.74,7959,590,7952,590,527776,0
patternWeightCount-73,false,0.66,7687,574,7678,574,485228,0
patternWeightCount-74,true,1.00,1749,498,1738,492,114289,0
patternWeightCount-75,true,1.00,2522,574,2508,568,161595,0
patternWeightCount-76,true,1.00,2441,589,2430,582,156705,0
patternWeightCount-77,true,1.00,3161,615,3147,607,200926,0
patternWeightCount-78,false,0.80,10387,793,10382,793,637325,0
patternWeightCount-79,true,1.00,1966,508,1960,502,117986,0
patternWeightCount-80,true,1.00,2009,566,1997,559,123155,0
patternWeightCount-81,false,0.82,5763,617,5756,617,351009,0
patternWeightCount-82,true,1.00,606,493,592,486,37171,0
patternWeightCount-83,true,1.00,1493,568,1484,562,97213,0
patternWeightCount-84,true,1.00,1570,513,1555,507,100305,0
patternWeightCount-85,true,1.00,3999,608,3992,601,253270,0
patternWeightCount-86,false,0.87,17362,999,17350,999,1104364,0
patternWeightCount-87,false,0.72,5806,531,5794,531,360974,0
patternWeightCount-88,true,1.00,3444,587,3428,579,223230,0
patternWeightCount-89,true,1.00,1998,522,1990,515,127141,0
patternWeightCount-90,false,0.76,5327,515,5323,515,348490,0
patternWeightCount-91,true,1.00,1620,552,1606,545,103942,0
patternWeightCount-92,false,0.96,16808,999,16791,999,1055475,0
patternWeightCount-93,false,0.89,7296,703,7290,703,487948,0
patternWeightCount-94,true,1.00,3005,615,2993,608,201062,0
patternWeightCount-95,true,1.00,3276,601,3259,595,215530,0
patternWeightCount-96,true,1.00,1234,611,1224,604,78675,0
patternWeightCount-97,true,1.00,4841,570,4829,563,321608,0
patternWeightCount-98,false,0.93,17519,989,17513,989,1125246,0
patternWeightCount-99,true,1.00,3152,643,3133,636,205227,0
patternWeightCount-100,true,1.00,2247,525,2239,517,148248,0
