NDW:0.0
TTFW:1.6
DFPT:2.0
DFPAP:3.0
DFPMP:20.0
RIGHT_WINDOW_BORDER_X:115.0
level,win/fail,% travelled,run time,game ticks,planning time,total plannings,nodes evaluated,most backtracked nodes
patternWeightCount-1,true,1.00,12705,862,12704,849,1573149,0
patternWeightCount-2,true,1.00,867,499,864,482,110815,0
patternWeightCount-3,true,1.00,823,471,821,461,103695,0
patternWeightCount-4,true,1.00,593,452,592,442,72554,0
patternWeightCount-5,true,1.00,2467,567,2463,557,301822,0
patternWeightCount-6,true,1.00,1801,564,1798,554,223216,0
patternWeightCount-7,true,1.00,793,453,788,442,96541,0
patternWeightCount-8,true,1.00,400,478,397,468,43837,0
patternWeightCount-9,true,1.00,792,503,790,493,102541,0
patternWeightCount-10,true,1.00,1100,562,1097,552,127460,0
patternWeightCount-11,true,1.00,444,476,441,466,63306,0
patternWeightCount-12,true,1.00,1756,587,1755,577,216004,0
patternWeightCount-13,true,1.00,1698,484,1697,474,203796,0
patternWeightCount-14,true,1.00,1506,503,1501,492,187792,0
patternWeightCount-15,true,1.00,4744,590,4739,580,577495,0
patternWeightCount-16,true,1.00,7741,757,7736,740,1013700,0
patternWeightCount-17,true,1.00,538,504,536,494,74647,0
patternWeightCount-18,true,1.00,1514,501,1509,491,191830,0
patternWeightCount-19,true,1.00,867,504,866,494,97053,0
patternWeightCount-20,false,0.61,5312,443,5309,443,583793,0
patternWeightCount-21,true,1.00,355,532,354,522,53619,0
patternWeightCount-22,true,1.00,5505,712,5502,692,711244,0
patternWeightCount-23,true,1.00,751,532,749,507,95196,0
patternWeightCount-24,true,1.00,2065,509,2060,489,256309,0
patternWeightCount-25,true,1.00,1605,508,1600,498,199523,0
patternWeightCount-26,true,1.00,1287,542,1283,528,166344,0
patternWeightCount-27,true,1.00,1758,538,1756,515,228035,0
patternWeightCount-28,true,1.00,1174,559,1172,549,157637,0
patternWeightCount-29,true,1.00,2240,510,2239,500,293992,0
patternWeightCount-30,false,0.86,5521,577,5516,577,585248,0
patternWeightCount-31,true,1.00,4815,580,4814,570,667062,0
patternWeightCount-32,true,1.00,408,474,408,464,54019,0
patternWeightCount-33,true,1.00,1707,552,1705,542,221476,0
patternWeightCount-34,true,1.00,2004,497,2004,487,230756,0
patternWeightCount-35,true,1.00,3555,644,3551,634,410694,0
patternWeightCount-36,true,1.00,2098,509,2096,499,256399,0
patternWeightCount-37,true,1.00,884,447,881,437,103448,0
patternWeightCount-38,false,0.95,4797,565,4797,565,544498,0
patternWeightCount-39,true,1.00,2088,462,2087,452,239023,0
patternWeightCount-40,true,1.00,1795,504,1793,494,225915,0
patternWeightCount-41,true,1.00,2407,552,2401,541,309832,0
patternWeightCount-42,false,0.87,6369,589,6364,589,750047,0
patternWeightCount-43,true,1.00,1613,463,1610,453,190227,0
patternWeightCount-44,true,1.00,2293,575,2287,561,333397,0
patternWeightCount-45,true,1.00,8893,772,8890,751,984674,0
patternWeightCount-46,false,0.86,6060,599,6057,599,718072,0
patternWeightCount-47,true,1.00,1396,479,1391,469,161483,0
patternWeightCount-48,true,1.00,627,445,622,435,77029,0
patternWeightCount-49,true,1.00,1114,475,1113,465,132248,0
patternWeightCount-50,true,1.00,741,452,738,441,84513,0
patternWeightCount-51,true,1.00,1165,474,1163,454,140721,0
patternWeightCount-52,true,1.00,3664,624,3662,610,491173,0
patternWeightCount-53,false,0.76,5496,561,5488,561,566034,0
patternWeightCount-54,true,1.00,1957,574,1954,564,240622,0
patternWeightCount-55,false,0.97,2265,543,2260,543,226258,0
patternWeightCount-56,true,1.00,951,473,949,463,114208,0
patternWeightCount-57,true,1.00,722,458,717,448,105269,0
patternWeightCount-58,true,1.00,2224,567,2221,556,278443,0
patternWeightCount-59,true,1.00,481,447,479,437,69460,0
patternWeightCount-60,true,1.00,2153,578,2149,566,271223,0
patternWeightCount-61,true,1.00,2556,531,2556,509,323153,0
patternWeightCount-62,false,0.96,4103,589,4100,589,496927,0
patternWeightCount-63,true,1.00,1993,551,1988,541,264966,0
patternWeightCount-64,true,1.00,2541,526,2536,516,297264,0
patternWeightCount-65,true,1.00,1986,582,1979,572,233045,0
patternWeightCount-66,true,1.00,1153,462,1150,452,151791,0
patternWeightCount-67,true,1.00,806,555,796,545,93864,0
patternWeightCount-68,true,1.00,1205,538,1202,528,132826,0
patternWeightCount-69,false,0.96,6626,618,6625,618,793451,0
patternWeightCount-70,true,1.00,1232,554,1227,542,160592,0
patternWeightCount-71,true,1.00,999,423,997,412,123714,0
patternWeightCount-72,false,0.83,7266,606,7264,606,924439,0
patternWeightCount-73,false,0.66,2555,367,2555,367,304624,0
patternWeightCount-74,true,1.00,631,440,628,430,81331,0
patternWeightCount-75,true,1.00,1146,490,1142,480,141305,0
patternWeightCount-76,true,1.00,782,537,778,527,101945,0
patternWeightCount-77,true,1.00,2341,540,2338,530,290912,0
patternWeightCount-78,true,1.00,6930,749,6929,739,827667,0
patternWeightCount-79,true,1.00,2323,472,2321,462,266342,0
patternWeightCount-80,true,1.00,2083,578,2077,568,244363,0
patternWeightCount-81,false,0.81,3405,518,3400,518,345345,0
patternWeightCount-82,true,1.00,136,418,134,406,18754,0
patternWeightCount-83,true,1.00,560,455,558,445,77399,0
patternWeightCount-84,true,1.00,838,529,838,519,102928,0
patternWeightCount-85,true,1.00,3544,590,3544,580,445994,0
patternWeightCount-86,false,0.93,7098,606,7097,606,814342,0
patternWeightCount-87,false,0.72,4065,461,4062,461,441304,0
patternWeightCount-88,true,1.00,2419,540,2416,528,299916,0
patternWeightCount-89,true,1.00,536,448,531,438,68412,0
patternWeightCount-90,false,0.89,9627,763,9625,763,1174183,0
patternWeightCount-91,true,1.00,1808,570,1804,560,230419,0
patternWeightCount-92,true,1.00,7853,722,7852,708,927072,0
patternWeightCount-93,false,0.90,6022,647,6019,647,733720,0
patternWeightCount-94,true,1.00,1040,493,1038,483,125613,0
patternWeightCount-95,true,1.00,1873,531,1869,521,226977,0
patternWeightCount-96,true,1.00,1564,555,1560,545,192021,0
patternWeightCount-97,true,1.00,2616,465,2616,455,325777,0
patternWeightCount-98,false,0.94,13843,810,13841,810,1596853,0
patternWeightCount-99,true,1.00,2215,531,2213,521,279140,0
patternWeightCount-100,true,1.00,801,469,798,459,99073,0
