NDW:0.0
TTFW:2.0
DFPT:2.0
DFPAP:3.0
DFPMP:1.0
RIGHT_WINDOW_BORDER_X:215.0
level,win/fail,% travelled,run time,game ticks,planning time,total plannings,nodes evaluated,most backtracked nodes
Mario-1,true,1.00,832,417,823,379,46002,0
Mario-2,true,1.00,1015,366,1010,338,58902,0
Mario-3,true,1.00,1920,277,1912,249,105426,0
Mario-4,true,1.00,1146,421,1135,375,59796,0
Mario-5,true,1.00,1145,464,1138,433,64868,0
Mario-6,true,1.00,2075,271,2068,251,114041,0
Mario-7,true,1.00,657,439,648,392,34777,0
Mario-8,true,1.00,1414,486,1403,443,72262,0
Mario-9,true,1.00,465,411,459,368,26415,0
Mario-10,true,1.00,2420,348,2414,320,149807,0
Mario-11,true,1.00,1057,417,1045,381,61814,0
Mario-12,true,1.00,1417,660,1399,622,65258,0
Mario-13,true,1.00,2118,323,2108,302,119792,0
Mario-14,true,1.00,300,405,291,374,15014,0
Mario-15,true,1.00,2192,913,2171,870,121066,0
