NDW:0.0
TTFW:1.6
DFPT:2.0
DFPAP:3.0
DFPMP:20.0
RIGHT_WINDOW_BORDER_X:55.0
level,win/fail,% travelled,run time,game ticks,planning time,total plannings,nodes evaluated,most backtracked nodes
patternCount-1,false,0.66,11509,999,11493,999,666002,0
patternCount-2,true,1.00,3602,828,3583,822,215966,0
patternCount-3,false,0.17,3472,291,3468,291,203745,0
patternCount-4,false,0.98,4705,776,4692,776,288276,0
patternCount-5,true,1.00,4627,871,4609,865,273955,0
patternCount-6,true,1.00,1409,702,1388,697,89688,0
patternCount-7,true,1.00,5116,877,5102,871,322157,0
patternCount-8,false,0.86,9352,970,9334,970,576903,0
patternCount-9,false,0.88,5245,999,5230,999,317641,0
patternCount-10,true,1.00,1367,719,1352,712,88563,0
patternCount-11,false,0.13,669,153,669,153,43508,0
patternCount-12,true,1.00,4568,863,4547,856,298022,0
patternCount-13,true,1.00,1948,818,1923,812,124568,0
patternCount-14,false,0.96,8793,999,8777,999,538008,0
patternCount-15,true,1.00,3365,810,3350,805,210275,0
patternCount-16,true,1.00,3528,971,3511,965,210689,0
patternCount-17,true,1.00,3038,788,3024,781,191565,0
patternCount-18,false,0.22,2127,356,2121,356,138441,0
patternCount-19,false,0.24,1503,322,1498,322,88494,0
patternCount-20,true,1.00,5407,830,5394,823,333820,0
patternCount-21,false,0.21,451,173,448,173,28064,0
patternCount-22,false,0.82,7512,894,7501,894,471912,0
patternCount-23,false,0.00,2760,999,2740,999,223362,0
patternCount-24,false,0.58,10843,859,10831,859,630382,0
patternCount-25,true,1.00,4443,988,4422,982,271651,0
patternCount-26,true,1.00,1548,767,1532,760,95471,0
patternCount-27,false,0.67,4359,703,4343,703,271279,0
patternCount-28,false,0.42,4222,513,4213,513,250113,0
patternCount-29,false,0.18,2486,343,2481,343,165304,0
patternCount-30,true,1.00,2468,781,2452,776,160394,0
patternCount-31,true,1.00,8092,994,8076,989,470049,0
patternCount-32,false,0.32,1331,441,1321,441,85375,0
patternCount-33,false,0.65,3177,773,3167,773,191800,0
patternCount-34,false,0.82,8138,999,8122,999,488537,0
patternCount-35,true,1.00,3985,839,3969,834,247128,0
patternCount-36,false,0.08,732,127,729,127,44248,0
patternCount-37,false,0.33,4826,488,4813,488,282260,0
patternCount-38,false,0.55,7262,999,7240,999,441766,0
patternCount-39,true,1.00,3254,857,3240,850,195649,0
patternCount-40,false,0.76,12563,996,12552,996,800498,0
patternCount-41,false,0.65,3749,653,3736,653,237145,0
patternCount-42,true,1.00,4958,997,4936,991,310026,0
patternCount-43,true,1.00,1713,819,1695,813,113354,0
patternCount-44,true,1.00,3815,840,3796,833,234132,0
patternCount-45,true,1.00,2943,914,2931,902,175615,0
patternCount-46,false,0.90,6240,999,6229,999,385717,0
patternCount-47,false,0.58,7470,847,7456,847,468758,0
patternCount-48,true,1.00,3074,818,3051,812,204771,0
patternCount-49,false,0.90,4739,999,4726,999,284361,0
patternCount-50,true,1.00,1358,782,1342,775,89653,0
patternCount-51,false,0.99,3693,999,3668,999,234130,0
patternCount-52,true,1.00,4287,921,4268,911,273064,0
patternCount-53,false,0.76,11307,914,11295,914,673566,0
patternCount-54,false,1.00,8783,999,8764,999,572026,0
patternCount-55,false,0.55,7643,751,7625,751,480088,0
patternCount-56,true,1.00,4896,986,4872,976,295856,0
patternCount-57,true,1.00,5776,944,5758,939,344980,0
patternCount-58,false,0.80,3949,687,3937,687,261226,0
patternCount-59,true,1.00,3780,865,3769,858,237957,0
patternCount-60,false,0.57,6274,689,6266,689,373409,0
patternCount-61,true,1.00,5652,968,5634,962,332598,0
patternCount-62,false,0.30,4879,494,4873,494,306746,0
patternCount-63,true,1.00,2432,889,2411,882,158531,0
patternCount-64,true,1.00,3594,950,3572,945,231133,0
patternCount-65,true,1.00,4442,820,4423,813,274830,0
patternCount-66,true,1.00,5267,845,5248,840,332943,0
patternCount-67,false,0.38,2420,389,2409,389,151768,0
patternCount-68,true,1.00,1740,739,1729,734,112498,0
patternCount-69,true,1.00,3342,828,3327,821,205382,0
patternCount-70,true,1.00,3480,862,3463,857,229074,0
patternCount-71,false,0.89,5168,999,5149,999,321792,0
patternCount-72,false,0.66,8341,829,8332,829,512952,0
patternCount-73,true,1.00,5932,963,5916,955,352198,0
patternCount-74,false,0.53,6253,662,6243,662,381214,0
patternCount-75,true,1.00,5220,905,5202,899,305936,0
patternCount-76,true,1.00,4809,943,4797,937,294876,0
patternCount-77,false,0.03,228,72,225,72,16387,0
patternCount-78,false,0.66,6641,834,6631,834,410172,0
patternCount-79,false,0.75,6868,786,6856,786,431313,0
patternCount-80,false,0.63,14361,999,14348,999,906274,0
patternCount-81,true,1.00,3566,856,3546,851,216951,0
patternCount-82,true,1.00,4242,845,4218,834,268435,0
patternCount-83,true,1.00,3704,929,3681,924,231467,0
patternCount-84,true,1.00,3139,899,3123,892,198140,0
patternCount-85,false,0.05,401,103,400,103,27024,0
patternCount-86,true,1.00,2429,881,2415,873,155157,0
patternCount-87,true,1.00,5205,823,5190,818,328713,0
patternCount-88,false,0.99,6488,999,6461,999,414908,0
patternCount-89,false,0.09,2884,181,2882,181,179252,0
patternCount-90,true,1.00,1420,738,1411,731,89988,0
patternCount-91,false,0.98,5801,999,5781,999,337942,0
patternCount-92,false,0.61,3521,604,3516,604,221006,0
patternCount-93,false,0.57,6737,724,6730,724,430493,0
patternCount-94,true,1.00,5120,873,5103,868,316326,0
patternCount-95,true,1.00,8276,960,8258,955,508400,0
patternCount-96,true,1.00,2553,885,2540,878,156557,0
patternCount-97,false,0.72,7173,712,7159,712,444855,0
patternCount-98,false,0.76,6724,999,6700,999,425994,0
patternCount-99,false,0.95,4863,999,4848,999,300062,0
patternCount-100,true,1.00,2903,826,2889,820,179527,0
