NDW:0.0
TTFW:1.6
DFPT:2.0
DFPAP:3.0
DFPMP:3.0
RIGHT_WINDOW_BORDER_X:176.0
level,win/fail,% travelled,run time,game ticks,planning time,total plannings,nodes evaluated,most backtracked nodes
notch-1,true,1.00,1478,295,1477,279,159378,0
notch-2,true,1.00,1323,282,1320,266,143177,0
notch-3,true,1.00,939,251,939,235,94876,0
notch-4,true,1.00,1691,295,1689,274,165109,0
notch-5,true,1.00,817,254,815,237,83840,0
notch-6,true,1.00,900,294,898,278,95996,0
notch-7,true,1.00,692,296,689,280,80639,0
notch-8,true,1.00,606,329,606,307,65349,0
notch-9,true,1.00,1055,291,1051,275,109039,0
notch-10,true,1.00,1015,289,1014,273,107737,0
notch-11,true,1.00,780,275,777,255,79733,0
notch-12,true,1.00,623,260,622,244,64878,0
notch-13,true,1.00,937,282,937,266,95306,0
notch-14,true,1.00,815,277,814,261,82765,0
notch-15,true,1.00,781,271,780,255,80016,0
notch-16,true,1.00,1391,305,1388,278,145491,0
notch-17,true,1.00,1035,290,1035,274,108659,0
notch-18,true,1.00,759,341,756,324,86147,0
notch-19,true,1.00,1216,268,1215,251,129994,0
notch-20,true,1.00,854,282,852,266,91048,0
notch-21,true,1.00,833,301,830,285,89521,0
notch-22,true,1.00,473,249,472,233,47635,0
notch-23,true,1.00,915,253,915,236,94474,0
notch-24,true,1.00,902,273,901,257,94137,0
notch-25,true,1.00,1187,333,1183,317,128247,0
notch-26,true,1.00,692,272,692,255,73559,0
notch-27,true,1.00,1551,308,1551,292,172803,0
notch-28,true,1.00,1315,292,1313,275,142167,0
notch-29,true,1.00,957,286,954,270,100525,0
notch-30,true,1.00,869,241,867,225,87136,0
notch-31,true,1.00,848,281,847,265,88665,0
notch-32,true,1.00,572,282,570,261,61314,0
notch-33,true,1.00,715,248,712,232,73680,0
notch-34,true,1.00,673,259,673,243,75128,0
notch-35,true,1.00,750,294,747,278,81396,0
notch-36,true,1.00,1129,292,1126,276,118146,0
notch-37,true,1.00,1170,289,1168,265,127112,0
notch-38,true,1.00,923,308,920,277,94868,0
notch-39,true,1.00,599,232,596,215,60755,0
notch-40,true,1.00,1089,287,1085,269,117586,0
notch-41,true,1.00,1135,306,1134,288,120106,0
notch-42,true,1.00,937,268,934,252,99369,0
notch-43,true,1.00,1111,270,1110,254,114666,0
notch-44,true,1.00,683,249,679,233,72651,0
notch-45,true,1.00,758,252,757,236,80666,0
notch-46,true,1.00,722,253,720,237,76110,0
notch-47,true,1.00,1054,291,1050,275,113203,0
notch-48,true,1.00,1181,278,1179,262,126206,0
notch-49,true,1.00,760,306,758,284,82025,0
notch-50,true,1.00,711,304,709,287,78155,0
notch-51,true,1.00,774,256,772,235,81992,0
notch-52,true,1.00,861,280,861,262,90844,0
notch-53,true,1.00,356,270,353,251,36555,0
notch-54,true,1.00,900,303,897,286,97765,0
notch-55,true,1.00,994,309,993,293,105298,0
notch-56,true,1.00,795,293,793,277,83322,0
notch-57,true,1.00,698,291,695,275,70926,0
notch-58,true,1.00,1395,310,1395,294,153874,0
notch-59,true,1.00,748,307,747,280,74422,0
notch-60,true,1.00,1049,281,1048,265,107148,0
notch-61,true,1.00,857,247,856,231,86645,0
notch-62,true,1.00,734,313,732,297,78472,0
notch-63,true,1.00,1345,307,1345,286,155458,0
notch-64,true,1.00,874,253,874,237,89897,0
notch-65,true,1.00,1361,327,1361,307,154362,0
notch-66,true,1.00,885,301,883,284,93328,0
notch-67,true,1.00,792,255,792,239,78614,0
notch-68,true,1.00,475,244,473,228,49492,0
notch-69,true,1.00,1361,285,1359,269,145773,0
notch-70,true,1.00,1183,328,1177,311,132815,0
notch-71,true,1.00,1334,273,1334,257,135414,0
notch-72,true,1.00,643,245,641,229,70109,0
notch-73,true,1.00,687,269,687,253,72550,0
notch-74,true,1.00,623,259,623,243,71983,0
notch-75,true,1.00,1324,282,1322,264,137459,0
notch-76,true,1.00,856,297,855,280,93360,0
notch-77,true,1.00,814,261,814,245,86619,0
notch-78,true,1.00,981,275,979,257,102265,0
notch-79,true,1.00,809,284,807,267,84045,0
notch-80,true,1.00,413,234,411,218,42265,0
notch-81,true,1.00,1689,264,1688,248,175331,0
notch-82,true,1.00,775,276,773,260,78800,0
notch-83,true,1.00,1516,309,1516,284,154563,0
notch-84,true,1.00,854,261,853,245,83790,0
notch-85,true,1.00,950,295,948,277,106205,0
notch-86,true,1.00,902,255,900,239,95076,0
notch-87,true,1.00,984,249,981,233,102187,0
notch-88,true,1.00,1529,305,1526,287,170652,0
notch-89,true,1.00,1311,297,1308,281,142884,0
notch-90,true,1.00,1048,272,1048,256,108792,0
notch-91,true,1.00,1607,309,1605,293,166402,0
notch-92,true,1.00,958,275,956,259,101758,0
notch-93,true,1.00,1127,291,1126,273,119195,0
notch-94,true,1.00,1678,298,1676,281,172014,0
notch-95,true,1.00,880,251,880,235,91459,0
notch-96,true,1.00,585,266,584,250,65451,0
notch-97,true,1.00,1080,284,1077,268,116036,0
notch-98,true,1.00,1184,284,1184,267,119138,0
notch-99,true,1.00,1302,309,1301,288,141705,0
notch-100,true,1.00,708,302,702,284,76232,0
