NDW:0.0
TTFW:0.4
DFPT:2.0
DFPAP:3.0
DFPMP:5.0
RIGHT_WINDOW_BORDER_X:400.0
level,win/fail,% travelled,run time,game ticks,planning time,total plannings,nodes evaluated,most backtracked nodes
patternCount-1,false,0.91,6392,378,6391,378,468987,0
patternCount-2,true,1.00,1962,359,1957,323,124501,0
patternCount-3,true,1.00,3667,388,3664,344,235824,0
patternCount-4,true,1.00,2869,396,2866,360,182723,0
patternCount-5,true,1.00,2273,369,2267,333,151452,0
patternCount-6,true,1.00,1298,326,1295,290,86778,0
patternCount-7,true,1.00,2465,399,2462,358,160665,0
patternCount-8,true,1.00,4354,432,4353,365,295449,0
patternCount-9,true,1.00,1762,340,1761,304,124682,0
patternCount-10,true,1.00,1707,360,1704,319,108882,0
patternCount-11,true,1.00,4318,385,4316,326,283251,0
patternCount-12,true,1.00,1588,354,1586,316,107217,0
patternCount-13,true,1.00,1480,367,1480,326,101596,0
patternCount-14,true,1.00,2196,378,2195,342,150848,0
patternCount-15,true,1.00,2386,357,2383,321,150816,0
patternCount-16,true,1.00,1679,360,1678,324,112004,0
patternCount-17,true,1.00,2428,380,2427,344,152875,0
patternCount-18,true,1.00,2041,375,2039,339,136846,0
patternCount-19,true,1.00,1586,361,1584,325,108381,0
patternCount-20,true,1.00,2821,422,2819,381,176943,0
patternCount-21,true,1.00,1967,375,1965,339,126735,0
patternCount-22,true,1.00,5217,470,5212,415,343166,0
patternCount-23,true,1.00,5991,435,5985,359,434675,0
patternCount-24,true,1.00,6414,428,6412,382,464000,0
patternCount-25,true,1.00,1548,350,1547,309,104554,0
patternCount-26,true,1.00,1530,374,1524,338,104344,0
patternCount-27,true,1.00,2431,378,2428,342,156644,0
patternCount-28,true,1.00,2162,368,2161,332,143370,0
patternCount-29,true,1.00,2115,375,2113,339,140402,0
patternCount-30,true,1.00,1970,377,1968,341,127795,0
patternCount-31,true,1.00,2653,417,2649,381,174523,0
patternCount-32,true,1.00,2873,426,2868,390,192247,0
patternCount-33,true,1.00,4211,420,4206,365,282040,0
patternCount-34,true,1.00,3024,394,3020,346,203227,0
patternCount-35,true,1.00,2280,387,2278,351,148046,0
patternCount-36,true,1.00,3498,461,3496,405,234919,0
patternCount-37,true,1.00,1650,372,1649,331,115203,0
patternCount-38,true,1.00,4471,486,4469,436,290993,0
patternCount-39,true,1.00,1171,331,1170,295,83058,0
patternCount-40,true,1.00,7954,505,7953,446,519167,0
patternCount-41,true,1.00,3119,399,3117,363,203830,0
patternCount-42,true,1.00,1777,348,1775,311,118670,0
patternCount-43,true,1.00,1436,344,1433,308,95934,0
patternCount-44,true,1.00,1585,344,1581,308,106960,0
patternCount-45,true,1.00,2008,369,2008,333,127775,0
patternCount-46,true,1.00,2817,368,2816,332,182466,0
patternCount-47,true,1.00,2842,382,2841,346,184635,0
patternCount-48,true,1.00,1643,377,1639,341,109466,0
patternCount-49,true,1.00,2055,382,2051,339,138456,0
patternCount-50,true,1.00,6023,430,6021,372,404045,0
patternCount-51,true,1.00,1953,398,1951,361,127636,0
patternCount-52,true,1.00,1949,389,1947,353,127782,0
patternCount-53,true,1.00,4825,410,4824,354,321291,0
patternCount-54,true,1.00,3898,407,3898,371,239205,0
patternCount-55,true,1.00,6535,405,6532,354,488599,0
patternCount-56,true,1.00,2555,369,2553,333,170498,0
patternCount-57,true,1.00,1557,353,1556,317,103865,0
patternCount-58,false,0.81,5444,331,5442,331,353667,0
patternCount-59,true,1.00,2167,368,2163,332,141061,0
patternCount-60,true,1.00,1945,363,1942,327,129922,0
patternCount-61,true,1.00,1902,386,1897,345,127720,0
patternCount-62,true,1.00,2278,381,2277,344,143890,0
patternCount-63,true,1.00,3247,441,3243,400,197580,0
patternCount-64,true,1.00,1313,348,1310,312,87190,0
patternCount-65,true,1.00,2386,418,2381,382,153062,0
patternCount-66,true,1.00,2604,352,2602,316,165567,0
patternCount-67,true,1.00,2010,336,2009,300,137108,0
patternCount-68,true,1.00,1877,398,1876,360,119776,0
patternCount-69,true,1.00,2445,369,2436,333,156203,0
patternCount-70,true,1.00,2592,385,2589,349,150141,0
patternCount-71,true,1.00,3203,383,3202,347,165958,0
patternCount-72,true,1.00,4661,346,4657,292,255348,0
patternCount-73,true,1.00,4553,433,4546,390,225659,0
patternCount-74,true,1.00,5857,392,5855,336,361652,0
patternCount-75,true,1.00,2528,436,2526,387,159199,0
patternCount-76,true,1.00,2018,346,2014,305,132724,0
patternCount-77,true,1.00,2780,418,2779,381,174972,0
patternCount-78,true,1.00,2618,387,2613,346,164350,0
patternCount-79,true,1.00,8396,524,8393,486,586551,0
patternCount-80,true,1.00,3217,396,3211,331,215684,0
patternCount-81,true,1.00,2769,412,2767,371,171421,0
patternCount-82,true,1.00,1819,346,1816,310,120982,0
patternCount-83,true,1.00,1776,406,1771,365,116405,0
patternCount-84,true,1.00,2742,402,2741,366,176231,0
patternCount-85,true,1.00,2354,370,2353,334,146301,0
patternCount-86,true,1.00,2015,390,2013,354,131653,0
patternCount-87,true,1.00,2167,360,2166,324,139021,0
patternCount-88,true,1.00,2938,388,2937,340,186855,0
patternCount-89,true,1.00,1480,332,1474,296,101264,0
patternCount-90,true,1.00,1665,346,1662,310,106245,0
patternCount-91,true,1.00,3313,402,3311,365,212561,0
patternCount-92,true,1.00,1746,352,1744,316,113921,0
patternCount-93,true,1.00,5721,408,5719,359,374961,0
patternCount-94,true,1.00,1968,368,1967,332,128206,0
patternCount-95,true,1.00,3226,396,3223,360,207065,0
patternCount-96,true,1.00,2008,408,2006,371,133737,0
patternCount-97,false,0.88,6545,402,6542,402,441689,0
patternCount-98,true,1.00,2483,376,2480,340,162366,0
patternCount-99,true,1.00,2491,405,2488,369,163044,0
patternCount-100,true,1.00,1890,371,1887,334,123514,0
