NDW:0.0
TTFW:1.6
DFPT:2.0
DFPAP:3.0
DFPMP:1.0
RIGHT_WINDOW_BORDER_X:255.0
level,win/fail,% travelled,run time,game ticks,planning time,total plannings,nodes evaluated,most backtracked nodes
notchParam-1,true,1.00,794,312,791,289,84346,0
notchParam-2,true,1.00,798,347,797,324,86498,0
notchParam-3,true,1.00,513,317,512,294,59007,0
notchParam-4,true,1.00,510,322,506,299,56173,0
notchParam-5,true,1.00,552,314,550,289,61518,0
notchParam-6,true,1.00,566,322,565,299,64067,0
notchParam-7,true,1.00,806,323,803,300,93032,0
notchParam-8,true,1.00,1077,319,1074,296,121620,0
notchParam-9,true,1.00,597,363,596,340,65994,0
notchParam-10,true,1.00,1012,318,1010,295,112603,0
notchParam-11,true,1.00,518,316,515,293,56772,0
notchParam-12,true,1.00,1066,327,1063,304,122390,0
notchParam-13,true,1.00,223,314,222,291,23035,0
notchParam-14,true,1.00,218,304,215,281,21687,0
notchParam-15,true,1.00,736,298,734,275,78553,0
notchParam-16,true,1.00,751,307,750,284,85343,0
notchParam-17,true,1.00,805,304,804,281,87388,0
notchParam-18,true,1.00,218,352,217,329,23484,0
notchParam-19,true,1.00,218,313,218,290,23144,0
notchParam-20,true,1.00,217,308,215,285,22357,0
notchParam-21,true,1.00,218,304,216,281,21222,0
notchParam-22,true,1.00,235,326,233,303,26490,0
notchParam-23,true,1.00,1219,380,1217,357,138757,0
notchParam-24,true,1.00,1103,340,1102,317,126586,0
notchParam-25,true,1.00,1074,322,1073,299,117721,0
notchParam-26,true,1.00,1074,352,1073,329,125675,0
notchParam-27,true,1.00,220,309,219,286,24367,0
notchParam-28,true,1.00,570,349,565,326,64075,0
notchParam-29,true,1.00,593,323,593,300,67471,0
notchParam-30,true,1.00,221,308,217,285,22866,0
notchParam-31,true,1.00,817,326,814,303,92813,0
notchParam-32,true,1.00,835,319,834,296,95975,0
notchParam-33,true,1.00,217,300,214,277,22640,0
notchParam-34,true,1.00,817,330,815,307,90495,0
notchParam-35,true,1.00,779,317,777,294,85071,0
notchParam-36,true,1.00,795,302,794,279,85419,0
notchParam-37,true,1.00,212,300,212,277,20663,0
notchParam-38,true,1.00,216,304,214,281,22996,0
notchParam-39,true,1.00,758,321,758,298,81245,0
notchParam-40,true,1.00,513,314,510,291,57628,0
notchParam-41,true,1.00,614,335,612,312,70319,0
notchParam-42,true,1.00,227,313,225,290,24996,0
notchParam-43,true,1.00,1000,318,998,295,113540,0
notchParam-44,true,1.00,1083,330,1083,307,125081,0
notchParam-45,true,1.00,1049,328,1048,298,124302,0
notchParam-46,true,1.00,1082,316,1081,293,116808,0
notchParam-47,true,1.00,224,312,224,289,25859,0
notchParam-48,true,1.00,246,338,244,315,27549,0
notchParam-49,true,1.00,232,337,231,309,25468,0
notchParam-50,true,1.00,212,327,209,304,20141,0
notchParam-51,true,1.00,215,308,213,285,22375,0
notchParam-52,true,1.00,743,306,741,283,86095,0
notchParam-53,true,1.00,801,317,800,294,96903,0
notchParam-54,true,1.00,820,322,816,299,89541,0
notchParam-55,true,1.00,235,319,233,296,25160,0
notchParam-56,true,1.00,190,314,189,291,19758,0
notchParam-57,true,1.00,1038,316,1037,293,122196,0
notchParam-58,true,1.00,609,349,609,326,68412,0
notchParam-59,true,1.00,1185,366,1185,343,132190,0
notchParam-60,true,1.00,548,333,548,310,58687,0
notchParam-61,true,1.00,1111,333,1108,310,126745,0
notchParam-62,true,1.00,676,298,675,275,72142,0
notchParam-63,true,1.00,588,338,587,315,64137,0
notchParam-64,true,1.00,525,328,524,305,60686,0
notchParam-65,true,1.00,548,332,545,309,61547,0
notchParam-66,true,1.00,549,343,549,320,61659,0
notchParam-67,true,1.00,754,312,752,289,87925,0
notchParam-68,true,1.00,782,316,781,293,81358,0
notchParam-69,true,1.00,728,314,727,291,74778,0
notchParam-70,true,1.00,790,308,789,285,87517,0
notchParam-71,true,1.00,663,355,662,332,76986,0
notchParam-72,true,1.00,536,332,535,309,62582,0
notchParam-73,true,1.00,507,324,506,301,56389,0
notchParam-74,true,1.00,610,346,610,323,68159,0
notchParam-75,true,1.00,597,347,595,324,71905,0
notchParam-76,true,1.00,1256,371,1256,348,145473,0
notchParam-77,true,1.00,632,354,631,331,71692,0
notchParam-78,true,1.00,1027,312,1026,289,115454,0
notchParam-79,true,1.00,553,321,549,298,63408,0
notchParam-80,true,1.00,214,353,210,330,23046,0
notchParam-81,true,1.00,553,336,551,313,66562,0
notchParam-82,true,1.00,220,307,219,284,22837,0
notchParam-83,true,1.00,218,302,217,279,23949,0
notchParam-84,true,1.00,754,319,753,296,86309,0
notchParam-85,true,1.00,909,345,906,322,99849,0
notchParam-86,true,1.00,1059,306,1057,283,118761,0
notchParam-87,true,1.00,221,322,218,299,24853,0
notchParam-88,true,1.00,251,308,250,285,25721,0
notchParam-89,true,1.00,219,304,218,281,22131,0
notchParam-90,true,1.00,224,311,224,288,23971,0
notchParam-91,true,1.00,1128,332,1126,309,120013,0
notchParam-92,true,1.00,993,310,993,287,107810,0
notchParam-93,true,1.00,1084,322,1083,299,123293,0
notchParam-94,true,1.00,1046,339,1041,316,115120,0
notchParam-95,true,1.00,1134,359,1130,336,132116,0
notchParam-96,true,1.00,553,330,551,307,66183,0
notchParam-97,true,1.00,523,319,521,296,54466,0
notchParam-98,true,1.00,218,300,217,277,22172,0
notchParam-99,true,1.00,818,322,813,299,89945,0
notchParam-100,true,1.00,778,304,777,281,85588,0
