NDW:0.0
TTFW:1.6
DFPT:2.0
DFPAP:3.0
DFPMP:3.0
RIGHT_WINDOW_BORDER_X:176.0
level,win/fail,% travelled,run time,game ticks,planning time,total plannings,nodes evaluated,most backtracked nodes
ge-1,true,1.00,534,263,534,232,54998,0
ge-2,true,1.00,382,238,379,222,43437,0
ge-3,true,1.00,168,229,167,213,16148,0
ge-4,true,1.00,1441,286,1440,262,154518,0
ge-5,true,1.00,32,199,32,183,3152,0
ge-6,true,1.00,334,254,334,235,34990,0
ge-7,true,1.00,116,231,114,215,11493,0
ge-8,true,1.00,148,233,148,217,14973,0
ge-9,true,1.00,416,220,416,204,46489,0
ge-10,true,1.00,30,199,28,183,2736,0
ge-11,true,1.00,144,224,142,208,14829,0
ge-12,true,1.00,31,199,30,183,2984,0
ge-13,true,1.00,258,251,256,234,27180,0
ge-14,true,1.00,188,243,187,219,19389,0
ge-15,true,1.00,482,223,482,207,47391,0
ge-16,true,1.00,688,282,686,266,72659,0
ge-17,true,1.00,311,215,310,199,36352,0
ge-18,true,1.00,897,287,894,270,100448,0
ge-19,true,1.00,530,275,529,249,57959,0
ge-20,true,1.00,390,233,388,217,40990,0
ge-21,true,1.00,202,201,198,185,19620,0
ge-22,true,1.00,314,212,313,195,32984,0
ge-23,true,1.00,667,242,665,213,72472,0
ge-24,true,1.00,376,231,375,210,38489,0
ge-25,true,1.00,331,203,330,187,34309,0
ge-26,true,1.00,179,213,178,197,21328,0
ge-27,true,1.00,45,222,44,206,4979,0
ge-28,true,1.00,501,211,500,195,48486,0
ge-29,true,1.00,203,233,201,197,21788,0
ge-30,true,1.00,1149,245,1149,229,121604,0
ge-31,true,1.00,649,236,649,220,66849,0
ge-32,true,1.00,121,225,120,209,12284,0
ge-33,true,1.00,109,226,108,200,11102,0
ge-34,true,1.00,688,220,683,203,73607,0
ge-35,true,1.00,362,326,361,310,36162,0
ge-36,true,1.00,1194,268,1193,238,120101,0
ge-37,true,1.00,225,200,223,184,24169,0
ge-38,true,1.00,1402,279,1402,263,133995,0
ge-39,true,1.00,221,224,217,208,24254,0
ge-40,true,1.00,30,199,29,183,3171,0
ge-41,true,1.00,200,211,199,189,22671,0
ge-42,true,1.00,564,256,564,240,59242,0
ge-43,true,1.00,259,228,256,211,28736,0
ge-44,true,1.00,431,209,429,193,44495,0
ge-45,true,1.00,329,224,328,208,32921,0
ge-46,true,1.00,705,264,703,248,71992,0
ge-47,true,1.00,642,240,640,224,63735,0
ge-48,true,1.00,373,236,372,220,38583,0
ge-49,true,1.00,130,200,128,184,14096,0
ge-50,true,1.00,454,214,453,198,48336,0
ge-51,true,1.00,84,231,82,215,9394,0
ge-52,true,1.00,350,251,348,235,35356,0
ge-53,true,1.00,273,225,271,209,29961,0
ge-54,true,1.00,257,252,254,236,29655,0
ge-55,true,1.00,286,224,285,206,28830,0
ge-56,true,1.00,606,256,605,227,62574,0
ge-57,true,1.00,579,217,577,198,63204,0
ge-58,true,1.00,125,235,123,219,12417,0
ge-59,true,1.00,714,217,711,201,78503,0
ge-60,true,1.00,766,217,765,201,77364,0
ge-61,true,1.00,232,205,231,189,25893,0
ge-62,true,1.00,539,215,539,199,60959,0
ge-63,true,1.00,655,219,654,203,75528,0
ge-64,true,1.00,283,239,283,208,28295,0
ge-65,true,1.00,653,241,652,225,70468,0
ge-66,true,1.00,479,230,479,197,51854,0
ge-67,true,1.00,166,249,162,232,15832,0
ge-68,true,1.00,114,221,113,205,10543,0
ge-69,true,1.00,196,199,196,183,20788,0
ge-70,true,1.00,375,221,373,205,38221,0
ge-71,true,1.00,825,260,822,244,85562,0
ge-72,true,1.00,139,255,135,235,14514,0
ge-73,true,1.00,478,222,477,199,51090,0
ge-74,true,1.00,845,248,841,232,80943,0
ge-75,true,1.00,244,247,240,209,27049,0
ge-76,true,1.00,800,223,800,207,82920,0
ge-77,true,1.00,1287,242,1285,226,135160,0
ge-78,true,1.00,663,251,662,229,67019,0
ge-79,true,1.00,143,212,141,196,16174,0
ge-80,true,1.00,48,219,45,202,4394,0
ge-81,true,1.00,48,213,47,197,5045,0
ge-82,true,1.00,56,238,54,200,6059,0
ge-83,false,1.00,800,264,800,235,85836,0
ge-84,true,1.00,714,218,714,202,76131,0
ge-85,true,1.00,319,213,319,197,34293,0
ge-86,true,1.00,911,220,911,200,96962,0
ge-87,true,1.00,1216,245,1215,229,132715,0
ge-88,true,1.00,470,271,468,251,50992,0
ge-89,true,1.00,136,242,134,226,13996,0
ge-90,true,1.00,30,199,29,183,3222,0
ge-91,true,1.00,236,212,235,196,24546,0
ge-92,true,1.00,37,205,36,189,4339,0
ge-93,true,1.00,545,222,545,206,60888,0
ge-94,true,1.00,443,234,440,218,48602,0
ge-95,true,1.00,84,260,81,244,8471,0
ge-96,true,1.00,1031,265,1028,248,108811,0
ge-97,true,1.00,1099,240,1096,224,107170,0
ge-98,true,1.00,31,199,30,183,3142,0
ge-99,true,1.00,127,199,126,183,11547,0
ge-100,true,1.00,300,209,299,193,30050,0
