NDW:0.0
TTFW:0.6
DFPT:2.0
DFPAP:3.0
DFPMP:50.0
RIGHT_WINDOW_BORDER_X:275.0
level,win/fail,% travelled,run time,game ticks,planning time,total plannings,nodes evaluated,most backtracked nodes
notchParamRand-1,true,1.00,970,306,962,281,56486,0
notchParamRand-2,true,1.00,231,304,223,279,12772,0
notchParamRand-3,true,1.00,994,306,988,281,60570,0
notchParamRand-4,true,1.00,1726,322,1721,297,104473,0
notchParamRand-5,true,1.00,350,306,342,281,19571,0
notchParamRand-6,true,1.00,456,308,445,283,26171,0
notchParamRand-7,true,1.00,328,294,322,269,18990,0
notchParamRand-8,true,1.00,579,298,574,273,32963,0
notchParamRand-9,true,1.00,665,308,659,283,40089,0
notchParamRand-10,true,1.00,988,319,979,294,56211,0
notchParamRand-11,true,1.00,227,294,220,269,12441,0
notchParamRand-12,true,1.00,374,306,368,281,21092,0
notchParamRand-13,true,1.00,1657,304,1656,279,98024,0
notchParamRand-14,true,1.00,1039,310,1032,285,60575,0
notchParamRand-15,true,1.00,666,308,661,283,39148,0
notchParamRand-16,true,1.00,521,300,510,275,30929,0
notchParamRand-17,true,1.00,163,294,157,269,9027,0
notchParamRand-18,true,1.00,1757,308,1747,283,106532,0
notchParamRand-19,true,1.00,298,318,289,293,16626,0
notchParamRand-20,true,1.00,1566,332,1558,307,91230,0
notchParamRand-21,true,1.00,160,296,150,271,8688,0
notchParamRand-22,true,1.00,912,312,906,287,54494,0
notchParamRand-23,true,1.00,1162,324,1156,299,68819,0
notchParamRand-24,true,1.00,349,316,344,291,19397,0
notchParamRand-25,true,1.00,156,308,148,281,8640,0
notchParamRand-26,true,1.00,573,326,562,301,32330,0
notchParamRand-27,true,1.00,333,294,322,269,19723,0
notchParamRand-28,true,1.00,533,310,529,285,30180,0
notchParamRand-29,true,1.00,169,298,166,273,9763,0
notchParamRand-30,true,1.00,1761,312,1754,287,106795,0
notchParamRand-31,true,1.00,455,320,452,295,26044,0
notchParamRand-32,true,1.00,231,294,226,269,13201,0
notchParamRand-33,true,1.00,1833,320,1827,295,111466,0
notchParamRand-34,true,1.00,1001,312,994,287,59608,0
notchParamRand-35,true,1.00,583,310,572,285,35096,0
notchParamRand-36,true,1.00,146,300,136,272,7924,0
notchParamRand-37,true,1.00,471,310,466,285,27002,0
notchParamRand-38,true,1.00,1667,298,1660,273,99843,0
notchParamRand-39,true,1.00,2507,343,2506,318,151435,0
notchParamRand-40,true,1.00,2037,312,2032,287,124819,0
notchParamRand-41,true,1.00,159,294,155,269,8906,0
notchParamRand-42,true,1.00,512,318,508,293,29586,0
notchParamRand-43,true,1.00,327,300,324,275,19407,0
notchParamRand-44,true,1.00,368,302,363,277,21563,0
notchParamRand-45,true,1.00,926,308,918,283,54899,0
notchParamRand-46,true,1.00,576,298,572,273,34537,0
notchParamRand-47,true,1.00,791,312,782,287,46001,0
notchParamRand-48,true,1.00,1483,316,1479,291,89315,0
notchParamRand-49,true,1.00,758,306,753,281,44259,0
notchParamRand-50,true,1.00,1291,306,1286,281,77353,0
notchParamRand-51,true,1.00,260,298,248,273,14839,0
notchParamRand-52,true,1.00,767,298,764,273,45995,0
notchParamRand-53,true,1.00,952,320,947,295,55293,0
notchParamRand-54,true,1.00,1971,333,1970,308,116107,0
notchParamRand-55,true,1.00,1927,312,1921,287,114925,0
notchParamRand-56,true,1.00,764,304,759,279,44962,0
notchParamRand-57,true,1.00,988,314,982,289,59923,0
notchParamRand-58,true,1.00,817,312,812,287,47742,0
notchParamRand-59,true,1.00,463,304,456,279,27219,0
notchParamRand-60,true,1.00,659,298,654,273,39500,0
notchParamRand-61,true,1.00,553,306,547,281,32733,0
notchParamRand-62,true,1.00,494,316,492,291,27430,0
notchParamRand-63,true,1.00,1425,312,1424,287,84421,0
notchParamRand-64,true,1.00,361,296,354,271,20646,0
notchParamRand-65,true,1.00,2401,321,2393,296,138574,0
notchParamRand-66,true,1.00,581,308,572,283,30631,0
notchParamRand-67,true,1.00,388,300,380,275,21999,0
notchParamRand-68,true,1.00,1423,310,1416,285,85858,0
notchParamRand-69,true,1.00,330,300,327,275,19576,0
notchParamRand-70,true,1.00,669,322,664,297,39692,0
notchParamRand-71,true,1.00,365,312,360,287,20688,0
notchParamRand-72,true,1.00,223,294,222,269,12559,0
notchParamRand-73,true,1.00,482,306,475,281,27027,0
notchParamRand-74,true,1.00,169,294,162,269,9545,0
notchParamRand-75,true,1.00,164,294,155,269,9168,0
notchParamRand-76,true,1.00,1098,324,1094,299,64275,0
notchParamRand-77,true,1.00,1548,310,1544,285,91096,0
notchParamRand-78,true,1.00,984,298,978,273,58592,0
notchParamRand-79,true,1.00,351,298,345,273,19624,0
notchParamRand-80,true,1.00,383,304,376,279,21403,0
notchParamRand-81,true,1.00,374,298,367,273,21672,0
notchParamRand-82,true,1.00,793,308,789,283,46580,0
notchParamRand-83,true,1.00,1383,325,1379,300,82877,0
notchParamRand-84,true,1.00,372,302,368,277,21264,0
notchParamRand-85,true,1.00,165,294,156,269,9341,0
notchParamRand-86,true,1.00,636,327,626,302,35789,0
notchParamRand-87,true,1.00,1735,314,1727,289,103839,0
notchParamRand-88,true,1.00,371,300,365,275,21020,0
notchParamRand-89,true,1.00,432,302,424,277,25702,0
notchParamRand-90,true,1.00,749,320,744,295,43406,0
notchParamRand-91,true,1.00,160,294,150,269,8709,0
notchParamRand-92,true,1.00,1016,314,1006,289,60424,0
notchParamRand-93,true,1.00,374,309,369,279,21190,0
notchParamRand-94,true,1.00,1698,314,1688,289,98693,0
notchParamRand-95,true,1.00,765,316,762,291,44133,0
notchParamRand-96,true,1.00,537,308,530,283,30534,0
notchParamRand-97,true,1.00,1365,318,1361,293,78244,0
notchParamRand-98,true,1.00,326,294,324,269,18843,0
notchParamRand-99,true,1.00,362,308,357,283,20268,0
notchParamRand-100,true,1.00,1522,304,1517,279,91234,0
