NDW:0.0
TTFW:0.8
DFPT:2.0
DFPAP:3.0
DFPMP:50.0
RIGHT_WINDOW_BORDER_X:275.0
level,win/fail,% travelled,run time,game ticks,planning time,total plannings,nodes evaluated,most backtracked nodes
patternOccur-1,true,1.00,797,437,794,412,75279,0
patternOccur-2,true,1.00,788,393,785,368,75640,0
patternOccur-3,true,1.00,1251,426,1246,399,123488,0
patternOccur-4,true,1.00,1394,438,1389,413,140205,0
patternOccur-5,true,1.00,648,376,644,351,63224,0
patternOccur-6,true,1.00,1339,440,1339,415,128725,0
patternOccur-7,true,1.00,1576,437,1576,410,154273,0
patternOccur-8,true,1.00,1580,410,1580,385,153339,0
patternOccur-9,true,1.00,1222,426,1216,390,118318,0
patternOccur-10,true,1.00,746,388,742,363,73730,0
patternOccur-11,true,1.00,4595,491,4592,439,384156,0
patternOccur-12,true,1.00,1059,423,1058,389,105448,0
patternOccur-13,true,1.00,642,418,640,393,62415,0
patternOccur-14,true,1.00,3756,425,3751,390,342550,0
patternOccur-15,true,1.00,1074,371,1072,346,104517,0
patternOccur-16,true,1.00,3683,433,3683,401,327421,0
patternOccur-17,true,1.00,1333,404,1330,379,127288,0
patternOccur-18,true,1.00,979,414,977,389,92651,0
patternOccur-19,false,0.83,4331,425,4329,425,366653,0
patternOccur-20,true,1.00,853,403,850,378,84214,0
patternOccur-21,true,1.00,850,454,849,426,80561,0
patternOccur-22,true,1.00,3487,443,3483,405,326586,0
patternOccur-23,true,1.00,1352,429,1349,404,125419,0
patternOccur-24,true,1.00,950,428,948,397,94501,0
patternOccur-25,true,1.00,1261,433,1258,408,124080,0
patternOccur-26,true,1.00,906,389,900,364,88440,0
patternOccur-27,true,1.00,3141,464,3139,425,282670,0
patternOccur-28,true,1.00,1603,427,1599,400,157806,0
patternOccur-29,true,1.00,813,389,808,356,79113,0
patternOccur-30,true,1.00,777,416,774,391,72062,0
patternOccur-31,true,1.00,4219,486,4217,454,376069,0
patternOccur-32,true,1.00,2576,444,2570,395,235301,0
patternOccur-33,true,1.00,909,404,908,379,87957,0
patternOccur-34,true,1.00,1192,476,1188,441,119146,0
patternOccur-35,true,1.00,849,412,847,385,82430,0
patternOccur-36,true,1.00,2094,431,2091,387,202645,0
patternOccur-37,true,1.00,2432,426,2428,392,220603,0
patternOccur-38,true,1.00,865,390,864,365,85037,0
patternOccur-39,true,1.00,2957,454,2952,429,285565,0
patternOccur-40,true,1.00,1537,402,1534,377,158877,0
patternOccur-41,true,1.00,1190,419,1189,384,116562,0
patternOccur-42,false,0.89,4296,454,4294,454,355494,0
patternOccur-43,true,1.00,900,390,898,365,92515,0
patternOccur-44,true,1.00,1088,406,1084,381,107663,0
patternOccur-45,true,1.00,1728,388,1725,361,156931,0
patternOccur-46,true,1.00,869,419,863,394,83399,0
patternOccur-47,true,1.00,2767,443,2764,405,253469,0
patternOccur-48,true,1.00,1186,409,1183,384,115943,0
patternOccur-49,true,1.00,968,390,965,365,94179,0
patternOccur-50,true,1.00,1570,416,1567,391,142735,0
patternOccur-51,true,1.00,1288,446,1286,409,127846,0
patternOccur-52,true,1.00,1183,392,1177,367,118305,0
patternOccur-53,true,1.00,1295,410,1292,385,123252,0
patternOccur-54,true,1.00,2135,429,2131,404,209194,0
patternOccur-55,true,1.00,1391,400,1388,375,135941,0
patternOccur-56,true,1.00,1082,434,1075,409,106067,0
patternOccur-57,true,1.00,1288,408,1285,380,125878,0
patternOccur-58,true,1.00,5415,503,5411,472,508309,0
patternOccur-59,true,1.00,1390,426,1386,400,137962,0
patternOccur-60,true,1.00,3224,521,3222,463,280762,0
patternOccur-61,true,1.00,1074,419,1072,388,107192,0
patternOccur-62,true,1.00,1336,414,1334,389,130023,0
patternOccur-63,true,1.00,1325,408,1322,372,132870,0
patternOccur-64,true,1.00,1603,443,1602,417,159304,0
patternOccur-65,true,1.00,810,444,807,419,78616,0
patternOccur-66,true,1.00,1323,437,1320,412,130884,0
patternOccur-67,true,1.00,2644,479,2641,450,241835,0
patternOccur-68,true,1.00,985,431,982,406,95620,0
patternOccur-69,true,1.00,4029,462,4028,425,345614,0
patternOccur-70,true,1.00,3987,444,3982,415,340959,0
patternOccur-71,true,1.00,1658,412,1652,387,168379,0
patternOccur-72,true,1.00,4336,508,4335,473,348653,0
patternOccur-73,true,1.00,3014,463,3008,426,266875,0
patternOccur-74,true,1.00,2309,389,2308,356,209334,0
patternOccur-75,true,1.00,1339,387,1335,361,126531,0
patternOccur-76,true,1.00,1100,367,1097,342,109127,0
patternOccur-77,true,1.00,548,373,544,348,52333,0
patternOccur-78,true,1.00,724,381,724,356,68194,0
patternOccur-79,true,1.00,1171,451,1170,426,114530,0
patternOccur-80,true,1.00,2132,434,2127,396,195016,0
patternOccur-81,true,1.00,3338,438,3332,394,309414,0
patternOccur-82,true,1.00,1567,427,1567,401,149238,0
patternOccur-83,true,1.00,759,400,756,375,76778,0
patternOccur-84,true,1.00,844,401,840,376,80245,0
patternOccur-85,true,1.00,1427,375,1424,350,141766,0
patternOccur-86,true,1.00,4686,483,4685,432,386191,0
patternOccur-87,true,1.00,745,436,744,411,73631,0
patternOccur-88,true,1.00,1390,415,1387,389,143547,0
patternOccur-89,true,1.00,1194,445,1191,420,116674,0
patternOccur-90,true,1.00,1496,463,1492,435,146279,0
patternOccur-91,true,1.00,800,407,797,374,76909,0
patternOccur-92,true,1.00,1314,428,1313,403,136165,0
patternOccur-93,true,1.00,1123,431,1119,405,107654,0
patternOccur-94,true,1.00,3836,459,3834,423,320938,0
patternOccur-95,true,1.00,970,429,966,396,95025,0
patternOccur-96,false,0.87,2190,383,2189,383,185465,0
patternOccur-97,true,1.00,1305,412,1303,387,132711,0
patternOccur-98,false,0.90,1989,357,1988,357,181442,0
patternOccur-99,true,1.00,568,405,564,380,55421,0
patternOccur-100,true,1.00,973,412,967,387,90539,0
