NDW:0.0
TTFW:1.0
DFPT:2.0
DFPAP:3.0
DFPMP:20.0
RIGHT_WINDOW_BORDER_X:235.0
level,win/fail,% travelled,run time,game ticks,planning time,total plannings,nodes evaluated,most backtracked nodes
ore-1,true,1.00,1646,403,1638,380,79816,0
ore-2,false,0.70,1856,300,1846,300,86094,0
ore-3,true,1.00,1937,457,1925,427,93383,0
ore-4,true,1.00,2325,421,2308,393,108735,0
ore-5,true,1.00,1858,354,1844,325,89817,0
ore-6,true,1.00,1906,478,1886,440,88389,0
ore-7,true,1.00,1662,472,1647,447,77453,0
ore-8,true,1.00,2624,352,2614,321,124027,0
ore-9,true,1.00,1386,376,1370,355,65167,0
ore-10,false,0.55,921,251,914,251,42495,0
ore-11,true,1.00,1720,483,1702,448,74196,0
ore-12,false,0.46,1910,220,1904,220,78842,0
ore-13,true,1.00,2240,456,2229,417,100238,0
ore-14,true,1.00,1902,405,1888,382,86228,0
ore-15,true,1.00,2032,404,2021,377,95595,0
ore-16,true,1.00,1818,415,1806,390,85439,0
ore-17,true,1.00,2173,521,2159,477,100114,0
ore-18,true,1.00,1601,435,1588,398,75554,0
ore-19,true,1.00,1650,412,1633,386,75925,0
ore-20,true,1.00,2364,438,2353,408,109242,0
ore-21,true,1.00,2282,453,2263,421,106666,0
ore-22,false,0.62,2296,296,2292,296,102370,0
ore-23,true,1.00,1522,377,1515,355,70638,0
ore-24,true,1.00,1822,438,1809,406,86552,0
ore-25,true,1.00,1882,419,1865,383,93475,0
ore-26,true,1.00,1519,405,1511,380,74978,0
ore-27,false,0.24,1415,111,1411,111,65246,0
ore-28,true,1.00,1981,446,1972,420,94288,0
ore-29,false,0.48,3220,264,3214,264,137148,0
ore-30,true,1.00,1214,374,1198,350,61267,0
ore-31,true,1.00,1779,479,1775,443,88981,0
ore-32,true,1.00,1505,404,1488,371,75033,0
ore-33,true,1.00,1553,399,1539,368,78455,0
ore-34,true,1.00,1669,418,1657,387,84996,0
ore-35,true,1.00,1988,422,1977,400,102779,0
ore-36,true,1.00,1576,404,1563,375,76716,0
ore-37,false,0.34,1452,149,1443,149,63431,0
ore-38,true,1.00,1576,424,1558,394,78589,0
ore-39,true,1.00,2006,428,1990,404,102501,0
ore-40,true,1.00,1899,398,1886,376,90541,0
ore-41,true,1.00,2295,437,2288,398,117331,0
ore-42,true,1.00,2339,429,2325,406,119390,0
ore-43,true,1.00,2672,429,2660,408,130361,0
ore-44,true,1.00,2177,402,2169,368,110148,0
ore-45,false,0.74,23105,999,23097,999,774889,0
ore-46,false,0.12,974,53,973,53,45284,0
ore-47,false,0.84,3029,445,3018,445,134915,0
ore-48,true,1.00,1782,420,1771,391,86614,0
ore-49,true,1.00,1578,426,1572,399,77792,0
ore-50,true,1.00,1973,386,1960,364,96723,0
ore-51,true,1.00,2206,405,2190,373,109654,0
ore-52,true,1.00,2067,440,2057,417,102464,0
ore-53,true,1.00,2143,425,2135,399,105142,0
ore-54,false,0.72,2094,307,2088,307,97693,0
ore-55,true,1.00,1469,403,1458,372,74530,0
ore-56,true,1.00,1390,404,1381,372,67638,0
ore-57,true,1.00,1831,428,1820,403,88838,0
ore-58,true,1.00,2069,401,2059,380,102674,0
ore-59,true,1.00,2188,448,2176,425,102498,0
ore-60,true,1.00,2060,363,2049,335,97063,0
ore-61,true,1.00,1790,436,1775,411,83230,0
ore-62,true,1.00,2196,465,2190,443,110706,0
ore-63,false,0.32,2377,162,2373,162,102702,0
ore-64,true,1.00,1186,386,1172,364,57886,0
ore-65,true,1.00,2085,412,2075,385,105968,0
ore-66,true,1.00,2170,449,2158,427,106430,0
ore-67,true,1.00,1886,415,1876,388,94949,0
ore-68,true,1.00,1927,404,1913,382,94914,0
ore-69,true,1.00,3353,465,3337,436,161740,0
ore-70,false,0.95,2919,410,2910,410,138894,0
ore-71,true,1.00,1519,414,1506,392,75061,0
ore-72,true,1.00,1661,437,1646,403,82374,0
ore-73,true,1.00,2160,414,2148,392,107929,0
ore-74,true,1.00,2444,424,2433,387,114175,0
ore-75,true,1.00,1837,473,1820,451,90945,0
ore-76,true,1.00,1536,354,1524,333,81910,0
ore-77,true,1.00,1557,417,1547,393,79209,0
ore-78,true,1.00,1752,383,1741,362,90453,0
ore-79,true,1.00,1608,415,1594,385,80988,0
ore-80,true,1.00,2055,409,2045,387,104657,0
ore-81,true,1.00,1972,394,1964,371,100546,0
ore-82,true,1.00,1919,406,1911,373,96193,0
ore-83,true,1.00,1561,413,1554,384,77904,0
ore-84,true,1.00,4081,489,4064,461,193630,0
ore-85,true,1.00,1357,419,1347,389,69009,0
ore-86,false,0.62,2041,299,2035,299,101712,0
ore-87,true,1.00,1273,338,1270,317,64049,0
ore-88,true,1.00,1986,408,1980,385,99264,0
ore-89,true,1.00,2350,404,2346,383,116921,0
ore-90,true,1.00,1573,396,1561,373,81335,0
ore-91,true,1.00,1733,408,1721,379,88896,0
ore-92,true,1.00,2328,453,2313,430,117616,0
ore-93,false,0.13,1480,73,1479,73,62656,0
ore-94,true,1.00,2118,414,2108,387,112113,0
ore-95,true,1.00,2148,443,2133,410,109165,0
ore-96,true,1.00,2190,411,2177,389,113421,0
ore-97,true,1.00,1981,467,1967,426,103726,0
ore-98,true,1.00,1725,401,1718,379,90118,0
ore-99,true,1.00,2844,474,2833,449,146281,0
ore-100,true,1.00,1631,399,1624,370,88044,0
