NDW:0.0
TTFW:0.8
DFPT:2.0
DFPAP:3.0
DFPMP:2.0
RIGHT_WINDOW_BORDER_X:195.0
level,win/fail,% travelled,run time,game ticks,planning time,total plannings,nodes evaluated,most backtracked nodes
notchParamRand-1,true,1.00,1202,326,1199,309,107431,0
notchParamRand-2,true,1.00,93,308,92,291,8526,0
notchParamRand-3,true,1.00,936,308,934,291,92785,0
notchParamRand-4,true,1.00,1369,330,1366,313,135495,0
notchParamRand-5,true,1.00,147,306,147,289,13501,0
notchParamRand-6,true,1.00,289,318,287,301,29710,0
notchParamRand-7,true,1.00,206,296,204,279,18618,0
notchParamRand-8,true,1.00,413,300,412,283,35993,0
notchParamRand-9,true,1.00,449,310,445,293,45575,0
notchParamRand-10,true,1.00,729,320,729,303,71376,0
notchParamRand-11,true,1.00,71,294,70,277,5713,0
notchParamRand-12,true,1.00,210,312,209,295,20190,0
notchParamRand-13,true,1.00,1580,326,1580,309,146051,0
notchParamRand-14,true,1.00,975,320,973,303,89700,0
notchParamRand-15,true,1.00,488,324,485,307,48491,0
notchParamRand-16,true,1.00,320,314,320,297,34042,0
notchParamRand-17,true,1.00,38,294,37,277,2665,0
notchParamRand-18,true,1.00,1813,341,1811,324,172714,0
notchParamRand-19,true,1.00,126,332,124,315,12040,0
notchParamRand-20,true,1.00,1712,352,1712,335,172255,0
notchParamRand-21,true,1.00,39,296,37,279,2621,0
notchParamRand-22,true,1.00,791,326,789,309,77994,0
notchParamRand-23,true,1.00,965,358,963,341,93253,0
notchParamRand-24,true,1.00,144,318,144,301,13750,0
notchParamRand-25,true,1.00,42,308,40,290,3588,0
notchParamRand-26,true,1.00,328,326,323,309,31954,0
notchParamRand-27,true,1.00,181,312,178,295,19027,0
notchParamRand-28,true,1.00,289,310,288,293,27992,0
notchParamRand-29,true,1.00,39,298,38,281,2791,0
notchParamRand-30,true,1.00,1885,338,1882,321,179404,0
notchParamRand-31,true,1.00,237,319,232,302,23709,0
notchParamRand-32,true,1.00,70,294,67,277,6111,0
notchParamRand-33,true,1.00,1888,334,1888,317,182607,0
notchParamRand-34,true,1.00,950,330,948,313,89227,0
notchParamRand-35,true,1.00,521,322,520,305,50348,0
notchParamRand-36,true,1.00,38,302,34,283,2777,0
notchParamRand-37,true,1.00,276,312,273,295,28832,0
notchParamRand-38,true,1.00,1678,329,1677,312,155571,0
notchParamRand-39,true,1.00,1427,326,1423,309,136590,0
notchParamRand-40,true,1.00,2161,347,2157,330,205521,0
notchParamRand-41,true,1.00,36,294,33,277,2222,0
notchParamRand-42,true,1.00,356,316,353,299,36121,0
notchParamRand-43,true,1.00,174,302,173,285,16753,0
notchParamRand-44,true,1.00,222,308,220,291,22985,0
notchParamRand-45,true,1.00,1016,326,1014,309,92696,0
notchParamRand-46,true,1.00,416,308,414,291,41957,0
notchParamRand-47,true,1.00,688,318,685,301,63169,0
notchParamRand-48,true,1.00,1509,320,1505,303,142310,0
notchParamRand-49,true,1.00,694,320,692,303,65956,0
notchParamRand-50,true,1.00,1713,336,1713,319,165060,0
notchParamRand-51,true,1.00,115,308,114,291,10718,0
notchParamRand-52,true,1.00,812,320,812,303,75442,0
notchParamRand-53,true,1.00,878,318,876,301,80957,0
notchParamRand-54,true,1.00,2138,362,2137,345,201572,0
notchParamRand-55,true,1.00,1839,320,1837,303,164762,0
notchParamRand-56,true,1.00,525,314,524,297,50306,0
notchParamRand-57,true,1.00,1143,324,1141,307,110180,0
notchParamRand-58,true,1.00,729,328,726,311,72046,0
notchParamRand-59,true,1.00,274,310,272,293,28475,0
notchParamRand-60,true,1.00,442,310,440,293,43826,0
notchParamRand-61,true,1.00,399,314,398,297,38389,0
notchParamRand-62,true,1.00,330,320,327,303,31906,0
notchParamRand-63,true,1.00,1341,318,1341,301,127105,0
notchParamRand-64,true,1.00,226,300,221,283,22477,0
notchParamRand-65,true,1.00,1955,350,1955,333,182478,0
notchParamRand-66,true,1.00,332,337,332,320,28626,0
notchParamRand-67,true,1.00,236,294,232,277,20717,0
notchParamRand-68,true,1.00,1438,320,1438,303,134500,0
notchParamRand-69,true,1.00,174,300,172,283,17153,0
notchParamRand-70,true,1.00,717,338,715,321,70243,0
notchParamRand-71,true,1.00,287,310,286,293,27265,0
notchParamRand-72,true,1.00,71,294,68,277,5973,0
notchParamRand-73,true,1.00,721,321,716,304,65982,0
notchParamRand-74,true,1.00,39,294,38,277,2551,0
notchParamRand-75,true,1.00,38,294,37,277,2302,0
notchParamRand-76,true,1.00,1110,334,1108,317,103759,0
notchParamRand-77,true,1.00,1525,349,1525,332,139709,0
notchParamRand-78,true,1.00,975,314,974,297,91546,0
notchParamRand-79,true,1.00,145,306,142,289,13677,0
notchParamRand-80,true,1.00,235,298,234,281,20355,0
notchParamRand-81,true,1.00,221,310,218,293,23223,0
notchParamRand-82,true,1.00,671,312,670,295,66540,0
notchParamRand-83,true,1.00,1146,316,1144,299,109781,0
notchParamRand-84,true,1.00,247,304,245,287,24719,0
notchParamRand-85,true,1.00,37,294,37,277,2236,0
notchParamRand-86,true,1.00,420,343,416,326,41956,0
notchParamRand-87,true,1.00,1522,324,1522,307,147781,0
notchParamRand-88,true,1.00,249,314,245,297,25189,0
notchParamRand-89,true,1.00,310,304,306,287,29919,0
notchParamRand-90,true,1.00,655,330,654,313,56372,0
notchParamRand-91,true,1.00,40,294,39,277,2515,0
notchParamRand-92,true,1.00,819,320,817,303,78944,0
notchParamRand-93,true,1.00,212,321,209,294,21499,0
notchParamRand-94,true,1.00,1504,312,1502,295,136992,0
notchParamRand-95,true,1.00,661,320,659,303,62818,0
notchParamRand-96,true,1.00,338,322,334,305,33139,0
notchParamRand-97,true,1.00,1200,330,1198,313,112947,0
notchParamRand-98,true,1.00,240,306,239,289,24339,0
notchParamRand-99,true,1.00,148,310,143,293,14537,0
notchParamRand-100,true,1.00,1378,318,1376,301,130344,0
