NDW:0.0
TTFW:2.0
DFPT:2.0
DFPAP:3.0
DFPMP:1.0
RIGHT_WINDOW_BORDER_X:35.0
level,win/fail,% travelled,run time,game ticks,planning time,total plannings,nodes evaluated,most backtracked nodes
notchParam-1,false,0.36,1290,271,1275,271,56750,0
notchParam-2,false,0.36,1353,296,1347,296,66594,0
notchParam-3,false,0.18,1287,201,1285,201,60658,0
notchParam-4,false,0.18,672,180,669,180,32708,0
notchParam-5,false,0.18,1287,201,1284,201,60593,0
notchParam-6,false,0.18,1321,173,1316,173,61787,0
notchParam-7,false,0.36,2299,281,2288,281,114774,0
notchParam-8,false,0.18,391,129,388,129,19107,0
notchParam-9,false,0.18,1287,201,1284,201,60635,0
notchParam-10,false,0.18,2939,205,2933,205,130526,0
notchParam-11,false,0.69,3742,604,3730,604,171986,0
notchParam-12,false,0.16,534,136,530,136,26184,0
notchParam-13,true,1.00,2486,652,2466,648,117575,0
notchParam-14,false,0.67,1816,496,1797,496,79715,0
notchParam-15,false,0.36,1922,305,1915,305,83865,0
notchParam-16,false,0.36,1411,265,1401,265,64424,0
notchParam-17,false,0.36,2016,273,2003,273,88866,0
notchParam-18,false,0.67,1597,498,1577,498,72107,0
notchParam-19,false,0.35,25643,999,25634,999,1199396,0
notchParam-20,false,0.36,418,223,411,223,18713,0
notchParam-21,false,0.12,25,82,24,82,1098,0
notchParam-22,false,0.68,1726,424,1715,424,83811,0
notchParam-23,false,0.18,1384,167,1381,167,66592,0
notchParam-24,false,0.09,12,48,12,48,574,0
notchParam-25,false,0.19,434,159,430,159,19575,0
notchParam-26,false,0.19,2618,208,2613,208,125816,0
notchParam-27,false,0.36,417,223,411,223,18536,0
notchParam-28,false,0.32,1997,292,1988,292,88134,0
notchParam-29,false,0.18,400,133,398,133,18561,0
notchParam-30,false,0.37,487,229,479,229,21800,0
notchParam-31,false,0.36,382,224,374,224,18005,0
notchParam-32,false,0.36,2010,273,2007,273,94101,0
notchParam-33,true,1.00,3845,726,3817,722,176129,0
notchParam-34,false,0.36,2970,309,2957,309,134268,0
notchParam-35,false,0.35,25641,999,25638,999,1225174,0
notchParam-36,false,0.37,1763,300,1759,300,81194,0
notchParam-37,true,1.00,2987,639,2971,635,128908,0
notchParam-38,false,0.36,1394,298,1388,298,64691,0
notchParam-39,false,0.36,1525,288,1511,288,70340,0
notchParam-40,false,0.71,5679,691,5661,691,245689,0
notchParam-41,false,0.31,2423,315,2412,315,102490,0
notchParam-42,false,0.27,39,139,36,139,1532,0
notchParam-43,false,0.18,2192,205,2186,205,89461,0
notchParam-44,false,0.15,18,76,14,76,877,0
notchParam-45,false,0.18,2638,267,2628,267,114460,0
notchParam-46,false,0.18,929,149,923,149,39974,0
notchParam-47,true,1.00,3034,753,3005,749,134694,0
notchParam-48,false,0.36,1368,286,1359,286,61212,0
notchParam-49,false,0.36,384,222,374,222,16955,0
notchParam-50,true,1.00,2140,677,2116,673,93134,0
notchParam-51,false,0.67,1990,477,1976,477,87351,0
notchParam-52,false,0.36,2282,300,2274,300,105230,0
notchParam-53,false,0.36,1615,284,1612,284,73378,0
notchParam-54,false,0.36,1572,253,1566,253,71424,0
notchParam-55,true,1.00,2284,696,2258,692,105970,0
notchParam-56,false,0.36,1357,279,1350,279,61454,0
notchParam-57,false,0.31,1090,245,1081,245,48781,0
notchParam-58,false,0.57,7183,627,7164,627,325664,0
notchParam-59,false,0.19,3359,268,3354,268,156273,0
notchParam-60,false,0.70,5199,638,5176,638,232000,0
notchParam-61,false,0.19,1420,201,1414,201,61040,0
notchParam-62,false,0.36,1708,248,1702,248,67388,0
notchParam-63,false,0.18,1972,219,1969,219,80768,0
notchParam-64,false,0.57,5034,578,5019,578,209227,0
notchParam-65,false,0.44,2487,407,2476,407,105269,0
notchParam-66,false,0.05,7,26,7,26,288,0
notchParam-67,false,0.36,1030,267,1024,267,45913,0
notchParam-68,false,0.37,423,229,415,229,18596,0
notchParam-69,false,0.36,1030,276,1020,276,41844,0
notchParam-70,false,0.35,25641,999,25635,999,1176054,0
notchParam-71,false,0.44,3169,418,3163,418,145716,0
notchParam-72,false,0.18,838,171,834,171,37703,0
notchParam-73,false,0.31,652,243,644,243,29530,0
notchParam-74,false,0.18,1869,216,1857,216,86172,0
notchParam-75,false,0.31,1903,276,1897,276,88155,0
notchParam-76,false,0.19,2110,196,2106,196,105438,0
notchParam-77,false,0.32,1708,247,1701,247,78771,0
notchParam-78,false,0.18,998,179,990,179,44241,0
notchParam-79,false,0.18,1255,169,1252,169,58782,0
notchParam-80,false,0.67,1694,458,1676,458,79850,0
notchParam-81,false,0.18,1322,173,1317,173,58758,0
notchParam-82,false,0.67,1119,455,1107,455,50489,0
notchParam-83,true,1.00,2193,651,2175,647,102161,0
notchParam-84,false,0.36,873,265,866,265,37681,0
notchParam-85,false,0.36,2306,289,2302,289,108611,0
notchParam-86,false,0.18,296,137,290,137,14029,0
notchParam-87,false,0.36,421,229,410,229,18732,0
notchParam-88,false,0.68,3286,466,3276,466,151662,0
notchParam-89,false,0.37,483,235,474,235,21737,0
notchParam-90,false,0.36,1569,313,1559,313,72209,0
notchParam-91,false,0.18,2629,172,2625,172,111007,0
notchParam-92,false,0.17,26851,999,26845,999,1177048,0
notchParam-93,false,0.18,1598,185,1594,185,68917,0
notchParam-94,false,0.31,1220,288,1212,288,55229,0
notchParam-95,false,0.18,2300,224,2296,224,108718,0
notchParam-96,false,0.18,1369,210,1363,210,63662,0
notchParam-97,false,0.18,1340,197,1333,197,59049,0
notchParam-98,false,0.36,467,256,456,256,20728,0
notchParam-99,false,0.36,1846,282,1840,282,89867,0
notchParam-100,false,0.36,381,222,373,222,17837,0
