NDW:0.0
TTFW:2.0
DFPT:2.0
DFPAP:3.0
DFPMP:3.0
RIGHT_WINDOW_BORDER_X:215.0
level,win/fail,% travelled,run time,game ticks,planning time,total plannings,nodes evaluated,most backtracked nodes
Krys-1,false,0.38,29075,999,29072,999,1074787,0
Krys-2,true,1.00,2435,456,2421,401,106687,0
Krys-3,true,1.00,7479,560,7472,523,357436,0
Krys-4,true,1.00,2869,455,2865,398,127364,0
Krys-5,true,1.00,1734,385,1728,345,102815,0
Krys-6,true,1.00,2402,405,2396,371,112641,0
Krys-7,true,1.00,378,378,372,340,19210,0
Krys-8,true,1.00,2867,537,2856,488,154598,0
Krys-9,true,1.00,2270,359,2263,311,139547,0
Krys-10,true,1.00,2276,452,2266,401,120578,0
Krys-11,true,1.00,333,408,320,372,14064,0
Krys-12,true,1.00,3713,476,3696,433,163163,0
Krys-13,true,1.00,3828,466,3816,411,221341,0
Krys-14,false,0.79,24850,999,24842,999,924873,0
Krys-15,true,1.00,4352,432,4347,389,230306,0
Krys-16,false,0.69,23118,999,23109,999,861070,0
Krys-17,true,1.00,1927,476,1909,436,92933,0
Krys-18,true,1.00,2163,438,2155,391,100088,0
Krys-19,true,1.00,3199,406,3195,366,169911,0
Krys-20,true,1.00,4997,631,4987,586,245101,0
Krys-21,true,1.00,2419,391,2407,345,145572,0
Krys-22,true,1.00,2349,361,2339,318,143935,0
Krys-23,true,1.00,1944,502,1937,453,101427,0
Krys-24,true,1.00,3499,462,3484,419,170275,0
Krys-25,true,1.00,2319,417,2311,382,111495,0
Krys-26,true,1.00,3098,356,3089,313,175921,0
Krys-27,true,1.00,3316,425,3307,391,161994,0
Krys-28,true,1.00,5525,515,5510,472,284110,0
Krys-29,true,1.00,2309,485,2296,460,102584,0
Krys-30,true,1.00,2714,563,2701,502,117678,0
Krys-31,true,1.00,2723,536,2711,498,136632,0
Krys-32,true,1.00,603,420,594,395,26519,0
Krys-33,true,1.00,460,413,445,370,23472,0
Krys-34,true,1.00,2744,485,2735,444,137181,0
Krys-35,true,1.00,2812,406,2795,364,142340,0
Krys-36,true,1.00,4252,409,4246,379,223815,0
Krys-37,true,1.00,4453,435,4444,410,236582,0
Krys-38,true,1.00,4964,426,4952,390,275093,0
Krys-39,true,1.00,3192,378,3184,317,174970,0
Krys-40,true,1.00,3690,436,3685,392,192059,0
Krys-41,true,1.00,4477,447,4466,410,232641,0
Krys-42,true,1.00,2749,461,2737,418,159739,0
Krys-43,true,1.00,2082,363,2078,329,123477,0
Krys-44,true,1.00,4693,460,4682,417,245580,0
Krys-45,true,1.00,1123,445,1108,415,43746,0
Krys-46,true,1.00,2645,549,2630,500,117829,0
Krys-47,true,1.00,1145,507,1133,454,54858,0
Krys-48,true,1.00,1854,361,1849,331,109784,0
Krys-49,true,1.00,1077,421,1068,384,55842,0
Krys-50,true,1.00,6091,540,6075,506,279145,0
Krys-51,true,1.00,3751,413,3742,359,208173,0
Krys-52,true,1.00,3127,495,3118,455,138116,0
Krys-53,true,1.00,1585,465,1567,435,70798,0
Krys-54,true,1.00,5981,502,5967,468,321382,0
Krys-55,true,1.00,3319,502,3310,456,147882,0
Krys-56,false,0.59,25419,999,25415,999,929174,0
Krys-57,true,1.00,2625,369,2616,335,145877,0
Krys-58,true,1.00,2119,496,2110,472,97508,0
Krys-59,false,0.38,29226,999,29222,999,1062675,0
Krys-60,true,1.00,2349,416,2339,343,120974,0
Krys-61,false,0.48,26963,999,26960,999,982901,0
Krys-62,true,1.00,1512,470,1499,428,58052,0
Krys-63,true,1.00,4804,628,4792,579,214577,0
Krys-64,true,1.00,2175,526,2164,482,99175,0
Krys-65,true,1.00,2394,515,2378,484,101583,0
Krys-66,true,1.00,3248,489,3241,452,141814,0
Krys-67,true,1.00,3032,520,3014,474,144175,0
Krys-68,true,1.00,4186,352,4182,309,237367,0
Krys-69,true,1.00,9026,761,9007,715,362200,0
Krys-70,true,1.00,6540,519,6526,477,318089,0
Krys-71,true,1.00,2908,397,2902,354,175511,0
Krys-72,true,1.00,1793,560,1780,521,82854,0
Krys-73,true,1.00,3655,555,3643,514,169504,0
Krys-74,true,1.00,1631,431,1625,376,87735,0
Krys-75,true,1.00,808,462,800,407,31791,0
Krys-76,true,1.00,3919,361,3916,330,205018,0
Krys-77,true,1.00,1616,434,1605,379,94217,0
Krys-78,false,0.91,22785,999,22773,999,975629,0
Krys-79,true,1.00,916,441,905,374,36900,0
Krys-80,true,1.00,569,438,558,411,25404,0
Krys-81,true,1.00,1129,409,1116,363,62363,0
Krys-82,true,1.00,967,399,954,353,39148,0
Krys-83,true,1.00,3750,464,3738,397,180524,0
Krys-84,true,1.00,342,422,330,367,15940,0
Krys-85,true,1.00,3491,529,3475,494,172223,0
Krys-86,true,1.00,2277,473,2267,440,102962,0
Krys-87,true,1.00,859,412,846,387,33409,0
Krys-88,true,1.00,1343,431,1332,393,65258,0
Krys-89,true,1.00,1838,423,1826,378,100117,0
Krys-90,true,1.00,3224,351,3216,302,177281,0
Krys-91,true,1.00,348,429,338,387,16213,0
Krys-92,true,1.00,4123,448,4110,404,199479,0
Krys-93,true,1.00,2739,399,2727,351,152161,0
Krys-94,true,1.00,1592,393,1584,340,96728,0
Krys-95,true,1.00,1462,463,1447,412,69324,0
Krys-96,true,1.00,2699,403,2689,360,158384,0
Krys-97,true,1.00,1745,408,1731,371,89914,0
Krys-98,true,1.00,4967,620,4955,594,221119,0
Krys-99,true,1.00,1894,476,1878,431,79930,0
Krys-100,true,1.00,3232,377,3222,343,192280,0
