NDW:0.0
TTFW:2.0
DFPT:2.0
DFPAP:3.0
DFPMP:20.0
RIGHT_WINDOW_BORDER_X:176.0
level,win/fail,% travelled,run time,game ticks,planning time,total plannings,nodes evaluated,most backtracked nodes
hopper-1,true,1.00,1241,321,1235,305,63427,0
hopper-2,true,1.00,1124,323,1112,307,57310,0
hopper-3,false,0.25,559,87,558,87,26352,0
hopper-4,false,0.27,597,94,590,94,30861,0
hopper-5,true,1.00,977,320,972,304,51362,0
hopper-6,true,1.00,977,314,970,296,52204,0
hopper-7,false,0.83,1934,282,1931,282,89776,0
hopper-8,false,0.42,1601,164,1597,164,71628,0
hopper-9,true,1.00,989,311,980,295,52212,0
hopper-10,true,1.00,926,317,915,301,50830,0
hopper-11,true,1.00,744,325,735,309,38369,0
hopper-12,true,1.00,1048,322,1042,306,54724,0
hopper-13,false,0.40,938,131,933,131,45932,0
hopper-14,true,1.00,1199,330,1189,312,62958,0
hopper-15,true,1.00,1038,305,1031,289,55358,0
hopper-16,false,0.54,2261,212,2258,212,101240,0
hopper-17,true,1.00,1030,311,1023,295,55410,0
hopper-18,true,1.00,1085,310,1075,294,57287,0
hopper-19,true,1.00,856,315,848,299,46172,0
hopper-20,true,1.00,1182,332,1176,316,62695,0
hopper-21,false,0.62,1032,206,1027,206,52775,0
hopper-22,false,0.33,696,112,695,112,34587,0
hopper-23,true,1.00,1031,314,1020,298,55339,0
hopper-24,true,1.00,664,327,653,311,35184,0
hopper-25,true,1.00,1176,309,1170,293,59887,0
hopper-26,true,1.00,1055,301,1044,285,51695,0
hopper-27,true,1.00,972,299,969,283,47627,0
hopper-28,false,0.86,1658,289,1648,289,78404,0
hopper-29,false,0.26,565,91,564,91,25916,0
hopper-30,true,1.00,1452,350,1444,334,71348,0
hopper-31,false,0.77,1357,249,1352,249,63046,0
hopper-32,true,1.00,1306,299,1298,283,61945,0
hopper-33,false,0.50,812,167,809,167,38435,0
hopper-34,false,0.31,723,106,720,106,34656,0
hopper-35,true,1.00,1294,349,1285,333,68492,0
hopper-36,true,1.00,832,314,821,298,42605,0
hopper-37,false,0.51,705,171,699,171,33299,0
hopper-38,false,0.52,955,172,950,172,46243,0
hopper-39,false,0.52,1744,193,1740,193,60275,0
hopper-40,true,1.00,1131,338,1110,321,34177,0
hopper-41,true,1.00,1667,307,1659,291,81883,0
hopper-42,true,1.00,1009,321,1003,305,50738,0
hopper-43,false,0.45,2195,193,2194,193,96768,0
hopper-44,true,1.00,1397,315,1387,299,72680,0
hopper-45,false,0.42,1407,166,1401,166,61990,0
hopper-46,false,0.67,1302,234,1295,234,59867,0
hopper-47,true,1.00,1373,305,1358,289,62129,0
hopper-48,true,1.00,1394,323,1376,307,52531,0
hopper-49,true,1.00,1280,321,1269,305,35464,0
hopper-50,false,0.63,1085,205,1080,205,47863,0
hopper-51,false,0.34,691,113,689,113,32808,0
hopper-52,true,1.00,765,307,759,291,40006,0
hopper-53,false,0.63,2871,264,2863,264,128347,0
hopper-54,true,1.00,638,300,627,282,33435,0
hopper-55,true,1.00,842,351,830,334,44228,0
hopper-56,true,1.00,729,297,722,281,38402,0
hopper-57,true,1.00,1117,327,1102,311,56050,0
hopper-58,false,0.58,1076,181,1072,181,52981,0
hopper-59,true,1.00,809,308,800,292,41598,0
hopper-60,true,1.00,1036,321,1026,305,53951,0
hopper-61,false,0.83,1523,256,1514,256,75911,0
hopper-62,true,1.00,1265,336,1253,320,62970,0
hopper-63,false,0.23,625,80,623,80,28716,0
hopper-64,true,1.00,1091,315,1081,299,55575,0
hopper-65,true,1.00,983,323,975,307,51619,0
hopper-66,false,0.74,1075,252,1068,252,51143,0
hopper-67,true,1.00,939,328,928,312,48357,0
hopper-68,true,1.00,759,328,748,312,39290,0
hopper-69,false,0.84,1242,277,1237,277,60442,0
hopper-70,true,1.00,1174,310,1168,294,60650,0
hopper-71,true,1.00,686,303,680,287,35723,0
hopper-72,true,1.00,1230,301,1217,285,62974,0
hopper-73,true,1.00,1056,319,1047,303,54990,0
hopper-74,true,1.00,804,305,794,289,41524,0
hopper-75,true,1.00,986,321,975,305,50861,0
hopper-76,false,0.48,1003,157,998,157,48093,0
hopper-77,true,1.00,1165,349,1156,333,58701,0
hopper-78,true,1.00,1090,308,1080,292,58239,0
hopper-79,true,1.00,766,307,754,291,39553,0
hopper-80,true,1.00,751,309,740,293,38799,0
hopper-81,false,0.39,864,128,862,128,40781,0
hopper-82,false,0.46,1001,147,1000,147,48890,0
hopper-83,true,1.00,1402,327,1394,311,76396,0
hopper-84,true,1.00,1179,321,1170,305,62430,0
hopper-85,true,1.00,1643,363,1633,347,84327,0
hopper-86,true,1.00,1028,315,1023,299,54077,0
hopper-87,true,1.00,1163,317,1152,301,61459,0
hopper-88,true,1.00,741,327,734,311,39719,0
hopper-89,true,1.00,868,346,858,330,45376,0
hopper-90,true,1.00,930,320,923,304,49787,0
hopper-91,true,1.00,1066,322,1055,306,56957,0
hopper-92,true,1.00,1245,315,1232,299,64126,0
hopper-93,true,1.00,714,313,704,297,38912,0
hopper-94,false,0.64,1925,232,1923,232,89985,0
hopper-95,true,1.00,1014,309,1004,293,53117,0
hopper-96,true,1.00,1330,302,1321,286,70825,0
hopper-97,true,1.00,1260,312,1253,296,66192,0
hopper-98,true,1.00,1720,335,1717,319,90017,0
hopper-99,false,0.73,2273,256,2267,256,116557,0
hopper-100,true,1.00,1212,333,1202,316,62834,0
