NDW:0.0
TTFW:1.2
DFPT:2.0
DFPAP:3.0
DFPMP:2.0
RIGHT_WINDOW_BORDER_X:176.0
level,win/fail,% travelled,run time,game ticks,planning time,total plannings,nodes evaluated,most backtracked nodes
Krys-1,false,0.38,19948,999,19941,999,1343101,0
Krys-2,true,1.00,1229,440,1226,423,110705,0
Krys-3,true,1.00,5355,527,5352,493,481906,0
Krys-4,true,1.00,2379,472,2372,448,204426,0
Krys-5,true,1.00,4469,446,4467,408,469574,0
Krys-6,true,1.00,943,384,941,358,93034,0
Krys-7,true,1.00,233,352,232,327,24307,0
Krys-8,true,1.00,1922,474,1919,435,199419,0
Krys-9,true,1.00,5570,452,5569,431,604747,0
Krys-10,true,1.00,1824,441,1824,404,186002,0
Krys-11,true,1.00,121,365,120,338,10871,0
Krys-12,true,1.00,3099,454,3097,427,246723,0
Krys-13,true,1.00,6713,548,6711,514,648938,0
Krys-14,true,1.00,571,355,569,324,39981,0
Krys-15,true,1.00,5299,459,5296,425,606424,0
Krys-16,true,1.00,1263,457,1261,424,111562,0
Krys-17,true,1.00,3600,508,3597,474,311697,0
Krys-18,true,1.00,1005,413,999,387,100716,0
Krys-19,true,1.00,6312,492,6309,455,635349,0
Krys-20,true,1.00,5533,617,5531,581,605954,0
Krys-21,true,1.00,2063,359,2059,328,250720,0
Krys-22,true,1.00,3165,389,3162,355,377031,0
Krys-23,true,1.00,2521,505,2520,470,221880,0
Krys-24,false,0.70,25564,999,25564,999,1641071,0
Krys-25,true,1.00,1984,385,1983,351,165228,0
Krys-26,true,1.00,7298,461,7298,439,716417,0
Krys-27,true,1.00,2275,406,2270,389,197354,0
Krys-28,true,1.00,8080,643,8076,609,729805,0
Krys-29,true,1.00,1465,411,1460,393,119556,0
Krys-30,true,1.00,1894,528,1892,498,148052,0
Krys-31,true,1.00,1611,483,1609,452,181009,0
Krys-32,true,1.00,244,413,242,395,21498,0
Krys-33,true,1.00,332,357,326,334,32611,0
Krys-34,true,1.00,2193,471,2191,437,191421,0
Krys-35,true,1.00,2685,393,2682,365,321712,0
Krys-36,false,0.91,23694,999,23693,999,1688232,0
Krys-37,true,1.00,4866,460,4866,442,447932,0
Krys-38,true,1.00,5112,496,5110,468,525953,0
Krys-39,false,0.91,24218,999,24217,999,1803705,0
Krys-40,true,1.00,4031,450,4030,424,450953,0
Krys-41,true,1.00,5073,440,5069,422,461950,0
Krys-42,true,1.00,2790,406,2787,383,306803,0
Krys-43,true,1.00,2666,393,2663,363,300576,0
Krys-44,true,1.00,6080,532,6075,498,573656,0
Krys-45,true,1.00,991,445,987,414,67549,0
Krys-46,true,1.00,1791,510,1787,479,138290,0
Krys-47,true,1.00,755,471,752,445,74738,0
Krys-48,true,1.00,4781,446,4779,415,484311,0
Krys-49,true,1.00,1088,385,1084,351,100189,0
Krys-50,true,1.00,6281,542,6277,513,628374,0
Krys-51,true,1.00,2952,409,2947,380,325680,0
Krys-52,true,1.00,1519,465,1517,439,138745,0
Krys-53,true,1.00,1541,434,1538,400,119102,0
Krys-54,true,1.00,4260,502,4255,472,453471,0
Krys-55,true,1.00,2030,501,2029,469,181572,0
Krys-56,true,1.00,1334,446,1332,410,122316,0
Krys-57,true,1.00,3225,368,3223,340,301369,0
Krys-58,true,1.00,2516,480,2515,462,219831,0
Krys-59,true,1.00,1112,451,1110,417,75761,0
Krys-60,true,1.00,3103,396,3102,371,303165,0
Krys-61,false,0.48,18706,999,18698,999,1261486,0
Krys-62,true,1.00,1011,454,1007,436,72314,0
Krys-63,true,1.00,3150,566,3143,535,234393,0
Krys-64,true,1.00,1917,496,1913,465,165497,0
Krys-65,true,1.00,1822,450,1818,432,129973,0
Krys-66,true,1.00,3916,542,3911,507,307407,0
Krys-67,true,1.00,2148,552,2142,518,185670,0
Krys-68,true,1.00,7493,507,7491,473,707753,0
Krys-69,true,1.00,5168,636,5165,602,343297,0
Krys-70,true,1.00,4421,482,4418,450,406329,0
Krys-71,false,0.73,3960,330,3959,330,439799,0
Krys-72,true,1.00,1206,470,1200,444,131323,0
Krys-73,true,1.00,3861,508,3858,473,329698,0
Krys-74,true,1.00,1393,404,1391,370,116929,0
Krys-75,true,1.00,578,373,572,339,40512,0
Krys-76,true,1.00,5108,416,5106,398,508562,0
Krys-77,true,1.00,1208,372,1205,338,138648,0
Krys-78,true,1.00,4552,504,4549,480,485471,0
Krys-79,true,1.00,683,417,681,394,51606,0
Krys-80,true,1.00,297,410,297,387,25719,0
Krys-81,true,1.00,753,394,752,372,77244,0
Krys-82,true,1.00,667,375,664,341,49615,0
Krys-83,true,1.00,4552,462,4551,433,422892,0
Krys-84,true,1.00,170,357,167,320,17463,0
Krys-85,true,1.00,3443,537,3438,503,312053,0
Krys-86,true,1.00,1398,423,1395,396,111604,0
Krys-87,true,1.00,621,366,619,349,42178,0
Krys-88,true,1.00,1553,440,1550,415,127366,0
Krys-89,true,1.00,1528,398,1525,367,140564,0
Krys-90,true,1.00,6886,514,6882,489,684384,0
Krys-91,true,1.00,651,379,650,350,71507,0
Krys-92,false,0.91,22411,999,22404,999,1420259,0
Krys-93,true,1.00,2487,376,2486,346,319650,0
Krys-94,true,1.00,1447,376,1445,350,165388,0
Krys-95,true,1.00,1028,397,1027,379,76901,0
Krys-96,true,1.00,8066,530,8065,496,804560,0
Krys-97,true,1.00,2294,418,2290,390,213375,0
Krys-98,true,1.00,3122,593,3120,571,247933,0
Krys-99,true,1.00,792,460,789,421,62479,0
Krys-100,true,1.00,3326,378,3324,356,423577,0
