NDW:0.0
TTFW:0.8
DFPT:2.0
DFPAP:3.0
DFPMP:7.0
RIGHT_WINDOW_BORDER_X:115.0
level,win/fail,% travelled,run time,game ticks,planning time,total plannings,nodes evaluated,most backtracked nodes
ge-1,true,1.00,593,264,586,246,34341,0
ge-2,true,1.00,458,220,449,210,26856,0
ge-3,true,1.00,166,222,161,211,8972,0
ge-4,true,1.00,2490,302,2483,291,143019,0
ge-5,true,1.00,33,199,26,189,1476,0
ge-6,true,1.00,425,248,418,236,23732,0
ge-7,true,1.00,106,210,101,200,5833,0
ge-8,true,1.00,156,222,148,212,8924,0
ge-9,true,1.00,552,237,545,227,31722,0
ge-10,true,1.00,30,199,26,189,1333,0
ge-11,true,1.00,178,227,173,216,10564,0
ge-12,true,1.00,31,199,28,189,1416,0
ge-13,true,1.00,815,253,810,243,46792,0
ge-14,true,1.00,293,232,291,221,15733,0
ge-15,true,1.00,1111,239,1105,229,63258,0
ge-16,true,1.00,302,272,294,262,17396,0
ge-17,true,1.00,919,264,915,254,56175,0
ge-18,true,1.00,1255,266,1253,256,73909,0
ge-19,true,1.00,639,264,631,251,36174,0
ge-20,true,1.00,419,221,414,211,23827,0
ge-21,true,1.00,228,203,221,193,12184,0
ge-22,true,1.00,1954,265,1949,251,110713,0
ge-23,true,1.00,2486,297,2483,277,147051,0
ge-24,true,1.00,1586,257,1582,247,91095,0
ge-25,true,1.00,1588,254,1583,244,92642,0
ge-26,true,1.00,231,205,225,195,13471,0
ge-27,true,1.00,55,214,48,204,2797,0
ge-28,true,1.00,1521,241,1520,231,80543,0
ge-29,true,1.00,238,218,235,192,13262,0
ge-30,true,1.00,1719,267,1713,257,99804,0
ge-31,true,1.00,3239,316,3236,306,189574,0
ge-32,true,1.00,130,223,124,213,7155,0
ge-33,true,1.00,125,231,119,211,7049,0
ge-34,true,1.00,1162,233,1158,223,67699,0
ge-35,true,1.00,964,253,959,243,54403,0
ge-36,true,1.00,1645,273,1634,264,97155,0
ge-37,true,1.00,331,204,326,194,14424,0
ge-38,true,1.00,802,242,793,232,27627,0
ge-39,true,1.00,883,248,882,238,48866,0
ge-40,true,1.00,29,199,23,189,1416,0
ge-41,true,1.00,400,213,398,203,23360,0
ge-42,true,1.00,605,268,593,258,34256,0
ge-43,true,1.00,344,232,341,222,20158,0
ge-44,true,1.00,2429,287,2420,277,134879,0
ge-45,true,1.00,337,227,332,217,19041,0
ge-46,true,1.00,3026,324,3019,314,172296,0
ge-47,true,1.00,1062,243,1055,233,62381,0
ge-48,true,1.00,1955,288,1949,278,116990,0
ge-49,true,1.00,136,202,131,192,7742,0
ge-50,true,1.00,1917,259,1913,249,107920,0
ge-51,true,1.00,147,235,142,225,8143,0
ge-52,true,1.00,388,251,383,240,22086,0
ge-53,true,1.00,278,225,271,215,15779,0
ge-54,true,1.00,908,257,903,247,57971,0
ge-55,true,1.00,365,240,360,229,21438,0
ge-56,true,1.00,1831,265,1829,249,106450,0
ge-57,true,1.00,2325,316,2322,305,141462,0
ge-58,true,1.00,237,276,232,264,12740,0
ge-59,true,1.00,1736,265,1729,255,99513,0
ge-60,true,1.00,2246,263,2241,253,127859,0
ge-61,true,1.00,401,211,397,201,22743,0
ge-62,true,1.00,762,223,756,213,45354,0
ge-63,true,1.00,2971,297,2962,286,134103,0
ge-64,false,1.00,759,251,753,228,42311,0
ge-65,true,1.00,1427,283,1422,269,79390,0
ge-66,true,1.00,2735,294,2729,283,162547,0
ge-67,true,1.00,603,237,597,226,33754,0
ge-68,true,1.00,220,263,214,253,11000,0
ge-69,true,1.00,163,201,158,191,8692,0
ge-70,true,1.00,520,231,513,221,29596,0
ge-71,true,1.00,2852,316,2847,306,167794,0
ge-72,true,1.00,216,251,213,239,12212,0
ge-73,true,1.00,1109,257,1103,243,64317,0
ge-74,true,1.00,2321,297,2319,287,134024,0
ge-75,true,1.00,424,234,419,214,24376,0
ge-76,true,1.00,1469,245,1458,235,84659,0
ge-77,true,1.00,3544,325,3539,315,207460,0
ge-78,true,1.00,2614,298,2607,287,151052,0
ge-79,true,1.00,179,210,175,198,9842,0
ge-80,true,1.00,64,217,57,206,3124,0
ge-81,true,1.00,67,217,64,207,3543,0
ge-82,true,1.00,98,235,93,215,5142,0
ge-83,true,1.00,551,256,546,227,31672,0
ge-84,true,1.00,1126,227,1122,217,63313,0
ge-85,true,1.00,993,230,987,220,59452,0
ge-86,true,1.00,2857,292,2855,280,164800,0
ge-87,true,1.00,1389,254,1381,244,80186,0
ge-88,true,1.00,948,279,944,269,54023,0
ge-89,true,1.00,204,245,199,235,11388,0
ge-90,true,1.00,31,199,29,189,1453,0
ge-91,true,1.00,403,216,399,206,22208,0
ge-92,true,1.00,37,205,33,195,1776,0
ge-93,true,1.00,828,221,823,211,45964,0
ge-94,true,1.00,907,243,903,233,53468,0
ge-95,true,1.00,115,245,109,235,6506,0
ge-96,true,1.00,870,254,868,243,49463,0
ge-97,true,1.00,558,231,554,221,30545,0
ge-98,true,1.00,29,199,26,189,1386,0
ge-99,true,1.00,268,209,261,199,12915,0
ge-100,true,1.00,196,205,194,195,11178,0
