NDW:0.0
TTFW:2.0
DFPT:2.0
DFPAP:3.0
DFPMP:2.0
RIGHT_WINDOW_BORDER_X:215.0
level,win/fail,% travelled,run time,game ticks,planning time,total plannings,nodes evaluated,most backtracked nodes
notchParamRand-1,true,1.00,857,312,849,293,49416,0
notchParamRand-2,true,1.00,128,306,123,287,6030,0
notchParamRand-3,true,1.00,969,306,963,287,58725,0
notchParamRand-4,true,1.00,1387,331,1382,312,84363,0
notchParamRand-5,true,1.00,237,306,230,287,12727,0
notchParamRand-6,true,1.00,405,314,397,295,22906,0
notchParamRand-7,true,1.00,217,294,208,275,11208,0
notchParamRand-8,true,1.00,485,308,476,289,26887,0
notchParamRand-9,true,1.00,590,318,578,299,35100,0
notchParamRand-10,true,1.00,823,352,817,333,48647,0
notchParamRand-11,true,1.00,123,294,119,275,5715,0
notchParamRand-12,true,1.00,319,324,308,305,17339,0
notchParamRand-13,true,1.00,1606,312,1601,293,95857,0
notchParamRand-14,true,1.00,995,312,988,293,58507,0
notchParamRand-15,true,1.00,536,308,529,289,31643,0
notchParamRand-16,true,1.00,363,300,355,281,21082,0
notchParamRand-17,true,1.00,89,303,85,284,3400,0
notchParamRand-18,true,1.00,1881,332,1872,313,108609,0
notchParamRand-19,true,1.00,250,330,244,311,12752,0
notchParamRand-20,true,1.00,1427,336,1420,317,84083,0
notchParamRand-21,true,1.00,84,296,76,277,2902,0
notchParamRand-22,true,1.00,833,314,825,295,48212,0
notchParamRand-23,true,1.00,979,332,972,313,56993,0
notchParamRand-24,true,1.00,215,326,208,307,10633,0
notchParamRand-25,true,1.00,96,308,90,288,3913,0
notchParamRand-26,true,1.00,399,336,392,317,21538,0
notchParamRand-27,true,1.00,219,300,216,281,11927,0
notchParamRand-28,true,1.00,551,317,542,298,30046,0
notchParamRand-29,true,1.00,83,298,78,279,3038,0
notchParamRand-30,true,1.00,1844,332,1834,313,106259,0
notchParamRand-31,true,1.00,301,316,289,297,16030,0
notchParamRand-32,true,1.00,144,294,133,275,6580,0
notchParamRand-33,true,1.00,1685,320,1678,301,98479,0
notchParamRand-34,true,1.00,905,316,899,297,51225,0
notchParamRand-35,true,1.00,495,318,486,299,28083,0
notchParamRand-36,true,1.00,80,300,70,280,2929,0
notchParamRand-37,true,1.00,399,310,392,291,21998,0
notchParamRand-38,true,1.00,1820,325,1815,306,104472,0
notchParamRand-39,true,1.00,1400,316,1394,297,80384,0
notchParamRand-40,true,1.00,2036,314,2027,295,117780,0
notchParamRand-41,true,1.00,73,294,60,275,2393,0
notchParamRand-42,true,1.00,439,316,429,297,24626,0
notchParamRand-43,true,1.00,215,300,210,281,11120,0
notchParamRand-44,true,1.00,304,302,299,283,16502,0
notchParamRand-45,true,1.00,931,316,923,297,50602,0
notchParamRand-46,true,1.00,538,311,529,292,30689,0
notchParamRand-47,true,1.00,791,314,781,295,45319,0
notchParamRand-48,true,1.00,1351,320,1344,301,78713,0
notchParamRand-49,true,1.00,720,306,712,287,41541,0
notchParamRand-50,true,1.00,1475,336,1471,317,85454,0
notchParamRand-51,true,1.00,210,315,203,296,10478,0
notchParamRand-52,true,1.00,744,304,733,285,41468,0
notchParamRand-53,true,1.00,806,326,795,307,46332,0
notchParamRand-54,true,1.00,2237,335,2231,316,129055,0
notchParamRand-55,true,1.00,1673,312,1665,293,96003,0
notchParamRand-56,true,1.00,671,337,666,318,37619,0
notchParamRand-57,true,1.00,1008,312,1001,293,58922,0
notchParamRand-58,true,1.00,806,333,795,314,45432,0
notchParamRand-59,true,1.00,596,311,587,292,33222,0
notchParamRand-60,true,1.00,648,311,642,292,37125,0
notchParamRand-61,true,1.00,499,306,491,287,28380,0
notchParamRand-62,true,1.00,478,320,467,301,26370,0
notchParamRand-63,true,1.00,1397,312,1391,293,80886,0
notchParamRand-64,true,1.00,278,296,271,277,14786,0
notchParamRand-65,true,1.00,1832,331,1823,312,104493,0
notchParamRand-66,true,1.00,249,313,238,294,12304,0
notchParamRand-67,true,1.00,336,300,321,281,12691,0
notchParamRand-68,true,1.00,1438,312,1433,293,83980,0
notchParamRand-69,true,1.00,233,309,226,290,12557,0
notchParamRand-70,true,1.00,721,323,713,304,42771,0
notchParamRand-71,true,1.00,365,326,356,307,18982,0
notchParamRand-72,true,1.00,113,294,107,275,4955,0
notchParamRand-73,true,1.00,458,308,452,289,24326,0
notchParamRand-74,true,1.00,88,296,81,277,3147,0
notchParamRand-75,true,1.00,76,294,72,275,2533,0
notchParamRand-76,true,1.00,1019,334,1009,315,58606,0
notchParamRand-77,true,1.00,1530,344,1524,325,86991,0
notchParamRand-78,true,1.00,996,310,985,291,58996,0
notchParamRand-79,true,1.00,225,298,220,279,11861,0
notchParamRand-80,true,1.00,286,302,280,283,14856,0
notchParamRand-81,true,1.00,285,298,282,279,15978,0
notchParamRand-82,true,1.00,751,312,741,293,44318,0
notchParamRand-83,true,1.00,1368,332,1363,313,80166,0
notchParamRand-84,true,1.00,296,300,292,281,16417,0
notchParamRand-85,true,1.00,73,294,67,275,2408,0
notchParamRand-86,true,1.00,648,346,642,327,37114,0
notchParamRand-87,true,1.00,1654,320,1646,301,99492,0
notchParamRand-88,true,1.00,288,300,282,281,15805,0
notchParamRand-89,true,1.00,352,300,341,281,19815,0
notchParamRand-90,true,1.00,694,315,688,296,39479,0
notchParamRand-91,true,1.00,78,299,73,275,2577,0
notchParamRand-92,true,1.00,888,324,881,305,52276,0
notchParamRand-93,true,1.00,300,318,292,288,16700,0
notchParamRand-94,true,1.00,1540,310,1533,291,91934,0
notchParamRand-95,true,1.00,769,316,761,297,45767,0
notchParamRand-96,true,1.00,421,320,415,301,24228,0
notchParamRand-97,true,1.00,1378,345,1373,326,80966,0
notchParamRand-98,true,1.00,206,294,197,275,10689,0
notchParamRand-99,true,1.00,263,310,257,291,14382,0
notchParamRand-100,true,1.00,1363,314,1355,295,81126,0
