NDW:0.0
TTFW:0.8
DFPT:2.0
DFPAP:3.0
DFPMP:2.0
RIGHT_WINDOW_BORDER_X:176.0
level,win/fail,% travelled,run time,game ticks,planning time,total plannings,nodes evaluated,most backtracked nodes
patternWeightCount-1,true,1.00,3246,462,3243,433,341669,0
patternWeightCount-2,true,1.00,539,415,536,392,59400,0
patternWeightCount-3,true,1.00,551,376,550,360,57714,0
patternWeightCount-4,true,1.00,554,374,550,358,57965,0
patternWeightCount-5,true,1.00,1661,446,1659,430,178270,0
patternWeightCount-6,true,1.00,1367,394,1367,378,147998,0
patternWeightCount-7,true,1.00,846,400,841,384,88401,0
patternWeightCount-8,true,1.00,377,398,372,382,36916,0
patternWeightCount-9,true,1.00,723,416,721,400,80425,0
patternWeightCount-10,true,1.00,679,433,674,417,70229,0
patternWeightCount-11,true,1.00,372,385,371,369,41114,0
patternWeightCount-12,true,1.00,942,421,941,405,100035,0
patternWeightCount-13,true,1.00,609,348,606,332,66992,0
patternWeightCount-14,true,1.00,661,425,659,408,75680,0
patternWeightCount-15,true,1.00,1409,394,1405,378,151621,0
patternWeightCount-16,true,1.00,3157,472,3153,449,358300,0
patternWeightCount-17,true,1.00,552,436,546,420,60664,0
patternWeightCount-18,true,1.00,806,401,804,385,88038,0
patternWeightCount-19,true,1.00,473,417,471,401,53337,0
patternWeightCount-20,false,0.62,2981,297,2979,297,291324,0
patternWeightCount-21,true,1.00,194,408,193,392,22709,0
patternWeightCount-22,true,1.00,3841,523,3839,493,432519,0
patternWeightCount-23,true,1.00,748,387,744,371,83329,0
patternWeightCount-24,true,1.00,1340,382,1339,366,147370,0
patternWeightCount-25,true,1.00,1842,451,1837,435,205929,0
patternWeightCount-26,true,1.00,1055,422,1052,406,120643,0
patternWeightCount-27,true,1.00,1787,469,1785,445,200104,0
patternWeightCount-28,true,1.00,1006,407,1004,391,107641,0
patternWeightCount-29,true,1.00,1049,415,1048,399,116944,0
patternWeightCount-30,true,1.00,7011,586,7006,551,684751,0
patternWeightCount-31,true,1.00,903,439,901,423,95875,0
patternWeightCount-32,true,1.00,440,366,436,350,46955,0
patternWeightCount-33,true,1.00,548,418,548,402,61734,0
patternWeightCount-34,true,1.00,938,373,935,357,102030,0
patternWeightCount-35,true,1.00,2252,483,2250,467,231134,0
patternWeightCount-36,true,1.00,1769,459,1766,443,195147,0
patternWeightCount-37,true,1.00,594,388,592,372,62179,0
patternWeightCount-38,true,1.00,3560,503,3556,463,338854,0
patternWeightCount-39,true,1.00,773,396,770,380,81853,0
patternWeightCount-40,true,1.00,2720,462,2715,446,286721,0
patternWeightCount-41,true,1.00,1028,444,1023,428,112310,0
patternWeightCount-42,false,0.87,2959,401,2958,401,283380,0
patternWeightCount-43,true,1.00,911,374,907,358,97896,0
patternWeightCount-44,true,1.00,1293,448,1292,410,147999,0
patternWeightCount-45,true,1.00,3641,560,3638,514,369994,0
patternWeightCount-46,false,0.87,4556,483,4550,483,432400,0
patternWeightCount-47,true,1.00,615,400,614,384,61156,0
patternWeightCount-48,true,1.00,912,392,907,376,98622,0
patternWeightCount-49,true,1.00,1035,361,1033,345,109930,0
patternWeightCount-50,true,1.00,782,396,781,380,79823,0
patternWeightCount-51,true,1.00,1534,444,1531,417,166334,0
patternWeightCount-52,true,1.00,1048,424,1046,401,117815,0
patternWeightCount-53,true,1.00,5055,532,5053,512,501014,0
patternWeightCount-54,true,1.00,614,446,611,430,66085,0
patternWeightCount-55,true,1.00,922,416,921,394,91635,0
patternWeightCount-56,true,1.00,1119,432,1117,417,119178,0
patternWeightCount-57,true,1.00,353,384,350,368,39623,0
patternWeightCount-58,true,1.00,914,403,914,387,102028,0
patternWeightCount-59,true,1.00,362,387,361,371,41527,0
patternWeightCount-60,true,1.00,896,431,893,407,99662,0
patternWeightCount-61,true,1.00,889,400,886,384,95729,0
patternWeightCount-62,true,1.00,3521,523,3520,492,381045,0
patternWeightCount-63,true,1.00,1059,436,1055,420,112637,0
patternWeightCount-64,true,1.00,1585,442,1582,426,162950,0
patternWeightCount-65,true,1.00,1156,443,1151,426,107062,0
patternWeightCount-66,true,1.00,1118,418,1110,402,118753,0
patternWeightCount-67,true,1.00,632,419,630,403,64840,0
patternWeightCount-68,true,1.00,821,480,819,463,58024,0
patternWeightCount-69,true,1.00,2842,445,2836,417,292562,0
patternWeightCount-70,true,1.00,741,431,738,412,81922,0
patternWeightCount-71,true,1.00,539,409,535,389,57023,0
patternWeightCount-72,false,0.83,7073,561,7071,561,716122,0
patternWeightCount-73,false,0.66,3158,338,3158,338,326759,0
patternWeightCount-74,true,1.00,627,406,624,390,68692,0
patternWeightCount-75,true,1.00,1043,411,1041,395,111846,0
patternWeightCount-76,true,1.00,744,425,741,409,83487,0
patternWeightCount-77,true,1.00,979,392,976,376,106793,0
patternWeightCount-78,true,1.00,1899,485,1895,469,194622,0
patternWeightCount-79,true,1.00,687,383,681,367,77590,0
patternWeightCount-80,true,1.00,1341,414,1340,398,146115,0
patternWeightCount-81,true,1.00,4943,549,4925,533,474754,0
patternWeightCount-82,true,1.00,159,388,156,368,18538,0
patternWeightCount-83,true,1.00,581,412,577,396,65571,0
patternWeightCount-84,true,1.00,530,412,528,396,58759,0
patternWeightCount-85,true,1.00,1543,408,1541,384,167308,0
patternWeightCount-86,false,0.94,2322,433,2321,433,242283,0
patternWeightCount-87,true,1.00,6487,553,6485,530,621207,0
patternWeightCount-88,true,1.00,1243,443,1238,427,138459,0
patternWeightCount-89,true,1.00,741,391,738,375,80381,0
patternWeightCount-90,true,1.00,4727,513,4723,485,511631,0
patternWeightCount-91,true,1.00,776,402,774,386,87352,0
patternWeightCount-92,true,1.00,3258,492,3254,469,342579,0
patternWeightCount-93,true,1.00,4498,513,4495,478,480756,0
patternWeightCount-94,true,1.00,1349,412,1347,396,142813,0
patternWeightCount-95,true,1.00,1097,435,1093,419,118150,0
patternWeightCount-96,true,1.00,1032,439,1030,423,115020,0
patternWeightCount-97,true,1.00,759,375,756,359,81892,0
patternWeightCount-98,true,1.00,8754,622,8753,605,883858,0
patternWeightCount-99,true,1.00,1561,449,1559,431,172674,0
patternWeightCount-100,true,1.00,1306,434,1305,418,134504,0
