NDW:0.0
TTFW:2.0
DFPT:2.0
DFPAP:3.0
DFPMP:5.0
RIGHT_WINDOW_BORDER_X:400.0
level,win/fail,% travelled,run time,game ticks,planning time,total plannings,nodes evaluated,most backtracked nodes
Krys-1,true,1.00,9983,559,9976,483,395949,0
Krys-2,false,0.79,26895,999,26890,999,971849,0
Krys-3,false,0.70,27113,999,27105,999,998603,0
Krys-4,true,1.00,4201,452,4190,366,179366,0
Krys-5,true,1.00,2164,392,2156,301,122206,0
Krys-6,true,1.00,2147,361,2136,310,92626,0
Krys-7,true,1.00,662,393,654,324,28779,0
Krys-8,true,1.00,3975,520,3962,416,171825,0
Krys-9,true,1.00,2474,414,2465,318,136464,0
Krys-10,true,1.00,5146,477,5138,390,206420,0
Krys-11,true,1.00,545,414,534,351,19273,0
Krys-12,true,1.00,6086,458,6075,385,235386,0
Krys-13,true,1.00,4422,442,4416,363,247055,0
Krys-14,false,0.79,26748,999,26739,999,953369,0
Krys-15,true,1.00,4765,415,4759,348,225698,0
Krys-16,false,0.69,24875,999,24872,999,904566,0
Krys-17,true,1.00,2855,523,2849,429,125143,0
Krys-18,true,1.00,4873,457,4863,386,214020,0
Krys-19,true,1.00,3583,462,3571,374,158361,0
Krys-20,true,1.00,6880,585,6863,492,278913,0
Krys-21,true,1.00,2091,353,2079,297,113559,0
Krys-22,true,1.00,2028,371,2017,304,117517,0
Krys-23,true,1.00,2881,438,2866,353,131094,0
Krys-24,true,1.00,4303,445,4294,345,185958,0
Krys-25,true,1.00,3858,498,3843,414,160677,0
Krys-26,true,1.00,2886,331,2881,283,157966,0
Krys-27,true,1.00,3478,443,3469,348,150411,0
Krys-28,true,1.00,5792,508,5779,429,264211,0
Krys-29,true,1.00,3087,469,3075,384,128508,0
Krys-30,true,1.00,4128,510,4115,417,153724,0
Krys-31,true,1.00,3247,503,3228,419,142284,0
Krys-32,true,1.00,1052,470,1038,391,40984,0
Krys-33,true,1.00,529,389,519,298,21697,0
Krys-34,true,1.00,2750,462,2741,354,125821,0
Krys-35,true,1.00,3498,368,3490,313,174993,0
Krys-36,true,1.00,5881,425,5874,350,273890,0
Krys-37,true,1.00,4814,502,4806,414,235024,0
Krys-38,true,1.00,4335,419,4325,307,229672,0
Krys-39,true,1.00,3820,424,3815,333,190829,0
Krys-40,true,1.00,4825,419,4815,354,220236,0
Krys-41,true,1.00,5178,456,5170,381,230512,0
Krys-42,true,1.00,3566,491,3555,400,192664,0
Krys-43,true,1.00,1647,388,1637,301,87331,0
Krys-44,true,1.00,5601,450,5593,380,283708,0
Krys-45,true,1.00,2903,479,2890,405,101135,0
Krys-46,true,1.00,3092,525,3077,437,122612,0
Krys-47,true,1.00,2475,502,2460,431,108023,0
Krys-48,true,1.00,1602,361,1594,286,92257,0
Krys-49,true,1.00,1065,373,1055,312,44848,0
Krys-50,true,1.00,9352,564,9344,495,365715,0
Krys-51,true,1.00,5376,460,5370,372,239370,0
Krys-52,true,1.00,3533,414,3524,331,139712,0
Krys-53,true,1.00,2772,468,2756,419,110866,0
Krys-54,false,0.79,8094,424,8088,424,358205,0
Krys-55,true,1.00,4081,469,4066,354,159153,0
Krys-56,false,0.59,26812,999,26806,999,963296,0
Krys-57,true,1.00,1560,364,1547,303,73997,0
Krys-58,true,1.00,3571,528,3556,443,148877,0
Krys-59,false,0.38,30256,999,30252,999,1084422,0
Krys-60,true,1.00,3578,406,3571,315,182810,0
Krys-61,true,1.00,3985,477,3976,392,157235,0
Krys-62,true,1.00,2772,481,2753,398,96370,0
Krys-63,true,1.00,6611,543,6600,441,259858,0
Krys-64,true,1.00,4931,542,4917,462,223288,0
Krys-65,true,1.00,3365,484,3352,404,130416,0
Krys-66,true,1.00,5074,485,5061,370,189714,0
Krys-67,true,1.00,3856,525,3842,431,162053,0
Krys-68,true,1.00,2486,345,2476,275,128821,0
Krys-69,true,1.00,9760,654,9749,539,355758,0
Krys-70,true,1.00,7599,499,7588,425,321839,0
Krys-71,true,1.00,3222,383,3215,335,179331,0
Krys-72,true,1.00,2758,519,2740,436,113390,0
Krys-73,true,1.00,5129,535,5116,421,217865,0
Krys-74,true,1.00,2384,474,2372,413,119350,0
Krys-75,true,1.00,1607,508,1592,418,54303,0
Krys-76,true,1.00,3848,345,3839,293,174495,0
Krys-77,true,1.00,1160,418,1153,334,56269,0
Krys-78,false,0.91,25733,999,25725,999,1026715,0
Krys-79,true,1.00,1561,441,1546,358,58520,0
Krys-80,true,1.00,1051,463,1038,397,39814,0
Krys-81,true,1.00,1453,417,1438,341,69776,0
Krys-82,true,1.00,2020,388,2013,323,77049,0
Krys-83,true,1.00,4622,468,4614,374,212232,0
Krys-84,true,1.00,375,384,363,314,14511,0
Krys-85,true,1.00,3550,507,3534,420,146337,0
Krys-86,true,1.00,2694,416,2679,333,116069,0
Krys-87,true,1.00,1863,394,1852,327,63886,0
Krys-88,true,1.00,2152,475,2143,409,93862,0
Krys-89,true,1.00,2069,439,2060,361,91002,0
Krys-90,true,1.00,3381,350,3373,271,175615,0
Krys-91,true,1.00,697,433,684,361,28884,0
Krys-92,true,1.00,6542,414,6538,324,276948,0
Krys-93,true,1.00,3385,354,3378,302,149401,0
Krys-94,true,1.00,1830,394,1814,317,105111,0
Krys-95,true,1.00,2622,489,2612,384,112731,0
Krys-96,true,1.00,3700,398,3689,348,205562,0
Krys-97,true,1.00,2169,407,2160,349,98886,0
Krys-98,false,0.83,6346,468,6338,468,272792,0
Krys-99,true,1.00,3282,459,3266,368,120759,0
Krys-100,true,1.00,2463,347,2456,291,140512,0
