NDW:0.0
TTFW:0.6
DFPT:2.0
DFPAP:3.0
DFPMP:20.0
RIGHT_WINDOW_BORDER_X:176.0
level,win/fail,% travelled,run time,game ticks,planning time,total plannings,nodes evaluated,most backtracked nodes
notch-1,true,1.00,843,250,833,234,46890,0
notch-2,true,1.00,1373,269,1365,253,42619,0
notch-3,true,1.00,820,259,813,243,37753,0
notch-4,true,1.00,1017,245,1014,229,57170,0
notch-5,true,1.00,680,232,675,215,38081,0
notch-6,true,1.00,711,267,705,251,38336,0
notch-7,true,1.00,588,268,583,252,32476,0
notch-8,true,1.00,829,292,822,276,45516,0
notch-9,true,1.00,965,254,957,238,52825,0
notch-10,true,1.00,977,271,973,255,54558,0
notch-11,true,1.00,888,246,882,230,48685,0
notch-12,true,1.00,634,234,628,218,34615,0
notch-13,true,1.00,736,251,729,235,40764,0
notch-14,true,1.00,830,247,825,231,46387,0
notch-15,true,1.00,751,255,740,239,36429,0
notch-16,true,1.00,1004,249,993,234,53849,0
notch-17,true,1.00,896,260,886,244,50114,0
notch-18,true,1.00,1173,281,1168,264,61055,0
notch-19,true,1.00,1151,233,1147,217,65174,0
notch-20,true,1.00,899,268,892,252,49310,0
notch-21,true,1.00,918,264,912,248,52174,0
notch-22,true,1.00,561,243,555,227,31036,0
notch-23,true,1.00,1053,248,1050,231,58448,0
notch-24,true,1.00,642,256,637,240,35420,0
notch-25,true,1.00,1039,267,1036,251,58648,0
notch-26,true,1.00,781,253,779,236,42031,0
notch-27,true,1.00,1655,296,1647,280,93305,0
notch-28,true,1.00,944,257,940,240,53045,0
notch-29,true,1.00,988,259,985,243,54520,0
notch-30,true,1.00,910,239,903,223,49392,0
notch-31,true,1.00,916,275,912,259,49655,0
notch-32,true,1.00,764,269,762,246,41788,0
notch-33,true,1.00,666,225,665,209,36893,0
notch-34,true,1.00,703,253,700,237,38767,0
notch-35,true,1.00,759,252,755,236,41723,0
notch-36,true,1.00,1376,283,1363,267,42931,0
notch-37,true,1.00,1240,266,1236,243,66619,0
notch-38,true,1.00,1125,275,1119,259,59380,0
notch-39,true,1.00,692,232,687,216,37085,0
notch-40,true,1.00,1708,281,1701,263,90668,0
notch-41,true,1.00,1688,278,1681,262,61016,0
notch-42,true,1.00,917,246,911,230,50937,0
notch-43,true,1.00,648,226,644,210,35706,0
notch-44,true,1.00,728,254,726,238,39096,0
notch-45,true,1.00,1545,275,1538,259,84494,0
notch-46,true,1.00,830,249,827,233,44563,0
notch-47,true,1.00,1031,265,1029,249,56547,0
notch-48,true,1.00,1779,270,1777,254,97467,0
notch-49,true,1.00,863,263,858,241,45212,0
notch-50,true,1.00,1008,286,1001,270,51576,0
notch-51,true,1.00,717,249,707,228,38830,0
notch-52,true,1.00,727,262,725,245,38932,0
notch-53,true,1.00,574,263,563,245,22554,0
notch-54,true,1.00,898,266,897,250,48747,0
notch-55,true,1.00,1277,275,1271,259,70872,0
notch-56,true,1.00,783,276,777,260,43350,0
notch-57,true,1.00,904,276,899,260,49450,0
notch-58,true,1.00,1163,278,1153,261,63907,0
notch-59,true,1.00,1297,283,1294,260,70648,0
notch-60,true,1.00,1068,253,1061,237,60564,0
notch-61,true,1.00,946,235,942,219,52290,0
notch-62,true,1.00,892,260,886,244,48902,0
notch-63,true,1.00,872,270,867,249,49567,0
notch-64,true,1.00,1059,250,1053,234,58562,0
notch-65,true,1.00,1347,304,1338,284,76182,0
notch-66,true,1.00,957,266,948,246,53207,0
notch-67,true,1.00,820,233,816,217,44640,0
notch-68,true,1.00,529,242,523,226,30153,0
notch-69,true,1.00,1520,293,1510,277,70950,0
notch-70,true,1.00,1212,275,1209,258,66197,0
notch-71,true,1.00,999,228,993,212,54052,0
notch-72,true,1.00,789,249,779,233,31821,0
notch-73,true,1.00,937,258,929,241,26401,0
notch-74,true,1.00,616,231,605,215,24288,0
notch-75,true,1.00,1326,265,1323,249,72729,0
notch-76,true,1.00,891,259,887,243,48455,0
notch-77,true,1.00,1771,279,1766,263,95876,0
notch-78,true,1.00,919,247,910,231,51047,0
notch-79,true,1.00,1000,259,995,243,56037,0
notch-80,true,1.00,424,226,419,210,23131,0
notch-81,true,1.00,1263,248,1259,232,69370,0
notch-82,true,1.00,812,250,805,234,44076,0
notch-83,true,1.00,1117,266,1106,250,62117,0
notch-84,true,1.00,669,247,661,231,36434,0
notch-85,true,1.00,661,256,655,238,36224,0
notch-86,true,1.00,875,243,864,227,47260,0
notch-87,true,1.00,937,247,934,231,51624,0
notch-88,true,1.00,2174,319,2166,302,121398,0
notch-89,true,1.00,1243,269,1239,253,69115,0
notch-90,true,1.00,1158,261,1148,245,63985,0
notch-91,true,1.00,1769,286,1762,270,96856,0
notch-92,true,1.00,1079,247,1056,231,30780,0
notch-93,true,1.00,1083,265,1080,249,52129,0
notch-94,true,1.00,1424,286,1422,269,75712,0
notch-95,true,1.00,622,238,621,222,32523,0
notch-96,true,1.00,748,261,743,245,40880,0
notch-97,true,1.00,1070,272,1062,256,57760,0
notch-98,true,1.00,1153,255,1148,238,62697,0
notch-99,true,1.00,1150,279,1144,258,63026,0
notch-100,true,1.00,883,279,877,263,47242,0
