NDW:0.0
TTFW:0.6
DFPT:2.0
DFPAP:3.0
DFPMP:3.0
RIGHT_WINDOW_BORDER_X:195.0
level,win/fail,% travelled,run time,game ticks,planning time,total plannings,nodes evaluated,most backtracked nodes
notchParam-1,true,1.00,1182,318,1176,301,60112,0
notchParam-2,true,1.00,977,310,970,293,48883,0
notchParam-3,true,1.00,688,310,673,293,35611,0
notchParam-4,true,1.00,625,322,617,305,32241,0
notchParam-5,true,1.00,680,312,672,295,35971,0
notchParam-6,true,1.00,736,324,728,307,38823,0
notchParam-7,true,1.00,990,319,982,302,51041,0
notchParam-8,true,1.00,1190,316,1184,299,64165,0
notchParam-9,true,1.00,674,322,666,305,34872,0
notchParam-10,true,1.00,1230,322,1224,305,64311,0
notchParam-11,true,1.00,584,316,577,299,31202,0
notchParam-12,true,1.00,1240,336,1233,319,65200,0
notchParam-13,true,1.00,259,312,252,295,13051,0
notchParam-14,true,1.00,234,304,224,287,11462,0
notchParam-15,true,1.00,855,308,844,291,43440,0
notchParam-16,true,1.00,1515,333,1509,316,81200,0
notchParam-17,true,1.00,834,308,827,291,44014,0
notchParam-18,true,1.00,457,332,448,315,21824,0
notchParam-19,true,1.00,247,306,239,289,12243,0
notchParam-20,true,1.00,221,308,212,291,10871,0
notchParam-21,true,1.00,215,296,207,279,10091,0
notchParam-22,true,1.00,260,316,252,299,12597,0
notchParam-23,true,1.00,1449,339,1441,322,74835,0
notchParam-24,true,1.00,1090,312,1087,295,58343,0
notchParam-25,true,1.00,1159,318,1150,301,61352,0
notchParam-26,true,1.00,1283,345,1276,328,67524,0
notchParam-27,true,1.00,261,318,251,301,13007,0
notchParam-28,true,1.00,740,324,727,307,37801,0
notchParam-29,true,1.00,689,316,677,299,36106,0
notchParam-30,true,1.00,240,304,229,287,11887,0
notchParam-31,true,1.00,927,314,918,297,47611,0
notchParam-32,true,1.00,843,308,831,291,44036,0
notchParam-33,true,1.00,241,300,234,283,11920,0
notchParam-34,true,1.00,960,318,952,301,49110,0
notchParam-35,true,1.00,1036,324,1028,307,51077,0
notchParam-36,true,1.00,788,300,783,283,42188,0
notchParam-37,true,1.00,228,298,221,281,11038,0
notchParam-38,true,1.00,235,306,225,289,11786,0
notchParam-39,true,1.00,1094,342,1084,325,54442,0
notchParam-40,true,1.00,689,320,679,303,35847,0
notchParam-41,true,1.00,665,328,654,311,34232,0
notchParam-42,true,1.00,285,304,280,287,14287,0
notchParam-43,true,1.00,1159,326,1145,309,60791,0
notchParam-44,true,1.00,1211,338,1202,321,63910,0
notchParam-45,true,1.00,1168,329,1159,304,63002,0
notchParam-46,true,1.00,1134,310,1130,293,59738,0
notchParam-47,true,1.00,268,304,261,287,13167,0
notchParam-48,true,1.00,315,308,306,291,15451,0
notchParam-49,true,1.00,339,323,331,299,16789,0
notchParam-50,true,1.00,586,323,578,306,27247,0
notchParam-51,true,1.00,237,306,231,289,11859,0
notchParam-52,true,1.00,851,312,844,295,43562,0
notchParam-53,true,1.00,1192,344,1185,327,59863,0
notchParam-54,true,1.00,1315,338,1306,321,65808,0
notchParam-55,true,1.00,543,314,532,297,25499,0
notchParam-56,true,1.00,240,304,230,287,11929,0
notchParam-57,true,1.00,1355,332,1345,315,72342,0
notchParam-58,true,1.00,667,336,659,319,34259,0
notchParam-59,true,1.00,1488,346,1484,329,77320,0
notchParam-60,true,1.00,786,328,781,311,39239,0
notchParam-61,true,1.00,1268,336,1264,319,66734,0
notchParam-62,true,1.00,755,306,748,289,37626,0
notchParam-63,true,1.00,703,322,694,305,36398,0
notchParam-64,true,1.00,621,312,615,295,32565,0
notchParam-65,true,1.00,610,318,606,301,32301,0
notchParam-66,true,1.00,650,336,641,319,33603,0
notchParam-67,true,1.00,822,321,811,304,42246,0
notchParam-68,true,1.00,845,310,839,292,43130,0
notchParam-69,true,1.00,739,296,732,279,38288,0
notchParam-70,true,1.00,1286,322,1276,305,66887,0
notchParam-71,true,1.00,740,330,728,313,39421,0
notchParam-72,true,1.00,731,332,724,315,38844,0
notchParam-73,true,1.00,639,314,630,297,33769,0
notchParam-74,true,1.00,641,318,634,301,33445,0
notchParam-75,true,1.00,677,314,670,297,34611,0
notchParam-76,true,1.00,1307,344,1300,327,66725,0
notchParam-77,true,1.00,671,316,660,299,34502,0
notchParam-78,true,1.00,1287,328,1281,311,65885,0
notchParam-79,true,1.00,669,320,662,303,35963,0
notchParam-80,true,1.00,371,314,364,297,18046,0
notchParam-81,true,1.00,680,324,672,307,35815,0
notchParam-82,true,1.00,253,308,240,291,12562,0
notchParam-83,true,1.00,247,306,243,289,12368,0
notchParam-84,true,1.00,943,317,939,300,46335,0
notchParam-85,true,1.00,1537,340,1528,323,75513,0
notchParam-86,true,1.00,1647,324,1637,307,87297,0
notchParam-87,true,1.00,251,308,243,291,13053,0
notchParam-88,true,1.00,379,308,373,291,18777,0
notchParam-89,true,1.00,236,304,229,287,11784,0
notchParam-90,true,1.00,214,300,204,283,10664,0
notchParam-91,true,1.00,1241,324,1235,307,64718,0
notchParam-92,true,1.00,1071,306,1062,289,57238,0
notchParam-93,true,1.00,1167,322,1162,305,62412,0
notchParam-94,true,1.00,1125,314,1118,297,60154,0
notchParam-95,true,1.00,1586,354,1583,337,82290,0
notchParam-96,true,1.00,624,316,616,299,33748,0
notchParam-97,true,1.00,632,316,621,299,33302,0
notchParam-98,true,1.00,290,312,285,295,14882,0
notchParam-99,true,1.00,942,322,937,305,48119,0
notchParam-100,true,1.00,813,302,808,285,42276,0
