NDW:0.0
TTFW:0.4
DFPT:2.0
DFPAP:3.0
DFPMP:3.0
RIGHT_WINDOW_BORDER_X:115.0
level,win/fail,% travelled,run time,game ticks,planning time,total plannings,nodes evaluated,most backtracked nodes
patternWeightCount-1,true,1.00,8326,693,8323,681,886051,0
patternWeightCount-2,true,1.00,607,443,605,432,67153,0
patternWeightCount-3,true,1.00,1298,473,1292,463,138417,0
patternWeightCount-4,true,1.00,866,409,863,399,90833,0
patternWeightCount-5,true,1.00,1962,530,1957,520,211964,0
patternWeightCount-6,true,1.00,2746,602,2742,592,286036,0
patternWeightCount-7,true,1.00,963,469,956,459,101100,0
patternWeightCount-8,true,1.00,718,495,716,485,73100,0
patternWeightCount-9,true,1.00,1205,526,1201,516,136311,0
patternWeightCount-10,true,1.00,1019,520,1016,510,108683,0
patternWeightCount-11,true,1.00,889,489,888,479,99926,0
patternWeightCount-12,true,1.00,3184,622,3178,611,329192,0
patternWeightCount-13,true,1.00,1100,431,1096,421,114451,0
patternWeightCount-14,true,1.00,2258,563,2255,552,236128,0
patternWeightCount-15,true,1.00,2814,539,2811,529,292702,0
patternWeightCount-16,true,1.00,7049,704,7047,693,762894,0
patternWeightCount-17,true,1.00,600,466,595,456,72472,0
patternWeightCount-18,true,1.00,931,450,928,440,100998,0
patternWeightCount-19,true,1.00,690,481,689,471,73040,0
patternWeightCount-20,false,0.62,4924,379,4921,379,501395,0
patternWeightCount-21,true,1.00,662,501,659,491,71272,0
patternWeightCount-22,true,1.00,6051,688,6047,668,660944,0
patternWeightCount-23,true,1.00,1142,504,1139,491,125846,0
patternWeightCount-24,true,1.00,2778,533,2775,521,287266,0
patternWeightCount-25,true,1.00,2282,573,2276,563,240159,0
patternWeightCount-26,true,1.00,3276,611,3275,601,348241,0
patternWeightCount-27,true,1.00,2291,600,2289,589,250978,0
patternWeightCount-28,true,1.00,1809,579,1803,569,199456,0
patternWeightCount-29,true,1.00,2313,484,2308,474,248716,0
patternWeightCount-30,false,0.82,1971,418,1968,418,202205,0
patternWeightCount-31,true,1.00,3218,533,3216,523,350009,0
patternWeightCount-32,true,1.00,933,451,933,440,97488,0
patternWeightCount-33,true,1.00,1735,539,1730,528,190996,0
patternWeightCount-34,true,1.00,2328,485,2326,474,243178,0
patternWeightCount-35,true,1.00,5057,667,5053,657,506989,0
patternWeightCount-36,true,1.00,1641,460,1638,450,172848,0
patternWeightCount-37,true,1.00,1354,470,1352,460,135873,0
patternWeightCount-38,false,0.94,7041,651,7039,651,706287,0
patternWeightCount-39,true,1.00,2900,530,2898,520,288465,0
patternWeightCount-40,true,1.00,1608,490,1605,480,176694,0
patternWeightCount-41,true,1.00,2279,551,2274,540,241523,0
patternWeightCount-42,false,0.86,9747,697,9746,697,965831,0
patternWeightCount-43,true,1.00,1078,436,1073,426,116273,0
patternWeightCount-44,true,1.00,2486,611,2483,592,275371,0
patternWeightCount-45,false,0.95,8235,764,8227,764,801711,0
patternWeightCount-46,false,0.85,5434,570,5434,570,538337,0
patternWeightCount-47,true,1.00,1527,479,1522,469,152742,0
patternWeightCount-48,true,1.00,547,383,544,373,57806,0
patternWeightCount-49,true,1.00,1182,428,1180,418,116797,0
patternWeightCount-50,true,1.00,1275,467,1272,457,130017,0
patternWeightCount-51,true,1.00,983,433,980,417,107453,0
patternWeightCount-52,true,1.00,2876,546,2876,528,307622,0
patternWeightCount-53,false,0.73,3335,439,3331,439,340923,0
patternWeightCount-54,true,1.00,778,466,775,456,85150,0
patternWeightCount-55,true,1.00,4283,546,4281,532,380118,0
patternWeightCount-56,true,1.00,1586,484,1579,473,164559,0
patternWeightCount-57,true,1.00,1375,447,1373,437,152352,0
patternWeightCount-58,true,1.00,1979,581,1976,570,216342,0
patternWeightCount-59,true,1.00,497,399,495,389,56552,0
patternWeightCount-60,true,1.00,2474,505,2471,495,270090,0
patternWeightCount-61,true,1.00,2469,536,2462,525,262935,0
patternWeightCount-62,true,1.00,3271,559,3266,539,350624,0
patternWeightCount-63,true,1.00,1437,449,1436,438,160365,0
patternWeightCount-64,true,1.00,2049,547,2046,537,214290,0
patternWeightCount-65,true,1.00,2142,510,2138,500,219759,0
patternWeightCount-66,true,1.00,1542,494,1539,484,171558,0
patternWeightCount-67,true,1.00,1077,495,1074,485,107323,0
patternWeightCount-68,true,1.00,1047,529,1040,519,96156,0
patternWeightCount-69,false,0.96,6780,617,6778,617,681895,0
patternWeightCount-70,true,1.00,2126,543,2124,532,225595,0
patternWeightCount-71,true,1.00,625,406,622,394,68990,0
patternWeightCount-72,false,0.83,9157,652,9156,652,938281,0
patternWeightCount-73,false,0.94,13708,799,13707,799,1422510,0
patternWeightCount-74,true,1.00,1309,513,1305,503,141002,0
patternWeightCount-75,true,1.00,1065,456,1060,446,114447,0
patternWeightCount-76,true,1.00,1851,551,1847,541,197520,0
patternWeightCount-77,true,1.00,1184,466,1183,456,126314,0
patternWeightCount-78,true,1.00,4725,640,4723,630,500304,0
patternWeightCount-79,true,1.00,1375,484,1372,474,139560,0
patternWeightCount-80,true,1.00,1754,490,1752,480,181976,0
patternWeightCount-81,false,0.81,6199,558,6195,558,604102,0
patternWeightCount-82,true,1.00,280,412,276,398,32294,0
patternWeightCount-83,true,1.00,810,470,804,460,87545,0
patternWeightCount-84,true,1.00,738,418,738,408,80521,0
patternWeightCount-85,true,1.00,1966,486,1962,476,209996,0
patternWeightCount-86,false,0.88,2056,385,2056,385,215988,0
patternWeightCount-87,false,0.72,3430,402,3428,402,335473,0
patternWeightCount-88,true,1.00,1855,511,1852,501,203278,0
patternWeightCount-89,true,1.00,1330,504,1323,494,140026,0
patternWeightCount-90,false,0.76,7180,610,7178,610,760149,0
patternWeightCount-91,true,1.00,1299,495,1298,485,141572,0
patternWeightCount-92,true,1.00,13550,949,13549,915,1376407,0
patternWeightCount-93,false,0.90,3786,557,3784,557,341262,0
patternWeightCount-94,true,1.00,1220,492,1218,482,128896,0
patternWeightCount-95,true,1.00,2029,485,2025,475,211718,0
patternWeightCount-96,true,1.00,2257,557,2251,547,240383,0
patternWeightCount-97,true,1.00,2060,470,2060,460,220427,0
patternWeightCount-98,false,0.93,9378,683,9375,683,982308,0
patternWeightCount-99,true,1.00,2283,618,2279,608,249336,0
patternWeightCount-100,true,1.00,2011,486,2008,476,208696,0
