NDW:0.0
TTFW:1.2
DFPT:2.0
DFPAP:3.0
DFPMP:0.0
RIGHT_WINDOW_BORDER_X:135.0
level,win/fail,% travelled,run time,game ticks,planning time,total plannings,nodes evaluated,most backtracked nodes
patternCount-1,false,0.67,3046,399,3046,399,249586,0
patternCount-2,true,1.00,1124,461,1121,449,119127,0
patternCount-3,false,0.91,4346,549,4345,549,381479,0
patternCount-4,true,1.00,925,438,924,421,104972,0
patternCount-5,true,1.00,1057,463,1054,450,118873,0
patternCount-6,true,1.00,648,433,647,421,74661,0
patternCount-7,true,1.00,1253,450,1248,438,144706,0
patternCount-8,true,1.00,5713,628,5712,603,618377,0
patternCount-9,true,1.00,1751,517,1747,505,202055,0
patternCount-10,true,1.00,362,449,357,430,47499,0
patternCount-11,true,1.00,8689,703,8688,679,946188,0
patternCount-12,true,1.00,1000,444,997,432,110934,0
patternCount-13,true,1.00,435,428,432,416,51956,0
patternCount-14,true,1.00,1804,475,1804,461,197676,0
patternCount-15,true,1.00,785,470,783,458,95160,0
patternCount-16,true,1.00,1229,475,1226,463,138730,0
patternCount-17,true,1.00,1175,470,1172,458,135291,0
patternCount-18,true,1.00,1313,441,1311,419,141184,0
patternCount-19,true,1.00,1011,432,1010,420,109915,0
patternCount-20,true,1.00,1166,459,1162,446,136634,0
patternCount-21,true,1.00,890,443,889,431,100252,0
patternCount-22,true,1.00,4886,534,4886,521,538449,0
patternCount-23,false,0.68,2440,384,2438,384,244122,0
patternCount-24,true,1.00,9690,744,9684,727,1068167,0
patternCount-25,true,1.00,908,453,906,440,102520,0
patternCount-26,true,1.00,587,437,583,425,67726,0
patternCount-27,true,1.00,670,415,669,403,82024,0
patternCount-28,true,1.00,749,458,745,436,83843,0
patternCount-29,true,1.00,916,424,913,412,105501,0
patternCount-30,true,1.00,922,473,912,461,112317,0
patternCount-31,true,1.00,1451,490,1450,478,160158,0
patternCount-32,true,1.00,1784,523,1780,511,188744,0
patternCount-33,true,1.00,4456,606,4453,584,452762,0
patternCount-34,true,1.00,2086,543,2081,521,226996,0
patternCount-35,true,1.00,901,493,899,481,104891,0
patternCount-36,true,1.00,3315,599,3312,579,341818,0
patternCount-37,true,1.00,1707,437,1704,425,183873,0
patternCount-38,true,1.00,3280,524,3276,512,348319,0
patternCount-39,true,1.00,778,466,772,449,90530,0
patternCount-40,true,1.00,11499,739,11499,720,1273395,0
patternCount-41,true,1.00,1673,446,1669,434,192450,0
patternCount-42,true,1.00,754,462,752,442,87670,0
patternCount-43,true,1.00,566,438,562,426,67338,0
patternCount-44,true,1.00,566,437,561,425,70739,0
patternCount-45,true,1.00,1449,564,1444,543,161891,0
patternCount-46,true,1.00,1189,429,1189,417,133753,0
patternCount-47,true,1.00,1617,480,1609,468,189214,0
patternCount-48,true,1.00,735,431,732,419,87221,0
patternCount-49,true,1.00,1158,434,1155,421,125174,0
patternCount-50,true,1.00,7469,715,7465,678,830324,0
patternCount-51,true,1.00,630,409,627,396,73453,0
patternCount-52,true,1.00,862,461,861,449,97401,0
patternCount-53,true,1.00,7272,638,7272,619,755901,0
patternCount-54,true,1.00,2064,579,2062,567,232091,0
patternCount-55,false,0.75,9965,622,9964,622,992707,0
patternCount-56,true,1.00,2150,483,2136,471,238742,0
patternCount-57,true,1.00,874,472,872,459,97459,0
patternCount-58,true,1.00,1330,512,1327,500,169916,0
patternCount-59,true,1.00,1168,424,1164,412,135511,0
patternCount-60,true,1.00,1322,447,1318,435,146326,0
patternCount-61,true,1.00,943,433,939,419,100391,0
patternCount-62,true,1.00,1822,472,1816,455,200704,0
patternCount-63,true,1.00,601,435,598,423,77368,0
patternCount-64,true,1.00,873,425,873,413,102191,0
patternCount-65,true,1.00,770,437,766,424,88954,0
patternCount-66,true,1.00,1499,477,1498,465,167331,0
patternCount-67,true,1.00,1504,490,1502,474,169869,0
patternCount-68,true,1.00,361,388,357,376,43779,0
patternCount-69,true,1.00,572,461,570,449,70501,0
patternCount-70,true,1.00,1270,463,1268,451,159503,0
patternCount-71,true,1.00,1318,501,1318,475,148380,0
patternCount-72,false,0.82,4407,489,4405,489,474387,0
patternCount-73,true,1.00,2166,524,2164,512,241657,0
patternCount-74,false,0.82,7507,530,7504,530,800032,0
patternCount-75,true,1.00,1142,455,1141,442,129512,0
patternCount-76,true,1.00,1203,506,1200,494,141328,0
patternCount-77,true,1.00,997,482,993,467,113895,0
patternCount-78,true,1.00,2021,547,2020,535,256252,0
patternCount-79,true,1.00,8151,699,8144,686,902318,0
patternCount-80,true,1.00,6202,657,6201,641,648824,0
patternCount-81,true,1.00,669,457,669,445,76910,0
patternCount-82,true,1.00,963,441,961,429,114204,0
patternCount-83,true,1.00,631,424,630,412,73147,0
patternCount-84,true,1.00,613,450,608,438,73867,0
patternCount-85,true,1.00,1087,435,1083,423,122277,0
patternCount-86,true,1.00,903,463,901,451,109958,0
patternCount-87,true,1.00,1767,480,1764,468,211718,0
patternCount-88,true,1.00,1700,485,1699,470,197858,0
patternCount-89,true,1.00,1375,440,1372,428,155047,0
patternCount-90,true,1.00,698,432,695,420,80754,0
patternCount-91,true,1.00,1583,539,1580,527,179802,0
patternCount-92,true,1.00,1042,427,1039,415,116535,0
patternCount-93,true,1.00,8865,697,8862,675,907909,0
patternCount-94,true,1.00,1876,464,1874,451,213448,0
patternCount-95,true,1.00,1516,442,1515,430,172246,0
patternCount-96,true,1.00,834,482,830,470,93169,0
patternCount-97,false,0.82,5720,551,5718,551,604300,0
patternCount-98,true,1.00,1157,479,1153,467,140420,0
patternCount-99,true,1.00,609,420,608,408,71637,0
patternCount-100,true,1.00,688,413,687,401,82330,0
