NDW:0.0
TTFW:2.0
DFPT:2.0
DFPAP:3.0
DFPMP:7.0
RIGHT_WINDOW_BORDER_X:15.0
level,win/fail,% travelled,run time,game ticks,planning time,total plannings,nodes evaluated,most backtracked nodes
ge-1,false,0.21,222,130,218,130,10316,0
ge-2,false,0.15,13,87,10,87,631,0
ge-3,false,0.50,27,223,22,223,1128,0
ge-4,false,0.09,160,88,160,88,7917,0
ge-5,false,0.43,21,166,15,166,863,0
ge-6,false,0.55,507,303,497,303,24188,0
ge-7,false,0.43,872,276,865,276,41570,0
ge-8,false,0.66,36,292,25,292,1538,0
ge-9,false,0.12,6,54,6,54,293,0
ge-10,false,0.07,4,38,4,38,237,0
ge-11,false,0.30,30,184,25,184,1211,0
ge-12,false,0.25,11,104,7,104,455,0
ge-13,false,0.20,13,98,8,98,536,0
ge-14,false,0.20,14,98,11,98,536,0
ge-15,false,0.37,257,189,252,189,12170,0
ge-16,false,0.08,6,44,4,44,271,0
ge-17,false,0.24,185,128,183,128,8851,0
ge-18,false,0.09,115,81,113,81,5394,0
ge-19,false,0.18,620,149,616,149,29423,0
ge-20,false,0.35,16,147,12,147,722,0
ge-21,false,0.35,558,190,551,190,25507,0
ge-22,false,0.67,31,258,22,258,1169,0
ge-23,false,0.31,319,173,318,173,14692,0
ge-24,false,0.45,26,205,16,205,1177,0
ge-25,false,0.12,6,56,4,56,303,0
ge-26,false,0.48,276,245,266,245,13648,0
ge-27,true,1.00,46,409,29,407,1910,0
ge-28,false,0.36,287,182,281,182,13568,0
ge-29,false,0.37,167,206,162,206,7895,0
ge-30,false,0.07,6,38,4,38,237,0
ge-31,false,0.24,186,132,181,132,9052,0
ge-32,false,0.80,583,398,568,398,26804,0
ge-33,false,0.78,245,350,231,350,11107,0
ge-34,false,0.12,151,100,147,100,7189,0
ge-35,false,0.17,1168,194,1164,194,52819,0
ge-36,false,0.10,316,107,315,107,14763,0
ge-37,false,0.90,852,450,837,450,39614,0
ge-38,false,0.21,13,98,12,98,624,0
ge-39,false,0.17,8,73,4,73,375,0
ge-40,true,1.00,34,373,24,371,1406,0
ge-41,false,0.18,12,84,10,84,555,0
ge-42,false,0.17,8,72,5,72,350,0
ge-43,false,0.08,6,44,5,44,271,0
ge-44,false,0.33,268,211,262,211,12516,0
ge-45,false,0.10,9,61,5,61,467,0
ge-46,false,0.13,7,57,5,57,302,0
ge-47,false,0.16,217,118,215,118,11033,0
ge-48,false,0.29,18,133,14,133,855,0
ge-49,false,0.61,22,229,19,229,856,0
ge-50,false,0.34,416,179,409,179,20172,0
ge-51,false,0.35,19,159,13,159,846,0
ge-52,false,0.12,7,54,7,54,293,0
ge-53,false,0.22,527,178,523,178,24827,0
ge-54,false,0.52,32,233,25,233,1397,0
ge-55,false,0.15,10,74,7,74,464,0
ge-56,false,0.12,585,139,583,139,27793,0
ge-57,false,0.06,5,30,4,30,209,0
ge-58,false,0.44,58,253,50,253,2465,0
ge-59,false,0.37,203,219,198,219,9759,0
ge-60,false,0.20,13,100,12,100,599,0
ge-61,false,0.20,11,94,6,94,521,0
ge-62,false,0.27,11,109,7,109,478,0
ge-63,false,0.20,10,83,6,83,381,0
ge-64,false,0.08,5,38,3,38,241,0
ge-65,false,0.38,270,222,263,222,13421,0
ge-66,false,0.24,11,95,6,95,421,0
ge-67,false,0.49,28,223,21,223,1164,0
ge-68,false,0.12,8,53,7,53,285,0
ge-69,false,0.06,5,30,4,30,215,0
ge-70,false,0.66,38,289,28,289,1573,0
ge-71,false,0.06,5,31,3,31,219,0
ge-72,false,0.56,25,230,18,230,1092,0
ge-73,false,0.15,215,97,213,97,10485,0
ge-74,false,0.23,27,110,21,110,1104,0
ge-75,false,0.17,8,74,7,74,356,0
ge-76,false,0.12,7,54,7,54,293,0
ge-77,false,0.11,249,90,246,90,11907,0
ge-78,false,0.56,376,303,369,303,17863,0
ge-79,false,0.30,11,117,5,117,484,0
ge-80,true,1.00,44,389,38,387,1822,0
ge-81,true,1.00,44,396,32,394,1834,0
ge-82,false,0.41,14,156,9,156,610,0
ge-83,false,0.09,113,77,112,77,5366,0
ge-84,false,0.12,6,54,4,54,293,0
ge-85,false,0.40,20,166,14,166,735,0
ge-86,false,0.36,256,176,252,176,12130,0
ge-87,false,0.12,9,56,6,56,303,0
ge-88,false,0.17,252,127,247,127,12800,0
ge-89,false,0.21,18,111,16,111,875,0
ge-90,false,0.83,37,316,28,316,1372,0
ge-91,false,0.87,258,415,251,415,12100,0
ge-92,false,0.81,39,333,30,333,1684,0
ge-93,false,0.40,161,210,159,210,7479,0
ge-94,false,0.16,13,85,10,85,542,0
ge-95,false,0.10,10,61,10,61,467,0
ge-96,false,0.07,6,38,5,38,237,0
ge-97,false,0.51,17,192,14,192,729,0
ge-98,true,1.00,37,373,27,371,1485,0
ge-99,false,0.18,11,77,8,77,464,0
ge-100,false,0.12,246,86,246,86,11877,0
