NDW:0.0
TTFW:0.6
DFPT:2.0
DFPAP:3.0
DFPMP:0.0
RIGHT_WINDOW_BORDER_X:35.0
level,win/fail,% travelled,run time,game ticks,planning time,total plannings,nodes evaluated,most backtracked nodes
patternWeightCount-1,false,0.03,26199,999,26189,999,3553689,0
patternWeightCount-2,false,0.17,1545,292,1540,292,156610,0
patternWeightCount-3,false,0.12,3412,322,3411,322,309437,0
patternWeightCount-4,true,1.00,3366,948,3360,939,317357,0
patternWeightCount-5,false,0.21,3607,365,3603,365,384040,0
patternWeightCount-6,false,0.44,4285,659,4283,659,423151,0
patternWeightCount-7,false,0.11,835,149,835,149,72737,0
patternWeightCount-8,true,1.00,1796,917,1791,913,174110,0
patternWeightCount-9,false,0.38,2902,539,2900,539,278360,0
patternWeightCount-10,false,0.56,3570,788,3563,788,329412,0
patternWeightCount-11,true,1.00,2155,935,2154,930,236394,0
patternWeightCount-12,false,0.33,1201,365,1198,365,112534,0
patternWeightCount-13,false,0.38,3664,653,3664,653,343138,0
patternWeightCount-14,false,0.32,3241,462,3235,462,303097,0
patternWeightCount-15,false,0.56,6987,861,6986,861,653403,0
patternWeightCount-16,false,0.37,2931,587,2929,587,299304,0
patternWeightCount-17,false,0.89,2994,999,2988,999,304225,0
patternWeightCount-18,false,0.01,2,21,2,21,422,0
patternWeightCount-19,true,1.00,2506,985,2497,981,239297,0
patternWeightCount-20,false,0.29,1160,394,1156,394,130587,0
patternWeightCount-21,true,1.00,1568,904,1559,900,167407,0
patternWeightCount-22,false,0.31,2179,471,2175,471,232909,0
patternWeightCount-23,false,0.06,1916,160,1915,160,180993,0
patternWeightCount-24,false,0.13,3031,273,3031,273,300592,0
patternWeightCount-25,false,0.06,278,71,277,71,29574,0
patternWeightCount-26,false,0.20,1311,230,1309,230,125893,0
patternWeightCount-27,false,0.54,5576,880,5568,880,556368,0
patternWeightCount-28,false,0.09,912,180,912,180,98587,0
patternWeightCount-29,false,0.29,2807,415,2805,415,268249,0
patternWeightCount-30,false,0.54,2825,771,2821,771,270748,0
patternWeightCount-31,false,0.18,24739,999,24737,999,2517610,0
patternWeightCount-32,true,1.00,2965,973,2958,964,287260,0
patternWeightCount-33,false,0.79,3412,999,3403,999,359653,0
patternWeightCount-34,false,0.03,246,92,246,92,47176,0
patternWeightCount-35,false,0.64,4646,838,4642,838,441645,0
patternWeightCount-36,false,0.70,3987,999,3983,999,385398,0
patternWeightCount-37,false,0.64,3351,797,3345,797,318237,0
patternWeightCount-38,false,0.78,5374,999,5366,999,494361,0
patternWeightCount-39,false,0.03,602,98,602,98,99142,0
patternWeightCount-40,false,0.56,2795,800,2792,800,280681,0
patternWeightCount-41,false,0.11,1809,226,1807,226,163724,0
patternWeightCount-42,false,0.59,6105,996,6096,996,539219,0
patternWeightCount-43,false,0.27,2604,1008,2594,1008,243282,0
patternWeightCount-44,false,0.13,514,190,509,190,60906,0
patternWeightCount-45,false,0.18,1635,258,1631,258,143638,0
patternWeightCount-46,false,0.75,6146,999,6140,999,590005,0
patternWeightCount-47,false,0.17,409,141,408,141,37763,0
patternWeightCount-48,true,1.00,2790,968,2785,964,270728,0
patternWeightCount-49,false,0.91,4852,999,4842,999,446814,0
patternWeightCount-50,false,0.48,4483,756,4480,756,401621,0
patternWeightCount-51,false,0.17,1862,233,1862,233,178379,0
patternWeightCount-52,false,0.63,4212,808,4208,808,397330,0
patternWeightCount-53,false,0.29,1098,407,1097,407,110304,0
patternWeightCount-54,false,0.02,111,51,111,51,20327,0
patternWeightCount-55,false,0.87,5018,999,5013,999,480754,0
patternWeightCount-56,false,0.12,1013,181,1013,181,117141,0
patternWeightCount-57,true,1.00,2295,961,2288,957,235875,0
patternWeightCount-58,false,0.80,4387,999,4380,999,403672,0
patternWeightCount-59,false,1.00,2230,999,2229,999,253050,0
patternWeightCount-60,false,0.01,247,64,247,64,45100,0
patternWeightCount-61,false,0.00,1560,999,1545,999,386089,0
patternWeightCount-62,false,0.86,3717,999,3708,999,376681,0
patternWeightCount-63,false,0.03,593,128,593,128,86343,0
patternWeightCount-64,false,0.57,8023,999,8019,999,748123,0
patternWeightCount-65,false,0.65,3961,716,3955,716,358680,0
patternWeightCount-66,false,0.03,258,56,258,56,32735,0
patternWeightCount-67,false,0.40,1871,429,1868,429,174779,0
patternWeightCount-68,false,0.54,3840,665,3835,665,359875,0
patternWeightCount-69,false,0.82,4033,999,4028,999,386116,0
patternWeightCount-70,false,0.68,5044,999,5042,999,501186,0
patternWeightCount-71,false,0.23,874,265,873,265,89439,0
patternWeightCount-72,false,0.75,4807,989,4796,989,481841,0
patternWeightCount-73,false,0.07,1682,173,1679,173,165705,0
patternWeightCount-74,false,0.30,2596,444,2594,444,274840,0
patternWeightCount-75,false,0.77,4946,999,4938,999,483465,0
patternWeightCount-76,false,0.81,5542,999,5539,999,535410,0
patternWeightCount-77,false,0.13,752,219,749,219,77642,0
patternWeightCount-78,false,0.06,428,144,426,144,65269,0
patternWeightCount-79,false,0.35,2629,438,2625,438,244531,0
patternWeightCount-80,false,0.05,841,115,840,115,84229,0
patternWeightCount-81,false,0.63,4603,942,4597,942,444608,0
patternWeightCount-82,true,1.00,829,843,826,839,89921,0
patternWeightCount-83,false,0.18,2462,999,2454,999,283025,0
patternWeightCount-84,false,0.39,19119,999,19112,999,1544177,0
patternWeightCount-85,false,0.24,1889,316,1888,316,178189,0
patternWeightCount-86,false,0.01,42,34,42,34,8326,0
patternWeightCount-87,false,0.67,8202,999,8198,999,724592,0
patternWeightCount-88,false,0.07,2239,194,2238,194,217336,0
patternWeightCount-89,true,1.00,3782,954,3775,950,366718,0
patternWeightCount-90,false,0.09,709,999,706,999,82100,0
patternWeightCount-91,false,0.61,4761,899,4758,899,449799,0
patternWeightCount-92,false,0.62,6333,961,6329,961,595056,0
patternWeightCount-93,false,0.24,2886,426,2883,426,303242,0
patternWeightCount-94,false,0.69,8078,999,8077,999,761827,0
patternWeightCount-95,false,0.42,7268,864,7265,864,708207,0
patternWeightCount-96,false,0.65,4518,999,4515,999,456857,0
patternWeightCount-97,false,0.24,3949,460,3947,460,379134,0
patternWeightCount-98,false,0.63,6451,825,6449,825,591590,0
patternWeightCount-99,false,0.13,3306,345,3306,345,308608,0
patternWeightCount-100,false,0.15,847,215,845,215,93888,0
