NDW:0.0
TTFW:0.4
DFPT:2.0
DFPAP:3.0
DFPMP:5.0
RIGHT_WINDOW_BORDER_X:35.0
level,win/fail,% travelled,run time,game ticks,planning time,total plannings,nodes evaluated,most backtracked nodes
notchParam-1,false,0.36,1848,280,1847,280,150351,0
notchParam-2,false,0.36,1110,279,1109,279,106081,0
notchParam-3,false,0.19,390,140,390,140,34259,0
notchParam-4,false,0.44,4036,466,4035,466,323158,0
notchParam-5,false,0.19,416,135,414,135,35593,0
notchParam-6,false,0.31,2999,318,2997,318,225877,0
notchParam-7,false,0.37,2053,285,2048,285,190769,0
notchParam-8,false,0.18,1418,228,1416,228,125603,0
notchParam-9,false,0.31,1613,283,1612,283,137152,0
notchParam-10,false,0.18,862,199,861,199,70208,0
notchParam-11,false,0.19,413,131,413,131,34439,0
notchParam-12,false,0.16,1592,203,1591,203,135265,0
notchParam-13,false,0.36,896,281,896,281,77377,0
notchParam-14,false,0.67,1136,447,1134,447,98315,0
notchParam-15,false,0.37,2554,332,2554,332,210315,0
notchParam-16,false,0.36,899,274,897,274,84056,0
notchParam-17,false,0.37,399,227,397,227,36140,0
notchParam-18,false,0.66,16492,999,16491,999,1529887,0
notchParam-19,false,0.36,1514,246,1514,246,131480,0
notchParam-20,false,0.68,1413,465,1410,465,119816,0
notchParam-21,true,1.00,2823,714,2818,710,220464,0
notchParam-22,true,1.00,3170,691,3164,686,295195,0
notchParam-23,false,0.18,27217,999,27217,999,2532853,0
notchParam-24,false,0.18,3354,219,3354,219,305595,0
notchParam-25,false,0.19,1049,159,1049,159,85434,0
notchParam-26,false,0.18,1431,224,1431,224,131986,0
notchParam-27,false,0.68,3462,521,3461,521,314007,0
notchParam-28,false,0.32,414,224,409,224,37954,0
notchParam-29,false,0.31,3073,296,3070,296,247296,0
notchParam-30,false,0.37,400,229,398,229,36345,0
notchParam-31,false,0.36,367,237,365,237,33577,0
notchParam-32,false,0.36,2394,322,2394,322,202770,0
notchParam-33,false,0.35,397,214,395,214,34812,0
notchParam-34,false,0.36,1026,253,1025,253,85256,0
notchParam-35,false,0.36,1821,282,1819,282,157091,0
notchParam-36,false,0.36,2394,324,2394,324,202753,0
notchParam-37,false,0.36,391,218,390,218,34822,0
notchParam-38,false,0.35,24816,999,24815,999,2310531,0
notchParam-39,false,0.36,865,253,864,253,80807,0
notchParam-40,false,0.31,1235,224,1234,224,97827,0
notchParam-41,false,0.57,4102,573,4099,573,361367,0
notchParam-42,false,0.36,865,253,863,253,80680,0
notchParam-43,false,0.18,1231,212,1229,212,98402,0
notchParam-44,false,0.19,1199,188,1198,188,102425,0
notchParam-45,false,0.18,28395,999,28394,999,2334382,0
notchParam-46,false,0.19,2467,208,2466,208,199694,0
notchParam-47,false,0.68,2225,551,2222,551,204114,0
notchParam-48,true,1.00,4124,710,4117,706,391336,0
notchParam-49,true,1.00,2144,695,2140,691,192526,0
notchParam-50,false,0.67,2503,545,2502,545,195474,0
notchParam-51,false,0.67,2046,447,2045,447,171719,0
notchParam-52,false,0.36,866,255,866,255,81182,0
notchParam-53,false,0.36,1526,364,1525,364,133022,0
notchParam-54,false,0.36,1827,285,1825,285,156754,0
notchParam-55,false,0.36,1018,310,1016,310,98255,0
notchParam-56,false,0.67,1830,529,1825,529,163380,0
notchParam-57,false,0.32,1075,270,1074,270,88950,0
notchParam-58,false,0.18,3096,226,3094,226,288278,0
notchParam-59,false,0.19,1666,241,1665,241,154834,0
notchParam-60,false,0.84,8638,931,8633,931,736846,0
notchParam-61,false,0.16,593,146,593,146,54125,0
notchParam-62,false,0.36,2575,275,2574,275,192755,0
notchParam-63,false,0.19,1972,211,1972,211,161297,0
notchParam-64,false,0.31,759,233,757,233,67952,0
notchParam-65,false,0.19,1225,198,1225,198,104208,0
notchParam-66,false,0.19,415,133,415,133,34489,0
notchParam-67,false,0.36,2517,310,2516,310,236982,0
notchParam-68,false,0.36,361,221,360,221,31523,0
notchParam-69,false,0.35,24529,999,24529,999,1830455,0
notchParam-70,false,0.36,1157,265,1157,265,100044,0
notchParam-71,false,0.31,1329,296,1325,296,112847,0
notchParam-72,false,0.19,2468,210,2467,210,200500,0
notchParam-73,false,0.19,415,135,415,135,35683,0
notchParam-74,false,0.32,2649,304,2648,304,221358,0
notchParam-75,false,0.16,732,131,732,131,64261,0
notchParam-76,false,0.08,6,44,5,44,1109,0
notchParam-77,false,0.70,7712,770,7708,770,666724,0
notchParam-78,false,0.18,1253,200,1252,200,101409,0
notchParam-79,false,0.19,2468,208,2467,208,199962,0
notchParam-80,false,0.67,2011,499,2008,499,188798,0
notchParam-81,false,0.44,3071,410,3068,410,256848,0
notchParam-82,false,0.67,1646,480,1644,480,151112,0
notchParam-83,false,0.36,996,268,993,268,93500,0
notchParam-84,false,0.36,939,303,937,303,82615,0
notchParam-85,false,0.36,1010,295,1009,295,97109,0
notchParam-86,false,0.18,349,139,348,139,31041,0
notchParam-87,false,0.36,959,252,958,252,80837,0
notchParam-88,false,0.66,19172,999,19170,999,1771868,0
notchParam-89,false,0.67,1282,490,1280,490,114215,0
notchParam-90,false,0.37,898,270,896,270,81062,0
notchParam-91,false,0.18,2072,185,2071,185,154105,0
notchParam-92,false,0.18,1560,230,1559,230,129591,0
notchParam-93,false,0.19,383,136,383,136,32257,0
notchParam-94,false,0.19,370,137,368,137,32517,0
notchParam-95,false,0.18,3726,256,3726,256,345923,0
notchParam-96,false,0.18,995,191,994,191,92439,0
notchParam-97,false,0.18,1283,174,1283,174,106517,0
notchParam-98,false,0.67,2946,526,2946,526,243654,0
notchParam-99,false,0.36,1157,265,1153,265,100424,0
notchParam-100,false,0.37,1366,296,1363,296,115345,0
