NDW:0.0
TTFW:1.0
DFPT:2.0
DFPAP:3.0
DFPMP:3.0
RIGHT_WINDOW_BORDER_X:115.0
level,win/fail,% travelled,run time,game ticks,planning time,total plannings,nodes evaluated,most backtracked nodes
notch-1,true,1.00,1169,300,1162,290,64263,0
notch-2,true,1.00,1277,308,1269,298,74274,0
notch-3,true,1.00,1009,289,999,279,55971,0
notch-4,true,1.00,1077,281,1067,265,60288,0
notch-5,true,1.00,1011,280,1003,270,56701,0
notch-6,true,1.00,902,279,896,269,51294,0
notch-7,true,1.00,475,285,472,275,26660,0
notch-8,true,1.00,700,290,696,280,39604,0
notch-9,true,1.00,1186,292,1182,282,64416,0
notch-10,true,1.00,1110,301,1100,291,62633,0
notch-11,true,1.00,1101,296,1090,286,60328,0
notch-12,true,1.00,710,274,704,262,38091,0
notch-13,true,1.00,728,260,722,249,41206,0
notch-14,true,1.00,867,282,861,268,48943,0
notch-15,true,1.00,1271,282,1266,272,73688,0
notch-16,true,1.00,1092,326,1085,313,62945,0
notch-17,true,1.00,1219,305,1213,295,69845,0
notch-18,true,1.00,1621,340,1611,330,94991,0
notch-19,true,1.00,1293,284,1285,274,76052,0
notch-20,true,1.00,917,304,908,294,53534,0
notch-21,true,1.00,1409,342,1400,332,85559,0
notch-22,true,1.00,727,267,719,257,41080,0
notch-23,true,1.00,1114,289,1108,277,63808,0
notch-24,true,1.00,621,255,618,245,34481,0
notch-25,true,1.00,975,281,965,271,55425,0
notch-26,true,1.00,882,275,875,265,49050,0
notch-27,true,1.00,1871,318,1864,308,108378,0
notch-28,true,1.00,1002,285,999,274,58095,0
notch-29,true,1.00,1050,284,1045,274,59182,0
notch-30,true,1.00,1060,261,1054,251,57378,0
notch-31,true,1.00,828,285,821,275,45586,0
notch-32,true,1.00,1157,288,1149,276,66168,0
notch-33,true,1.00,1085,281,1077,271,61121,0
notch-34,true,1.00,686,257,681,247,40241,0
notch-35,true,1.00,1192,309,1185,299,68675,0
notch-36,true,1.00,1429,311,1424,301,82209,0
notch-37,true,1.00,1628,329,1623,317,94666,0
notch-38,true,1.00,1145,299,1139,289,65226,0
notch-39,true,1.00,667,244,663,233,37456,0
notch-40,true,1.00,1565,322,1561,311,90016,0
notch-41,false,0.42,406,120,403,120,22978,0
notch-42,true,1.00,922,266,917,255,52285,0
notch-43,true,1.00,825,278,818,268,45947,0
notch-44,true,1.00,767,256,762,246,42522,0
notch-45,true,1.00,802,262,796,252,44708,0
notch-46,true,1.00,1250,295,1244,285,70391,0
notch-47,true,1.00,1055,277,1047,267,60324,0
notch-48,true,1.00,2126,307,2119,297,120415,0
notch-49,true,1.00,734,269,728,257,41727,0
notch-50,true,1.00,765,311,759,297,43379,0
notch-51,true,1.00,785,289,778,276,44182,0
notch-52,true,1.00,835,289,825,279,47093,0
notch-53,true,1.00,462,306,452,295,24595,0
notch-54,true,1.00,1720,322,1714,311,97245,0
notch-55,true,1.00,1813,347,1805,337,102908,0
notch-56,true,1.00,701,271,696,261,38658,0
notch-57,true,1.00,934,293,930,283,52471,0
notch-58,false,0.81,701,245,696,245,40200,0
notch-59,true,1.00,933,316,924,303,51265,0
notch-60,true,1.00,1170,289,1162,279,65510,0
notch-61,true,1.00,1363,271,1351,261,77128,0
notch-62,true,1.00,789,304,781,294,44474,0
notch-63,true,1.00,1368,320,1362,309,80781,0
notch-64,true,1.00,1176,302,1167,292,66311,0
notch-65,true,1.00,1671,348,1666,334,97138,0
notch-66,true,1.00,1443,315,1439,305,82394,0
notch-67,true,1.00,920,265,914,255,49173,0
notch-68,true,1.00,913,287,909,277,53412,0
notch-69,true,1.00,1136,285,1130,275,63351,0
notch-70,true,1.00,1580,335,1573,325,91129,0
notch-71,true,1.00,2131,308,2126,298,117891,0
notch-72,true,1.00,1057,287,1050,277,60897,0
notch-73,true,1.00,983,292,975,280,55047,0
notch-74,true,1.00,846,280,837,268,49075,0
notch-75,true,1.00,1660,309,1655,299,93010,0
notch-76,true,1.00,1107,318,1101,307,63131,0
notch-77,true,1.00,1402,276,1397,266,80933,0
notch-78,true,1.00,997,290,990,279,56185,0
notch-79,true,1.00,959,300,953,288,53686,0
notch-80,true,1.00,497,262,494,252,27588,0
notch-81,true,1.00,1168,270,1160,258,64760,0
notch-82,true,1.00,927,283,920,273,51329,0
notch-83,true,1.00,1155,336,1148,322,65155,0
notch-84,true,1.00,799,278,789,266,44379,0
notch-85,true,1.00,635,274,630,263,35982,0
notch-86,true,1.00,1260,283,1252,273,68165,0
notch-87,true,1.00,938,270,931,258,52684,0
notch-88,true,1.00,1269,304,1263,294,73056,0
notch-89,true,1.00,1193,311,1186,301,68350,0
notch-90,true,1.00,1088,286,1082,276,62167,0
notch-91,true,1.00,1861,327,1854,316,108130,0
notch-92,true,1.00,1079,280,1072,270,61397,0
notch-93,true,1.00,866,288,860,278,48468,0
notch-94,true,1.00,1424,314,1416,303,81031,0
notch-95,true,1.00,1046,281,1041,271,57440,0
notch-96,true,1.00,939,298,934,288,54491,0
notch-97,true,1.00,1164,285,1156,275,66288,0
notch-98,true,1.00,1645,320,1639,310,95164,0
notch-99,true,1.00,1341,345,1335,332,79254,0
notch-100,true,1.00,1240,300,1232,290,69962,0
