NDW:0.0
TTFW:0.8
DFPT:2.0
DFPAP:3.0
DFPMP:20.0
RIGHT_WINDOW_BORDER_X:350.0
level,win/fail,% travelled,run time,game ticks,planning time,total plannings,nodes evaluated,most backtracked nodes
patternOccur-1,true,1.00,944,449,942,417,87038,0
patternOccur-2,true,1.00,875,392,874,360,80395,0
patternOccur-3,true,1.00,1422,429,1419,397,138693,0
patternOccur-4,true,1.00,1498,417,1496,385,147897,0
patternOccur-5,true,1.00,777,409,770,377,71467,0
patternOccur-6,true,1.00,1318,441,1311,409,127456,0
patternOccur-7,true,1.00,1497,426,1495,387,145824,0
patternOccur-8,true,1.00,1218,416,1215,384,119259,0
patternOccur-9,true,1.00,1292,404,1289,372,127861,0
patternOccur-10,true,1.00,934,424,931,386,88069,0
patternOccur-11,true,1.00,3001,434,2999,390,256465,0
patternOccur-12,true,1.00,1277,436,1277,383,126807,0
patternOccur-13,true,1.00,889,397,885,365,84034,0
patternOccur-14,true,1.00,2962,404,2958,354,277237,0
patternOccur-15,true,1.00,947,354,943,322,93410,0
patternOccur-16,true,1.00,2766,399,2766,343,248117,0
patternOccur-17,true,1.00,1184,418,1178,386,109693,0
patternOccur-18,true,1.00,731,355,729,323,70822,0
patternOccur-19,false,0.83,3230,397,3229,397,273138,0
patternOccur-20,true,1.00,1034,402,1030,370,101997,0
patternOccur-21,true,1.00,950,457,946,410,92293,0
patternOccur-22,true,1.00,3526,427,3524,376,333586,0
patternOccur-23,true,1.00,1304,410,1302,378,119968,0
patternOccur-24,true,1.00,1189,421,1186,388,118101,0
patternOccur-25,true,1.00,1367,408,1365,376,134692,0
patternOccur-26,true,1.00,664,400,663,368,60684,0
patternOccur-27,true,1.00,2888,434,2886,381,256334,0
patternOccur-28,true,1.00,1248,427,1245,392,120021,0
patternOccur-29,true,1.00,859,394,858,355,81342,0
patternOccur-30,true,1.00,919,415,914,383,84387,0
patternOccur-31,true,1.00,4478,466,4476,427,414195,0
patternOccur-32,true,1.00,3949,460,3947,427,351729,0
patternOccur-33,true,1.00,950,425,950,393,89774,0
patternOccur-34,true,1.00,1069,430,1064,387,105868,0
patternOccur-35,true,1.00,827,422,824,386,78048,0
patternOccur-36,true,1.00,1822,381,1820,349,178855,0
patternOccur-37,true,1.00,2921,460,2919,414,261482,0
patternOccur-38,true,1.00,965,393,962,361,93902,0
patternOccur-39,true,1.00,2566,438,2561,404,228425,0
patternOccur-40,true,1.00,1466,397,1464,365,148372,0
patternOccur-41,true,1.00,926,395,926,353,91383,0
patternOccur-42,false,0.89,3071,398,3070,398,267777,0
patternOccur-43,true,1.00,869,403,868,371,87443,0
patternOccur-44,true,1.00,1012,403,1011,369,101097,0
patternOccur-45,true,1.00,1422,390,1420,355,125263,0
patternOccur-46,true,1.00,882,432,880,399,80576,0
patternOccur-47,true,1.00,2934,468,2931,401,270588,0
patternOccur-48,true,1.00,948,418,946,386,90405,0
patternOccur-49,true,1.00,934,385,932,353,89248,0
patternOccur-50,true,1.00,1382,411,1381,370,129791,0
patternOccur-51,true,1.00,1289,444,1288,398,127378,0
patternOccur-52,true,1.00,1121,398,1118,367,113419,0
patternOccur-53,true,1.00,1425,413,1423,381,137494,0
patternOccur-54,true,1.00,1569,439,1566,405,154564,0
patternOccur-55,true,1.00,1301,401,1300,369,127976,0
patternOccur-56,true,1.00,1264,446,1260,414,124178,0
patternOccur-57,true,1.00,1557,433,1556,395,155295,0
patternOccur-58,true,1.00,4500,503,4493,465,408312,0
patternOccur-59,true,1.00,1110,427,1106,392,106335,0
patternOccur-60,true,1.00,1968,474,1962,426,175106,0
patternOccur-61,true,1.00,1260,411,1257,369,129248,0
patternOccur-62,true,1.00,1229,414,1227,382,118466,0
patternOccur-63,true,1.00,1127,379,1126,347,113042,0
patternOccur-64,true,1.00,1362,423,1360,374,131926,0
patternOccur-65,true,1.00,1030,445,1029,413,98205,0
patternOccur-66,true,1.00,1132,423,1131,381,107553,0
patternOccur-67,true,1.00,1913,417,1909,384,179159,0
patternOccur-68,true,1.00,890,445,888,413,80552,0
patternOccur-69,true,1.00,3533,469,3532,431,301896,0
patternOccur-70,true,1.00,4531,471,4531,438,373621,0
patternOccur-71,true,1.00,1816,411,1814,379,184741,0
patternOccur-72,true,1.00,3197,436,3193,393,278684,0
patternOccur-73,true,1.00,3131,462,3125,407,277704,0
patternOccur-74,true,1.00,2653,417,2649,372,237208,0
patternOccur-75,true,1.00,1515,423,1513,385,142272,0
patternOccur-76,true,1.00,1135,369,1131,338,112739,0
patternOccur-77,true,1.00,721,399,720,367,66886,0
patternOccur-78,true,1.00,614,389,612,357,54391,0
patternOccur-79,true,1.00,1153,410,1142,378,111947,0
patternOccur-80,true,1.00,2621,442,2617,399,256185,0
patternOccur-81,true,1.00,3216,457,3214,393,301642,0
patternOccur-82,true,1.00,1707,447,1704,409,156300,0
patternOccur-83,true,1.00,842,420,837,388,81079,0
patternOccur-84,true,1.00,1095,385,1093,353,106106,0
patternOccur-85,true,1.00,1678,393,1674,361,164000,0
patternOccur-86,true,1.00,2890,427,2887,384,265553,0
patternOccur-87,true,1.00,928,427,924,388,90581,0
patternOccur-88,true,1.00,1152,416,1149,381,115260,0
patternOccur-89,true,1.00,1359,450,1355,418,130394,0
patternOccur-90,true,1.00,1265,413,1265,379,124530,0
patternOccur-91,true,1.00,966,403,963,363,93707,0
patternOccur-92,true,1.00,740,411,738,379,67144,0
patternOccur-93,true,1.00,1186,424,1182,389,110719,0
patternOccur-94,true,1.00,3420,428,3416,380,284180,0
patternOccur-95,true,1.00,822,441,819,400,76973,0
patternOccur-96,false,0.87,2568,370,2565,370,218351,0
patternOccur-97,true,1.00,1477,398,1477,366,147700,0
patternOccur-98,false,0.90,2518,365,2516,365,218859,0
patternOccur-99,true,1.00,632,381,629,342,63091,0
patternOccur-100,true,1.00,1154,444,1151,412,104726,0
