NDW:0.0
TTFW:0.8
DFPT:2.0
DFPAP:3.0
DFPMP:1.0
RIGHT_WINDOW_BORDER_X:295.0
level,win/fail,% travelled,run time,game ticks,planning time,total plannings,nodes evaluated,most backtracked nodes
notch-1,true,1.00,778,256,776,229,78675,0
notch-2,true,1.00,1035,273,1034,246,106979,0
notch-3,true,1.00,938,263,937,236,90951,0
notch-4,true,1.00,718,249,718,222,71261,0
notch-5,true,1.00,622,242,619,216,61597,0
notch-6,true,1.00,657,281,650,243,65868,0
notch-7,true,1.00,741,298,739,262,74338,0
notch-8,true,1.00,954,277,951,237,97137,0
notch-9,true,1.00,845,254,845,227,82766,0
notch-10,true,1.00,762,273,761,246,75303,0
notch-11,true,1.00,764,250,762,223,76034,0
notch-12,true,1.00,541,245,540,218,54842,0
notch-13,true,1.00,650,249,647,223,65069,0
notch-14,true,1.00,717,253,715,219,70425,0
notch-15,true,1.00,558,249,557,222,56795,0
notch-16,true,1.00,856,262,853,224,85168,0
notch-17,true,1.00,742,271,740,241,74435,0
notch-18,true,1.00,1072,314,1068,264,97807,0
notch-19,true,1.00,765,243,765,216,79790,0
notch-20,true,1.00,704,274,703,247,70069,0
notch-21,true,1.00,621,268,618,242,64678,0
notch-22,true,1.00,499,243,497,216,47676,0
notch-23,true,1.00,951,250,945,218,93816,0
notch-24,true,1.00,762,255,760,229,77250,0
notch-25,true,1.00,778,265,778,237,77670,0
notch-26,true,1.00,731,252,730,225,69829,0
notch-27,true,1.00,1076,271,1072,242,109631,0
notch-28,true,1.00,708,251,707,212,72027,0
notch-29,true,1.00,854,263,853,231,85139,0
notch-30,true,1.00,718,238,716,208,68434,0
notch-31,true,1.00,675,253,675,224,63839,0
notch-32,true,1.00,845,264,844,231,82794,0
notch-33,true,1.00,662,247,661,220,62687,0
notch-34,true,1.00,600,255,600,229,61393,0
notch-35,true,1.00,514,268,511,241,51483,0
notch-36,true,1.00,991,278,991,251,97690,0
notch-37,true,1.00,1118,265,1114,226,114295,0
notch-38,true,1.00,763,255,760,228,72237,0
notch-39,true,1.00,561,228,560,202,53796,0
notch-40,true,1.00,863,255,861,225,90335,0
notch-41,true,1.00,932,272,931,245,94763,0
notch-42,true,1.00,761,260,760,222,74646,0
notch-43,true,1.00,607,242,603,215,62648,0
notch-44,true,1.00,615,233,615,206,62421,0
notch-45,true,1.00,564,246,561,219,57187,0
notch-46,true,1.00,709,269,703,242,71062,0
notch-47,true,1.00,769,255,767,226,78171,0
notch-48,true,1.00,943,251,939,223,96563,0
notch-49,true,1.00,729,273,728,235,66620,0
notch-50,true,1.00,990,297,986,262,95333,0
notch-51,true,1.00,567,242,564,215,57404,0
notch-52,true,1.00,651,256,649,229,67256,0
notch-53,true,1.00,244,259,244,218,21024,0
notch-54,true,1.00,879,292,877,258,88963,0
notch-55,true,1.00,1078,297,1075,269,106018,0
notch-56,true,1.00,539,268,538,241,54762,0
notch-57,true,1.00,685,277,683,249,68210,0
notch-58,true,1.00,1152,307,1151,275,111664,0
notch-59,true,1.00,806,270,805,244,73235,0
notch-60,true,1.00,807,259,807,233,80415,0
notch-61,true,1.00,752,229,750,202,76541,0
notch-62,true,1.00,747,270,747,244,70770,0
notch-63,true,1.00,774,276,774,249,78932,0
notch-64,true,1.00,846,254,843,226,81966,0
notch-65,true,1.00,1243,284,1241,249,123135,0
notch-66,true,1.00,932,273,931,242,92760,0
notch-67,true,1.00,821,249,818,223,80099,0
notch-68,true,1.00,484,246,482,220,48958,0
notch-69,true,1.00,2307,305,2304,278,234878,0
notch-70,true,1.00,874,305,872,263,90996,0
notch-71,true,1.00,790,242,787,216,77231,0
notch-72,true,1.00,674,249,670,222,68509,0
notch-73,true,1.00,802,267,799,239,80385,0
notch-74,true,1.00,475,251,473,224,48188,0
notch-75,true,1.00,1104,283,1102,256,110387,0
notch-76,true,1.00,937,257,935,219,91185,0
notch-77,true,1.00,660,255,659,228,65595,0
notch-78,true,1.00,894,241,894,214,88754,0
notch-79,true,1.00,798,266,796,237,79664,0
notch-80,true,1.00,431,235,431,204,42145,0
notch-81,true,1.00,929,247,928,220,92834,0
notch-82,true,1.00,807,248,805,221,76925,0
notch-83,true,1.00,895,262,893,230,88752,0
notch-84,true,1.00,481,244,481,217,46882,0
notch-85,true,1.00,617,264,616,230,62490,0
notch-86,true,1.00,722,247,722,220,70511,0
notch-87,true,1.00,858,243,856,216,87982,0
notch-88,true,1.00,1088,266,1086,238,111691,0
notch-89,true,1.00,949,275,947,248,97960,0
notch-90,true,1.00,881,249,879,222,88872,0
notch-91,true,1.00,1078,277,1075,250,106981,0
notch-92,true,1.00,908,255,907,228,92650,0
notch-93,true,1.00,637,262,635,234,61905,0
notch-94,true,1.00,1332,285,1329,246,130692,0
notch-95,true,1.00,601,248,600,219,57919,0
notch-96,true,1.00,622,254,618,227,64946,0
notch-97,true,1.00,816,267,816,239,82495,0
notch-98,true,1.00,808,251,807,217,80134,0
notch-99,true,1.00,905,263,902,235,92375,0
notch-100,true,1.00,688,276,685,250,67448,0
