NDW:0.0
TTFW:0.4
DFPT:2.0
DFPAP:3.0
DFPMP:10.0
RIGHT_WINDOW_BORDER_X:350.0
level,win/fail,% travelled,run time,game ticks,planning time,total plannings,nodes evaluated,most backtracked nodes
patternWeightCount-1,true,1.00,3865,400,3862,367,269816,0
patternWeightCount-2,true,1.00,869,338,867,306,58567,0
patternWeightCount-3,true,1.00,1471,352,1466,320,96660,0
patternWeightCount-4,true,1.00,1023,358,1021,326,67614,0
patternWeightCount-5,true,1.00,3035,420,3032,386,188757,0
patternWeightCount-6,true,1.00,2542,390,2541,358,164304,0
patternWeightCount-7,true,1.00,1463,391,1459,359,91874,0
patternWeightCount-8,true,1.00,1311,391,1307,359,78346,0
patternWeightCount-9,true,1.00,1686,382,1683,350,108810,0
patternWeightCount-10,true,1.00,1608,369,1602,337,102739,0
patternWeightCount-11,true,1.00,1010,349,1007,317,66163,0
patternWeightCount-12,true,1.00,2456,410,2451,377,153630,0
patternWeightCount-13,true,1.00,1142,330,1138,298,79752,0
patternWeightCount-14,true,1.00,1517,379,1517,341,97483,0
patternWeightCount-15,true,1.00,1785,360,1783,328,120178,0
patternWeightCount-16,true,1.00,2638,364,2636,325,186572,0
patternWeightCount-17,true,1.00,1886,399,1884,367,119493,0
patternWeightCount-18,true,1.00,2248,404,2238,372,144267,0
patternWeightCount-19,true,1.00,1454,385,1452,353,88030,0
patternWeightCount-20,false,0.65,2940,273,2937,273,201766,0
patternWeightCount-21,true,1.00,1402,390,1398,358,87450,0
patternWeightCount-22,true,1.00,3541,418,3537,366,235580,0
patternWeightCount-23,true,1.00,1914,405,1911,368,123941,0
patternWeightCount-24,true,1.00,1442,344,1439,307,99367,0
patternWeightCount-25,true,1.00,3279,425,3271,393,207467,0
patternWeightCount-26,true,1.00,3083,425,3078,393,194582,0
patternWeightCount-27,true,1.00,2286,398,2280,357,151667,0
patternWeightCount-28,true,1.00,2108,390,2108,358,135515,0
patternWeightCount-29,true,1.00,1595,358,1593,326,99187,0
patternWeightCount-30,true,1.00,3837,411,3834,365,258653,0
patternWeightCount-31,true,1.00,1786,368,1786,337,116543,0
patternWeightCount-32,true,1.00,1115,337,1112,305,72024,0
patternWeightCount-33,true,1.00,1531,376,1525,344,100316,0
patternWeightCount-34,true,1.00,2341,436,2340,404,150273,0
patternWeightCount-35,true,1.00,1964,382,1962,350,128894,0
patternWeightCount-36,true,1.00,2010,377,2007,345,132322,0
patternWeightCount-37,true,1.00,1698,371,1696,339,105384,0
patternWeightCount-38,true,1.00,1916,370,1911,330,130098,0
patternWeightCount-39,true,1.00,1532,390,1530,358,101423,0
patternWeightCount-40,true,1.00,2331,408,2328,376,149972,0
patternWeightCount-41,true,1.00,1731,360,1728,322,114062,0
patternWeightCount-42,false,0.88,3661,346,3656,346,244165,0
patternWeightCount-43,true,1.00,1679,354,1676,322,109641,0
patternWeightCount-44,true,1.00,2641,415,2638,371,170132,0
patternWeightCount-45,true,1.00,3792,407,3785,352,255150,0
patternWeightCount-46,true,1.00,5099,481,5097,431,332702,0
patternWeightCount-47,true,1.00,1666,383,1664,351,108781,0
patternWeightCount-48,true,1.00,987,336,985,304,63509,0
patternWeightCount-49,true,1.00,1487,389,1485,357,94683,0
patternWeightCount-50,true,1.00,1547,400,1545,368,99468,0
patternWeightCount-51,true,1.00,2181,412,2179,369,137681,0
patternWeightCount-52,true,1.00,1975,350,1973,316,129286,0
patternWeightCount-53,true,1.00,3298,392,3295,347,232128,0
patternWeightCount-54,true,1.00,1194,360,1189,328,78948,0
patternWeightCount-55,true,1.00,1669,357,1668,322,112132,0
patternWeightCount-56,true,1.00,1640,358,1637,326,109120,0
patternWeightCount-57,true,1.00,1242,362,1240,330,83588,0
patternWeightCount-58,true,1.00,1625,352,1622,320,106044,0
patternWeightCount-59,true,1.00,1464,373,1461,341,89794,0
patternWeightCount-60,true,1.00,2273,414,2268,373,145717,0
patternWeightCount-61,true,1.00,1691,355,1689,314,111529,0
patternWeightCount-62,true,1.00,2309,359,2308,326,165092,0
patternWeightCount-63,true,1.00,1792,399,1789,367,120373,0
patternWeightCount-64,true,1.00,1902,349,1900,317,125156,0
patternWeightCount-65,true,1.00,3271,419,3268,384,201443,0
patternWeightCount-66,true,1.00,1759,383,1757,351,111924,0
patternWeightCount-67,true,1.00,1798,390,1796,358,114533,0
patternWeightCount-68,true,1.00,1044,428,1042,396,63902,0
patternWeightCount-69,true,1.00,2551,361,2549,316,163395,0
patternWeightCount-70,true,1.00,1478,366,1476,325,94546,0
patternWeightCount-71,true,1.00,976,320,975,288,64478,0
patternWeightCount-72,true,1.00,5528,425,5527,388,381004,0
patternWeightCount-73,true,1.00,5778,446,5773,401,400175,0
patternWeightCount-74,true,1.00,1843,346,1838,314,117150,0
patternWeightCount-75,true,1.00,2417,393,2416,361,151627,0
patternWeightCount-76,true,1.00,1976,378,1973,346,129155,0
patternWeightCount-77,true,1.00,2315,407,2311,375,150727,0
patternWeightCount-78,true,1.00,3869,480,3866,448,248114,0
patternWeightCount-79,true,1.00,1104,334,1103,302,68990,0
patternWeightCount-80,true,1.00,2457,423,2453,391,157431,0
patternWeightCount-81,true,1.00,3860,419,3857,375,263188,0
patternWeightCount-82,true,1.00,1055,363,1053,320,64587,0
patternWeightCount-83,true,1.00,984,340,982,308,67763,0
patternWeightCount-84,true,1.00,1611,372,1607,340,99478,0
patternWeightCount-85,true,1.00,1548,345,1545,313,107721,0
patternWeightCount-86,false,0.94,4216,398,4214,398,294474,0
patternWeightCount-87,true,1.00,5906,451,5901,401,401351,0
patternWeightCount-88,true,1.00,1865,375,1862,343,123972,0
patternWeightCount-89,true,1.00,1305,355,1302,323,86477,0
patternWeightCount-90,true,1.00,6355,471,6354,433,426010,0
patternWeightCount-91,true,1.00,1432,354,1424,322,94846,0
patternWeightCount-92,true,1.00,4802,457,4800,406,334092,0
patternWeightCount-93,true,1.00,2897,361,2895,316,195948,0
patternWeightCount-94,true,1.00,1632,390,1632,358,108718,0
patternWeightCount-95,true,1.00,1703,361,1699,329,109067,0
patternWeightCount-96,true,1.00,1540,363,1537,331,98527,0
patternWeightCount-97,true,1.00,1337,347,1334,315,85436,0
patternWeightCount-98,true,1.00,6892,493,6889,436,487003,0
patternWeightCount-99,true,1.00,2903,415,2900,381,183557,0
patternWeightCount-100,true,1.00,1927,384,1923,352,121380,0
