NDW:0.0
TTFW:1.8
DFPT:2.0
DFPAP:3.0
DFPMP:2.0
RIGHT_WINDOW_BORDER_X:75.0
level,win/fail,% travelled,run time,game ticks,planning time,total plannings,nodes evaluated,most backtracked nodes
patternOccur-1,true,1.00,1255,501,1254,494,146333,0
patternOccur-2,true,1.00,1589,629,1586,622,195880,0
patternOccur-3,true,1.00,5695,781,5693,774,642926,0
patternOccur-4,true,1.00,3770,743,3769,736,446374,0
patternOccur-5,true,1.00,2022,590,2014,584,233288,0
patternOccur-6,true,1.00,3503,624,3502,618,405684,0
patternOccur-7,true,1.00,2602,662,2595,655,333632,0
patternOccur-8,true,1.00,2231,608,2229,602,260003,0
patternOccur-9,true,1.00,3994,671,3991,664,452045,0
patternOccur-10,true,1.00,1428,633,1426,626,184318,0
patternOccur-11,false,0.86,5456,672,5453,672,636049,0
patternOccur-12,true,1.00,1847,615,1842,608,247235,0
patternOccur-13,true,1.00,3045,625,3043,618,364845,0
patternOccur-14,false,0.82,7875,720,7874,720,836500,0
patternOccur-15,true,1.00,2766,595,2764,589,303155,0
patternOccur-16,false,0.84,9831,832,9829,832,1046844,0
patternOccur-17,true,1.00,2598,610,2595,603,293901,0
patternOccur-18,true,1.00,2467,647,2464,639,280603,0
patternOccur-19,false,0.83,10670,823,10668,823,1375978,0
patternOccur-20,true,1.00,4212,743,4210,737,485769,0
patternOccur-21,true,1.00,3679,678,3672,671,446579,0
patternOccur-22,false,0.84,8862,886,8857,886,977216,0
patternOccur-23,true,1.00,4791,723,4790,716,546461,0
patternOccur-24,true,1.00,2234,634,2224,627,300909,0
patternOccur-25,true,1.00,2634,640,2633,633,300462,0
patternOccur-26,true,1.00,1307,530,1307,523,154640,0
patternOccur-27,false,0.77,2262,508,2259,508,260758,0
patternOccur-28,true,1.00,1979,661,1977,654,229534,0
patternOccur-29,true,1.00,2040,552,2035,539,230963,0
patternOccur-30,true,1.00,2188,626,2185,620,257651,0
patternOccur-31,false,0.76,17511,999,17508,999,1963965,0
patternOccur-32,false,0.88,6265,651,6262,651,802139,0
patternOccur-33,true,1.00,2322,641,2320,634,285142,0
patternOccur-34,true,1.00,3464,704,3456,697,391576,0
patternOccur-35,true,1.00,2039,594,2037,587,244224,0
patternOccur-36,false,0.87,13146,999,13140,999,1389999,0
patternOccur-37,false,0.94,10056,857,10053,857,1095524,0
patternOccur-38,true,1.00,2117,635,2114,629,266247,0
patternOccur-39,false,0.80,6402,691,6396,691,734011,0
patternOccur-40,true,1.00,5525,829,5522,822,655035,0
patternOccur-41,true,1.00,4737,815,4733,797,630115,0
patternOccur-42,false,0.88,4588,704,4585,704,520601,0
patternOccur-43,true,1.00,3622,678,3621,672,458864,0
patternOccur-44,true,1.00,3039,637,3034,631,337667,0
patternOccur-45,false,0.91,5188,646,5182,646,561215,0
patternOccur-46,true,1.00,1444,527,1442,520,166749,0
patternOccur-47,false,0.85,15855,999,15854,999,1687083,0
patternOccur-48,true,1.00,5852,748,5850,742,663393,0
patternOccur-49,true,1.00,2880,655,2879,648,321801,0
patternOccur-50,false,0.83,5289,612,5288,612,524509,0
patternOccur-51,true,1.00,2307,687,2306,680,273668,0
patternOccur-52,true,1.00,2851,626,2847,618,352366,0
patternOccur-53,false,0.15,1706,167,1706,167,198834,0
patternOccur-54,true,1.00,6375,816,6369,808,707220,0
patternOccur-55,true,1.00,4056,683,4054,676,469172,0
patternOccur-56,true,1.00,4661,773,4659,766,535840,0
patternOccur-57,true,1.00,4576,755,4574,748,542454,0
patternOccur-58,false,0.74,9178,715,9178,715,951345,0
patternOccur-59,true,1.00,2928,615,2924,608,334168,0
patternOccur-60,false,0.87,2590,498,2588,498,276459,0
patternOccur-61,true,1.00,5170,680,5165,673,594726,0
patternOccur-62,true,1.00,1669,584,1665,578,209677,0
patternOccur-63,true,1.00,1765,642,1759,635,218375,0
patternOccur-64,true,1.00,6804,911,6799,904,784010,0
patternOccur-65,true,1.00,1704,555,1702,549,207079,0
patternOccur-66,true,1.00,2934,662,2932,655,341772,0
patternOccur-67,true,1.00,1481,604,1477,598,182560,0
patternOccur-68,true,1.00,1435,621,1432,614,167984,0
patternOccur-69,false,0.85,5285,653,5285,653,594322,0
patternOccur-70,false,0.86,5278,636,5276,636,664839,0
patternOccur-71,false,0.75,4736,647,4731,647,563916,0
patternOccur-72,false,0.87,6161,709,6160,709,675197,0
patternOccur-73,false,0.87,6522,730,6515,730,710617,0
patternOccur-74,false,0.86,5617,722,5614,722,655462,0
patternOccur-75,false,0.96,4698,695,4694,695,495861,0
patternOccur-76,true,1.00,3349,708,3345,702,385921,0
patternOccur-77,true,1.00,845,504,842,498,102988,0
patternOccur-78,true,1.00,1580,526,1578,518,188549,0
patternOccur-79,true,1.00,3841,661,3836,655,460734,0
patternOccur-80,false,0.89,7864,799,7858,799,1051434,0
patternOccur-81,false,0.85,5515,738,5510,738,609894,0
patternOccur-82,false,0.95,6053,770,6051,770,622614,0
patternOccur-83,true,1.00,3099,700,3094,694,395975,0
patternOccur-84,true,1.00,4736,683,4730,676,548661,0
patternOccur-85,false,0.93,3147,620,3145,620,351160,0
patternOccur-86,false,0.91,7103,784,7100,784,835875,0
patternOccur-87,true,1.00,1699,570,1696,564,211677,0
patternOccur-88,true,1.00,3439,723,3437,716,429845,0
patternOccur-89,true,1.00,3568,720,3563,713,438264,0
patternOccur-90,true,1.00,5899,772,5896,765,717095,0
patternOccur-91,true,1.00,2655,631,2651,624,306476,0
patternOccur-92,true,1.00,1931,569,1929,563,224794,0
patternOccur-93,true,1.00,2187,619,2187,612,256473,0
patternOccur-94,false,0.79,16248,999,16242,999,1871839,0
patternOccur-95,true,1.00,2905,692,2902,684,343200,0
patternOccur-96,false,0.86,5303,690,5301,690,527268,0
patternOccur-97,true,1.00,4177,695,4173,688,536434,0
patternOccur-98,false,0.90,8161,783,8159,783,926487,0
patternOccur-99,true,1.00,1222,574,1220,568,147838,0
patternOccur-100,false,0.14,1100,134,1098,134,114294,0
