NDW:0.0
TTFW:2.0
DFPT:2.0
DFPAP:3.0
DFPMP:0.0
RIGHT_WINDOW_BORDER_X:350.0
level,win/fail,% travelled,run time,game ticks,planning time,total plannings,nodes evaluated,most backtracked nodes
Krys-1,true,1.00,7764,539,7754,454,328752,0
Krys-2,true,1.00,2746,422,2715,343,103063,0
Krys-3,true,1.00,8533,547,8519,459,387097,0
Krys-4,true,1.00,4284,460,4252,387,182929,0
Krys-5,true,1.00,2004,391,1959,330,103979,0
Krys-6,true,1.00,2202,350,2192,301,113782,0
Krys-7,true,1.00,632,430,625,367,27339,0
Krys-8,true,1.00,3831,527,3800,432,184242,0
Krys-9,true,1.00,2627,349,2620,292,160377,0
Krys-10,true,1.00,4487,455,4474,377,202503,0
Krys-11,true,1.00,486,452,470,378,18100,0
Krys-12,true,1.00,5748,460,5741,390,239927,0
Krys-13,true,1.00,4447,454,4437,384,247899,0
Krys-14,true,1.00,3309,404,3297,355,120942,0
Krys-15,true,1.00,4359,401,4351,351,213165,0
Krys-16,true,1.00,3083,455,3060,375,114770,0
Krys-17,true,1.00,2636,491,2615,403,118467,0
Krys-18,true,1.00,4245,476,4230,405,186931,0
Krys-19,true,1.00,3797,410,3776,346,184010,0
Krys-20,true,1.00,6745,547,6722,466,295282,0
Krys-21,true,1.00,1880,354,1869,304,96937,0
Krys-22,true,1.00,2572,354,2569,305,153909,0
Krys-23,true,1.00,2600,505,2588,420,112074,0
Krys-24,true,1.00,4779,395,4766,351,228387,0
Krys-25,true,1.00,3166,425,3141,344,138397,0
Krys-26,true,1.00,2932,351,2925,291,160600,0
Krys-27,true,1.00,2860,406,2850,342,124212,0
Krys-28,true,1.00,8602,591,8595,533,392562,0
Krys-29,true,1.00,2192,473,2131,394,91119,0
Krys-30,true,1.00,5023,588,4997,504,188543,0
Krys-31,true,1.00,2846,455,2840,384,129943,0
Krys-32,true,1.00,975,449,963,376,38101,0
Krys-33,true,1.00,510,397,497,315,22198,0
Krys-34,true,1.00,3013,464,3000,371,141446,0
Krys-35,true,1.00,2977,426,2967,361,149953,0
Krys-36,true,1.00,4754,392,4748,317,221988,0
Krys-37,true,1.00,5436,505,5411,458,277867,0
Krys-38,true,1.00,5761,447,5754,377,304365,0
Krys-39,true,1.00,3591,391,3580,309,180911,0
Krys-40,true,1.00,4851,426,4841,364,242795,0
Krys-41,true,1.00,5562,421,5556,369,277372,0
Krys-42,true,1.00,3182,428,3167,346,185757,0
Krys-43,true,1.00,1749,343,1744,304,99098,0
Krys-44,true,1.00,5735,492,5728,438,300880,0
Krys-45,true,1.00,2087,432,2076,375,77547,0
Krys-46,true,1.00,2432,529,2417,465,104261,0
Krys-47,true,1.00,1623,518,1611,453,75771,0
Krys-48,true,1.00,2064,389,2054,324,127088,0
Krys-49,true,1.00,1061,412,1052,360,47266,0
Krys-50,true,1.00,7420,534,7409,479,311098,0
Krys-51,true,1.00,4444,428,4435,350,241205,0
Krys-52,true,1.00,3863,467,3849,390,164224,0
Krys-53,true,1.00,2892,470,2879,415,121040,0
Krys-54,true,1.00,7578,514,7534,466,360543,0
Krys-55,true,1.00,3948,470,3877,418,154920,0
Krys-56,false,0.59,26374,999,26366,999,969125,0
Krys-57,true,1.00,2116,373,2069,324,95059,0
Krys-58,true,1.00,2748,513,2724,449,115394,0
Krys-59,false,0.38,30086,999,30085,999,1110796,0
Krys-60,true,1.00,3776,416,3763,322,196511,0
Krys-61,true,1.00,2776,465,2743,390,109468,0
Krys-62,true,1.00,2178,483,2158,417,80349,0
Krys-63,true,1.00,5639,578,5621,508,239099,0
Krys-64,true,1.00,3869,537,3847,489,172277,0
Krys-65,true,1.00,2678,462,2668,398,104883,0
Krys-66,true,1.00,4220,432,4212,383,161363,0
Krys-67,true,1.00,3142,560,3129,472,138239,0
Krys-68,true,1.00,2485,311,2479,261,134917,0
Krys-69,true,1.00,10020,682,10007,618,388128,0
Krys-70,true,1.00,6899,503,6892,419,309612,0
Krys-71,true,1.00,3323,371,3312,304,195450,0
Krys-72,true,1.00,2040,481,2023,407,84528,0
Krys-73,true,1.00,4793,506,4774,433,206201,0
Krys-74,true,1.00,1612,403,1599,336,79285,0
Krys-75,true,1.00,1153,504,1140,420,41767,0
Krys-76,true,1.00,3420,377,3401,292,155596,0
Krys-77,true,1.00,1846,412,1826,331,61378,0
Krys-78,false,0.91,26116,999,26102,999,987066,0
Krys-79,true,1.00,1750,447,1725,370,57940,0
Krys-80,true,1.00,894,426,874,357,32213,0
Krys-81,true,1.00,1444,423,1432,347,53843,0
Krys-82,true,1.00,1875,381,1862,328,61853,0
Krys-83,true,1.00,4545,455,4529,367,188154,0
Krys-84,true,1.00,396,380,382,322,16483,0
Krys-85,true,1.00,4236,585,4220,501,191692,0
Krys-86,true,1.00,2446,397,2435,329,89422,0
Krys-87,true,1.00,1655,387,1631,326,51666,0
Krys-88,true,1.00,1903,480,1886,421,72741,0
Krys-89,true,1.00,1756,421,1744,373,67375,0
Krys-90,true,1.00,4158,392,4145,313,136054,0
Krys-91,true,1.00,681,411,670,365,27273,0
Krys-92,true,1.00,5589,419,5574,329,195367,0
Krys-93,true,1.00,4563,410,4554,341,195443,0
Krys-94,true,1.00,2234,390,2219,325,100698,0
Krys-95,true,1.00,2907,480,2890,396,100073,0
Krys-96,true,1.00,3179,372,3160,322,137187,0
Krys-97,true,1.00,2179,409,2161,357,82427,0
Krys-98,false,0.83,7029,517,7014,517,225121,0
Krys-99,true,1.00,3655,444,3613,377,94714,0
Krys-100,true,1.00,3025,376,3008,315,111502,0
