NDW:0.0
TTFW:0.6
DFPT:2.0
DFPAP:3.0
DFPMP:10.0
RIGHT_WINDOW_BORDER_X:235.0
level,win/fail,% travelled,run time,game ticks,planning time,total plannings,nodes evaluated,most backtracked nodes
Mario-1,true,1.00,552,334,543,302,27660,0
Mario-2,true,1.00,1267,299,1256,272,56863,0
Mario-3,true,1.00,1703,277,1698,243,94401,0
Mario-4,true,1.00,1838,464,1828,426,78888,0
Mario-5,true,1.00,1855,423,1838,400,81838,0
Mario-6,true,1.00,1554,272,1546,250,80011,0
Mario-7,true,1.00,2037,421,2023,386,61118,0
Mario-8,true,1.00,1890,422,1884,387,81789,0
Mario-9,true,1.00,719,357,711,328,33682,0
Mario-10,true,1.00,1595,260,1589,231,89974,0
Mario-11,true,1.00,1075,379,1064,346,48670,0
Mario-12,true,1.00,2391,577,2383,542,100064,0
Mario-13,true,1.00,1639,324,1629,302,87692,0
Mario-14,true,1.00,344,317,338,283,15771,0
Mario-15,true,1.00,3946,829,3923,795,178358,0
