NDW:0.0
TTFW:1.0
DFPT:2.0
DFPAP:3.0
DFPMP:0.0
RIGHT_WINDOW_BORDER_X:15.0
level,win/fail,% travelled,run time,game ticks,planning time,total plannings,nodes evaluated,most backtracked nodes
notchParamRand-1,false,0.08,3,61,3,61,581,0
notchParamRand-2,false,0.13,2,77,2,77,485,0
notchParamRand-3,false,0.23,4,136,3,136,911,0
notchParamRand-4,false,0.15,6,137,4,137,1417,0
notchParamRand-5,false,0.27,5,156,5,156,882,0
notchParamRand-6,false,0.25,4,139,3,139,787,0
notchParamRand-7,false,0.09,1,55,1,55,383,0
notchParamRand-8,false,0.36,536,250,535,250,40103,0
notchParamRand-9,false,0.29,145,259,144,259,14009,0
notchParamRand-10,false,0.19,37,169,8,169,1816,0
notchParamRand-11,false,0.48,8,261,7,261,1430,0
notchParamRand-12,false,0.32,11,228,10,228,2116,0
notchParamRand-13,false,0.16,3,106,1,106,734,0
notchParamRand-14,false,0.24,684,243,682,243,53901,0
notchParamRand-15,false,0.25,6,150,5,150,1137,0
notchParamRand-16,false,0.12,3,86,2,86,710,0
notchParamRand-17,true,1.00,30,549,17,547,2645,0
notchParamRand-18,false,0.18,135,176,132,176,3956,0
notchParamRand-19,false,0.34,235,291,201,291,11738,0
notchParamRand-20,false,0.14,8,123,5,123,1177,0
notchParamRand-21,false,0.10,4,74,3,74,641,0
notchParamRand-22,false,0.15,4,94,2,94,531,0
notchParamRand-23,false,0.24,658,277,651,277,35864,0
notchParamRand-24,false,0.50,12,313,8,313,2300,0
notchParamRand-25,false,0.12,3,82,3,82,653,0
notchParamRand-26,false,0.21,376,223,375,223,32232,0
notchParamRand-27,false,0.52,211,349,209,349,18426,0
notchParamRand-28,false,0.18,206,182,205,182,19028,0
notchParamRand-29,false,0.13,5,117,5,117,1220,0
notchParamRand-30,false,0.17,4,113,4,113,769,0
notchParamRand-31,false,0.21,307,192,306,192,24825,0
notchParamRand-32,false,0.48,6,274,4,274,1416,0
notchParamRand-33,false,0.18,175,159,174,159,15297,0
notchParamRand-34,false,0.20,3,115,1,115,661,0
notchParamRand-35,false,0.24,243,221,241,221,21260,0
notchParamRand-36,false,0.32,6,188,5,188,1197,0
notchParamRand-37,false,0.28,6,169,3,169,1274,0
notchParamRand-38,false,0.04,1,30,1,30,308,0
notchParamRand-39,false,0.18,542,197,541,197,46316,0
notchParamRand-40,false,0.04,1,30,1,30,308,0
notchParamRand-41,true,1.00,109,566,104,564,2542,0
notchParamRand-42,false,0.18,394,156,394,156,28683,0
notchParamRand-43,false,0.52,505,324,502,324,44300,0
notchParamRand-44,false,0.35,14,225,7,225,1557,0
notchParamRand-45,false,0.11,3,76,3,76,624,0
notchParamRand-46,false,0.36,112,278,111,278,10707,0
notchParamRand-47,false,0.05,2,36,2,36,323,0
notchParamRand-48,false,0.09,1,55,1,55,383,0
notchParamRand-49,false,0.18,269,148,268,148,23538,0
notchParamRand-50,false,0.17,205,167,205,167,18608,0
notchParamRand-51,false,0.10,2,79,1,79,595,0
notchParamRand-52,false,0.29,176,236,175,236,15881,0
notchParamRand-53,false,0.12,80,999,78,999,16147,0
notchParamRand-54,false,0.10,2,80,1,80,596,0
notchParamRand-55,false,0.17,12,127,3,127,984,0
notchParamRand-56,false,0.17,21,104,2,104,588,0
notchParamRand-57,false,0.24,220,196,215,196,12862,0
notchParamRand-58,false,0.17,4,104,2,104,646,0
notchParamRand-59,false,0.29,172,260,168,260,11205,0
notchParamRand-60,false,0.28,205,211,205,211,18732,0
notchParamRand-61,false,0.09,1,58,1,58,402,0
notchParamRand-62,false,0.07,2,45,2,45,349,0
notchParamRand-63,false,0.17,2,104,2,104,595,0
notchParamRand-64,false,0.36,243,256,241,256,20909,0
notchParamRand-65,false,0.18,608,241,608,241,50454,0
notchParamRand-66,false,0.09,2,78,1,78,600,0
notchParamRand-67,false,0.35,6,221,4,221,1354,0
notchParamRand-68,false,0.18,205,172,204,172,18628,0
notchParamRand-69,false,0.10,2,78,2,78,586,0
notchParamRand-70,false,0.21,343,209,341,209,29928,0
notchParamRand-71,false,0.24,305,201,305,201,25276,0
notchParamRand-72,false,0.52,211,331,208,331,19680,0
notchParamRand-73,false,0.16,5,115,4,115,1038,0
notchParamRand-74,true,1.00,15,577,12,575,2998,0
notchParamRand-75,false,0.14,4,82,3,82,741,0
notchParamRand-76,false,0.18,611,247,611,247,49210,0
notchParamRand-77,false,0.17,6,120,5,120,1321,0
notchParamRand-78,false,0.24,168,211,141,211,11699,0
notchParamRand-79,false,0.25,5,167,4,167,1102,0
notchParamRand-80,false,0.10,2,60,2,60,406,0
notchParamRand-81,false,0.16,3,104,2,104,749,0
notchParamRand-82,false,0.09,2,55,1,55,383,0
notchParamRand-83,false,0.15,4,116,4,116,938,0
notchParamRand-84,false,0.14,2,88,2,88,517,0
notchParamRand-85,true,1.00,11,538,8,536,2402,0
notchParamRand-86,false,0.21,518,198,517,198,46747,0
notchParamRand-87,false,0.16,3,106,3,106,748,0
notchParamRand-88,false,0.34,9,211,9,211,1786,0
notchParamRand-89,false,0.15,4,103,4,103,776,0
notchParamRand-90,false,0.06,1,42,1,42,340,0
notchParamRand-91,true,1.00,14,567,10,565,2798,0
notchParamRand-92,false,0.17,369,147,367,147,31005,0
notchParamRand-93,false,0.32,6,201,5,201,1295,0
notchParamRand-94,false,0.15,2,95,2,95,552,0
notchParamRand-95,false,0.19,403,179,401,179,33099,0
notchParamRand-96,false,0.37,248,330,246,330,20956,0
notchParamRand-97,false,0.04,1,30,1,30,308,0
notchParamRand-98,false,0.32,7,201,5,201,1389,0
notchParamRand-99,false,0.28,7,193,6,193,1525,0
notchParamRand-100,false,0.20,3,119,2,119,660,0
