NDW:0.0
TTFW:0.6
DFPT:2.0
DFPAP:3.0
DFPMP:20.0
RIGHT_WINDOW_BORDER_X:135.0
level,win/fail,% travelled,run time,game ticks,planning time,total plannings,nodes evaluated,most backtracked nodes
ore-1,true,1.00,1438,377,1433,365,88851,0
ore-2,false,0.70,2941,342,2937,342,159630,0
ore-3,true,1.00,4510,512,4496,499,274257,0
ore-4,true,1.00,1902,433,1894,421,115457,0
ore-5,true,1.00,3327,480,3320,464,199979,0
ore-6,true,1.00,1804,414,1794,400,108573,0
ore-7,true,1.00,2224,415,2213,403,133586,0
ore-8,false,0.13,2885,146,2884,146,147627,0
ore-9,true,1.00,1586,399,1581,386,95809,0
ore-10,false,0.34,457,177,452,177,28966,0
ore-11,true,1.00,2058,466,2046,451,128058,0
ore-12,false,0.46,4484,297,4481,297,261980,0
ore-13,true,1.00,2357,430,2350,418,142922,0
ore-14,true,1.00,2212,473,2199,454,108591,0
ore-15,true,1.00,2432,445,2417,433,110198,0
ore-16,true,1.00,2341,427,2335,414,147517,0
ore-17,true,1.00,2799,438,2789,418,178025,0
ore-18,true,1.00,1350,438,1339,424,85492,0
ore-19,true,1.00,2298,454,2288,441,141160,0
ore-20,true,1.00,1518,383,1513,371,92393,0
ore-21,true,1.00,3784,499,3781,480,231874,0
ore-22,false,0.94,4717,457,4711,457,263628,0
ore-23,true,1.00,1714,395,1705,383,109325,0
ore-24,true,1.00,1702,443,1689,427,107162,0
ore-25,true,1.00,1965,381,1954,368,121501,0
ore-26,true,1.00,1322,389,1312,377,80265,0
ore-27,true,1.00,2320,463,2312,449,140607,0
ore-28,true,1.00,1941,436,1930,424,112998,0
ore-29,true,1.00,1555,382,1547,369,94538,0
ore-30,true,1.00,1501,396,1491,383,91730,0
ore-31,true,1.00,1460,405,1454,392,89694,0
ore-32,true,1.00,1672,400,1663,387,102964,0
ore-33,true,1.00,1670,439,1664,426,104532,0
ore-34,true,1.00,2250,484,2239,471,135319,0
ore-35,true,1.00,2543,421,2535,409,161521,0
ore-36,true,1.00,2331,421,2328,408,145255,0
ore-37,false,0.34,2691,205,2689,205,141967,0
ore-38,true,1.00,2595,462,2590,445,161190,0
ore-39,true,1.00,2009,433,1998,420,127706,0
ore-40,true,1.00,3127,460,3119,447,188261,0
ore-41,true,1.00,3001,451,2997,439,182539,0
ore-42,true,1.00,1790,445,1783,432,109897,0
ore-43,true,1.00,2313,458,2304,445,140370,0
ore-44,true,1.00,2644,470,2632,457,171026,0
ore-45,false,0.74,23591,999,23581,999,969011,0
ore-46,false,0.12,2536,119,2535,119,137958,0
ore-47,true,1.00,2466,453,2459,441,155674,0
ore-48,true,1.00,4211,527,4202,510,251313,0
ore-49,true,1.00,1924,425,1915,412,116286,0
ore-50,true,1.00,2338,464,2329,451,138184,0
ore-51,true,1.00,3136,453,3130,439,197067,0
ore-52,true,1.00,2296,447,2284,435,142306,0
ore-53,true,1.00,1763,406,1754,393,106925,0
ore-54,false,0.72,2520,361,2515,361,139328,0
ore-55,true,1.00,2357,436,2349,423,151702,0
ore-56,true,1.00,1612,398,1601,385,99126,0
ore-57,true,1.00,3168,497,3156,484,195466,0
ore-58,true,1.00,1825,389,1810,377,113507,0
ore-59,true,1.00,5594,574,5587,562,346122,0
ore-60,true,1.00,2044,412,2034,399,126542,0
ore-61,true,1.00,2535,428,2521,415,153607,0
ore-62,true,1.00,3428,484,3417,472,211195,0
ore-63,true,1.00,1699,384,1688,372,103475,0
ore-64,true,1.00,1470,397,1459,384,88787,0
ore-65,true,1.00,2128,423,2119,410,129940,0
ore-66,true,1.00,3315,462,3303,450,183026,0
ore-67,true,1.00,1725,408,1715,395,63084,0
ore-68,true,1.00,1737,418,1730,406,103457,0
ore-69,true,1.00,3750,481,3731,468,158336,0
ore-70,false,0.94,3551,469,3543,469,209778,0
ore-71,true,1.00,2200,441,2192,429,134614,0
ore-72,true,1.00,2326,439,2320,427,146655,0
ore-73,true,1.00,2207,430,2202,415,137098,0
ore-74,true,1.00,2899,459,2892,444,169966,0
ore-75,true,1.00,2570,501,2554,484,153701,0
ore-76,true,1.00,2121,374,2103,359,67626,0
ore-77,true,1.00,2089,404,2077,391,115953,0
ore-78,true,1.00,1758,428,1750,416,109208,0
ore-79,true,1.00,1375,391,1368,379,86361,0
ore-80,true,1.00,1681,406,1672,391,93683,0
ore-81,true,1.00,1944,413,1927,401,62176,0
ore-82,true,1.00,1832,416,1826,398,106609,0
ore-83,true,1.00,2064,418,2058,406,132693,0
ore-84,false,0.13,1803,97,1801,97,84794,0
ore-85,true,1.00,1371,411,1365,398,84170,0
ore-86,true,1.00,3263,439,3253,426,204040,0
ore-87,true,1.00,2697,439,2690,422,166068,0
ore-88,true,1.00,2018,382,2012,370,126773,0
ore-89,true,1.00,3434,495,3427,483,207129,0
ore-90,true,1.00,2307,447,2297,434,142157,0
ore-91,true,1.00,3537,541,3523,527,217684,0
ore-92,true,1.00,1308,389,1301,376,80969,0
ore-93,true,1.00,1540,397,1533,379,97970,0
ore-94,true,1.00,4207,491,4201,478,257724,0
ore-95,true,1.00,2155,460,2147,448,128580,0
ore-96,true,1.00,3633,516,3622,504,227543,0
ore-97,true,1.00,5058,542,5052,529,295462,0
ore-98,true,1.00,2562,426,2555,413,155459,0
ore-99,false,0.57,2897,355,2890,355,144421,0
ore-100,true,1.00,4625,489,4613,477,273121,0
