NDW:0.0
TTFW:1.0
DFPT:2.0
DFPAP:3.0
DFPMP:50.0
RIGHT_WINDOW_BORDER_X:176.0
level,win/fail,% travelled,run time,game ticks,planning time,total plannings,nodes evaluated,most backtracked nodes
patternWeightCount-1,true,1.00,3361,492,3353,470,183481,0
patternWeightCount-2,true,1.00,624,417,612,394,34267,0
patternWeightCount-3,true,1.00,701,396,694,380,37617,0
patternWeightCount-4,true,1.00,825,388,813,372,44383,0
patternWeightCount-5,true,1.00,1975,472,1967,456,107471,0
patternWeightCount-6,true,1.00,2095,447,2080,431,115120,0
patternWeightCount-7,true,1.00,1143,440,1135,424,63083,0
patternWeightCount-8,true,1.00,953,416,932,400,44126,0
patternWeightCount-9,true,1.00,1104,457,1094,441,60295,0
patternWeightCount-10,true,1.00,801,454,786,438,42215,0
patternWeightCount-11,true,1.00,621,431,606,415,33037,0
patternWeightCount-12,true,1.00,1285,470,1272,454,68420,0
patternWeightCount-13,true,1.00,1049,396,1037,380,57999,0
patternWeightCount-14,true,1.00,847,431,844,414,46243,0
patternWeightCount-15,true,1.00,1435,409,1426,393,78312,0
patternWeightCount-16,true,1.00,3187,491,3173,472,179427,0
patternWeightCount-17,true,1.00,866,448,853,432,47337,0
patternWeightCount-18,true,1.00,863,407,854,391,47860,0
patternWeightCount-19,true,1.00,643,433,634,417,34188,0
patternWeightCount-20,false,0.62,2045,266,2043,266,85392,0
patternWeightCount-21,true,1.00,1012,474,998,458,28851,0
patternWeightCount-22,true,1.00,3007,519,2993,491,166347,0
patternWeightCount-23,true,1.00,1139,467,1131,432,61993,0
patternWeightCount-24,true,1.00,1213,424,1208,408,67052,0
patternWeightCount-25,true,1.00,1765,447,1737,431,73148,0
patternWeightCount-26,true,1.00,1747,456,1734,440,67039,0
patternWeightCount-27,true,1.00,1943,466,1929,437,110143,0
patternWeightCount-28,true,1.00,1306,445,1285,429,72920,0
patternWeightCount-29,true,1.00,1297,430,1277,414,71812,0
patternWeightCount-30,true,1.00,4112,501,4101,464,221848,0
patternWeightCount-31,true,1.00,908,430,897,414,47028,0
patternWeightCount-32,true,1.00,655,415,646,399,35288,0
patternWeightCount-33,true,1.00,804,420,798,404,44608,0
patternWeightCount-34,true,1.00,1693,417,1683,401,95973,0
patternWeightCount-35,true,1.00,2047,496,2029,480,105671,0
patternWeightCount-36,true,1.00,1528,461,1520,445,85314,0
patternWeightCount-37,true,1.00,814,409,807,393,44090,0
patternWeightCount-38,true,1.00,3820,509,3804,460,196514,0
patternWeightCount-39,true,1.00,977,416,967,399,51887,0
patternWeightCount-40,true,1.00,1062,451,1050,435,58530,0
patternWeightCount-41,true,1.00,1652,482,1642,464,91607,0
patternWeightCount-42,false,0.87,5342,455,5335,455,266743,0
patternWeightCount-43,true,1.00,1060,399,1051,383,58533,0
patternWeightCount-44,true,1.00,1609,454,1597,433,90402,0
patternWeightCount-45,true,1.00,3840,538,3823,509,208358,0
patternWeightCount-46,true,1.00,4735,522,4724,498,248138,0
patternWeightCount-47,true,1.00,904,429,896,413,50441,0
patternWeightCount-48,true,1.00,722,412,716,396,39475,0
patternWeightCount-49,true,1.00,1368,390,1355,374,76621,0
patternWeightCount-50,true,1.00,1066,432,1056,417,58419,0
patternWeightCount-51,true,1.00,1139,415,1126,388,64536,0
patternWeightCount-52,true,1.00,2732,502,2722,482,155782,0
patternWeightCount-53,true,1.00,3643,504,3631,484,194078,0
patternWeightCount-54,true,1.00,735,407,722,391,40281,0
patternWeightCount-55,true,1.00,1100,435,1085,415,59629,0
patternWeightCount-56,true,1.00,1154,446,1140,422,63236,0
patternWeightCount-57,true,1.00,469,404,461,388,24760,0
patternWeightCount-58,true,1.00,1149,403,1135,387,62703,0
patternWeightCount-59,true,1.00,635,396,629,380,34628,0
patternWeightCount-60,true,1.00,1379,507,1368,482,75079,0
patternWeightCount-61,true,1.00,1429,407,1413,391,53666,0
patternWeightCount-62,true,1.00,2311,467,2283,437,98224,0
patternWeightCount-63,true,1.00,1512,448,1490,432,48153,0
patternWeightCount-64,true,1.00,1645,439,1636,423,68548,0
patternWeightCount-65,true,1.00,1376,501,1368,485,76302,0
patternWeightCount-66,true,1.00,1544,418,1532,402,85768,0
patternWeightCount-67,true,1.00,1047,459,1039,443,55893,0
patternWeightCount-68,false,0.85,20898,999,20888,999,746784,0
patternWeightCount-69,true,1.00,1955,413,1947,385,110819,0
patternWeightCount-70,true,1.00,1173,477,1162,459,66118,0
patternWeightCount-71,true,1.00,818,371,810,354,45356,0
patternWeightCount-72,true,1.00,5455,536,5443,504,283392,0
patternWeightCount-73,true,1.00,9222,600,9212,571,497975,0
patternWeightCount-74,true,1.00,831,392,822,376,45818,0
patternWeightCount-75,true,1.00,1077,407,1064,391,58313,0
patternWeightCount-76,true,1.00,1272,479,1261,463,65950,0
patternWeightCount-77,true,1.00,1162,419,1146,403,60438,0
patternWeightCount-78,true,1.00,2497,480,2482,464,125405,0
patternWeightCount-79,true,1.00,803,416,795,400,44489,0
patternWeightCount-80,true,1.00,1484,454,1473,438,83304,0
patternWeightCount-81,false,0.94,5699,500,5693,500,291180,0
patternWeightCount-82,true,1.00,370,399,364,382,19615,0
patternWeightCount-83,true,1.00,809,389,798,373,45329,0
patternWeightCount-84,true,1.00,848,444,835,428,45943,0
patternWeightCount-85,true,1.00,1318,449,1307,422,73607,0
patternWeightCount-86,false,0.94,4932,512,4921,512,258353,0
patternWeightCount-87,true,1.00,4599,483,4590,455,239987,0
patternWeightCount-88,true,1.00,2066,452,2051,432,116120,0
patternWeightCount-89,true,1.00,797,402,787,386,44380,0
patternWeightCount-90,false,0.90,3702,441,3696,441,211836,0
patternWeightCount-91,true,1.00,928,399,913,383,52768,0
patternWeightCount-92,true,1.00,5074,534,5062,511,285713,0
patternWeightCount-93,true,1.00,4569,506,4557,489,244904,0
patternWeightCount-94,true,1.00,1623,455,1609,439,91479,0
patternWeightCount-95,true,1.00,1177,405,1161,389,66291,0
patternWeightCount-96,true,1.00,1321,478,1308,462,74350,0
patternWeightCount-97,true,1.00,1077,383,1072,367,62233,0
patternWeightCount-98,true,1.00,6413,532,6405,510,350158,0
patternWeightCount-99,true,1.00,1322,472,1310,456,75140,0
patternWeightCount-100,true,1.00,833,415,823,399,45780,0
