NDW:0.0
TTFW:1.8
DFPT:2.0
DFPAP:3.0
DFPMP:5.0
RIGHT_WINDOW_BORDER_X:115.0
level,win/fail,% travelled,run time,game ticks,planning time,total plannings,nodes evaluated,most backtracked nodes
notchParamRand-1,true,1.00,1683,368,1682,358,163754,0
notchParamRand-2,true,1.00,85,306,82,296,8972,0
notchParamRand-3,true,1.00,1644,341,1642,331,169152,0
notchParamRand-4,true,1.00,5444,474,5442,464,590512,0
notchParamRand-5,true,1.00,215,306,214,296,21689,0
notchParamRand-6,true,1.00,520,320,516,310,56311,0
notchParamRand-7,true,1.00,347,306,345,296,35727,0
notchParamRand-8,true,1.00,418,310,417,300,38760,0
notchParamRand-9,true,1.00,1156,357,1155,347,121307,0
notchParamRand-10,true,1.00,1711,363,1711,353,193157,0
notchParamRand-11,true,1.00,85,310,83,300,9086,0
notchParamRand-12,true,1.00,287,324,285,314,31346,0
notchParamRand-13,true,1.00,4687,451,4687,441,484799,0
notchParamRand-14,true,1.00,3132,404,3132,394,323637,0
notchParamRand-15,true,1.00,964,325,964,315,100715,0
notchParamRand-16,true,1.00,289,314,286,304,33809,0
notchParamRand-17,true,1.00,19,303,17,293,2113,0
notchParamRand-18,true,1.00,9472,629,9469,619,992770,0
notchParamRand-19,true,1.00,186,326,185,316,20164,0
notchParamRand-20,true,1.00,3420,434,3418,424,361313,0
notchParamRand-21,true,1.00,18,296,16,286,1867,0
notchParamRand-22,true,1.00,1388,352,1387,342,149616,0
notchParamRand-23,true,1.00,2505,386,2502,376,263806,0
notchParamRand-24,true,1.00,122,329,115,319,13228,0
notchParamRand-25,true,1.00,19,312,14,302,2290,0
notchParamRand-26,true,1.00,394,370,391,360,42166,0
notchParamRand-27,true,1.00,157,318,156,308,20205,0
notchParamRand-28,true,1.00,385,317,384,307,40977,0
notchParamRand-29,true,1.00,18,298,17,288,1932,0
notchParamRand-30,true,1.00,5809,479,5809,469,587431,0
notchParamRand-31,true,1.00,336,316,334,306,36347,0
notchParamRand-32,true,1.00,85,308,82,298,9444,0
notchParamRand-33,true,1.00,9122,585,9121,575,965411,0
notchParamRand-34,true,1.00,2044,364,2041,354,209888,0
notchParamRand-35,true,1.00,1388,353,1386,343,147246,0
notchParamRand-36,true,1.00,17,303,13,289,1926,0
notchParamRand-37,true,1.00,478,316,478,306,54110,0
notchParamRand-38,true,1.00,8038,563,8037,553,822724,0
notchParamRand-39,true,1.00,3532,443,3531,433,361137,0
notchParamRand-40,true,1.00,9532,616,9531,606,959943,0
notchParamRand-41,true,1.00,17,294,15,284,1645,0
notchParamRand-42,true,1.00,374,330,372,320,41927,0
notchParamRand-43,true,1.00,283,302,283,292,28873,0
notchParamRand-44,true,1.00,428,318,427,308,49337,0
notchParamRand-45,true,1.00,1407,332,1405,322,135160,0
notchParamRand-46,true,1.00,2892,395,2891,385,315941,0
notchParamRand-47,true,1.00,913,340,911,330,94825,0
notchParamRand-48,true,1.00,3790,426,3788,416,391422,0
notchParamRand-49,true,1.00,951,356,950,346,100379,0
notchParamRand-50,true,1.00,4912,474,4912,464,545955,0
notchParamRand-51,true,1.00,122,315,121,305,12340,0
notchParamRand-52,true,1.00,2097,358,2093,348,192536,0
notchParamRand-53,true,1.00,1815,350,1813,340,162832,0
notchParamRand-54,true,1.00,6273,511,6270,501,603559,0
notchParamRand-55,true,1.00,6272,528,6270,518,615378,0
notchParamRand-56,true,1.00,787,356,785,346,80034,0
notchParamRand-57,true,1.00,4482,435,4477,425,473089,0
notchParamRand-58,true,1.00,1675,383,1674,373,180567,0
notchParamRand-59,true,1.00,962,332,961,322,105349,0
notchParamRand-60,true,1.00,1779,361,1777,351,191614,0
notchParamRand-61,true,1.00,459,324,456,314,50625,0
notchParamRand-62,true,1.00,422,334,417,324,45035,0
notchParamRand-63,true,1.00,7478,580,7476,570,770889,0
notchParamRand-64,true,1.00,660,318,659,308,73418,0
notchParamRand-65,false,0.56,3269,317,3268,317,330330,0
notchParamRand-66,true,1.00,222,320,222,310,22615,0
notchParamRand-67,true,1.00,249,310,249,300,24139,0
notchParamRand-68,true,1.00,2367,378,2366,368,238733,0
notchParamRand-69,true,1.00,911,332,910,322,102106,0
notchParamRand-70,true,1.00,825,342,822,332,88811,0
notchParamRand-71,true,1.00,289,332,286,322,31440,0
notchParamRand-72,true,1.00,82,294,81,284,8570,0
notchParamRand-73,true,1.00,848,330,846,320,86586,0
notchParamRand-74,true,1.00,17,296,15,286,1943,0
notchParamRand-75,true,1.00,17,294,17,284,1712,0
notchParamRand-76,true,1.00,2322,433,2320,423,241364,0
notchParamRand-77,true,1.00,5560,502,5558,492,556453,0
notchParamRand-78,true,1.00,3204,424,3203,414,338932,0
notchParamRand-79,true,1.00,215,306,215,296,22562,0
notchParamRand-80,true,1.00,215,308,214,298,20075,0
notchParamRand-81,true,1.00,386,308,385,298,44406,0
notchParamRand-82,true,1.00,1122,344,1121,334,121518,0
notchParamRand-83,true,1.00,3427,411,3425,401,359376,0
notchParamRand-84,true,1.00,332,332,331,322,38248,0
notchParamRand-85,true,1.00,16,294,14,284,1653,0
notchParamRand-86,true,1.00,399,349,398,339,44865,0
notchParamRand-87,true,1.00,6394,498,6394,488,683446,0
notchParamRand-88,true,1.00,349,314,346,304,42581,0
notchParamRand-89,true,1.00,2497,376,2496,366,265708,0
notchParamRand-90,true,1.00,1700,385,1698,375,166080,0
notchParamRand-91,true,1.00,17,296,16,285,1810,0
notchParamRand-92,true,1.00,2117,375,2115,365,225539,0
notchParamRand-93,true,1.00,284,314,281,304,29452,0
notchParamRand-94,true,1.00,4879,450,4877,440,505090,0
notchParamRand-95,true,1.00,875,318,872,308,88236,0
notchParamRand-96,true,1.00,1707,368,1706,358,185169,0
notchParamRand-97,true,1.00,4301,445,4298,435,445052,0
notchParamRand-98,true,1.00,283,304,279,294,36305,0
notchParamRand-99,true,1.00,205,330,200,320,23435,0
notchParamRand-100,true,1.00,4377,485,4374,475,449052,0
