NDW:0.0
TTFW:0.6
DFPT:2.0
DFPAP:3.0
DFPMP:3.0
RIGHT_WINDOW_BORDER_X:255.0
level,win/fail,% travelled,run time,game ticks,planning time,total plannings,nodes evaluated,most backtracked nodes
notchParamRand-1,true,1.00,951,310,945,287,50944,0
notchParamRand-2,true,1.00,177,304,175,281,8199,0
notchParamRand-3,true,1.00,972,310,965,287,53631,0
notchParamRand-4,true,1.00,1464,320,1460,297,82164,0
notchParamRand-5,true,1.00,298,306,288,283,14836,0
notchParamRand-6,true,1.00,448,316,443,293,23670,0
notchParamRand-7,true,1.00,328,300,323,277,16789,0
notchParamRand-8,true,1.00,586,300,578,277,29399,0
notchParamRand-9,true,1.00,641,310,631,287,34952,0
notchParamRand-10,true,1.00,822,304,819,281,42551,0
notchParamRand-11,true,1.00,175,296,168,273,7639,0
notchParamRand-12,true,1.00,400,308,391,285,19451,0
notchParamRand-13,true,1.00,1717,318,1712,295,92242,0
notchParamRand-14,true,1.00,982,302,975,279,51798,0
notchParamRand-15,true,1.00,644,316,637,293,33689,0
notchParamRand-16,true,1.00,445,300,437,277,23087,0
notchParamRand-17,true,1.00,97,294,86,271,3631,0
notchParamRand-18,true,1.00,1899,314,1894,291,102436,0
notchParamRand-19,true,1.00,266,316,254,293,12628,0
notchParamRand-20,true,1.00,1523,333,1513,310,80296,0
notchParamRand-21,true,1.00,96,296,87,273,3406,0
notchParamRand-22,true,1.00,992,316,982,293,53162,0
notchParamRand-23,true,1.00,1139,320,1136,297,59941,0
notchParamRand-24,true,1.00,332,316,321,293,15676,0
notchParamRand-25,true,1.00,107,306,102,281,4431,0
notchParamRand-26,true,1.00,541,341,538,318,26254,0
notchParamRand-27,true,1.00,255,294,249,271,12424,0
notchParamRand-28,true,1.00,476,308,466,285,23971,0
notchParamRand-29,true,1.00,98,298,92,275,3552,0
notchParamRand-30,true,1.00,1780,308,1778,285,97223,0
notchParamRand-31,true,1.00,435,322,430,299,22454,0
notchParamRand-32,true,1.00,161,294,155,271,7014,0
notchParamRand-33,true,1.00,1906,318,1903,295,105247,0
notchParamRand-34,true,1.00,999,308,994,285,52753,0
notchParamRand-35,true,1.00,551,312,540,289,29308,0
notchParamRand-36,true,1.00,93,298,87,274,3335,0
notchParamRand-37,true,1.00,474,310,461,287,24650,0
notchParamRand-38,true,1.00,1666,308,1661,285,89822,0
notchParamRand-39,true,1.00,1604,337,1595,314,85861,0
notchParamRand-40,true,1.00,1978,310,1969,287,109266,0
notchParamRand-41,true,1.00,86,294,82,271,2830,0
notchParamRand-42,true,1.00,490,320,479,297,25593,0
notchParamRand-43,true,1.00,267,300,258,277,13234,0
notchParamRand-44,true,1.00,317,302,311,279,15571,0
notchParamRand-45,true,1.00,1025,312,1017,289,53441,0
notchParamRand-46,true,1.00,591,302,579,279,30945,0
notchParamRand-47,true,1.00,715,318,707,295,37185,0
notchParamRand-48,true,1.00,1532,320,1527,297,83042,0
notchParamRand-49,true,1.00,730,308,720,285,38023,0
notchParamRand-50,true,1.00,1255,318,1243,295,67794,0
notchParamRand-51,true,1.00,226,306,222,283,10621,0
notchParamRand-52,true,1.00,843,308,837,285,45015,0
notchParamRand-53,true,1.00,958,324,952,301,49684,0
notchParamRand-54,true,1.00,2110,326,2104,303,114991,0
notchParamRand-55,true,1.00,1700,306,1692,283,90409,0
notchParamRand-56,true,1.00,699,300,690,277,36406,0
notchParamRand-57,true,1.00,932,312,922,289,50965,0
notchParamRand-58,true,1.00,770,318,763,295,40940,0
notchParamRand-59,true,1.00,467,308,460,285,24375,0
notchParamRand-60,true,1.00,633,304,622,281,33631,0
notchParamRand-61,true,1.00,501,304,498,281,25731,0
notchParamRand-62,true,1.00,485,316,480,293,24653,0
notchParamRand-63,true,1.00,1431,312,1427,289,77246,0
notchParamRand-64,true,1.00,366,304,357,281,18123,0
notchParamRand-65,true,1.00,2059,331,2052,308,109112,0
notchParamRand-66,true,1.00,471,306,468,283,21340,0
notchParamRand-67,true,1.00,341,300,331,277,16556,0
notchParamRand-68,true,1.00,1437,308,1434,285,77300,0
notchParamRand-69,true,1.00,272,300,266,277,13695,0
notchParamRand-70,true,1.00,641,318,633,295,34253,0
notchParamRand-71,true,1.00,349,314,341,291,16956,0
notchParamRand-72,true,1.00,161,296,159,273,6890,0
notchParamRand-73,true,1.00,519,308,512,285,26654,0
notchParamRand-74,true,1.00,89,294,82,271,3176,0
notchParamRand-75,true,1.00,86,294,80,271,2925,0
notchParamRand-76,true,1.00,1152,314,1144,291,62620,0
notchParamRand-77,true,1.00,1576,320,1567,297,85466,0
notchParamRand-78,true,1.00,1019,304,1014,281,55802,0
notchParamRand-79,true,1.00,311,300,301,277,15595,0
notchParamRand-80,true,1.00,352,306,338,283,17296,0
notchParamRand-81,true,1.00,310,298,304,275,15800,0
notchParamRand-82,true,1.00,745,314,738,291,40394,0
notchParamRand-83,true,1.00,1416,320,1408,297,78902,0
notchParamRand-84,true,1.00,325,302,316,279,16666,0
notchParamRand-85,true,1.00,84,294,79,271,2876,0
notchParamRand-86,true,1.00,756,335,751,312,39114,0
notchParamRand-87,true,1.00,1649,314,1639,291,92041,0
notchParamRand-88,true,1.00,362,320,354,297,17812,0
notchParamRand-89,true,1.00,369,300,362,277,19526,0
notchParamRand-90,true,1.00,739,322,734,299,38189,0
notchParamRand-91,true,1.00,89,294,85,271,3155,0
notchParamRand-92,true,1.00,1001,336,996,313,55076,0
notchParamRand-93,true,1.00,379,313,372,283,19526,0
notchParamRand-94,true,1.00,1807,330,1797,307,97183,0
notchParamRand-95,true,1.00,761,318,756,295,39908,0
notchParamRand-96,true,1.00,508,310,504,287,25727,0
notchParamRand-97,true,1.00,1493,334,1488,311,77896,0
notchParamRand-98,true,1.00,313,306,307,283,15487,0
notchParamRand-99,true,1.00,319,312,312,289,15992,0
notchParamRand-100,true,1.00,1450,314,1445,291,79404,0
