NDW:0.0
TTFW:0.4
DFPT:2.0
DFPAP:3.0
DFPMP:0.0
RIGHT_WINDOW_BORDER_X:215.0
level,win/fail,% travelled,run time,game ticks,planning time,total plannings,nodes evaluated,most backtracked nodes
patternCount-1,false,0.88,5443,441,5440,441,457016,0
patternCount-2,true,1.00,1328,377,1325,357,111069,0
patternCount-3,true,1.00,2949,413,2946,393,235940,0
patternCount-4,true,1.00,1536,416,1532,397,125900,0
patternCount-5,true,1.00,1315,389,1310,370,108586,0
patternCount-6,true,1.00,513,336,512,317,42968,0
patternCount-7,true,1.00,2079,459,2074,439,165331,0
patternCount-8,true,1.00,3688,469,3684,440,309984,0
patternCount-9,true,1.00,1855,440,1855,421,155928,0
patternCount-10,true,1.00,662,322,660,303,56139,0
patternCount-11,true,1.00,6063,513,6060,467,509659,0
patternCount-12,true,1.00,908,377,903,358,74304,0
patternCount-13,true,1.00,886,374,884,355,74325,0
patternCount-14,true,1.00,1360,358,1358,336,114898,0
patternCount-15,true,1.00,1252,389,1252,370,100549,0
patternCount-16,true,1.00,1000,389,993,370,81765,0
patternCount-17,true,1.00,1419,399,1416,379,111600,0
patternCount-18,true,1.00,1368,377,1365,358,111227,0
patternCount-19,true,1.00,767,356,766,337,63061,0
patternCount-20,true,1.00,1900,437,1898,418,150166,0
patternCount-21,true,1.00,1307,405,1304,386,103323,0
patternCount-22,true,1.00,3381,431,3378,400,293041,0
patternCount-23,true,1.00,7275,503,7272,482,611442,0
patternCount-24,true,1.00,8004,564,8000,543,704405,0
patternCount-25,true,1.00,988,339,985,320,82729,0
patternCount-26,true,1.00,1110,416,1109,397,87746,0
patternCount-27,true,1.00,1295,387,1289,367,109174,0
patternCount-28,true,1.00,868,372,867,343,71007,0
patternCount-29,true,1.00,1813,387,1810,368,149304,0
patternCount-30,true,1.00,923,370,921,351,71180,0
patternCount-31,true,1.00,1673,429,1668,410,135244,0
patternCount-32,true,1.00,2190,437,2184,418,162576,0
patternCount-33,true,1.00,4029,509,4027,489,314880,0
patternCount-34,true,1.00,2350,432,2348,410,200079,0
patternCount-35,true,1.00,1190,400,1187,377,97871,0
patternCount-36,true,1.00,2478,438,2475,417,203549,0
patternCount-37,true,1.00,1204,405,1203,386,99346,0
patternCount-38,true,1.00,3886,445,3883,425,322626,0
patternCount-39,true,1.00,1248,407,1244,387,101404,0
patternCount-40,true,1.00,5717,469,5715,436,485180,0
patternCount-41,true,1.00,1899,370,1894,351,159037,0
patternCount-42,true,1.00,1555,426,1550,407,124429,0
patternCount-43,true,1.00,633,338,631,319,54110,0
patternCount-44,true,1.00,1277,418,1276,399,104486,0
patternCount-45,true,1.00,1283,403,1282,384,101523,0
patternCount-46,true,1.00,1546,411,1544,392,129985,0
patternCount-47,true,1.00,2420,466,2415,447,192510,0
patternCount-48,true,1.00,1117,395,1114,376,90515,0
patternCount-49,true,1.00,1317,416,1314,388,109930,0
patternCount-50,true,1.00,5970,530,5967,499,497433,0
patternCount-51,true,1.00,1453,453,1448,430,118404,0
patternCount-52,true,1.00,1009,330,1007,311,88416,0
patternCount-53,true,1.00,5277,480,5273,455,441039,0
patternCount-54,true,1.00,2367,463,2363,444,184548,0
patternCount-55,true,1.00,8531,551,8529,525,713211,0
patternCount-56,true,1.00,1790,430,1789,411,144610,0
patternCount-57,true,1.00,963,372,962,353,79905,0
patternCount-58,false,0.80,6881,486,6879,486,528143,0
patternCount-59,true,1.00,1475,399,1472,380,119517,0
patternCount-60,true,1.00,1723,441,1720,420,138652,0
patternCount-61,true,1.00,791,357,790,331,67164,0
patternCount-62,true,1.00,1402,408,1400,389,113264,0
patternCount-63,true,1.00,1469,422,1465,403,113177,0
patternCount-64,true,1.00,884,378,880,359,73925,0
patternCount-65,true,1.00,1176,387,1175,368,93958,0
patternCount-66,true,1.00,2049,444,2046,425,165626,0
patternCount-67,true,1.00,1637,363,1636,340,137216,0
patternCount-68,true,1.00,1128,397,1125,378,92295,0
patternCount-69,true,1.00,1206,401,1204,382,97094,0
patternCount-70,true,1.00,1066,382,1059,363,85001,0
patternCount-71,true,1.00,1518,411,1515,392,125408,0
patternCount-72,true,1.00,5872,444,5869,423,489129,0
patternCount-73,true,1.00,2115,453,2112,433,173129,0
patternCount-74,true,1.00,9201,539,9198,513,752627,0
patternCount-75,true,1.00,1288,412,1288,391,103888,0
patternCount-76,true,1.00,1472,414,1470,395,121368,0
patternCount-77,true,1.00,1665,392,1662,369,132214,0
patternCount-78,true,1.00,1740,411,1739,392,140310,0
patternCount-79,true,1.00,4309,450,4306,425,369083,0
patternCount-80,true,1.00,4054,562,4051,516,330887,0
patternCount-81,true,1.00,1333,403,1331,384,104107,0
patternCount-82,true,1.00,1124,365,1123,346,93079,0
patternCount-83,true,1.00,1575,463,1569,444,124373,0
patternCount-84,true,1.00,1278,409,1273,390,102898,0
patternCount-85,true,1.00,1037,381,1033,362,85991,0
patternCount-86,true,1.00,1474,447,1471,428,115139,0
patternCount-87,true,1.00,1395,406,1391,387,112036,0
patternCount-88,true,1.00,1677,399,1670,380,138309,0
patternCount-89,true,1.00,1628,382,1625,363,138636,0
patternCount-90,true,1.00,985,382,984,363,78594,0
patternCount-91,true,1.00,1867,422,1864,403,151641,0
patternCount-92,true,1.00,1070,392,1068,373,86807,0
patternCount-93,true,1.00,5559,491,5555,456,460466,0
patternCount-94,true,1.00,2827,450,2824,429,228555,0
patternCount-95,true,1.00,2056,420,2051,401,164209,0
patternCount-96,true,1.00,1306,450,1302,430,108901,0
patternCount-97,true,1.00,1210,381,1207,362,102386,0
patternCount-98,true,1.00,1248,385,1248,366,104591,0
patternCount-99,true,1.00,937,366,934,347,79501,0
patternCount-100,true,1.00,734,358,731,339,59954,0
