NDW:0.0
TTFW:1.4
DFPT:2.0
DFPAP:3.0
DFPMP:7.0
RIGHT_WINDOW_BORDER_X:400.0
level,win/fail,% travelled,run time,game ticks,planning time,total plannings,nodes evaluated,most backtracked nodes
Mario-1,true,1.00,711,384,703,323,34619,0
Mario-2,true,1.00,800,350,793,290,41096,0
Mario-3,true,1.00,1441,287,1432,214,82223,0
Mario-4,true,1.00,1352,444,1341,353,63048,0
Mario-5,true,1.00,1425,482,1418,405,70237,0
Mario-6,true,1.00,2580,272,2572,223,123647,0
Mario-7,true,1.00,960,452,953,376,42497,0
Mario-8,true,1.00,1458,461,1444,406,66763,0
Mario-9,true,1.00,678,406,668,345,31812,0
Mario-10,true,1.00,1804,314,1793,241,97736,0
Mario-11,true,1.00,1070,398,1055,340,52920,0
Mario-12,true,1.00,2489,690,2479,614,97776,0
Mario-13,true,1.00,1889,337,1881,282,104542,0
Mario-14,true,1.00,371,392,360,325,14593,0
Mario-15,true,1.00,2383,829,2365,768,113899,0
