NDW:0.0
TTFW:0.8
DFPT:2.0
DFPAP:3.0
DFPMP:10.0
RIGHT_WINDOW_BORDER_X:155.0
level,win/fail,% travelled,run time,game ticks,planning time,total plannings,nodes evaluated,most backtracked nodes
Mario-1,true,1.00,421,364,411,342,20962,0
Mario-2,true,1.00,1012,318,1007,304,52795,0
Mario-3,true,1.00,1601,316,1592,295,90829,0
Mario-4,true,1.00,955,481,940,458,46925,0
Mario-5,true,1.00,1404,401,1398,386,70665,0
Mario-6,true,1.00,2219,299,2214,285,117406,0
Mario-7,true,1.00,672,404,664,383,32628,0
Mario-8,true,1.00,1738,437,1728,410,85536,0
Mario-9,true,1.00,497,337,485,320,25150,0
Mario-10,true,1.00,2486,330,2480,308,137772,0
Mario-11,true,1.00,836,383,829,364,40691,0
Mario-12,true,1.00,1964,633,1948,611,86150,0
Mario-13,true,1.00,1789,321,1785,307,94838,0
Mario-14,true,1.00,291,355,278,336,13843,0
Mario-15,true,1.00,2338,841,2315,818,114355,0
