NDW:0.0
TTFW:1.4
DFPT:2.0
DFPAP:3.0
DFPMP:5.0
RIGHT_WINDOW_BORDER_X:176.0
level,win/fail,% travelled,run time,game ticks,planning time,total plannings,nodes evaluated,most backtracked nodes
notch-1,true,1.00,1572,295,1565,279,91988,0
notch-2,true,1.00,1468,276,1465,260,86403,0
notch-3,true,1.00,1027,255,1019,239,58298,0
notch-4,true,1.00,1262,278,1256,251,72054,0
notch-5,true,1.00,891,252,886,235,51230,0
notch-6,true,1.00,920,281,915,265,53687,0
notch-7,true,1.00,791,282,782,266,46842,0
notch-8,true,1.00,690,291,685,269,39616,0
notch-9,true,1.00,1121,278,1112,262,63113,0
notch-10,true,1.00,1015,273,1012,257,59212,0
notch-11,true,1.00,884,256,879,240,50955,0
notch-12,true,1.00,644,258,639,242,36385,0
notch-13,true,1.00,929,272,925,256,53254,0
notch-14,true,1.00,856,273,847,257,49381,0
notch-15,true,1.00,874,273,870,257,49059,0
notch-16,true,1.00,950,290,945,263,54771,0
notch-17,true,1.00,1055,299,1049,283,61149,0
notch-18,true,1.00,943,342,938,325,53794,0
notch-19,true,1.00,1205,245,1201,229,70176,0
notch-20,true,1.00,971,292,959,276,56295,0
notch-21,true,1.00,1201,310,1190,294,70830,0
notch-22,true,1.00,535,245,525,229,29797,0
notch-23,true,1.00,1003,255,995,238,55415,0
notch-24,true,1.00,849,267,843,251,46625,0
notch-25,true,1.00,1257,314,1250,298,72516,0
notch-26,true,1.00,775,275,767,258,42892,0
notch-27,true,1.00,1378,297,1371,281,79660,0
notch-28,true,1.00,841,251,837,234,49063,0
notch-29,true,1.00,1118,282,1106,266,62998,0
notch-30,true,1.00,935,254,930,238,52276,0
notch-31,true,1.00,903,271,898,255,51463,0
notch-32,true,1.00,720,285,713,263,40195,0
notch-33,true,1.00,779,253,773,237,44353,0
notch-34,true,1.00,701,255,700,239,40742,0
notch-35,true,1.00,739,267,733,251,42234,0
notch-36,true,1.00,1256,285,1252,269,70731,0
notch-37,true,1.00,1340,282,1331,258,77729,0
notch-38,true,1.00,967,296,964,265,54906,0
notch-39,true,1.00,669,232,663,215,36851,0
notch-40,true,1.00,1011,279,1006,261,59064,0
notch-41,true,1.00,1123,266,1113,250,65232,0
notch-42,true,1.00,1020,262,1016,246,59336,0
notch-43,true,1.00,835,250,827,234,48513,0
notch-44,true,1.00,707,235,701,219,41050,0
notch-45,true,1.00,771,244,768,228,44997,0
notch-46,true,1.00,736,264,731,248,42646,0
notch-47,true,1.00,1023,279,1015,263,59988,0
notch-48,true,1.00,1132,264,1127,248,66755,0
notch-49,true,1.00,822,273,816,252,46866,0
notch-50,true,1.00,750,301,738,284,42558,0
notch-51,true,1.00,835,254,829,233,48623,0
notch-52,true,1.00,844,270,835,254,48442,0
notch-53,true,1.00,409,271,404,253,22584,0
notch-54,true,1.00,1216,306,1212,289,70465,0
notch-55,true,1.00,1069,290,1063,274,61275,0
notch-56,true,1.00,785,264,778,248,45480,0
notch-57,true,1.00,800,291,797,275,44890,0
notch-58,true,1.00,1309,320,1303,304,74788,0
notch-59,true,1.00,757,301,751,274,42269,0
notch-60,true,1.00,1026,266,1022,250,59766,0
notch-61,true,1.00,974,239,963,223,56027,0
notch-62,true,1.00,779,286,775,270,44299,0
notch-63,true,1.00,1077,302,1071,281,62735,0
notch-64,true,1.00,925,258,922,242,52632,0
notch-65,true,1.00,1350,318,1346,298,79277,0
notch-66,true,1.00,992,299,981,282,56688,0
notch-67,true,1.00,946,257,938,241,53818,0
notch-68,true,1.00,557,258,548,242,31511,0
notch-69,true,1.00,1466,303,1457,287,84850,0
notch-70,true,1.00,1154,307,1145,290,68053,0
notch-71,true,1.00,1003,249,998,233,57730,0
notch-72,true,1.00,720,245,717,229,42750,0
notch-73,true,1.00,791,269,789,253,45579,0
notch-74,true,1.00,599,239,597,223,35198,0
notch-75,true,1.00,1433,321,1430,303,82421,0
notch-76,true,1.00,996,295,993,278,58405,0
notch-77,true,1.00,1070,269,1069,253,62210,0
notch-78,true,1.00,1075,275,1069,257,61876,0
notch-79,true,1.00,885,282,880,265,50600,0
notch-80,true,1.00,452,232,450,216,25620,0
notch-81,true,1.00,1440,265,1434,239,82639,0
notch-82,true,1.00,827,276,819,260,47343,0
notch-83,true,1.00,1704,322,1701,301,97657,0
notch-84,true,1.00,1015,258,1008,242,56759,0
notch-85,true,1.00,878,274,876,256,51304,0
notch-86,true,1.00,885,247,879,231,50730,0
notch-87,true,1.00,962,245,957,229,55821,0
notch-88,true,1.00,1266,290,1258,273,73076,0
notch-89,true,1.00,1352,298,1343,282,79443,0
notch-90,true,1.00,1180,277,1174,261,68407,0
notch-91,true,1.00,1724,280,1720,264,101267,0
notch-92,true,1.00,1136,278,1130,262,63672,0
notch-93,true,1.00,936,268,931,252,54184,0
notch-94,true,1.00,1349,277,1340,260,77186,0
notch-95,true,1.00,934,259,929,243,53024,0
notch-96,true,1.00,635,270,627,254,37348,0
notch-97,true,1.00,1202,284,1194,268,68807,0
notch-98,true,1.00,1082,254,1080,237,61867,0
notch-99,true,1.00,1358,304,1352,283,80343,0
notch-100,true,1.00,746,296,743,278,42816,0
