NDW:0.0
TTFW:1.6
DFPT:2.0
DFPAP:3.0
DFPMP:3.0
RIGHT_WINDOW_BORDER_X:55.0
level,win/fail,% travelled,run time,game ticks,planning time,total plannings,nodes evaluated,most backtracked nodes
ge-1,false,0.22,2313,177,2312,177,110405,0
ge-2,true,1.00,2900,498,2884,493,130543,0
ge-3,true,1.00,1255,453,1244,447,68878,0
ge-4,false,0.37,2051,245,2048,245,115062,0
ge-5,true,1.00,33,234,30,229,1904,0
ge-6,false,0.54,3334,330,3326,330,184027,0
ge-7,true,1.00,1334,394,1325,388,62334,0
ge-8,true,1.00,1638,437,1626,430,55238,0
ge-9,true,1.00,3222,467,3212,462,175449,0
ge-10,true,1.00,90,316,82,311,5306,0
ge-11,true,1.00,755,288,751,281,40692,0
ge-12,true,1.00,121,379,114,373,7358,0
ge-13,true,1.00,2124,436,2115,431,111648,0
ge-14,true,1.00,1564,472,1549,465,78915,0
ge-15,false,0.37,65,121,59,121,3643,0
ge-16,true,1.00,930,472,918,465,50964,0
ge-17,false,0.24,1064,158,1062,158,58067,0
ge-18,false,0.09,2528,139,2527,139,113674,0
ge-19,false,0.46,3157,307,3143,307,153099,0
ge-20,true,1.00,3328,494,3313,488,182061,0
ge-21,true,1.00,2938,468,2933,463,155380,0
ge-22,false,0.70,1518,362,1512,362,82611,0
ge-23,false,0.76,5397,474,5390,474,264747,0
ge-24,false,0.71,2134,366,2132,366,119198,0
ge-25,false,0.63,4712,417,4704,417,263793,0
ge-26,true,1.00,2290,445,2278,439,136509,0
ge-27,true,1.00,114,393,106,385,7573,0
ge-28,false,0.52,24805,999,24802,999,1159823,0
ge-29,false,0.37,1798,217,1794,217,92063,0
ge-30,false,0.36,6105,362,6100,362,348462,0
ge-31,false,0.23,1842,160,1840,160,105359,0
ge-32,true,1.00,220,403,210,396,13008,0
ge-33,true,1.00,243,423,231,410,14332,0
ge-34,false,0.91,5453,595,5437,595,304521,0
ge-35,true,1.00,2122,510,2111,504,114876,0
ge-36,false,0.43,3428,301,3425,301,197051,0
ge-37,false,0.90,2541,454,2526,454,136089,0
ge-38,false,0.55,854,246,852,246,46942,0
ge-39,true,1.00,2080,460,2074,453,122018,0
ge-40,true,1.00,107,373,93,363,7114,0
ge-41,false,0.50,719,196,715,196,40617,0
ge-42,false,0.53,2437,351,2430,351,133782,0
ge-43,false,0.67,2683,391,2672,391,144281,0
ge-44,false,0.34,2421,242,2419,242,130886,0
ge-45,false,0.55,2318,355,2312,355,125983,0
ge-46,false,0.31,1314,170,1314,170,70315,0
ge-47,false,0.15,481,87,479,87,29487,0
ge-48,false,0.62,1372,276,1369,276,76032,0
ge-49,true,1.00,153,215,147,210,7918,0
ge-50,false,0.34,2029,232,2026,232,111181,0
ge-51,true,1.00,701,418,688,412,39273,0
ge-52,false,0.14,827,83,826,83,44251,0
ge-53,true,1.00,1117,438,1102,431,60276,0
ge-54,true,1.00,2218,446,2207,438,140818,0
ge-55,true,1.00,2914,520,2904,513,163963,0
ge-56,false,0.12,752,107,748,107,40129,0
ge-57,false,0.53,4123,345,4118,345,226410,0
ge-58,true,1.00,312,454,301,447,18386,0
ge-59,false,0.35,1153,176,1147,176,65302,0
ge-60,false,0.22,3919,227,3911,227,206681,0
ge-61,false,0.78,22582,999,22577,999,1111761,0
ge-62,false,0.39,5550,403,5539,403,272549,0
ge-63,false,0.21,3583,229,3582,229,171432,0
ge-64,false,1.00,2198,470,2192,456,118135,0
ge-65,false,0.39,1525,222,1521,222,89040,0
ge-66,false,0.24,3567,239,3562,239,201284,0
ge-67,true,1.00,1853,489,1842,482,100839,0
ge-68,true,1.00,496,434,486,427,26363,0
ge-69,true,1.00,992,372,986,365,55159,0
ge-70,false,0.86,1354,394,1342,394,75880,0
ge-71,false,0.30,3879,275,3876,275,223405,0
ge-72,false,0.94,579,463,570,463,32906,0
ge-73,false,0.95,2496,487,2484,487,138916,0
ge-74,false,0.44,25647,999,25640,999,1420371,0
ge-75,false,0.84,2654,454,2650,454,152283,0
ge-76,false,0.59,5258,531,5244,531,292019,0
ge-77,false,0.10,4067,156,4066,156,223532,0
ge-78,false,0.56,1289,280,1286,280,71422,0
ge-79,true,1.00,1677,431,1669,426,90366,0
ge-80,true,1.00,129,421,116,414,8523,0
ge-81,true,1.00,70,293,62,288,4039,0
ge-82,true,1.00,120,395,105,388,7406,0
ge-83,false,0.09,3388,163,3388,163,186903,0
ge-84,false,0.12,2763,182,2762,182,158479,0
ge-85,false,0.41,3201,302,3194,302,183067,0
ge-86,false,0.80,2233,439,2226,439,122659,0
ge-87,false,0.62,3004,353,2993,353,169938,0
ge-88,false,0.37,7204,378,7202,378,416739,0
ge-89,true,1.00,1076,465,1067,455,59242,0
ge-90,true,1.00,108,367,99,360,7496,0
ge-91,false,0.86,2904,349,2892,349,159399,0
ge-92,true,1.00,99,349,90,343,6484,0
ge-93,false,0.40,2078,244,2074,244,112328,0
ge-94,false,0.74,5611,350,5609,350,319459,0
ge-95,true,1.00,133,423,117,416,8437,0
ge-96,false,0.33,1801,214,1798,214,98408,0
ge-97,false,0.60,22949,999,22943,999,1206332,0
ge-98,true,1.00,104,365,96,359,7097,0
ge-99,true,1.00,2147,344,2137,339,108736,0
ge-100,true,1.00,1732,450,1722,444,96174,0
