NDW:0.0
TTFW:0.4
DFPT:2.0
DFPAP:3.0
DFPMP:50.0
RIGHT_WINDOW_BORDER_X:155.0
level,win/fail,% travelled,run time,game ticks,planning time,total plannings,nodes evaluated,most backtracked nodes
notchParamRand-1,true,1.00,807,308,805,294,68328,0
notchParamRand-2,true,1.00,105,298,103,284,9232,0
notchParamRand-3,true,1.00,913,314,910,300,82434,0
notchParamRand-4,true,1.00,1378,318,1377,304,123650,0
notchParamRand-5,true,1.00,235,296,234,282,19987,0
notchParamRand-6,true,1.00,333,296,332,282,29634,0
notchParamRand-7,true,1.00,200,294,198,280,17555,0
notchParamRand-8,true,1.00,462,304,460,290,37892,0
notchParamRand-9,true,1.00,531,294,528,280,47606,0
notchParamRand-10,true,1.00,660,304,659,290,58256,0
notchParamRand-11,true,1.00,99,294,99,280,8563,0
notchParamRand-12,true,1.00,243,302,241,288,21435,0
notchParamRand-13,true,1.00,1539,316,1539,302,132610,0
notchParamRand-14,true,1.00,831,298,831,284,70363,0
notchParamRand-15,true,1.00,532,298,530,284,47276,0
notchParamRand-16,true,1.00,363,294,363,280,34096,0
notchParamRand-17,true,1.00,36,294,34,280,3154,0
notchParamRand-18,true,1.00,2443,350,2443,336,212766,0
notchParamRand-19,true,1.00,231,322,226,308,19124,0
notchParamRand-20,true,1.00,1421,326,1419,312,126976,0
notchParamRand-21,true,1.00,44,300,42,286,3996,0
notchParamRand-22,true,1.00,962,338,959,324,86833,0
notchParamRand-23,true,1.00,1247,331,1246,317,109435,0
notchParamRand-24,true,1.00,301,343,301,329,24643,0
notchParamRand-25,true,1.00,32,294,30,280,2851,0
notchParamRand-26,true,1.00,296,316,294,302,25457,0
notchParamRand-27,true,1.00,198,294,196,280,19352,0
notchParamRand-28,true,1.00,353,296,352,282,30934,0
notchParamRand-29,true,1.00,34,294,32,280,2999,0
notchParamRand-30,true,1.00,1825,366,1823,352,155473,0
notchParamRand-31,true,1.00,385,306,382,292,34464,0
notchParamRand-32,true,1.00,101,294,97,280,9040,0
notchParamRand-33,true,1.00,1639,304,1638,290,145399,0
notchParamRand-34,true,1.00,799,296,797,282,69994,0
notchParamRand-35,true,1.00,407,302,405,288,35789,0
notchParamRand-36,true,1.00,33,294,31,280,2848,0
notchParamRand-37,true,1.00,331,294,329,280,30564,0
notchParamRand-38,true,1.00,1762,330,1760,316,150486,0
notchParamRand-39,true,1.00,1687,342,1684,328,148060,0
notchParamRand-40,true,1.00,2484,344,2484,330,214089,0
notchParamRand-41,true,1.00,36,294,35,280,2910,0
notchParamRand-42,true,1.00,375,302,373,288,33968,0
notchParamRand-43,true,1.00,200,294,200,280,17499,0
notchParamRand-44,true,1.00,232,294,229,280,21291,0
notchParamRand-45,true,1.00,1234,314,1233,300,105635,0
notchParamRand-46,true,1.00,436,298,435,284,39827,0
notchParamRand-47,true,1.00,640,300,637,286,55468,0
notchParamRand-48,true,1.00,1424,322,1423,308,123754,0
notchParamRand-49,true,1.00,642,300,640,286,56208,0
notchParamRand-50,true,1.00,1735,321,1731,307,159530,0
notchParamRand-51,true,1.00,133,294,132,280,11712,0
notchParamRand-52,true,1.00,653,300,651,286,57490,0
notchParamRand-53,true,1.00,863,300,863,286,73471,0
notchParamRand-54,true,1.00,1961,338,1959,324,173777,0
notchParamRand-55,true,1.00,1686,338,1686,324,140720,0
notchParamRand-56,true,1.00,574,304,571,290,49736,0
notchParamRand-57,true,1.00,909,308,904,294,80444,0
notchParamRand-58,true,1.00,809,320,808,306,72870,0
notchParamRand-59,true,1.00,330,294,329,280,29557,0
notchParamRand-60,true,1.00,532,298,532,284,47454,0
notchParamRand-61,true,1.00,414,312,412,298,36494,0
notchParamRand-62,true,1.00,385,304,383,290,33732,0
notchParamRand-63,true,1.00,1538,318,1537,304,134963,0
notchParamRand-64,true,1.00,233,296,228,282,21231,0
notchParamRand-65,true,1.00,2745,365,2744,351,235462,0
notchParamRand-66,true,1.00,270,304,267,290,23608,0
notchParamRand-67,true,1.00,232,294,231,280,19247,0
notchParamRand-68,true,1.00,1809,349,1805,335,159091,0
notchParamRand-69,true,1.00,200,294,198,280,18472,0
notchParamRand-70,true,1.00,529,296,526,282,48023,0
notchParamRand-71,true,1.00,219,308,217,294,19556,0
notchParamRand-72,true,1.00,110,300,109,286,9838,0
notchParamRand-73,true,1.00,415,306,413,292,34244,0
notchParamRand-74,true,1.00,36,294,35,280,3016,0
notchParamRand-75,true,1.00,37,294,35,280,2881,0
notchParamRand-76,true,1.00,1107,336,1104,322,96271,0
notchParamRand-77,true,1.00,1796,348,1793,334,148988,0
notchParamRand-78,true,1.00,918,312,917,298,80903,0
notchParamRand-79,true,1.00,235,294,234,280,20560,0
notchParamRand-80,true,1.00,231,294,231,280,19736,0
notchParamRand-81,true,1.00,232,294,230,280,21540,0
notchParamRand-82,true,1.00,645,300,642,286,58016,0
notchParamRand-83,true,1.00,1152,312,1148,298,101109,0
notchParamRand-84,true,1.00,306,304,304,290,27998,0
notchParamRand-85,true,1.00,35,294,31,280,2931,0
notchParamRand-86,true,1.00,536,340,534,326,46093,0
notchParamRand-87,true,1.00,1913,334,1911,320,169221,0
notchParamRand-88,true,1.00,236,296,233,282,22039,0
notchParamRand-89,true,1.00,307,316,307,302,28442,0
notchParamRand-90,true,1.00,548,308,548,294,47235,0
notchParamRand-91,true,1.00,37,298,37,281,3164,0
notchParamRand-92,true,1.00,810,308,805,294,71889,0
notchParamRand-93,true,1.00,234,296,233,282,21010,0
notchParamRand-94,true,1.00,2591,360,2591,346,220193,0
notchParamRand-95,true,1.00,642,310,642,296,55341,0
notchParamRand-96,true,1.00,398,302,396,288,35345,0
notchParamRand-97,true,1.00,1149,318,1147,304,97436,0
notchParamRand-98,true,1.00,200,294,199,280,18529,0
notchParamRand-99,true,1.00,243,300,241,286,21309,0
notchParamRand-100,true,1.00,1318,310,1316,296,114734,0
