NDW:0.0
TTFW:1.4
DFPT:2.0
DFPAP:3.0
DFPMP:7.0
RIGHT_WINDOW_BORDER_X:400.0
level,win/fail,% travelled,run time,game ticks,planning time,total plannings,nodes evaluated,most backtracked nodes
patternOccur-1,true,1.00,1519,498,1509,457,81311,0
patternOccur-2,true,1.00,1363,453,1356,414,71257,0
patternOccur-3,true,1.00,2041,499,2027,450,117140,0
patternOccur-4,true,1.00,1655,491,1641,454,92116,0
patternOccur-5,true,1.00,1395,475,1378,434,75609,0
patternOccur-6,true,1.00,1973,547,1962,510,107007,0
patternOccur-7,true,1.00,1760,498,1753,443,94297,0
patternOccur-8,true,1.00,1586,454,1573,416,87094,0
patternOccur-9,true,1.00,1748,478,1736,427,98377,0
patternOccur-10,true,1.00,1392,521,1383,478,73864,0
patternOccur-11,true,1.00,3144,509,3141,455,171804,0
patternOccur-12,true,1.00,1936,479,1922,413,112205,0
patternOccur-13,true,1.00,1053,437,1040,401,55632,0
patternOccur-14,true,1.00,3256,462,3244,412,180800,0
patternOccur-15,true,1.00,1279,422,1273,386,71501,0
patternOccur-16,true,1.00,4371,505,4365,435,234839,0
patternOccur-17,true,1.00,1567,491,1562,453,86613,0
patternOccur-18,true,1.00,1417,489,1410,447,75764,0
patternOccur-19,false,0.83,3805,431,3800,431,204660,0
patternOccur-20,true,1.00,1821,487,1809,450,102023,0
patternOccur-21,true,1.00,1080,474,1074,429,58279,0
patternOccur-22,true,1.00,4688,533,4667,497,256292,0
patternOccur-23,true,1.00,1962,490,1952,448,111593,0
patternOccur-24,true,1.00,1781,511,1770,472,100168,0
patternOccur-25,true,1.00,1639,517,1627,472,92480,0
patternOccur-26,true,1.00,957,448,947,412,50563,0
patternOccur-27,true,1.00,3765,497,3761,439,206137,0
patternOccur-28,true,1.00,1749,521,1741,472,98125,0
patternOccur-29,true,1.00,1307,436,1299,391,72427,0
patternOccur-30,true,1.00,1227,496,1211,458,64802,0
patternOccur-31,false,0.80,3026,405,3022,405,177756,0
patternOccur-32,true,1.00,4809,533,4798,480,265123,0
patternOccur-33,true,1.00,1446,516,1436,469,77957,0
patternOccur-34,true,1.00,1369,483,1353,436,74789,0
patternOccur-35,true,1.00,1050,436,1041,380,55156,0
patternOccur-36,true,1.00,2831,500,2822,458,162335,0
patternOccur-37,true,1.00,4407,580,4393,493,190095,0
patternOccur-38,true,1.00,1777,478,1767,442,101214,0
patternOccur-39,true,1.00,3015,446,3009,401,166119,0
patternOccur-40,true,1.00,1780,474,1768,419,102539,0
patternOccur-41,true,1.00,1644,484,1636,433,95622,0
patternOccur-42,false,0.89,4167,460,4164,460,228899,0
patternOccur-43,true,1.00,1254,454,1245,418,69265,0
patternOccur-44,true,1.00,1429,431,1416,392,82826,0
patternOccur-45,true,1.00,1863,454,1850,418,103056,0
patternOccur-46,true,1.00,1383,461,1365,424,76487,0
patternOccur-47,true,1.00,2831,481,2821,420,158269,0
patternOccur-48,true,1.00,1672,468,1665,431,95837,0
patternOccur-49,true,1.00,1373,431,1363,394,72935,0
patternOccur-50,true,1.00,2253,511,2247,462,125632,0
patternOccur-51,true,1.00,1798,521,1791,463,99255,0
patternOccur-52,true,1.00,1696,452,1688,391,91933,0
patternOccur-53,true,1.00,1719,448,1709,411,95050,0
patternOccur-54,true,1.00,2256,478,2246,417,131117,0
patternOccur-55,true,1.00,2000,446,1993,410,114046,0
patternOccur-56,true,1.00,1638,514,1628,477,89877,0
patternOccur-57,true,1.00,2011,518,2000,472,112855,0
patternOccur-58,true,1.00,5415,548,5403,505,295951,0
patternOccur-59,true,1.00,1844,518,1830,471,105130,0
patternOccur-60,true,1.00,3797,517,3786,451,211053,0
patternOccur-61,true,1.00,1301,448,1284,411,71847,0
patternOccur-62,true,1.00,1655,471,1646,434,91008,0
patternOccur-63,true,1.00,1658,492,1645,431,94256,0
patternOccur-64,true,1.00,2184,566,2170,506,120953,0
patternOccur-65,true,1.00,1417,478,1407,439,76257,0
patternOccur-66,true,1.00,1740,465,1730,426,97344,0
patternOccur-67,false,0.89,3577,450,3564,450,186725,0
patternOccur-68,true,1.00,1465,511,1452,474,77724,0
patternOccur-69,true,1.00,3865,536,3850,476,203162,0
patternOccur-70,true,1.00,4917,543,4908,496,241352,0
patternOccur-71,true,1.00,2273,493,2264,436,132606,0
patternOccur-72,true,1.00,3870,492,3859,449,193535,0
patternOccur-73,true,1.00,5309,564,5299,503,299627,0
patternOccur-74,true,1.00,3236,480,3226,416,180976,0
patternOccur-75,true,1.00,2287,454,2280,413,126840,0
patternOccur-76,true,1.00,2082,481,2062,445,117105,0
patternOccur-77,true,1.00,1270,475,1261,439,65372,0
patternOccur-78,true,1.00,907,467,897,431,47102,0
patternOccur-79,true,1.00,1551,516,1539,479,88170,0
patternOccur-80,true,1.00,3189,524,3173,449,180330,0
patternOccur-81,true,1.00,4826,498,4815,457,272789,0
patternOccur-82,true,1.00,2674,494,2664,455,151766,0
patternOccur-83,false,0.82,3995,426,3987,426,204258,0
patternOccur-84,true,1.00,1498,464,1491,428,83778,0
patternOccur-85,true,1.00,2422,475,2411,438,137741,0
patternOccur-86,true,1.00,2961,425,2954,376,161404,0
patternOccur-87,true,1.00,1143,500,1133,454,62081,0
patternOccur-88,true,1.00,1231,458,1223,412,68921,0
patternOccur-89,true,1.00,1525,499,1518,459,84062,0
patternOccur-90,true,1.00,2160,530,2149,488,126117,0
patternOccur-91,true,1.00,1313,460,1302,411,70811,0
patternOccur-92,true,1.00,983,428,975,392,52090,0
patternOccur-93,true,1.00,1586,478,1575,427,86559,0
patternOccur-94,true,1.00,4286,497,4278,435,219643,0
patternOccur-95,true,1.00,1728,499,1713,460,95331,0
patternOccur-96,true,1.00,3179,477,3167,441,165694,0
patternOccur-97,true,1.00,2334,481,2318,426,127442,0
patternOccur-98,false,0.90,4298,526,4287,526,223411,0
patternOccur-99,true,1.00,1095,490,1083,448,57581,0
patternOccur-100,true,1.00,1651,476,1644,440,91557,0
