NDW:0.0
TTFW:0.2
DFPT:2.0
DFPAP:3.0
DFPMP:10.0
RIGHT_WINDOW_BORDER_X:235.0
level,win/fail,% travelled,run time,game ticks,planning time,total plannings,nodes evaluated,most backtracked nodes
Mario-1,true,1.00,2815,329,2814,297,169819,0
Mario-2,true,1.00,3510,298,3508,277,199666,0
Mario-3,true,1.00,3052,259,3052,238,211293,0
Mario-4,true,1.00,5854,416,5853,383,324969,0
Mario-5,true,1.00,5471,389,5468,353,296512,0
Mario-6,true,1.00,2261,228,2258,207,156042,0
Mario-7,true,1.00,5439,416,5435,384,327626,0
Mario-8,true,1.00,5082,385,5080,362,286839,0
Mario-9,true,1.00,3706,352,3704,321,216860,0
Mario-10,true,1.00,2582,248,2580,227,180623,0
Mario-11,true,1.00,4264,352,4262,320,250381,0
Mario-12,true,1.00,10063,561,10060,525,556697,0
Mario-13,true,1.00,2776,257,2774,236,202483,0
Mario-14,true,1.00,3413,322,3409,287,193800,0
Mario-15,true,1.00,10971,784,10966,740,628176,0
