NDW:0.0
TTFW:0.4
DFPT:2.0
DFPAP:3.0
DFPMP:7.0
RIGHT_WINDOW_BORDER_X:235.0
level,win/fail,% travelled,run time,game ticks,planning time,total plannings,nodes evaluated,most backtracked nodes
ore-1,true,1.00,1465,383,1462,361,128451,0
ore-2,false,0.70,3812,316,3811,316,291976,0
ore-3,true,1.00,1532,355,1529,334,128413,0
ore-4,true,1.00,1741,375,1739,348,143161,0
ore-5,true,1.00,1985,399,1983,378,166681,0
ore-6,true,1.00,2096,370,2094,344,174880,0
ore-7,true,1.00,1249,353,1247,332,111285,0
ore-8,true,1.00,2470,392,2468,370,209311,0
ore-9,true,1.00,1520,349,1519,323,129964,0
ore-10,false,0.55,814,217,814,217,67975,0
ore-11,true,1.00,1505,354,1505,333,130029,0
ore-12,true,1.00,1536,378,1533,356,128700,0
ore-13,true,1.00,1836,408,1833,382,153000,0
ore-14,true,1.00,1607,353,1606,332,136637,0
ore-15,true,1.00,2459,380,2456,353,207764,0
ore-16,true,1.00,1664,372,1660,348,146112,0
ore-17,true,1.00,1268,322,1266,294,115273,0
ore-18,true,1.00,1634,376,1631,349,136086,0
ore-19,true,1.00,1842,384,1840,362,150087,0
ore-20,true,1.00,2555,410,2551,388,203266,0
ore-21,true,1.00,2042,370,2040,349,172919,0
ore-22,true,1.00,1683,350,1679,327,144644,0
ore-23,true,1.00,1565,344,1562,322,141002,0
ore-24,true,1.00,1458,366,1457,344,126106,0
ore-25,true,1.00,1717,350,1714,321,148433,0
ore-26,true,1.00,1824,403,1820,382,148597,0
ore-27,true,1.00,1848,370,1846,348,156619,0
ore-28,true,1.00,1681,412,1677,386,138201,0
ore-29,true,1.00,2282,433,2278,409,186077,0
ore-30,true,1.00,1285,333,1282,311,109290,0
ore-31,true,1.00,1833,360,1831,338,150812,0
ore-32,true,1.00,1489,373,1485,348,119517,0
ore-33,true,1.00,2068,388,2067,362,170128,0
ore-34,true,1.00,1626,384,1622,362,135720,0
ore-35,true,1.00,1820,398,1817,376,156183,0
ore-36,true,1.00,1629,398,1627,368,137947,0
ore-37,true,1.00,1223,350,1221,329,103397,0
ore-38,true,1.00,1408,318,1405,290,126070,0
ore-39,true,1.00,1542,356,1536,335,128152,0
ore-40,true,1.00,1832,365,1832,342,151214,0
ore-41,true,1.00,1540,342,1536,320,133644,0
ore-42,true,1.00,1980,384,1979,362,160095,0
ore-43,true,1.00,1495,381,1493,359,127754,0
ore-44,true,1.00,1703,355,1701,328,151937,0
ore-45,true,1.00,3228,435,3223,409,266575,0
ore-46,true,1.00,1709,351,1708,330,147784,0
ore-47,true,1.00,2594,436,2594,415,203075,0
ore-48,true,1.00,1553,396,1549,374,130774,0
ore-49,true,1.00,1376,366,1373,340,116931,0
ore-50,true,1.00,1679,356,1674,330,143539,0
ore-51,true,1.00,1433,359,1430,338,129975,0
ore-52,true,1.00,2042,358,2040,336,175885,0
ore-53,true,1.00,1468,386,1464,365,117675,0
ore-54,true,1.00,2346,418,2344,392,193182,0
ore-55,true,1.00,1268,338,1266,316,111273,0
ore-56,true,1.00,1286,348,1281,326,111291,0
ore-57,true,1.00,2878,418,2877,391,228884,0
ore-58,true,1.00,2123,348,2121,325,186620,0
ore-59,true,1.00,1670,371,1670,350,144571,0
ore-60,true,1.00,2402,396,2399,374,199200,0
ore-61,true,1.00,1639,377,1635,348,134008,0
ore-62,true,1.00,1947,350,1945,328,173437,0
ore-63,true,1.00,2010,381,2006,360,167570,0
ore-64,true,1.00,1525,375,1523,349,130139,0
ore-65,true,1.00,2299,390,2296,369,195570,0
ore-66,true,1.00,1670,386,1668,361,140793,0
ore-67,true,1.00,1600,357,1599,335,136529,0
ore-68,true,1.00,1323,306,1322,284,118934,0
ore-69,true,1.00,2103,369,2099,348,169321,0
ore-70,true,1.00,1771,370,1768,349,151232,0
ore-71,true,1.00,1728,389,1726,368,150167,0
ore-72,true,1.00,1484,345,1483,324,129779,0
ore-73,true,1.00,1572,380,1571,342,133446,0
ore-74,true,1.00,2050,379,2049,357,162748,0
ore-75,true,1.00,2412,383,2408,361,202309,0
ore-76,true,1.00,1516,331,1514,300,139719,0
ore-77,true,1.00,1667,381,1665,357,140219,0
ore-78,true,1.00,1653,371,1651,348,145694,0
ore-79,true,1.00,1926,390,1918,369,156435,0
ore-80,true,1.00,1491,356,1489,335,128811,0
ore-81,true,1.00,3082,420,3080,398,259624,0
ore-82,true,1.00,2977,443,2973,417,243747,0
ore-83,true,1.00,2424,416,2422,394,207922,0
ore-84,true,1.00,2621,386,2621,365,198416,0
ore-85,true,1.00,1403,374,1399,352,117583,0
ore-86,true,1.00,1254,342,1251,316,114194,0
ore-87,true,1.00,1607,358,1600,337,132211,0
ore-88,true,1.00,1658,361,1656,340,144780,0
ore-89,true,1.00,2050,365,2049,341,169572,0
ore-90,true,1.00,1536,335,1533,314,137640,0
ore-91,true,1.00,1478,375,1476,353,125140,0
ore-92,true,1.00,1364,346,1360,325,117710,0
ore-93,false,0.14,1323,74,1323,74,97040,0
ore-94,true,1.00,1911,357,1911,331,155071,0
ore-95,true,1.00,1612,354,1608,333,133263,0
ore-96,true,1.00,1728,365,1723,344,143725,0
ore-97,true,1.00,1493,357,1490,334,125997,0
ore-98,true,1.00,1799,387,1797,361,154258,0
ore-99,true,1.00,1332,337,1327,314,117307,0
ore-100,true,1.00,2080,410,2075,386,176341,0
