NDW:0.0
TTFW:0.2
DFPT:2.0
DFPAP:3.0
DFPMP:7.0
RIGHT_WINDOW_BORDER_X:350.0
level,win/fail,% travelled,run time,game ticks,planning time,total plannings,nodes evaluated,most backtracked nodes
patternCount-1,false,0.88,8868,332,8868,332,556086,0
patternCount-2,true,1.00,7491,363,7489,331,430125,0
patternCount-3,true,1.00,8686,384,8685,346,522017,0
patternCount-4,true,1.00,7711,366,7710,334,449690,0
patternCount-5,true,1.00,6432,348,6431,316,378734,0
patternCount-6,true,1.00,5975,330,5972,298,341610,0
patternCount-7,true,1.00,7027,342,7025,310,409910,0
patternCount-8,true,1.00,9059,408,9057,368,551106,0
patternCount-9,true,1.00,6398,348,6398,316,386055,0
patternCount-10,true,1.00,4941,318,4941,286,285556,0
patternCount-11,true,1.00,8600,367,8596,317,508648,0
patternCount-12,true,1.00,5746,340,5745,308,335290,0
patternCount-13,true,1.00,5874,354,5869,322,345620,0
patternCount-14,true,1.00,5628,316,5626,284,327051,0
patternCount-15,true,1.00,7659,354,7658,322,441013,0
patternCount-16,true,1.00,6517,348,6515,316,378154,0
patternCount-17,true,1.00,8500,372,8497,340,481033,0
patternCount-18,true,1.00,7026,349,7025,317,406490,0
patternCount-19,true,1.00,5423,324,5421,292,318977,0
patternCount-20,true,1.00,6547,338,6547,306,375529,0
patternCount-21,true,1.00,5424,317,5423,285,311188,0
patternCount-22,true,1.00,9094,387,9093,343,548313,0
patternCount-23,true,1.00,11349,444,11347,391,723560,0
patternCount-24,true,1.00,10911,426,10911,388,694975,0
patternCount-25,true,1.00,6455,354,6452,322,373746,0
patternCount-26,true,1.00,5719,339,5718,307,337063,0
patternCount-27,true,1.00,6244,338,6241,307,363108,0
patternCount-28,true,1.00,5931,326,5930,294,346077,0
patternCount-29,true,1.00,6756,356,6756,324,390793,0
patternCount-30,true,1.00,6443,332,6439,300,368720,0
patternCount-31,true,1.00,6477,353,6471,321,385079,0
patternCount-32,true,1.00,9011,419,9008,387,542439,0
patternCount-33,true,1.00,10456,457,10454,410,642119,0
patternCount-34,true,1.00,7984,375,7984,340,480849,0
patternCount-35,true,1.00,7469,372,7466,340,424096,0
patternCount-36,true,1.00,7695,377,7694,345,464954,0
patternCount-37,true,1.00,5885,334,5882,302,352302,0
patternCount-38,true,1.00,6852,363,6849,325,418935,0
patternCount-39,true,1.00,7453,362,7453,330,436611,0
patternCount-40,true,1.00,10970,415,10970,381,660188,0
patternCount-41,true,1.00,8370,388,8369,356,495468,0
patternCount-42,true,1.00,8290,385,8288,353,481137,0
patternCount-43,true,1.00,5978,346,5975,314,344846,0
patternCount-44,true,1.00,5357,324,5354,292,311233,0
patternCount-45,true,1.00,7333,348,7332,316,422580,0
patternCount-46,true,1.00,8593,379,8592,347,504195,0
patternCount-47,true,1.00,7206,344,7204,312,427637,0
patternCount-48,true,1.00,7066,359,7063,327,405587,0
patternCount-49,true,1.00,6166,346,6163,314,364321,0
patternCount-50,true,1.00,10446,410,10446,369,628586,0
patternCount-51,true,1.00,6467,365,6463,329,382127,0
patternCount-52,true,1.00,5061,322,5058,291,288938,0
patternCount-53,true,1.00,7294,356,7292,312,441415,0
patternCount-54,true,1.00,7706,360,7704,328,441799,0
patternCount-55,true,1.00,9027,393,9027,342,599352,0
patternCount-56,true,1.00,6693,335,6692,303,393414,0
patternCount-57,true,1.00,5696,334,5694,302,328892,0
patternCount-58,false,0.80,8256,307,8255,307,491247,0
patternCount-59,true,1.00,7279,357,7278,325,425982,0
patternCount-60,true,1.00,7148,358,7147,326,423445,0
patternCount-61,true,1.00,7825,391,7823,354,470032,0
patternCount-62,true,1.00,6468,336,6466,304,376678,0
patternCount-63,true,1.00,7025,342,7023,310,401917,0
patternCount-64,true,1.00,5166,320,5166,288,303971,0
patternCount-65,true,1.00,6344,348,6339,314,363946,0
patternCount-66,true,1.00,7954,387,7949,355,463287,0
patternCount-67,true,1.00,7175,352,7173,320,417068,0
patternCount-68,true,1.00,6608,368,6608,336,381556,0
patternCount-69,true,1.00,6403,334,6400,302,370385,0
patternCount-70,true,1.00,7679,354,7678,322,432896,0
patternCount-71,true,1.00,6806,360,6803,328,405591,0
patternCount-72,true,1.00,8534,358,8533,321,517976,0
patternCount-73,true,1.00,8248,360,8244,326,483716,0
patternCount-74,true,1.00,8732,380,8729,334,542286,0
patternCount-75,true,1.00,6404,358,6401,315,369839,0
patternCount-76,true,1.00,6807,344,6807,312,390257,0
patternCount-77,true,1.00,6498,341,6494,309,376219,0
patternCount-78,true,1.00,7255,336,7254,304,415270,0
patternCount-79,true,1.00,9164,376,9161,333,562422,0
patternCount-80,true,1.00,9084,421,9082,371,542037,0
patternCount-81,true,1.00,6704,344,6703,312,386104,0
patternCount-82,true,1.00,5938,324,5938,292,340734,0
patternCount-83,true,1.00,6830,362,6828,330,399243,0
patternCount-84,true,1.00,7922,366,7921,334,461397,0
patternCount-85,true,1.00,7877,366,7876,334,451922,0
patternCount-86,true,1.00,6175,332,6173,300,355935,0
patternCount-87,true,1.00,6741,340,6741,308,383804,0
patternCount-88,true,1.00,7581,372,7579,335,438866,0
patternCount-89,true,1.00,5801,328,5801,296,333126,0
patternCount-90,true,1.00,9025,384,9024,352,505305,0
patternCount-91,false,0.76,6528,283,6528,283,381421,0
patternCount-92,true,1.00,7120,356,7117,324,403096,0
patternCount-93,true,1.00,9315,381,9313,337,566059,0
patternCount-94,true,1.00,7481,363,7480,326,431902,0
patternCount-95,true,1.00,7312,353,7309,321,428330,0
patternCount-96,true,1.00,6888,380,6886,348,421473,0
patternCount-97,false,0.88,7795,318,7794,318,485011,0
patternCount-98,true,1.00,6808,340,6807,308,398535,0
patternCount-99,true,1.00,5537,334,5537,302,327889,0
patternCount-100,true,1.00,6267,341,6266,309,363602,0
