NDW:0.0
TTFW:0.8
DFPT:2.0
DFPAP:3.0
DFPMP:0.0
RIGHT_WINDOW_BORDER_X:135.0
level,win/fail,% travelled,run time,game ticks,planning time,total plannings,nodes evaluated,most backtracked nodes
ore-1,true,1.00,2061,419,2055,405,132693,0
ore-2,false,0.70,3119,337,3115,337,178219,0
ore-3,true,1.00,1317,412,1311,397,83464,0
ore-4,true,1.00,3277,472,3269,459,211429,0
ore-5,true,1.00,2487,449,2478,436,161000,0
ore-6,true,1.00,1952,452,1944,438,123528,0
ore-7,true,1.00,2007,409,2001,397,129025,0
ore-8,false,0.66,6304,440,6296,440,360395,0
ore-9,true,1.00,1309,389,1301,373,82424,0
ore-10,true,1.00,1742,423,1735,411,115388,0
ore-11,true,1.00,3125,509,3111,495,202784,0
ore-12,false,0.45,4970,327,4964,327,279496,0
ore-13,true,1.00,2311,432,2291,420,80667,0
ore-14,true,1.00,1645,420,1639,407,105050,0
ore-15,true,1.00,2946,451,2940,437,185270,0
ore-16,true,1.00,1206,377,1199,364,80596,0
ore-17,true,1.00,1406,457,1400,443,93992,0
ore-18,true,1.00,1660,424,1650,411,109290,0
ore-19,true,1.00,1897,424,1890,411,121957,0
ore-20,true,1.00,3010,444,3001,432,193942,0
ore-21,true,1.00,2562,448,2555,436,165692,0
ore-22,false,0.94,3885,455,3873,455,201065,0
ore-23,false,0.82,1384,343,1368,343,46208,0
ore-24,true,1.00,1917,455,1900,441,65920,0
ore-25,true,1.00,2074,467,2067,454,114104,0
ore-26,true,1.00,5871,563,5857,543,212640,0
ore-27,true,1.00,2468,473,2457,461,154169,0
ore-28,true,1.00,1426,414,1420,402,87406,0
ore-29,true,1.00,1795,418,1786,406,115335,0
ore-30,true,1.00,1518,416,1506,403,96752,0
ore-31,true,1.00,1429,417,1414,397,93228,0
ore-32,true,1.00,1365,407,1360,387,88469,0
ore-33,true,1.00,2075,488,2062,475,139436,0
ore-34,true,1.00,3077,544,3070,532,196496,0
ore-35,true,1.00,2326,423,2319,411,150747,0
ore-36,true,1.00,2148,440,2139,427,134539,0
ore-37,false,0.33,2271,183,2265,183,117456,0
ore-38,true,1.00,3074,482,3066,468,197189,0
ore-39,true,1.00,1557,427,1548,414,101528,0
ore-40,true,1.00,2676,472,2663,459,166093,0
ore-41,true,1.00,3575,530,3567,518,222579,0
ore-42,true,1.00,2698,458,2687,444,169925,0
ore-43,true,1.00,1564,433,1554,421,98860,0
ore-44,true,1.00,2548,493,2541,478,166855,0
ore-45,false,0.74,21421,999,21417,999,891814,0
ore-46,false,0.12,2564,118,2563,118,142857,0
ore-47,false,0.83,4011,446,4001,446,242743,0
ore-48,true,1.00,1752,402,1742,389,114431,0
ore-49,true,1.00,1281,409,1272,396,80251,0
ore-50,true,1.00,1729,432,1718,420,108257,0
ore-51,true,1.00,2251,478,2241,465,150207,0
ore-52,true,1.00,2250,423,2237,411,143481,0
ore-53,true,1.00,3316,474,3306,461,198895,0
ore-54,false,0.71,2138,336,2132,336,125812,0
ore-55,true,1.00,2826,466,2820,452,185388,0
ore-56,true,1.00,1379,432,1369,418,86736,0
ore-57,true,1.00,2193,466,2186,445,142271,0
ore-58,true,1.00,1758,420,1745,407,112567,0
ore-59,true,1.00,2262,462,2254,450,139940,0
ore-60,true,1.00,2323,439,2312,424,145083,0
ore-61,true,1.00,3364,518,3329,503,209687,0
ore-62,true,1.00,2749,483,2736,471,179562,0
ore-63,true,1.00,1731,430,1723,417,109111,0
ore-64,true,1.00,1113,384,1109,371,71225,0
ore-65,true,1.00,2945,453,2940,432,183087,0
ore-66,true,1.00,2740,428,2736,415,174399,0
ore-67,true,1.00,1771,441,1763,428,108681,0
ore-68,true,1.00,1389,427,1379,413,86262,0
ore-69,true,1.00,3793,519,3785,506,248977,0
ore-70,false,0.92,5651,499,5644,499,331104,0
ore-71,true,1.00,1851,414,1843,402,119445,0
ore-72,true,1.00,2031,451,2021,438,134964,0
ore-73,true,1.00,2457,474,2450,460,163289,0
ore-74,true,1.00,2471,473,2457,452,153760,0
ore-75,true,1.00,2252,499,2243,487,142035,0
ore-76,true,1.00,2657,472,2649,459,176188,0
ore-77,true,1.00,4122,480,4113,468,265887,0
ore-78,true,1.00,2399,435,2392,423,154025,0
ore-79,true,1.00,1403,406,1395,394,88031,0
ore-80,true,1.00,1578,400,1569,388,98875,0
ore-81,true,1.00,3031,488,3020,476,195770,0
ore-82,true,1.00,2719,461,2715,444,173435,0
ore-83,true,1.00,2764,471,2756,459,176685,0
ore-84,false,0.13,1864,102,1863,102,87547,0
ore-85,true,1.00,1263,424,1253,408,79499,0
ore-86,true,1.00,3726,481,3716,466,242568,0
ore-87,true,1.00,1213,390,1202,370,77566,0
ore-88,true,1.00,1569,394,1563,382,103643,0
ore-89,true,1.00,2092,424,2084,412,137014,0
ore-90,true,1.00,2583,482,2572,470,167395,0
ore-91,true,1.00,2201,482,2192,469,143078,0
ore-92,true,1.00,1667,394,1662,381,107502,0
ore-93,false,0.13,1106,78,1106,78,64436,0
ore-94,true,1.00,1853,444,1844,431,118885,0
ore-95,true,1.00,2769,474,2759,462,172887,0
ore-96,true,1.00,1983,425,1977,413,130517,0
ore-97,true,1.00,3041,510,3027,496,192094,0
ore-98,true,1.00,3026,467,3011,451,192907,0
ore-99,true,1.00,1619,423,1611,399,106492,0
ore-100,true,1.00,3498,470,3492,458,232223,0
