NDW:0.0
TTFW:1.6
DFPT:2.0
DFPAP:3.0
DFPMP:3.0
RIGHT_WINDOW_BORDER_X:155.0
level,win/fail,% travelled,run time,game ticks,planning time,total plannings,nodes evaluated,most backtracked nodes
patternOccur-1,true,1.00,850,504,847,490,101473,0
patternOccur-2,true,1.00,726,459,721,445,87617,0
patternOccur-3,true,1.00,1418,490,1416,476,179579,0
patternOccur-4,true,1.00,1049,477,1046,463,133823,0
patternOccur-5,true,1.00,1030,497,1025,483,130905,0
patternOccur-6,true,1.00,1665,488,1662,474,208892,0
patternOccur-7,true,1.00,1470,523,1470,509,181152,0
patternOccur-8,true,1.00,1796,494,1793,480,216334,0
patternOccur-9,true,1.00,2088,549,2084,535,242439,0
patternOccur-10,true,1.00,1397,508,1393,492,178984,0
patternOccur-11,false,0.92,5032,584,5031,584,514932,0
patternOccur-12,true,1.00,1870,520,1868,504,232780,0
patternOccur-13,true,1.00,1569,516,1565,502,200066,0
patternOccur-14,true,1.00,4527,538,4527,509,479686,0
patternOccur-15,true,1.00,1631,464,1629,450,198713,0
patternOccur-16,true,1.00,5435,584,5431,570,569694,0
patternOccur-17,true,1.00,2183,543,2179,529,263043,0
patternOccur-18,true,1.00,986,483,985,469,121798,0
patternOccur-19,false,0.82,6840,628,6837,628,803078,0
patternOccur-20,true,1.00,1207,528,1203,514,149711,0
patternOccur-21,true,1.00,1668,532,1663,518,211808,0
patternOccur-22,false,0.84,5641,547,5640,547,617866,0
patternOccur-23,true,1.00,1757,510,1750,496,210465,0
patternOccur-24,true,1.00,936,491,934,477,119665,0
patternOccur-25,true,1.00,1748,533,1740,519,210515,0
patternOccur-26,true,1.00,1121,479,1118,465,133441,0
patternOccur-27,false,0.90,2684,496,2682,496,301861,0
patternOccur-28,true,1.00,1324,518,1322,504,165229,0
patternOccur-29,true,1.00,827,422,825,398,97478,0
patternOccur-30,true,1.00,985,483,984,469,120855,0
patternOccur-31,false,0.78,3880,466,3878,466,416763,0
patternOccur-32,false,0.93,4789,617,4785,617,526038,0
patternOccur-33,true,1.00,1299,537,1296,523,161563,0
patternOccur-34,true,1.00,1473,507,1469,491,183245,0
patternOccur-35,true,1.00,871,513,867,499,106466,0
patternOccur-36,true,1.00,4219,614,4217,598,482360,0
patternOccur-37,true,1.00,5392,595,5385,580,581146,0
patternOccur-38,true,1.00,964,518,960,504,121754,0
patternOccur-39,false,0.80,3369,492,3367,492,374194,0
patternOccur-40,true,1.00,1752,490,1747,476,214246,0
patternOccur-41,true,1.00,1516,528,1516,504,196780,0
patternOccur-42,false,0.88,3387,526,3385,526,377980,0
patternOccur-43,true,1.00,1529,487,1525,473,198833,0
patternOccur-44,true,1.00,1466,468,1462,454,185210,0
patternOccur-45,true,1.00,5456,567,5453,552,560001,0
patternOccur-46,true,1.00,805,458,799,444,98535,0
patternOccur-47,false,0.86,3662,487,3660,487,416457,0
patternOccur-48,true,1.00,2027,503,2026,489,255972,0
patternOccur-49,true,1.00,1218,480,1216,466,154258,0
patternOccur-50,true,1.00,1876,512,1873,498,225202,0
patternOccur-51,true,1.00,1896,601,1892,586,242228,0
patternOccur-52,true,1.00,978,457,976,443,123116,0
patternOccur-53,true,1.00,1312,452,1307,438,151156,0
patternOccur-54,true,1.00,3706,552,3701,527,440770,0
patternOccur-55,true,1.00,1864,474,1863,460,225058,0
patternOccur-56,true,1.00,1588,499,1587,485,189514,0
patternOccur-57,true,1.00,1997,531,1995,513,245347,0
patternOccur-58,false,0.92,6839,670,6835,670,716398,0
patternOccur-59,true,1.00,1282,523,1277,509,155662,0
patternOccur-60,true,1.00,5436,618,5429,592,560954,0
patternOccur-61,true,1.00,1598,498,1594,483,207232,0
patternOccur-62,true,1.00,1313,466,1308,452,156462,0
patternOccur-63,true,1.00,1764,517,1760,501,222832,0
patternOccur-64,true,1.00,1781,536,1778,520,220640,0
patternOccur-65,true,1.00,874,501,871,487,112012,0
patternOccur-66,true,1.00,1560,502,1557,488,194877,0
patternOccur-67,true,1.00,2612,560,2609,546,328651,0
patternOccur-68,true,1.00,928,531,922,517,113895,0
patternOccur-69,true,1.00,5807,602,5803,586,588837,0
patternOccur-70,false,0.87,8821,620,8817,620,1013617,0
patternOccur-71,true,1.00,2522,532,2521,518,330209,0
patternOccur-72,false,0.86,2944,470,2940,470,315687,0
patternOccur-73,false,0.87,3290,541,3288,541,365464,0
patternOccur-74,true,1.00,5010,558,5005,533,503655,0
patternOccur-75,true,1.00,2120,499,2119,473,235297,0
patternOccur-76,true,1.00,1408,481,1405,467,175177,0
patternOccur-77,true,1.00,909,476,905,462,112468,0
patternOccur-78,true,1.00,694,439,692,425,83860,0
patternOccur-79,true,1.00,1314,491,1310,477,173028,0
patternOccur-80,false,0.88,18056,999,18054,999,1846583,0
patternOccur-81,true,1.00,4115,572,4112,528,445320,0
patternOccur-82,false,0.95,3603,560,3599,560,361035,0
patternOccur-83,true,1.00,832,526,830,512,110412,0
patternOccur-84,true,1.00,1270,487,1268,473,149073,0
patternOccur-85,false,0.92,2873,548,2870,548,320712,0
patternOccur-86,true,1.00,5633,575,5632,558,560203,0
patternOccur-87,true,1.00,1083,520,1079,506,133840,0
patternOccur-88,true,1.00,1402,496,1395,482,169305,0
patternOccur-89,true,1.00,1732,517,1730,503,193770,0
patternOccur-90,true,1.00,1686,543,1683,529,216119,0
patternOccur-91,true,1.00,1890,498,1881,482,173924,0
patternOccur-92,true,1.00,1162,461,1159,447,142619,0
patternOccur-93,true,1.00,1267,486,1266,472,126700,0
patternOccur-94,false,0.83,19080,999,19077,999,1642776,0
patternOccur-95,true,1.00,1464,503,1460,489,193060,0
patternOccur-96,false,0.86,2648,454,2647,454,281164,0
patternOccur-97,true,1.00,1945,481,1939,467,252270,0
patternOccur-98,false,0.90,5694,606,5692,606,576178,0
patternOccur-99,true,1.00,444,451,440,437,57630,0
patternOccur-100,true,1.00,1096,474,1093,460,129454,0
