NDW:0.0
TTFW:1.4
DFPT:2.0
DFPAP:3.0
DFPMP:10.0
RIGHT_WINDOW_BORDER_X:75.0
level,win/fail,% travelled,run time,game ticks,planning time,total plannings,nodes evaluated,most backtracked nodes
notchParam-1,false,0.36,1885,194,1884,194,110924,0
notchParam-2,false,0.36,3889,233,3884,233,248210,0
notchParam-3,true,1.00,2646,462,2642,455,162199,0
notchParam-4,true,1.00,1461,423,1454,413,86320,0
notchParam-5,true,1.00,1736,410,1726,402,103753,0
notchParam-6,true,1.00,1375,392,1369,386,80619,0
notchParam-7,false,0.36,3888,241,3886,241,253558,0
notchParam-8,false,0.56,1000,271,994,271,64062,0
notchParam-9,false,0.17,49,75,48,75,2994,0
notchParam-10,true,1.00,7524,656,7514,648,318923,0
notchParam-11,true,1.00,3243,464,3233,455,158332,0
notchParam-12,false,0.83,7688,556,7681,556,431532,0
notchParam-13,true,1.00,352,369,346,362,22197,0
notchParam-14,true,1.00,424,350,415,343,25817,0
notchParam-15,false,0.36,3375,261,3372,261,195467,0
notchParam-16,false,0.37,3766,247,3762,247,243057,0
notchParam-17,false,0.37,1522,178,1521,178,92596,0
notchParam-18,true,1.00,1461,416,1453,410,94401,0
notchParam-19,true,1.00,319,345,306,338,20489,0
notchParam-20,true,1.00,1019,367,1015,360,60605,0
notchParam-21,true,1.00,283,326,277,319,16701,0
notchParam-22,true,1.00,636,377,633,371,41476,0
notchParam-23,true,1.00,9368,746,9358,739,588680,0
notchParam-24,true,1.00,12282,783,12272,776,744680,0
notchParam-25,false,0.68,8559,552,8552,552,470779,0
notchParam-26,false,0.55,2282,284,2272,284,75109,0
notchParam-27,true,1.00,365,357,358,350,17565,0
notchParam-28,true,1.00,1601,428,1593,421,94887,0
notchParam-29,true,1.00,2159,445,2152,439,130551,0
notchParam-30,true,1.00,358,336,351,329,22181,0
notchParam-31,false,0.37,1755,183,1751,183,104858,0
notchParam-32,false,0.37,1525,178,1522,178,92032,0
notchParam-33,true,1.00,732,361,722,355,44360,0
notchParam-34,false,0.37,2256,212,2255,212,133226,0
notchParam-35,false,0.37,3333,224,3331,224,204780,0
notchParam-36,false,0.37,1522,178,1518,178,91711,0
notchParam-37,true,1.00,358,336,353,329,21448,0
notchParam-38,true,1.00,298,363,293,357,19142,0
notchParam-39,false,0.36,4492,261,4491,261,227166,0
notchParam-40,true,1.00,2178,414,2168,407,130063,0
notchParam-41,false,0.55,396,209,387,209,23899,0
notchParam-42,true,1.00,324,352,322,346,21563,0
notchParam-43,false,0.31,3612,242,3608,242,212655,0
notchParam-44,true,1.00,8095,644,8086,638,488315,0
notchParam-45,false,0.31,4797,294,4794,294,289196,0
notchParam-46,false,0.70,6976,561,6968,561,401576,0
notchParam-47,true,1.00,1025,361,1013,354,67994,0
notchParam-48,true,1.00,471,368,467,362,30635,0
notchParam-49,true,1.00,927,382,918,374,58645,0
notchParam-50,true,1.00,334,350,324,344,19731,0
notchParam-51,true,1.00,1136,380,1134,374,66336,0
notchParam-52,false,0.37,3431,228,3429,228,213920,0
notchParam-53,false,0.36,1988,193,1985,193,128468,0
notchParam-54,false,0.37,3351,248,3348,248,197519,0
notchParam-55,true,1.00,585,397,577,391,37816,0
notchParam-56,true,1.00,371,364,367,358,22958,0
notchParam-57,false,0.70,8462,558,8452,558,425550,0
notchParam-58,false,0.17,51,81,50,81,3375,0
notchParam-59,true,1.00,5375,601,5370,588,327714,0
notchParam-60,true,1.00,1692,423,1683,416,105638,0
notchParam-61,false,0.31,3310,236,3307,236,209715,0
notchParam-62,false,0.36,2242,188,2240,188,123069,0
notchParam-63,true,1.00,1239,394,1232,388,75271,0
notchParam-64,true,1.00,857,385,852,379,51047,0
notchParam-65,true,1.00,1515,403,1509,396,93376,0
notchParam-66,true,1.00,1548,410,1541,404,93208,0
notchParam-67,false,0.37,3069,220,3068,220,200774,0
notchParam-68,false,0.37,2259,212,2257,212,131895,0
notchParam-69,false,0.36,2770,215,2767,215,149777,0
notchParam-70,false,0.37,3400,226,3397,226,208022,0
notchParam-71,true,1.00,1636,443,1628,437,101658,0
notchParam-72,true,1.00,1816,416,1811,410,112151,0
notchParam-73,false,0.68,1752,288,1746,288,107608,0
notchParam-74,true,1.00,1979,458,1974,452,119121,0
notchParam-75,true,1.00,2463,466,2460,460,154596,0
notchParam-76,false,0.31,2844,229,2836,229,174922,0
notchParam-77,true,1.00,2131,469,2119,459,130256,0
notchParam-78,false,0.82,4003,490,3995,490,236322,0
notchParam-79,false,0.43,1411,220,1406,220,85856,0
notchParam-80,true,1.00,299,381,291,375,19836,0
notchParam-81,true,1.00,1536,397,1528,388,94115,0
notchParam-82,true,1.00,346,341,342,334,21311,0
notchParam-83,true,1.00,352,353,351,347,23160,0
notchParam-84,false,0.36,3150,271,3143,271,188761,0
notchParam-85,false,0.36,3889,233,3886,233,253011,0
notchParam-86,false,0.70,6466,466,6463,466,393875,0
notchParam-87,true,1.00,349,340,341,333,21173,0
notchParam-88,true,1.00,287,352,278,346,17789,0
notchParam-89,true,1.00,940,368,937,362,58300,0
notchParam-90,false,0.66,972,275,964,275,61441,0
notchParam-91,true,1.00,8451,645,8441,639,489700,0
notchParam-92,false,0.82,5383,499,5371,499,313745,0
notchParam-93,true,1.00,7367,616,7359,609,445296,0
notchParam-94,false,0.31,1223,160,1222,160,74358,0
notchParam-95,true,1.00,9045,667,9037,660,567702,0
notchParam-96,true,1.00,1634,425,1627,419,101560,0
notchParam-97,true,1.00,2518,450,2510,444,147915,0
notchParam-98,true,1.00,384,332,379,325,23694,0
notchParam-99,false,0.37,3403,226,3401,226,203833,0
notchParam-100,false,0.36,2222,185,2219,185,82086,0
