NDW:0.0
TTFW:0.4
DFPT:2.0
DFPAP:3.0
DFPMP:5.0
RIGHT_WINDOW_BORDER_X:135.0
level,win/fail,% travelled,run time,game ticks,planning time,total plannings,nodes evaluated,most backtracked nodes
ore-1,true,1.00,1742,451,1741,432,169534,0
ore-2,false,0.70,4369,404,4366,404,364330,0
ore-3,true,1.00,2877,500,2873,487,266673,0
ore-4,true,1.00,2115,444,2113,431,206216,0
ore-5,true,1.00,2886,469,2882,455,259949,0
ore-6,true,1.00,1564,421,1564,407,143742,0
ore-7,true,1.00,2792,439,2788,427,266130,0
ore-8,true,1.00,5397,596,5394,584,462679,0
ore-9,true,1.00,2254,399,2253,386,212440,0
ore-10,true,1.00,3164,483,3160,471,316219,0
ore-11,true,1.00,1785,434,1783,422,178373,0
ore-12,true,1.00,1858,469,1857,457,174445,0
ore-13,true,1.00,2912,494,2907,479,258016,0
ore-14,true,1.00,1568,443,1565,429,146237,0
ore-15,true,1.00,2565,417,2561,404,232145,0
ore-16,true,1.00,2068,420,2067,406,206601,0
ore-17,true,1.00,2471,435,2468,423,237429,0
ore-18,true,1.00,1450,424,1446,408,137410,0
ore-19,true,1.00,1869,449,1866,436,187857,0
ore-20,false,0.23,1554,181,1553,181,125501,0
ore-21,true,1.00,3219,489,3217,475,305568,0
ore-22,true,1.00,2344,423,2342,409,219588,0
ore-23,true,1.00,1955,414,1949,397,198970,0
ore-24,true,1.00,2548,456,2546,443,240813,0
ore-25,true,1.00,2869,446,2869,432,271659,0
ore-26,true,1.00,2373,468,2371,451,213610,0
ore-27,true,1.00,1688,416,1683,403,160782,0
ore-28,true,1.00,3190,512,3188,500,293286,0
ore-29,true,1.00,1740,411,1738,398,167235,0
ore-30,true,1.00,1594,437,1588,424,145837,0
ore-31,true,1.00,1619,388,1616,368,159293,0
ore-32,true,1.00,1827,446,1822,433,173737,0
ore-33,true,1.00,1501,438,1499,425,140236,0
ore-34,true,1.00,3109,525,3104,512,283546,0
ore-35,true,1.00,2883,500,2880,487,280622,0
ore-36,true,1.00,1693,433,1692,411,165593,0
ore-37,false,0.34,1999,181,1997,181,156116,0
ore-38,true,1.00,3240,484,3235,469,266970,0
ore-39,true,1.00,1729,423,1725,410,152322,0
ore-40,true,1.00,2567,479,2563,466,208550,0
ore-41,true,1.00,1994,470,1986,456,187008,0
ore-42,true,1.00,2585,471,2581,458,230793,0
ore-43,true,1.00,3005,444,3002,432,294687,0
ore-44,true,1.00,2836,478,2833,463,273213,0
ore-45,false,0.74,23775,999,23774,999,1582658,0
ore-46,false,0.12,2796,135,2796,135,243034,0
ore-47,true,1.00,5353,629,5350,614,472689,0
ore-48,true,1.00,5833,614,5824,601,523422,0
ore-49,true,1.00,1768,447,1765,433,158842,0
ore-50,true,1.00,2617,477,2614,463,239430,0
ore-51,true,1.00,1867,434,1866,421,193406,0
ore-52,true,1.00,2996,516,2996,503,273276,0
ore-53,true,1.00,1838,434,1832,421,178926,0
ore-54,false,0.71,3450,399,3448,399,292298,0
ore-55,true,1.00,2630,445,2627,433,257994,0
ore-56,true,1.00,2227,425,2224,411,199735,0
ore-57,true,1.00,3410,496,3406,475,324392,0
ore-58,true,1.00,2139,429,2139,416,203102,0
ore-59,true,1.00,2510,411,2506,399,247801,0
ore-60,true,1.00,2358,479,2355,462,231967,0
ore-61,true,1.00,2339,465,2334,452,210147,0
ore-62,true,1.00,2220,441,2219,429,218250,0
ore-63,true,1.00,2266,448,2263,435,211938,0
ore-64,true,1.00,2463,430,2458,417,242339,0
ore-65,true,1.00,2363,447,2359,435,211900,0
ore-66,true,1.00,3358,478,3355,466,313524,0
ore-67,true,1.00,1924,447,1920,434,184884,0
ore-68,true,1.00,1376,419,1374,407,130745,0
ore-69,true,1.00,3823,516,3817,503,346351,0
ore-70,true,1.00,8430,682,8426,669,745388,0
ore-71,true,1.00,3361,503,3359,490,320215,0
ore-72,true,1.00,1290,436,1286,423,129325,0
ore-73,true,1.00,3375,469,3372,455,316996,0
ore-74,true,1.00,1926,422,1926,402,176594,0
ore-75,true,1.00,3324,512,3321,500,323725,0
ore-76,true,1.00,1951,432,1948,419,191697,0
ore-77,true,1.00,2359,523,2356,510,228002,0
ore-78,true,1.00,1973,433,1968,421,193163,0
ore-79,true,1.00,2148,434,2145,422,208109,0
ore-80,false,0.55,1299,330,1296,330,114909,0
ore-81,true,1.00,3919,510,3918,498,378414,0
ore-82,true,1.00,2342,459,2341,447,229894,0
ore-83,true,1.00,1923,411,1920,399,180517,0
ore-84,true,1.00,6216,583,6213,571,511705,0
ore-85,true,1.00,1389,440,1388,424,135232,0
ore-86,true,1.00,3654,510,3653,490,348569,0
ore-87,true,1.00,1283,451,1278,438,117095,0
ore-88,true,1.00,3155,479,3149,467,310144,0
ore-89,true,1.00,2460,455,2459,443,222137,0
ore-90,true,1.00,3023,535,3020,523,284449,0
ore-91,true,1.00,2205,439,2204,422,215234,0
ore-92,true,1.00,1614,431,1611,419,153312,0
ore-93,true,1.00,2246,406,2244,387,222036,0
ore-94,true,1.00,2707,452,2704,439,238172,0
ore-95,true,1.00,1906,459,1903,444,179635,0
ore-96,false,0.56,4806,424,4803,424,436592,0
ore-97,true,1.00,3430,552,3426,538,311291,0
ore-98,true,1.00,3236,464,3235,451,317329,0
ore-99,true,1.00,3856,513,3852,496,351717,0
ore-100,true,1.00,1738,408,1738,393,176736,0
