NDW:0.0
TTFW:1.6
DFPT:2.0
DFPAP:3.0
DFPMP:1.0
RIGHT_WINDOW_BORDER_X:275.0
level,win/fail,% travelled,run time,game ticks,planning time,total plannings,nodes evaluated,most backtracked nodes
patternOccur-1,true,1.00,832,506,830,481,99586,0
patternOccur-2,true,1.00,881,445,877,420,103839,0
patternOccur-3,true,1.00,1457,480,1451,455,192342,0
patternOccur-4,true,1.00,1314,507,1309,482,172855,0
patternOccur-5,true,1.00,731,489,728,463,89605,0
patternOccur-6,true,1.00,1651,557,1649,532,216887,0
patternOccur-7,true,1.00,1854,525,1849,490,236925,0
patternOccur-8,true,1.00,1956,479,1954,454,258689,0
patternOccur-9,true,1.00,1384,491,1382,461,171376,0
patternOccur-10,true,1.00,1082,558,1078,527,137204,0
patternOccur-11,true,1.00,3952,549,3948,522,431549,0
patternOccur-12,true,1.00,1411,527,1406,492,187553,0
patternOccur-13,true,1.00,650,470,646,445,81668,0
patternOccur-14,true,1.00,4138,517,4136,484,475965,0
patternOccur-15,true,1.00,1247,463,1244,438,155179,0
patternOccur-16,true,1.00,3926,509,3925,482,435313,0
patternOccur-17,true,1.00,1527,503,1524,478,196181,0
patternOccur-18,true,1.00,1500,482,1496,457,188401,0
patternOccur-19,false,0.83,4238,482,4233,482,473799,0
patternOccur-20,true,1.00,1275,516,1271,491,159494,0
patternOccur-21,true,1.00,1093,488,1090,461,144063,0
patternOccur-22,false,0.84,3460,499,3457,499,392957,0
patternOccur-23,true,1.00,1654,498,1651,473,200699,0
patternOccur-24,true,1.00,850,496,848,465,103808,0
patternOccur-25,true,1.00,1698,492,1693,467,216279,0
patternOccur-26,true,1.00,1038,481,1035,456,132086,0
patternOccur-27,true,1.00,3705,541,3703,502,426702,0
patternOccur-28,true,1.00,1524,522,1524,496,194085,0
patternOccur-29,true,1.00,849,431,846,396,106270,0
patternOccur-30,true,1.00,1059,515,1056,490,137704,0
patternOccur-31,true,1.00,5258,559,5256,532,587607,0
patternOccur-32,true,1.00,4323,540,4321,506,487012,0
patternOccur-33,true,1.00,935,514,930,488,119352,0
patternOccur-34,true,1.00,1196,443,1195,408,153987,0
patternOccur-35,true,1.00,946,479,945,453,112565,0
patternOccur-36,true,1.00,2323,516,2319,477,290928,0
patternOccur-37,true,1.00,3145,509,3139,479,376085,0
patternOccur-38,true,1.00,980,471,975,446,125774,0
patternOccur-39,true,1.00,2516,460,2513,433,315159,0
patternOccur-40,true,1.00,1679,480,1674,454,223334,0
patternOccur-41,true,1.00,1146,500,1144,464,151271,0
patternOccur-42,false,0.89,3648,479,3644,479,418403,0
patternOccur-43,true,1.00,1364,479,1362,454,177079,0
patternOccur-44,true,1.00,1230,437,1228,412,158400,0
patternOccur-45,true,1.00,1580,469,1577,414,182553,0
patternOccur-46,true,1.00,1061,450,1056,425,136995,0
patternOccur-47,true,1.00,3536,502,3531,465,406053,0
patternOccur-48,true,1.00,1001,466,1000,441,133661,0
patternOccur-49,true,1.00,1100,459,1096,434,141834,0
patternOccur-50,true,1.00,2139,534,2134,507,250989,0
patternOccur-51,true,1.00,1564,532,1562,495,211835,0
patternOccur-52,true,1.00,1260,467,1259,430,162705,0
patternOccur-53,true,1.00,1365,505,1363,480,171928,0
patternOccur-54,true,1.00,1875,523,1875,489,246854,0
patternOccur-55,true,1.00,1459,452,1452,427,187877,0
patternOccur-56,true,1.00,1529,549,1525,524,196571,0
patternOccur-57,true,1.00,1878,526,1877,492,243635,0
patternOccur-58,true,1.00,5859,565,5856,539,690986,0
patternOccur-59,true,1.00,1306,478,1305,452,168259,0
patternOccur-60,true,1.00,2596,497,2593,460,303157,0
patternOccur-61,true,1.00,1332,483,1329,447,179784,0
patternOccur-62,true,1.00,1340,483,1337,458,169500,0
patternOccur-63,true,1.00,1404,485,1399,448,182518,0
patternOccur-64,true,1.00,2000,561,1997,523,259018,0
patternOccur-65,true,1.00,799,498,798,473,104048,0
patternOccur-66,true,1.00,1308,465,1307,440,167702,0
patternOccur-67,true,1.00,3169,513,3165,484,340943,0
patternOccur-68,true,1.00,843,518,839,493,106041,0
patternOccur-69,true,1.00,3827,538,3825,502,406556,0
patternOccur-70,true,1.00,3570,452,3566,417,415111,0
patternOccur-71,true,1.00,1778,491,1774,466,245596,0
patternOccur-72,false,0.87,2854,494,2851,494,299341,0
patternOccur-73,true,1.00,3503,550,3496,507,402714,0
patternOccur-74,true,1.00,2666,490,2659,443,315088,0
patternOccur-75,true,1.00,1950,480,1945,455,232362,0
patternOccur-76,true,1.00,1614,502,1608,477,213689,0
patternOccur-77,true,1.00,1317,489,1310,464,168273,0
patternOccur-78,true,1.00,883,423,879,398,109683,0
patternOccur-79,true,1.00,1507,549,1505,524,200396,0
patternOccur-80,true,1.00,2988,557,2984,503,352304,0
patternOccur-81,true,1.00,4019,485,4016,459,466344,0
patternOccur-82,true,1.00,1798,516,1795,473,220452,0
patternOccur-83,false,0.82,3858,508,3855,508,382362,0
patternOccur-84,true,1.00,1154,480,1150,455,141152,0
patternOccur-85,true,1.00,1984,462,1980,437,257864,0
patternOccur-86,true,1.00,5198,504,5193,471,532364,0
patternOccur-87,true,1.00,1180,509,1177,475,155751,0
patternOccur-88,true,1.00,1309,468,1306,442,178110,0
patternOccur-89,true,1.00,1278,516,1274,491,163375,0
patternOccur-90,true,1.00,1395,537,1392,509,178631,0
patternOccur-91,true,1.00,1012,495,1008,458,127630,0
patternOccur-92,true,1.00,1142,417,1141,392,155898,0
patternOccur-93,true,1.00,1180,483,1178,457,151994,0
patternOccur-94,true,1.00,4093,538,4091,503,443736,0
patternOccur-95,true,1.00,1081,505,1078,480,145745,0
patternOccur-96,false,0.87,2445,482,2442,482,279621,0
patternOccur-97,true,1.00,1309,456,1305,431,169823,0
patternOccur-98,false,0.90,2362,458,2360,458,261724,0
patternOccur-99,true,1.00,524,472,520,444,64767,0
patternOccur-100,true,1.00,1379,473,1377,448,175194,0
