NDW:0.0
TTFW:0.6
DFPT:2.0
DFPAP:3.0
DFPMP:2.0
RIGHT_WINDOW_BORDER_X:176.0
level,win/fail,% travelled,run time,game ticks,planning time,total plannings,nodes evaluated,most backtracked nodes
ge-1,true,1.00,619,240,611,214,33141,0
ge-2,true,1.00,878,246,878,230,49895,0
ge-3,true,1.00,268,238,262,218,13139,0
ge-4,true,1.00,1040,232,1035,211,58043,0
ge-5,true,1.00,77,199,72,183,3979,0
ge-6,true,1.00,517,241,512,225,26043,0
ge-7,true,1.00,151,203,146,187,7968,0
ge-8,true,1.00,218,203,214,187,11680,0
ge-9,true,1.00,499,220,497,204,27861,0
ge-10,true,1.00,71,199,68,183,3606,0
ge-11,true,1.00,235,203,232,187,12654,0
ge-12,true,1.00,78,199,69,183,4069,0
ge-13,true,1.00,433,233,432,217,23269,0
ge-14,true,1.00,265,217,259,201,13981,0
ge-15,true,1.00,518,207,517,191,28705,0
ge-16,true,1.00,879,263,873,247,46278,0
ge-17,true,1.00,380,207,374,191,21111,0
ge-18,true,1.00,1055,239,1052,223,58571,0
ge-19,true,1.00,640,285,633,262,34258,0
ge-20,true,1.00,402,215,395,199,22317,0
ge-21,true,1.00,245,201,240,185,13683,0
ge-22,true,1.00,311,202,302,185,17368,0
ge-23,true,1.00,742,212,740,195,42101,0
ge-24,true,1.00,437,211,435,195,24705,0
ge-25,true,1.00,375,203,369,187,21859,0
ge-26,true,1.00,267,207,259,191,15882,0
ge-27,true,1.00,127,219,122,203,6377,0
ge-28,true,1.00,706,215,702,199,38879,0
ge-29,true,1.00,260,213,253,187,14559,0
ge-30,true,1.00,1201,234,1196,218,68765,0
ge-31,true,1.00,790,223,788,207,44286,0
ge-32,true,1.00,181,217,178,201,9372,0
ge-33,true,1.00,159,205,153,183,8576,0
ge-34,true,1.00,821,216,815,200,46919,0
ge-35,true,1.00,686,237,683,221,36756,0
ge-36,true,1.00,1123,263,1116,238,63111,0
ge-37,true,1.00,265,199,261,183,14745,0
ge-38,true,1.00,1942,268,1938,252,71482,0
ge-39,true,1.00,410,218,399,202,16048,0
ge-40,true,1.00,91,199,83,183,4294,0
ge-41,true,1.00,431,217,427,201,23406,0
ge-42,true,1.00,735,240,734,224,38303,0
ge-43,true,1.00,401,234,389,217,20366,0
ge-44,true,1.00,538,225,536,209,28969,0
ge-45,true,1.00,535,217,531,201,27233,0
ge-46,true,1.00,777,260,769,244,41261,0
ge-47,true,1.00,723,215,711,199,36620,0
ge-48,true,1.00,586,227,576,211,15269,0
ge-49,true,1.00,261,200,253,184,7097,0
ge-50,true,1.00,557,205,546,189,17209,0
ge-51,true,1.00,183,212,179,196,6359,0
ge-52,true,1.00,621,258,618,242,28543,0
ge-53,true,1.00,524,235,520,219,28534,0
ge-54,true,1.00,436,228,434,212,24617,0
ge-55,true,1.00,426,219,422,203,23319,0
ge-56,true,1.00,647,258,640,232,35663,0
ge-57,true,1.00,841,226,835,208,49153,0
ge-58,true,1.00,439,254,430,238,21042,0
ge-59,true,1.00,923,215,918,199,52347,0
ge-60,true,1.00,530,201,524,185,29298,0
ge-61,true,1.00,268,199,262,183,15211,0
ge-62,true,1.00,596,215,593,199,34496,0
ge-63,true,1.00,1173,230,1171,214,67588,0
ge-64,true,1.00,615,257,610,242,30920,0
ge-65,true,1.00,734,220,730,204,42102,0
ge-66,true,1.00,627,212,623,196,36781,0
ge-67,true,1.00,411,269,408,249,20501,0
ge-68,true,1.00,159,205,155,189,8317,0
ge-69,true,1.00,274,210,269,194,15322,0
ge-70,true,1.00,345,204,338,188,20040,0
ge-71,true,1.00,770,215,766,199,44257,0
ge-72,true,1.00,239,226,236,206,12671,0
ge-73,true,1.00,496,215,495,197,28487,0
ge-74,true,1.00,842,229,837,213,47504,0
ge-75,true,1.00,352,243,340,215,18489,0
ge-76,true,1.00,1767,258,1763,242,101815,0
ge-77,true,1.00,1330,230,1325,214,76400,0
ge-78,true,1.00,687,238,682,222,37836,0
ge-79,true,1.00,202,206,195,189,11110,0
ge-80,true,1.00,153,211,146,194,7745,0
ge-81,true,1.00,202,223,197,207,9838,0
ge-82,true,1.00,299,246,294,213,14271,0
ge-83,false,1.00,1023,245,1020,217,58384,0
ge-84,true,1.00,736,209,731,193,42415,0
ge-85,true,1.00,395,209,391,193,22332,0
ge-86,true,1.00,687,206,683,188,39057,0
ge-87,true,1.00,591,213,587,197,33876,0
ge-88,true,1.00,1296,266,1290,249,76377,0
ge-89,true,1.00,436,243,429,227,21804,0
ge-90,true,1.00,78,199,74,183,4135,0
ge-91,true,1.00,278,202,272,186,15875,0
ge-92,true,1.00,82,205,79,189,4431,0
ge-93,true,1.00,539,205,536,189,30721,0
ge-94,true,1.00,512,209,507,193,29114,0
ge-95,true,1.00,281,237,275,221,14365,0
ge-96,true,1.00,725,220,722,204,40551,0
ge-97,true,1.00,1340,269,1332,253,73162,0
ge-98,true,1.00,77,199,70,183,4166,0
ge-99,true,1.00,172,199,169,183,9264,0
ge-100,true,1.00,411,205,407,189,23439,0
