NDW:0.0
TTFW:0.8
DFPT:2.0
DFPAP:3.0
DFPMP:10.0
RIGHT_WINDOW_BORDER_X:95.0
level,win/fail,% travelled,run time,game ticks,planning time,total plannings,nodes evaluated,most backtracked nodes
Krys-1,false,0.38,28473,999,28470,999,1035072,0
Krys-2,false,0.79,20469,999,20445,999,794957,0
Krys-3,false,0.11,1482,107,1478,107,82956,0
Krys-4,true,1.00,3051,551,3038,538,147167,0
Krys-5,false,0.63,3222,313,3215,313,173953,0
Krys-6,true,1.00,2668,554,2658,544,142993,0
Krys-7,true,1.00,360,336,351,326,20102,0
Krys-8,true,1.00,2720,533,2707,524,143897,0
Krys-9,false,0.32,1186,156,1183,156,68602,0
Krys-10,true,1.00,1539,386,1531,376,88151,0
Krys-11,true,1.00,202,371,195,361,10847,0
Krys-12,true,1.00,7552,690,7538,679,380993,0
Krys-13,false,0.72,5336,408,5331,408,280242,0
Krys-14,false,0.79,22092,999,22065,999,826771,0
Krys-15,false,0.53,1442,255,1439,255,80869,0
Krys-16,false,0.69,22354,999,22330,999,840636,0
Krys-17,true,1.00,2533,494,2522,479,125647,0
Krys-18,true,1.00,1540,528,1523,518,78663,0
Krys-19,false,0.11,2291,118,2290,118,113142,0
Krys-20,false,0.75,3860,515,3853,515,208438,0
Krys-21,false,0.33,1269,140,1267,140,76668,0
Krys-22,false,0.83,6296,495,6288,495,363596,0
Krys-23,true,1.00,2045,476,2032,460,108620,0
Krys-24,true,1.00,4577,525,4567,515,239253,0
Krys-25,true,1.00,2901,456,2888,446,147985,0
Krys-26,false,0.32,1551,160,1550,160,91187,0
Krys-27,false,0.51,258,204,251,204,12758,0
Krys-28,false,0.83,6400,631,6386,631,321323,0
Krys-29,true,1.00,1906,500,1899,491,90370,0
Krys-30,true,1.00,2088,509,2079,500,97473,0
Krys-31,true,1.00,1316,445,1304,435,68347,0
Krys-32,true,1.00,429,394,417,385,22117,0
Krys-33,true,1.00,593,351,587,341,33564,0
Krys-34,true,1.00,3926,587,3914,571,202506,0
Krys-35,false,0.55,1703,260,1696,260,97950,0
Krys-36,false,0.41,4037,341,4028,341,230058,0
Krys-37,false,0.72,8972,572,8966,572,474059,0
Krys-38,false,0.33,2650,225,2643,225,152050,0
Krys-39,false,0.20,2198,132,2196,132,125102,0
Krys-40,false,0.62,3988,343,3980,343,231824,0
Krys-41,false,0.83,8543,557,8538,557,472197,0
Krys-42,false,0.62,5033,411,5026,411,287730,0
Krys-43,false,0.53,1994,245,1989,245,114226,0
Krys-44,true,1.00,10750,750,10733,740,556734,0
Krys-45,true,1.00,1044,454,1037,437,45198,0
Krys-46,true,1.00,2056,507,2045,497,92501,0
Krys-47,true,1.00,2223,517,2211,507,117044,0
Krys-48,false,0.11,2292,118,2291,118,112456,0
Krys-49,true,1.00,967,444,954,428,49643,0
Krys-50,false,0.32,1931,999,1911,999,106774,0
Krys-51,false,0.70,8359,506,8353,506,492544,0
Krys-52,true,1.00,1920,527,1908,517,92334,0
Krys-53,true,1.00,1227,455,1215,445,60493,0
Krys-54,true,1.00,4896,629,4881,619,266966,0
Krys-55,true,1.00,3301,527,3286,516,160283,0
Krys-56,true,1.00,1302,412,1293,402,62541,0
Krys-57,true,1.00,4937,468,4929,458,254717,0
Krys-58,true,1.00,1823,484,1813,473,88321,0
Krys-59,false,0.89,18729,999,18702,999,712294,0
Krys-60,false,0.53,2987,310,2979,310,165555,0
Krys-61,true,1.00,1647,437,1635,428,78071,0
Krys-62,true,1.00,944,427,936,418,41894,0
Krys-63,false,0.39,26902,999,26899,999,982861,0
Krys-64,true,1.00,3607,580,3590,570,174762,0
Krys-65,true,1.00,1927,521,1915,511,88887,0
Krys-66,true,1.00,3036,604,3020,588,144878,0
Krys-67,true,1.00,1097,525,1095,507,56431,0
Krys-68,false,0.83,6602,438,6594,438,352847,0
Krys-69,false,0.48,25414,999,25406,999,919412,0
Krys-70,true,1.00,6582,609,6570,589,344259,0
Krys-71,false,0.34,697,151,694,151,38588,0
Krys-72,true,1.00,1780,542,1760,532,94386,0
Krys-73,false,0.80,23074,999,23068,999,960999,0
Krys-74,false,0.66,3214,356,3205,356,160466,0
Krys-75,true,1.00,599,384,592,374,28537,0
Krys-76,false,0.33,1273,140,1272,140,77111,0
Krys-77,false,0.10,30143,999,30142,999,1732392,0
Krys-78,false,0.20,4377,205,4376,205,251355,0
Krys-79,true,1.00,632,408,619,390,30221,0
Krys-80,true,1.00,330,421,319,406,17564,0
Krys-81,true,1.00,1239,389,1229,379,67872,0
Krys-82,true,1.00,741,389,731,379,36523,0
Krys-83,false,0.53,2218,265,2211,265,130386,0
Krys-84,true,1.00,307,368,298,352,16906,0
Krys-85,true,1.00,3242,561,3225,550,162298,0
Krys-86,true,1.00,1858,458,1847,449,88759,0
Krys-87,true,1.00,770,417,763,404,34820,0
Krys-88,true,1.00,2566,518,2552,508,129555,0
Krys-89,false,0.32,1955,999,1926,999,111030,0
Krys-90,false,0.32,1545,160,1544,160,91989,0
Krys-91,true,1.00,345,347,333,333,18959,0
Krys-92,false,0.41,1347,319,1337,319,68944,0
Krys-93,true,1.00,3951,489,3939,469,235166,0
Krys-94,true,1.00,5367,487,5360,477,318124,0
Krys-95,true,1.00,1856,495,1844,484,88265,0
Krys-96,false,0.53,1958,999,1939,999,108848,0
Krys-97,true,1.00,2453,451,2443,435,135519,0
Krys-98,true,1.00,3203,590,3186,581,150634,0
Krys-99,true,1.00,944,420,928,409,45021,0
Krys-100,false,0.31,28828,999,28825,999,1622184,0
