NDW:0.0
TTFW:1.8
DFPT:2.0
DFPAP:3.0
DFPMP:0.0
RIGHT_WINDOW_BORDER_X:176.0
level,win/fail,% travelled,run time,game ticks,planning time,total plannings,nodes evaluated,most backtracked nodes
ge-1,true,1.00,569,265,569,234,62397,0
ge-2,true,1.00,376,238,373,222,46038,0
ge-3,true,1.00,159,232,158,216,17084,0
ge-4,true,1.00,984,271,982,247,111831,0
ge-5,true,1.00,28,199,27,183,3062,0
ge-6,true,1.00,323,254,320,235,35829,0
ge-7,true,1.00,109,231,107,215,11892,0
ge-8,true,1.00,140,221,139,205,15660,0
ge-9,true,1.00,443,213,441,197,52421,0
ge-10,true,1.00,46,199,45,183,2703,0
ge-11,true,1.00,172,224,171,208,14299,0
ge-12,true,1.00,28,199,27,183,2855,0
ge-13,true,1.00,250,251,248,234,29253,0
ge-14,true,1.00,182,256,181,219,20458,0
ge-15,true,1.00,471,219,469,203,50736,0
ge-16,true,1.00,598,270,595,254,68172,0
ge-17,true,1.00,304,211,303,195,37237,0
ge-18,true,1.00,627,285,625,268,74853,0
ge-19,true,1.00,523,275,521,249,62446,0
ge-20,true,1.00,346,235,342,219,39887,0
ge-21,true,1.00,196,201,195,185,20441,0
ge-22,true,1.00,301,220,299,204,33145,0
ge-23,true,1.00,507,217,506,201,58649,0
ge-24,true,1.00,448,247,445,226,48975,0
ge-25,true,1.00,328,203,328,187,37122,0
ge-26,true,1.00,200,209,200,193,25030,0
ge-27,true,1.00,41,222,40,206,4748,0
ge-28,true,1.00,525,211,524,195,55038,0
ge-29,true,1.00,201,238,199,197,23030,0
ge-30,true,1.00,973,231,972,215,108127,0
ge-31,true,1.00,678,232,677,216,75527,0
ge-32,true,1.00,150,225,148,209,12074,0
ge-33,true,1.00,130,226,129,200,11161,0
ge-34,true,1.00,807,224,806,207,89772,0
ge-35,true,1.00,373,249,371,233,31955,0
ge-36,false,1.00,983,267,982,244,106581,0
ge-37,true,1.00,223,200,223,184,25787,0
ge-38,true,1.00,996,269,992,253,105223,0
ge-39,true,1.00,213,224,211,208,25370,0
ge-40,true,1.00,27,199,27,183,3025,0
ge-41,true,1.00,196,211,195,189,23959,0
ge-42,true,1.00,474,230,472,214,53057,0
ge-43,true,1.00,252,228,251,211,30724,0
ge-44,true,1.00,451,225,450,209,52037,0
ge-45,true,1.00,322,224,321,208,34574,0
ge-46,true,1.00,641,261,640,245,70413,0
ge-47,true,1.00,603,234,601,218,65599,0
ge-48,true,1.00,284,251,279,235,30350,0
ge-49,true,1.00,125,200,124,184,14987,0
ge-50,true,1.00,453,214,453,198,52093,0
ge-51,true,1.00,79,231,79,215,9801,0
ge-52,true,1.00,348,288,343,272,38223,0
ge-53,true,1.00,203,217,201,201,24307,0
ge-54,true,1.00,250,252,250,236,30533,0
ge-55,true,1.00,280,221,280,205,31162,0
ge-56,true,1.00,545,252,544,223,60243,0
ge-57,true,1.00,574,217,573,198,67216,0
ge-58,true,1.00,141,282,138,266,14341,0
ge-59,true,1.00,701,221,698,205,81110,0
ge-60,true,1.00,764,217,764,201,83912,0
ge-61,true,1.00,228,205,228,189,27240,0
ge-62,true,1.00,505,213,497,197,59055,0
ge-63,true,1.00,722,223,722,207,89476,0
ge-64,true,1.00,279,239,277,208,29808,0
ge-65,true,1.00,649,244,648,228,75763,0
ge-66,true,1.00,473,226,473,193,54477,0
ge-67,true,1.00,158,249,156,232,16235,0
ge-68,true,1.00,107,221,105,205,10880,0
ge-69,true,1.00,230,212,228,196,25635,0
ge-70,true,1.00,348,222,347,206,40815,0
ge-71,true,1.00,799,264,798,248,89941,0
ge-72,true,1.00,99,256,98,240,11638,0
ge-73,true,1.00,377,220,375,197,44846,0
ge-74,true,1.00,818,269,818,253,86733,0
ge-75,true,1.00,207,254,206,218,25358,0
ge-76,true,1.00,865,223,864,207,95297,0
ge-77,true,1.00,1530,258,1526,242,174863,0
ge-78,true,1.00,626,251,624,229,69783,0
ge-79,true,1.00,139,212,137,196,16675,0
ge-80,true,1.00,41,219,39,202,4143,0
ge-81,true,1.00,42,213,40,197,4881,0
ge-82,true,1.00,48,238,43,200,5555,0
ge-83,false,1.00,775,262,771,233,89019,0
ge-84,true,1.00,930,234,928,218,103260,0
ge-85,true,1.00,370,217,369,201,41225,0
ge-86,true,1.00,767,220,766,197,86117,0
ge-87,true,1.00,1210,245,1208,229,139882,0
ge-88,true,1.00,481,268,479,252,54449,0
ge-89,true,1.00,124,242,122,226,13901,0
ge-90,true,1.00,28,199,27,183,3077,0
ge-91,true,1.00,232,212,231,196,26196,0
ge-92,true,1.00,33,205,32,189,4097,0
ge-93,true,1.00,538,213,536,197,63562,0
ge-94,true,1.00,374,219,373,203,44376,0
ge-95,true,1.00,117,313,114,297,11196,0
ge-96,true,1.00,1135,257,1135,240,127238,0
ge-97,true,1.00,832,237,831,221,90564,0
ge-98,true,1.00,28,199,24,183,2996,0
ge-99,true,1.00,124,199,124,183,12211,0
ge-100,true,1.00,232,209,232,193,26713,0
