NDW:0.0
TTFW:1.2
DFPT:2.0
DFPAP:3.0
DFPMP:7.0
RIGHT_WINDOW_BORDER_X:176.0
level,win/fail,% travelled,run time,game ticks,planning time,total plannings,nodes evaluated,most backtracked nodes
ge-1,true,1.00,393,243,393,212,42854,0
ge-2,true,1.00,377,234,377,218,43428,0
ge-3,true,1.00,154,215,153,199,16262,0
ge-4,true,1.00,1731,281,1729,257,191528,0
ge-5,true,1.00,30,199,26,183,3233,0
ge-6,true,1.00,339,251,336,233,35491,0
ge-7,true,1.00,113,218,111,202,11569,0
ge-8,true,1.00,150,228,148,212,15558,0
ge-9,true,1.00,457,221,457,205,52644,0
ge-10,true,1.00,27,199,27,183,2834,0
ge-11,true,1.00,138,207,136,191,14946,0
ge-12,true,1.00,29,199,28,183,3043,0
ge-13,true,1.00,261,250,260,233,28853,0
ge-14,true,1.00,221,241,220,217,23921,0
ge-15,true,1.00,511,224,511,208,53209,0
ge-16,true,1.00,599,278,596,262,66987,0
ge-17,true,1.00,336,220,335,204,39752,0
ge-18,true,1.00,889,275,888,258,103524,0
ge-19,true,1.00,529,275,528,249,60042,0
ge-20,true,1.00,384,231,384,215,41130,0
ge-21,true,1.00,199,201,197,185,20816,0
ge-22,true,1.00,274,212,274,195,30211,0
ge-23,true,1.00,552,222,550,205,61458,0
ge-24,true,1.00,382,237,381,216,41015,0
ge-25,true,1.00,329,203,328,187,35302,0
ge-26,true,1.00,170,205,168,189,20657,0
ge-27,true,1.00,38,207,36,191,4487,0
ge-28,true,1.00,526,211,526,195,52777,0
ge-29,true,1.00,203,233,200,195,22052,0
ge-30,true,1.00,1227,247,1226,231,133953,0
ge-31,true,1.00,665,269,664,253,70790,0
ge-32,true,1.00,89,222,88,206,10060,0
ge-33,true,1.00,108,231,104,203,11234,0
ge-34,true,1.00,768,222,765,205,81402,0
ge-35,true,1.00,281,263,280,247,29945,0
ge-36,false,1.00,990,252,985,229,104208,0
ge-37,true,1.00,224,200,221,184,24800,0
ge-38,true,1.00,1638,288,1637,272,166591,0
ge-39,true,1.00,223,228,221,212,25253,0
ge-40,true,1.00,29,199,28,183,3328,0
ge-41,true,1.00,197,205,197,189,22501,0
ge-42,true,1.00,530,242,528,226,56690,0
ge-43,true,1.00,261,228,261,211,30261,0
ge-44,true,1.00,429,209,429,193,46398,0
ge-45,true,1.00,352,216,348,200,35443,0
ge-46,true,1.00,589,251,589,235,61059,0
ge-47,true,1.00,681,244,680,228,70491,0
ge-48,true,1.00,390,227,389,211,42254,0
ge-49,true,1.00,129,200,128,184,14526,0
ge-50,true,1.00,470,214,470,198,50587,0
ge-51,true,1.00,87,231,86,215,9794,0
ge-52,true,1.00,323,265,322,238,34452,0
ge-53,true,1.00,281,235,281,219,30294,0
ge-54,true,1.00,308,274,307,257,37904,0
ge-55,true,1.00,257,224,255,207,27476,0
ge-56,true,1.00,552,249,550,223,58744,0
ge-57,true,1.00,672,229,672,211,76972,0
ge-58,true,1.00,125,229,124,213,13244,0
ge-59,true,1.00,795,219,795,203,86437,0
ge-60,true,1.00,595,207,591,191,63235,0
ge-61,true,1.00,230,205,227,189,26620,0
ge-62,true,1.00,411,209,410,193,46914,0
ge-63,true,1.00,976,233,974,217,112454,0
ge-64,true,1.00,280,237,278,208,29060,0
ge-65,true,1.00,585,234,585,218,63991,0
ge-66,true,1.00,483,230,483,199,53635,0
ge-67,true,1.00,162,242,159,225,16771,0
ge-68,true,1.00,122,236,119,220,11664,0
ge-69,true,1.00,193,199,191,183,20933,0
ge-70,true,1.00,272,204,271,188,29763,0
ge-71,true,1.00,788,253,787,237,83678,0
ge-72,true,1.00,141,253,138,233,15528,0
ge-73,true,1.00,404,218,403,195,46190,0
ge-74,true,1.00,847,245,846,229,86937,0
ge-75,true,1.00,280,249,277,213,31486,0
ge-76,true,1.00,796,225,795,209,85120,0
ge-77,true,1.00,1495,242,1494,226,161239,0
ge-78,true,1.00,634,256,631,234,67028,0
ge-79,true,1.00,144,212,144,196,16649,0
ge-80,true,1.00,49,214,49,197,4946,0
ge-81,true,1.00,51,213,48,197,5750,0
ge-82,true,1.00,66,238,66,200,7395,0
ge-83,false,1.00,779,250,777,221,88332,0
ge-84,true,1.00,632,213,630,197,67046,0
ge-85,true,1.00,357,215,357,199,40092,0
ge-86,true,1.00,833,218,830,197,90758,0
ge-87,true,1.00,474,219,470,203,52257,0
ge-88,true,1.00,463,245,460,227,51363,0
ge-89,true,1.00,145,242,143,226,15731,0
ge-90,true,1.00,30,199,30,183,3368,0
ge-91,true,1.00,226,199,225,183,23582,0
ge-92,true,1.00,35,205,34,189,4461,0
ge-93,true,1.00,536,213,534,197,59486,0
ge-94,true,1.00,452,217,451,201,52495,0
ge-95,true,1.00,71,236,70,220,8296,0
ge-96,true,1.00,683,243,681,225,72162,0
ge-97,true,1.00,746,235,746,219,82303,0
ge-98,true,1.00,29,199,29,183,3285,0
ge-99,true,1.00,125,199,122,183,11753,0
ge-100,true,1.00,235,209,235,193,23700,0
