NDW:0.0
TTFW:2.0
DFPT:2.0
DFPAP:3.0
DFPMP:20.0
RIGHT_WINDOW_BORDER_X:295.0
level,win/fail,% travelled,run time,game ticks,planning time,total plannings,nodes evaluated,most backtracked nodes
ore-1,true,1.00,1608,438,1599,393,95594,0
ore-2,false,0.70,2863,313,2853,313,156660,0
ore-3,true,1.00,1644,457,1636,421,99914,0
ore-4,true,1.00,2374,537,2368,499,136715,0
ore-5,true,1.00,1965,428,1949,389,108078,0
ore-6,true,1.00,1467,445,1453,406,86611,0
ore-7,true,1.00,3380,549,3366,511,205484,0
ore-8,false,0.13,1921,82,1921,82,93955,0
ore-9,true,1.00,1219,397,1214,353,71974,0
ore-10,true,1.00,2520,465,2508,438,141040,0
ore-11,true,1.00,1843,484,1826,438,108046,0
ore-12,false,0.46,3524,303,3524,303,174064,0
ore-13,true,1.00,1930,527,1914,476,114925,0
ore-14,true,1.00,2569,455,2553,428,158074,0
ore-15,true,1.00,2089,416,2080,390,126479,0
ore-16,false,0.84,2473,398,2461,398,130741,0
ore-17,true,1.00,1926,475,1917,425,117346,0
ore-18,true,1.00,1384,455,1376,412,78989,0
ore-19,true,1.00,1451,417,1445,388,86356,0
ore-20,true,1.00,1975,435,1965,399,117914,0
ore-21,true,1.00,2147,482,2143,450,129102,0
ore-22,false,0.62,1857,267,1848,267,96287,0
ore-23,false,0.66,1922,340,1916,340,92969,0
ore-24,true,1.00,1738,485,1730,441,102068,0
ore-25,true,1.00,1818,426,1811,384,109213,0
ore-26,true,1.00,1870,423,1859,384,94903,0
ore-27,false,0.24,1576,127,1572,127,83001,0
ore-28,true,1.00,2106,447,2093,416,117612,0
ore-29,false,0.48,1865,214,1859,214,84490,0
ore-30,true,1.00,1517,479,1508,421,89426,0
ore-31,true,1.00,1756,464,1744,417,104071,0
ore-32,true,1.00,1967,413,1956,386,111537,0
ore-33,true,1.00,1841,489,1830,429,109854,0
ore-34,true,1.00,2124,495,2116,458,125150,0
ore-35,true,1.00,1882,424,1870,395,114161,0
ore-36,true,1.00,1740,430,1731,392,103451,0
ore-37,false,0.34,1426,122,1423,122,73007,0
ore-38,true,1.00,1381,429,1369,386,81878,0
ore-39,true,1.00,3469,537,3453,494,207018,0
ore-40,true,1.00,2517,412,2507,379,145820,0
ore-41,true,1.00,1777,460,1765,416,105921,0
ore-42,true,1.00,4367,524,4356,486,239336,0
ore-43,true,1.00,3210,472,3201,445,177005,0
ore-44,true,1.00,3180,474,3171,417,189178,0
ore-45,false,0.74,21952,999,21941,999,837457,0
ore-46,false,0.13,837,48,837,48,42816,0
ore-47,false,0.85,4241,458,4228,458,246315,0
ore-48,true,1.00,3452,533,3432,500,198996,0
ore-49,true,1.00,1539,455,1530,399,91577,0
ore-50,true,1.00,2799,465,2792,436,167923,0
ore-51,true,1.00,2361,461,2341,403,130855,0
ore-52,true,1.00,2000,455,1989,409,113551,0
ore-53,true,1.00,1705,440,1692,395,100699,0
ore-54,false,0.72,2667,346,2660,346,143784,0
ore-55,true,1.00,1758,432,1751,392,106511,0
ore-56,true,1.00,1562,398,1550,356,93913,0
ore-57,true,1.00,2031,423,2024,374,117947,0
ore-58,true,1.00,1974,476,1955,444,115087,0
ore-59,true,1.00,1884,480,1868,448,112754,0
ore-60,true,1.00,1884,359,1875,333,107857,0
ore-61,true,1.00,2113,428,2103,396,124446,0
ore-62,false,0.78,2050,379,2039,379,110969,0
ore-63,false,0.32,2000,165,1998,165,101904,0
ore-64,true,1.00,1213,439,1199,410,69761,0
ore-65,true,1.00,2205,531,2194,494,127146,0
ore-66,true,1.00,3410,483,3400,433,186893,0
ore-67,true,1.00,2022,418,2015,386,121026,0
ore-68,true,1.00,1357,427,1346,379,78007,0
ore-69,true,1.00,2789,435,2781,392,151292,0
ore-70,false,0.96,3068,454,3056,454,171182,0
ore-71,true,1.00,1851,408,1841,380,108974,0
ore-72,true,1.00,1589,421,1575,394,90277,0
ore-73,true,1.00,2046,430,2036,401,119552,0
ore-74,true,1.00,3739,500,3728,445,194118,0
ore-75,true,1.00,2303,506,2291,477,138189,0
ore-76,true,1.00,1809,416,1801,377,110133,0
ore-77,true,1.00,1875,464,1864,422,113804,0
ore-78,true,1.00,2438,508,2425,470,147353,0
ore-79,true,1.00,2185,445,2175,418,132210,0
ore-80,true,1.00,1744,421,1733,386,102914,0
ore-81,true,1.00,1971,497,1956,452,114780,0
ore-82,true,1.00,2121,470,2111,432,124124,0
ore-83,true,1.00,1462,397,1449,370,86020,0
ore-84,false,0.18,1324,77,1324,77,57318,0
ore-85,true,1.00,2243,461,2233,426,136522,0
ore-86,false,0.61,2751,313,2743,313,157395,0
ore-87,true,1.00,2099,491,2089,439,126043,0
ore-88,false,0.32,2165,149,2161,149,105292,0
ore-89,true,1.00,3773,481,3761,454,190578,0
ore-90,true,1.00,3407,519,3390,491,204347,0
ore-91,true,1.00,3049,452,3038,409,170701,0
ore-92,true,1.00,1799,499,1787,470,105561,0
ore-93,false,0.14,1702,76,1699,76,82342,0
ore-94,true,1.00,2158,506,2146,457,123449,0
ore-95,true,1.00,2640,481,2628,430,155568,0
ore-96,true,1.00,2822,509,2803,482,160201,0
ore-97,false,0.77,3380,402,3370,402,175611,0
ore-98,true,1.00,2049,420,2040,387,124193,0
ore-99,true,1.00,3188,508,3176,467,179789,0
ore-100,true,1.00,2410,461,2405,421,147886,0
