NDW:0.0
TTFW:1.2
DFPT:2.0
DFPAP:3.0
DFPMP:2.0
RIGHT_WINDOW_BORDER_X:235.0
level,win/fail,% travelled,run time,game ticks,planning time,total plannings,nodes evaluated,most backtracked nodes
patternCount-1,false,0.90,5898,498,5897,498,587987,0
patternCount-2,true,1.00,862,414,861,393,93166,0
patternCount-3,true,1.00,3805,517,3802,495,356608,0
patternCount-4,true,1.00,872,431,870,405,95981,0
patternCount-5,true,1.00,844,433,843,400,92740,0
patternCount-6,true,1.00,437,394,436,372,49021,0
patternCount-7,true,1.00,989,420,988,399,106688,0
patternCount-8,true,1.00,2915,452,2911,419,302212,0
patternCount-9,true,1.00,1093,428,1092,407,118191,0
patternCount-10,true,1.00,319,391,317,365,36815,0
patternCount-11,true,1.00,4164,502,4160,451,413626,0
patternCount-12,true,1.00,533,424,531,398,58381,0
patternCount-13,true,1.00,658,437,656,415,69398,0
patternCount-14,true,1.00,1171,387,1169,359,126293,0
patternCount-15,true,1.00,697,429,696,408,76950,0
patternCount-16,true,1.00,686,408,686,387,74266,0
patternCount-17,true,1.00,1057,450,1055,429,115284,0
patternCount-18,true,1.00,1081,378,1080,354,114150,0
patternCount-19,true,1.00,956,401,954,380,95485,0
patternCount-20,true,1.00,926,434,920,403,100591,0
patternCount-21,true,1.00,1243,439,1239,418,141150,0
patternCount-22,true,1.00,4039,522,4035,487,421881,0
patternCount-23,true,1.00,4686,469,4683,446,440676,0
patternCount-24,true,1.00,5791,487,5789,453,593040,0
patternCount-25,true,1.00,947,410,944,389,104012,0
patternCount-26,true,1.00,565,453,562,432,60219,0
patternCount-27,true,1.00,786,393,785,370,89935,0
patternCount-28,true,1.00,1062,453,1061,413,111579,0
patternCount-29,true,1.00,874,406,869,385,92033,0
patternCount-30,true,1.00,974,462,971,441,107100,0
patternCount-31,true,1.00,1102,445,1096,424,118085,0
patternCount-32,true,1.00,1696,497,1693,476,174627,0
patternCount-33,true,1.00,2710,451,2706,416,265195,0
patternCount-34,true,1.00,1795,455,1793,433,188947,0
patternCount-35,true,1.00,888,456,883,435,96965,0
patternCount-36,true,1.00,2408,477,2405,438,236026,0
patternCount-37,true,1.00,857,408,853,387,91069,0
patternCount-38,true,1.00,2977,521,2973,499,297529,0
patternCount-39,true,1.00,1069,446,1067,420,113886,0
patternCount-40,true,1.00,6655,551,6651,517,665755,0
patternCount-41,true,1.00,2193,488,2189,467,246228,0
patternCount-42,true,1.00,1034,410,1032,389,113317,0
patternCount-43,true,1.00,678,438,676,417,72028,0
patternCount-44,true,1.00,697,425,693,403,77649,0
patternCount-45,true,1.00,1132,494,1128,463,111935,0
patternCount-46,true,1.00,1397,424,1394,394,154886,0
patternCount-47,true,1.00,1325,448,1321,427,143150,0
patternCount-48,true,1.00,599,436,597,415,67045,0
patternCount-49,true,1.00,1011,438,1009,416,104249,0
patternCount-50,true,1.00,4341,506,4340,472,466336,0
patternCount-51,true,1.00,906,424,904,403,94096,0
patternCount-52,true,1.00,698,410,693,389,76380,0
patternCount-53,true,1.00,3789,429,3789,401,368612,0
patternCount-54,true,1.00,1464,466,1463,444,159986,0
patternCount-55,true,1.00,6117,504,6114,465,571955,0
patternCount-56,true,1.00,1619,436,1615,415,178918,0
patternCount-57,true,1.00,975,472,971,441,100094,0
patternCount-58,false,0.80,7720,524,7720,524,661877,0
patternCount-59,true,1.00,1054,444,1052,423,116655,0
patternCount-60,true,1.00,1100,448,1099,427,115483,0
patternCount-61,true,1.00,1049,464,1044,431,108457,0
patternCount-62,true,1.00,938,416,936,381,102699,0
patternCount-63,true,1.00,776,421,773,400,87167,0
patternCount-64,true,1.00,569,372,566,351,63474,0
patternCount-65,true,1.00,1141,451,1139,425,126236,0
patternCount-66,true,1.00,1274,442,1271,421,138774,0
patternCount-67,true,1.00,1373,462,1370,426,146539,0
patternCount-68,true,1.00,674,418,672,397,71889,0
patternCount-69,true,1.00,874,461,873,431,95396,0
patternCount-70,true,1.00,653,419,652,398,71518,0
patternCount-71,true,1.00,992,445,988,424,105876,0
patternCount-72,true,1.00,6539,515,6537,491,619955,0
patternCount-73,true,1.00,1694,482,1690,460,179048,0
patternCount-74,true,1.00,6219,506,6216,477,578550,0
patternCount-75,true,1.00,1038,450,1033,427,109274,0
patternCount-76,true,1.00,1170,435,1168,414,128795,0
patternCount-77,true,1.00,1084,403,1083,370,115990,0
patternCount-78,true,1.00,1132,456,1128,435,122857,0
patternCount-79,true,1.00,4738,511,4735,479,479278,0
patternCount-80,true,1.00,2745,475,2741,442,278385,0
patternCount-81,true,1.00,994,450,991,429,102986,0
patternCount-82,true,1.00,980,423,975,402,109783,0
patternCount-83,true,1.00,626,466,623,445,67441,0
patternCount-84,true,1.00,496,440,495,419,51860,0
patternCount-85,true,1.00,685,393,684,372,79143,0
patternCount-86,true,1.00,762,445,760,424,85010,0
patternCount-87,true,1.00,1160,477,1159,448,132400,0
patternCount-88,true,1.00,1411,461,1408,427,157972,0
patternCount-89,true,1.00,918,403,916,382,98050,0
patternCount-90,true,1.00,630,414,629,393,70569,0
patternCount-91,true,1.00,1568,453,1565,432,167292,0
patternCount-92,true,1.00,734,416,731,395,77074,0
patternCount-93,true,1.00,6170,536,6169,508,595064,0
patternCount-94,true,1.00,1139,437,1136,408,123296,0
patternCount-95,true,1.00,1588,436,1585,415,171710,0
patternCount-96,true,1.00,972,476,968,454,103645,0
patternCount-97,false,0.82,7637,523,7634,523,683770,0
patternCount-98,true,1.00,1335,479,1333,457,147853,0
patternCount-99,true,1.00,780,455,778,434,87657,0
patternCount-100,true,1.00,462,393,462,372,51282,0
