NDW:0.0
TTFW:0.6
DFPT:2.0
DFPAP:3.0
DFPMP:50.0
RIGHT_WINDOW_BORDER_X:55.0
level,win/fail,% travelled,run time,game ticks,planning time,total plannings,nodes evaluated,most backtracked nodes
patternOccur-1,false,0.80,5495,999,5493,999,548619,0
patternOccur-2,false,0.87,4228,999,4221,999,436115,0
patternOccur-3,false,0.93,6566,999,6561,999,658528,0
patternOccur-4,false,0.05,998,126,998,126,135615,0
patternOccur-5,false,0.91,3648,999,3639,999,401978,0
patternOccur-6,false,0.74,4908,999,4907,999,512351,0
patternOccur-7,false,0.31,1831,328,1828,328,183473,0
patternOccur-8,false,0.82,7484,999,7481,999,726810,0
patternOccur-9,false,0.21,2045,326,2044,326,203653,0
patternOccur-10,false,0.89,4602,999,4593,999,481244,0
patternOccur-11,false,0.86,4952,999,4946,999,527438,0
patternOccur-12,false,0.84,2837,999,2831,999,324579,0
patternOccur-13,false,0.04,1146,159,1143,159,163501,0
patternOccur-14,false,0.36,3984,492,3982,492,402379,0
patternOccur-15,false,0.67,8140,999,8134,999,789937,0
patternOccur-16,false,0.01,1686,999,1682,999,330856,0
patternOccur-17,false,0.77,5544,999,5539,999,551785,0
patternOccur-18,false,0.90,3466,999,3461,999,363437,0
patternOccur-19,false,0.82,5039,999,5034,999,516912,0
patternOccur-20,true,1.00,3285,884,3282,877,339824,0
patternOccur-21,false,0.13,5146,340,5141,340,589443,0
patternOccur-22,false,0.63,7746,999,7739,999,806143,0
patternOccur-23,false,0.06,1467,137,1466,137,185814,0
patternOccur-24,false,0.90,4027,999,4020,999,429488,0
patternOccur-25,false,0.76,5234,999,5233,999,532395,0
patternOccur-26,false,0.98,4667,999,4660,999,457081,0
patternOccur-27,false,0.84,5095,999,5091,999,494179,0
patternOccur-28,false,0.78,4975,999,4970,999,506376,0
patternOccur-29,false,0.75,5055,999,5048,999,512825,0
patternOccur-30,false,0.99,3966,999,3961,999,412360,0
patternOccur-31,false,0.78,5083,996,5077,996,546982,0
patternOccur-32,false,0.75,3676,999,3672,999,443258,0
patternOccur-33,false,0.99,5471,999,5465,999,551387,0
patternOccur-34,false,0.67,8117,999,8114,999,820523,0
patternOccur-35,false,0.91,5921,999,5914,999,591833,0
patternOccur-36,false,0.81,5772,999,5771,999,603690,0
patternOccur-37,false,0.82,5936,999,5932,999,590111,0
patternOccur-38,false,0.96,4587,999,4578,999,501884,0
patternOccur-39,false,0.29,4900,454,4898,454,491646,0
patternOccur-40,false,0.83,3654,999,3651,999,415265,0
patternOccur-41,false,0.32,2368,413,2365,413,240523,0
patternOccur-42,false,0.76,7126,999,7122,999,718234,0
patternOccur-43,false,0.80,5414,999,5410,999,548972,0
patternOccur-44,false,0.22,8257,469,8257,469,774038,0
patternOccur-45,false,0.91,4214,999,4211,999,405174,0
patternOccur-46,true,1.00,3687,997,3683,991,389650,0
patternOccur-47,false,0.37,6212,593,6210,593,616601,0
patternOccur-48,false,0.61,3269,669,3264,669,335610,0
patternOccur-49,false,0.92,5262,999,5258,999,530035,0
patternOccur-50,false,0.59,4176,753,4174,753,433282,0
patternOccur-51,false,0.83,5558,999,5556,999,556955,0
patternOccur-52,false,0.54,7446,999,7442,999,781495,0
patternOccur-53,false,0.18,3628,313,3626,313,357176,0
patternOccur-54,false,0.17,3702,286,3701,286,366250,0
patternOccur-55,false,0.36,2986,401,2982,401,306464,0
patternOccur-56,false,0.90,6777,999,6774,999,665867,0
patternOccur-57,false,0.24,3142,405,3141,405,304136,0
patternOccur-58,false,0.73,3987,899,3982,899,399312,0
patternOccur-59,false,0.91,4914,999,4910,999,504736,0
patternOccur-60,false,0.79,3557,999,3552,999,378281,0
patternOccur-61,false,0.66,7889,999,7883,999,805073,0
patternOccur-62,false,0.80,6202,999,6199,999,636197,0
patternOccur-63,false,0.94,4330,999,4325,999,440836,0
patternOccur-64,false,0.85,6324,999,6321,999,634694,0
patternOccur-65,true,1.00,3591,988,3586,981,396654,0
patternOccur-66,false,0.78,5592,982,5585,982,576603,0
patternOccur-67,false,0.87,2794,999,2790,999,294635,0
patternOccur-68,false,0.90,3627,999,3623,999,376276,0
patternOccur-69,false,0.84,6120,999,6118,999,627140,0
patternOccur-70,false,0.83,5971,999,5964,999,633367,0
patternOccur-71,false,0.26,5814,550,5807,550,619040,0
patternOccur-72,false,0.84,4354,992,4351,992,440859,0
patternOccur-73,false,0.43,4433,621,4428,621,421324,0
patternOccur-74,false,0.51,5779,999,5773,999,759251,0
patternOccur-75,false,0.84,5413,999,5411,999,542413,0
patternOccur-76,false,0.22,4458,433,4455,433,470731,0
patternOccur-77,false,0.83,4444,999,4441,999,455602,0
patternOccur-78,false,0.98,2339,999,2335,999,255774,0
patternOccur-79,false,0.37,6220,727,6218,727,661625,0
patternOccur-80,false,0.81,4307,999,4305,999,458335,0
patternOccur-81,false,0.58,8956,932,8951,932,888714,0
patternOccur-82,false,0.70,3762,999,3758,999,419494,0
patternOccur-83,false,0.90,3304,999,3303,999,355729,0
patternOccur-84,false,0.94,4495,999,4489,999,447340,0
patternOccur-85,false,0.27,2985,348,2984,348,312059,0
patternOccur-86,false,0.87,5307,999,5303,999,545517,0
patternOccur-87,false,0.98,3244,999,3236,999,364884,0
patternOccur-88,false,0.57,3596,780,3589,780,416731,0
patternOccur-89,false,0.25,2337,999,2331,999,299318,0
patternOccur-90,false,0.66,6486,810,6480,810,677565,0
patternOccur-91,false,0.07,1386,115,1385,115,160692,0
patternOccur-92,true,1.00,2470,932,2462,925,258158,0
patternOccur-93,true,1.00,3862,990,3859,982,402284,0
patternOccur-94,false,0.20,996,192,995,192,105711,0
patternOccur-95,false,0.95,5916,999,5908,999,620893,0
patternOccur-96,false,0.83,5755,999,5749,999,563567,0
patternOccur-97,false,0.41,8139,893,8136,893,878861,0
patternOccur-98,false,0.83,4502,999,4493,999,481984,0
patternOccur-99,true,1.00,1859,922,1855,917,207942,0
patternOccur-100,true,1.00,3193,930,3186,923,313256,0
