NDW:0.0
TTFW:1.8
DFPT:2.0
DFPAP:3.0
DFPMP:20.0
RIGHT_WINDOW_BORDER_X:115.0
level,win/fail,% travelled,run time,game ticks,planning time,total plannings,nodes evaluated,most backtracked nodes
Krys-1,false,0.38,18811,999,18805,999,1305563,0
Krys-2,false,0.79,13837,999,13830,999,967464,0
Krys-3,false,0.11,1954,104,1953,104,251361,0
Krys-4,true,1.00,2668,531,2661,519,262929,0
Krys-5,true,1.00,5061,504,5059,490,590657,0
Krys-6,true,1.00,1826,477,1823,463,198460,0
Krys-7,true,1.00,263,376,258,358,32970,0
Krys-8,true,1.00,2024,531,2022,512,245825,0
Krys-9,true,1.00,8597,606,8595,585,1144879,0
Krys-10,true,1.00,2409,500,2406,486,292529,0
Krys-11,true,1.00,52,388,51,366,6950,0
Krys-12,true,1.00,4263,559,4259,545,510948,0
Krys-13,false,0.72,5351,487,5348,487,554614,0
Krys-14,false,0.79,14282,999,14275,999,943916,0
Krys-15,true,1.00,8821,675,8821,661,1100482,0
Krys-16,false,0.69,13085,999,13077,999,893850,0
Krys-17,true,1.00,2926,534,2924,520,267010,0
Krys-18,true,1.00,1553,438,1553,425,166215,0
Krys-19,false,0.84,7710,529,7710,529,876959,0
Krys-20,false,0.74,3321,522,3320,522,395947,0
Krys-21,true,1.00,5459,519,5455,506,698302,0
Krys-22,true,1.00,9719,652,9718,639,1258014,0
Krys-23,true,1.00,1579,516,1575,503,158290,0
Krys-24,false,0.81,6624,558,6622,558,721498,0
Krys-25,true,1.00,2952,476,2944,454,317338,0
Krys-26,true,1.00,7273,533,7272,520,905383,0
Krys-27,true,1.00,3279,497,3277,478,312138,0
Krys-28,false,0.44,1122,230,1120,230,134035,0
Krys-29,true,1.00,1232,442,1230,431,108225,0
Krys-30,true,1.00,1231,521,1227,502,109441,0
Krys-31,true,1.00,965,419,964,406,119041,0
Krys-32,true,1.00,161,400,158,389,16501,0
Krys-33,true,1.00,335,399,332,380,41255,0
Krys-34,true,1.00,2071,465,2068,441,187675,0
Krys-35,true,1.00,4377,492,4374,473,589255,0
Krys-36,true,1.00,5626,650,5619,632,601888,0
Krys-37,true,1.00,8959,649,8953,638,943572,0
Krys-38,true,1.00,10295,683,10292,667,1206431,0
Krys-39,false,0.62,9546,534,9545,534,1164081,0
Krys-40,false,0.84,9222,625,9218,625,1224914,0
Krys-41,true,1.00,10919,686,10919,665,1241859,0
Krys-42,true,1.00,6873,635,6871,616,832331,0
Krys-43,true,1.00,6988,512,6986,500,866746,0
Krys-44,false,0.63,3939,435,3936,435,466403,0
Krys-45,true,1.00,481,418,475,399,40357,0
Krys-46,true,1.00,2088,524,2084,506,181631,0
Krys-47,true,1.00,480,471,477,457,53081,0
Krys-48,true,1.00,8690,619,8688,600,1031725,0
Krys-49,true,1.00,562,407,557,385,59802,0
Krys-50,true,1.00,8101,698,8098,677,883955,0
Krys-51,true,1.00,9992,699,9988,685,1330408,0
Krys-52,true,1.00,831,437,829,425,88740,0
Krys-53,true,1.00,2338,472,2337,458,190533,0
Krys-54,false,0.44,915,216,915,216,109808,0
Krys-55,true,1.00,2908,513,2907,497,263795,0
Krys-56,true,1.00,965,430,960,408,83298,0
Krys-57,true,1.00,3323,423,3323,402,317106,0
Krys-58,true,1.00,2101,474,2099,463,188195,0
Krys-59,false,0.89,11961,999,11957,999,812131,0
Krys-60,true,1.00,5507,517,5503,499,671974,0
Krys-61,false,0.48,17242,999,17232,999,1202770,0
Krys-62,true,1.00,462,447,461,423,38128,0
Krys-63,true,1.00,2398,577,2396,563,199291,0
Krys-64,true,1.00,1552,551,1550,532,158353,0
Krys-65,true,1.00,2228,484,2227,473,184537,0
Krys-66,true,1.00,2594,516,2588,503,236006,0
Krys-67,true,1.00,685,430,682,417,75500,0
Krys-68,true,1.00,7011,520,7011,506,698399,0
Krys-69,false,0.48,17630,999,17616,999,1137575,0
Krys-70,true,1.00,4576,576,4573,552,489690,0
Krys-71,true,1.00,6304,552,6304,539,742515,0
Krys-72,true,1.00,737,521,736,503,84183,0
Krys-73,true,1.00,4340,621,4338,602,531859,0
Krys-74,true,1.00,2761,473,2760,460,244920,0
Krys-75,true,1.00,245,422,244,400,23406,0
Krys-76,true,1.00,8680,631,8678,618,978294,0
Krys-77,false,0.44,3627,279,3627,279,453994,0
Krys-78,true,1.00,10578,733,10575,715,1240506,0
Krys-79,true,1.00,556,461,556,447,50153,0
Krys-80,true,1.00,172,398,166,380,20403,0
Krys-81,true,1.00,1533,459,1531,441,168735,0
Krys-82,true,1.00,462,434,459,420,45830,0
Krys-83,false,0.91,21042,999,21042,999,1682857,0
Krys-84,true,1.00,115,360,110,341,13915,0
Krys-85,true,1.00,3504,578,3501,562,366874,0
Krys-86,true,1.00,1284,414,1279,392,106825,0
Krys-87,true,1.00,405,409,403,398,32916,0
Krys-88,true,1.00,1321,427,1320,409,136987,0
Krys-89,true,1.00,2324,538,2320,515,255724,0
Krys-90,true,1.00,6319,497,6315,475,703279,0
Krys-91,true,1.00,165,410,163,389,20696,0
Krys-92,true,1.00,6040,574,6036,544,657473,0
Krys-93,true,1.00,5118,517,5117,498,686620,0
Krys-94,true,1.00,5148,548,5142,534,682595,0
Krys-95,true,1.00,1026,413,1025,394,93412,0
Krys-96,false,0.83,6772,503,6769,503,729345,0
Krys-97,true,1.00,3064,471,3062,457,330209,0
Krys-98,true,1.00,2969,601,2964,583,280099,0
Krys-99,true,1.00,587,461,585,439,54703,0
Krys-100,true,1.00,8730,593,8727,580,1121543,0
