NDW:0.0
TTFW:1.8
DFPT:2.0
DFPAP:3.0
DFPMP:2.0
RIGHT_WINDOW_BORDER_X:235.0
level,win/fail,% travelled,run time,game ticks,planning time,total plannings,nodes evaluated,most backtracked nodes
patternWeightCount-1,true,1.00,3579,561,3570,521,459854,0
patternWeightCount-2,true,1.00,741,487,739,460,92373,0
patternWeightCount-3,true,1.00,598,435,593,406,79234,0
patternWeightCount-4,true,1.00,927,437,926,416,124112,0
patternWeightCount-5,true,1.00,1595,496,1594,464,207491,0
patternWeightCount-6,true,1.00,1776,523,1774,501,228972,0
patternWeightCount-7,true,1.00,1289,435,1287,412,159558,0
patternWeightCount-8,true,1.00,935,450,935,429,103652,0
patternWeightCount-9,true,1.00,1803,505,1803,483,228806,0
patternWeightCount-10,true,1.00,1256,590,1251,569,159547,0
patternWeightCount-11,true,1.00,619,456,618,435,77256,0
patternWeightCount-12,true,1.00,1529,555,1526,532,194266,0
patternWeightCount-13,true,1.00,948,457,945,436,126183,0
patternWeightCount-14,true,1.00,873,533,871,508,109198,0
patternWeightCount-15,true,1.00,1088,431,1085,409,138928,0
patternWeightCount-16,true,1.00,2333,540,2330,501,310662,0
patternWeightCount-17,true,1.00,1126,494,1122,473,148575,0
patternWeightCount-18,true,1.00,627,429,626,408,78003,0
patternWeightCount-19,true,1.00,530,468,526,447,64737,0
patternWeightCount-20,true,1.00,7026,561,7025,526,766695,0
patternWeightCount-21,true,1.00,465,529,459,507,55640,0
patternWeightCount-22,true,1.00,2114,502,2114,469,284598,0
patternWeightCount-23,true,1.00,637,493,633,459,81468,0
patternWeightCount-24,true,1.00,909,414,908,392,114268,0
patternWeightCount-25,true,1.00,1622,544,1606,523,204067,0
patternWeightCount-26,true,1.00,1056,488,1051,459,146734,0
patternWeightCount-27,true,1.00,2069,528,2065,490,277098,0
patternWeightCount-28,true,1.00,1441,554,1439,533,197605,0
patternWeightCount-29,true,1.00,847,445,843,424,112613,0
patternWeightCount-30,true,1.00,3899,553,3899,529,422660,0
patternWeightCount-31,true,1.00,758,468,756,447,90934,0
patternWeightCount-32,true,1.00,648,524,643,503,82331,0
patternWeightCount-33,true,1.00,1040,453,1034,432,135015,0
patternWeightCount-34,true,1.00,1032,438,1030,417,134029,0
patternWeightCount-35,true,1.00,1624,460,1622,439,193388,0
patternWeightCount-36,true,1.00,1489,492,1487,471,191635,0
patternWeightCount-37,true,1.00,825,446,823,425,104806,0
patternWeightCount-38,true,1.00,1763,456,1761,418,210846,0
patternWeightCount-39,true,1.00,825,435,824,414,99168,0
patternWeightCount-40,true,1.00,1601,468,1597,447,202184,0
patternWeightCount-41,true,1.00,1252,495,1248,463,158260,0
patternWeightCount-42,false,0.87,3613,475,3612,475,391522,0
patternWeightCount-43,true,1.00,973,411,971,390,121587,0
patternWeightCount-44,true,1.00,1682,541,1676,484,242046,0
patternWeightCount-45,true,1.00,2831,543,2827,514,339773,0
patternWeightCount-46,true,1.00,4209,533,4203,492,462171,0
patternWeightCount-47,true,1.00,649,440,647,419,84235,0
patternWeightCount-48,true,1.00,583,434,580,413,74391,0
patternWeightCount-49,true,1.00,644,430,641,409,82774,0
patternWeightCount-50,true,1.00,823,433,820,412,99195,0
patternWeightCount-51,true,1.00,1168,511,1166,475,149523,0
patternWeightCount-52,true,1.00,1285,508,1282,464,170003,0
patternWeightCount-53,false,0.81,3070,429,3067,429,349285,0
patternWeightCount-54,true,1.00,716,518,712,497,85697,0
patternWeightCount-55,true,1.00,1097,499,1093,470,130769,0
patternWeightCount-56,true,1.00,1167,481,1167,460,141998,0
patternWeightCount-57,true,1.00,390,429,388,408,50067,0
patternWeightCount-58,true,1.00,1049,485,1045,451,133683,0
patternWeightCount-59,true,1.00,401,462,400,433,48546,0
patternWeightCount-60,true,1.00,1737,558,1736,523,222847,0
patternWeightCount-61,true,1.00,940,406,936,385,120242,0
patternWeightCount-62,true,1.00,2093,505,2092,472,261692,0
patternWeightCount-63,true,1.00,1497,477,1497,456,194292,0
patternWeightCount-64,true,1.00,2235,473,2231,452,284918,0
patternWeightCount-65,true,1.00,1850,514,1846,492,225223,0
patternWeightCount-66,true,1.00,943,497,941,476,113531,0
patternWeightCount-67,true,1.00,1160,488,1158,467,134184,0
patternWeightCount-68,true,1.00,2219,530,2214,509,163154,0
patternWeightCount-69,true,1.00,1432,479,1427,439,174120,0
patternWeightCount-70,true,1.00,855,494,850,463,108156,0
patternWeightCount-71,true,1.00,701,439,700,401,84105,0
patternWeightCount-72,true,1.00,5290,535,5290,495,537647,0
patternWeightCount-73,true,1.00,4410,453,4409,412,530512,0
patternWeightCount-74,true,1.00,948,465,948,444,121356,0
patternWeightCount-75,true,1.00,1307,472,1305,451,170876,0
patternWeightCount-76,true,1.00,770,491,766,470,98368,0
patternWeightCount-77,true,1.00,1668,516,1665,495,214427,0
patternWeightCount-78,true,1.00,1965,502,1955,480,252275,0
patternWeightCount-79,true,1.00,657,439,654,418,84908,0
patternWeightCount-80,true,1.00,1458,556,1455,535,185837,0
patternWeightCount-81,true,1.00,5411,606,5406,579,534867,0
patternWeightCount-82,true,1.00,195,426,194,389,19914,0
patternWeightCount-83,true,1.00,608,449,604,427,75356,0
patternWeightCount-84,true,1.00,1163,509,1160,488,137273,0
patternWeightCount-85,true,1.00,1994,533,1992,499,237001,0
patternWeightCount-86,false,0.93,3813,483,3812,483,376128,0
patternWeightCount-87,true,1.00,5659,529,5657,497,599661,0
patternWeightCount-88,true,1.00,1006,449,1004,427,125048,0
patternWeightCount-89,true,1.00,803,453,799,432,105365,0
patternWeightCount-90,true,1.00,3579,548,3578,511,453843,0
patternWeightCount-91,true,1.00,1217,499,1208,477,152175,0
patternWeightCount-92,true,1.00,3675,551,3672,514,468168,0
patternWeightCount-93,true,1.00,4857,548,4852,513,553601,0
patternWeightCount-94,true,1.00,1148,482,1143,461,146696,0
patternWeightCount-95,true,1.00,1094,488,1089,467,138440,0
patternWeightCount-96,true,1.00,778,514,774,493,93574,0
patternWeightCount-97,true,1.00,1180,395,1175,373,153063,0
patternWeightCount-98,true,1.00,5431,514,5430,484,643472,0
patternWeightCount-99,true,1.00,1828,519,1826,497,241831,0
patternWeightCount-100,true,1.00,1088,456,1085,435,135562,0
