NDW:0.0
TTFW:1.0
DFPT:2.0
DFPAP:3.0
DFPMP:20.0
RIGHT_WINDOW_BORDER_X:400.0
level,win/fail,% travelled,run time,game ticks,planning time,total plannings,nodes evaluated,most backtracked nodes
notchParam-1,true,1.00,1182,312,1179,276,64217,0
notchParam-2,true,1.00,1107,319,1100,283,58036,0
notchParam-3,true,1.00,795,310,784,274,44241,0
notchParam-4,true,1.00,794,321,782,284,43131,0
notchParam-5,true,1.00,742,317,730,269,41557,0
notchParam-6,true,1.00,821,320,815,283,45895,0
notchParam-7,true,1.00,1196,327,1190,291,64066,0
notchParam-8,true,1.00,1418,318,1411,282,81614,0
notchParam-9,true,1.00,846,342,840,305,45852,0
notchParam-10,true,1.00,1354,320,1348,283,77072,0
notchParam-11,true,1.00,726,312,719,275,41033,0
notchParam-12,true,1.00,1330,325,1322,289,76426,0
notchParam-13,true,1.00,388,315,381,279,20250,0
notchParam-14,true,1.00,344,304,334,268,17693,0
notchParam-15,true,1.00,962,298,955,262,52808,0
notchParam-16,true,1.00,959,307,954,271,53598,0
notchParam-17,true,1.00,1254,322,1247,286,67105,0
notchParam-18,true,1.00,414,322,409,286,20475,0
notchParam-19,true,1.00,372,309,367,273,19221,0
notchParam-20,true,1.00,353,312,343,276,18070,0
notchParam-21,true,1.00,339,302,331,266,17083,0
notchParam-22,true,1.00,387,316,379,280,19561,0
notchParam-23,true,1.00,1660,352,1654,315,92008,0
notchParam-24,true,1.00,1448,320,1442,283,84374,0
notchParam-25,true,1.00,1393,318,1387,281,79551,0
notchParam-26,true,1.00,1612,330,1604,294,91029,0
notchParam-27,true,1.00,340,309,331,273,17295,0
notchParam-28,true,1.00,803,323,795,286,43703,0
notchParam-29,true,1.00,774,333,770,296,42948,0
notchParam-30,true,1.00,350,308,347,272,18360,0
notchParam-31,true,1.00,1005,310,999,274,56190,0
notchParam-32,true,1.00,1342,342,1333,306,70911,0
notchParam-33,true,1.00,344,300,334,264,17803,0
notchParam-34,true,1.00,1053,308,1044,272,57392,0
notchParam-35,true,1.00,1241,312,1234,276,64433,0
notchParam-36,true,1.00,1180,320,1169,284,64447,0
notchParam-37,true,1.00,333,300,322,264,16810,0
notchParam-38,true,1.00,341,306,335,270,17611,0
notchParam-39,true,1.00,960,304,953,268,52846,0
notchParam-40,true,1.00,810,316,804,280,45541,0
notchParam-41,true,1.00,843,317,833,281,46930,0
notchParam-42,true,1.00,350,309,345,273,17861,0
notchParam-43,true,1.00,1349,316,1346,279,77036,0
notchParam-44,true,1.00,1335,322,1326,285,77505,0
notchParam-45,true,1.00,1426,330,1423,288,84668,0
notchParam-46,true,1.00,1401,314,1397,277,78374,0
notchParam-47,true,1.00,337,300,328,264,16988,0
notchParam-48,true,1.00,455,322,448,286,22728,0
notchParam-49,true,1.00,370,321,366,281,18708,0
notchParam-50,true,1.00,503,342,496,300,23408,0
notchParam-51,true,1.00,334,306,327,270,17282,0
notchParam-52,true,1.00,1106,304,1101,268,60469,0
notchParam-53,true,1.00,1014,302,1006,266,56441,0
notchParam-54,true,1.00,1313,324,1303,288,68000,0
notchParam-55,true,1.00,428,318,420,282,21095,0
notchParam-56,true,1.00,350,304,343,268,17895,0
notchParam-57,true,1.00,1448,326,1446,289,83002,0
notchParam-58,true,1.00,809,323,803,287,44279,0
notchParam-59,true,1.00,1671,334,1659,298,93799,0
notchParam-60,true,1.00,987,346,980,309,53142,0
notchParam-61,true,1.00,1449,337,1445,300,82715,0
notchParam-62,true,1.00,893,298,883,262,49507,0
notchParam-63,true,1.00,836,330,827,293,45522,0
notchParam-64,true,1.00,833,326,825,289,47334,0
notchParam-65,true,1.00,796,316,790,279,44142,0
notchParam-66,true,1.00,832,330,822,293,45719,0
notchParam-67,true,1.00,1104,310,1099,274,60704,0
notchParam-68,true,1.00,1006,310,1002,268,54561,0
notchParam-69,true,1.00,920,298,914,262,50771,0
notchParam-70,true,1.00,1002,306,995,270,55568,0
notchParam-71,true,1.00,1056,356,1047,318,59467,0
notchParam-72,true,1.00,800,332,793,293,43867,0
notchParam-73,true,1.00,759,310,752,274,42228,0
notchParam-74,true,1.00,818,336,815,299,44883,0
notchParam-75,true,1.00,854,320,849,283,47991,0
notchParam-76,true,1.00,1463,332,1452,295,81848,0
notchParam-77,true,1.00,896,316,890,280,49635,0
notchParam-78,true,1.00,1428,318,1421,281,80977,0
notchParam-79,true,1.00,814,321,805,284,45281,0
notchParam-80,true,1.00,381,308,375,272,18976,0
notchParam-81,true,1.00,829,336,823,294,47124,0
notchParam-82,true,1.00,381,305,366,269,19653,0
notchParam-83,true,1.00,347,302,339,266,17739,0
notchParam-84,true,1.00,1193,323,1186,287,62546,0
notchParam-85,true,1.00,1533,352,1527,316,77147,0
notchParam-86,true,1.00,1285,304,1273,267,72806,0
notchParam-87,true,1.00,336,314,328,278,17685,0
notchParam-88,true,1.00,334,312,321,276,16954,0
notchParam-89,true,1.00,354,304,347,268,17896,0
notchParam-90,true,1.00,377,309,365,273,19241,0
notchParam-91,true,1.00,1441,330,1431,294,80464,0
notchParam-92,true,1.00,1316,308,1307,271,75205,0
notchParam-93,true,1.00,1509,329,1504,287,87721,0
notchParam-94,true,1.00,1483,328,1477,292,84018,0
notchParam-95,true,1.00,1997,351,1991,315,108965,0
notchParam-96,true,1.00,810,314,801,278,46022,0
notchParam-97,true,1.00,760,310,751,274,41292,0
notchParam-98,true,1.00,360,304,353,268,18217,0
notchParam-99,true,1.00,1313,324,1307,288,68674,0
notchParam-100,true,1.00,1040,302,1033,266,57257,0
