NDW:0.0
TTFW:2.0
DFPT:2.0
DFPAP:3.0
DFPMP:5.0
RIGHT_WINDOW_BORDER_X:255.0
level,win/fail,% travelled,run time,game ticks,planning time,total plannings,nodes evaluated,most backtracked nodes
patternCount-1,false,0.88,6118,528,6109,528,316952,0
patternCount-2,true,1.00,1111,452,1100,429,64779,0
patternCount-3,true,1.00,3349,474,3333,457,190900,0
patternCount-4,true,1.00,1419,468,1407,441,86138,0
patternCount-5,true,1.00,1570,508,1556,472,92100,0
patternCount-6,true,1.00,724,418,711,394,40572,0
patternCount-7,true,1.00,1441,437,1431,414,86380,0
patternCount-8,true,1.00,3144,474,3125,440,192179,0
patternCount-9,true,1.00,1115,467,1105,443,65570,0
patternCount-10,true,1.00,563,400,555,378,32368,0
patternCount-11,true,1.00,4707,572,4693,537,278194,0
patternCount-12,true,1.00,890,417,878,389,50316,0
patternCount-13,true,1.00,949,423,934,399,55968,0
patternCount-14,true,1.00,1297,430,1286,407,77511,0
patternCount-15,true,1.00,1133,484,1124,461,64588,0
patternCount-16,true,1.00,1438,415,1428,392,84811,0
patternCount-17,true,1.00,1389,512,1373,489,80232,0
patternCount-18,true,1.00,1386,437,1378,414,82549,0
patternCount-19,true,1.00,926,395,919,372,53708,0
patternCount-20,true,1.00,1464,437,1453,403,88815,0
patternCount-21,true,1.00,1180,500,1166,477,68162,0
patternCount-22,true,1.00,3165,502,3150,470,188840,0
patternCount-23,true,1.00,6920,554,6913,528,385686,0
patternCount-24,true,1.00,5713,466,5703,432,349320,0
patternCount-25,true,1.00,1333,456,1323,429,79587,0
patternCount-26,true,1.00,786,454,775,431,44731,0
patternCount-27,true,1.00,1411,442,1403,417,84778,0
patternCount-28,true,1.00,1452,504,1438,461,83964,0
patternCount-29,true,1.00,1173,427,1164,404,65326,0
patternCount-30,true,1.00,1363,532,1354,509,74519,0
patternCount-31,true,1.00,1363,433,1356,410,77093,0
patternCount-32,true,1.00,2002,519,1993,496,113807,0
patternCount-33,true,1.00,3611,496,3602,465,206143,0
patternCount-34,true,1.00,2415,490,2405,465,140219,0
patternCount-35,true,1.00,1185,461,1174,438,66338,0
patternCount-36,true,1.00,2893,515,2885,467,163558,0
patternCount-37,true,1.00,939,366,926,343,53032,0
patternCount-38,true,1.00,3097,499,3087,475,175622,0
patternCount-39,true,1.00,1031,455,1017,415,56342,0
patternCount-40,true,1.00,4798,472,4791,436,272528,0
patternCount-41,true,1.00,2691,479,2681,456,157717,0
patternCount-42,true,1.00,1018,460,1010,429,55096,0
patternCount-43,true,1.00,767,466,750,443,40886,0
patternCount-44,true,1.00,878,442,864,419,48254,0
patternCount-45,true,1.00,1425,506,1403,473,75505,0
patternCount-46,true,1.00,1737,455,1720,432,98934,0
patternCount-47,true,1.00,1839,493,1829,470,103770,0
patternCount-48,true,1.00,1096,473,1090,450,60029,0
patternCount-49,true,1.00,1494,454,1486,431,84309,0
patternCount-50,true,1.00,5218,550,5206,518,302337,0
patternCount-51,true,1.00,1187,423,1171,399,65002,0
patternCount-52,true,1.00,1410,448,1404,425,81004,0
patternCount-53,true,1.00,4307,438,4301,411,243829,0
patternCount-54,true,1.00,2129,529,2123,504,123279,0
patternCount-55,true,1.00,5614,464,5605,433,309351,0
patternCount-56,true,1.00,1350,455,1338,432,76991,0
patternCount-57,true,1.00,951,436,940,399,53296,0
patternCount-58,false,0.80,5662,479,5653,479,300417,0
patternCount-59,true,1.00,1220,474,1202,451,68832,0
patternCount-60,true,1.00,1367,458,1361,435,77627,0
patternCount-61,true,1.00,1415,476,1403,433,79565,0
patternCount-62,true,1.00,1331,483,1317,445,76035,0
patternCount-63,true,1.00,1064,449,1051,426,60668,0
patternCount-64,true,1.00,1177,451,1162,428,66243,0
patternCount-65,true,1.00,1183,457,1166,425,67032,0
patternCount-66,true,1.00,1727,487,1715,464,100299,0
patternCount-67,true,1.00,1919,473,1912,436,112081,0
patternCount-68,true,1.00,1081,437,1078,414,59404,0
patternCount-69,true,1.00,1236,498,1224,465,70062,0
patternCount-70,true,1.00,777,433,767,410,42456,0
patternCount-71,true,1.00,1617,512,1605,489,91709,0
patternCount-72,true,1.00,5768,463,5756,439,320685,0
patternCount-73,true,1.00,2184,505,2168,481,125967,0
patternCount-74,true,1.00,6733,522,6721,490,359166,0
patternCount-75,true,1.00,1285,468,1273,442,70570,0
patternCount-76,true,1.00,1551,483,1540,460,89703,0
patternCount-77,true,1.00,1552,389,1544,365,85781,0
patternCount-78,true,1.00,1792,505,1775,482,100461,0
patternCount-79,true,1.00,5311,563,5298,529,307867,0
patternCount-80,true,1.00,3302,517,3291,471,188369,0
patternCount-81,true,1.00,1131,471,1120,448,62740,0
patternCount-82,true,1.00,1057,424,1049,401,59842,0
patternCount-83,true,1.00,1304,459,1291,436,73238,0
patternCount-84,true,1.00,1043,453,1033,430,58009,0
patternCount-85,true,1.00,1139,457,1124,434,64769,0
patternCount-86,true,1.00,989,404,980,381,55072,0
patternCount-87,true,1.00,1409,517,1398,485,79417,0
patternCount-88,true,1.00,1307,458,1297,423,75496,0
patternCount-89,true,1.00,1773,483,1764,459,103372,0
patternCount-90,true,1.00,770,424,763,401,42425,0
patternCount-91,true,1.00,2506,500,2492,477,144945,0
patternCount-92,true,1.00,1337,500,1330,477,73817,0
patternCount-93,true,1.00,5926,544,5918,512,332848,0
patternCount-94,true,1.00,1329,468,1319,431,75917,0
patternCount-95,true,1.00,1823,452,1816,429,108843,0
patternCount-96,true,1.00,1611,482,1602,459,92846,0
patternCount-97,false,0.82,3506,405,3497,405,196577,0
patternCount-98,true,1.00,1612,509,1603,484,90350,0
patternCount-99,true,1.00,1340,483,1327,460,76673,0
patternCount-100,true,1.00,733,394,728,371,39194,0
