NDW:0.0
TTFW:0.2
DFPT:2.0
DFPAP:3.0
DFPMP:7.0
RIGHT_WINDOW_BORDER_X:135.0
level,win/fail,% travelled,run time,game ticks,planning time,total plannings,nodes evaluated,most backtracked nodes
Krys-1,true,1.00,5572,522,5569,504,447873,0
Krys-2,false,0.79,13583,999,13569,999,907939,0
Krys-3,false,0.70,21834,999,21819,999,1685127,0
Krys-4,true,1.00,5488,551,5485,534,424301,0
Krys-5,true,1.00,7245,505,7241,487,652512,0
Krys-6,true,1.00,2703,431,2699,415,228138,0
Krys-7,true,1.00,753,310,750,295,68665,0
Krys-8,true,1.00,3305,466,3300,447,260681,0
Krys-9,true,1.00,4221,432,4219,412,379582,0
Krys-10,true,1.00,2381,357,2378,344,203832,0
Krys-11,true,1.00,1144,358,1142,333,91316,0
Krys-12,false,0.70,25272,999,25271,999,1704607,0
Krys-13,false,0.62,1320,216,1315,216,125024,0
Krys-14,false,0.79,13952,999,13935,999,895932,0
Krys-15,true,1.00,9610,628,9605,612,866049,0
Krys-16,false,0.69,14114,999,14104,999,930141,0
Krys-17,true,1.00,5764,494,5760,473,441439,0
Krys-18,true,1.00,4662,533,4658,518,344670,0
Krys-19,false,0.12,2446,108,2446,108,198008,0
Krys-20,true,1.00,8443,631,8438,607,705342,0
Krys-21,true,1.00,3835,380,3831,361,352465,0
Krys-22,true,1.00,7280,599,7275,577,682897,0
Krys-23,true,1.00,5253,556,5248,534,369717,0
Krys-24,false,0.70,26049,999,26046,999,1662607,0
Krys-25,true,1.00,3240,392,3239,362,270867,0
Krys-26,false,0.73,7091,433,7091,433,642212,0
Krys-27,true,1.00,3363,412,3361,398,280416,0
Krys-28,false,0.85,7526,589,7522,589,593465,0
Krys-29,true,1.00,4665,448,4658,435,350726,0
Krys-30,true,1.00,4478,512,4475,499,328390,0
Krys-31,true,1.00,3277,466,3276,449,257514,0
Krys-32,true,1.00,1828,382,1827,370,141644,0
Krys-33,false,0.49,19881,999,19875,999,1312447,0
Krys-34,true,1.00,5101,489,5097,475,410174,0
Krys-35,true,1.00,4588,420,4587,406,417827,0
Krys-36,false,0.91,23806,999,23799,999,1720729,0
Krys-37,true,1.00,9912,608,9910,596,806919,0
Krys-38,true,1.00,11705,623,11703,594,1070060,0
Krys-39,true,1.00,7504,546,7501,532,646190,0
Krys-40,false,0.64,2535,293,2533,293,222948,0
Krys-41,false,0.70,24917,999,24915,999,1784718,0
Krys-42,true,1.00,5470,481,5469,463,507176,0
Krys-43,true,1.00,4095,404,4089,390,384008,0
Krys-44,false,0.65,3352,326,3351,326,315558,0
Krys-45,true,1.00,2655,381,2653,364,185618,0
Krys-46,true,1.00,3884,474,3878,444,290695,0
Krys-47,true,1.00,3614,480,3611,464,277116,0
Krys-48,false,0.12,2446,108,2446,108,198744,0
Krys-49,true,1.00,4368,449,4367,420,323163,0
Krys-50,false,0.70,24200,999,24197,999,1598984,0
Krys-51,true,1.00,6925,498,6922,485,596241,0
Krys-52,true,1.00,5189,519,5185,503,375528,0
Krys-53,true,1.00,3511,483,3507,465,270888,0
Krys-54,true,1.00,6015,541,6011,527,500299,0
Krys-55,true,1.00,5371,533,5363,514,409706,0
Krys-56,false,0.59,26598,999,26596,999,1682048,0
Krys-57,true,1.00,4934,460,4931,444,416875,0
Krys-58,true,1.00,5010,531,5005,519,372058,0
Krys-59,false,0.89,13423,999,13418,999,876773,0
Krys-60,true,1.00,9465,576,9463,563,815611,0
Krys-61,true,1.00,4139,438,4137,425,313167,0
Krys-62,true,1.00,2992,385,2991,371,197741,0
Krys-63,true,1.00,6821,580,6816,558,499009,0
Krys-64,true,1.00,4579,524,4576,502,358098,0
Krys-65,true,1.00,3020,401,3018,388,220110,0
Krys-66,true,1.00,7273,546,7269,526,532101,0
Krys-67,true,1.00,4493,498,4487,485,358779,0
Krys-68,true,1.00,5943,458,5940,442,513523,0
Krys-69,true,1.00,7580,664,7572,644,552600,0
Krys-70,true,1.00,6107,506,6102,486,496751,0
Krys-71,true,1.00,4459,397,4456,376,413881,0
Krys-72,true,1.00,4732,522,4728,509,344346,0
Krys-73,true,1.00,8173,540,8169,514,695659,0
Krys-74,true,1.00,3984,462,3979,433,311263,0
Krys-75,true,1.00,1598,365,1597,344,117242,0
Krys-76,true,1.00,7159,477,7155,464,627045,0
Krys-77,true,1.00,3394,382,3391,352,304531,0
Krys-78,true,1.00,5820,461,5817,448,520352,0
Krys-79,true,1.00,2233,357,2230,344,163261,0
Krys-80,true,1.00,2054,415,2052,403,155806,0
Krys-81,false,0.62,1977,239,1975,239,150453,0
Krys-82,true,1.00,1880,341,1880,325,144777,0
Krys-83,true,1.00,8339,576,8334,563,716257,0
Krys-84,true,1.00,1280,369,1278,347,106893,0
Krys-85,true,1.00,5365,519,5361,489,394301,0
Krys-86,true,1.00,3967,438,3965,425,289930,0
Krys-87,true,1.00,2222,376,2221,364,157196,0
Krys-88,true,1.00,3519,398,3517,378,273191,0
Krys-89,true,1.00,3607,387,3606,371,282300,0
Krys-90,true,1.00,7816,498,7812,485,676477,0
Krys-91,true,1.00,1283,384,1280,357,105735,0
Krys-92,false,0.62,4498,353,4495,353,367542,0
Krys-93,true,1.00,5465,439,5461,414,476887,0
Krys-94,true,1.00,4066,393,4065,377,377215,0
Krys-95,true,1.00,2981,392,2980,379,215355,0
Krys-96,true,1.00,4658,411,4656,390,438512,0
Krys-97,false,0.70,4204,344,4203,344,334320,0
Krys-98,true,1.00,8064,619,8060,602,583960,0
Krys-99,true,1.00,3858,481,3855,459,264273,0
Krys-100,true,1.00,6877,534,6874,516,619061,0
