NDW:0.0
TTFW:1.4
DFPT:2.0
DFPAP:3.0
DFPMP:1.0
RIGHT_WINDOW_BORDER_X:275.0
level,win/fail,% travelled,run time,game ticks,planning time,total plannings,nodes evaluated,most backtracked nodes
ore-1,true,1.00,2202,453,2190,425,111893,0
ore-2,false,0.70,3015,320,3010,320,150601,0
ore-3,true,1.00,1599,437,1595,392,84499,0
ore-4,true,1.00,2387,507,2374,481,120309,0
ore-5,true,1.00,1889,405,1873,368,100802,0
ore-6,true,1.00,1546,455,1533,419,81626,0
ore-7,true,1.00,2313,436,2307,405,125262,0
ore-8,false,0.13,1909,90,1909,90,90162,0
ore-9,true,1.00,1166,372,1156,348,62279,0
ore-10,true,1.00,2515,489,2506,449,129647,0
ore-11,true,1.00,1638,452,1628,413,86010,0
ore-12,false,0.46,1682,227,1681,227,82328,0
ore-13,true,1.00,1894,482,1883,434,102650,0
ore-14,true,1.00,1918,440,1902,415,103961,0
ore-15,true,1.00,1950,416,1940,386,107523,0
ore-16,true,1.00,2209,461,2197,424,116559,0
ore-17,true,1.00,1863,465,1850,417,102791,0
ore-18,true,1.00,1789,474,1778,436,97048,0
ore-19,true,1.00,1346,411,1336,385,72614,0
ore-20,true,1.00,2580,449,2567,416,143033,0
ore-21,true,1.00,2454,525,2437,495,134894,0
ore-22,false,0.62,1833,264,1827,264,89887,0
ore-23,true,1.00,2649,431,2639,400,141163,0
ore-24,true,1.00,2208,494,2194,445,121375,0
ore-25,true,1.00,1777,462,1760,423,87807,0
ore-26,false,0.40,28663,999,28660,999,1045369,0
ore-27,false,0.24,1525,135,1523,135,75151,0
ore-28,true,1.00,1490,416,1483,390,80003,0
ore-29,true,1.00,2156,436,2138,412,113399,0
ore-30,true,1.00,1370,442,1361,396,75355,0
ore-31,true,1.00,1867,448,1859,406,105052,0
ore-32,true,1.00,2026,423,2017,398,110380,0
ore-33,true,1.00,1796,490,1785,464,98225,0
ore-34,true,1.00,1788,463,1779,420,99876,0
ore-35,true,1.00,1901,414,1891,387,109516,0
ore-36,true,1.00,1663,431,1652,396,94589,0
ore-37,false,0.34,1371,122,1369,122,67998,0
ore-38,true,1.00,1347,392,1334,367,73610,0
ore-39,true,1.00,2710,488,2696,448,153564,0
ore-40,true,1.00,2012,423,2003,394,107175,0
ore-41,true,1.00,1648,451,1636,405,93497,0
ore-42,true,1.00,2909,479,2902,454,162147,0
ore-43,false,0.37,1605,212,1595,212,59081,0
ore-44,true,1.00,3095,430,3088,376,143062,0
ore-45,false,0.74,23987,999,23972,999,859503,0
ore-46,false,0.12,870,53,870,53,41178,0
ore-47,false,0.85,3028,453,3018,453,157059,0
ore-48,true,1.00,3251,486,3240,459,173321,0
ore-49,true,1.00,1506,428,1498,379,82272,0
ore-50,true,1.00,2489,446,2479,419,135724,0
ore-51,true,1.00,2031,434,2014,391,107298,0
ore-52,true,1.00,1779,444,1769,400,93630,0
ore-53,true,1.00,1898,412,1897,380,101293,0
ore-54,false,0.72,2964,380,2958,380,149988,0
ore-55,true,1.00,1672,396,1659,356,94146,0
ore-56,true,1.00,1372,376,1362,351,73746,0
ore-57,true,1.00,1683,415,1670,377,91487,0
ore-58,true,1.00,1870,454,1857,429,102028,0
ore-59,true,1.00,2384,506,2373,478,131524,0
ore-60,true,1.00,2250,438,2237,406,118831,0
ore-61,true,1.00,1834,431,1826,401,94338,0
ore-62,false,0.78,2109,321,2095,321,106575,0
ore-63,false,0.32,2023,156,2022,156,95636,0
ore-64,true,1.00,1395,417,1387,390,76102,0
ore-65,true,1.00,2167,499,2154,465,117384,0
ore-66,true,1.00,2478,487,2466,440,133038,0
ore-67,true,1.00,2216,429,2208,394,120647,0
ore-68,true,1.00,1299,440,1287,405,67591,0
ore-69,true,1.00,3779,512,3762,483,182446,0
ore-70,false,0.95,3168,465,3160,465,163854,0
ore-71,true,1.00,1529,417,1515,391,82358,0
ore-72,true,1.00,1536,443,1524,406,82473,0
ore-73,true,1.00,1788,400,1779,362,94580,0
ore-74,true,1.00,3116,425,3095,383,103643,0
ore-75,true,1.00,1870,471,1852,444,103837,0
ore-76,true,1.00,1533,392,1520,362,86895,0
ore-77,true,1.00,1597,397,1590,358,91971,0
ore-78,true,1.00,1697,402,1684,377,96801,0
ore-79,true,1.00,1946,460,1933,408,105830,0
ore-80,true,1.00,1738,412,1732,366,98081,0
ore-81,true,1.00,1931,448,1920,420,108998,0
ore-82,true,1.00,1623,414,1613,379,90883,0
ore-83,true,1.00,1771,436,1755,411,81075,0
ore-84,false,0.18,1184,79,1182,79,26273,0
ore-85,true,1.00,2108,440,2102,406,107150,0
ore-86,false,0.60,2492,323,2485,323,133869,0
ore-87,true,1.00,1703,441,1688,407,91617,0
ore-88,true,1.00,2291,434,2280,406,126187,0
ore-89,true,1.00,3760,487,3744,462,174569,0
ore-90,true,1.00,3610,531,3589,475,159138,0
ore-91,true,1.00,2286,393,2275,360,108146,0
ore-92,true,1.00,1973,445,1959,415,109800,0
ore-93,false,0.13,1708,77,1707,77,76791,0
ore-94,true,1.00,1962,466,1950,434,106509,0
ore-95,true,1.00,2327,465,2316,432,126267,0
ore-96,true,1.00,2556,495,2542,458,139370,0
ore-97,true,1.00,2673,477,2660,434,145597,0
ore-98,true,1.00,2897,435,2882,404,131377,0
ore-99,true,1.00,2750,436,2728,409,128328,0
ore-100,true,1.00,1726,455,1712,416,97758,0
