NDW:0.0
TTFW:0.2
DFPT:2.0
DFPAP:3.0
DFPMP:3.0
RIGHT_WINDOW_BORDER_X:95.0
level,win/fail,% travelled,run time,game ticks,planning time,total plannings,nodes evaluated,most backtracked nodes
patternWeightCount-1,false,0.93,8925,809,8922,809,885776,0
patternWeightCount-2,true,1.00,1464,511,1460,501,144388,0
patternWeightCount-3,true,1.00,2258,571,2252,561,231005,0
patternWeightCount-4,true,1.00,1532,553,1529,543,154962,0
patternWeightCount-5,true,1.00,4131,628,4127,618,406718,0
patternWeightCount-6,true,1.00,6031,684,6021,672,603283,0
patternWeightCount-7,true,1.00,1374,511,1371,501,140595,0
patternWeightCount-8,true,1.00,1381,542,1381,534,128520,0
patternWeightCount-9,true,1.00,2889,634,2882,624,290397,0
patternWeightCount-10,true,1.00,1766,568,1761,558,176939,0
patternWeightCount-11,true,1.00,1295,559,1291,549,137525,0
patternWeightCount-12,true,1.00,1977,558,1974,548,198481,0
patternWeightCount-13,true,1.00,2089,522,2084,511,200495,0
patternWeightCount-14,true,1.00,2931,626,2931,616,275580,0
patternWeightCount-15,true,1.00,4737,651,4733,641,445588,0
patternWeightCount-16,true,1.00,7493,704,7486,694,737965,0
patternWeightCount-17,true,1.00,1848,616,1845,606,196065,0
patternWeightCount-18,true,1.00,3021,599,3017,589,305171,0
patternWeightCount-19,true,1.00,1370,585,1367,576,139841,0
patternWeightCount-20,false,0.57,3153,400,3153,400,310270,0
patternWeightCount-21,true,1.00,1445,598,1443,588,147125,0
patternWeightCount-22,false,0.85,4692,628,4690,628,473929,0
patternWeightCount-23,true,1.00,1682,551,1680,541,177179,0
patternWeightCount-24,true,1.00,2631,611,2627,601,268417,0
patternWeightCount-25,true,1.00,5776,730,5769,718,587199,0
patternWeightCount-26,true,1.00,3280,640,3276,629,337130,0
patternWeightCount-27,true,1.00,3498,629,3495,615,351680,0
patternWeightCount-28,true,1.00,3100,608,3096,597,316775,0
patternWeightCount-29,true,1.00,2610,609,2605,599,256224,0
patternWeightCount-30,false,0.81,5392,665,5388,665,525276,0
patternWeightCount-31,true,1.00,2734,600,2729,590,270658,0
patternWeightCount-32,true,1.00,973,510,965,500,103123,0
patternWeightCount-33,true,1.00,1542,530,1540,520,162109,0
patternWeightCount-34,true,1.00,5329,690,5328,680,523102,0
patternWeightCount-35,true,1.00,6500,666,6494,656,633445,0
patternWeightCount-36,true,1.00,3596,631,3593,619,355420,0
patternWeightCount-37,true,1.00,1357,549,1355,539,142697,0
patternWeightCount-38,false,0.95,9943,800,9936,800,953827,0
patternWeightCount-39,true,1.00,3362,616,3359,607,323829,0
patternWeightCount-40,true,1.00,4413,609,4409,599,450064,0
patternWeightCount-41,true,1.00,3682,679,3680,670,362556,0
patternWeightCount-42,false,0.87,9389,778,9387,778,894136,0
patternWeightCount-43,true,1.00,1589,530,1587,521,163018,0
patternWeightCount-44,true,1.00,3692,635,3687,609,372285,0
patternWeightCount-45,false,0.85,14998,999,14991,999,1305746,0
patternWeightCount-46,false,0.85,5931,622,5927,622,563865,0
patternWeightCount-47,true,1.00,2103,608,2098,598,199999,0
patternWeightCount-48,true,1.00,1615,517,1613,507,158914,0
patternWeightCount-49,true,1.00,1776,580,1771,565,181717,0
patternWeightCount-50,true,1.00,1549,520,1548,511,153917,0
patternWeightCount-51,true,1.00,3594,608,3593,598,355246,0
patternWeightCount-52,true,1.00,5361,754,5358,731,536657,0
patternWeightCount-53,false,0.81,6279,626,6276,626,591118,0
patternWeightCount-54,true,1.00,1439,544,1435,534,153411,0
patternWeightCount-55,false,0.97,4011,574,4007,574,353458,0
patternWeightCount-56,true,1.00,3140,633,3136,623,321700,0
patternWeightCount-57,true,1.00,1336,548,1333,537,134372,0
patternWeightCount-58,true,1.00,3277,638,3272,629,329303,0
patternWeightCount-59,true,1.00,1186,485,1183,475,145383,0
patternWeightCount-60,true,1.00,5346,785,5340,775,564216,0
patternWeightCount-61,true,1.00,2153,542,2150,533,217644,0
patternWeightCount-62,true,1.00,6115,710,6113,699,618171,0
patternWeightCount-63,true,1.00,2822,550,2819,540,316585,0
patternWeightCount-64,true,1.00,2821,562,2817,553,274102,0
patternWeightCount-65,true,1.00,2126,556,2121,546,213778,0
patternWeightCount-66,true,1.00,1834,539,1826,529,190259,0
patternWeightCount-67,true,1.00,1601,618,1594,608,155556,0
patternWeightCount-68,true,1.00,1164,534,1160,523,128664,0
patternWeightCount-69,false,0.97,8662,756,8661,756,824270,0
patternWeightCount-70,true,1.00,2691,645,2689,635,277674,0
patternWeightCount-71,true,1.00,1270,511,1266,501,130545,0
patternWeightCount-72,false,0.74,3784,499,3782,499,371792,0
patternWeightCount-73,false,0.66,7048,576,7046,576,675138,0
patternWeightCount-74,true,1.00,1738,535,1734,525,187734,0
patternWeightCount-75,true,1.00,2397,596,2391,586,240853,0
patternWeightCount-76,true,1.00,2007,563,2006,551,206285,0
patternWeightCount-77,true,1.00,2374,580,2371,570,233998,0
patternWeightCount-78,true,1.00,9168,785,9163,775,873001,0
patternWeightCount-79,true,1.00,2902,561,2901,550,272801,0
patternWeightCount-80,true,1.00,2674,617,2673,608,272357,0
patternWeightCount-81,false,0.82,5419,581,5416,581,510944,0
patternWeightCount-82,true,1.00,640,497,635,487,69436,0
patternWeightCount-83,true,1.00,2441,541,2440,531,256598,0
patternWeightCount-84,true,1.00,1875,594,1867,584,188275,0
patternWeightCount-85,false,0.33,3115,282,3114,282,301333,0
patternWeightCount-86,false,0.92,16169,999,16162,999,1549824,0
patternWeightCount-87,false,0.72,4664,493,4663,493,439972,0
patternWeightCount-88,true,1.00,3702,641,3697,631,368933,0
patternWeightCount-89,true,1.00,1949,552,1945,542,194690,0
patternWeightCount-90,false,0.74,5346,565,5344,565,528027,0
patternWeightCount-91,true,1.00,2819,612,2818,603,286069,0
patternWeightCount-92,false,0.77,4695,621,4693,621,442927,0
patternWeightCount-93,false,0.90,4306,598,4304,598,409565,0
patternWeightCount-94,true,1.00,2345,569,2341,559,246792,0
patternWeightCount-95,true,1.00,3192,665,3188,655,313229,0
patternWeightCount-96,true,1.00,2892,635,2889,624,264431,0
patternWeightCount-97,true,1.00,1961,544,1954,535,189671,0
patternWeightCount-98,false,0.77,6863,620,6862,620,655044,0
patternWeightCount-99,true,1.00,3032,622,3030,612,301634,0
patternWeightCount-100,true,1.00,1619,532,1617,522,163130,0
