NDW:0.0
TTFW:1.8
DFPT:2.0
DFPAP:3.0
DFPMP:50.0
RIGHT_WINDOW_BORDER_X:95.0
level,win/fail,% travelled,run time,game ticks,planning time,total plannings,nodes evaluated,most backtracked nodes
patternWeightCount-1,true,1.00,8750,857,8747,847,936133,0
patternWeightCount-2,true,1.00,790,517,785,505,89190,0
patternWeightCount-3,true,1.00,1513,498,1506,490,158774,0
patternWeightCount-4,true,1.00,494,431,490,422,53686,0
patternWeightCount-5,true,1.00,3764,617,3760,609,424726,0
patternWeightCount-6,true,1.00,2810,615,2805,607,313843,0
patternWeightCount-7,true,1.00,920,463,918,455,97899,0
patternWeightCount-8,true,1.00,1363,515,1358,507,136921,0
patternWeightCount-9,true,1.00,1469,554,1466,546,167230,0
patternWeightCount-10,true,1.00,993,535,990,527,102211,0
patternWeightCount-11,true,1.00,718,467,717,459,82584,0
patternWeightCount-12,true,1.00,1372,590,1368,582,150575,0
patternWeightCount-13,true,1.00,3291,612,3287,604,338477,0
patternWeightCount-14,true,1.00,1339,538,1336,530,155451,0
patternWeightCount-15,true,1.00,4352,571,4346,563,472974,0
patternWeightCount-16,true,1.00,7251,754,7248,744,835501,0
patternWeightCount-17,true,1.00,1571,577,1568,569,196335,0
patternWeightCount-18,true,1.00,2317,515,2313,507,256695,0
patternWeightCount-19,true,1.00,669,551,667,543,69217,0
patternWeightCount-20,false,0.61,23189,999,23189,999,2217753,0
patternWeightCount-21,true,1.00,575,519,571,511,66980,0
patternWeightCount-22,true,1.00,5974,724,5968,698,676414,0
patternWeightCount-23,true,1.00,1477,578,1472,555,155883,0
patternWeightCount-24,true,1.00,3376,608,3372,598,365319,0
patternWeightCount-25,false,0.28,1718,200,1718,200,182315,0
patternWeightCount-26,true,1.00,3227,602,3225,593,363420,0
patternWeightCount-27,true,1.00,2516,642,2508,622,294775,0
patternWeightCount-28,true,1.00,1292,587,1288,579,151168,0
patternWeightCount-29,true,1.00,775,449,771,440,84904,0
patternWeightCount-30,false,0.82,5058,662,5056,662,513355,0
patternWeightCount-31,true,1.00,2064,514,2063,506,238112,0
patternWeightCount-32,true,1.00,469,486,468,478,53186,0
patternWeightCount-33,true,1.00,1067,534,1065,526,115233,0
patternWeightCount-34,true,1.00,3102,557,3096,549,317471,0
patternWeightCount-35,true,1.00,6321,631,6317,623,652024,0
patternWeightCount-36,true,1.00,3638,596,3637,588,387175,0
patternWeightCount-37,true,1.00,1029,509,1025,501,112879,0
patternWeightCount-38,false,0.94,6677,654,6672,654,677924,0
patternWeightCount-39,true,1.00,3614,594,3610,586,366281,0
patternWeightCount-40,true,1.00,2653,603,2651,595,294463,0
patternWeightCount-41,true,1.00,2747,586,2742,577,291486,0
patternWeightCount-42,false,0.86,5980,645,5977,645,617999,0
patternWeightCount-43,true,1.00,1644,503,1644,495,172754,0
patternWeightCount-44,true,1.00,1748,582,1744,556,220850,0
patternWeightCount-45,true,1.00,9690,836,9689,819,958202,0
patternWeightCount-46,false,0.83,4234,571,4234,571,449942,0
patternWeightCount-47,true,1.00,1398,484,1397,476,143222,0
patternWeightCount-48,true,1.00,948,471,943,463,103565,0
patternWeightCount-49,true,1.00,1213,499,1211,491,130801,0
patternWeightCount-50,true,1.00,1347,514,1341,504,137596,0
patternWeightCount-51,true,1.00,2073,565,2070,547,229007,0
patternWeightCount-52,true,1.00,2721,639,2718,627,315561,0
patternWeightCount-53,false,0.74,3692,478,3691,478,381496,0
patternWeightCount-54,true,1.00,778,493,772,485,86550,0
patternWeightCount-55,false,0.97,2674,580,2671,580,239011,0
patternWeightCount-56,true,1.00,1995,507,1993,499,218546,0
patternWeightCount-57,true,1.00,542,488,539,480,64970,0
patternWeightCount-58,true,1.00,1295,534,1291,525,141179,0
patternWeightCount-59,true,1.00,503,458,499,450,60272,0
patternWeightCount-60,true,1.00,2275,653,2267,643,263054,0
patternWeightCount-61,true,1.00,2531,494,2528,477,269735,0
patternWeightCount-62,false,0.96,5053,675,5050,675,548380,0
patternWeightCount-63,true,1.00,2450,544,2445,536,275678,0
patternWeightCount-64,true,1.00,2612,501,2607,493,260203,0
patternWeightCount-65,true,1.00,1535,525,1529,517,159327,0
patternWeightCount-66,true,1.00,1399,530,1394,522,153647,0
patternWeightCount-67,true,1.00,861,518,857,510,86374,0
patternWeightCount-68,false,0.85,20092,999,20087,999,1106309,0
patternWeightCount-69,false,0.97,10152,770,10150,770,1056702,0
patternWeightCount-70,true,1.00,1636,534,1634,525,179491,0
patternWeightCount-71,true,1.00,948,486,945,477,97645,0
patternWeightCount-72,false,0.75,10366,679,10362,679,1291963,0
patternWeightCount-73,false,0.66,5844,534,5842,534,607245,0
patternWeightCount-74,true,1.00,856,515,855,507,98149,0
patternWeightCount-75,true,1.00,1186,498,1179,490,129061,0
patternWeightCount-76,true,1.00,2182,607,2181,599,237008,0
patternWeightCount-77,true,1.00,3187,584,3181,576,341390,0
patternWeightCount-78,false,0.79,5729,575,5728,575,583785,0
patternWeightCount-79,true,1.00,1660,511,1656,503,168704,0
patternWeightCount-80,true,1.00,2090,546,2088,538,213314,0
patternWeightCount-81,false,0.81,6650,608,6649,608,641653,0
patternWeightCount-82,true,1.00,185,466,182,457,22403,0
patternWeightCount-83,true,1.00,1794,513,1793,505,211460,0
patternWeightCount-84,true,1.00,1095,528,1092,520,120075,0
patternWeightCount-85,true,1.00,2423,607,2420,597,264435,0
patternWeightCount-86,false,0.89,2209,537,2206,537,236741,0
patternWeightCount-87,false,0.71,21269,999,21266,999,2003551,0
patternWeightCount-88,true,1.00,2552,547,2547,539,279412,0
patternWeightCount-89,true,1.00,702,470,697,462,80980,0
patternWeightCount-90,false,0.87,10716,862,10713,862,1127766,0
patternWeightCount-91,true,1.00,2301,582,2296,574,241744,0
patternWeightCount-92,true,1.00,10202,843,10198,804,1054713,0
patternWeightCount-93,false,0.90,3797,568,3793,568,414038,0
patternWeightCount-94,true,1.00,1701,535,1700,527,192538,0
patternWeightCount-95,true,1.00,1778,506,1772,498,185859,0
patternWeightCount-96,true,1.00,993,525,989,517,109558,0
patternWeightCount-97,true,1.00,2499,433,2497,425,268075,0
patternWeightCount-98,false,0.93,14760,864,14755,864,1518630,0
patternWeightCount-99,true,1.00,2261,571,2260,563,247569,0
patternWeightCount-100,true,1.00,932,481,927,473,98957,0
