NDW:0.0
TTFW:0.2
DFPT:2.0
DFPAP:3.0
DFPMP:5.0
RIGHT_WINDOW_BORDER_X:135.0
level,win/fail,% travelled,run time,game ticks,planning time,total plannings,nodes evaluated,most backtracked nodes
Krys-1,true,1.00,5572,522,5568,504,448090,0
Krys-2,false,0.79,13613,999,13605,999,907979,0
Krys-3,false,0.70,22048,999,22039,999,1703373,0
Krys-4,true,1.00,5528,551,5518,534,424012,0
Krys-5,true,1.00,5469,440,5466,423,488223,0
Krys-6,true,1.00,2707,431,2703,415,227840,0
Krys-7,true,1.00,753,310,752,295,68591,0
Krys-8,true,1.00,3335,466,3331,447,260541,0
Krys-9,true,1.00,4223,432,4220,412,378612,0
Krys-10,true,1.00,3214,425,3211,411,268053,0
Krys-11,true,1.00,1148,358,1145,333,91316,0
Krys-12,false,0.70,25274,999,25272,999,1706186,0
Krys-13,false,0.62,1319,216,1318,216,124953,0
Krys-14,false,0.79,13913,999,13901,999,896018,0
Krys-15,true,1.00,10765,679,10761,663,990252,0
Krys-16,false,0.69,14082,999,14073,999,929636,0
Krys-17,true,1.00,4685,448,4683,426,371840,0
Krys-18,true,1.00,4667,533,4664,518,344782,0
Krys-19,false,0.12,2444,108,2444,108,199171,0
Krys-20,true,1.00,6438,573,6432,550,504358,0
Krys-21,true,1.00,3830,380,3827,361,351286,0
Krys-22,true,1.00,6082,471,6079,442,576522,0
Krys-23,true,1.00,4874,518,4872,496,350775,0
Krys-24,false,0.70,26046,999,26043,999,1666197,0
Krys-25,true,1.00,3234,392,3232,362,271625,0
Krys-26,false,0.64,5419,343,5418,343,474225,0
Krys-27,true,1.00,3352,412,3348,398,281318,0
Krys-28,false,0.85,7516,589,7512,589,596741,0
Krys-29,true,1.00,4635,480,4631,467,346247,0
Krys-30,true,1.00,4477,512,4467,499,328624,0
Krys-31,true,1.00,3347,464,3341,448,264628,0
Krys-32,true,1.00,1838,382,1833,370,141499,0
Krys-33,false,0.49,19924,999,19913,999,1312309,0
Krys-34,true,1.00,5088,489,5084,475,412588,0
Krys-35,true,1.00,6452,490,6451,468,577809,0
Krys-36,true,1.00,8686,588,8683,571,726345,0
Krys-37,true,1.00,10529,635,10529,623,906795,0
Krys-38,true,1.00,11706,623,11705,594,1075659,0
Krys-39,true,1.00,7508,536,7505,523,645959,0
Krys-40,false,0.64,2532,293,2530,293,223114,0
Krys-41,false,0.70,24912,999,24911,999,1795399,0
Krys-42,true,1.00,5448,481,5446,463,508033,0
Krys-43,true,1.00,4095,404,4093,390,387489,0
Krys-44,false,0.65,3339,326,3337,326,316784,0
Krys-45,true,1.00,2688,381,2681,364,184197,0
Krys-46,true,1.00,4261,513,4253,484,305283,0
Krys-47,true,1.00,3599,480,3598,464,277718,0
Krys-48,false,0.12,2446,108,2446,108,200518,0
Krys-49,true,1.00,2937,402,2934,382,222947,0
Krys-50,false,0.70,24182,999,24181,999,1611396,0
Krys-51,true,1.00,6949,497,6948,484,597819,0
Krys-52,true,1.00,5187,519,5183,503,375103,0
Krys-53,true,1.00,3492,483,3486,465,274304,0
Krys-54,true,1.00,5977,541,5972,527,502803,0
Krys-55,true,1.00,4698,482,4696,463,361143,0
Krys-56,false,0.59,26587,999,26584,999,1699635,0
Krys-57,true,1.00,4920,460,4917,444,419469,0
Krys-58,true,1.00,5022,531,5016,519,374499,0
Krys-59,false,0.89,13334,999,13327,999,877508,0
Krys-60,true,1.00,8771,545,8765,532,787982,0
Krys-61,true,1.00,4111,438,4107,425,315195,0
Krys-62,true,1.00,2975,385,2971,371,199463,0
Krys-63,true,1.00,6778,581,6773,559,502244,0
Krys-64,true,1.00,4540,524,4532,502,358262,0
Krys-65,true,1.00,3010,401,3008,388,220895,0
Krys-66,true,1.00,7239,546,7235,526,534227,0
Krys-67,true,1.00,4481,498,4471,485,358926,0
Krys-68,true,1.00,5931,458,5929,442,515934,0
Krys-69,true,1.00,7961,714,7954,695,585065,0
Krys-70,true,1.00,6078,506,6072,486,501215,0
Krys-71,true,1.00,5236,436,5234,417,486494,0
Krys-72,true,1.00,4282,499,4279,484,314349,0
Krys-73,true,1.00,8154,540,8151,514,701042,0
Krys-74,false,0.72,3804,354,3801,354,298651,0
Krys-75,true,1.00,1587,365,1584,344,117588,0
Krys-76,true,1.00,7153,477,7151,464,632662,0
Krys-77,true,1.00,3201,388,3200,358,293009,0
Krys-78,true,1.00,5804,461,5801,448,522530,0
Krys-79,true,1.00,2212,357,2209,344,163217,0
Krys-80,true,1.00,2037,415,2033,403,155590,0
Krys-81,true,1.00,2620,360,2617,340,212371,0
Krys-82,true,1.00,1872,341,1871,325,145254,0
Krys-83,true,1.00,8315,576,8313,563,721383,0
Krys-84,true,1.00,1274,369,1269,347,106802,0
Krys-85,true,1.00,5106,511,5104,481,401503,0
Krys-86,true,1.00,3920,438,3915,425,294217,0
Krys-87,true,1.00,2206,376,2203,364,157439,0
Krys-88,true,1.00,3512,398,3512,378,274238,0
Krys-89,true,1.00,3599,387,3597,371,283713,0
Krys-90,true,1.00,9249,540,9248,518,789252,0
Krys-91,true,1.00,1277,384,1277,357,105559,0
Krys-92,false,0.62,4488,353,4486,353,369043,0
Krys-93,true,1.00,6739,469,6735,456,585602,0
Krys-94,true,1.00,4065,393,4061,377,376932,0
Krys-95,true,1.00,2982,392,2982,379,216231,0
Krys-96,true,1.00,4657,411,4656,390,439313,0
Krys-97,false,0.70,4192,344,4190,344,334881,0
Krys-98,true,1.00,8060,619,8057,602,584824,0
Krys-99,true,1.00,3792,481,3789,459,264005,0
Krys-100,true,1.00,5815,474,5812,457,500530,0
