NDW:0.0
TTFW:0.4
DFPT:2.0
DFPAP:3.0
DFPMP:20.0
RIGHT_WINDOW_BORDER_X:400.0
level,win/fail,% travelled,run time,game ticks,planning time,total plannings,nodes evaluated,most backtracked nodes
ge-1,true,1.00,1431,240,1428,194,94733,0
ge-2,true,1.00,696,213,695,176,49238,0
ge-3,true,1.00,476,203,476,162,35780,0
ge-4,true,1.00,1294,217,1291,180,86653,0
ge-5,true,1.00,241,203,239,162,19938,0
ge-6,true,1.00,2131,246,2128,209,125295,0
ge-7,true,1.00,310,203,309,162,23926,0
ge-8,true,1.00,496,207,494,166,35751,0
ge-9,true,1.00,530,203,530,162,42999,0
ge-10,true,1.00,240,203,237,162,20257,0
ge-11,true,1.00,614,211,613,170,43338,0
ge-12,true,1.00,294,203,291,162,24000,0
ge-13,true,1.00,1755,223,1752,187,110605,0
ge-14,true,1.00,617,203,616,162,44209,0
ge-15,true,1.00,771,203,770,162,60134,0
ge-16,true,1.00,3088,298,3086,262,164752,0
ge-17,true,1.00,483,205,481,164,36074,0
ge-18,true,1.00,2133,230,2132,194,122985,0
ge-19,true,1.00,885,221,884,180,62183,0
ge-20,true,1.00,769,213,768,176,52667,0
ge-21,true,1.00,454,205,454,164,34950,0
ge-22,true,1.00,554,207,552,166,41330,0
ge-23,true,1.00,903,205,900,164,67910,0
ge-24,true,1.00,871,207,867,166,61713,0
ge-25,true,1.00,602,203,602,162,47946,0
ge-26,true,1.00,419,203,418,162,34429,0
ge-27,true,1.00,354,207,353,166,26847,0
ge-28,true,1.00,594,203,591,162,48166,0
ge-29,true,1.00,450,204,447,162,36799,0
ge-30,true,1.00,1600,218,1598,181,105333,0
ge-31,true,1.00,1694,230,1694,194,115197,0
ge-32,true,1.00,1107,236,1104,195,67321,0
ge-33,true,1.00,367,206,366,163,26702,0
ge-34,true,1.00,724,207,723,166,57105,0
ge-35,true,1.00,1570,223,1569,187,90891,0
ge-36,false,1.00,900,205,898,164,65653,0
ge-37,true,1.00,426,203,425,162,35638,0
ge-38,true,1.00,1440,225,1438,184,97496,0
ge-39,true,1.00,1222,210,1221,165,81860,0
ge-40,true,1.00,275,203,273,162,24826,0
ge-41,true,1.00,387,203,385,162,31831,0
ge-42,true,1.00,2416,241,2414,200,162431,0
ge-43,true,1.00,1096,225,1096,189,71649,0
ge-44,true,1.00,811,207,811,166,61858,0
ge-45,true,1.00,1367,237,1365,201,86031,0
ge-46,true,1.00,1878,263,1877,227,123710,0
ge-47,true,1.00,765,203,765,162,52795,0
ge-48,true,1.00,1132,219,1131,178,71864,0
ge-49,true,1.00,375,203,373,162,31425,0
ge-50,true,1.00,671,203,670,162,49399,0
ge-51,true,1.00,400,207,397,166,27219,0
ge-52,true,1.00,1153,224,1151,183,69215,0
ge-53,true,1.00,672,207,670,166,47302,0
ge-54,true,1.00,821,218,819,177,50368,0
ge-55,true,1.00,1345,222,1345,180,86597,0
ge-56,true,1.00,621,207,621,170,43544,0
ge-57,true,1.00,666,214,664,172,49521,0
ge-58,true,1.00,940,233,937,196,55816,0
ge-59,true,1.00,790,203,789,162,63783,0
ge-60,true,1.00,857,203,856,162,63124,0
ge-61,true,1.00,449,203,449,162,36335,0
ge-62,true,1.00,770,207,769,166,57722,0
ge-63,true,1.00,981,207,980,166,75184,0
ge-64,false,1.00,618,232,615,191,42548,0
ge-65,true,1.00,716,205,715,164,55830,0
ge-66,true,1.00,1153,210,1152,162,83849,0
ge-67,true,1.00,923,211,921,174,60276,0
ge-68,true,1.00,426,207,426,166,29781,0
ge-69,true,1.00,314,203,314,162,26481,0
ge-70,true,1.00,670,203,668,162,50993,0
ge-71,true,1.00,1261,227,1261,186,91740,0
ge-72,true,1.00,1172,224,1172,188,70462,0
ge-73,true,1.00,484,203,483,162,41154,0
ge-74,true,1.00,995,205,994,164,74676,0
ge-75,true,1.00,747,231,744,184,49688,0
ge-76,true,1.00,814,209,813,168,62330,0
ge-77,true,1.00,1548,218,1545,177,105660,0
ge-78,true,1.00,1820,224,1819,187,116305,0
ge-79,true,1.00,504,213,504,172,35819,0
ge-80,true,1.00,489,210,488,162,36095,0
ge-81,true,1.00,513,207,511,166,34970,0
ge-82,true,1.00,989,221,987,175,60157,0
ge-83,false,1.00,994,224,993,179,61829,0
ge-84,true,1.00,566,205,565,164,45728,0
ge-85,true,1.00,543,203,540,162,42990,0
ge-86,true,1.00,855,204,855,162,66948,0
ge-87,true,1.00,1022,211,1021,170,70048,0
ge-88,true,1.00,717,219,716,166,47663,0
ge-89,true,1.00,1153,248,1151,197,66944,0
ge-90,true,1.00,260,203,257,162,22860,0
ge-91,true,1.00,495,203,494,162,40642,0
ge-92,true,1.00,292,209,290,168,23150,0
ge-93,true,1.00,778,206,776,164,59111,0
ge-94,true,1.00,660,203,657,162,46823,0
ge-95,true,1.00,1999,239,1998,185,115728,0
ge-96,true,1.00,765,209,764,162,54620,0
ge-97,true,1.00,1277,212,1276,173,80996,0
ge-98,true,1.00,255,203,253,162,22443,0
ge-99,true,1.00,377,203,377,162,32168,0
ge-100,true,1.00,298,203,297,162,25925,0
