NDW:0.0
TTFW:0.2
DFPT:2.0
DFPAP:3.0
DFPMP:0.0
RIGHT_WINDOW_BORDER_X:135.0
level,win/fail,% travelled,run time,game ticks,planning time,total plannings,nodes evaluated,most backtracked nodes
patternCount-1,false,0.77,7463,553,7460,553,683530,0
patternCount-2,true,1.00,3113,557,3109,545,301643,0
patternCount-3,false,0.91,5586,583,5584,583,510213,0
patternCount-4,true,1.00,2260,467,2258,452,220671,0
patternCount-5,true,1.00,1990,439,1988,422,199156,0
patternCount-6,true,1.00,1171,396,1165,384,121228,0
patternCount-7,true,1.00,3499,506,3493,493,338943,0
patternCount-8,true,1.00,7264,614,7260,594,708392,0
patternCount-9,true,1.00,2830,532,2825,515,276300,0
patternCount-10,true,1.00,1169,409,1162,397,119546,0
patternCount-11,true,1.00,12003,754,12002,741,1160602,0
patternCount-12,true,1.00,1954,491,1951,477,193705,0
patternCount-13,true,1.00,1371,476,1369,464,137618,0
patternCount-14,false,0.95,4832,522,4828,522,460721,0
patternCount-15,true,1.00,1527,400,1523,388,155642,0
patternCount-16,true,1.00,2084,498,2080,486,202624,0
patternCount-17,true,1.00,1364,404,1361,392,135570,0
patternCount-18,true,1.00,2078,438,2076,413,202701,0
patternCount-19,true,1.00,1605,446,1602,434,159613,0
patternCount-20,true,1.00,2308,490,2306,478,225898,0
patternCount-21,true,1.00,1386,407,1384,395,137957,0
patternCount-22,true,1.00,7403,586,7401,566,728612,0
patternCount-23,false,0.84,9018,610,9016,610,846422,0
patternCount-24,true,1.00,11643,725,11641,687,1142070,0
patternCount-25,true,1.00,2308,501,2305,489,224246,0
patternCount-26,true,1.00,2070,527,2067,514,205935,0
patternCount-27,true,1.00,2769,573,2766,556,266297,0
patternCount-28,true,1.00,2682,549,2678,535,261129,0
patternCount-29,true,1.00,1645,415,1641,403,165337,0
patternCount-30,true,1.00,1777,434,1777,422,179346,0
patternCount-31,true,1.00,3908,583,3904,571,380988,0
patternCount-32,true,1.00,2841,514,2840,502,280171,0
patternCount-33,true,1.00,8118,687,8112,674,766394,0
patternCount-34,true,1.00,5099,659,5096,643,491248,0
patternCount-35,true,1.00,1827,456,1824,444,180454,0
patternCount-36,false,0.95,6340,640,6338,640,599721,0
patternCount-37,true,1.00,2603,525,2599,513,254155,0
patternCount-38,true,1.00,6137,721,6130,709,592719,0
patternCount-39,true,1.00,2238,502,2234,490,218286,0
patternCount-40,true,1.00,11899,737,11896,719,1151797,0
patternCount-41,true,1.00,3579,508,3573,496,338376,0
patternCount-42,true,1.00,2576,528,2573,516,241210,0
patternCount-43,true,1.00,1159,418,1157,401,116533,0
patternCount-44,true,1.00,1410,402,1410,390,143084,0
patternCount-45,true,1.00,2315,463,2313,449,222039,0
patternCount-46,true,1.00,3279,535,3275,523,321026,0
patternCount-47,true,1.00,2598,487,2593,475,261617,0
patternCount-48,true,1.00,1725,436,1723,424,170316,0
patternCount-49,true,1.00,2195,464,2192,449,215880,0
patternCount-50,false,0.89,8919,624,8912,624,873241,0
patternCount-51,true,1.00,1971,491,1965,474,194525,0
patternCount-52,true,1.00,1495,434,1492,420,151195,0
patternCount-53,false,0.76,4540,434,4537,434,432322,0
patternCount-54,true,1.00,2844,489,2841,477,286572,0
patternCount-55,false,0.56,5234,388,5233,388,490129,0
patternCount-56,true,1.00,2688,476,2685,464,267201,0
patternCount-57,true,1.00,1719,482,1714,470,170964,0
patternCount-58,false,0.68,22810,999,22807,999,2068750,0
patternCount-59,true,1.00,2421,504,2417,492,237408,0
patternCount-60,true,1.00,2443,485,2439,472,240603,0
patternCount-61,true,1.00,2332,536,2328,523,230038,0
patternCount-62,true,1.00,2097,462,2095,450,207187,0
patternCount-63,true,1.00,1854,485,1847,473,182888,0
patternCount-64,true,1.00,1845,457,1844,444,180905,0
patternCount-65,true,1.00,1752,456,1748,444,172159,0
patternCount-66,true,1.00,2182,450,2180,438,217326,0
patternCount-67,true,1.00,2099,438,2097,425,206887,0
patternCount-68,true,1.00,1487,459,1484,447,145213,0
patternCount-69,true,1.00,1755,441,1752,429,176519,0
patternCount-70,true,1.00,1756,451,1752,437,171399,0
patternCount-71,true,1.00,2743,555,2741,543,272347,0
patternCount-72,false,0.82,7173,541,7169,541,685738,0
patternCount-73,true,1.00,2866,528,2856,516,283910,0
patternCount-74,false,0.53,5427,405,5424,405,508553,0
patternCount-75,true,1.00,2004,518,1999,505,199446,0
patternCount-76,true,1.00,2483,480,2481,468,245188,0
patternCount-77,true,1.00,1897,458,1894,446,186307,0
patternCount-78,true,1.00,3500,499,3496,485,344260,0
patternCount-79,false,0.91,6100,569,6096,569,608313,0
patternCount-80,false,0.57,2385,351,2382,351,230248,0
patternCount-81,true,1.00,2526,547,2523,535,244563,0
patternCount-82,true,1.00,2256,456,2255,444,216291,0
patternCount-83,true,1.00,2226,504,2222,492,217133,0
patternCount-84,true,1.00,1449,443,1444,431,148873,0
patternCount-85,true,1.00,1961,455,1958,441,194229,0
patternCount-86,true,1.00,2171,524,2167,512,213344,0
patternCount-87,true,1.00,2593,546,2589,534,248718,0
patternCount-88,true,1.00,2024,431,2023,414,204675,0
patternCount-89,true,1.00,1794,419,1792,407,181751,0
patternCount-90,true,1.00,2254,495,2249,483,218262,0
patternCount-91,true,1.00,3651,544,3648,532,353496,0
patternCount-92,true,1.00,2178,485,2175,473,212734,0
patternCount-93,true,1.00,8747,630,8747,610,847284,0
patternCount-94,true,1.00,2695,507,2691,490,262474,0
patternCount-95,true,1.00,2870,469,2863,457,283474,0
patternCount-96,true,1.00,2875,534,2871,522,279734,0
patternCount-97,false,0.82,7803,563,7798,563,738973,0
patternCount-98,true,1.00,1748,462,1746,448,176936,0
patternCount-99,true,1.00,2132,522,2130,509,212172,0
patternCount-100,true,1.00,1471,413,1469,401,149885,0
