NDW:0.0
TTFW:1.4
DFPT:2.0
DFPAP:3.0
DFPMP:1.0
RIGHT_WINDOW_BORDER_X:155.0
level,win/fail,% travelled,run time,game ticks,planning time,total plannings,nodes evaluated,most backtracked nodes
notchParamRand-1,true,1.00,808,320,798,306,45031,0
notchParamRand-2,true,1.00,141,308,137,294,6690,0
notchParamRand-3,true,1.00,855,308,848,294,50460,0
notchParamRand-4,true,1.00,1337,333,1332,319,76750,0
notchParamRand-5,true,1.00,269,310,260,296,13827,0
notchParamRand-6,true,1.00,382,316,377,302,21132,0
notchParamRand-7,true,1.00,229,294,220,280,11890,0
notchParamRand-8,true,1.00,499,302,496,288,26101,0
notchParamRand-9,true,1.00,542,326,535,312,30361,0
notchParamRand-10,true,1.00,766,334,758,320,42132,0
notchParamRand-11,true,1.00,126,294,121,280,6027,0
notchParamRand-12,true,1.00,279,310,264,296,14911,0
notchParamRand-13,true,1.00,1554,312,1546,298,87733,0
notchParamRand-14,true,1.00,989,312,980,298,54850,0
notchParamRand-15,true,1.00,578,318,568,304,32986,0
notchParamRand-16,true,1.00,398,302,394,288,22995,0
notchParamRand-17,true,1.00,72,303,65,289,2751,0
notchParamRand-18,true,1.00,1883,332,1877,318,105629,0
notchParamRand-19,true,1.00,208,339,197,325,10835,0
notchParamRand-20,true,1.00,1358,325,1349,311,77948,0
notchParamRand-21,true,1.00,63,296,59,282,2350,0
notchParamRand-22,true,1.00,854,326,848,312,49232,0
notchParamRand-23,true,1.00,1004,333,999,319,58969,0
notchParamRand-24,true,1.00,184,315,177,301,9580,0
notchParamRand-25,true,1.00,69,306,62,292,2873,0
notchParamRand-26,true,1.00,301,332,291,318,16431,0
notchParamRand-27,true,1.00,228,304,220,290,12770,0
notchParamRand-28,true,1.00,423,314,415,300,23147,0
notchParamRand-29,true,1.00,67,298,61,284,2513,0
notchParamRand-30,true,1.00,1870,354,1860,340,104836,0
notchParamRand-31,true,1.00,436,322,427,308,19448,0
notchParamRand-32,true,1.00,137,294,128,280,5274,0
notchParamRand-33,true,1.00,1678,304,1669,290,87866,0
notchParamRand-34,true,1.00,868,316,860,302,40928,0
notchParamRand-35,true,1.00,533,308,523,294,27085,0
notchParamRand-36,true,1.00,63,300,55,286,2377,0
notchParamRand-37,true,1.00,375,314,370,300,20737,0
notchParamRand-38,true,1.00,1624,323,1616,309,90885,0
notchParamRand-39,true,1.00,2005,349,1995,335,114465,0
notchParamRand-40,true,1.00,2118,328,2111,314,118351,0
notchParamRand-41,true,1.00,57,294,52,280,1940,0
notchParamRand-42,true,1.00,425,318,417,304,23249,0
notchParamRand-43,true,1.00,229,302,222,288,12338,0
notchParamRand-44,true,1.00,272,302,264,288,14813,0
notchParamRand-45,true,1.00,900,304,894,290,48395,0
notchParamRand-46,true,1.00,498,307,490,293,28374,0
notchParamRand-47,true,1.00,683,316,674,302,37776,0
notchParamRand-48,true,1.00,1352,341,1348,327,77060,0
notchParamRand-49,true,1.00,673,306,663,292,37672,0
notchParamRand-50,true,1.00,1269,327,1264,313,73725,0
notchParamRand-51,true,1.00,153,315,144,301,7594,0
notchParamRand-52,true,1.00,717,308,711,294,40195,0
notchParamRand-53,true,1.00,903,318,900,304,50492,0
notchParamRand-54,true,1.00,1851,353,1843,339,104833,0
notchParamRand-55,true,1.00,1779,322,1774,308,98586,0
notchParamRand-56,true,1.00,628,323,619,309,35007,0
notchParamRand-57,true,1.00,881,318,873,304,51998,0
notchParamRand-58,true,1.00,779,332,775,318,45034,0
notchParamRand-59,true,1.00,414,311,409,297,23031,0
notchParamRand-60,true,1.00,537,313,531,299,30641,0
notchParamRand-61,true,1.00,405,302,396,288,23384,0
notchParamRand-62,true,1.00,363,322,357,308,19797,0
notchParamRand-63,true,1.00,1483,318,1476,304,78652,0
notchParamRand-64,true,1.00,262,296,254,282,14417,0
notchParamRand-65,true,1.00,1866,334,1860,320,105451,0
notchParamRand-66,true,1.00,258,311,251,297,13173,0
notchParamRand-67,true,1.00,263,302,254,288,13598,0
notchParamRand-68,true,1.00,1438,320,1438,306,81748,0
notchParamRand-69,true,1.00,240,309,230,295,13050,0
notchParamRand-70,true,1.00,600,330,595,316,34562,0
notchParamRand-71,true,1.00,253,316,248,302,13207,0
notchParamRand-72,true,1.00,124,294,115,280,5956,0
notchParamRand-73,true,1.00,459,306,453,292,24044,0
notchParamRand-74,true,1.00,64,296,58,282,2377,0
notchParamRand-75,true,1.00,60,294,53,280,2143,0
notchParamRand-76,true,1.00,1123,342,1118,328,62446,0
notchParamRand-77,true,1.00,1955,348,1947,334,107078,0
notchParamRand-78,true,1.00,1155,322,1147,308,64984,0
notchParamRand-79,true,1.00,268,298,258,284,13968,0
notchParamRand-80,true,1.00,291,296,282,282,14197,0
notchParamRand-81,true,1.00,267,298,259,284,14429,0
notchParamRand-82,true,1.00,694,318,682,304,39301,0
notchParamRand-83,true,1.00,1216,333,1211,319,68641,0
notchParamRand-84,true,1.00,274,300,271,286,14710,0
notchParamRand-85,true,1.00,59,294,53,280,2026,0
notchParamRand-86,true,1.00,533,342,527,328,29645,0
notchParamRand-87,true,1.00,1508,312,1504,298,87491,0
notchParamRand-88,true,1.00,265,296,254,282,14588,0
notchParamRand-89,true,1.00,333,333,326,319,18350,0
notchParamRand-90,true,1.00,532,310,528,296,28739,0
notchParamRand-91,true,1.00,58,294,51,280,2064,0
notchParamRand-92,true,1.00,858,318,853,304,49242,0
notchParamRand-93,true,1.00,275,308,270,294,15024,0
notchParamRand-94,true,1.00,1696,314,1689,300,95915,0
notchParamRand-95,true,1.00,674,316,666,302,38380,0
notchParamRand-96,true,1.00,367,330,358,316,20135,0
notchParamRand-97,true,1.00,1294,339,1277,325,72495,0
notchParamRand-98,true,1.00,219,294,214,280,12369,0
notchParamRand-99,true,1.00,277,312,274,298,14651,0
notchParamRand-100,true,1.00,1364,310,1359,296,78241,0
