NDW:0.0
TTFW:1.0
DFPT:2.0
DFPAP:3.0
DFPMP:10.0
RIGHT_WINDOW_BORDER_X:255.0
level,win/fail,% travelled,run time,game ticks,planning time,total plannings,nodes evaluated,most backtracked nodes
Mario-1,true,1.00,562,386,557,340,28010,0
Mario-2,true,1.00,1106,326,1098,303,57659,0
Mario-3,true,1.00,1478,266,1473,226,84639,0
Mario-4,true,1.00,1278,379,1270,331,61707,0
Mario-5,true,1.00,1085,427,1078,404,51870,0
Mario-6,true,1.00,1273,252,1268,228,72927,0
Mario-7,true,1.00,800,408,795,362,39165,0
Mario-8,true,1.00,1170,442,1159,396,56629,0
Mario-9,true,1.00,596,383,587,340,29952,0
Mario-10,true,1.00,1713,282,1710,242,98245,0
Mario-11,true,1.00,868,390,858,350,43051,0
Mario-12,true,1.00,1701,690,1682,641,71493,0
Mario-13,true,1.00,2086,347,2078,323,112676,0
Mario-14,true,1.00,297,349,290,306,13343,0
Mario-15,true,1.00,2337,794,2318,757,116589,0
