NDW:0.0
TTFW:1.4
DFPT:2.0
DFPAP:3.0
DFPMP:7.0
RIGHT_WINDOW_BORDER_X:295.0
level,win/fail,% travelled,run time,game ticks,planning time,total plannings,nodes evaluated,most backtracked nodes
notchParam-1,true,1.00,1035,312,1024,286,55822,0
notchParam-2,true,1.00,926,338,920,312,48744,0
notchParam-3,true,1.00,650,315,641,288,35776,0
notchParam-4,true,1.00,705,326,702,299,38582,0
notchParam-5,true,1.00,749,312,743,283,41786,0
notchParam-6,true,1.00,738,324,733,297,41636,0
notchParam-7,true,1.00,997,320,990,294,55630,0
notchParam-8,true,1.00,1186,315,1178,288,68488,0
notchParam-9,true,1.00,751,352,742,325,41230,0
notchParam-10,true,1.00,1143,318,1131,291,63825,0
notchParam-11,true,1.00,631,312,623,285,34967,0
notchParam-12,true,1.00,1258,327,1249,300,72110,0
notchParam-13,true,1.00,338,314,335,288,17031,0
notchParam-14,true,1.00,326,304,321,278,16468,0
notchParam-15,true,1.00,1022,320,1017,294,53560,0
notchParam-16,true,1.00,830,309,822,283,46153,0
notchParam-17,true,1.00,879,304,873,278,48454,0
notchParam-18,true,1.00,379,340,374,314,18735,0
notchParam-19,true,1.00,313,311,307,285,16196,0
notchParam-20,true,1.00,324,308,314,282,16405,0
notchParam-21,true,1.00,305,304,297,278,15028,0
notchParam-22,true,1.00,369,321,359,295,19019,0
notchParam-23,true,1.00,1505,359,1495,332,86475,0
notchParam-24,true,1.00,1190,330,1182,303,68987,0
notchParam-25,true,1.00,1198,322,1190,295,68287,0
notchParam-26,true,1.00,1261,345,1250,318,72482,0
notchParam-27,true,1.00,336,309,331,283,17709,0
notchParam-28,true,1.00,681,339,673,312,37529,0
notchParam-29,true,1.00,739,327,731,300,41784,0
notchParam-30,true,1.00,334,306,328,280,17240,0
notchParam-31,true,1.00,1242,336,1231,309,65679,0
notchParam-32,true,1.00,944,316,935,290,52386,0
notchParam-33,true,1.00,327,300,317,274,16926,0
notchParam-34,true,1.00,942,323,935,297,51869,0
notchParam-35,true,1.00,1643,346,1638,319,82163,0
notchParam-36,true,1.00,855,302,847,276,47379,0
notchParam-37,true,1.00,293,300,288,274,14546,0
notchParam-38,true,1.00,325,304,315,278,16931,0
notchParam-39,true,1.00,841,304,836,278,46177,0
notchParam-40,true,1.00,655,312,652,286,36465,0
notchParam-41,true,1.00,688,331,680,305,38205,0
notchParam-42,true,1.00,357,319,349,293,18762,0
notchParam-43,true,1.00,1233,326,1225,299,70879,0
notchParam-44,true,1.00,1229,332,1223,305,71066,0
notchParam-45,true,1.00,1228,330,1221,299,72680,0
notchParam-46,true,1.00,1239,314,1234,287,69525,0
notchParam-47,true,1.00,344,312,339,286,18005,0
notchParam-48,true,1.00,356,333,345,307,18285,0
notchParam-49,true,1.00,349,335,345,304,18321,0
notchParam-50,true,1.00,368,334,358,307,17012,0
notchParam-51,true,1.00,328,308,323,282,17119,0
notchParam-52,true,1.00,1325,332,1315,306,67569,0
notchParam-53,true,1.00,876,302,871,276,49642,0
notchParam-54,true,1.00,1049,318,1044,291,55945,0
notchParam-55,true,1.00,354,321,344,295,18328,0
notchParam-56,true,1.00,321,312,311,285,16212,0
notchParam-57,true,1.00,1236,322,1228,295,71504,0
notchParam-58,true,1.00,732,341,724,314,40562,0
notchParam-59,true,1.00,1291,336,1288,310,72467,0
notchParam-60,true,1.00,722,330,716,303,39340,0
notchParam-61,true,1.00,1419,333,1412,306,81908,0
notchParam-62,true,1.00,782,298,775,272,43204,0
notchParam-63,true,1.00,747,333,744,306,41364,0
notchParam-64,true,1.00,679,322,670,295,38339,0
notchParam-65,true,1.00,705,316,698,289,39430,0
notchParam-66,true,1.00,691,337,679,310,38319,0
notchParam-67,true,1.00,1023,344,1010,318,54938,0
notchParam-68,true,1.00,882,308,873,280,47600,0
notchParam-69,true,1.00,812,308,808,282,43974,0
notchParam-70,true,1.00,893,308,884,282,49578,0
notchParam-71,true,1.00,760,339,753,312,43146,0
notchParam-72,true,1.00,728,337,719,309,41252,0
notchParam-73,true,1.00,669,310,662,284,37427,0
notchParam-74,true,1.00,713,337,707,310,39553,0
notchParam-75,true,1.00,728,338,721,311,41558,0
notchParam-76,true,1.00,1179,340,1171,313,66466,0
notchParam-77,true,1.00,749,333,741,306,41481,0
notchParam-78,true,1.00,1209,312,1199,285,69647,0
notchParam-79,true,1.00,675,319,671,292,38195,0
notchParam-80,true,1.00,354,310,340,284,17995,0
notchParam-81,true,1.00,737,333,731,306,42555,0
notchParam-82,true,1.00,304,305,293,279,15343,0
notchParam-83,true,1.00,328,302,320,276,17110,0
notchParam-84,true,1.00,957,316,947,290,51876,0
notchParam-85,true,1.00,1828,370,1822,343,91599,0
notchParam-86,true,1.00,1145,304,1135,277,65592,0
notchParam-87,true,1.00,334,322,326,296,17066,0
notchParam-88,true,1.00,326,308,319,282,16823,0
notchParam-89,true,1.00,336,304,327,278,17056,0
notchParam-90,true,1.00,306,309,298,283,15583,0
notchParam-91,true,1.00,1205,334,1197,307,67603,0
notchParam-92,true,1.00,1162,308,1152,281,65982,0
notchParam-93,true,1.00,1247,322,1240,295,71530,0
notchParam-94,true,1.00,1232,328,1227,301,69195,0
notchParam-95,true,1.00,1377,364,1364,337,77638,0
notchParam-96,true,1.00,700,326,695,299,40155,0
notchParam-97,true,1.00,595,314,588,288,32369,0
notchParam-98,true,1.00,334,300,317,274,16998,0
notchParam-99,true,1.00,1235,332,1225,305,64708,0
notchParam-100,true,1.00,909,304,904,278,50381,0
