NDW:0.0
TTFW:1.8
DFPT:2.0
DFPAP:3.0
DFPMP:1.0
RIGHT_WINDOW_BORDER_X:275.0
level,win/fail,% travelled,run time,game ticks,planning time,total plannings,nodes evaluated,most backtracked nodes
ore-1,true,1.00,2440,476,2428,441,149137,0
ore-2,false,0.70,2647,305,2640,305,144549,0
ore-3,true,1.00,1648,461,1634,412,100626,0
ore-4,true,1.00,2050,495,2043,469,117370,0
ore-5,true,1.00,1989,417,1983,380,121125,0
ore-6,true,1.00,1410,445,1396,409,82620,0
ore-7,true,1.00,1736,428,1721,394,105193,0
ore-8,false,0.13,1789,95,1788,95,91377,0
ore-9,true,1.00,1117,389,1108,345,66827,0
ore-10,true,1.00,2601,474,2587,449,144445,0
ore-11,true,1.00,1791,494,1780,459,103576,0
ore-12,false,0.46,1673,221,1668,221,88688,0
ore-13,true,1.00,1902,504,1887,456,113986,0
ore-14,true,1.00,2268,470,2258,445,134495,0
ore-15,true,1.00,2045,424,2033,394,124248,0
ore-16,true,1.00,4357,516,4349,482,228736,0
ore-17,true,1.00,2083,505,2069,458,125689,0
ore-18,true,1.00,1461,468,1450,428,85445,0
ore-19,true,1.00,1309,391,1301,366,77613,0
ore-20,true,1.00,2614,475,2603,442,158732,0
ore-21,true,1.00,2070,485,2059,455,126420,0
ore-22,false,0.62,1796,265,1789,265,93815,0
ore-23,true,1.00,2836,468,2827,437,162006,0
ore-24,true,1.00,2080,498,2070,446,124326,0
ore-25,true,1.00,1733,458,1723,419,106218,0
ore-26,true,1.00,2286,433,2279,397,126020,0
ore-27,false,0.24,1488,126,1485,126,77419,0
ore-28,true,1.00,1801,443,1793,418,100248,0
ore-29,false,0.48,1829,222,1820,222,88233,0
ore-30,true,1.00,1414,459,1401,397,83857,0
ore-31,true,1.00,1785,444,1775,402,107733,0
ore-32,true,1.00,2158,468,2147,443,122046,0
ore-33,true,1.00,1482,490,1477,442,87413,0
ore-34,true,1.00,1924,486,1915,443,113865,0
ore-35,true,1.00,1910,436,1902,409,115312,0
ore-36,true,1.00,1656,432,1648,397,100722,0
ore-37,false,0.34,1353,122,1349,122,70372,0
ore-38,true,1.00,1319,408,1310,365,78245,0
ore-39,true,1.00,2772,485,2761,448,171734,0
ore-40,true,1.00,2054,422,2037,392,117599,0
ore-41,true,1.00,1987,485,1976,439,118790,0
ore-42,true,1.00,3686,513,3674,479,206046,0
ore-43,true,1.00,3423,507,3415,482,189662,0
ore-44,true,1.00,2771,422,2762,368,169590,0
ore-45,false,0.74,22621,999,22614,999,865046,0
ore-46,false,0.12,870,53,870,53,44480,0
ore-47,false,0.85,2430,409,2419,409,137675,0
ore-48,true,1.00,3252,448,3242,421,197304,0
ore-49,true,1.00,1471,454,1463,405,87888,0
ore-50,true,1.00,4307,486,4296,459,254915,0
ore-51,true,1.00,2328,453,2318,392,136194,0
ore-52,true,1.00,1745,429,1736,401,98670,0
ore-53,true,1.00,2003,465,1993,425,117324,0
ore-54,false,0.72,2936,365,2925,365,159489,0
ore-55,true,1.00,1927,438,1916,398,102057,0
ore-56,true,1.00,1387,387,1377,362,82163,0
ore-57,true,1.00,2183,485,2166,442,132474,0
ore-58,true,1.00,1991,467,1984,442,118358,0
ore-59,true,1.00,2723,495,2709,467,142476,0
ore-60,true,1.00,1838,356,1829,331,102981,0
ore-61,true,1.00,1718,434,1707,382,102378,0
ore-62,false,0.78,2158,370,2149,370,115410,0
ore-63,false,0.32,2014,171,2012,171,104428,0
ore-64,true,1.00,1407,415,1396,388,83765,0
ore-65,true,1.00,1888,451,1881,417,110440,0
ore-66,true,1.00,3474,476,3461,433,185870,0
ore-67,true,1.00,2426,420,2415,390,142513,0
ore-68,true,1.00,1401,477,1387,440,79793,0
ore-69,true,1.00,2787,464,2771,430,150567,0
ore-70,false,0.96,3180,490,3168,490,178247,0
ore-71,true,1.00,1840,412,1829,386,111632,0
ore-72,true,1.00,1587,446,1576,409,92615,0
ore-73,true,1.00,1696,421,1687,395,98600,0
ore-74,true,1.00,4086,533,4076,496,210157,0
ore-75,true,1.00,2105,483,2090,456,126782,0
ore-76,true,1.00,1628,406,1622,375,97010,0
ore-77,true,1.00,1555,414,1546,369,90514,0
ore-78,true,1.00,1998,448,1983,423,114569,0
ore-79,true,1.00,2812,469,2802,438,159762,0
ore-80,true,1.00,1922,428,1911,382,109424,0
ore-81,true,1.00,1780,469,1769,443,104429,0
ore-82,true,1.00,1752,435,1744,404,103795,0
ore-83,true,1.00,1630,431,1623,406,96691,0
ore-84,false,0.18,1136,79,1135,79,49244,0
ore-85,true,1.00,2403,451,2394,417,148482,0
ore-86,false,0.60,2487,329,2480,329,144189,0
ore-87,true,1.00,1558,407,1549,373,89822,0
ore-88,false,0.32,1733,136,1730,136,84175,0
ore-89,true,1.00,2490,458,2476,433,136116,0
ore-90,true,1.00,2951,526,2939,476,176002,0
ore-91,true,1.00,2958,449,2946,423,166614,0
ore-92,true,1.00,1875,460,1864,418,112056,0
ore-93,false,0.13,2265,91,2265,91,101380,0
ore-94,true,1.00,1973,497,1957,451,114294,0
ore-95,true,1.00,2393,476,2381,430,142937,0
ore-96,true,1.00,2623,462,2613,437,153611,0
ore-97,true,1.00,2862,488,2851,427,164017,0
ore-98,true,1.00,2984,448,2969,417,186418,0
ore-99,true,1.00,3170,478,3157,440,183874,0
ore-100,true,1.00,1960,430,1947,391,121900,0
