NDW:0.0
TTFW:1.8
DFPT:2.0
DFPAP:3.0
DFPMP:7.0
RIGHT_WINDOW_BORDER_X:195.0
level,win/fail,% travelled,run time,game ticks,planning time,total plannings,nodes evaluated,most backtracked nodes
ore-1,true,1.00,1377,408,1375,390,189375,0
ore-2,false,0.70,3063,340,3062,340,316241,0
ore-3,true,1.00,1661,482,1657,456,223966,0
ore-4,true,1.00,1990,468,1988,441,265858,0
ore-5,true,1.00,2083,398,2080,380,281487,0
ore-6,true,1.00,1831,433,1829,403,256370,0
ore-7,true,1.00,1460,443,1457,424,196774,0
ore-8,true,1.00,3034,510,3027,480,367486,0
ore-9,true,1.00,1076,407,1072,385,140316,0
ore-10,true,1.00,1251,462,1247,431,177530,0
ore-11,true,1.00,1494,519,1492,492,199216,0
ore-12,true,1.00,2909,545,2902,526,358544,0
ore-13,true,1.00,1666,508,1663,475,219606,0
ore-14,true,1.00,1676,442,1674,424,225082,0
ore-15,true,1.00,2200,414,2196,395,271947,0
ore-16,true,1.00,1290,434,1290,415,179740,0
ore-17,true,1.00,2304,515,2301,485,324925,0
ore-18,true,1.00,1378,461,1376,430,194608,0
ore-19,true,1.00,1580,446,1575,428,209854,0
ore-20,true,1.00,2106,476,2104,445,283236,0
ore-21,true,1.00,2211,546,2207,524,311148,0
ore-22,false,0.62,3787,372,3786,372,358922,0
ore-23,true,1.00,1708,447,1706,429,229829,0
ore-24,true,1.00,1645,521,1643,501,218213,0
ore-25,true,1.00,1752,440,1749,413,245992,0
ore-26,true,1.00,1468,404,1465,385,186994,0
ore-27,true,1.00,2214,451,2211,433,272798,0
ore-28,true,1.00,1779,457,1777,434,215117,0
ore-29,true,1.00,1636,444,1633,426,208160,0
ore-30,true,1.00,1365,448,1362,429,178741,0
ore-31,true,1.00,1247,429,1245,411,166536,0
ore-32,true,1.00,1461,451,1455,427,188798,0
ore-33,true,1.00,1329,502,1324,476,180064,0
ore-34,true,1.00,1902,471,1898,437,259738,0
ore-35,true,1.00,1725,423,1722,405,234904,0
ore-36,true,1.00,1120,407,1119,389,147811,0
ore-37,false,0.34,881,145,881,145,93373,0
ore-38,true,1.00,1359,404,1356,370,177613,0
ore-39,true,1.00,1894,477,1890,457,259004,0
ore-40,true,1.00,1671,421,1669,402,219398,0
ore-41,true,1.00,1555,434,1554,406,212455,0
ore-42,true,1.00,1600,481,1597,460,212738,0
ore-43,true,1.00,1679,469,1676,452,224236,0
ore-44,true,1.00,1707,439,1703,409,246147,0
ore-45,false,0.74,22000,999,22000,999,1561891,0
ore-46,false,0.12,1721,80,1721,80,161906,0
ore-47,true,1.00,1808,463,1807,444,247705,0
ore-48,true,1.00,1370,455,1369,437,195240,0
ore-49,true,1.00,1254,438,1250,415,171991,0
ore-50,true,1.00,2044,478,2044,460,270334,0
ore-51,true,1.00,1239,412,1233,385,173434,0
ore-52,true,1.00,2144,459,2142,440,300128,0
ore-53,true,1.00,2209,436,2207,417,290779,0
ore-54,false,0.71,3039,352,3036,352,329369,0
ore-55,true,1.00,1370,420,1367,399,197594,0
ore-56,true,1.00,1142,397,1137,375,152777,0
ore-57,true,1.00,1372,453,1368,415,191233,0
ore-58,true,1.00,2156,468,2155,451,287012,0
ore-59,true,1.00,2140,464,2138,445,285104,0
ore-60,true,1.00,1928,411,1924,394,249906,0
ore-61,true,1.00,1325,446,1324,414,163704,0
ore-62,true,1.00,1589,487,1586,469,203376,0
ore-63,true,1.00,2015,411,2015,385,267243,0
ore-64,true,1.00,1264,416,1262,398,172643,0
ore-65,true,1.00,1827,487,1826,464,243899,0
ore-66,true,1.00,2566,519,2558,500,318005,0
ore-67,true,1.00,1397,470,1394,441,174329,0
ore-68,true,1.00,1479,473,1475,455,191911,0
ore-69,true,1.00,1729,468,1727,449,226246,0
ore-70,false,0.95,4654,490,4646,490,469804,0
ore-71,true,1.00,1511,426,1508,408,199541,0
ore-72,true,1.00,1251,438,1250,410,170190,0
ore-73,true,1.00,1452,433,1451,415,200919,0
ore-74,true,1.00,2145,482,2142,463,284054,0
ore-75,true,1.00,1755,491,1754,473,226647,0
ore-76,true,1.00,1359,380,1358,363,189029,0
ore-77,true,1.00,1098,378,1096,360,149123,0
ore-78,true,1.00,1887,502,1881,485,215984,0
ore-79,true,1.00,1582,432,1581,415,209539,0
ore-80,true,1.00,1375,437,1373,413,183309,0
ore-81,true,1.00,1453,473,1450,453,201516,0
ore-82,true,1.00,1601,456,1597,434,216240,0
ore-83,true,1.00,1345,432,1342,415,172463,0
ore-84,true,1.00,2583,454,2581,434,326351,0
ore-85,true,1.00,1383,440,1381,419,177083,0
ore-86,true,1.00,2320,521,2314,500,309121,0
ore-87,true,1.00,1126,456,1124,430,143588,0
ore-88,true,1.00,1434,404,1431,385,197849,0
ore-89,true,1.00,2785,472,2781,454,367380,0
ore-90,true,1.00,2662,574,2659,533,365247,0
ore-91,true,1.00,1441,431,1437,413,196318,0
ore-92,true,1.00,1322,436,1320,419,175453,0
ore-93,false,0.14,1658,91,1658,91,148661,0
ore-94,true,1.00,1943,478,1939,458,268062,0
ore-95,true,1.00,2017,491,2013,472,269981,0
ore-96,true,1.00,1448,444,1446,422,205237,0
ore-97,true,1.00,1782,498,1780,461,232695,0
ore-98,true,1.00,1843,458,1839,440,248697,0
ore-99,true,1.00,1972,448,1968,430,270937,0
ore-100,true,1.00,1029,456,1026,436,147603,0
