NDW:0.0
TTFW:0.2
DFPT:2.0
DFPAP:3.0
DFPMP:2.0
RIGHT_WINDOW_BORDER_X:195.0
level,win/fail,% travelled,run time,game ticks,planning time,total plannings,nodes evaluated,most backtracked nodes
notchParam-1,true,1.00,1198,300,1197,283,101135,0
notchParam-2,true,1.00,1358,308,1356,291,107753,0
notchParam-3,true,1.00,1364,320,1359,303,112132,0
notchParam-4,true,1.00,1390,316,1389,299,112886,0
notchParam-5,true,1.00,1278,310,1276,293,106417,0
notchParam-6,true,1.00,1410,322,1410,305,116482,0
notchParam-7,true,1.00,1395,306,1392,289,117198,0
notchParam-8,true,1.00,2079,335,2078,318,174897,0
notchParam-9,true,1.00,1230,312,1229,295,102280,0
notchParam-10,true,1.00,1889,320,1886,303,158604,0
notchParam-11,true,1.00,1105,302,1103,285,93024,0
notchParam-12,true,1.00,2326,351,2321,334,192085,0
notchParam-13,true,1.00,596,294,592,277,46906,0
notchParam-14,true,1.00,613,294,611,277,48211,0
notchParam-15,true,1.00,1650,318,1648,301,131747,0
notchParam-16,true,1.00,2219,342,2216,325,176259,0
notchParam-17,true,1.00,1264,302,1262,285,108311,0
notchParam-18,true,1.00,1244,318,1240,301,94523,0
notchParam-19,true,1.00,925,312,923,295,73748,0
notchParam-20,true,1.00,704,300,701,283,55421,0
notchParam-21,true,1.00,611,296,608,279,47606,0
notchParam-22,true,1.00,1083,315,1081,298,82740,0
notchParam-23,true,1.00,2567,353,2562,336,204907,0
notchParam-24,true,1.00,1879,326,1877,309,159494,0
notchParam-25,true,1.00,1577,306,1575,289,133899,0
notchParam-26,true,1.00,2108,341,2107,324,175588,0
notchParam-27,true,1.00,713,302,713,285,56741,0
notchParam-28,true,1.00,1417,320,1415,303,117859,0
notchParam-29,true,1.00,1273,316,1273,299,106042,0
notchParam-30,true,1.00,595,294,593,277,47918,0
notchParam-31,true,1.00,2438,352,2435,335,195610,0
notchParam-32,true,1.00,1456,306,1454,289,123103,0
notchParam-33,true,1.00,647,294,645,277,51889,0
notchParam-34,true,1.00,1733,322,1731,305,139634,0
notchParam-35,true,1.00,1896,328,1892,311,148909,0
notchParam-36,true,1.00,1271,298,1268,281,110154,0
notchParam-37,true,1.00,821,313,816,291,63871,0
notchParam-38,true,1.00,733,302,730,285,58804,0
notchParam-39,true,1.00,1988,337,1986,320,158299,0
notchParam-40,true,1.00,1180,308,1177,291,98484,0
notchParam-41,true,1.00,1355,320,1354,303,111278,0
notchParam-42,true,1.00,905,308,903,291,72207,0
notchParam-43,true,1.00,1930,320,1927,303,160936,0
notchParam-44,true,1.00,2701,353,2700,336,219269,0
notchParam-45,true,1.00,1766,316,1765,299,152241,0
notchParam-46,true,1.00,1523,302,1523,285,131261,0
notchParam-47,true,1.00,978,314,976,297,76278,0
notchParam-48,true,1.00,793,304,787,287,62855,0
notchParam-49,true,1.00,1171,316,1171,299,90390,0
notchParam-50,true,1.00,1455,327,1454,310,106291,0
notchParam-51,true,1.00,555,294,554,277,44007,0
notchParam-52,true,1.00,1509,316,1507,299,127998,0
notchParam-53,true,1.00,2152,345,2149,328,170698,0
notchParam-54,true,1.00,2111,342,2108,325,167655,0
notchParam-55,true,1.00,1039,306,1036,289,80836,0
notchParam-56,true,1.00,988,314,985,297,77214,0
notchParam-57,true,1.00,2082,337,2080,320,173615,0
notchParam-58,true,1.00,1746,334,1744,317,129841,0
notchParam-59,true,1.00,2497,344,2493,327,190481,0
notchParam-60,true,1.00,2026,347,2021,330,151643,0
notchParam-61,true,1.00,2270,353,2269,336,177906,0
notchParam-62,true,1.00,1191,304,1186,287,93039,0
notchParam-63,true,1.00,1328,318,1328,301,102032,0
notchParam-64,true,1.00,1182,304,1180,287,95063,0
notchParam-65,true,1.00,1129,306,1126,289,89073,0
notchParam-66,true,1.00,1554,324,1552,307,117880,0
notchParam-67,true,1.00,1411,308,1409,291,112532,0
notchParam-68,true,1.00,1265,302,1264,285,104633,0
notchParam-69,true,1.00,1948,347,1946,330,147137,0
notchParam-70,true,1.00,1449,322,1446,305,121816,0
notchParam-71,true,1.00,1650,338,1647,321,135255,0
notchParam-72,true,1.00,1352,314,1351,297,113532,0
notchParam-73,true,1.00,1214,312,1212,295,102212,0
notchParam-74,true,1.00,1247,312,1246,295,102565,0
notchParam-75,true,1.00,1499,326,1497,309,121742,0
notchParam-76,true,1.00,2375,350,2375,333,193174,0
notchParam-77,true,1.00,1292,312,1289,295,108671,0
notchParam-78,true,1.00,1975,332,1971,315,166168,0
notchParam-79,true,1.00,1250,312,1248,295,103685,0
notchParam-80,true,1.00,972,302,970,285,77259,0
notchParam-81,true,1.00,1321,316,1320,299,111760,0
notchParam-82,true,1.00,746,300,743,283,59196,0
notchParam-83,true,1.00,824,304,824,287,66603,0
notchParam-84,true,1.00,1577,318,1577,301,128895,0
notchParam-85,true,1.00,2228,340,2226,323,176102,0
notchParam-86,true,1.00,1898,325,1896,308,157469,0
notchParam-87,true,1.00,659,296,659,279,53266,0
notchParam-88,true,1.00,779,304,779,287,61945,0
notchParam-89,true,1.00,701,302,699,285,55132,0
notchParam-90,true,1.00,742,304,741,287,59334,0
notchParam-91,true,1.00,2003,326,2000,309,163225,0
notchParam-92,true,1.00,1472,304,1472,287,124517,0
notchParam-93,true,1.00,1756,314,1752,297,151272,0
notchParam-94,true,1.00,1973,330,1972,313,164098,0
notchParam-95,true,1.00,2761,348,2760,331,218913,0
notchParam-96,true,1.00,1302,320,1296,303,107507,0
notchParam-97,true,1.00,1003,302,1003,285,81825,0
notchParam-98,true,1.00,896,319,896,302,68069,0
notchParam-99,true,1.00,2152,342,2152,325,172047,0
notchParam-100,true,1.00,1283,302,1283,285,107468,0
