NDW:0.0
TTFW:0.2
DFPT:2.0
DFPAP:3.0
DFPMP:1.0
RIGHT_WINDOW_BORDER_X:275.0
level,win/fail,% travelled,run time,game ticks,planning time,total plannings,nodes evaluated,most backtracked nodes
Mario-1,true,1.00,3935,326,3933,291,228851,0
Mario-2,true,1.00,4127,285,4124,254,229427,0
Mario-3,true,1.00,3270,250,3270,225,212960,0
Mario-4,true,1.00,6665,383,6662,347,365867,0
Mario-5,true,1.00,6823,379,6818,353,368568,0
Mario-6,true,1.00,3613,238,3610,213,230515,0
Mario-7,true,1.00,6169,397,6163,353,368153,0
Mario-8,true,1.00,6741,389,6737,360,374637,0
Mario-9,true,1.00,5196,359,5191,328,286994,0
Mario-10,true,1.00,3596,249,3594,224,237041,0
Mario-11,true,1.00,6131,359,6126,318,350236,0
Mario-12,true,1.00,10715,518,10710,477,598100,0
Mario-13,true,1.00,4770,308,4769,283,319097,0
Mario-14,true,1.00,5162,357,5160,318,289401,0
Mario-15,true,1.00,12508,701,12504,662,704270,0
