NDW:0.0
TTFW:1.2
DFPT:2.0
DFPAP:3.0
DFPMP:5.0
RIGHT_WINDOW_BORDER_X:295.0
level,win/fail,% travelled,run time,game ticks,planning time,total plannings,nodes evaluated,most backtracked nodes
ore-1,true,1.00,1248,430,1246,388,161217,0
ore-2,false,0.70,2645,301,2645,301,269213,0
ore-3,true,1.00,1342,438,1340,389,143028,0
ore-4,true,1.00,1804,455,1801,416,224942,0
ore-5,true,1.00,1519,388,1515,349,185564,0
ore-6,true,1.00,1364,455,1359,416,161904,0
ore-7,true,1.00,1687,433,1683,398,223870,0
ore-8,true,1.00,3185,421,3184,383,395520,0
ore-9,true,1.00,957,365,954,333,121531,0
ore-10,true,1.00,1418,430,1416,403,190011,0
ore-11,true,1.00,1484,477,1479,431,187670,0
ore-12,true,1.00,3117,462,3114,434,334739,0
ore-13,true,1.00,1287,452,1283,401,163794,0
ore-14,true,1.00,1995,463,1992,436,263401,0
ore-15,true,1.00,1634,412,1633,385,219454,0
ore-16,true,1.00,1833,466,1833,430,244698,0
ore-17,true,1.00,1643,515,1639,468,221350,0
ore-18,true,1.00,1120,482,1117,439,146457,0
ore-19,true,1.00,1219,410,1216,381,156082,0
ore-20,true,1.00,1976,438,1973,402,254681,0
ore-21,true,1.00,1530,456,1528,423,198920,0
ore-22,false,0.62,1697,295,1697,295,171514,0
ore-23,true,1.00,1755,425,1751,391,236018,0
ore-24,true,1.00,1459,481,1457,429,191642,0
ore-25,true,1.00,1213,438,1211,401,163278,0
ore-26,true,1.00,1217,419,1215,378,137706,0
ore-27,true,1.00,1943,448,1942,421,250291,0
ore-28,true,1.00,1632,499,1626,467,193277,0
ore-29,true,1.00,1633,423,1627,396,192188,0
ore-30,true,1.00,1118,416,1115,367,137695,0
ore-31,true,1.00,1428,417,1426,372,184923,0
ore-32,true,1.00,1526,427,1524,395,189225,0
ore-33,true,1.00,1427,420,1420,372,187388,0
ore-34,true,1.00,1681,482,1676,449,216512,0
ore-35,true,1.00,1554,411,1554,382,207330,0
ore-36,true,1.00,1249,421,1246,383,160282,0
ore-37,false,0.34,1647,139,1645,139,161564,0
ore-38,true,1.00,1316,410,1313,367,173189,0
ore-39,true,1.00,2308,443,2305,394,314350,0
ore-40,true,1.00,1987,417,1986,385,255410,0
ore-41,true,1.00,1153,416,1153,360,154995,0
ore-42,true,1.00,1970,467,1965,429,260974,0
ore-43,true,1.00,2431,453,2429,426,295045,0
ore-44,true,1.00,1389,402,1384,362,176641,0
ore-45,true,1.00,3102,520,3098,480,347090,0
ore-46,false,0.13,829,48,829,48,79086,0
ore-47,true,1.00,2957,526,2953,488,367574,0
ore-48,true,1.00,2451,455,2450,422,318124,0
ore-49,true,1.00,1291,430,1290,374,168249,0
ore-50,true,1.00,2884,436,2881,409,397641,0
ore-51,true,1.00,1647,405,1644,367,202518,0
ore-52,true,1.00,1350,431,1348,397,171193,0
ore-53,true,1.00,1462,409,1461,369,184102,0
ore-54,true,1.00,2804,487,2797,449,380538,0
ore-55,true,1.00,1337,409,1334,373,181676,0
ore-56,true,1.00,1452,377,1450,350,186663,0
ore-57,true,1.00,1938,448,1934,399,251830,0
ore-58,true,1.00,1930,442,1929,407,253379,0
ore-59,true,1.00,1635,442,1633,410,216409,0
ore-60,true,1.00,1621,397,1618,364,199178,0
ore-61,true,1.00,1521,385,1519,353,184736,0
ore-62,true,1.00,1618,428,1615,396,209599,0
ore-63,true,1.00,2748,435,2744,394,286365,0
ore-64,true,1.00,990,421,989,392,126419,0
ore-65,true,1.00,1727,479,1724,442,225434,0
ore-66,true,1.00,1805,463,1805,413,237512,0
ore-67,true,1.00,1692,439,1690,402,214026,0
ore-68,true,1.00,1135,414,1131,376,144160,0
ore-69,true,1.00,2027,469,2021,426,255552,0
ore-70,true,1.00,2469,435,2464,395,308699,0
ore-71,true,1.00,1483,408,1482,380,190474,0
ore-72,true,1.00,1198,427,1191,400,164065,0
ore-73,true,1.00,1541,427,1540,386,202621,0
ore-74,true,1.00,2589,491,2585,455,285704,0
ore-75,true,1.00,1791,468,1790,439,230642,0
ore-76,true,1.00,1583,410,1582,377,213027,0
ore-77,true,1.00,1504,418,1498,376,203584,0
ore-78,true,1.00,1747,452,1742,414,231330,0
ore-79,true,1.00,1709,420,1706,393,225131,0
ore-80,true,1.00,1334,405,1330,373,168746,0
ore-81,true,1.00,1598,469,1595,437,210729,0
ore-82,true,1.00,1603,396,1602,363,209936,0
ore-83,true,1.00,1269,414,1267,387,167647,0
ore-84,true,1.00,2563,427,2560,398,277244,0
ore-85,true,1.00,1580,446,1580,410,203481,0
ore-86,true,1.00,2448,489,2448,447,322423,0
ore-87,true,1.00,911,375,908,344,113153,0
ore-88,true,1.00,1890,436,1888,401,255405,0
ore-89,true,1.00,2230,446,2228,419,290985,0
ore-90,true,1.00,1986,462,1983,427,278723,0
ore-91,true,1.00,1577,431,1571,388,205875,0
ore-92,true,1.00,1392,476,1392,447,177426,0
ore-93,false,0.14,1646,76,1646,76,150498,0
ore-94,true,1.00,1972,484,1971,449,258826,0
ore-95,true,1.00,1871,468,1866,422,234950,0
ore-96,true,1.00,1708,452,1704,423,220966,0
ore-97,true,1.00,1731,477,1728,431,219330,0
ore-98,true,1.00,1721,446,1719,411,231140,0
ore-99,true,1.00,1709,425,1708,396,222965,0
ore-100,true,1.00,2141,436,2138,408,295014,0
