NDW:0.0
TTFW:1.8
DFPT:2.0
DFPAP:3.0
DFPMP:1.0
RIGHT_WINDOW_BORDER_X:155.0
level,win/fail,% travelled,run time,game ticks,planning time,total plannings,nodes evaluated,most backtracked nodes
ge-1,true,1.00,384,244,383,216,42338,0
ge-2,true,1.00,359,220,359,206,40343,0
ge-3,true,1.00,153,248,151,234,13932,0
ge-4,true,1.00,883,243,882,229,90720,0
ge-5,true,1.00,20,199,18,185,1653,0
ge-6,true,1.00,271,236,271,221,28476,0
ge-7,true,1.00,99,222,98,208,9821,0
ge-8,true,1.00,197,227,195,213,20180,0
ge-9,true,1.00,466,230,463,216,50886,0
ge-10,true,1.00,20,199,18,185,1574,0
ge-11,true,1.00,128,222,128,208,12811,0
ge-12,true,1.00,20,199,18,185,1479,0
ge-13,true,1.00,241,249,237,234,26360,0
ge-14,true,1.00,130,228,130,200,12477,0
ge-15,true,1.00,745,234,743,220,75764,0
ge-16,true,1.00,215,255,214,241,22721,0
ge-17,true,1.00,227,207,226,193,26104,0
ge-18,true,1.00,504,256,503,242,56044,0
ge-19,true,1.00,448,267,446,245,48319,0
ge-20,true,1.00,264,224,263,210,27616,0
ge-21,true,1.00,185,201,182,187,17982,0
ge-22,true,1.00,255,206,252,192,26282,0
ge-23,true,1.00,493,203,493,189,52930,0
ge-24,true,1.00,328,224,326,210,33539,0
ge-25,true,1.00,287,201,285,187,29026,0
ge-26,true,1.00,186,205,186,191,20696,0
ge-27,true,1.00,26,215,26,201,2347,0
ge-28,true,1.00,423,201,421,187,41968,0
ge-29,true,1.00,185,220,185,185,17985,0
ge-30,true,1.00,797,225,794,211,82994,0
ge-31,true,1.00,495,222,494,208,50200,0
ge-32,true,1.00,97,216,95,202,9997,0
ge-33,true,1.00,97,244,96,219,9202,0
ge-34,true,1.00,598,220,597,205,64105,0
ge-35,true,1.00,283,259,282,245,26654,0
ge-36,false,1.00,584,250,581,227,57744,0
ge-37,true,1.00,190,204,189,189,19991,0
ge-38,true,1.00,1086,238,1085,224,105715,0
ge-39,true,1.00,198,220,198,206,20934,0
ge-40,true,1.00,19,199,18,185,1564,0
ge-41,true,1.00,186,211,184,191,20830,0
ge-42,true,1.00,574,238,573,224,61196,0
ge-43,true,1.00,231,228,226,214,24725,0
ge-44,true,1.00,421,227,419,203,42860,0
ge-45,true,1.00,697,237,693,223,69685,0
ge-46,true,1.00,501,234,501,220,49924,0
ge-47,true,1.00,564,241,564,227,55989,0
ge-48,true,1.00,236,225,235,211,24779,0
ge-49,true,1.00,119,200,119,186,12434,0
ge-50,true,1.00,466,220,465,206,45436,0
ge-51,true,1.00,102,223,102,209,9418,0
ge-52,true,1.00,321,274,318,258,30132,0
ge-53,true,1.00,157,209,156,195,16529,0
ge-54,true,1.00,201,235,201,221,25009,0
ge-55,true,1.00,231,217,230,203,23289,0
ge-56,true,1.00,437,243,434,217,45598,0
ge-57,true,1.00,526,213,525,198,57922,0
ge-58,true,1.00,122,245,119,231,11065,0
ge-59,true,1.00,794,233,794,219,85267,0
ge-60,true,1.00,454,205,451,191,45977,0
ge-61,true,1.00,187,203,185,189,20265,0
ge-62,true,1.00,453,211,453,197,50001,0
ge-63,true,1.00,625,216,624,197,70861,0
ge-64,true,1.00,395,247,395,214,39142,0
ge-65,true,1.00,466,232,466,219,51127,0
ge-66,true,1.00,463,221,461,204,49842,0
ge-67,true,1.00,217,259,215,245,21538,0
ge-68,true,1.00,97,221,94,207,8687,0
ge-69,true,1.00,190,199,190,185,19563,0
ge-70,true,1.00,260,216,260,202,26775,0
ge-71,true,1.00,825,238,823,224,83776,0
ge-72,true,1.00,84,255,81,241,8660,0
ge-73,true,1.00,263,222,261,200,27473,0
ge-74,true,1.00,569,234,566,220,56179,0
ge-75,true,1.00,161,242,158,207,18480,0
ge-76,true,1.00,759,222,759,208,80334,0
ge-77,true,1.00,1105,242,1103,228,117900,0
ge-78,true,1.00,518,280,517,253,54461,0
ge-79,true,1.00,126,212,126,198,13498,0
ge-80,true,1.00,32,217,31,202,2495,0
ge-81,true,1.00,30,213,29,199,2591,0
ge-82,true,1.00,37,233,36,202,3431,0
ge-83,false,1.00,558,250,558,224,59044,0
ge-84,true,1.00,655,217,655,203,68227,0
ge-85,true,1.00,226,209,225,195,24274,0
ge-86,true,1.00,619,204,619,189,65052,0
ge-87,true,1.00,501,224,498,210,55731,0
ge-88,true,1.00,391,228,390,214,43730,0
ge-89,true,1.00,109,242,107,228,10466,0
ge-90,true,1.00,20,199,19,185,1624,0
ge-91,true,1.00,216,199,215,185,22483,0
ge-92,true,1.00,23,205,22,191,2021,0
ge-93,true,1.00,585,218,584,204,61739,0
ge-94,true,1.00,353,206,350,192,38690,0
ge-95,true,1.00,70,271,68,257,6060,0
ge-96,true,1.00,575,256,573,236,59054,0
ge-97,true,1.00,642,241,641,227,68378,0
ge-98,true,1.00,19,199,19,185,1512,0
ge-99,true,1.00,119,199,117,185,10627,0
ge-100,true,1.00,223,217,222,203,22779,0
