NDW:0.0
TTFW:1.2
DFPT:2.0
DFPAP:3.0
DFPMP:3.0
RIGHT_WINDOW_BORDER_X:235.0
level,win/fail,% travelled,run time,game ticks,planning time,total plannings,nodes evaluated,most backtracked nodes
hopper-1,true,1.00,1113,317,1112,296,107266,0
hopper-2,true,1.00,1158,323,1154,302,98732,0
hopper-3,false,0.25,747,83,747,83,55433,0
hopper-4,false,0.27,754,94,753,94,59990,0
hopper-5,true,1.00,907,318,905,297,79776,0
hopper-6,true,1.00,980,314,979,290,85575,0
hopper-7,false,0.83,1566,263,1564,263,120867,0
hopper-8,false,0.42,991,140,991,140,74784,0
hopper-9,true,1.00,1030,311,1028,290,85101,0
hopper-10,true,1.00,892,315,890,294,77746,0
hopper-11,true,1.00,669,321,666,300,53978,0
hopper-12,true,1.00,1057,327,1054,301,90588,0
hopper-13,false,0.40,1287,127,1285,127,77318,0
hopper-14,true,1.00,989,326,986,299,97311,0
hopper-15,true,1.00,1079,311,1077,290,99881,0
hopper-16,false,0.54,1989,198,1988,198,146431,0
hopper-17,true,1.00,850,311,849,290,82474,0
hopper-18,true,1.00,1043,312,1043,291,94234,0
hopper-19,true,1.00,1005,323,1002,293,104250,0
hopper-20,true,1.00,1238,338,1238,316,115083,0
hopper-21,false,0.61,2526,238,2526,238,191369,0
hopper-22,false,0.33,876,110,875,110,69099,0
hopper-23,true,1.00,949,312,946,291,97090,0
hopper-24,true,1.00,617,313,614,291,61251,0
hopper-25,true,1.00,940,309,938,288,101099,0
hopper-26,true,1.00,1174,301,1171,280,112454,0
hopper-27,true,1.00,918,301,917,280,95638,0
hopper-28,false,0.86,1860,279,1859,279,185766,0
hopper-29,false,0.26,778,89,778,89,61618,0
hopper-30,true,1.00,852,322,852,300,86948,0
hopper-31,false,0.77,2443,279,2443,279,197805,0
hopper-32,true,1.00,1363,307,1363,286,138370,0
hopper-33,false,0.50,897,169,896,169,75563,0
hopper-34,true,1.00,2391,375,2391,354,209968,0
hopper-35,true,1.00,1306,326,1305,304,138136,0
hopper-36,true,1.00,745,307,745,286,72171,0
hopper-37,false,0.51,2054,199,2053,199,151954,0
hopper-38,false,0.53,893,172,893,172,81288,0
hopper-39,true,1.00,1185,329,1183,307,123782,0
hopper-40,true,1.00,1137,330,1131,304,102430,0
hopper-41,true,1.00,1565,301,1563,280,152796,0
hopper-42,true,1.00,843,311,841,290,81914,0
hopper-43,false,0.45,1515,152,1514,152,124209,0
hopper-44,true,1.00,1185,327,1183,305,123305,0
hopper-45,false,0.43,1051,143,1051,143,87801,0
hopper-46,false,0.67,1452,229,1451,229,135074,0
hopper-47,true,1.00,1428,311,1426,290,141832,0
hopper-48,true,1.00,1137,307,1135,286,108520,0
hopper-49,true,1.00,1062,315,1060,294,108784,0
hopper-50,false,0.63,1696,216,1694,216,137768,0
hopper-51,false,0.34,2302,153,2301,153,167289,0
hopper-52,true,1.00,765,309,763,288,80079,0
hopper-53,false,0.63,1868,225,1867,225,154133,0
hopper-54,true,1.00,656,302,654,276,63884,0
hopper-55,true,1.00,792,326,790,300,76849,0
hopper-56,true,1.00,790,299,790,278,84435,0
hopper-57,true,1.00,981,305,979,284,88682,0
hopper-58,true,1.00,2550,355,2547,334,229876,0
hopper-59,true,1.00,758,297,755,276,80161,0
hopper-60,true,1.00,1007,331,1005,301,105976,0
hopper-61,true,1.00,2566,351,2564,330,224033,0
hopper-62,true,1.00,1112,341,1111,309,102490,0
hopper-63,true,1.00,972,321,972,300,103741,0
hopper-64,true,1.00,1304,317,1301,296,122435,0
hopper-65,true,1.00,997,330,995,292,105066,0
hopper-66,true,1.00,3106,401,3103,380,257914,0
hopper-67,true,1.00,781,329,779,299,78919,0
hopper-68,true,1.00,721,321,718,300,70058,0
hopper-69,false,0.84,1383,269,1381,269,120992,0
hopper-70,true,1.00,1088,309,1086,288,108364,0
hopper-71,true,1.00,743,309,742,288,69311,0
hopper-72,true,1.00,1216,313,1216,292,117977,0
hopper-73,true,1.00,920,297,917,276,87868,0
hopper-74,true,1.00,820,307,820,286,75772,0
hopper-75,true,1.00,985,312,984,291,97499,0
hopper-76,true,1.00,2226,357,2225,335,197996,0
hopper-77,true,1.00,881,337,878,316,82654,0
hopper-78,true,1.00,1119,310,1118,288,120945,0
hopper-79,true,1.00,751,317,750,286,74674,0
hopper-80,true,1.00,691,313,690,292,66096,0
hopper-81,false,0.39,1082,125,1082,125,88918,0
hopper-82,false,0.45,2120,178,2120,178,161706,0
hopper-83,true,1.00,1313,326,1313,305,130694,0
hopper-84,true,1.00,1137,305,1135,284,109530,0
hopper-85,true,1.00,1058,325,1056,304,104825,0
hopper-86,true,1.00,985,303,984,282,96764,0
hopper-87,true,1.00,941,311,939,290,92719,0
hopper-88,true,1.00,725,311,719,290,77825,0
hopper-89,true,1.00,760,340,758,319,75871,0
hopper-90,true,1.00,894,322,893,300,90125,0
hopper-91,true,1.00,1037,326,1035,305,103131,0
hopper-92,true,1.00,1071,319,1071,298,97352,0
hopper-93,true,1.00,747,311,745,290,75787,0
hopper-94,true,1.00,2570,352,2568,331,221151,0
hopper-95,true,1.00,986,299,985,278,95144,0
hopper-96,true,1.00,1197,297,1197,276,123823,0
hopper-97,true,1.00,1244,314,1242,293,117407,0
hopper-98,true,1.00,1363,334,1360,313,129804,0
hopper-99,false,0.73,2334,268,2333,268,193565,0
hopper-100,true,1.00,1076,334,1076,304,102245,0
