NDW:0.0
TTFW:0.2
DFPT:2.0
DFPAP:3.0
DFPMP:50.0
RIGHT_WINDOW_BORDER_X:295.0
level,win/fail,% travelled,run time,game ticks,planning time,total plannings,nodes evaluated,most backtracked nodes
patternWeightCount-1,true,1.00,8890,421,8887,374,540193,0
patternWeightCount-2,true,1.00,4279,336,4277,309,259361,0
patternWeightCount-3,true,1.00,5634,354,5630,327,331557,0
patternWeightCount-4,true,1.00,4936,340,4934,314,286764,0
patternWeightCount-5,true,1.00,8373,427,8370,399,481767,0
patternWeightCount-6,true,1.00,7348,400,7344,374,426601,0
patternWeightCount-7,true,1.00,6089,373,6089,346,352378,0
patternWeightCount-8,true,1.00,5531,373,5527,346,316080,0
patternWeightCount-9,true,1.00,6614,351,6611,324,389567,0
patternWeightCount-10,true,1.00,8150,403,8147,377,471427,0
patternWeightCount-11,true,1.00,5333,360,5330,333,307837,0
patternWeightCount-12,true,1.00,5701,346,5696,319,334765,0
patternWeightCount-13,true,1.00,4736,324,4731,295,280382,0
patternWeightCount-14,true,1.00,5150,342,5147,315,297251,0
patternWeightCount-15,true,1.00,5596,354,5593,327,330741,0
patternWeightCount-16,true,1.00,7280,379,7278,347,444329,0
patternWeightCount-17,true,1.00,6491,367,6488,340,380831,0
patternWeightCount-18,true,1.00,6756,372,6754,346,401331,0
patternWeightCount-19,true,1.00,5589,356,5586,330,324785,0
patternWeightCount-20,false,0.62,4751,251,4748,251,286623,0
patternWeightCount-21,true,1.00,6873,375,6866,346,393970,0
patternWeightCount-22,true,1.00,7404,364,7401,336,446512,0
patternWeightCount-23,true,1.00,6376,372,6375,345,389015,0
patternWeightCount-24,true,1.00,5180,349,5176,319,316616,0
patternWeightCount-25,true,1.00,8783,405,8780,378,509446,0
patternWeightCount-26,true,1.00,8347,392,8345,365,486616,0
patternWeightCount-27,true,1.00,7645,397,7644,362,455817,0
patternWeightCount-28,true,1.00,7196,376,7194,349,421657,0
patternWeightCount-29,true,1.00,5277,350,5275,324,307357,0
patternWeightCount-30,true,1.00,8496,398,8491,358,520338,0
patternWeightCount-31,true,1.00,5299,338,5297,312,314347,0
patternWeightCount-32,true,1.00,6263,370,6258,344,362382,0
patternWeightCount-33,true,1.00,7369,387,7366,360,432891,0
patternWeightCount-34,true,1.00,6102,368,6100,342,365316,0
patternWeightCount-35,false,0.27,30391,999,30389,999,1599643,0
patternWeightCount-36,true,1.00,7448,401,7441,374,436943,0
patternWeightCount-37,true,1.00,7110,378,7108,352,409655,0
patternWeightCount-38,true,1.00,6937,379,6937,346,404148,0
patternWeightCount-39,true,1.00,5952,373,5952,346,356269,0
patternWeightCount-40,true,1.00,6138,357,6137,330,362855,0
patternWeightCount-41,true,1.00,6606,385,6602,353,388720,0
patternWeightCount-42,true,1.00,6582,350,6579,323,382347,0
patternWeightCount-43,true,1.00,5513,341,5511,315,326189,0
patternWeightCount-44,true,1.00,7672,387,7670,356,444605,0
patternWeightCount-45,true,1.00,9547,447,9546,407,570656,0
patternWeightCount-46,true,1.00,7725,405,7725,364,462814,0
patternWeightCount-47,true,1.00,6741,372,6740,345,391762,0
patternWeightCount-48,true,1.00,5648,353,5648,327,325340,0
patternWeightCount-49,true,1.00,5015,350,5013,321,291178,0
patternWeightCount-50,true,1.00,5376,356,5373,329,312452,0
patternWeightCount-51,true,1.00,6395,373,6391,333,374109,0
patternWeightCount-52,true,1.00,7215,371,7215,344,422485,0
patternWeightCount-53,true,1.00,8067,381,8067,346,494753,0
patternWeightCount-54,true,1.00,6092,369,6090,343,358643,0
patternWeightCount-55,true,1.00,4757,326,4756,300,277562,0
patternWeightCount-56,true,1.00,4763,340,4759,313,278531,0
patternWeightCount-57,true,1.00,5519,356,5517,330,323246,0
patternWeightCount-58,true,1.00,7598,409,7597,377,442322,0
patternWeightCount-59,true,1.00,4951,334,4949,307,290068,0
patternWeightCount-60,true,1.00,6646,366,6644,337,395828,0
patternWeightCount-61,true,1.00,6425,368,6424,341,386577,0
patternWeightCount-62,true,1.00,6676,374,6674,334,405544,0
patternWeightCount-63,true,1.00,6052,367,6050,341,364451,0
patternWeightCount-64,true,1.00,5630,345,5626,318,333681,0
patternWeightCount-65,true,1.00,7492,379,7492,350,438578,0
patternWeightCount-66,true,1.00,7720,420,7718,393,444786,0
patternWeightCount-67,true,1.00,6257,352,6256,326,362387,0
patternWeightCount-68,false,0.85,26313,999,26310,999,1379139,0
patternWeightCount-69,true,1.00,7321,386,7315,342,424422,0
patternWeightCount-70,true,1.00,8404,410,8402,377,481669,0
patternWeightCount-71,true,1.00,4303,329,4303,302,252947,0
patternWeightCount-72,true,1.00,8187,388,8186,355,510867,0
patternWeightCount-73,true,1.00,9695,416,9693,376,613086,0
patternWeightCount-74,true,1.00,7305,383,7304,357,424503,0
patternWeightCount-75,true,1.00,7565,384,7563,358,445882,0
patternWeightCount-76,true,1.00,8158,393,8154,366,470705,0
patternWeightCount-77,true,1.00,7056,384,7052,357,414678,0
patternWeightCount-78,true,1.00,7927,422,7925,395,471254,0
patternWeightCount-79,true,1.00,5466,355,5464,328,316098,0
patternWeightCount-80,true,1.00,6304,362,6300,336,368128,0
patternWeightCount-81,true,1.00,6772,365,6769,330,417504,0
patternWeightCount-82,true,1.00,5124,361,5119,324,296611,0
patternWeightCount-83,true,1.00,6407,377,6405,351,374669,0
patternWeightCount-84,true,1.00,6168,362,6164,335,354914,0
patternWeightCount-85,true,1.00,4682,327,4680,298,283181,0
patternWeightCount-86,false,0.94,6751,349,6749,349,413960,0
patternWeightCount-87,true,1.00,9161,427,9158,386,572202,0
patternWeightCount-88,true,1.00,6539,366,6537,338,387576,0
patternWeightCount-89,true,1.00,5878,357,5875,330,346710,0
patternWeightCount-90,true,1.00,7670,362,7668,330,468635,0
patternWeightCount-91,true,1.00,5776,350,5775,322,335492,0
patternWeightCount-92,true,1.00,9653,442,9649,402,586623,0
patternWeightCount-93,true,1.00,6246,360,6241,316,383573,0
patternWeightCount-94,true,1.00,5923,355,5920,328,352610,0
patternWeightCount-95,true,1.00,7516,389,7515,362,444006,0
patternWeightCount-96,true,1.00,6297,365,6297,339,367168,0
patternWeightCount-97,true,1.00,4181,340,4179,311,243537,0
patternWeightCount-98,true,1.00,8887,422,8885,385,565409,0
patternWeightCount-99,true,1.00,7808,380,7805,353,456608,0
patternWeightCount-100,true,1.00,6737,378,6733,349,390980,0
