NDW:0.0
TTFW:0.4
DFPT:2.0
DFPAP:3.0
DFPMP:10.0
RIGHT_WINDOW_BORDER_X:155.0
level,win/fail,% travelled,run time,game ticks,planning time,total plannings,nodes evaluated,most backtracked nodes
patternCount-1,false,0.69,1476,328,1472,328,135506,0
patternCount-2,true,1.00,1167,399,1165,385,111149,0
patternCount-3,false,0.92,4546,523,4542,523,380442,0
patternCount-4,true,1.00,1385,440,1384,426,131957,0
patternCount-5,true,1.00,1421,430,1417,416,133877,0
patternCount-6,true,1.00,794,400,791,386,79555,0
patternCount-7,true,1.00,2068,523,2062,509,193058,0
patternCount-8,true,1.00,4850,534,4849,505,453195,0
patternCount-9,true,1.00,1400,420,1393,406,130873,0
patternCount-10,true,1.00,331,348,327,334,32077,0
patternCount-11,true,1.00,11431,750,11428,735,1048234,0
patternCount-12,true,1.00,706,409,704,395,68721,0
patternCount-13,true,1.00,1024,448,1021,434,95587,0
patternCount-14,true,1.00,2905,495,2900,467,264048,0
patternCount-15,true,1.00,1053,414,1050,400,102679,0
patternCount-16,true,1.00,1336,478,1330,464,124134,0
patternCount-17,true,1.00,823,381,818,367,79083,0
patternCount-18,true,1.00,1138,367,1136,353,105419,0
patternCount-19,true,1.00,1595,459,1594,445,145335,0
patternCount-20,true,1.00,1333,411,1329,397,126785,0
patternCount-21,true,1.00,1251,494,1251,480,115052,0
patternCount-22,true,1.00,6163,561,6158,538,574264,0
patternCount-23,false,0.93,8918,583,8915,583,804241,0
patternCount-24,true,1.00,12130,748,12127,728,1128639,0
patternCount-25,true,1.00,1325,481,1321,467,125191,0
patternCount-26,true,1.00,1226,487,1222,473,112285,0
patternCount-27,true,1.00,1191,413,1187,399,112763,0
patternCount-28,true,1.00,621,328,621,314,58884,0
patternCount-29,true,1.00,1373,443,1373,429,128282,0
patternCount-30,true,1.00,717,416,714,402,69256,0
patternCount-31,true,1.00,2726,562,2724,548,252488,0
patternCount-32,true,1.00,2078,490,2074,476,189127,0
patternCount-33,true,1.00,5597,627,5592,612,500164,0
patternCount-34,true,1.00,2634,493,2632,477,242752,0
patternCount-35,true,1.00,1295,441,1293,427,121375,0
patternCount-36,true,1.00,3197,521,3194,498,287797,0
patternCount-37,true,1.00,1548,497,1545,483,142738,0
patternCount-38,true,1.00,4039,528,4033,514,373284,0
patternCount-39,true,1.00,1032,405,1029,391,95202,0
patternCount-40,true,1.00,8511,621,8509,601,793399,0
patternCount-41,true,1.00,2693,485,2690,471,258159,0
patternCount-42,true,1.00,1039,420,1036,406,95390,0
patternCount-43,true,1.00,369,352,367,338,35873,0
patternCount-44,true,1.00,918,412,915,398,87645,0
patternCount-45,true,1.00,1107,448,1103,434,100951,0
patternCount-46,true,1.00,1456,413,1455,399,137661,0
patternCount-47,true,1.00,2707,527,2703,513,248144,0
patternCount-48,true,1.00,928,421,926,407,88759,0
patternCount-49,true,1.00,1259,440,1258,420,116545,0
patternCount-50,true,1.00,6754,653,6752,632,629977,0
patternCount-51,true,1.00,903,397,902,383,87433,0
patternCount-52,true,1.00,1206,431,1203,417,114115,0
patternCount-53,true,1.00,10957,636,10955,620,1002054,0
patternCount-54,true,1.00,2363,498,2359,484,219830,0
patternCount-55,false,0.55,3267,336,3266,336,269392,0
patternCount-56,true,1.00,2065,476,2061,462,192615,0
patternCount-57,true,1.00,836,399,835,385,76873,0
patternCount-58,false,0.62,2524,346,2521,346,203730,0
patternCount-59,true,1.00,2200,495,2197,481,201601,0
patternCount-60,true,1.00,1404,432,1400,418,131005,0
patternCount-61,true,1.00,1729,484,1721,464,159998,0
patternCount-62,true,1.00,1590,427,1588,413,148291,0
patternCount-63,true,1.00,1406,467,1403,453,131586,0
patternCount-64,true,1.00,1192,407,1186,393,113020,0
patternCount-65,true,1.00,1590,455,1588,441,146192,0
patternCount-66,true,1.00,1477,415,1476,401,140104,0
patternCount-67,true,1.00,1380,394,1377,380,128703,0
patternCount-68,true,1.00,1099,474,1097,460,100055,0
patternCount-69,true,1.00,1186,425,1185,411,112317,0
patternCount-70,true,1.00,960,412,960,398,89070,0
patternCount-71,true,1.00,1320,438,1315,424,124825,0
patternCount-72,true,1.00,8897,641,8896,624,798907,0
patternCount-73,true,1.00,2619,562,2610,548,241211,0
patternCount-74,false,0.82,8451,531,8450,531,769038,0
patternCount-75,true,1.00,1699,524,1695,510,154284,0
patternCount-76,true,1.00,1208,421,1207,407,115742,0
patternCount-77,true,1.00,1305,414,1303,400,122174,0
patternCount-78,true,1.00,1763,469,1758,455,164672,0
patternCount-79,true,1.00,6252,546,6248,531,592941,0
patternCount-80,false,0.93,5534,604,5530,604,490632,0
patternCount-81,true,1.00,1055,453,1050,439,98753,0
patternCount-82,true,1.00,1563,466,1559,452,148745,0
patternCount-83,true,1.00,1508,518,1506,504,136339,0
patternCount-84,true,1.00,1275,465,1273,451,121537,0
patternCount-85,true,1.00,1429,445,1427,431,131403,0
patternCount-86,true,1.00,1071,432,1068,418,101894,0
patternCount-87,true,1.00,1756,481,1753,467,158991,0
patternCount-88,true,1.00,3522,517,3519,503,326801,0
patternCount-89,true,1.00,999,382,999,368,95496,0
patternCount-90,true,1.00,789,392,786,378,74693,0
patternCount-91,true,1.00,1991,504,1991,490,181733,0
patternCount-92,true,1.00,915,420,906,406,86344,0
patternCount-93,true,1.00,6704,571,6703,546,612910,0
patternCount-94,true,1.00,2039,454,2037,440,190581,0
patternCount-95,true,1.00,1805,421,1799,407,180584,0
patternCount-96,true,1.00,1203,470,1200,456,110487,0
patternCount-97,true,1.00,1751,415,1749,401,166523,0
patternCount-98,true,1.00,1451,453,1449,439,137215,0
patternCount-99,true,1.00,1090,433,1085,419,104960,0
patternCount-100,true,1.00,576,396,576,382,54280,0
