NDW:0.0
TTFW:1.4
DFPT:2.0
DFPAP:3.0
DFPMP:2.0
RIGHT_WINDOW_BORDER_X:215.0
level,win/fail,% travelled,run time,game ticks,planning time,total plannings,nodes evaluated,most backtracked nodes
patternWeightCount-1,true,1.00,3219,548,3209,527,196920,0
patternWeightCount-2,true,1.00,579,443,564,421,33761,0
patternWeightCount-3,true,1.00,616,420,604,401,35334,0
patternWeightCount-4,true,1.00,951,420,938,401,57181,0
patternWeightCount-5,true,1.00,1854,499,1838,480,111206,0
patternWeightCount-6,true,1.00,1748,502,1727,482,107822,0
patternWeightCount-7,true,1.00,832,412,820,393,49042,0
patternWeightCount-8,true,1.00,875,436,861,417,46672,0
patternWeightCount-9,true,1.00,1499,505,1487,485,92144,0
patternWeightCount-10,true,1.00,1214,453,1208,434,73834,0
patternWeightCount-11,true,1.00,630,486,623,467,36419,0
patternWeightCount-12,true,1.00,1240,482,1227,463,72761,0
patternWeightCount-13,true,1.00,949,452,931,433,56461,0
patternWeightCount-14,true,1.00,1056,457,1045,435,63655,0
patternWeightCount-15,true,1.00,1245,412,1236,392,76162,0
patternWeightCount-16,true,1.00,2828,503,2811,475,178511,0
patternWeightCount-17,true,1.00,885,512,872,493,50795,0
patternWeightCount-18,true,1.00,841,407,836,388,50272,0
patternWeightCount-19,true,1.00,620,458,608,439,34658,0
patternWeightCount-20,true,1.00,6654,495,6648,465,368580,0
patternWeightCount-21,true,1.00,844,516,830,496,46897,0
patternWeightCount-22,true,1.00,2313,537,2303,503,143029,0
patternWeightCount-23,true,1.00,1113,488,1099,458,68039,0
patternWeightCount-24,true,1.00,1522,420,1512,401,92291,0
patternWeightCount-25,true,1.00,1573,482,1559,463,95122,0
patternWeightCount-26,true,1.00,1376,443,1359,414,84788,0
patternWeightCount-27,true,1.00,2046,507,2030,475,124480,0
patternWeightCount-28,true,1.00,1397,480,1385,461,85757,0
patternWeightCount-29,true,1.00,1113,437,1106,417,66652,0
patternWeightCount-30,true,1.00,4397,533,4390,501,244399,0
patternWeightCount-31,true,1.00,1126,465,1117,446,64462,0
patternWeightCount-32,true,1.00,673,428,664,400,39063,0
patternWeightCount-33,true,1.00,867,499,854,480,50927,0
patternWeightCount-34,true,1.00,1406,429,1389,410,86206,0
patternWeightCount-35,true,1.00,1705,435,1699,416,102058,0
patternWeightCount-36,true,1.00,1862,476,1856,457,115791,0
patternWeightCount-37,true,1.00,690,451,680,432,39007,0
patternWeightCount-38,true,1.00,2560,494,2548,451,142608,0
patternWeightCount-39,true,1.00,956,410,948,389,55382,0
patternWeightCount-40,true,1.00,1391,488,1384,469,83833,0
patternWeightCount-41,true,1.00,1401,490,1391,465,84665,0
patternWeightCount-42,false,0.87,4033,516,4026,516,216872,0
patternWeightCount-43,true,1.00,1005,423,997,404,61055,0
patternWeightCount-44,true,1.00,1546,472,1536,432,96921,0
patternWeightCount-45,true,1.00,3543,557,3534,521,214630,0
patternWeightCount-46,true,1.00,4381,501,4368,475,246161,0
patternWeightCount-47,true,1.00,844,447,831,428,48972,0
patternWeightCount-48,true,1.00,813,426,805,407,48311,0
patternWeightCount-49,true,1.00,695,440,683,421,41065,0
patternWeightCount-50,true,1.00,1023,460,1012,432,60471,0
patternWeightCount-51,true,1.00,1367,463,1359,430,83708,0
patternWeightCount-52,true,1.00,1625,450,1615,422,98793,0
patternWeightCount-53,true,1.00,2877,493,2868,473,167752,0
patternWeightCount-54,true,1.00,1050,495,1037,476,60893,0
patternWeightCount-55,true,1.00,1308,476,1299,457,77928,0
patternWeightCount-56,true,1.00,1315,470,1301,440,79830,0
patternWeightCount-57,true,1.00,606,424,598,405,35673,0
patternWeightCount-58,true,1.00,2134,472,2123,451,133364,0
patternWeightCount-59,true,1.00,499,399,491,378,28365,0
patternWeightCount-60,true,1.00,1976,528,1966,496,119000,0
patternWeightCount-61,true,1.00,968,424,960,405,58197,0
patternWeightCount-62,true,1.00,2068,473,2059,433,125145,0
patternWeightCount-63,true,1.00,1393,479,1375,460,84189,0
patternWeightCount-64,true,1.00,1758,465,1747,446,108173,0
patternWeightCount-65,true,1.00,1265,479,1252,449,76172,0
patternWeightCount-66,true,1.00,1145,471,1128,451,68776,0
patternWeightCount-67,true,1.00,1126,468,1118,449,59540,0
patternWeightCount-68,false,0.85,20586,999,20577,999,755423,0
patternWeightCount-69,true,1.00,1674,445,1662,413,99992,0
patternWeightCount-70,true,1.00,1148,486,1134,461,68265,0
patternWeightCount-71,true,1.00,799,425,790,392,46202,0
patternWeightCount-72,true,1.00,5708,536,5700,496,308905,0
patternWeightCount-73,true,1.00,6705,580,6692,543,391994,0
patternWeightCount-74,true,1.00,1242,477,1233,458,74601,0
patternWeightCount-75,true,1.00,1355,472,1330,453,78153,0
patternWeightCount-76,true,1.00,1300,471,1289,450,78613,0
patternWeightCount-77,true,1.00,948,441,934,422,56793,0
patternWeightCount-78,true,1.00,1984,505,1966,485,115885,0
patternWeightCount-79,true,1.00,661,391,653,372,38695,0
patternWeightCount-80,true,1.00,1601,551,1590,532,96536,0
patternWeightCount-81,true,1.00,3219,482,3207,457,186905,0
patternWeightCount-82,true,1.00,287,426,277,392,15109,0
patternWeightCount-83,true,1.00,748,404,740,384,44724,0
patternWeightCount-84,true,1.00,890,464,873,445,52456,0
patternWeightCount-85,true,1.00,1821,447,1814,428,106868,0
patternWeightCount-86,false,0.94,4168,478,4161,478,196721,0
patternWeightCount-87,true,1.00,4606,452,4597,422,257018,0
patternWeightCount-88,true,1.00,1663,493,1652,473,100565,0
patternWeightCount-89,true,1.00,1204,464,1193,445,74482,0
patternWeightCount-90,true,1.00,5302,539,5294,518,312044,0
patternWeightCount-91,true,1.00,1303,461,1293,440,79356,0
patternWeightCount-92,true,1.00,3292,506,3284,471,201488,0
patternWeightCount-93,true,1.00,3389,452,3380,424,201148,0
patternWeightCount-94,true,1.00,1734,495,1715,476,105057,0
patternWeightCount-95,true,1.00,1389,470,1372,451,83838,0
patternWeightCount-96,true,1.00,773,455,765,436,43646,0
patternWeightCount-97,true,1.00,1004,378,993,358,62031,0
patternWeightCount-98,true,1.00,5921,540,5911,515,352136,0
patternWeightCount-99,true,1.00,1644,497,1635,477,101803,0
patternWeightCount-100,true,1.00,1136,436,1124,417,67888,0
