NDW:0.0
TTFW:0.4
DFPT:2.0
DFPAP:3.0
DFPMP:7.0
RIGHT_WINDOW_BORDER_X:275.0
level,win/fail,% travelled,run time,game ticks,planning time,total plannings,nodes evaluated,most backtracked nodes
patternOccur-1,true,1.00,1548,374,1547,349,112634,0
patternOccur-2,true,1.00,1599,407,1595,382,111273,0
patternOccur-3,true,1.00,1853,389,1851,364,133565,0
patternOccur-4,true,1.00,2544,420,2544,395,178372,0
patternOccur-5,true,1.00,1412,388,1410,363,99098,0
patternOccur-6,true,1.00,2449,444,2446,419,171720,0
patternOccur-7,true,1.00,2035,406,2034,378,147712,0
patternOccur-8,true,1.00,1923,370,1919,345,141532,0
patternOccur-9,true,1.00,2639,421,2635,395,187979,0
patternOccur-10,true,1.00,1342,360,1341,335,100536,0
patternOccur-11,true,1.00,4220,480,4216,437,313434,0
patternOccur-12,true,1.00,2609,427,2605,401,183567,0
patternOccur-13,true,1.00,1561,398,1559,373,110880,0
patternOccur-14,true,1.00,4016,437,4014,372,308380,0
patternOccur-15,true,1.00,1930,393,1924,368,138789,0
patternOccur-16,true,1.00,3810,430,3809,398,291128,0
patternOccur-17,true,1.00,2032,380,2031,355,143414,0
patternOccur-18,true,1.00,1566,346,1561,321,116252,0
patternOccur-19,true,1.00,7248,535,7241,503,519316,0
patternOccur-20,true,1.00,1544,391,1542,366,117558,0
patternOccur-21,true,1.00,1918,414,1912,388,138416,0
patternOccur-22,true,1.00,3784,412,3783,378,293202,0
patternOccur-23,true,1.00,2941,433,2939,408,204814,0
patternOccur-24,true,1.00,2007,436,2003,411,140396,0
patternOccur-25,true,1.00,2475,433,2473,408,180773,0
patternOccur-26,true,1.00,1363,364,1361,339,99269,0
patternOccur-27,true,1.00,3997,449,3995,412,291730,0
patternOccur-28,true,1.00,1900,402,1895,377,136852,0
patternOccur-29,true,1.00,1617,383,1615,354,117048,0
patternOccur-30,true,1.00,1323,382,1320,357,98066,0
patternOccur-31,true,1.00,4703,424,4700,396,372621,0
patternOccur-32,true,1.00,2498,359,2496,327,198017,0
patternOccur-33,true,1.00,1311,379,1310,354,99462,0
patternOccur-34,true,1.00,1878,391,1872,366,143873,0
patternOccur-35,true,1.00,2600,462,2594,437,182223,0
patternOccur-36,true,1.00,2899,423,2897,377,217933,0
patternOccur-37,true,1.00,4651,463,4649,429,337763,0
patternOccur-38,true,1.00,1613,388,1612,363,120257,0
patternOccur-39,true,1.00,3850,432,3846,407,273359,0
patternOccur-40,true,1.00,1913,384,1908,359,145683,0
patternOccur-41,true,1.00,2162,418,2159,393,155189,0
patternOccur-42,false,0.89,4897,482,4892,482,345351,0
patternOccur-43,true,1.00,1490,380,1486,355,113416,0
patternOccur-44,true,1.00,1491,360,1491,335,116126,0
patternOccur-45,true,1.00,2333,392,2332,337,180631,0
patternOccur-46,true,1.00,1384,382,1379,357,100138,0
patternOccur-47,true,1.00,4825,507,4823,469,362396,0
patternOccur-48,true,1.00,2526,416,2521,391,183393,0
patternOccur-49,true,1.00,1398,347,1395,322,106647,0
patternOccur-50,true,1.00,2202,396,2202,371,161964,0
patternOccur-51,true,1.00,2366,419,2364,393,177735,0
patternOccur-52,true,1.00,1801,406,1796,372,130493,0
patternOccur-53,true,1.00,1677,366,1676,341,126267,0
patternOccur-54,true,1.00,2789,406,2787,381,209160,0
patternOccur-55,true,1.00,2936,466,2934,441,214217,0
patternOccur-56,true,1.00,1934,416,1932,391,141050,0
patternOccur-57,true,1.00,2588,453,2586,427,189710,0
patternOccur-58,true,1.00,6481,499,6476,461,493796,0
patternOccur-59,true,1.00,1930,400,1927,375,144629,0
patternOccur-60,true,1.00,2567,371,2566,346,194588,0
patternOccur-61,true,1.00,1644,357,1643,332,128555,0
patternOccur-62,true,1.00,1858,375,1856,350,139038,0
patternOccur-63,true,1.00,1590,372,1588,347,119787,0
patternOccur-64,true,1.00,2428,396,2423,364,177172,0
patternOccur-65,true,1.00,1506,388,1502,363,110822,0
patternOccur-66,true,1.00,1946,415,1941,390,145668,0
patternOccur-67,true,1.00,1866,395,1865,370,141604,0
patternOccur-68,true,1.00,1649,409,1645,384,118360,0
patternOccur-69,true,1.00,4902,485,4899,459,367095,0
patternOccur-70,true,1.00,4982,447,4982,422,367687,0
patternOccur-71,true,1.00,2670,428,2667,402,195198,0
patternOccur-72,false,0.87,3191,389,3190,389,230377,0
patternOccur-73,true,1.00,3339,423,3337,367,255855,0
patternOccur-74,true,1.00,3892,423,3889,381,293601,0
patternOccur-75,true,1.00,2398,443,2396,416,178969,0
patternOccur-76,true,1.00,1445,352,1443,327,115640,0
patternOccur-77,true,1.00,1510,385,1508,360,109517,0
patternOccur-78,true,1.00,1310,334,1309,309,96906,0
patternOccur-79,true,1.00,1731,372,1727,347,132585,0
patternOccur-80,true,1.00,3079,427,3075,390,227289,0
patternOccur-81,true,1.00,4080,436,4075,411,316441,0
patternOccur-82,true,1.00,2329,377,2324,351,169796,0
patternOccur-83,true,1.00,1519,426,1517,401,109519,0
patternOccur-84,true,1.00,1177,345,1175,320,93247,0
patternOccur-85,false,0.93,1947,351,1943,351,151065,0
patternOccur-86,true,1.00,5176,475,5172,442,368250,0
patternOccur-87,true,1.00,1212,395,1210,370,89277,0
patternOccur-88,true,1.00,1984,401,1981,376,149421,0
patternOccur-89,true,1.00,1991,420,1988,395,147539,0
patternOccur-90,true,1.00,2049,398,2048,372,153750,0
patternOccur-91,true,1.00,1398,371,1394,346,105855,0
patternOccur-92,true,1.00,1267,354,1266,329,92517,0
patternOccur-93,true,1.00,1742,406,1741,380,125293,0
patternOccur-94,true,1.00,3398,388,3395,357,261485,0
patternOccur-95,true,1.00,1408,378,1406,353,105048,0
patternOccur-96,false,0.86,3296,401,3291,401,245304,0
patternOccur-97,true,1.00,1493,373,1491,348,114316,0
patternOccur-98,false,0.90,2763,362,2760,362,203462,0
patternOccur-99,true,1.00,1125,376,1122,351,85393,0
patternOccur-100,true,1.00,2017,390,2015,365,142375,0
