NDW:0.0
TTFW:2.0
DFPT:2.0
DFPAP:3.0
DFPMP:0.0
RIGHT_WINDOW_BORDER_X:95.0
level,win/fail,% travelled,run time,game ticks,planning time,total plannings,nodes evaluated,most backtracked nodes
patternOccur-1,true,1.00,1669,539,1649,531,84506,0
patternOccur-2,true,1.00,1255,528,1243,519,63313,0
patternOccur-3,true,1.00,3200,606,3184,598,162302,0
patternOccur-4,true,1.00,3088,566,3063,558,151163,0
patternOccur-5,true,1.00,1363,516,1343,508,66114,0
patternOccur-6,true,1.00,2854,573,2835,565,143988,0
patternOccur-7,true,1.00,3011,624,2991,616,152377,0
patternOccur-8,true,1.00,1635,473,1618,465,79736,0
patternOccur-9,true,1.00,1736,557,1714,549,88650,0
patternOccur-10,true,1.00,1492,575,1479,566,71844,0
patternOccur-11,false,0.86,3178,500,3165,500,156215,0
patternOccur-12,true,1.00,2649,601,2629,592,133090,0
patternOccur-13,true,1.00,1444,505,1434,497,73009,0
patternOccur-14,false,0.81,4275,470,4264,470,206857,0
patternOccur-15,true,1.00,2964,546,2947,538,153616,0
patternOccur-16,false,0.88,8197,667,8184,667,394563,0
patternOccur-17,true,1.00,2434,576,2420,568,125820,0
patternOccur-18,true,1.00,1520,536,1500,528,77175,0
patternOccur-19,false,0.82,6686,599,6667,599,358958,0
patternOccur-20,true,1.00,1934,542,1925,534,103001,0
patternOccur-21,true,1.00,1712,550,1694,542,89462,0
patternOccur-22,false,0.83,18256,999,18241,999,899148,0
patternOccur-23,true,1.00,2347,523,2340,508,126785,0
patternOccur-24,true,1.00,1610,544,1595,536,90840,0
patternOccur-25,true,1.00,2268,558,2255,550,123122,0
patternOccur-26,true,1.00,836,527,820,519,45932,0
patternOccur-27,false,0.93,6576,658,6568,658,333169,0
patternOccur-28,true,1.00,1867,536,1855,528,102242,0
patternOccur-29,true,1.00,1429,494,1418,476,77122,0
patternOccur-30,true,1.00,1045,456,1027,448,57425,0
patternOccur-31,false,0.77,5062,517,5052,517,272818,0
patternOccur-32,false,0.87,4571,562,4558,562,244132,0
patternOccur-33,true,1.00,2725,616,2704,608,143330,0
patternOccur-34,true,1.00,1666,547,1646,538,83109,0
patternOccur-35,true,1.00,1942,543,1926,535,95087,0
patternOccur-36,false,0.89,4158,589,4143,589,199483,0
patternOccur-37,false,0.95,6512,753,6495,753,308945,0
patternOccur-38,true,1.00,1671,553,1650,545,87387,0
patternOccur-39,false,0.80,4963,547,4955,547,256124,0
patternOccur-40,true,1.00,3784,583,3773,575,195714,0
patternOccur-41,true,1.00,2761,564,2745,546,143340,0
patternOccur-42,false,0.88,5064,581,5051,581,253343,0
patternOccur-43,true,1.00,2003,525,1988,517,103381,0
patternOccur-44,true,1.00,3100,564,3088,556,156355,0
patternOccur-45,false,0.93,5803,603,5791,603,303186,0
patternOccur-46,true,1.00,1258,549,1243,541,68003,0
patternOccur-47,false,0.87,4305,519,4294,519,230864,0
patternOccur-48,true,1.00,2107,521,2093,513,115171,0
patternOccur-49,true,1.00,1409,483,1392,475,77931,0
patternOccur-50,true,1.00,2081,531,2066,523,110839,0
patternOccur-51,true,1.00,2445,640,2424,631,132206,0
patternOccur-52,true,1.00,1874,561,1861,552,101676,0
patternOccur-53,true,1.00,3469,555,3454,547,187110,0
patternOccur-54,true,1.00,3135,547,3118,537,174680,0
patternOccur-55,true,1.00,2000,482,1988,474,108095,0
patternOccur-56,true,1.00,2115,574,2095,566,114716,0
patternOccur-57,true,1.00,2138,512,2124,504,115566,0
patternOccur-58,false,0.74,6696,591,6687,591,354488,0
patternOccur-59,true,1.00,2287,533,2273,525,125197,0
patternOccur-60,false,0.86,3966,553,3949,553,206928,0
patternOccur-61,true,1.00,3249,586,3231,578,174594,0
patternOccur-62,true,1.00,1395,500,1379,492,76134,0
patternOccur-63,true,1.00,1435,525,1421,516,75837,0
patternOccur-64,true,1.00,2596,612,2581,603,137339,0
patternOccur-65,true,1.00,834,500,819,492,44802,0
patternOccur-66,true,1.00,2097,537,2080,529,112082,0
patternOccur-67,false,0.88,4895,610,4877,610,248104,0
patternOccur-68,true,1.00,1417,549,1401,541,74799,0
patternOccur-69,false,0.85,6663,626,6653,626,348272,0
patternOccur-70,false,0.86,18757,999,18745,999,987116,0
patternOccur-71,true,1.00,3204,624,3191,616,183813,0
patternOccur-72,false,0.86,6204,658,6194,658,333289,0
patternOccur-73,false,0.87,5539,635,5527,635,284645,0
patternOccur-74,false,0.85,3935,538,3927,538,194478,0
patternOccur-75,false,0.96,4492,600,4480,600,203497,0
patternOccur-76,true,1.00,3001,561,2989,553,145264,0
patternOccur-77,true,1.00,947,489,930,481,44176,0
patternOccur-78,true,1.00,892,478,880,469,42488,0
patternOccur-79,true,1.00,2362,611,2340,603,118023,0
patternOccur-80,false,0.90,5289,607,5277,607,270050,0
patternOccur-81,false,0.85,6188,595,6175,595,316293,0
patternOccur-82,false,0.95,3771,574,3760,574,186232,0
patternOccur-83,true,1.00,1845,529,1828,521,102037,0
patternOccur-84,true,1.00,1472,541,1457,533,80878,0
patternOccur-85,false,0.93,3955,622,3921,622,197725,0
patternOccur-86,false,0.91,5042,580,5026,580,245041,0
patternOccur-87,true,1.00,1350,515,1330,507,66507,0
patternOccur-88,true,1.00,2983,547,2967,539,143712,0
patternOccur-89,true,1.00,2024,551,2000,543,84778,0
patternOccur-90,true,1.00,3012,589,2990,581,126035,0
patternOccur-91,true,1.00,1779,519,1752,510,72403,0
patternOccur-92,true,1.00,1516,522,1498,514,67260,0
patternOccur-93,true,1.00,2715,528,2698,520,113921,0
patternOccur-94,false,0.80,3839,531,3821,531,164171,0
patternOccur-95,true,1.00,1873,579,1857,571,92263,0
patternOccur-96,false,0.85,17647,999,17632,999,798753,0
patternOccur-97,true,1.00,2778,535,2766,527,142897,0
patternOccur-98,false,0.90,6791,655,6775,655,330923,0
patternOccur-99,true,1.00,844,489,830,481,41159,0
patternOccur-100,true,1.00,2578,542,2563,534,122966,0
