NDW:0.0
TTFW:0.2
DFPT:2.0
DFPAP:3.0
DFPMP:20.0
RIGHT_WINDOW_BORDER_X:295.0
level,win/fail,% travelled,run time,game ticks,planning time,total plannings,nodes evaluated,most backtracked nodes
ore-1,true,1.00,6563,366,6561,339,375991,0
ore-2,false,0.70,4734,250,4732,250,273475,0
ore-3,true,1.00,5185,340,5183,313,306667,0
ore-4,true,1.00,6789,380,6787,347,376309,0
ore-5,true,1.00,6640,374,6637,342,377899,0
ore-6,true,1.00,4404,323,4402,291,256646,0
ore-7,true,1.00,4066,312,4062,286,245037,0
ore-8,true,1.00,5639,344,5638,318,347025,0
ore-9,true,1.00,5682,343,5682,316,344980,0
ore-10,true,1.00,6227,349,6225,322,368379,0
ore-11,true,1.00,4643,334,4641,302,270021,0
ore-12,true,1.00,3764,309,3761,282,220186,0
ore-13,true,1.00,5299,342,5298,314,313198,0
ore-14,true,1.00,5549,334,5546,302,321744,0
ore-15,true,1.00,5670,342,5668,313,337630,0
ore-16,false,0.85,7048,351,7047,351,405526,0
ore-17,true,1.00,4966,331,4965,303,292486,0
ore-18,true,1.00,4613,320,4610,293,265515,0
ore-19,true,1.00,5082,342,5079,313,285930,0
ore-20,true,1.00,7129,388,7127,362,391772,0
ore-21,true,1.00,6968,368,6966,341,392778,0
ore-22,true,1.00,6081,351,6076,325,342753,0
ore-23,true,1.00,4190,324,4187,298,252288,0
ore-24,true,1.00,4300,318,4300,291,244167,0
ore-25,true,1.00,6168,354,6168,325,352498,0
ore-26,true,1.00,5002,333,4996,306,283256,0
ore-27,false,0.24,2229,111,2227,111,131261,0
ore-28,true,1.00,3895,327,3889,301,239181,0
ore-29,true,1.00,5358,346,5356,319,310127,0
ore-30,true,1.00,4574,325,4571,292,267854,0
ore-31,true,1.00,4158,331,4156,299,244067,0
ore-32,true,1.00,4869,331,4866,304,278838,0
ore-33,true,1.00,5054,348,5052,320,280281,0
ore-34,true,1.00,4661,338,4658,306,276048,0
ore-35,true,1.00,6426,391,6424,363,374532,0
ore-36,true,1.00,4410,326,4409,299,260751,0
ore-37,false,0.35,3088,145,3088,145,183073,0
ore-38,true,1.00,3384,307,3381,279,205699,0
ore-39,true,1.00,5770,343,5769,313,336313,0
ore-40,true,1.00,6641,356,6641,325,377664,0
ore-41,true,1.00,4153,313,4152,285,243044,0
ore-42,false,0.62,4984,240,4982,240,290522,0
ore-43,true,1.00,5344,352,5342,324,313389,0
ore-44,true,1.00,5267,333,5266,307,321037,0
ore-45,true,1.00,5821,349,5820,322,327389,0
ore-46,false,0.13,1200,54,1200,54,80927,0
ore-47,false,0.85,9092,414,9091,414,519050,0
ore-48,true,1.00,5257,353,5255,326,311662,0
ore-49,true,1.00,4572,325,4570,295,268667,0
ore-50,true,1.00,6628,383,6624,342,385795,0
ore-51,true,1.00,4965,330,4963,296,290155,0
ore-52,true,1.00,5294,345,5293,318,300349,0
ore-53,true,1.00,5074,334,5070,307,295278,0
ore-54,true,1.00,3879,308,3877,282,228994,0
ore-55,true,1.00,4998,341,4993,309,293489,0
ore-56,true,1.00,4825,326,4821,291,280565,0
ore-57,true,1.00,6099,359,6090,321,352252,0
ore-58,true,1.00,4639,328,4637,301,275598,0
ore-59,true,1.00,5989,352,5987,325,347005,0
ore-60,true,1.00,5310,368,5308,341,305194,0
ore-61,true,1.00,5104,341,5103,307,290800,0
ore-62,true,1.00,4129,325,4125,297,245324,0
ore-63,true,1.00,5606,357,5604,330,341430,0
ore-64,true,1.00,6230,359,6229,332,365391,0
ore-65,true,1.00,5202,344,5200,318,307202,0
ore-66,true,1.00,5571,352,5569,320,326734,0
ore-67,true,1.00,4511,325,4510,296,267769,0
ore-68,true,1.00,5444,349,5440,318,318402,0
ore-69,true,1.00,5674,349,5670,322,332123,0
ore-70,false,0.95,7183,385,7180,385,430848,0
ore-71,true,1.00,6341,361,6339,335,373817,0
ore-72,true,1.00,5180,356,5178,330,295612,0
ore-73,true,1.00,3942,319,3941,285,227301,0
ore-74,true,1.00,6738,370,6734,338,382740,0
ore-75,true,1.00,5399,349,5397,322,317805,0
ore-76,true,1.00,4816,329,4812,302,293277,0
ore-77,true,1.00,6319,368,6315,331,361970,0
ore-78,true,1.00,3792,312,3790,284,235485,0
ore-79,true,1.00,5927,343,5925,316,351586,0
ore-80,true,1.00,5065,342,5063,316,296110,0
ore-81,true,1.00,6338,363,6333,336,377025,0
ore-82,true,1.00,6953,384,6951,357,391867,0
ore-83,true,1.00,4679,327,4674,300,279515,0
ore-84,true,1.00,6497,376,6496,349,363683,0
ore-85,true,1.00,5747,365,5746,330,334462,0
ore-86,true,1.00,5871,359,5870,332,351869,0
ore-87,true,1.00,5012,349,5006,318,294713,0
ore-88,true,1.00,5144,324,5139,297,319325,0
ore-89,true,1.00,6030,367,6028,340,342175,0
ore-90,true,1.00,4896,342,4893,315,280628,0
ore-91,true,1.00,4909,343,4906,311,292989,0
ore-92,true,1.00,6108,347,6104,320,359795,0
ore-93,false,0.14,1574,71,1573,71,95104,0
ore-94,true,1.00,5242,331,5240,305,299709,0
ore-95,true,1.00,4733,326,4730,299,275456,0
ore-96,true,1.00,5832,349,5830,322,336208,0
ore-97,true,1.00,4687,325,4684,299,273960,0
ore-98,true,1.00,6073,346,6070,319,358929,0
ore-99,true,1.00,4502,332,4498,297,255002,0
ore-100,true,1.00,6020,359,6019,330,356324,0
