NDW:0.0
TTFW:1.8
DFPT:2.0
DFPAP:3.0
DFPMP:7.0
RIGHT_WINDOW_BORDER_X:275.0
level,win/fail,% travelled,run time,game ticks,planning time,total plannings,nodes evaluated,most backtracked nodes
patternOccur-1,true,1.00,1195,522,1180,497,60735,0
patternOccur-2,true,1.00,1204,463,1186,438,61729,0
patternOccur-3,true,1.00,2514,503,2494,478,141632,0
patternOccur-4,true,1.00,2060,541,2052,516,113875,0
patternOccur-5,true,1.00,1106,491,1093,465,56990,0
patternOccur-6,true,1.00,2053,531,2037,506,113188,0
patternOccur-7,true,1.00,2337,546,2321,511,126809,0
patternOccur-8,true,1.00,2289,477,2280,452,129677,0
patternOccur-9,true,1.00,1891,515,1882,485,103841,0
patternOccur-10,true,1.00,1376,526,1359,495,72825,0
patternOccur-11,true,1.00,4623,543,4608,516,231679,0
patternOccur-12,true,1.00,2212,527,2204,492,121722,0
patternOccur-13,true,1.00,1060,480,1044,455,53759,0
patternOccur-14,true,1.00,3836,553,3820,482,203406,0
patternOccur-15,true,1.00,1655,477,1642,452,89515,0
patternOccur-16,true,1.00,4128,521,4117,489,210384,0
patternOccur-17,true,1.00,2109,562,2088,522,116369,0
patternOccur-18,true,1.00,1961,512,1948,487,104102,0
patternOccur-19,false,0.83,3391,455,3381,455,177485,0
patternOccur-20,true,1.00,1750,545,1735,520,92118,0
patternOccur-21,true,1.00,1446,487,1431,460,78546,0
patternOccur-22,false,0.84,3908,499,3892,499,202352,0
patternOccur-23,true,1.00,2302,512,2291,487,125424,0
patternOccur-24,true,1.00,1247,496,1235,465,66390,0
patternOccur-25,true,1.00,2165,492,2155,467,118000,0
patternOccur-26,true,1.00,1352,450,1341,425,74338,0
patternOccur-27,true,1.00,3577,508,3567,459,192680,0
patternOccur-28,true,1.00,1964,537,1947,510,108355,0
patternOccur-29,true,1.00,1094,437,1083,402,59863,0
patternOccur-30,true,1.00,1544,528,1529,503,83112,0
patternOccur-31,true,1.00,4051,515,4040,482,220921,0
patternOccur-32,true,1.00,4596,533,4578,493,246155,0
patternOccur-33,true,1.00,1374,538,1358,512,72424,0
patternOccur-34,true,1.00,1541,520,1524,485,83710,0
patternOccur-35,true,1.00,1238,494,1227,468,64275,0
patternOccur-36,true,1.00,2644,488,2632,445,146805,0
patternOccur-37,true,1.00,3195,518,3184,481,176824,0
patternOccur-38,true,1.00,1384,488,1371,463,77683,0
patternOccur-39,true,1.00,3167,497,3154,457,182241,0
patternOccur-40,true,1.00,2116,517,2111,491,123031,0
patternOccur-41,true,1.00,2044,516,2028,480,119220,0
patternOccur-42,false,0.89,4027,481,4014,481,215242,0
patternOccur-43,true,1.00,1784,494,1775,469,102591,0
patternOccur-44,true,1.00,1605,455,1586,430,91838,0
patternOccur-45,true,1.00,1870,460,1863,413,102239,0
patternOccur-46,true,1.00,1399,486,1387,461,76947,0
patternOccur-47,true,1.00,3653,499,3640,462,204402,0
patternOccur-48,true,1.00,1653,476,1645,451,92559,0
patternOccur-49,true,1.00,1712,511,1689,486,96557,0
patternOccur-50,true,1.00,2519,570,2508,543,114145,0
patternOccur-51,true,1.00,2271,563,2260,526,127099,0
patternOccur-52,true,1.00,2198,570,2185,533,121222,0
patternOccur-53,true,1.00,1750,505,1739,480,98225,0
patternOccur-54,true,1.00,2599,531,2593,497,151414,0
patternOccur-55,true,1.00,2011,452,2004,427,114713,0
patternOccur-56,true,1.00,1831,542,1820,517,104415,0
patternOccur-57,true,1.00,2349,524,2335,475,133631,0
patternOccur-58,true,1.00,6140,608,6129,553,345938,0
patternOccur-59,true,1.00,1759,495,1739,469,102503,0
patternOccur-60,true,1.00,3710,517,3699,471,205205,0
patternOccur-61,true,1.00,1884,523,1872,487,107142,0
patternOccur-62,true,1.00,1734,481,1724,456,97499,0
patternOccur-63,true,1.00,1767,485,1755,448,102369,0
patternOccur-64,true,1.00,2113,561,2099,523,121995,0
patternOccur-65,true,1.00,1181,494,1174,469,64300,0
patternOccur-66,true,1.00,1566,466,1552,441,88620,0
patternOccur-67,false,0.88,3393,473,3383,473,185234,0
patternOccur-68,true,1.00,1225,519,1215,494,66450,0
patternOccur-69,true,1.00,4078,543,4069,507,213301,0
patternOccur-70,true,1.00,4771,494,4760,465,256758,0
patternOccur-71,true,1.00,2248,559,2236,534,130638,0
patternOccur-72,false,0.87,3193,482,3179,482,161692,0
patternOccur-73,true,1.00,3932,568,3916,531,214658,0
patternOccur-74,true,1.00,3112,491,3101,444,173412,0
patternOccur-75,true,1.00,2259,492,2246,467,127046,0
patternOccur-76,true,1.00,2765,544,2752,519,161424,0
patternOccur-77,true,1.00,1460,492,1449,467,81875,0
patternOccur-78,true,1.00,1184,423,1175,398,67358,0
patternOccur-79,true,1.00,1928,553,1912,528,111649,0
patternOccur-80,true,1.00,3118,563,3104,526,173506,0
patternOccur-81,true,1.00,4588,533,4581,489,247213,0
patternOccur-82,true,1.00,2463,522,2445,497,139812,0
patternOccur-83,false,0.82,3187,467,3173,467,168112,0
patternOccur-84,true,1.00,1534,497,1521,472,86219,0
patternOccur-85,true,1.00,2442,462,2427,437,140881,0
patternOccur-86,true,1.00,4621,489,4614,457,241524,0
patternOccur-87,true,1.00,1497,517,1485,483,87678,0
patternOccur-88,true,1.00,1908,487,1894,462,112973,0
patternOccur-89,true,1.00,1531,508,1520,483,83756,0
patternOccur-90,true,1.00,1800,549,1789,503,100174,0
patternOccur-91,true,1.00,1392,489,1376,453,75665,0
patternOccur-92,true,1.00,1419,453,1412,428,80350,0
patternOccur-93,true,1.00,1775,504,1766,478,98143,0
patternOccur-94,true,1.00,3657,502,3646,467,191290,0
patternOccur-95,true,1.00,1798,498,1790,473,103472,0
patternOccur-96,false,0.87,3004,498,2992,498,160443,0
patternOccur-97,true,1.00,1698,444,1688,419,93501,0
patternOccur-98,false,0.90,2750,458,2744,458,142630,0
patternOccur-99,true,1.00,877,486,869,461,47299,0
patternOccur-100,true,1.00,1778,474,1767,449,101004,0
