NDW:0.0
TTFW:1.2
DFPT:2.0
DFPAP:3.0
DFPMP:20.0
RIGHT_WINDOW_BORDER_X:235.0
level,win/fail,% travelled,run time,game ticks,planning time,total plannings,nodes evaluated,most backtracked nodes
ge-1,true,1.00,495,238,495,207,48465,0
ge-2,true,1.00,404,234,403,213,44118,0
ge-3,true,1.00,187,214,187,193,18535,0
ge-4,true,1.00,858,241,856,220,90842,0
ge-5,true,1.00,71,199,67,178,9429,0
ge-6,true,1.00,400,257,396,225,37278,0
ge-7,true,1.00,115,222,114,200,11853,0
ge-8,true,1.00,183,221,182,200,18768,0
ge-9,true,1.00,537,222,534,200,56080,0
ge-10,true,1.00,70,199,69,178,8936,0
ge-11,true,1.00,178,207,176,186,19804,0
ge-12,true,1.00,74,199,72,178,10040,0
ge-13,true,1.00,300,248,299,225,30130,0
ge-14,true,1.00,178,240,177,199,17990,0
ge-15,true,1.00,569,222,566,201,55436,0
ge-16,true,1.00,152,245,151,224,12849,0
ge-17,true,1.00,261,216,258,186,28043,0
ge-18,true,1.00,207,254,206,230,18807,0
ge-19,true,1.00,459,262,456,241,48608,0
ge-20,true,1.00,345,229,345,208,34634,0
ge-21,true,1.00,198,201,197,180,20663,0
ge-22,true,1.00,333,206,329,182,34103,0
ge-23,true,1.00,509,205,508,184,52578,0
ge-24,true,1.00,395,252,393,220,38815,0
ge-25,true,1.00,299,201,297,180,32476,0
ge-26,true,1.00,230,205,229,184,26750,0
ge-27,true,1.00,77,224,77,203,8778,0
ge-28,true,1.00,457,203,453,182,46077,0
ge-29,true,1.00,238,222,237,178,26056,0
ge-30,true,1.00,499,252,498,211,50054,0
ge-31,true,1.00,569,248,568,225,57107,0
ge-32,true,1.00,159,220,159,199,15734,0
ge-33,true,1.00,146,231,144,197,15013,0
ge-34,true,1.00,787,214,785,190,81062,0
ge-35,true,1.00,366,285,365,263,35009,0
ge-36,true,1.00,573,243,571,214,56893,0
ge-37,true,1.00,264,200,263,178,30610,0
ge-38,true,1.00,579,225,576,204,62623,0
ge-39,true,1.00,251,215,251,193,27520,0
ge-40,true,1.00,74,199,72,178,10382,0
ge-41,true,1.00,200,205,198,184,22731,0
ge-42,true,1.00,512,218,510,197,50009,0
ge-43,true,1.00,296,245,294,221,29559,0
ge-44,true,1.00,468,213,468,188,50698,0
ge-45,true,1.00,410,214,409,193,39001,0
ge-46,true,1.00,1114,254,1113,233,109922,0
ge-47,true,1.00,715,243,715,222,70376,0
ge-48,true,1.00,304,219,300,198,30345,0
ge-49,true,1.00,175,200,173,178,20839,0
ge-50,true,1.00,456,216,456,195,47231,0
ge-51,true,1.00,152,231,151,209,14659,0
ge-52,true,1.00,425,242,423,220,39160,0
ge-53,true,1.00,247,222,243,201,26569,0
ge-54,true,1.00,285,241,285,212,32076,0
ge-55,true,1.00,356,227,354,201,36848,0
ge-56,true,1.00,511,234,511,201,52299,0
ge-57,true,1.00,670,223,670,191,73047,0
ge-58,true,1.00,168,236,167,215,14551,0
ge-59,true,1.00,684,222,684,193,74649,0
ge-60,true,1.00,528,201,526,180,54746,0
ge-61,true,1.00,265,209,264,179,30878,0
ge-62,true,1.00,483,209,481,188,52505,0
ge-63,true,1.00,690,226,690,197,77272,0
ge-64,true,1.00,605,237,602,200,59086,0
ge-65,true,1.00,580,234,578,209,60805,0
ge-66,true,1.00,560,222,559,189,58802,0
ge-67,true,1.00,232,255,229,223,21452,0
ge-68,true,1.00,180,238,179,217,16976,0
ge-69,true,1.00,334,199,333,178,35683,0
ge-70,true,1.00,295,206,293,185,30754,0
ge-71,true,1.00,1117,230,1116,209,122869,0
ge-72,true,1.00,154,247,151,226,13657,0
ge-73,true,1.00,311,225,310,188,36397,0
ge-74,true,1.00,744,225,739,204,71950,0
ge-75,true,1.00,212,253,212,211,23248,0
ge-76,true,1.00,861,230,860,201,88977,0
ge-77,true,1.00,941,228,940,207,95567,0
ge-78,true,1.00,537,231,534,205,53921,0
ge-79,true,1.00,180,220,178,199,19204,0
ge-80,true,1.00,108,212,107,187,11800,0
ge-81,true,1.00,91,211,90,190,9796,0
ge-82,true,1.00,101,235,95,192,10166,0
ge-83,false,1.00,159,243,157,208,15752,0
ge-84,true,1.00,710,207,708,186,74044,0
ge-85,true,1.00,279,209,279,188,31463,0
ge-86,true,1.00,694,212,694,183,71691,0
ge-87,true,1.00,447,221,445,200,46504,0
ge-88,true,1.00,506,262,503,236,54881,0
ge-89,true,1.00,440,238,438,216,41192,0
ge-90,true,1.00,72,199,71,178,9742,0
ge-91,true,1.00,279,199,278,178,30764,0
ge-92,true,1.00,63,205,59,184,7448,0
ge-93,true,1.00,532,215,528,194,57530,0
ge-94,true,1.00,406,210,405,188,43926,0
ge-95,true,1.00,111,237,111,215,9154,0
ge-96,true,1.00,711,228,710,191,71300,0
ge-97,true,1.00,380,211,380,190,41247,0
ge-98,true,1.00,73,199,72,178,9826,0
ge-99,true,1.00,174,199,171,178,19135,0
ge-100,true,1.00,340,207,338,186,39101,0
