NDW:0.0
TTFW:0.8
DFPT:2.0
DFPAP:3.0
DFPMP:5.0
RIGHT_WINDOW_BORDER_X:75.0
level,win/fail,% travelled,run time,game ticks,planning time,total plannings,nodes evaluated,most backtracked nodes
hopper-1,false,0.48,4166,384,4160,384,213606,0
hopper-2,true,1.00,6150,638,6135,630,315050,0
hopper-3,false,0.24,3372,188,3372,188,161700,0
hopper-4,false,0.26,2989,190,2988,190,151726,0
hopper-5,false,0.49,5799,398,5797,398,289772,0
hopper-6,true,1.00,5630,547,5620,540,286037,0
hopper-7,false,0.83,5709,481,5702,481,271142,0
hopper-8,false,0.42,3295,248,3294,248,155601,0
hopper-9,true,1.00,9994,715,9981,705,506359,0
hopper-10,true,1.00,5492,557,5483,549,292266,0
hopper-11,true,1.00,3767,537,3755,530,199546,0
hopper-12,true,1.00,3503,473,3492,465,190863,0
hopper-13,true,1.00,8569,705,8553,698,464343,0
hopper-14,true,1.00,7256,639,7246,632,385412,0
hopper-15,true,1.00,4793,547,4782,538,244482,0
hopper-16,false,0.54,7114,426,7111,426,338757,0
hopper-17,true,1.00,4225,540,4218,533,215910,0
hopper-18,true,1.00,5482,557,5477,550,264983,0
hopper-19,true,1.00,5707,559,5695,552,320846,0
hopper-20,true,1.00,6364,609,6350,601,307162,0
hopper-21,false,0.61,4959,380,4950,380,198631,0
hopper-22,false,0.32,2806,204,2803,204,129992,0
hopper-23,true,1.00,5891,558,5875,551,291215,0
hopper-24,true,1.00,3369,504,3357,496,170373,0
hopper-25,true,1.00,4803,532,4792,525,215010,0
hopper-26,true,1.00,7220,636,7209,628,349864,0
hopper-27,true,1.00,3646,538,3633,530,187448,0
hopper-28,false,0.85,15259,853,15247,853,831394,0
hopper-29,false,0.26,3052,182,3051,182,145970,0
hopper-30,false,0.72,4135,412,4123,412,209521,0
hopper-31,false,0.77,7847,596,7841,596,394911,0
hopper-32,false,0.93,11962,762,11950,762,617701,0
hopper-33,false,0.48,26660,999,26650,999,1114676,0
hopper-34,false,0.30,3442,246,3434,246,155754,0
hopper-35,false,0.29,7339,361,7336,361,377105,0
hopper-36,true,1.00,4344,552,4335,545,213085,0
hopper-37,false,0.50,4125,316,4121,316,152870,0
hopper-38,false,0.52,4741,363,4737,363,196435,0
hopper-39,false,0.52,5485,354,5483,354,263355,0
hopper-40,true,1.00,6820,597,6811,590,326218,0
hopper-41,false,0.24,1072,118,1069,118,49812,0
hopper-42,true,1.00,4897,546,4883,538,246541,0
hopper-43,false,0.44,5960,357,5959,357,286725,0
hopper-44,false,0.40,7256,394,7251,394,367395,0
hopper-45,false,0.42,3449,283,3444,283,169016,0
hopper-46,false,0.65,24158,999,24151,999,1199424,0
hopper-47,false,0.82,10539,673,10526,673,522914,0
hopper-48,true,1.00,5968,579,5958,571,294096,0
hopper-49,false,0.37,9249,485,9246,485,475842,0
hopper-50,false,0.62,5083,404,5079,404,245450,0
hopper-51,false,0.33,2698,205,2693,205,124740,0
hopper-52,true,1.00,5854,574,5843,567,255758,0
hopper-53,false,0.63,6828,457,6822,457,286604,0
hopper-54,true,1.00,4919,499,4906,492,241747,0
hopper-55,true,1.00,6480,592,6468,585,339341,0
hopper-56,true,1.00,4093,525,4077,518,216804,0
hopper-57,true,1.00,3034,539,3018,532,145432,0
hopper-58,true,1.00,7697,651,7683,644,393143,0
hopper-59,false,0.20,2182,148,2177,148,120345,0
hopper-60,true,1.00,7320,641,7312,633,400825,0
hopper-61,true,1.00,7413,650,7400,642,370860,0
hopper-62,true,1.00,7836,642,7828,635,388982,0
hopper-63,false,0.22,2885,167,2884,167,134022,0
hopper-64,true,1.00,8443,663,8425,656,423362,0
hopper-65,false,0.13,1840,111,1839,111,86596,0
hopper-66,false,0.74,3090,357,3086,357,144795,0
hopper-67,true,1.00,4589,510,4583,502,246647,0
hopper-68,true,1.00,1771,448,1760,441,92012,0
hopper-69,false,0.83,21893,999,21882,999,1000707,0
hopper-70,true,1.00,7724,619,7711,611,404155,0
hopper-71,true,1.00,4090,492,4077,485,202955,0
hopper-72,false,0.56,6128,404,6124,404,291332,0
hopper-73,false,0.82,6724,562,6714,562,328901,0
hopper-74,true,1.00,3860,507,3851,500,176953,0
hopper-75,true,1.00,7730,713,7715,706,381958,0
hopper-76,true,1.00,5092,562,5087,554,245076,0
hopper-77,true,1.00,2538,482,2528,475,116058,0
hopper-78,true,1.00,8819,701,8808,694,446515,0
hopper-79,true,1.00,3416,555,3402,547,165933,0
hopper-80,false,0.23,2948,203,2947,203,134423,0
hopper-81,false,0.38,4068,303,4063,303,185800,0
hopper-82,false,0.45,2527,284,2524,284,117222,0
hopper-83,true,1.00,6679,598,6663,591,325160,0
hopper-84,false,0.21,2645,217,2637,217,133279,0
hopper-85,false,0.79,5589,463,5582,463,265004,0
hopper-86,false,0.46,6532,408,6530,408,315901,0
hopper-87,true,1.00,7206,624,7191,617,316552,0
hopper-88,true,1.00,4475,548,4463,541,230248,0
hopper-89,false,0.13,1842,111,1841,111,83520,0
hopper-90,true,1.00,5706,602,5693,595,286904,0
hopper-91,true,1.00,9370,698,9361,691,462089,0
hopper-92,true,1.00,5541,627,5528,620,252925,0
hopper-93,true,1.00,3365,476,3355,468,165003,0
hopper-94,false,0.65,4609,404,4598,404,189551,0
hopper-95,false,0.65,5499,418,5490,418,226796,0
hopper-96,false,0.13,1841,111,1839,111,83814,0
hopper-97,true,1.00,8137,686,8117,678,327613,0
hopper-98,true,1.00,8557,657,8548,650,372541,0
hopper-99,false,0.78,9999,686,9990,686,484699,0
hopper-100,false,0.21,3236,197,3234,197,142936,0
