NDW:0.0
TTFW:0.2
DFPT:2.0
DFPAP:3.0
DFPMP:20.0
RIGHT_WINDOW_BORDER_X:95.0
level,win/fail,% travelled,run time,game ticks,planning time,total plannings,nodes evaluated,most backtracked nodes
notchParam-1,false,0.37,4015,267,4015,267,342269,0
notchParam-2,false,0.37,4738,310,4736,310,442312,0
notchParam-3,true,1.00,3416,554,3412,544,318009,0
notchParam-4,true,1.00,2430,488,2428,479,220667,0
notchParam-5,true,1.00,2141,461,2139,452,195778,0
notchParam-6,true,1.00,3043,490,3041,480,285051,0
notchParam-7,false,0.35,27500,999,27500,999,2509514,0
notchParam-8,true,1.00,9196,739,9195,729,836298,0
notchParam-9,true,1.00,2388,470,2387,457,223396,0
notchParam-10,true,1.00,4648,569,4642,559,404947,0
notchParam-11,true,1.00,1486,438,1483,428,137896,0
notchParam-12,true,1.00,7317,646,7314,636,654988,0
notchParam-13,true,1.00,1835,486,1833,470,170294,0
notchParam-14,true,1.00,1087,451,1084,442,103682,0
notchParam-15,false,0.36,4097,271,4096,271,348475,0
notchParam-16,false,0.36,7265,368,7265,368,662759,0
notchParam-17,false,0.36,3851,258,3851,258,346717,0
notchParam-18,true,1.00,586,436,581,426,62386,0
notchParam-19,true,1.00,553,422,551,413,59763,0
notchParam-20,true,1.00,575,418,569,409,58580,0
notchParam-21,true,1.00,461,420,460,410,46631,0
notchParam-22,true,1.00,463,427,463,413,50384,0
notchParam-23,true,1.00,5971,633,5968,623,560172,0
notchParam-24,true,1.00,6540,638,6539,628,589306,0
notchParam-25,true,1.00,6684,637,6677,623,602666,0
notchParam-26,true,1.00,8221,677,8219,667,742369,0
notchParam-27,true,1.00,495,422,490,412,54060,0
notchParam-28,true,1.00,4134,542,4132,531,378263,0
notchParam-29,true,1.00,2951,506,2949,496,270670,0
notchParam-30,true,1.00,557,424,554,414,56425,0
notchParam-31,false,0.67,6349,445,6347,445,566042,0
notchParam-32,false,0.36,3851,258,3849,258,345971,0
notchParam-33,true,1.00,556,422,551,412,57532,0
notchParam-34,false,0.36,3919,259,3918,259,332037,0
notchParam-35,false,0.36,3400,253,3400,253,311500,0
notchParam-36,false,0.38,4454,302,4454,302,389365,0
notchParam-37,true,1.00,2288,467,2287,457,181536,0
notchParam-38,true,1.00,918,432,914,423,86916,0
notchParam-39,false,0.37,3135,240,3135,240,223899,0
notchParam-40,true,1.00,3415,532,3414,522,287961,0
notchParam-41,true,1.00,1842,487,1838,478,173181,0
notchParam-42,true,1.00,568,421,567,411,61180,0
notchParam-43,true,1.00,3909,527,3907,517,355350,0
notchParam-44,true,1.00,5149,563,5145,554,468914,0
notchParam-45,true,1.00,9416,696,9415,687,842345,0
notchParam-46,true,1.00,6146,616,6142,607,544763,0
notchParam-47,true,1.00,1674,464,1672,454,165600,0
notchParam-48,true,1.00,384,408,383,392,43594,0
notchParam-49,true,1.00,1188,444,1184,435,115267,0
notchParam-50,true,1.00,1004,468,1002,458,93293,0
notchParam-51,true,1.00,505,411,504,401,52514,0
notchParam-52,false,0.37,3100,265,3099,265,288979,0
notchParam-53,false,0.36,3959,263,3956,263,367442,0
notchParam-54,false,0.36,2671,227,2670,227,243434,0
notchParam-55,true,1.00,683,444,680,435,71396,0
notchParam-56,true,1.00,492,412,492,402,52529,0
notchParam-57,true,1.00,8152,742,8147,732,736281,0
notchParam-58,true,1.00,1583,461,1578,451,151152,0
notchParam-59,true,1.00,7416,684,7413,674,667361,0
notchParam-60,true,1.00,1333,461,1329,451,127441,0
notchParam-61,true,1.00,6023,596,6017,586,554851,0
notchParam-62,false,0.36,2828,227,2828,227,229910,0
notchParam-63,true,1.00,1208,455,1205,439,117988,0
notchParam-64,true,1.00,2823,482,2820,472,257285,0
notchParam-65,true,1.00,1926,466,1920,456,181432,0
notchParam-66,true,1.00,1713,479,1710,465,159037,0
notchParam-67,false,0.37,4682,289,4681,289,423524,0
notchParam-68,false,0.36,2264,223,2262,223,197405,0
notchParam-69,false,0.36,2084,226,2082,226,167595,0
notchParam-70,false,0.36,2434,217,2434,217,220338,0
notchParam-71,true,1.00,3394,557,3392,547,322113,0
notchParam-72,true,1.00,1014,442,1012,432,102345,0
notchParam-73,true,1.00,1079,432,1079,421,103210,0
notchParam-74,true,1.00,1899,456,1896,447,169643,0
notchParam-75,true,1.00,2527,502,2526,492,244496,0
notchParam-76,true,1.00,5997,675,5993,665,544151,0
notchParam-77,true,1.00,2065,476,2059,467,193407,0
notchParam-78,true,1.00,7995,691,7995,680,723314,0
notchParam-79,true,1.00,2076,475,2074,465,196738,0
notchParam-80,true,1.00,809,459,808,447,84317,0
notchParam-81,true,1.00,2837,518,2835,509,263782,0
notchParam-82,true,1.00,1042,443,1038,433,101911,0
notchParam-83,true,1.00,884,476,883,465,92467,0
notchParam-84,false,0.35,27106,999,27104,999,2238491,0
notchParam-85,false,0.37,4823,299,4823,299,451723,0
notchParam-86,false,0.19,2580,163,2579,163,221003,0
notchParam-87,true,1.00,575,410,572,400,58294,0
notchParam-88,true,1.00,519,418,519,408,55301,0
notchParam-89,true,1.00,1363,450,1362,440,130330,0
notchParam-90,true,1.00,1370,455,1370,445,130803,0
notchParam-91,true,1.00,6053,577,6053,565,529754,0
notchParam-92,false,0.70,4457,420,4454,420,394148,0
notchParam-93,true,1.00,6923,611,6920,601,623577,0
notchParam-94,true,1.00,5007,548,5006,539,461432,0
notchParam-95,true,1.00,5579,635,5576,621,531563,0
notchParam-96,true,1.00,1768,461,1766,450,172796,0
notchParam-97,true,1.00,1721,464,1717,454,159441,0
notchParam-98,true,1.00,1626,482,1624,472,150357,0
notchParam-99,false,0.36,2431,215,2431,215,221801,0
notchParam-100,false,0.36,3158,237,3154,237,274628,0
