NDW:0.0
TTFW:0.4
DFPT:2.0
DFPAP:3.0
DFPMP:7.0
RIGHT_WINDOW_BORDER_X:75.0
level,win/fail,% travelled,run time,game ticks,planning time,total plannings,nodes evaluated,most backtracked nodes
patternWeightCount-1,false,0.87,6144,999,6141,999,650492,0
patternWeightCount-2,true,1.00,1652,965,1646,957,178136,0
patternWeightCount-3,true,1.00,1687,754,1686,747,180555,0
patternWeightCount-4,true,1.00,1931,884,1925,868,202722,0
patternWeightCount-5,false,0.97,6808,999,6801,999,720476,0
patternWeightCount-6,false,0.99,6046,999,6044,999,622590,0
patternWeightCount-7,true,1.00,3145,911,3144,904,314100,0
patternWeightCount-8,true,1.00,1293,710,1291,703,131511,0
patternWeightCount-9,false,0.95,3362,999,3356,999,363229,0
patternWeightCount-10,true,1.00,1924,753,1923,745,198471,0
patternWeightCount-11,true,1.00,1844,674,1842,667,198415,0
patternWeightCount-12,true,1.00,2545,897,2539,890,265942,0
patternWeightCount-13,true,1.00,2673,728,2667,720,277087,0
patternWeightCount-14,true,1.00,2056,854,2053,846,226569,0
patternWeightCount-15,true,1.00,3044,793,3037,786,321667,0
patternWeightCount-16,false,0.81,6469,999,6463,999,694140,0
patternWeightCount-17,true,1.00,1535,857,1528,849,184870,0
patternWeightCount-18,false,0.01,24,21,24,21,4638,0
patternWeightCount-19,true,1.00,1667,875,1661,867,172881,0
patternWeightCount-20,false,0.58,4138,519,4138,519,415868,0
patternWeightCount-21,true,1.00,873,863,865,856,101387,0
patternWeightCount-22,false,0.96,6682,999,6677,999,742153,0
patternWeightCount-23,true,1.00,2133,812,2129,804,229790,0
patternWeightCount-24,true,1.00,2548,898,2545,889,268872,0
patternWeightCount-25,false,0.75,7182,999,7179,999,738234,0
patternWeightCount-26,true,1.00,3641,800,3633,793,390327,0
patternWeightCount-27,true,1.00,5747,918,5742,910,617394,0
patternWeightCount-28,true,1.00,4309,914,4306,906,476601,0
patternWeightCount-29,true,1.00,3591,810,3586,801,377626,0
patternWeightCount-30,false,0.81,7841,898,7839,898,770099,0
patternWeightCount-31,true,1.00,4549,848,4548,840,501018,0
patternWeightCount-32,false,0.91,1741,999,1736,999,185245,0
patternWeightCount-33,true,1.00,2689,903,2685,896,311253,0
patternWeightCount-34,true,1.00,4240,912,4240,904,432775,0
patternWeightCount-35,false,0.63,5844,772,5842,772,582209,0
patternWeightCount-36,true,1.00,5269,970,5264,963,545955,0
patternWeightCount-37,true,1.00,2341,844,2334,835,246842,0
patternWeightCount-38,false,0.95,7322,990,7319,990,733098,0
patternWeightCount-39,false,0.24,5475,407,5473,407,527967,0
patternWeightCount-40,false,0.57,4463,598,4461,598,474557,0
patternWeightCount-41,true,1.00,3742,887,3740,880,398583,0
patternWeightCount-42,false,0.87,10981,986,10978,986,1120527,0
patternWeightCount-43,true,1.00,2989,856,2988,848,312096,0
patternWeightCount-44,true,1.00,4890,946,4887,936,546728,0
patternWeightCount-45,false,0.84,5999,999,5996,999,587998,0
patternWeightCount-46,false,0.85,4937,994,4931,994,522362,0
patternWeightCount-47,true,1.00,1695,735,1691,726,168688,0
patternWeightCount-48,true,1.00,2216,771,2212,763,231982,0
patternWeightCount-49,true,1.00,2170,841,2162,833,225586,0
patternWeightCount-50,true,1.00,3727,818,3723,809,355437,0
patternWeightCount-51,true,1.00,3774,813,3773,800,390798,0
patternWeightCount-52,true,1.00,5335,995,5328,986,567494,0
patternWeightCount-53,false,0.73,4327,815,4323,815,436410,0
patternWeightCount-54,true,1.00,894,638,888,631,110763,0
patternWeightCount-55,false,0.96,4152,736,4149,736,371353,0
patternWeightCount-56,true,1.00,3895,823,3887,815,389147,0
patternWeightCount-57,true,1.00,999,688,993,681,112119,0
patternWeightCount-58,false,0.99,3278,999,3267,999,351179,0
patternWeightCount-59,false,0.83,1131,999,1124,999,133703,0
patternWeightCount-60,false,0.86,6037,999,6033,999,709647,0
patternWeightCount-61,true,1.00,4912,988,4908,980,512365,0
patternWeightCount-62,false,0.98,4920,999,4912,999,515858,0
patternWeightCount-63,true,1.00,5026,867,5021,858,569957,0
patternWeightCount-64,true,1.00,4908,915,4902,906,504562,0
patternWeightCount-65,true,1.00,3308,865,3303,857,338899,0
patternWeightCount-66,true,1.00,2668,728,2664,720,295385,0
patternWeightCount-67,false,0.99,3544,999,3539,999,367560,0
patternWeightCount-68,true,1.00,1587,805,1582,798,169202,0
patternWeightCount-69,false,0.82,2954,783,2949,783,302217,0
patternWeightCount-70,false,0.87,4211,999,4207,999,449639,0
patternWeightCount-71,true,1.00,1630,794,1629,784,173260,0
patternWeightCount-72,false,0.75,4963,798,4959,798,558337,0
patternWeightCount-73,false,0.65,6542,739,6541,739,667728,0
patternWeightCount-74,true,1.00,2196,619,2194,612,238357,0
patternWeightCount-75,true,1.00,1730,767,1725,757,186073,0
patternWeightCount-76,true,1.00,1923,774,1919,767,214167,0
patternWeightCount-77,false,0.86,4889,999,4882,999,493193,0
patternWeightCount-78,false,0.79,8362,993,8354,993,856767,0
patternWeightCount-79,false,0.34,2650,388,2649,388,258755,0
patternWeightCount-80,true,1.00,3386,944,3382,937,358938,0
patternWeightCount-81,false,0.81,5974,835,5970,835,592552,0
patternWeightCount-82,true,1.00,515,729,512,720,62060,0
patternWeightCount-83,false,0.92,2446,999,2437,999,288695,0
patternWeightCount-84,true,1.00,3237,800,3235,792,321690,0
patternWeightCount-85,false,0.34,2134,350,2132,350,225638,0
patternWeightCount-86,false,0.93,6378,907,6373,907,655796,0
patternWeightCount-87,false,0.72,7125,822,7121,822,694198,0
patternWeightCount-88,true,1.00,4831,966,4825,959,497714,0
patternWeightCount-89,false,0.96,2576,999,2570,999,271112,0
patternWeightCount-90,false,0.76,7909,847,7901,847,811337,0
patternWeightCount-91,true,1.00,2483,873,2475,866,264445,0
patternWeightCount-92,false,0.94,9384,999,9380,999,967363,0
patternWeightCount-93,false,0.89,5118,998,5116,998,544954,0
patternWeightCount-94,true,1.00,4282,970,4275,962,473621,0
patternWeightCount-95,true,1.00,3165,763,3165,754,333016,0
patternWeightCount-96,true,1.00,1915,877,1910,868,207503,0
patternWeightCount-97,true,1.00,4372,759,4366,751,464432,0
patternWeightCount-98,false,0.79,9572,999,9569,999,980599,0
patternWeightCount-99,false,0.86,5611,999,5606,999,600871,0
patternWeightCount-100,false,0.93,2667,999,2662,999,291486,0
