NDW:0.0
TTFW:0.4
DFPT:2.0
DFPAP:3.0
DFPMP:0.0
RIGHT_WINDOW_BORDER_X:135.0
level,win/fail,% travelled,run time,game ticks,planning time,total plannings,nodes evaluated,most backtracked nodes
patternWeightCount-1,true,1.00,4428,538,4424,521,429702,0
patternWeightCount-2,true,1.00,832,431,828,418,85279,0
patternWeightCount-3,true,1.00,691,385,687,372,70500,0
patternWeightCount-4,true,1.00,887,436,883,424,89037,0
patternWeightCount-5,true,1.00,2512,521,2508,509,248024,0
patternWeightCount-6,true,1.00,1940,476,1937,464,191643,0
patternWeightCount-7,true,1.00,1039,454,1036,442,101843,0
patternWeightCount-8,true,1.00,580,439,576,427,55142,0
patternWeightCount-9,true,1.00,994,457,994,445,99430,0
patternWeightCount-10,true,1.00,919,480,917,468,89525,0
patternWeightCount-11,true,1.00,586,395,585,383,69969,0
patternWeightCount-12,true,1.00,1822,467,1817,455,176436,0
patternWeightCount-13,true,1.00,770,393,769,381,79133,0
patternWeightCount-14,true,1.00,949,406,945,394,92589,0
patternWeightCount-15,true,1.00,2699,466,2696,454,265567,0
patternWeightCount-16,true,1.00,5368,610,5366,588,533641,0
patternWeightCount-17,true,1.00,1157,507,1152,495,118420,0
patternWeightCount-18,true,1.00,867,431,864,417,88357,0
patternWeightCount-19,true,1.00,709,409,705,397,69704,0
patternWeightCount-20,false,0.61,24024,999,24020,999,2175996,0
patternWeightCount-21,true,1.00,537,414,535,402,55252,0
patternWeightCount-22,true,1.00,4645,589,4640,572,473342,0
patternWeightCount-23,true,1.00,1694,490,1692,468,163915,0
patternWeightCount-24,true,1.00,2080,458,2078,445,206132,0
patternWeightCount-25,true,1.00,2257,497,2250,485,220997,0
patternWeightCount-26,true,1.00,2054,462,2053,450,205794,0
patternWeightCount-27,true,1.00,2390,527,2388,514,237071,0
patternWeightCount-28,true,1.00,1513,442,1511,430,151187,0
patternWeightCount-29,true,1.00,2311,469,2307,457,223197,0
patternWeightCount-30,false,0.82,3198,447,3195,447,303233,0
patternWeightCount-31,true,1.00,1376,439,1374,427,133507,0
patternWeightCount-32,true,1.00,678,428,676,416,67014,0
patternWeightCount-33,true,1.00,1215,448,1211,436,123319,0
patternWeightCount-34,true,1.00,2027,424,2024,412,208327,0
patternWeightCount-35,true,1.00,2181,476,2180,464,212531,0
patternWeightCount-36,true,1.00,2111,515,2110,503,209160,0
patternWeightCount-37,true,1.00,616,403,612,391,63759,0
patternWeightCount-38,false,0.95,7587,587,7585,587,697585,0
patternWeightCount-39,true,1.00,1459,392,1457,380,141346,0
patternWeightCount-40,true,1.00,2096,512,2095,500,214191,0
patternWeightCount-41,true,1.00,1817,494,1812,481,178521,0
patternWeightCount-42,false,0.87,5608,516,5601,516,520645,0
patternWeightCount-43,true,1.00,1358,417,1358,405,134721,0
patternWeightCount-44,true,1.00,1647,491,1641,476,163532,0
patternWeightCount-45,false,0.95,3935,526,3933,526,371537,0
patternWeightCount-46,false,0.82,20665,999,20662,999,1991211,0
patternWeightCount-47,true,1.00,1352,455,1347,443,127934,0
patternWeightCount-48,true,1.00,699,370,696,358,70439,0
patternWeightCount-49,true,1.00,1024,436,1023,420,99632,0
patternWeightCount-50,true,1.00,729,426,728,413,70502,0
patternWeightCount-51,true,1.00,1557,479,1555,462,156508,0
patternWeightCount-52,true,1.00,3312,506,3308,486,326692,0
patternWeightCount-53,false,0.71,22366,999,22361,999,1994273,0
patternWeightCount-54,true,1.00,664,395,663,383,69730,0
patternWeightCount-55,true,1.00,1282,444,1280,422,116733,0
patternWeightCount-56,true,1.00,1383,443,1380,429,136231,0
patternWeightCount-57,true,1.00,750,425,745,413,76051,0
patternWeightCount-58,true,1.00,2105,488,2105,475,212833,0
patternWeightCount-59,true,1.00,467,379,467,366,49379,0
patternWeightCount-60,true,1.00,4598,600,4596,587,496559,0
patternWeightCount-61,true,1.00,2558,497,2558,483,262068,0
patternWeightCount-62,true,1.00,3557,514,3553,499,347968,0
patternWeightCount-63,true,1.00,1660,425,1658,413,176851,0
patternWeightCount-64,true,1.00,1928,449,1926,437,190701,0
patternWeightCount-65,true,1.00,1341,424,1337,412,130162,0
patternWeightCount-66,true,1.00,1089,464,1084,450,107191,0
patternWeightCount-67,true,1.00,767,434,766,422,74039,0
patternWeightCount-68,true,1.00,1233,549,1230,532,110023,0
patternWeightCount-69,true,1.00,3804,532,3800,507,363481,0
patternWeightCount-70,true,1.00,1181,451,1177,439,116002,0
patternWeightCount-71,true,1.00,1039,430,1038,418,101210,0
patternWeightCount-72,false,0.83,5673,522,5670,522,525400,0
patternWeightCount-73,false,0.66,3097,392,3097,392,294677,0
patternWeightCount-74,true,1.00,697,427,694,415,72526,0
patternWeightCount-75,true,1.00,1542,476,1539,464,153153,0
patternWeightCount-76,true,1.00,1515,466,1514,454,150957,0
patternWeightCount-77,true,1.00,2255,447,2249,435,225612,0
patternWeightCount-78,true,1.00,4481,597,4474,585,426567,0
patternWeightCount-79,true,1.00,1132,416,1126,404,110297,0
patternWeightCount-80,true,1.00,1504,468,1503,456,149639,0
patternWeightCount-81,false,0.81,3288,430,3288,430,295104,0
patternWeightCount-82,true,1.00,404,391,404,378,41757,0
patternWeightCount-83,true,1.00,1106,426,1105,414,112271,0
patternWeightCount-84,true,1.00,893,459,890,447,90903,0
patternWeightCount-85,true,1.00,3375,456,3375,444,333549,0
patternWeightCount-86,false,0.93,6308,533,6306,533,600013,0
patternWeightCount-87,true,1.00,8784,618,8781,593,783768,0
patternWeightCount-88,true,1.00,1863,516,1862,502,185314,0
patternWeightCount-89,true,1.00,763,421,760,409,77952,0
patternWeightCount-90,true,1.00,7905,631,7904,606,789403,0
patternWeightCount-91,true,1.00,1034,414,1030,402,103686,0
patternWeightCount-92,true,1.00,6735,655,6731,592,647833,0
patternWeightCount-93,false,0.89,4826,563,4826,563,450413,0
patternWeightCount-94,true,1.00,1321,472,1317,460,133651,0
patternWeightCount-95,true,1.00,1556,456,1554,444,152380,0
patternWeightCount-96,true,1.00,1230,436,1228,424,115558,0
patternWeightCount-97,true,1.00,2076,448,2073,436,202779,0
patternWeightCount-98,true,1.00,10671,695,10667,682,1024307,0
patternWeightCount-99,true,1.00,1851,469,1846,456,183251,0
patternWeightCount-100,true,1.00,1016,403,1016,391,97873,0
