NDW:0.0
TTFW:2.0
DFPT:2.0
DFPAP:3.0
DFPMP:0.0
RIGHT_WINDOW_BORDER_X:35.0
level,win/fail,% travelled,run time,game ticks,planning time,total plannings,nodes evaluated,most backtracked nodes
Mario-1,false,0.44,1749,409,1697,409,68591,0
Mario-2,false,0.52,1828,363,1727,363,62456,0
Mario-3,false,0.25,1019,217,1014,217,46716,0
Mario-4,false,0.52,2190,456,2136,456,107519,0
Mario-5,false,0.20,1540,232,1529,232,52931,0
Mario-6,false,0.08,444,67,443,67,20022,0
Mario-7,false,0.33,3089,320,3064,320,128182,0
Mario-8,false,0.07,1913,141,1909,141,90676,0
Mario-9,false,0.76,3230,625,3104,625,133668,0
Mario-10,false,0.08,446,67,444,67,20877,0
Mario-11,false,0.08,494,79,470,79,22363,0
Mario-12,false,0.57,617,573,545,573,23031,0
Mario-13,false,0.07,439,67,437,67,21226,0
Mario-14,true,1.00,1239,695,1193,685,44060,0
Mario-15,false,0.03,6,26,5,26,288,0
