NDW:0.0
TTFW:1.4
DFPT:2.0
DFPAP:3.0
DFPMP:0.0
RIGHT_WINDOW_BORDER_X:275.0
level,win/fail,% travelled,run time,game ticks,planning time,total plannings,nodes evaluated,most backtracked nodes
notchParam-1,true,1.00,1382,312,1371,287,42215,0
notchParam-2,true,1.00,1082,338,1078,313,55281,0
notchParam-3,true,1.00,697,315,688,290,38283,0
notchParam-4,true,1.00,712,324,703,299,38426,0
notchParam-5,true,1.00,806,312,795,286,36986,0
notchParam-6,true,1.00,974,320,962,295,26893,0
notchParam-7,true,1.00,1302,320,1291,295,47793,0
notchParam-8,true,1.00,1219,317,1213,292,68423,0
notchParam-9,true,1.00,736,352,729,327,39808,0
notchParam-10,true,1.00,1195,318,1182,293,66139,0
notchParam-11,true,1.00,674,316,670,291,36205,0
notchParam-12,true,1.00,1226,333,1220,308,68937,0
notchParam-13,true,1.00,423,314,414,289,22969,0
notchParam-14,true,1.00,420,304,414,279,22665,0
notchParam-15,true,1.00,1345,330,1339,305,69989,0
notchParam-16,true,1.00,968,309,959,284,53760,0
notchParam-17,true,1.00,1092,304,1081,279,60410,0
notchParam-18,true,1.00,436,336,420,311,22459,0
notchParam-19,true,1.00,403,311,396,286,22052,0
notchParam-20,true,1.00,410,308,405,283,21984,0
notchParam-21,true,1.00,422,308,417,283,22669,0
notchParam-22,true,1.00,416,321,411,296,22112,0
notchParam-23,true,1.00,1472,361,1462,336,82101,0
notchParam-24,true,1.00,1224,330,1220,305,69237,0
notchParam-25,true,1.00,1221,322,1216,297,67602,0
notchParam-26,true,1.00,1242,326,1233,301,69916,0
notchParam-27,true,1.00,402,309,395,284,21899,0
notchParam-28,true,1.00,682,339,672,314,37553,0
notchParam-29,true,1.00,750,323,742,298,41252,0
notchParam-30,true,1.00,406,308,394,283,21980,0
notchParam-31,true,1.00,1337,328,1330,303,70124,0
notchParam-32,true,1.00,1101,316,1092,291,61508,0
notchParam-33,true,1.00,421,300,411,275,23344,0
notchParam-34,true,1.00,1121,323,1116,298,61894,0
notchParam-35,true,1.00,1254,327,1242,302,66897,0
notchParam-36,true,1.00,1093,302,1087,277,61401,0
notchParam-37,true,1.00,415,300,409,275,22628,0
notchParam-38,true,1.00,411,304,406,279,22836,0
notchParam-39,true,1.00,1008,304,1004,279,56020,0
notchParam-40,true,1.00,632,312,627,287,35094,0
notchParam-41,true,1.00,685,331,677,306,38229,0
notchParam-42,true,1.00,397,319,385,284,21527,0
notchParam-43,true,1.00,1162,318,1151,293,65794,0
notchParam-44,true,1.00,1249,330,1238,305,71045,0
notchParam-45,true,1.00,1257,334,1250,303,72734,0
notchParam-46,true,1.00,1185,314,1175,289,65759,0
notchParam-47,true,1.00,417,312,412,287,23146,0
notchParam-48,true,1.00,414,333,404,308,22392,0
notchParam-49,true,1.00,411,318,406,293,22398,0
notchParam-50,true,1.00,482,329,477,304,24344,0
notchParam-51,true,1.00,415,308,402,283,22423,0
notchParam-52,true,1.00,1494,332,1486,307,76784,0
notchParam-53,true,1.00,1078,302,1076,277,61046,0
notchParam-54,true,1.00,1246,318,1232,293,66758,0
notchParam-55,true,1.00,425,317,416,292,22792,0
notchParam-56,true,1.00,414,312,408,287,22372,0
notchParam-57,true,1.00,1264,322,1254,297,70342,0
notchParam-58,true,1.00,809,341,796,316,43939,0
notchParam-59,true,1.00,1496,355,1489,330,82171,0
notchParam-60,true,1.00,690,332,687,307,37356,0
notchParam-61,true,1.00,1303,344,1293,319,73268,0
notchParam-62,true,1.00,959,298,952,273,53177,0
notchParam-63,true,1.00,725,333,724,308,39548,0
notchParam-64,true,1.00,674,324,666,299,37232,0
notchParam-65,true,1.00,698,316,691,291,38150,0
notchParam-66,true,1.00,692,339,684,314,37594,0
notchParam-67,true,1.00,1385,357,1374,332,72384,0
notchParam-68,true,1.00,1060,311,1055,282,56226,0
notchParam-69,true,1.00,1005,308,998,283,54457,0
notchParam-70,true,1.00,1117,308,1111,283,60984,0
notchParam-71,true,1.00,756,335,746,310,41772,0
notchParam-72,true,1.00,680,337,667,312,37326,0
notchParam-73,true,1.00,656,310,647,285,35852,0
notchParam-74,true,1.00,723,339,712,314,39471,0
notchParam-75,true,1.00,759,338,752,313,42257,0
notchParam-76,true,1.00,1309,338,1302,313,72374,0
notchParam-77,true,1.00,785,329,777,304,43732,0
notchParam-78,true,1.00,1194,312,1186,287,66715,0
notchParam-79,true,1.00,708,319,700,294,39347,0
notchParam-80,true,1.00,434,310,427,285,23042,0
notchParam-81,true,1.00,685,333,676,308,38465,0
notchParam-82,true,1.00,414,305,407,280,22462,0
notchParam-83,true,1.00,427,302,417,277,22538,0
notchParam-84,true,1.00,1117,316,1114,291,59851,0
notchParam-85,true,1.00,1945,364,1936,339,95964,0
notchParam-86,true,1.00,1186,304,1178,279,66675,0
notchParam-87,true,1.00,395,322,385,297,21563,0
notchParam-88,true,1.00,390,308,384,283,21010,0
notchParam-89,true,1.00,430,304,418,279,22708,0
notchParam-90,true,1.00,413,309,409,284,22381,0
notchParam-91,true,1.00,1233,332,1223,307,67748,0
notchParam-92,true,1.00,1206,308,1196,283,66791,0
notchParam-93,true,1.00,1262,327,1254,297,71426,0
notchParam-94,true,1.00,1289,338,1277,313,71817,0
notchParam-95,true,1.00,1297,362,1288,337,71231,0
notchParam-96,true,1.00,683,327,676,302,38411,0
notchParam-97,true,1.00,650,318,645,293,35305,0
notchParam-98,true,1.00,445,300,436,275,24248,0
notchParam-99,true,1.00,1259,318,1252,293,67855,0
notchParam-100,true,1.00,1099,304,1090,279,60328,0
