NDW:0.0
TTFW:0.6
DFPT:2.0
DFPAP:3.0
DFPMP:20.0
RIGHT_WINDOW_BORDER_X:255.0
level,win/fail,% travelled,run time,game ticks,planning time,total plannings,nodes evaluated,most backtracked nodes
notchParamRand-1,true,1.00,927,312,917,289,48344,0
notchParamRand-2,true,1.00,183,304,172,281,8149,0
notchParamRand-3,true,1.00,969,310,964,287,52499,0
notchParamRand-4,true,1.00,1470,320,1466,297,79614,0
notchParamRand-5,true,1.00,305,306,298,283,14572,0
notchParamRand-6,true,1.00,456,316,447,293,22939,0
notchParamRand-7,true,1.00,339,298,333,275,15826,0
notchParamRand-8,true,1.00,594,300,588,277,28598,0
notchParamRand-9,true,1.00,642,308,630,285,33821,0
notchParamRand-10,true,1.00,825,304,817,281,42623,0
notchParamRand-11,true,1.00,176,296,167,273,7508,0
notchParamRand-12,true,1.00,399,308,390,285,19232,0
notchParamRand-13,true,1.00,1716,318,1707,295,91583,0
notchParamRand-14,true,1.00,987,302,979,279,50709,0
notchParamRand-15,true,1.00,645,316,636,293,33358,0
notchParamRand-16,true,1.00,442,300,435,277,23647,0
notchParamRand-17,true,1.00,101,294,97,271,3631,0
notchParamRand-18,true,1.00,1902,314,1893,291,101733,0
notchParamRand-19,true,1.00,269,316,261,293,12469,0
notchParamRand-20,true,1.00,1526,333,1516,310,79630,0
notchParamRand-21,true,1.00,98,296,87,273,3406,0
notchParamRand-22,true,1.00,997,316,988,293,52807,0
notchParamRand-23,true,1.00,1139,320,1136,297,59525,0
notchParamRand-24,true,1.00,330,316,326,293,15559,0
notchParamRand-25,true,1.00,109,306,104,281,4431,0
notchParamRand-26,true,1.00,532,337,526,314,25760,0
notchParamRand-27,true,1.00,255,294,247,271,12291,0
notchParamRand-28,true,1.00,479,308,470,285,23869,0
notchParamRand-29,true,1.00,99,298,94,275,3552,0
notchParamRand-30,true,1.00,1779,308,1772,285,96545,0
notchParamRand-31,true,1.00,434,322,421,299,22398,0
notchParamRand-32,true,1.00,159,294,148,271,6971,0
notchParamRand-33,true,1.00,1907,318,1900,295,105029,0
notchParamRand-34,true,1.00,970,308,966,285,51397,0
notchParamRand-35,true,1.00,550,312,540,289,29002,0
notchParamRand-36,true,1.00,102,298,95,274,3335,0
notchParamRand-37,true,1.00,475,310,468,287,24459,0
notchParamRand-38,true,1.00,1729,318,1716,295,93112,0
notchParamRand-39,true,1.00,1607,337,1602,314,85640,0
notchParamRand-40,true,1.00,1979,310,1973,287,107594,0
notchParamRand-41,true,1.00,85,294,79,271,2830,0
notchParamRand-42,true,1.00,487,320,480,297,26108,0
notchParamRand-43,true,1.00,263,300,262,277,12927,0
notchParamRand-44,true,1.00,318,302,310,279,15530,0
notchParamRand-45,true,1.00,1026,312,1019,289,53155,0
notchParamRand-46,true,1.00,589,302,585,279,30620,0
notchParamRand-47,true,1.00,704,316,697,293,35798,0
notchParamRand-48,true,1.00,1533,320,1527,297,82710,0
notchParamRand-49,true,1.00,730,308,724,285,37800,0
notchParamRand-50,true,1.00,1253,318,1248,295,67510,0
notchParamRand-51,true,1.00,226,306,213,283,10541,0
notchParamRand-52,true,1.00,847,308,837,285,44432,0
notchParamRand-53,true,1.00,964,324,955,301,49336,0
notchParamRand-54,true,1.00,2109,326,2101,303,114805,0
notchParamRand-55,true,1.00,1715,304,1709,281,90609,0
notchParamRand-56,true,1.00,698,300,694,277,36203,0
notchParamRand-57,true,1.00,930,312,921,289,50716,0
notchParamRand-58,true,1.00,770,318,764,295,41126,0
notchParamRand-59,true,1.00,472,308,467,285,24220,0
notchParamRand-60,true,1.00,636,304,630,281,33263,0
notchParamRand-61,true,1.00,504,304,495,281,25733,0
notchParamRand-62,true,1.00,488,316,478,293,24520,0
notchParamRand-63,true,1.00,1431,312,1419,289,76272,0
notchParamRand-64,true,1.00,291,298,284,275,14316,0
notchParamRand-65,true,1.00,2060,331,2054,308,108856,0
notchParamRand-66,true,1.00,473,306,467,283,21370,0
notchParamRand-67,true,1.00,341,300,333,277,16367,0
notchParamRand-68,true,1.00,1434,308,1432,285,76962,0
notchParamRand-69,true,1.00,270,300,261,277,13925,0
notchParamRand-70,true,1.00,641,318,638,295,33661,0
notchParamRand-71,true,1.00,347,314,341,291,16855,0
notchParamRand-72,true,1.00,162,296,154,273,6816,0
notchParamRand-73,true,1.00,523,308,513,285,26214,0
notchParamRand-74,true,1.00,91,294,85,271,3176,0
notchParamRand-75,true,1.00,89,294,80,271,2925,0
notchParamRand-76,true,1.00,1155,314,1145,291,60716,0
notchParamRand-77,true,1.00,1585,320,1580,297,83648,0
notchParamRand-78,true,1.00,1025,304,1016,281,54279,0
notchParamRand-79,true,1.00,312,300,304,277,15137,0
notchParamRand-80,true,1.00,355,306,351,283,16757,0
notchParamRand-81,true,1.00,316,298,311,275,15272,0
notchParamRand-82,true,1.00,752,314,743,291,39166,0
notchParamRand-83,true,1.00,1421,320,1413,297,77189,0
notchParamRand-84,true,1.00,331,302,317,279,16193,0
notchParamRand-85,true,1.00,87,294,81,271,2876,0
notchParamRand-86,true,1.00,767,335,761,312,38314,0
notchParamRand-87,true,1.00,1586,312,1582,289,85774,0
notchParamRand-88,true,1.00,367,320,354,297,17384,0
notchParamRand-89,true,1.00,348,302,341,279,17711,0
notchParamRand-90,true,1.00,742,322,739,299,37108,0
notchParamRand-91,true,1.00,92,294,85,271,3155,0
notchParamRand-92,true,1.00,1000,334,991,311,52385,0
notchParamRand-93,true,1.00,386,313,381,283,19040,0
notchParamRand-94,true,1.00,1808,330,1802,307,95530,0
notchParamRand-95,true,1.00,772,318,761,295,39350,0
notchParamRand-96,true,1.00,508,310,505,287,25848,0
notchParamRand-97,true,1.00,1364,320,1357,297,69949,0
notchParamRand-98,true,1.00,274,306,269,283,12745,0
notchParamRand-99,true,1.00,322,312,318,289,15841,0
notchParamRand-100,true,1.00,1452,314,1445,291,78300,0
