NDW:0.0
TTFW:0.4
DFPT:2.0
DFPAP:3.0
DFPMP:10.0
RIGHT_WINDOW_BORDER_X:115.0
level,win/fail,% travelled,run time,game ticks,planning time,total plannings,nodes evaluated,most backtracked nodes
notchParamRand-1,true,1.00,4023,443,4021,432,354051,0
notchParamRand-2,true,1.00,95,300,95,290,9816,0
notchParamRand-3,true,1.00,3108,394,3105,384,293107,0
notchParamRand-4,true,1.00,5251,475,5250,465,496865,0
notchParamRand-5,true,1.00,246,320,244,310,24127,0
notchParamRand-6,true,1.00,495,316,495,306,47971,0
notchParamRand-7,true,1.00,341,323,339,313,33860,0
notchParamRand-8,true,1.00,774,338,773,328,68400,0
notchParamRand-9,true,1.00,2054,362,2052,352,199234,0
notchParamRand-10,true,1.00,1728,383,1727,372,166933,0
notchParamRand-11,true,1.00,92,298,90,288,9310,0
notchParamRand-12,true,1.00,328,308,326,298,32134,0
notchParamRand-13,true,1.00,7359,531,7359,521,680766,0
notchParamRand-14,true,1.00,2881,417,2876,407,260373,0
notchParamRand-15,true,1.00,1762,369,1760,359,164903,0
notchParamRand-16,true,1.00,1654,348,1653,338,165721,0
notchParamRand-17,true,1.00,24,294,20,284,3012,0
notchParamRand-18,true,1.00,9604,652,9602,642,895703,0
notchParamRand-19,true,1.00,282,330,281,320,28407,0
notchParamRand-20,true,1.00,5212,493,5208,483,495259,0
notchParamRand-21,true,1.00,27,300,26,290,3432,0
notchParamRand-22,true,1.00,1588,382,1587,372,151535,0
notchParamRand-23,true,1.00,2753,407,2752,397,260348,0
notchParamRand-24,true,1.00,151,316,149,306,15147,0
notchParamRand-25,true,1.00,31,311,28,297,3964,0
notchParamRand-26,true,1.00,336,350,335,340,33659,0
notchParamRand-27,true,1.00,956,325,952,315,101954,0
notchParamRand-28,true,1.00,369,312,369,302,35236,0
notchParamRand-29,true,1.00,25,294,24,284,3114,0
notchParamRand-30,true,1.00,9509,624,9508,614,859653,0
notchParamRand-31,true,1.00,363,306,362,296,34947,0
notchParamRand-32,true,1.00,94,298,92,288,9702,0
notchParamRand-33,true,1.00,13605,766,13601,756,1287800,0
notchParamRand-34,true,1.00,3599,434,3598,424,334465,0
notchParamRand-35,true,1.00,1744,383,1741,373,165702,0
notchParamRand-36,true,1.00,27,303,27,289,3371,0
notchParamRand-37,true,1.00,651,329,649,319,64960,0
notchParamRand-38,true,1.00,7080,519,7080,509,625150,0
notchParamRand-39,true,1.00,8364,618,8363,607,779097,0
notchParamRand-40,true,1.00,11735,683,11734,673,1081386,0
notchParamRand-41,true,1.00,24,294,21,284,2919,0
notchParamRand-42,true,1.00,464,342,463,332,46885,0
notchParamRand-43,true,1.00,960,343,959,333,90035,0
notchParamRand-44,true,1.00,256,298,253,288,26783,0
notchParamRand-45,true,1.00,4697,464,4694,454,427371,0
notchParamRand-46,true,1.00,2375,370,2375,360,234473,0
notchParamRand-47,true,1.00,1875,374,1873,364,176500,0
notchParamRand-48,true,1.00,5375,465,5374,455,495779,0
notchParamRand-49,true,1.00,1256,348,1256,338,118368,0
notchParamRand-50,true,1.00,5175,519,5174,509,495859,0
notchParamRand-51,true,1.00,168,340,166,330,17754,0
notchParamRand-52,true,1.00,3404,412,3401,402,316998,0
notchParamRand-53,true,1.00,1555,342,1551,332,145417,0
notchParamRand-54,true,1.00,6498,532,6498,522,603982,0
notchParamRand-55,true,1.00,9297,640,9296,630,829080,0
notchParamRand-56,true,1.00,4460,464,4459,454,406882,0
notchParamRand-57,true,1.00,3323,413,3317,403,310830,0
notchParamRand-58,true,1.00,1642,374,1639,364,152557,0
notchParamRand-59,true,1.00,897,326,897,316,86177,0
notchParamRand-60,true,1.00,1626,358,1624,348,158229,0
notchParamRand-61,true,1.00,578,340,576,330,55429,0
notchParamRand-62,true,1.00,477,359,475,348,46231,0
notchParamRand-63,true,1.00,6325,584,6323,574,584462,0
notchParamRand-64,true,1.00,395,318,393,308,40097,0
notchParamRand-65,true,1.00,8755,620,8754,610,789853,0
notchParamRand-66,true,1.00,311,320,310,310,29858,0
notchParamRand-67,true,1.00,263,306,261,296,24557,0
notchParamRand-68,true,1.00,5108,484,5101,474,468310,0
notchParamRand-69,true,1.00,910,331,910,321,91360,0
notchParamRand-70,true,1.00,1640,378,1638,368,161126,0
notchParamRand-71,true,1.00,299,310,293,300,29684,0
notchParamRand-72,true,1.00,93,298,93,288,9996,0
notchParamRand-73,true,1.00,405,320,403,310,37654,0
notchParamRand-74,true,1.00,26,294,24,284,3201,0
notchParamRand-75,true,1.00,25,294,22,284,3034,0
notchParamRand-76,true,1.00,2542,407,2541,397,237044,0
notchParamRand-77,true,1.00,5270,503,5268,493,469477,0
notchParamRand-78,true,1.00,3594,422,3593,412,337014,0
notchParamRand-79,true,1.00,230,304,229,294,22683,0
notchParamRand-80,true,1.00,328,308,327,298,29033,0
notchParamRand-81,true,1.00,357,320,354,310,36858,0
notchParamRand-82,true,1.00,1257,369,1257,359,118940,0
notchParamRand-83,true,1.00,3405,428,3405,418,312172,0
notchParamRand-84,true,1.00,348,325,346,314,35431,0
notchParamRand-85,true,1.00,25,294,22,284,3107,0
notchParamRand-86,true,1.00,617,372,615,362,59132,0
notchParamRand-87,true,1.00,7767,576,7766,566,729083,0
notchParamRand-88,true,1.00,1202,351,1200,341,118785,0
notchParamRand-89,true,1.00,3558,424,3556,414,337476,0
notchParamRand-90,true,1.00,2439,373,2435,363,217328,0
notchParamRand-91,true,1.00,24,296,23,285,2997,0
notchParamRand-92,true,1.00,2911,418,2908,408,276958,0
notchParamRand-93,true,1.00,471,320,469,310,45921,0
notchParamRand-94,true,1.00,5565,512,5564,502,503670,0
notchParamRand-95,true,1.00,1068,340,1066,330,99002,0
notchParamRand-96,true,1.00,2442,394,2440,384,232413,0
notchParamRand-97,true,1.00,4564,502,4561,491,418628,0
notchParamRand-98,true,1.00,608,322,606,312,64040,0
notchParamRand-99,true,1.00,230,306,224,296,22637,0
notchParamRand-100,true,1.00,6701,510,6701,500,613426,0
