NDW:0.0
TTFW:1.2
DFPT:2.0
DFPAP:3.0
DFPMP:2.0
RIGHT_WINDOW_BORDER_X:115.0
level,win/fail,% travelled,run time,game ticks,planning time,total plannings,nodes evaluated,most backtracked nodes
notchParam-1,false,0.37,1710,178,1709,178,150723,0
notchParam-2,false,0.67,6965,445,6964,445,641678,0
notchParam-3,true,1.00,920,374,919,364,96755,0
notchParam-4,true,1.00,899,380,894,370,95732,0
notchParam-5,true,1.00,653,337,652,327,64633,0
notchParam-6,true,1.00,619,328,616,318,63111,0
notchParam-7,false,0.67,7065,425,7065,425,698635,0
notchParam-8,true,1.00,3048,418,3047,408,309182,0
notchParam-9,true,1.00,1279,364,1275,354,129233,0
notchParam-10,true,1.00,3885,455,3882,445,386258,0
notchParam-11,true,1.00,581,316,579,306,55491,0
notchParam-12,true,1.00,4768,493,4767,483,495819,0
notchParam-13,true,1.00,793,341,788,331,81319,0
notchParam-14,true,1.00,414,318,412,308,41836,0
notchParam-15,false,0.66,4635,348,4632,348,407939,0
notchParam-16,false,0.66,6466,415,6464,415,648208,0
notchParam-17,false,0.38,4217,246,4216,246,401394,0
notchParam-18,true,1.00,199,356,199,346,21823,0
notchParam-19,true,1.00,183,308,181,298,19207,0
notchParam-20,true,1.00,216,306,215,296,21448,0
notchParam-21,true,1.00,249,308,246,298,22927,0
notchParam-22,true,1.00,237,335,234,325,26208,0
notchParam-23,true,1.00,1800,413,1799,403,184853,0
notchParam-24,true,1.00,3767,438,3766,428,367669,0
notchParam-25,true,1.00,1975,375,1973,365,192426,0
notchParam-26,true,1.00,4891,469,4889,459,482496,0
notchParam-27,true,1.00,183,307,181,297,18910,0
notchParam-28,true,1.00,854,353,853,343,92052,0
notchParam-29,true,1.00,1313,367,1313,357,131506,0
notchParam-30,true,1.00,249,310,247,300,24713,0
notchParam-31,false,0.67,5121,368,5120,368,506889,0
notchParam-32,false,0.38,4215,246,4214,246,401301,0
notchParam-33,true,1.00,248,304,245,294,24780,0
notchParam-34,false,0.36,3240,205,3240,205,287567,0
notchParam-35,false,0.68,4632,347,4632,347,468289,0
notchParam-36,false,0.67,2875,285,2873,285,277073,0
notchParam-37,true,1.00,182,300,179,290,17195,0
notchParam-38,true,1.00,218,311,218,301,23375,0
notchParam-39,true,1.00,4897,467,4895,457,462759,0
notchParam-40,true,1.00,601,346,599,336,61451,0
notchParam-41,true,1.00,724,348,721,338,74302,0
notchParam-42,true,1.00,251,320,248,310,27136,0
notchParam-43,true,1.00,2041,368,2041,358,196399,0
notchParam-44,true,1.00,3088,424,3087,414,308129,0
notchParam-45,true,1.00,5172,468,5171,456,503985,0
notchParam-46,true,1.00,2757,382,2757,372,265284,0
notchParam-47,true,1.00,219,316,217,306,25291,0
notchParam-48,true,1.00,296,351,296,341,33914,0
notchParam-49,true,1.00,262,334,260,323,27739,0
notchParam-50,true,1.00,195,325,192,315,19915,0
notchParam-51,true,1.00,249,308,247,298,24689,0
notchParam-52,true,1.00,7417,550,7416,540,681169,0
notchParam-53,false,0.67,4019,321,4018,321,426361,0
notchParam-54,false,0.67,3546,319,3544,319,351124,0
notchParam-55,true,1.00,230,337,228,327,25530,0
notchParam-56,true,1.00,184,304,183,294,18792,0
notchParam-57,true,1.00,3860,436,3860,426,389235,0
notchParam-58,true,1.00,732,358,729,348,74788,0
notchParam-59,true,1.00,5497,563,5495,553,543968,0
notchParam-60,true,1.00,798,378,797,368,82571,0
notchParam-61,true,1.00,3148,431,3144,421,347163,0
notchParam-62,false,0.36,369,117,367,117,30832,0
notchParam-63,true,1.00,680,320,679,310,68303,0
notchParam-64,true,1.00,655,340,652,330,66587,0
notchParam-65,true,1.00,689,347,687,337,70739,0
notchParam-66,true,1.00,828,384,826,374,85876,0
notchParam-67,false,0.67,6752,411,6752,411,629611,0
notchParam-68,false,0.36,3241,205,3240,205,287430,0
notchParam-69,true,1.00,5873,501,5873,491,525082,0
notchParam-70,false,0.68,5560,383,5558,383,541234,0
notchParam-71,true,1.00,1241,392,1240,382,132231,0
notchParam-72,true,1.00,754,361,752,351,79930,0
notchParam-73,true,1.00,584,318,583,308,58288,0
notchParam-74,true,1.00,719,362,715,352,70021,0
notchParam-75,true,1.00,1576,408,1575,398,173803,0
notchParam-76,true,1.00,2816,423,2814,413,284487,0
notchParam-77,true,1.00,846,330,843,320,85241,0
notchParam-78,true,1.00,4127,440,4122,430,412872,0
notchParam-79,true,1.00,889,359,888,349,92313,0
notchParam-80,true,1.00,258,338,256,328,28516,0
notchParam-81,true,1.00,583,321,581,309,59969,0
notchParam-82,true,1.00,417,322,417,312,43026,0
notchParam-83,true,1.00,253,321,252,311,27105,0
notchParam-84,false,0.36,3110,202,3109,202,284090,0
notchParam-85,false,0.36,2683,196,2683,196,279521,0
notchParam-86,true,1.00,4037,474,4036,464,413645,0
notchParam-87,true,1.00,250,314,248,304,24822,0
notchParam-88,true,1.00,219,316,219,306,22559,0
notchParam-89,true,1.00,430,330,429,320,44605,0
notchParam-90,true,1.00,220,312,218,302,22651,0
notchParam-91,true,1.00,1938,368,1938,358,183226,0
notchParam-92,true,1.00,3890,447,3887,437,372295,0
notchParam-93,true,1.00,3651,443,3649,433,368041,0
notchParam-94,true,1.00,3760,437,3759,427,373228,0
notchParam-95,true,1.00,3950,464,3948,454,415401,0
notchParam-96,true,1.00,1423,367,1421,357,155268,0
notchParam-97,true,1.00,1045,334,1044,324,99905,0
notchParam-98,true,1.00,249,306,249,296,24885,0
notchParam-99,false,0.67,3547,319,3547,319,351575,0
notchParam-100,false,0.67,3633,317,3633,317,326833,0
