NDW:0.0
TTFW:2.0
DFPT:2.0
DFPAP:3.0
DFPMP:5.0
RIGHT_WINDOW_BORDER_X:35.0
level,win/fail,% travelled,run time,game ticks,planning time,total plannings,nodes evaluated,most backtracked nodes
ge-1,false,0.22,384,114,378,114,19263,0
ge-2,false,0.48,4463,485,4451,485,225969,0
ge-3,false,0.96,2575,466,2563,466,127679,0
ge-4,false,0.37,2633,312,2629,312,138862,0
ge-5,true,1.00,76,367,64,360,4001,0
ge-6,false,0.55,1747,305,1742,305,88666,0
ge-7,true,1.00,651,417,644,412,34404,0
ge-8,false,0.68,797,313,789,313,40580,0
ge-9,false,0.34,537,179,534,179,27380,0
ge-10,true,1.00,81,375,72,370,4382,0
ge-11,false,0.94,1228,408,1215,408,63350,0
ge-12,true,1.00,80,372,65,368,4330,0
ge-13,false,0.38,441,184,439,184,21576,0
ge-14,false,0.22,319,113,314,113,15405,0
ge-15,false,0.51,3184,402,3176,402,164738,0
ge-16,true,1.00,2451,493,2439,489,129620,0
ge-17,false,0.24,1429,189,1425,189,74095,0
ge-18,false,0.09,852,107,848,107,43749,0
ge-19,false,0.18,324,102,321,102,16689,0
ge-20,false,0.51,885,276,878,276,43667,0
ge-21,false,0.33,2491,238,2490,238,118696,0
ge-22,false,0.69,3178,507,3160,507,154291,0
ge-23,false,0.32,2686,210,2680,210,140597,0
ge-24,false,0.71,448,360,442,360,22447,0
ge-25,false,0.63,1522,318,1514,318,76717,0
ge-26,false,0.48,1037,234,1029,234,54990,0
ge-27,true,1.00,90,389,76,385,4819,0
ge-28,false,0.36,1680,259,1677,259,80233,0
ge-29,false,0.36,3441,259,3434,259,164871,0
ge-30,false,0.09,852,109,851,109,44088,0
ge-31,false,0.24,986,147,984,147,50283,0
ge-32,true,1.00,845,434,832,430,40354,0
ge-33,true,1.00,381,372,369,367,18569,0
ge-34,false,0.12,755,117,753,117,36718,0
ge-35,false,0.85,2078,422,2071,422,100060,0
ge-36,false,0.10,411,74,409,74,19744,0
ge-37,false,0.90,408,360,397,360,20064,0
ge-38,false,0.54,2037,303,2028,303,101573,0
ge-39,false,0.19,2451,188,2450,188,123196,0
ge-40,true,1.00,74,349,67,345,3950,0
ge-41,false,0.50,815,246,807,246,41054,0
ge-42,false,0.18,2603,163,2599,163,127704,0
ge-43,false,0.37,1198,202,1191,202,57450,0
ge-44,false,0.34,1172,224,1164,224,57327,0
ge-45,false,0.55,2433,364,2427,364,115741,0
ge-46,false,0.30,2753,242,2751,242,131074,0
ge-47,false,0.16,658,112,652,112,35316,0
ge-48,false,0.62,872,339,862,339,42795,0
ge-49,true,1.00,1127,423,1114,418,53797,0
ge-50,false,0.33,1826,222,1824,222,88494,0
ge-51,true,1.00,1021,411,1015,407,50297,0
ge-52,false,0.13,1869,128,1868,128,91381,0
ge-53,false,0.21,1190,212,1187,212,57005,0
ge-54,false,0.90,3889,493,3875,493,197750,0
ge-55,false,0.83,2694,414,2682,414,128460,0
ge-56,false,0.12,317,80,317,80,14997,0
ge-57,false,0.12,351,87,351,87,16594,0
ge-58,true,1.00,587,477,566,468,28468,0
ge-59,false,0.35,1047,227,1045,227,52960,0
ge-60,false,0.22,1702,172,1699,172,80896,0
ge-61,false,0.81,3014,436,3005,436,147036,0
ge-62,false,0.28,1760,195,1755,195,86437,0
ge-63,false,0.21,3099,260,3094,260,154608,0
ge-64,false,0.69,2500,372,2491,372,116265,0
ge-65,false,0.38,1178,235,1173,235,57928,0
ge-66,false,0.24,3547,264,3543,264,175363,0
ge-67,true,1.00,2489,514,2473,509,111346,0
ge-68,true,1.00,608,420,598,416,26100,0
ge-69,false,0.82,1283,378,1271,378,59751,0
ge-70,false,0.85,1876,405,1868,405,86290,0
ge-71,false,0.29,1042,187,1039,187,48873,0
ge-72,true,1.00,529,385,519,381,23615,0
ge-73,false,0.94,3046,531,3039,531,139952,0
ge-74,false,0.46,1308,279,1304,279,59231,0
ge-75,false,0.84,2402,451,2387,451,108621,0
ge-76,false,0.12,29368,999,29366,999,1407882,0
ge-77,false,0.10,2708,149,2704,149,125295,0
ge-78,false,0.56,1786,286,1776,286,79969,0
ge-79,true,1.00,1497,440,1491,433,67723,0
ge-80,true,1.00,99,366,90,362,4425,0
ge-81,true,1.00,98,362,88,358,4354,0
ge-82,true,1.00,109,396,98,392,5274,0
ge-83,false,0.09,1174,110,1174,110,54062,0
ge-84,false,0.12,1390,122,1390,122,66941,0
ge-85,false,0.41,1579,245,1575,245,77002,0
ge-86,false,0.36,275,171,267,171,12973,0
ge-87,false,0.23,718,149,714,149,35518,0
ge-88,false,0.16,916,128,915,128,46791,0
ge-89,true,1.00,1352,490,1339,486,62852,0
ge-90,true,1.00,79,355,71,351,3819,0
ge-91,false,0.86,2578,443,2568,443,123900,0
ge-92,true,1.00,96,379,82,375,4486,0
ge-93,false,0.39,3522,272,3519,272,160880,0
ge-94,false,0.75,2628,388,2611,388,112266,0
ge-95,true,1.00,139,406,124,401,5790,0
ge-96,false,0.32,2412,249,2406,249,99832,0
ge-97,false,0.47,370,185,367,185,17675,0
ge-98,true,1.00,73,347,64,343,3849,0
ge-99,false,0.33,1137,175,1130,175,50341,0
ge-100,false,0.12,1018,111,1014,111,48133,0
