NDW:0.0
TTFW:1.0
DFPT:2.0
DFPAP:3.0
DFPMP:3.0
RIGHT_WINDOW_BORDER_X:400.0
level,win/fail,% travelled,run time,game ticks,planning time,total plannings,nodes evaluated,most backtracked nodes
notch-1,true,1.00,892,262,887,222,48642,0
notch-2,true,1.00,1099,260,1092,223,61348,0
notch-3,true,1.00,1051,253,1047,217,57705,0
notch-4,true,1.00,938,247,931,210,51790,0
notch-5,true,1.00,795,248,786,205,43694,0
notch-6,true,1.00,885,270,880,223,47886,0
notch-7,true,1.00,614,275,607,234,32301,0
notch-8,true,1.00,773,284,768,234,40819,0
notch-9,true,1.00,1145,252,1140,216,62963,0
notch-10,true,1.00,959,263,952,225,52247,0
notch-11,true,1.00,1103,256,1098,217,60769,0
notch-12,true,1.00,765,247,756,210,40509,0
notch-13,true,1.00,779,262,771,226,41759,0
notch-14,true,1.00,792,254,790,204,43396,0
notch-15,true,1.00,1032,255,1026,218,56913,0
notch-16,true,1.00,884,264,878,216,49219,0
notch-17,true,1.00,1028,262,1021,219,56615,0
notch-18,true,1.00,1485,307,1479,259,77995,0
notch-19,true,1.00,1024,245,1021,201,57421,0
notch-20,true,1.00,1191,286,1184,250,64130,0
notch-21,true,1.00,971,283,965,245,53239,0
notch-22,true,1.00,661,235,658,196,34543,0
notch-23,true,1.00,1098,247,1092,210,60722,0
notch-24,true,1.00,681,255,675,219,36611,0
notch-25,true,1.00,1171,299,1161,257,64207,0
notch-26,true,1.00,1055,271,1050,223,56269,0
notch-27,true,1.00,1224,270,1219,228,66178,0
notch-28,true,1.00,1007,264,998,213,56132,0
notch-29,true,1.00,1079,275,1071,231,58707,0
notch-30,true,1.00,815,244,805,191,44705,0
notch-31,true,1.00,808,255,802,216,43345,0
notch-32,true,1.00,851,270,844,226,45614,0
notch-33,true,1.00,741,256,739,212,40195,0
notch-34,true,1.00,787,257,778,221,43153,0
notch-35,true,1.00,729,275,723,237,39523,0
notch-36,true,1.00,1012,284,1003,235,54180,0
notch-37,true,1.00,1145,264,1136,222,64244,0
notch-38,true,1.00,950,263,941,220,51622,0
notch-39,true,1.00,739,228,730,192,40208,0
notch-40,true,1.00,839,253,831,211,47105,0
notch-41,true,1.00,1183,303,1180,260,65232,0
notch-42,true,1.00,712,272,707,225,38254,0
notch-43,true,1.00,742,246,733,206,39633,0
notch-44,true,1.00,659,247,651,199,35700,0
notch-45,true,1.00,687,244,684,208,37888,0
notch-46,true,1.00,890,261,885,225,48722,0
notch-47,true,1.00,906,271,896,227,48590,0
notch-48,true,1.00,1145,253,1139,208,63690,0
notch-49,true,1.00,834,277,827,222,43456,0
notch-50,true,1.00,1031,288,1024,234,54399,0
notch-51,true,1.00,841,248,835,212,45989,0
notch-52,true,1.00,867,280,861,234,47133,0
notch-53,true,1.00,404,260,398,204,19760,0
notch-54,true,1.00,1046,298,1036,253,56656,0
notch-55,true,1.00,1059,287,1050,243,58073,0
notch-56,true,1.00,810,264,803,227,43015,0
notch-57,true,1.00,842,277,838,226,45316,0
notch-58,true,1.00,1856,298,1852,256,97956,0
notch-59,true,1.00,851,258,844,216,44443,0
notch-60,true,1.00,952,268,946,232,51940,0
notch-61,true,1.00,744,236,741,192,39828,0
notch-62,true,1.00,760,278,749,242,37280,0
notch-63,true,1.00,1031,289,1021,253,54991,0
notch-64,true,1.00,920,240,913,204,50051,0
notch-65,true,1.00,1402,320,1393,257,75729,0
notch-66,true,1.00,1406,282,1396,235,77423,0
notch-67,true,1.00,838,247,827,205,45672,0
notch-68,true,1.00,519,254,511,218,26766,0
notch-69,true,1.00,1400,284,1392,247,75384,0
notch-70,true,1.00,1178,300,1170,253,65146,0
notch-71,true,1.00,1216,247,1207,211,65928,0
notch-72,true,1.00,818,249,813,213,44372,0
notch-73,true,1.00,819,286,809,238,43822,0
notch-74,true,1.00,648,248,646,204,34804,0
notch-75,true,1.00,1384,289,1378,252,76503,0
notch-76,true,1.00,909,279,899,237,49187,0
notch-77,true,1.00,826,257,820,220,44560,0
notch-78,true,1.00,939,254,935,206,51426,0
notch-79,true,1.00,1003,275,1000,219,54296,0
notch-80,true,1.00,543,230,534,194,29197,0
notch-81,true,1.00,1164,259,1157,212,64304,0
notch-82,true,1.00,714,246,709,210,38313,0
notch-83,true,1.00,995,270,989,227,54272,0
notch-84,true,1.00,597,259,591,216,30882,0
notch-85,true,1.00,632,278,619,224,33847,0
notch-86,true,1.00,840,245,834,208,46190,0
notch-87,true,1.00,743,243,736,205,39642,0
notch-88,true,1.00,1514,266,1508,229,85660,0
notch-89,true,1.00,1318,273,1310,237,73659,0
notch-90,true,1.00,1008,243,1002,207,55485,0
notch-91,true,1.00,1144,261,1139,225,61342,0
notch-92,true,1.00,1042,251,1036,214,57798,0
notch-93,true,1.00,888,274,880,224,47730,0
notch-94,true,1.00,1171,272,1165,218,64856,0
notch-95,true,1.00,635,248,629,206,33775,0
notch-96,true,1.00,664,266,660,229,36202,0
notch-97,true,1.00,805,295,801,251,43417,0
notch-98,true,1.00,999,257,992,203,54860,0
notch-99,true,1.00,1276,257,1268,220,71099,0
notch-100,true,1.00,921,296,912,260,48776,0
