NDW:0.0
TTFW:2.0
DFPT:2.0
DFPAP:3.0
DFPMP:0.0
RIGHT_WINDOW_BORDER_X:55.0
level,win/fail,% travelled,run time,game ticks,planning time,total plannings,nodes evaluated,most backtracked nodes
notchParamRand-1,false,0.28,2827,196,2826,196,111245,0
notchParamRand-2,true,1.00,136,340,122,330,4543,0
notchParamRand-3,false,0.23,2989,188,2984,188,120951,0
notchParamRand-4,false,0.18,3331,198,3326,198,137506,0
notchParamRand-5,true,1.00,365,342,353,337,13864,0
notchParamRand-6,true,1.00,1559,389,1540,384,61016,0
notchParamRand-7,true,1.00,2070,418,2062,413,80481,0
notchParamRand-8,false,0.35,28305,999,28299,999,992784,0
notchParamRand-9,true,1.00,5150,516,5137,511,194798,0
notchParamRand-10,false,0.43,5388,402,5373,402,221620,0
notchParamRand-11,true,1.00,148,359,133,354,5274,0
notchParamRand-12,true,1.00,1037,385,1024,380,40466,0
notchParamRand-13,false,0.16,29301,999,29298,999,1151910,0
notchParamRand-14,false,0.24,993,140,990,140,37596,0
notchParamRand-15,false,0.29,1451,158,1451,158,59087,0
notchParamRand-16,false,0.37,3240,254,3236,254,138850,0
notchParamRand-17,true,1.00,42,314,33,309,1257,0
notchParamRand-18,false,0.18,3368,199,3364,199,150706,0
notchParamRand-19,true,1.00,268,365,253,360,11447,0
notchParamRand-20,false,0.18,1121,128,1117,128,48943,0
notchParamRand-21,true,1.00,43,318,30,313,1379,0
notchParamRand-22,true,1.00,7203,717,7192,712,316646,0
notchParamRand-23,false,0.24,1219,152,1214,152,52759,0
notchParamRand-24,true,1.00,209,362,202,357,8957,0
notchParamRand-25,true,1.00,46,326,26,321,1553,0
notchParamRand-26,true,1.00,1053,425,1042,420,46150,0
notchParamRand-27,false,0.52,1102,249,1089,249,48849,0
notchParamRand-28,true,1.00,1839,486,1826,481,78140,0
notchParamRand-29,true,1.00,46,320,30,315,1478,0
notchParamRand-30,false,0.19,1656,175,1650,175,70484,0
notchParamRand-31,true,1.00,1403,428,1393,421,59992,0
notchParamRand-32,true,1.00,487,359,476,354,21464,0
notchParamRand-33,false,0.18,1244,108,1241,108,53592,0
notchParamRand-34,false,0.24,1387,156,1386,156,53592,0
notchParamRand-35,true,1.00,4424,518,4409,513,173471,0
notchParamRand-36,true,1.00,44,320,36,315,1400,0
notchParamRand-37,true,1.00,2649,457,2637,452,112672,0
notchParamRand-38,false,0.19,218,87,215,87,9024,0
notchParamRand-39,false,0.17,30416,999,30412,999,1177586,0
notchParamRand-40,false,0.17,2535,170,2534,170,100608,0
notchParamRand-41,true,1.00,44,314,29,309,1220,0
notchParamRand-42,true,1.00,2749,458,2735,453,109734,0
notchParamRand-43,false,0.51,1622,240,1616,240,65756,0
notchParamRand-44,false,0.34,946,198,922,198,37172,0
notchParamRand-45,false,0.29,5233,282,5209,282,208708,0
notchParamRand-46,false,0.37,1063,200,1060,200,47278,0
notchParamRand-47,false,0.57,3726,357,3717,357,156362,0
notchParamRand-48,false,0.18,2090,151,2071,151,89678,0
notchParamRand-49,true,1.00,4510,541,4496,536,198959,0
notchParamRand-50,false,0.17,815,116,809,116,35869,0
notchParamRand-51,true,1.00,756,373,749,368,33637,0
notchParamRand-52,false,0.29,2480,222,2476,222,108880,0
notchParamRand-53,false,0.21,1148,142,1142,142,51576,0
notchParamRand-54,false,0.17,1866,141,1863,141,83743,0
notchParamRand-55,false,0.17,30404,999,30401,999,1297708,0
notchParamRand-56,false,0.36,3327,293,3318,293,139622,0
notchParamRand-57,false,0.24,2663,179,2659,179,115648,0
notchParamRand-58,false,0.18,330,100,326,100,15151,0
notchParamRand-59,true,1.00,1330,375,1320,370,61921,0
notchParamRand-60,false,0.75,4516,430,4503,430,212976,0
notchParamRand-61,true,1.00,1191,425,1159,420,54047,0
notchParamRand-62,true,1.00,1023,435,1007,430,47197,0
notchParamRand-63,false,0.19,778,113,771,113,36656,0
notchParamRand-64,true,1.00,2532,436,2523,430,116516,0
notchParamRand-65,false,0.18,3447,222,3444,222,152533,0
notchParamRand-66,false,0.52,1966,276,1957,276,86947,0
notchParamRand-67,true,1.00,3816,504,3803,494,168729,0
notchParamRand-68,false,0.18,936,106,934,106,43381,0
notchParamRand-69,true,1.00,2131,398,2119,393,98938,0
notchParamRand-70,false,0.36,1200,188,1196,188,56373,0
notchParamRand-71,true,1.00,442,383,428,378,19543,0
notchParamRand-72,true,1.00,1445,401,1435,396,66462,0
notchParamRand-73,true,1.00,450,343,438,338,18497,0
notchParamRand-74,true,1.00,40,314,25,309,1249,0
notchParamRand-75,true,1.00,37,314,30,309,1236,0
notchParamRand-76,false,0.31,2151,225,2145,225,89868,0
notchParamRand-77,false,0.20,2908,217,2905,217,131644,0
notchParamRand-78,false,0.24,1381,156,1378,156,64067,0
notchParamRand-79,true,1.00,922,397,912,392,41761,0
notchParamRand-80,false,0.51,26964,999,26960,999,1132097,0
notchParamRand-81,true,1.00,4372,505,4357,500,205194,0
notchParamRand-82,true,1.00,5227,560,5211,555,236692,0
notchParamRand-83,false,0.28,1937,197,1935,197,87906,0
notchParamRand-84,true,1.00,841,387,832,382,39431,0
notchParamRand-85,true,1.00,39,314,29,309,1250,0
notchParamRand-86,false,0.48,3087,1008,3057,1008,138045,0
notchParamRand-87,false,0.16,30635,999,30632,999,1241724,0
notchParamRand-88,true,1.00,1756,370,1747,365,72309,0
notchParamRand-89,false,0.52,1138,231,1131,231,45256,0
notchParamRand-90,false,0.36,1832,214,1823,214,71698,0
notchParamRand-91,true,1.00,44,314,33,309,1262,0
notchParamRand-92,false,0.28,1440,194,1437,194,58101,0
notchParamRand-93,true,1.00,1985,408,1977,403,87850,0
notchParamRand-94,false,0.16,29747,999,29743,999,1238326,0
notchParamRand-95,true,1.00,4053,493,4037,488,168507,0
notchParamRand-96,false,0.37,2012,229,2004,229,83117,0
notchParamRand-97,false,0.18,1008,108,1006,108,41177,0
notchParamRand-98,false,0.52,1987,277,1979,277,83383,0
notchParamRand-99,true,1.00,1942,412,1931,407,79179,0
notchParamRand-100,false,0.21,3849,204,3845,204,161250,0
