NDW:0.0
TTFW:0.8
DFPT:2.0
DFPAP:3.0
DFPMP:7.0
RIGHT_WINDOW_BORDER_X:35.0
level,win/fail,% travelled,run time,game ticks,planning time,total plannings,nodes evaluated,most backtracked nodes
patternOccur-1,false,0.77,5961,992,5946,992,319376,0
patternOccur-2,false,0.52,4182,698,4169,698,222156,0
patternOccur-3,false,0.42,5868,684,5857,684,321501,0
patternOccur-4,false,0.05,1650,157,1648,157,92604,0
patternOccur-5,false,0.15,1243,173,1236,173,68964,0
patternOccur-6,false,0.03,778,84,776,84,43202,0
patternOccur-7,false,0.32,4412,601,4403,601,236578,0
patternOccur-8,false,0.31,1998,319,1990,319,108328,0
patternOccur-9,false,0.68,6428,947,6401,947,347172,0
patternOccur-10,false,0.77,5207,999,5183,999,283448,0
patternOccur-11,false,0.06,1181,142,1179,142,65269,0
patternOccur-12,false,0.79,5764,999,5742,999,307502,0
patternOccur-13,false,0.43,4070,618,4056,618,219292,0
patternOccur-14,false,0.06,1283,132,1281,132,72702,0
patternOccur-15,false,0.31,3207,432,3191,432,168407,0
patternOccur-16,false,0.23,2418,400,2408,400,131628,0
patternOccur-17,false,0.42,7112,705,7101,705,381236,0
patternOccur-18,false,0.45,2698,512,2685,512,154366,0
patternOccur-19,false,0.12,833,189,829,189,45512,0
patternOccur-20,false,0.67,8199,999,8185,999,456183,0
patternOccur-21,false,0.06,3034,204,3032,204,183152,0
patternOccur-22,false,0.08,1286,199,1283,199,74749,0
patternOccur-23,false,0.05,756,79,754,79,43569,0
patternOccur-24,false,0.73,5785,998,5756,998,323674,0
patternOccur-25,false,0.64,5877,999,5852,999,320559,0
patternOccur-26,false,0.15,867,170,862,170,50165,0
patternOccur-27,false,0.35,2805,527,2797,527,153414,0
patternOccur-28,false,0.25,2836,373,2825,373,156221,0
patternOccur-29,false,0.88,6101,999,6079,999,322789,0
patternOccur-30,false,0.69,5538,999,5515,999,312438,0
patternOccur-31,false,0.32,1098,398,1089,398,65311,0
patternOccur-32,false,0.01,264,34,261,34,17861,0
patternOccur-33,false,0.50,3781,628,3766,628,207751,0
patternOccur-34,false,0.29,3446,389,3436,389,188528,0
patternOccur-35,false,0.89,4646,999,4619,999,256840,0
patternOccur-36,false,0.68,6457,999,6436,999,353258,0
patternOccur-37,false,0.83,6238,999,6217,999,337514,0
patternOccur-38,false,0.04,1694,142,1690,142,102313,0
patternOccur-39,false,0.28,4844,486,4831,486,261094,0
patternOccur-40,false,0.63,6102,999,6076,999,332396,0
patternOccur-41,false,0.66,6185,999,6164,999,338840,0
patternOccur-42,false,0.12,4671,366,4664,366,259064,0
patternOccur-43,false,0.71,7796,999,7779,999,430777,0
patternOccur-44,false,0.14,800,1008,774,1008,42266,0
patternOccur-45,false,0.06,593,94,592,94,33600,0
patternOccur-46,false,0.78,4816,1008,4784,1008,258592,0
patternOccur-47,false,0.37,4848,498,4837,498,261751,0
patternOccur-48,false,0.56,4023,857,4003,857,223622,0
patternOccur-49,false,0.80,5896,999,5872,999,312806,0
patternOccur-50,false,0.02,2026,188,2019,188,139047,0
patternOccur-51,false,0.22,415,218,412,218,22751,0
patternOccur-52,false,0.61,7585,999,7567,999,419306,0
patternOccur-53,false,0.17,2056,320,2051,320,113148,0
patternOccur-54,false,0.17,3783,313,3778,313,205687,0
patternOccur-55,false,0.06,367,121,364,121,21623,0
patternOccur-56,false,0.11,1899,200,1896,200,100714,0
patternOccur-57,false,0.16,1849,999,1823,999,101930,0
patternOccur-58,false,0.73,5421,997,5399,997,294081,0
patternOccur-59,false,0.54,3845,686,3824,686,207322,0
patternOccur-60,false,0.74,4450,999,4424,999,245478,0
patternOccur-61,false,0.18,2434,336,2429,336,133842,0
patternOccur-62,false,0.79,6885,999,6860,999,372601,0
patternOccur-63,false,0.63,9120,999,9096,999,502299,0
patternOccur-64,false,0.53,6970,861,6950,861,377682,0
patternOccur-65,false,0.19,1237,231,1234,231,70955,0
patternOccur-66,false,0.03,400,77,398,77,23628,0
patternOccur-67,false,0.20,1086,237,1080,237,59112,0
patternOccur-68,false,0.81,5123,999,5093,999,276043,0
patternOccur-69,false,0.73,5509,999,5493,999,303555,0
patternOccur-70,false,0.06,1435,146,1435,146,85243,0
patternOccur-71,false,0.16,1489,238,1483,238,85044,0
patternOccur-72,false,0.32,3483,519,3473,519,182564,0
patternOccur-73,false,0.43,2803,629,2786,629,152055,0
patternOccur-74,false,0.03,1649,205,1644,205,107666,0
patternOccur-75,false,0.33,2807,379,2800,379,149236,0
patternOccur-76,false,0.22,5748,483,5739,483,320278,0
patternOccur-77,false,0.46,3057,560,3043,560,168966,0
patternOccur-78,false,0.77,4560,999,4531,999,250576,0
patternOccur-79,false,0.08,1174,165,1173,165,72510,0
patternOccur-80,false,0.16,2390,218,2387,218,131474,0
patternOccur-81,false,0.19,2570,338,2561,338,142376,0
patternOccur-82,false,0.70,6138,999,6121,999,348329,0
patternOccur-83,false,0.56,3450,668,3434,668,191083,0
patternOccur-84,false,0.05,658,131,651,131,41426,0
patternOccur-85,false,0.27,2372,347,2364,347,132734,0
patternOccur-86,false,0.38,3158,517,3148,517,173408,0
patternOccur-87,false,0.06,445,84,445,84,25839,0
patternOccur-88,false,0.09,4168,295,4162,295,245680,0
patternOccur-89,false,0.00,5630,999,5602,999,412730,0
patternOccur-90,false,0.54,4418,781,4400,781,250342,0
patternOccur-91,false,0.05,1329,123,1326,123,76904,0
patternOccur-92,false,0.65,4755,865,4726,865,261403,0
patternOccur-93,false,0.50,8619,999,8603,999,459723,0
patternOccur-94,false,0.80,5237,999,5211,999,290505,0
patternOccur-95,false,0.18,3881,319,3875,319,218269,0
patternOccur-96,false,0.30,2440,451,2433,451,135911,0
patternOccur-97,false,0.53,10250,969,10226,969,591266,0
patternOccur-98,false,0.67,5291,994,5268,994,296261,0
patternOccur-99,false,0.90,3033,999,3009,999,170882,0
patternOccur-100,false,0.14,1523,220,1519,220,77528,0
