NDW:0.0
TTFW:1.6
DFPT:2.0
DFPAP:3.0
DFPMP:1.0
RIGHT_WINDOW_BORDER_X:215.0
level,win/fail,% travelled,run time,game ticks,planning time,total plannings,nodes evaluated,most backtracked nodes
ore-1,true,1.00,1555,464,1551,444,215916,0
ore-2,false,0.70,2367,341,2363,341,266533,0
ore-3,true,1.00,1394,454,1393,421,192454,0
ore-4,true,1.00,1497,441,1494,415,195173,0
ore-5,true,1.00,1965,402,1963,377,266524,0
ore-6,true,1.00,1258,440,1256,413,163323,0
ore-7,true,1.00,1366,422,1364,399,185196,0
ore-8,true,1.00,3267,460,3264,440,415739,0
ore-9,true,1.00,1246,400,1246,362,164681,0
ore-10,true,1.00,1424,460,1423,441,203109,0
ore-11,true,1.00,1405,473,1405,441,187933,0
ore-12,true,1.00,2492,518,2491,497,279441,0
ore-13,true,1.00,2032,474,2030,442,275475,0
ore-14,true,1.00,1738,466,1733,446,242137,0
ore-15,true,1.00,1407,417,1402,393,186269,0
ore-16,true,1.00,2165,454,2161,432,315560,0
ore-17,true,1.00,1665,483,1661,444,240641,0
ore-18,true,1.00,1177,461,1175,429,165363,0
ore-19,true,1.00,1234,429,1230,410,160312,0
ore-20,true,1.00,1803,470,1800,436,234531,0
ore-21,true,1.00,2166,497,2164,474,303954,0
ore-22,false,0.59,2251,293,2250,293,222949,0
ore-23,true,1.00,1709,458,1706,438,232807,0
ore-24,true,1.00,1399,474,1396,445,184848,0
ore-25,true,1.00,1852,414,1850,385,253369,0
ore-26,true,1.00,1829,439,1826,417,224237,0
ore-27,true,1.00,5707,579,5703,559,544437,0
ore-28,true,1.00,1664,439,1659,419,184952,0
ore-29,true,1.00,1601,417,1598,398,194910,0
ore-30,true,1.00,1632,425,1630,403,203917,0
ore-31,true,1.00,1263,446,1262,405,169222,0
ore-32,true,1.00,1507,433,1504,412,189624,0
ore-33,true,1.00,1528,487,1522,466,198451,0
ore-34,true,1.00,1896,494,1890,463,240721,0
ore-35,true,1.00,2041,455,2039,435,277896,0
ore-36,true,1.00,1145,422,1140,402,154891,0
ore-37,false,0.34,1910,163,1909,163,172937,0
ore-38,true,1.00,1496,407,1494,380,198792,0
ore-39,true,1.00,1393,428,1391,400,190804,0
ore-40,true,1.00,2354,423,2353,400,319682,0
ore-41,true,1.00,1471,424,1469,393,200688,0
ore-42,true,1.00,1925,496,1924,466,241837,0
ore-43,true,1.00,2418,496,2417,476,326393,0
ore-44,true,1.00,1586,435,1585,372,224111,0
ore-45,false,0.74,21219,999,21216,999,1493953,0
ore-46,false,0.12,805,49,805,49,85315,0
ore-47,true,1.00,1876,529,1873,507,258288,0
ore-48,true,1.00,1192,456,1189,436,155998,0
ore-49,true,1.00,1111,436,1109,407,145921,0
ore-50,true,1.00,1823,407,1822,385,237153,0
ore-51,true,1.00,1327,436,1320,390,184338,0
ore-52,true,1.00,1841,463,1837,442,245483,0
ore-53,true,1.00,1687,408,1686,386,215344,0
ore-54,false,0.72,1878,296,1877,296,208648,0
ore-55,true,1.00,1328,431,1327,406,190894,0
ore-56,true,1.00,1055,417,1050,387,140280,0
ore-57,true,1.00,1338,468,1337,423,182388,0
ore-58,true,1.00,2180,436,2178,417,298282,0
ore-59,true,1.00,1875,492,1871,472,260510,0
ore-60,true,1.00,1654,424,1652,401,216388,0
ore-61,true,1.00,1315,446,1312,411,164709,0
ore-62,true,1.00,1757,452,1751,432,221046,0
ore-63,false,0.32,2201,172,2200,172,170019,0
ore-64,true,1.00,1236,431,1232,411,119595,0
ore-65,true,1.00,1868,460,1866,432,230774,0
ore-66,true,1.00,2639,471,2635,449,304019,0
ore-67,true,1.00,1437,437,1434,418,186018,0
ore-68,true,1.00,1501,438,1498,418,190938,0
ore-69,true,1.00,2356,506,2352,485,285058,0
ore-70,false,0.95,3384,475,3383,475,375190,0
ore-71,true,1.00,1349,441,1346,421,175765,0
ore-72,true,1.00,1521,447,1518,416,209545,0
ore-73,true,1.00,1665,425,1662,398,231086,0
ore-74,true,1.00,2377,483,2374,463,315384,0
ore-75,true,1.00,1879,456,1877,436,251833,0
ore-76,true,1.00,1305,380,1305,360,187193,0
ore-77,true,1.00,1171,403,1169,374,161025,0
ore-78,true,1.00,2168,461,2166,442,297930,0
ore-79,true,1.00,2198,470,2197,449,292503,0
ore-80,true,1.00,1985,461,1983,434,269666,0
ore-81,true,1.00,2244,464,2240,444,321682,0
ore-82,true,1.00,1312,393,1308,368,174586,0
ore-83,true,1.00,1433,426,1432,405,190780,0
ore-84,false,0.18,782,79,780,79,62281,0
ore-85,true,1.00,1233,457,1230,432,159684,0
ore-86,true,1.00,2566,556,2562,520,342435,0
ore-87,true,1.00,1216,441,1214,414,156330,0
ore-88,true,1.00,1851,445,1847,425,261412,0
ore-89,true,1.00,1677,429,1674,406,223013,0
ore-90,true,1.00,1998,483,1992,464,277504,0
ore-91,true,1.00,1420,419,1418,398,192817,0
ore-92,true,1.00,1485,427,1482,406,199650,0
ore-93,true,1.00,2060,421,2058,402,279377,0
ore-94,true,1.00,2308,484,2306,461,318348,0
ore-95,true,1.00,1927,479,1925,458,250217,0
ore-96,true,1.00,2191,461,2189,442,314603,0
ore-97,true,1.00,1706,480,1705,451,228298,0
ore-98,true,1.00,1643,414,1639,392,223762,0
ore-99,true,1.00,1851,437,1847,415,245348,0
ore-100,true,1.00,1157,418,1155,389,163129,0
