NDW:0.0
TTFW:0.8
DFPT:2.0
DFPAP:3.0
DFPMP:1.0
RIGHT_WINDOW_BORDER_X:95.0
level,win/fail,% travelled,run time,game ticks,planning time,total plannings,nodes evaluated,most backtracked nodes
patternWeightCount-1,true,1.00,10036,765,10020,753,545601,0
patternWeightCount-2,true,1.00,1116,493,1103,482,59879,0
patternWeightCount-3,true,1.00,1205,475,1191,464,65710,0
patternWeightCount-4,true,1.00,832,477,821,463,45646,0
patternWeightCount-5,true,1.00,4187,595,4173,585,229690,0
patternWeightCount-6,true,1.00,2860,545,2851,535,156570,0
patternWeightCount-7,true,1.00,1167,483,1153,473,63038,0
patternWeightCount-8,true,1.00,864,462,851,454,44597,0
patternWeightCount-9,true,1.00,1221,481,1213,472,67862,0
patternWeightCount-10,true,1.00,1218,499,1210,489,66402,0
patternWeightCount-11,true,1.00,909,440,898,430,50424,0
patternWeightCount-12,true,1.00,2234,553,2219,544,121564,0
patternWeightCount-13,true,1.00,1009,451,1001,441,55520,0
patternWeightCount-14,true,1.00,2318,580,2307,571,126137,0
patternWeightCount-15,true,1.00,3875,518,3869,510,210983,0
patternWeightCount-16,true,1.00,4744,605,4733,594,262848,0
patternWeightCount-17,true,1.00,1568,518,1558,508,91176,0
patternWeightCount-18,true,1.00,1784,516,1771,508,97415,0
patternWeightCount-19,true,1.00,668,464,653,455,36376,0
patternWeightCount-20,false,0.61,7550,498,7543,498,409804,0
patternWeightCount-21,true,1.00,527,444,518,436,28697,0
patternWeightCount-22,true,1.00,6901,665,6887,652,375613,0
patternWeightCount-23,true,1.00,1479,526,1462,517,71788,0
patternWeightCount-24,true,1.00,2581,556,2569,546,127096,0
patternWeightCount-25,true,1.00,5400,679,5380,669,291923,0
patternWeightCount-26,true,1.00,1871,560,1866,548,104955,0
patternWeightCount-27,true,1.00,4171,636,4158,614,228427,0
patternWeightCount-28,true,1.00,2823,571,2812,561,155807,0
patternWeightCount-29,true,1.00,2940,542,2926,533,162763,0
patternWeightCount-30,false,0.85,6003,626,5989,626,320734,0
patternWeightCount-31,true,1.00,2162,513,2151,504,117676,0
patternWeightCount-32,true,1.00,726,428,715,420,39624,0
patternWeightCount-33,true,1.00,1081,508,1072,498,59743,0
patternWeightCount-34,true,1.00,4455,584,4446,576,246351,0
patternWeightCount-35,true,1.00,6215,631,6205,621,343448,0
patternWeightCount-36,true,1.00,2469,533,2452,519,135808,0
patternWeightCount-37,true,1.00,1924,536,1909,527,107175,0
patternWeightCount-38,false,0.94,6793,636,6780,636,373218,0
patternWeightCount-39,true,1.00,3771,565,3764,557,198672,0
patternWeightCount-40,true,1.00,4168,585,4160,576,232330,0
patternWeightCount-41,true,1.00,2163,519,2150,509,116196,0
patternWeightCount-42,false,0.87,5762,555,5752,555,308671,0
patternWeightCount-43,true,1.00,2237,512,2220,502,121328,0
patternWeightCount-44,true,1.00,2926,587,2911,567,167919,0
patternWeightCount-45,false,0.84,4664,581,4657,581,252561,0
patternWeightCount-46,false,0.86,4597,546,4589,546,258942,0
patternWeightCount-47,true,1.00,2588,505,2573,495,143137,0
patternWeightCount-48,true,1.00,875,439,868,431,49233,0
patternWeightCount-49,true,1.00,1188,465,1176,457,64681,0
patternWeightCount-50,true,1.00,1608,472,1597,463,86594,0
patternWeightCount-51,true,1.00,1913,545,1898,524,107534,0
patternWeightCount-52,true,1.00,5360,621,5357,603,303812,0
patternWeightCount-53,false,0.73,5492,559,5482,559,303010,0
patternWeightCount-54,true,1.00,1565,492,1553,482,88991,0
patternWeightCount-55,false,0.97,3820,538,3799,538,197985,0
patternWeightCount-56,true,1.00,3185,538,3175,530,179893,0
patternWeightCount-57,true,1.00,721,461,712,451,40993,0
patternWeightCount-58,true,1.00,1698,536,1685,527,94973,0
patternWeightCount-59,true,1.00,1644,470,1629,460,95208,0
patternWeightCount-60,true,1.00,2838,566,2825,555,164766,0
patternWeightCount-61,true,1.00,3000,566,2992,554,169477,0
patternWeightCount-62,true,1.00,5553,675,5540,643,307306,0
patternWeightCount-63,true,1.00,2922,582,2918,573,163525,0
patternWeightCount-64,true,1.00,3795,564,3782,555,204294,0
patternWeightCount-65,true,1.00,1740,512,1728,504,96481,0
patternWeightCount-66,true,1.00,1533,490,1523,482,86193,0
patternWeightCount-67,true,1.00,997,516,984,507,54103,0
patternWeightCount-68,false,0.85,20910,999,20896,999,736006,0
patternWeightCount-69,false,0.96,7147,662,7140,662,384493,0
patternWeightCount-70,true,1.00,2422,548,2404,539,134534,0
patternWeightCount-71,true,1.00,1096,485,1084,475,59473,0
patternWeightCount-72,false,0.74,4888,551,4874,551,273465,0
patternWeightCount-73,false,0.77,13008,744,12995,744,701389,0
patternWeightCount-74,true,1.00,1024,454,1013,446,57050,0
patternWeightCount-75,true,1.00,1831,524,1818,514,102385,0
patternWeightCount-76,true,1.00,2045,563,2030,553,115646,0
patternWeightCount-77,true,1.00,1518,465,1511,455,85160,0
patternWeightCount-78,true,1.00,7018,692,7003,682,379778,0
patternWeightCount-79,true,1.00,2391,478,2381,470,129938,0
patternWeightCount-80,true,1.00,2065,592,2046,583,115731,0
patternWeightCount-81,false,0.82,6515,584,6506,584,360039,0
patternWeightCount-82,true,1.00,315,423,303,414,18177,0
patternWeightCount-83,true,1.00,2310,507,2300,499,130696,0
patternWeightCount-84,true,1.00,1733,484,1721,476,94999,0
patternWeightCount-85,false,0.33,1615,212,1614,212,91187,0
patternWeightCount-86,false,0.93,4745,585,4729,585,265803,0
patternWeightCount-87,false,0.72,5260,497,5250,497,285824,0
patternWeightCount-88,true,1.00,2167,515,2155,505,119730,0
patternWeightCount-89,true,1.00,933,449,926,435,52170,0
patternWeightCount-90,false,0.81,6127,520,6119,520,334574,0
patternWeightCount-91,true,1.00,2092,567,2079,557,116437,0
patternWeightCount-92,true,1.00,9745,721,9733,708,536025,0
patternWeightCount-93,false,0.88,19596,999,19587,999,1006984,0
patternWeightCount-94,true,1.00,2155,534,2145,524,122565,0
patternWeightCount-95,true,1.00,2900,599,2892,591,152967,0
patternWeightCount-96,true,1.00,938,511,926,502,52154,0
patternWeightCount-97,true,1.00,1740,445,1729,437,95890,0
patternWeightCount-98,false,0.93,11806,752,11796,752,658870,0
patternWeightCount-99,true,1.00,3045,597,3031,588,171952,0
patternWeightCount-100,true,1.00,1391,501,1383,492,76831,0
