NDW:0.0
TTFW:1.4
DFPT:2.0
DFPAP:3.0
DFPMP:0.0
RIGHT_WINDOW_BORDER_X:350.0
level,win/fail,% travelled,run time,game ticks,planning time,total plannings,nodes evaluated,most backtracked nodes
ore-1,true,1.00,1576,423,1566,376,85365,0
ore-2,false,0.70,3449,304,3447,304,180609,0
ore-3,true,1.00,1607,423,1594,380,90684,0
ore-4,true,1.00,2461,461,2450,426,134015,0
ore-5,true,1.00,1803,412,1790,367,100477,0
ore-6,true,1.00,2209,435,2202,390,122758,0
ore-7,true,1.00,1607,427,1598,386,88027,0
ore-8,false,0.13,2118,76,2117,76,97660,0
ore-9,true,1.00,1580,384,1570,334,88726,0
ore-10,true,1.00,2369,455,2357,423,124912,0
ore-11,true,1.00,2087,462,2070,408,113036,0
ore-12,false,0.46,2145,199,2139,199,106806,0
ore-13,true,1.00,2610,495,2599,432,144734,0
ore-14,true,1.00,2768,461,2758,410,154728,0
ore-15,true,1.00,1968,414,1960,382,109159,0
ore-16,true,1.00,2836,471,2823,430,143441,0
ore-17,true,1.00,2032,465,2021,412,112383,0
ore-18,true,1.00,1809,470,1795,430,95487,0
ore-19,true,1.00,1427,399,1418,363,78397,0
ore-20,true,1.00,2103,456,2090,407,115889,0
ore-21,true,1.00,2089,484,2077,447,113407,0
ore-22,false,0.63,2494,299,2492,299,126103,0
ore-23,true,1.00,2150,454,2140,409,117068,0
ore-24,true,1.00,2430,490,2411,432,135520,0
ore-25,true,1.00,2004,420,1994,377,111865,0
ore-26,true,1.00,2960,476,2950,431,148696,0
ore-27,false,0.24,1482,124,1480,124,68965,0
ore-28,true,1.00,1456,412,1444,378,74268,0
ore-29,false,0.48,2025,226,2020,226,90406,0
ore-30,true,1.00,1457,408,1446,356,79575,0
ore-31,true,1.00,1859,451,1847,407,101087,0
ore-32,true,1.00,2247,428,2235,384,118492,0
ore-33,true,1.00,2678,485,2668,422,149435,0
ore-34,true,1.00,2189,474,2176,431,113177,0
ore-35,true,1.00,2325,400,2309,366,75379,0
ore-36,true,1.00,1995,432,1987,388,112853,0
ore-37,false,0.34,1567,122,1563,122,73612,0
ore-38,true,1.00,1552,414,1541,362,87297,0
ore-39,true,1.00,1875,438,1860,392,101151,0
ore-40,true,1.00,2012,439,1975,381,104654,0
ore-41,true,1.00,2329,457,2317,408,134482,0
ore-42,true,1.00,3295,462,3285,418,173834,0
ore-43,true,1.00,3370,447,3364,409,169703,0
ore-44,true,1.00,2091,422,2084,356,115813,0
ore-45,false,0.74,22517,999,22503,999,831758,0
ore-46,false,0.13,1048,48,1048,48,52091,0
ore-47,false,0.85,3199,433,3195,433,168259,0
ore-48,true,1.00,2600,465,2583,431,139134,0
ore-49,true,1.00,1438,427,1430,369,80129,0
ore-50,true,1.00,1461,406,1450,354,80334,0
ore-51,true,1.00,2531,422,2520,370,131333,0
ore-52,true,1.00,2385,465,2371,410,128265,0
ore-53,true,1.00,2114,477,2105,427,112514,0
ore-54,false,0.72,2711,334,2703,334,134720,0
ore-55,true,1.00,2286,422,2277,373,132490,0
ore-56,true,1.00,1387,376,1379,345,76191,0
ore-57,true,1.00,2123,410,2110,358,119038,0
ore-58,true,1.00,2740,447,2729,415,153661,0
ore-59,true,1.00,2470,464,2462,432,142797,0
ore-60,true,1.00,2948,434,2934,397,93703,0
ore-61,true,1.00,1783,468,1772,399,89534,0
ore-62,false,0.78,2312,312,2303,312,107147,0
ore-63,false,0.32,2643,185,2637,185,81435,0
ore-64,true,1.00,1568,404,1555,358,86997,0
ore-65,true,1.00,3163,478,3145,435,118894,0
ore-66,true,1.00,3108,487,3097,437,161334,0
ore-67,true,1.00,2055,417,2040,373,116299,0
ore-68,true,1.00,1842,448,1833,396,100357,0
ore-69,true,1.00,3331,536,3319,492,173975,0
ore-70,false,0.96,3427,421,3423,421,182621,0
ore-71,true,1.00,1961,411,1951,377,112203,0
ore-72,true,1.00,1714,441,1701,402,93400,0
ore-73,false,0.32,2030,184,2027,184,104905,0
ore-74,true,1.00,3824,461,3814,409,184007,0
ore-75,true,1.00,1883,447,1875,407,104517,0
ore-76,true,1.00,1510,384,1501,340,84560,0
ore-77,true,1.00,1755,417,1741,369,100858,0
ore-78,true,1.00,2369,472,2354,440,132812,0
ore-79,true,1.00,2126,442,2113,409,117023,0
ore-80,true,1.00,2058,419,2047,386,114808,0
ore-81,true,1.00,2240,459,2234,405,126938,0
ore-82,true,1.00,1892,394,1883,350,106966,0
ore-83,true,1.00,2351,435,2344,391,136658,0
ore-84,true,1.00,3662,429,3651,393,184516,0
ore-85,true,1.00,1716,472,1704,431,92611,0
ore-86,false,0.63,2621,328,2615,328,138540,0
ore-87,true,1.00,1474,394,1458,354,81374,0
ore-88,true,1.00,2327,424,2318,384,126151,0
ore-89,true,1.00,3578,484,3565,452,170827,0
ore-90,true,1.00,2079,471,2067,430,113365,0
ore-91,true,1.00,3133,497,3122,455,170225,0
ore-92,true,1.00,1929,473,1917,435,105877,0
ore-93,false,0.14,1830,76,1828,76,83116,0
ore-94,true,1.00,2158,493,2150,431,117277,0
ore-95,true,1.00,2140,463,2129,409,116979,0
ore-96,true,1.00,2808,456,2801,424,153740,0
ore-97,false,0.78,2462,350,2452,350,125167,0
ore-98,true,1.00,1925,437,1912,405,109860,0
ore-99,true,1.00,2743,486,2727,452,142237,0
ore-100,true,1.00,2402,450,2389,409,138262,0
