NDW:0.0
TTFW:1.4
DFPT:2.0
DFPAP:3.0
DFPMP:2.0
RIGHT_WINDOW_BORDER_X:55.0
level,win/fail,% travelled,run time,game ticks,planning time,total plannings,nodes evaluated,most backtracked nodes
hopper-1,false,0.41,7985,474,7979,474,443786,0
hopper-2,false,0.46,23994,999,23988,999,1292804,0
hopper-3,false,0.24,6399,323,6397,323,325022,0
hopper-4,false,0.26,5324,320,5323,320,239970,0
hopper-5,false,0.14,4875,237,4873,237,214478,0
hopper-6,false,0.30,1432,227,1429,227,79350,0
hopper-7,false,0.14,4870,237,4867,237,248433,0
hopper-8,false,0.41,10336,546,10326,546,526050,0
hopper-9,false,0.14,4873,237,4869,237,249578,0
hopper-10,false,0.67,4655,552,4635,552,262435,0
hopper-11,false,0.22,4704,315,4700,315,262686,0
hopper-12,false,0.32,2052,268,2048,268,107375,0
hopper-13,false,0.14,4873,237,4872,237,249850,0
hopper-14,false,0.31,7860,395,7857,395,410370,0
hopper-15,false,0.14,4874,237,4873,237,250070,0
hopper-16,false,0.14,4875,237,4871,237,247402,0
hopper-17,false,0.31,1271,239,1268,239,66936,0
hopper-18,false,0.29,3379,266,3376,266,176745,0
hopper-19,false,0.41,2270,352,2259,352,132294,0
hopper-20,false,0.20,5908,307,5904,307,304123,0
hopper-21,false,0.14,4874,237,4871,237,247668,0
hopper-22,false,0.32,3293,300,3292,300,171128,0
hopper-23,false,0.14,4874,237,4872,237,249453,0
hopper-24,false,0.32,26410,999,26407,999,1225404,0
hopper-25,false,0.32,2626,259,2622,259,148072,0
hopper-26,false,0.51,23412,999,23394,999,1244791,0
hopper-27,false,0.44,9197,540,9189,540,421351,0
hopper-28,false,0.18,27965,999,27965,999,1633001,0
hopper-29,false,0.26,2053,205,2053,205,106056,0
hopper-30,false,0.14,4873,237,4871,237,249739,0
hopper-31,false,0.77,13445,823,13430,823,702575,0
hopper-32,false,0.33,4160,290,4156,290,235138,0
hopper-33,false,0.49,3340,373,3335,373,184043,0
hopper-34,false,0.47,12220,668,12219,668,703138,0
hopper-35,false,0.22,6146,330,6144,330,356376,0
hopper-36,false,0.14,4871,237,4868,237,214019,0
hopper-37,false,0.51,4867,447,4860,447,254094,0
hopper-38,false,0.51,22150,999,22144,999,1143877,0
hopper-39,false,0.35,25358,999,25347,999,1267414,0
hopper-40,false,0.21,28020,999,28016,999,1456460,0
hopper-41,false,0.23,28091,999,28091,999,1420779,0
hopper-42,false,0.14,4874,237,4873,237,248560,0
hopper-43,false,0.14,4872,237,4872,237,249662,0
hopper-44,false,0.30,6057,366,6053,366,274949,0
hopper-45,false,0.22,4736,307,4731,307,259230,0
hopper-46,false,0.21,1640,216,1637,216,84495,0
hopper-47,false,0.39,4505,396,4498,396,235137,0
hopper-48,false,0.14,4873,237,4872,237,250120,0
hopper-49,false,0.21,4519,254,4516,254,237770,0
hopper-50,false,0.45,5419,431,5415,431,285133,0
hopper-51,false,0.33,5238,378,5232,378,280992,0
hopper-52,false,0.41,5737,431,5731,431,334741,0
hopper-53,false,0.14,4871,237,4867,237,260160,0
hopper-54,false,0.32,4469,323,4465,323,243337,0
hopper-55,false,0.84,12657,917,12643,917,722068,0
hopper-56,false,0.57,4631,413,4622,413,262121,0
hopper-57,false,0.67,18838,999,18824,999,874204,0
hopper-58,false,0.39,6957,485,6953,485,392778,0
hopper-59,false,0.20,5813,303,5810,303,353996,0
hopper-60,false,0.37,2837,314,2832,314,174358,0
hopper-61,false,0.14,4873,237,4872,237,250415,0
hopper-62,false,0.14,4874,237,4873,237,249716,0
hopper-63,false,0.23,715,152,713,152,36896,0
hopper-64,false,0.14,4872,237,4869,237,250119,0
hopper-65,false,0.14,4874,237,4873,237,249258,0
hopper-66,false,0.73,19794,999,19785,999,990333,0
hopper-67,false,0.41,7799,468,7794,468,401992,0
hopper-68,false,0.29,2455,244,2451,244,117708,0
hopper-69,false,0.31,4142,336,4139,336,223547,0
hopper-70,false,0.37,5004,379,4996,379,270212,0
hopper-71,false,0.28,26959,999,26956,999,1385136,0
hopper-72,false,0.22,3555,258,3551,258,181452,0
hopper-73,false,0.14,4873,237,4872,237,250106,0
hopper-74,false,0.50,8268,532,8262,532,426074,0
hopper-75,false,0.23,6767,352,6763,352,346170,0
hopper-76,false,0.14,4883,237,4877,237,249981,0
hopper-77,false,1.00,12872,999,12858,999,662063,0
hopper-78,false,0.29,27211,999,27208,999,1347444,0
hopper-79,false,0.58,4992,448,4985,448,275970,0
hopper-80,false,0.14,4871,237,4870,237,260975,0
hopper-81,false,0.22,3491,222,3487,222,189133,0
hopper-82,false,0.44,24393,999,24385,999,1335594,0
hopper-83,false,0.43,8991,536,8988,536,496988,0
hopper-84,false,0.21,6713,345,6710,345,382638,0
hopper-85,false,0.30,26836,999,26832,999,1389580,0
hopper-86,false,0.22,4352,265,4350,265,233437,0
hopper-87,false,0.14,4872,237,4872,237,254142,0
hopper-88,false,0.22,4521,261,4520,261,251214,0
hopper-89,false,0.14,4871,237,4869,237,255711,0
hopper-90,false,0.76,6097,591,6086,591,337014,0
hopper-91,false,0.39,4382,378,4376,378,233807,0
hopper-92,false,0.20,5907,307,5906,307,312118,0
hopper-93,false,0.30,4185,326,4179,326,220700,0
hopper-94,false,0.41,5084,408,5077,408,267810,0
hopper-95,false,0.33,26437,999,26430,999,1370147,0
hopper-96,false,0.14,4871,237,4868,237,260607,0
hopper-97,false,0.19,4446,241,4444,241,237855,0
hopper-98,false,0.14,4871,237,4870,237,260020,0
hopper-99,false,0.22,6825,335,6824,335,366762,0
hopper-100,false,0.21,4686,268,4685,268,252198,0
