NDW:0.0
TTFW:1.2
DFPT:2.0
DFPAP:3.0
DFPMP:1.0
RIGHT_WINDOW_BORDER_X:35.0
level,win/fail,% travelled,run time,game ticks,planning time,total plannings,nodes evaluated,most backtracked nodes
ore-1,false,0.17,1441,258,1436,258,85280,0
ore-2,false,0.22,4705,402,4699,402,285934,0
ore-3,false,0.10,1196,140,1193,140,68412,0
ore-4,false,0.06,54,68,53,68,3567,0
ore-5,false,0.57,7710,781,7700,781,459663,0
ore-6,false,0.31,6854,677,6839,677,398979,0
ore-7,false,0.11,379,129,373,129,22488,0
ore-8,false,0.13,3250,281,3240,281,180313,0
ore-9,false,0.08,2586,187,2585,187,145973,0
ore-10,false,0.47,3531,573,3510,573,212166,0
ore-11,false,0.15,286,153,285,153,16642,0
ore-12,false,0.72,7933,999,7916,999,462360,0
ore-13,false,0.18,510,243,505,243,31488,0
ore-14,false,0.51,7897,847,7884,847,467842,0
ore-15,false,0.12,906,174,899,174,54143,0
ore-16,false,0.64,1648,522,1629,522,97992,0
ore-17,false,0.14,1650,211,1646,211,104090,0
ore-18,false,0.09,2774,166,2771,166,169487,0
ore-19,false,0.33,4169,491,4161,491,247424,0
ore-20,false,0.26,5334,530,5329,530,314713,0
ore-21,false,0.26,2225,338,2219,338,131030,0
ore-22,false,0.12,360,106,358,106,20654,0
ore-23,false,0.31,2081,333,2075,333,122517,0
ore-24,false,0.30,3210,500,3202,500,185902,0
ore-25,false,0.08,1915,179,1910,179,116610,0
ore-26,false,0.09,635,125,631,125,35863,0
ore-27,false,0.35,8716,640,8710,640,492478,0
ore-28,false,0.09,1792,170,1787,170,92258,0
ore-29,false,0.18,420,172,418,172,22978,0
ore-30,false,0.12,567,130,564,130,31937,0
ore-31,false,0.20,2551,272,2548,272,159917,0
ore-32,false,0.17,3466,270,3459,270,208439,0
ore-33,false,0.09,469,103,464,103,28297,0
ore-34,false,0.54,5096,625,5085,625,283535,0
ore-35,false,0.26,2259,324,2254,324,136756,0
ore-36,false,0.24,24370,999,24362,999,1486612,0
ore-37,false,0.34,6527,557,6514,557,368791,0
ore-38,false,0.08,1744,185,1743,185,96542,0
ore-39,false,0.35,3172,460,3162,460,183755,0
ore-40,false,0.11,1200,172,1197,172,65599,0
ore-41,false,0.16,3447,301,3442,301,202980,0
ore-42,false,0.18,1990,225,1987,225,121099,0
ore-43,false,0.32,2945,336,2934,336,164010,0
ore-44,false,0.09,1636,166,1633,166,102391,0
ore-45,false,0.19,641,184,636,184,38845,0
ore-46,false,0.12,1455,198,1447,198,85774,0
ore-47,false,0.42,5640,652,5620,652,334383,0
ore-48,false,0.29,6365,484,6360,484,371144,0
ore-49,false,0.27,5713,492,5706,492,343841,0
ore-50,false,0.33,5958,692,5941,692,347610,0
ore-51,false,0.41,4315,452,4307,452,260996,0
ore-52,false,0.08,1758,147,1755,147,92189,0
ore-53,false,0.07,1539,174,1535,174,92243,0
ore-54,false,0.14,963,156,959,156,57442,0
ore-55,false,0.33,2819,418,2810,418,173152,0
ore-56,false,0.13,1106,155,1101,155,65306,0
ore-57,false,0.15,4978,325,4974,325,306831,0
ore-58,false,0.08,1273,148,1270,148,73574,0
ore-59,false,0.38,9027,739,9015,739,527579,0
ore-60,false,0.39,3796,460,3785,460,199959,0
ore-61,false,0.44,7717,747,7699,747,463567,0
ore-62,false,0.10,1964,215,1959,215,113745,0
ore-63,false,0.07,371,119,368,119,21859,0
ore-64,false,0.39,4914,554,4901,554,270532,0
ore-65,false,0.29,1543,303,1535,303,89097,0
ore-66,false,0.11,1070,130,1066,130,58337,0
ore-67,false,0.13,1369,205,1364,205,78919,0
ore-68,false,0.08,1696,172,1694,172,100673,0
ore-69,false,0.22,2451,279,2443,279,146793,0
ore-70,false,0.15,2409,227,2406,227,141286,0
ore-71,false,0.32,1638,330,1631,330,98524,0
ore-72,false,0.07,729,113,726,113,39531,0
ore-73,false,0.34,4336,999,4309,999,268645,0
ore-74,false,0.43,5334,570,5320,570,316205,0
ore-75,false,0.27,4078,387,4071,387,232283,0
ore-76,false,0.37,5204,596,5188,596,312468,0
ore-77,false,0.21,1980,260,1974,260,120664,0
ore-78,false,0.58,10971,999,10952,999,662204,0
ore-79,false,0.38,5858,655,5848,655,352312,0
ore-80,false,0.13,1502,213,1497,213,86885,0
ore-81,false,0.10,353,117,350,117,21394,0
ore-82,false,0.36,18717,999,18709,999,1062220,0
ore-83,false,0.07,33,54,33,54,2266,0
ore-84,false,0.13,1950,166,1946,166,94912,0
ore-85,false,0.13,1629,197,1624,197,90415,0
ore-86,false,0.14,1856,207,1853,207,106652,0
ore-87,false,0.08,429,93,428,93,22144,0
ore-88,false,0.19,1872,257,1866,257,104033,0
ore-89,false,0.34,2838,411,2830,411,165129,0
ore-90,false,0.12,1466,174,1464,174,85944,0
ore-91,false,0.25,2960,398,2951,398,171841,0
ore-92,false,0.69,8966,935,8954,935,516775,0
ore-93,false,0.14,4926,343,4923,343,276103,0
ore-94,false,0.19,4507,392,4501,392,261295,0
ore-95,false,0.16,1235,209,1229,209,70948,0
ore-96,false,0.28,1978,380,1969,380,112292,0
ore-97,false,0.48,3307,603,3294,603,183050,0
ore-98,false,0.09,846,158,843,158,50063,0
ore-99,false,0.27,2042,326,2036,326,115057,0
ore-100,false,0.14,763,142,759,142,46568,0
