NDW:0.0
TTFW:0.6
DFPT:2.0
DFPAP:3.0
DFPMP:20.0
RIGHT_WINDOW_BORDER_X:350.0
level,win/fail,% travelled,run time,game ticks,planning time,total plannings,nodes evaluated,most backtracked nodes
ge-1,true,1.00,870,240,865,192,43250,0
ge-2,true,1.00,476,213,469,181,24595,0
ge-3,true,1.00,290,237,286,205,13354,0
ge-4,true,1.00,1198,228,1193,195,66359,0
ge-5,true,1.00,79,199,75,167,2908,0
ge-6,true,1.00,1042,232,1041,200,46009,0
ge-7,true,1.00,203,214,199,180,9248,0
ge-8,true,1.00,381,205,378,173,18104,0
ge-9,true,1.00,436,222,433,185,24376,0
ge-10,true,1.00,75,199,69,167,2653,0
ge-11,true,1.00,289,209,286,177,13761,0
ge-12,true,1.00,74,199,70,167,2594,0
ge-13,true,1.00,791,225,787,193,35894,0
ge-14,true,1.00,371,205,366,173,17583,0
ge-15,true,1.00,673,207,669,175,37022,0
ge-16,true,1.00,1112,282,1107,250,46045,0
ge-17,true,1.00,314,203,311,171,16195,0
ge-18,true,1.00,841,231,838,199,36235,0
ge-19,true,1.00,843,244,838,212,45974,0
ge-20,true,1.00,536,213,532,181,27999,0
ge-21,true,1.00,253,201,249,169,12602,0
ge-22,true,1.00,337,203,333,171,17497,0
ge-23,true,1.00,603,201,598,169,32593,0
ge-24,true,1.00,550,216,546,179,28967,0
ge-25,true,1.00,364,201,358,169,19633,0
ge-26,true,1.00,215,203,210,171,11202,0
ge-27,true,1.00,185,209,181,177,7823,0
ge-28,true,1.00,515,203,511,171,28515,0
ge-29,true,1.00,232,209,228,167,11824,0
ge-30,true,1.00,1228,226,1224,189,59245,0
ge-31,true,1.00,884,220,879,183,46137,0
ge-32,true,1.00,451,221,443,188,19545,0
ge-33,true,1.00,177,210,174,172,7966,0
ge-34,true,1.00,608,203,604,171,34875,0
ge-35,true,1.00,932,236,926,203,43474,0
ge-36,true,1.00,735,218,728,177,39172,0
ge-37,true,1.00,240,199,237,167,12819,0
ge-38,true,1.00,765,249,759,217,40455,0
ge-39,true,1.00,944,220,938,185,43623,0
ge-40,true,1.00,76,199,70,167,2918,0
ge-41,true,1.00,213,202,209,167,11043,0
ge-42,true,1.00,1302,259,1295,227,64066,0
ge-43,true,1.00,687,243,680,205,31268,0
ge-44,true,1.00,602,225,596,193,33276,0
ge-45,true,1.00,1357,217,1352,185,65156,0
ge-46,true,1.00,1057,223,1054,191,55449,0
ge-47,true,1.00,664,205,657,173,37194,0
ge-48,true,1.00,609,215,604,183,28091,0
ge-49,true,1.00,181,199,177,167,8878,0
ge-50,true,1.00,516,205,514,173,27160,0
ge-51,true,1.00,241,212,236,175,11073,0
ge-52,true,1.00,654,237,649,203,28367,0
ge-53,true,1.00,352,205,350,173,17667,0
ge-54,true,1.00,541,218,534,185,25721,0
ge-55,true,1.00,937,219,936,188,42985,0
ge-56,true,1.00,401,212,398,174,20245,0
ge-57,true,1.00,478,204,475,167,26000,0
ge-58,true,1.00,603,222,596,190,25169,0
ge-59,true,1.00,684,207,680,175,38926,0
ge-60,true,1.00,525,201,522,169,27780,0
ge-61,true,1.00,261,203,259,171,13291,0
ge-62,true,1.00,502,207,500,175,26756,0
ge-63,true,1.00,790,205,785,173,44364,0
ge-64,false,1.00,536,249,533,213,23679,0
ge-65,true,1.00,614,205,607,173,33824,0
ge-66,true,1.00,722,220,718,177,39344,0
ge-67,true,1.00,538,246,530,214,23745,0
ge-68,true,1.00,255,207,249,175,11740,0
ge-69,true,1.00,179,199,174,167,8207,0
ge-70,true,1.00,346,202,343,169,18431,0
ge-71,true,1.00,845,219,840,187,45478,0
ge-72,true,1.00,794,224,790,192,33461,0
ge-73,true,1.00,286,199,279,167,15575,0
ge-74,true,1.00,794,215,793,183,42274,0
ge-75,true,1.00,455,225,448,182,21674,0
ge-76,true,1.00,697,215,693,180,38668,0
ge-77,true,1.00,865,215,861,183,46155,0
ge-78,true,1.00,968,225,959,193,48886,0
ge-79,true,1.00,294,205,288,173,13894,0
ge-80,true,1.00,353,216,348,167,13386,0
ge-81,true,1.00,257,203,251,171,10634,0
ge-82,true,1.00,699,254,691,201,27854,0
ge-83,false,1.00,517,228,512,183,22242,0
ge-84,true,1.00,394,205,392,173,20965,0
ge-85,true,1.00,307,205,302,173,16215,0
ge-86,true,1.00,699,206,695,169,39967,0
ge-87,true,1.00,557,207,556,175,29310,0
ge-88,true,1.00,604,233,596,168,31678,0
ge-89,true,1.00,752,274,748,238,31855,0
ge-90,true,1.00,79,199,77,167,3040,0
ge-91,true,1.00,274,199,268,167,14378,0
ge-92,true,1.00,95,205,89,173,3942,0
ge-93,true,1.00,552,208,548,171,30793,0
ge-94,true,1.00,404,208,399,169,21216,0
ge-95,true,1.00,880,236,875,189,37441,0
ge-96,true,1.00,671,226,666,183,36289,0
ge-97,true,1.00,639,214,635,181,30097,0
ge-98,true,1.00,74,199,72,167,2794,0
ge-99,true,1.00,172,199,171,167,8193,0
ge-100,true,1.00,85,203,81,171,3274,0
