NDW:0.0
TTFW:1.2
DFPT:2.0
DFPAP:3.0
DFPMP:7.0
RIGHT_WINDOW_BORDER_X:255.0
level,win/fail,% travelled,run time,game ticks,planning time,total plannings,nodes evaluated,most backtracked nodes
notch-1,true,1.00,732,263,729,240,79155,0
notch-2,true,1.00,962,270,962,247,109294,0
notch-3,true,1.00,797,249,797,226,83945,0
notch-4,true,1.00,995,247,993,224,106187,0
notch-5,true,1.00,615,248,615,225,66185,0
notch-6,true,1.00,637,281,635,257,71250,0
notch-7,true,1.00,582,295,580,266,63629,0
notch-8,true,1.00,581,293,576,254,63456,0
notch-9,true,1.00,858,250,857,227,93394,0
notch-10,true,1.00,1025,273,1023,250,111804,0
notch-11,true,1.00,833,258,832,233,88749,0
notch-12,true,1.00,683,251,681,228,70773,0
notch-13,true,1.00,783,272,783,249,84709,0
notch-14,true,1.00,991,259,990,234,101794,0
notch-15,true,1.00,958,262,956,239,100211,0
notch-16,true,1.00,994,278,994,243,112471,0
notch-17,true,1.00,948,283,945,259,104269,0
notch-18,true,1.00,914,318,913,290,100857,0
notch-19,true,1.00,1196,267,1193,243,126472,0
notch-20,true,1.00,1016,288,1011,265,114351,0
notch-21,true,1.00,931,299,931,276,104004,0
notch-22,true,1.00,559,243,554,220,57039,0
notch-23,true,1.00,902,256,900,225,96040,0
notch-24,true,1.00,651,265,650,242,71205,0
notch-25,true,1.00,934,295,932,266,100632,0
notch-26,true,1.00,737,260,735,237,76498,0
notch-27,true,1.00,1467,287,1466,263,164173,0
notch-28,true,1.00,703,278,701,245,76363,0
notch-29,true,1.00,1019,270,1017,247,109572,0
notch-30,true,1.00,908,254,907,224,91305,0
notch-31,true,1.00,580,270,579,246,63464,0
notch-32,true,1.00,730,268,728,245,77606,0
notch-33,true,1.00,667,253,666,230,68851,0
notch-34,true,1.00,623,259,620,236,71976,0
notch-35,true,1.00,562,265,559,242,61994,0
notch-36,true,1.00,1094,281,1093,252,120431,0
notch-37,true,1.00,1181,288,1180,262,132480,0
notch-38,true,1.00,993,298,992,266,106611,0
notch-39,true,1.00,637,230,635,205,67162,0
notch-40,true,1.00,895,259,894,233,100934,0
notch-41,true,1.00,914,290,911,262,101488,0
notch-42,true,1.00,857,262,856,232,92228,0
notch-43,true,1.00,617,252,613,229,68964,0
notch-44,true,1.00,568,235,568,212,60442,0
notch-45,true,1.00,854,242,852,219,90485,0
notch-46,true,1.00,695,263,694,240,76062,0
notch-47,true,1.00,1016,271,1015,247,113393,0
notch-48,true,1.00,1096,267,1094,243,120883,0
notch-49,true,1.00,657,285,655,252,68496,0
notch-50,true,1.00,765,297,764,272,81106,0
notch-51,true,1.00,674,254,673,226,72647,0
notch-52,true,1.00,673,258,672,235,74822,0
notch-53,true,1.00,297,284,295,244,27075,0
notch-54,true,1.00,1127,300,1127,275,128993,0
notch-55,true,1.00,1003,296,1000,272,109785,0
notch-56,true,1.00,766,270,765,247,80232,0
notch-57,true,1.00,1047,285,1045,261,110989,0
notch-58,true,1.00,1095,296,1095,266,120820,0
notch-59,true,1.00,983,283,982,260,101640,0
notch-60,true,1.00,1026,268,1025,245,104416,0
notch-61,true,1.00,815,250,813,227,85427,0
notch-62,true,1.00,817,280,816,257,91302,0
notch-63,true,1.00,775,289,771,266,92019,0
notch-64,true,1.00,961,262,959,238,101737,0
notch-65,true,1.00,1115,314,1113,286,124050,0
notch-66,true,1.00,1126,273,1126,248,122408,0
notch-67,true,1.00,911,243,910,220,93435,0
notch-68,true,1.00,462,254,460,231,49214,0
notch-69,true,1.00,1250,288,1247,265,137939,0
notch-70,true,1.00,1157,306,1157,281,130701,0
notch-71,true,1.00,1018,245,1018,222,109057,0
notch-72,true,1.00,662,243,662,220,73279,0
notch-73,true,1.00,668,269,668,246,69966,0
notch-74,true,1.00,570,250,568,215,61107,0
notch-75,true,1.00,1129,291,1129,261,126059,0
notch-76,true,1.00,983,292,983,255,108838,0
notch-77,true,1.00,628,264,625,241,68235,0
notch-78,true,1.00,721,270,721,236,77460,0
notch-79,true,1.00,788,289,785,257,84736,0
notch-80,true,1.00,411,241,410,218,42375,0
notch-81,true,1.00,1175,249,1174,226,124508,0
notch-82,true,1.00,772,263,771,240,81636,0
notch-83,true,1.00,1044,270,1041,241,110653,0
notch-84,true,1.00,757,256,757,233,79679,0
notch-85,true,1.00,598,272,597,245,65367,0
notch-86,true,1.00,711,243,711,220,76285,0
notch-87,true,1.00,854,257,852,231,90608,0
notch-88,true,1.00,923,293,923,268,104092,0
notch-89,true,1.00,939,283,938,259,103087,0
notch-90,true,1.00,1013,255,1013,232,111483,0
notch-91,true,1.00,1439,283,1437,254,152929,0
notch-92,true,1.00,968,263,966,240,105742,0
notch-93,true,1.00,767,272,766,248,80911,0
notch-94,true,1.00,1327,273,1326,240,143188,0
notch-95,true,1.00,575,254,573,230,60757,0
notch-96,true,1.00,630,268,630,245,65196,0
notch-97,true,1.00,1113,286,1110,262,111732,0
notch-98,true,1.00,1099,257,1098,225,91510,0
notch-99,true,1.00,1221,272,1218,248,110932,0
notch-100,true,1.00,880,275,880,249,87617,0
