NDW:0.0
TTFW:1.4
DFPT:2.0
DFPAP:3.0
DFPMP:2.0
RIGHT_WINDOW_BORDER_X:235.0
level,win/fail,% travelled,run time,game ticks,planning time,total plannings,nodes evaluated,most backtracked nodes
patternCount-1,false,0.88,4815,443,4799,443,245138,0
patternCount-2,true,1.00,1150,432,1143,411,62826,0
patternCount-3,true,1.00,3555,488,3545,471,190474,0
patternCount-4,true,1.00,1232,431,1222,405,68216,0
patternCount-5,true,1.00,1515,464,1498,431,83117,0
patternCount-6,true,1.00,818,390,807,368,43828,0
patternCount-7,true,1.00,1401,399,1388,378,77343,0
patternCount-8,true,1.00,3043,461,3032,420,165492,0
patternCount-9,true,1.00,1285,414,1274,392,69090,0
patternCount-10,true,1.00,598,418,585,390,31306,0
patternCount-11,true,1.00,4558,552,4550,523,243383,0
patternCount-12,true,1.00,954,413,938,387,50608,0
patternCount-13,true,1.00,891,442,885,420,45868,0
patternCount-14,true,1.00,1448,406,1432,375,79335,0
patternCount-15,true,1.00,1171,451,1153,430,62777,0
patternCount-16,true,1.00,1314,435,1308,414,66658,0
patternCount-17,true,1.00,1366,508,1352,487,72267,0
patternCount-18,true,1.00,1741,438,1724,417,94474,0
patternCount-19,true,1.00,1335,409,1323,388,70208,0
patternCount-20,true,1.00,1275,428,1271,396,69326,0
patternCount-21,true,1.00,1603,466,1596,445,87943,0
patternCount-22,true,1.00,3359,477,3347,443,184926,0
patternCount-23,true,1.00,5894,550,5883,527,301185,0
patternCount-24,true,1.00,5593,456,5583,434,307148,0
patternCount-25,true,1.00,1468,437,1459,412,79653,0
patternCount-26,true,1.00,931,455,923,434,49358,0
patternCount-27,true,1.00,1283,418,1268,395,70274,0
patternCount-28,true,1.00,1357,467,1348,427,72602,0
patternCount-29,true,1.00,1288,431,1275,410,68873,0
patternCount-30,true,1.00,1310,490,1299,469,69920,0
patternCount-31,true,1.00,1656,483,1642,462,89956,0
patternCount-32,true,1.00,2176,490,2166,469,119063,0
patternCount-33,true,1.00,3362,481,3352,446,183140,0
patternCount-34,true,1.00,2337,469,2325,446,131904,0
patternCount-35,true,1.00,1657,488,1635,467,93465,0
patternCount-36,true,1.00,2744,497,2732,455,153262,0
patternCount-37,true,1.00,1078,404,1067,383,60415,0
patternCount-38,true,1.00,3307,511,3292,489,148266,0
patternCount-39,true,1.00,1588,486,1576,460,66230,0
patternCount-40,true,1.00,6243,503,6233,470,343211,0
patternCount-41,true,1.00,2468,451,2456,430,110613,0
patternCount-42,true,1.00,1602,422,1588,401,57916,0
patternCount-43,true,1.00,775,453,765,432,40992,0
patternCount-44,true,1.00,775,441,766,419,41074,0
patternCount-45,true,1.00,1510,484,1495,453,75136,0
patternCount-46,true,1.00,2768,445,2755,424,156346,0
patternCount-47,true,1.00,2042,454,2023,433,112626,0
patternCount-48,true,1.00,912,430,906,409,48374,0
patternCount-49,true,1.00,1395,437,1388,415,74836,0
patternCount-50,true,1.00,4443,488,4430,457,247327,0
patternCount-51,true,1.00,1087,429,1075,405,57359,0
patternCount-52,true,1.00,1080,465,1067,444,57807,0
patternCount-53,true,1.00,4260,456,4255,424,227846,0
patternCount-54,true,1.00,1958,493,1943,471,108848,0
patternCount-55,true,1.00,7242,494,7232,466,369566,0
patternCount-56,true,1.00,1549,415,1539,394,83836,0
patternCount-57,true,1.00,1122,498,1107,467,57715,0
patternCount-58,false,0.80,5900,488,5891,488,283767,0
patternCount-59,true,1.00,1324,409,1314,388,70519,0
patternCount-60,true,1.00,1486,477,1476,456,77771,0
patternCount-61,true,1.00,1385,450,1372,417,72658,0
patternCount-62,true,1.00,1427,452,1417,417,76079,0
patternCount-63,true,1.00,1201,462,1187,441,61610,0
patternCount-64,true,1.00,1111,417,1101,396,58518,0
patternCount-65,true,1.00,1370,442,1359,416,73221,0
patternCount-66,true,1.00,2511,472,2493,451,121055,0
patternCount-67,true,1.00,2129,469,2109,433,69836,0
patternCount-68,true,1.00,1048,412,1037,391,54835,0
patternCount-69,true,1.00,1209,476,1202,446,64395,0
patternCount-70,true,1.00,880,411,864,390,45579,0
patternCount-71,true,1.00,1358,483,1347,461,71891,0
patternCount-72,true,1.00,6175,506,6169,478,311993,0
patternCount-73,true,1.00,1928,485,1916,464,102127,0
patternCount-74,true,1.00,5957,468,5943,440,260343,0
patternCount-75,true,1.00,1381,487,1361,463,61765,0
patternCount-76,true,1.00,1429,437,1418,416,76261,0
patternCount-77,true,1.00,1452,410,1443,378,77511,0
patternCount-78,true,1.00,1650,462,1631,441,83723,0
patternCount-79,true,1.00,4945,487,4934,458,262559,0
patternCount-80,true,1.00,3409,490,3397,456,181199,0
patternCount-81,true,1.00,1263,449,1255,428,66590,0
patternCount-82,true,1.00,1353,457,1341,436,71956,0
patternCount-83,true,1.00,1019,419,1001,398,53487,0
patternCount-84,true,1.00,813,441,803,420,40426,0
patternCount-85,true,1.00,1223,410,1219,389,66679,0
patternCount-86,true,1.00,1244,440,1225,419,67028,0
patternCount-87,true,1.00,1577,480,1567,454,84909,0
patternCount-88,true,1.00,1668,470,1659,436,90645,0
patternCount-89,true,1.00,1194,439,1184,418,63798,0
patternCount-90,true,1.00,936,411,924,390,49376,0
patternCount-91,true,1.00,1998,483,1984,462,107147,0
patternCount-92,true,1.00,990,430,971,409,51598,0
patternCount-93,true,1.00,8132,619,8126,583,422466,0
patternCount-94,true,1.00,1882,453,1862,428,81673,0
patternCount-95,true,1.00,2640,465,2616,444,75491,0
patternCount-96,true,1.00,1583,470,1568,448,79033,0
patternCount-97,false,0.82,3515,390,3507,390,184179,0
patternCount-98,true,1.00,1697,449,1683,428,92486,0
patternCount-99,true,1.00,1148,441,1133,420,60269,0
patternCount-100,true,1.00,1006,397,996,376,51994,0
