NDW:0.0
TTFW:2.0
DFPT:2.0
DFPAP:3.0
DFPMP:5.0
RIGHT_WINDOW_BORDER_X:350.0
level,win/fail,% travelled,run time,game ticks,planning time,total plannings,nodes evaluated,most backtracked nodes
patternOccur-1,true,1.00,1430,509,1411,477,77013,0
patternOccur-2,true,1.00,1588,460,1583,428,86231,0
patternOccur-3,true,1.00,2009,524,1994,491,107765,0
patternOccur-4,true,1.00,2324,536,2297,504,73944,0
patternOccur-5,true,1.00,1542,519,1531,485,81363,0
patternOccur-6,true,1.00,2156,562,2146,530,118667,0
patternOccur-7,true,1.00,2577,573,2558,524,141151,0
patternOccur-8,true,1.00,1791,469,1780,437,100701,0
patternOccur-9,true,1.00,2394,486,2381,444,140364,0
patternOccur-10,true,1.00,1156,505,1136,467,61628,0
patternOccur-11,true,1.00,4491,587,4480,538,231680,0
patternOccur-12,true,1.00,2647,573,2626,510,103863,0
patternOccur-13,true,1.00,1053,426,1041,394,55860,0
patternOccur-14,true,1.00,3779,596,3764,511,211585,0
patternOccur-15,true,1.00,1898,506,1888,474,107107,0
patternOccur-16,true,1.00,4367,516,4356,475,239523,0
patternOccur-17,true,1.00,1770,571,1749,525,98072,0
patternOccur-18,true,1.00,1273,527,1256,477,65561,0
patternOccur-19,false,0.83,4464,485,4456,485,240159,0
patternOccur-20,true,1.00,2730,561,2720,529,155185,0
patternOccur-21,true,1.00,1407,500,1392,460,78358,0
patternOccur-22,true,1.00,4068,535,4056,478,220796,0
patternOccur-23,true,1.00,2604,498,2579,466,93662,0
patternOccur-24,true,1.00,1783,510,1773,477,93479,0
patternOccur-25,true,1.00,2294,522,2275,488,93777,0
patternOccur-26,true,1.00,1450,464,1428,432,48981,0
patternOccur-27,true,1.00,3539,540,3521,477,184944,0
patternOccur-28,true,1.00,2083,491,2072,456,114865,0
patternOccur-29,true,1.00,1268,440,1247,398,70733,0
patternOccur-30,true,1.00,1596,511,1581,479,85542,0
patternOccur-31,true,1.00,4142,482,4130,447,228064,0
patternOccur-32,true,1.00,4709,552,4697,513,248622,0
patternOccur-33,true,1.00,1154,494,1146,458,59583,0
patternOccur-34,true,1.00,1750,516,1736,473,95416,0
patternOccur-35,true,1.00,1365,513,1353,478,69554,0
patternOccur-36,true,1.00,3366,504,3353,472,192195,0
patternOccur-37,true,1.00,4956,590,4929,538,211645,0
patternOccur-38,true,1.00,1660,512,1641,480,84779,0
patternOccur-39,true,1.00,3489,485,3486,436,197789,0
patternOccur-40,true,1.00,1981,513,1967,477,112115,0
patternOccur-41,true,1.00,1466,509,1454,467,81690,0
patternOccur-42,false,0.89,3369,504,3366,504,169420,0
patternOccur-43,true,1.00,1726,484,1709,452,101825,0
patternOccur-44,true,1.00,1343,490,1330,456,74980,0
patternOccur-45,true,1.00,1539,443,1525,411,83907,0
patternOccur-46,true,1.00,1297,492,1287,458,71212,0
patternOccur-47,true,1.00,3154,485,3144,428,178386,0
patternOccur-48,true,1.00,1554,479,1543,447,88722,0
patternOccur-49,true,1.00,1646,493,1632,461,90373,0
patternOccur-50,true,1.00,2609,512,2595,476,146453,0
patternOccur-51,true,1.00,1858,588,1845,530,103983,0
patternOccur-52,true,1.00,1640,465,1632,410,89556,0
patternOccur-53,true,1.00,1860,474,1850,442,109979,0
patternOccur-54,true,1.00,2469,522,2455,479,144013,0
patternOccur-55,true,1.00,1887,470,1872,438,108956,0
patternOccur-56,true,1.00,1775,535,1756,503,102653,0
patternOccur-57,true,1.00,2411,548,2401,508,139049,0
patternOccur-58,true,1.00,5052,541,5045,503,284103,0
patternOccur-59,true,1.00,1891,510,1880,475,109616,0
patternOccur-60,true,1.00,3168,529,3153,474,164927,0
patternOccur-61,true,1.00,2000,533,1984,491,85830,0
patternOccur-62,true,1.00,1973,532,1954,500,78392,0
patternOccur-63,true,1.00,1693,513,1684,464,86653,0
patternOccur-64,true,1.00,2074,560,2064,510,118878,0
patternOccur-65,true,1.00,1316,473,1308,441,71092,0
patternOccur-66,true,1.00,2233,486,2225,453,129410,0
patternOccur-67,false,0.88,3425,443,3417,443,182446,0
patternOccur-68,true,1.00,1330,549,1316,517,70330,0
patternOccur-69,true,1.00,4524,584,4519,515,232747,0
patternOccur-70,true,1.00,4869,486,4859,448,248617,0
patternOccur-71,true,1.00,2658,593,2644,542,151840,0
patternOccur-72,false,0.87,3252,446,3238,446,162305,0
patternOccur-73,true,1.00,3753,520,3738,470,180800,0
patternOccur-74,true,1.00,3084,481,3075,429,170826,0
patternOccur-75,true,1.00,2195,502,2187,468,119613,0
patternOccur-76,true,1.00,2210,523,2197,491,124315,0
patternOccur-77,true,1.00,1456,517,1442,485,74251,0
patternOccur-78,true,1.00,834,449,827,417,43868,0
patternOccur-79,true,1.00,1969,500,1958,468,114025,0
patternOccur-80,true,1.00,3646,567,3640,520,202160,0
patternOccur-81,true,1.00,4318,519,4313,464,233791,0
patternOccur-82,true,1.00,2530,535,2516,502,140721,0
patternOccur-83,false,0.82,3615,483,3602,483,185324,0
patternOccur-84,true,1.00,1412,461,1401,429,76954,0
patternOccur-85,true,1.00,2766,536,2757,504,153997,0
patternOccur-86,true,1.00,3929,482,3919,424,213561,0
patternOccur-87,true,1.00,1540,548,1525,508,88391,0
patternOccur-88,true,1.00,1706,510,1694,475,98027,0
patternOccur-89,true,1.00,1966,499,1960,466,113094,0
patternOccur-90,true,1.00,2161,544,2146,489,123596,0
patternOccur-91,true,1.00,1376,491,1358,445,73706,0
patternOccur-92,true,1.00,1006,472,991,440,52909,0
patternOccur-93,true,1.00,1619,534,1606,499,90493,0
patternOccur-94,true,1.00,4945,530,4933,479,266589,0
patternOccur-95,true,1.00,1320,507,1310,453,71495,0
patternOccur-96,false,0.86,3050,497,3035,497,150801,0
patternOccur-97,true,1.00,2507,495,2494,429,140912,0
patternOccur-98,false,0.90,4044,486,4036,486,210194,0
patternOccur-99,true,1.00,1051,474,1039,428,56525,0
patternOccur-100,true,1.00,1392,476,1375,438,76066,0
