NDW:0.0
TTFW:1.6
DFPT:2.0
DFPAP:3.0
DFPMP:2.0
RIGHT_WINDOW_BORDER_X:35.0
level,win/fail,% travelled,run time,game ticks,planning time,total plannings,nodes evaluated,most backtracked nodes
hopper-1,false,0.21,1958,200,1949,200,80195,0
hopper-2,false,0.13,2329,157,2327,157,109779,0
hopper-3,false,0.23,28250,999,28246,999,1347737,0
hopper-4,false,0.26,1870,194,1867,194,96355,0
hopper-5,false,0.13,2327,157,2326,157,115979,0
hopper-6,false,0.29,27410,999,27406,999,1314490,0
hopper-7,false,0.13,2329,157,2327,157,111926,0
hopper-8,false,0.41,4445,376,4438,376,190160,0
hopper-9,false,0.13,2327,157,2323,157,102841,0
hopper-10,false,0.27,27431,999,27425,999,1286742,0
hopper-11,false,0.22,2917,266,2914,266,151032,0
hopper-12,false,0.32,2418,245,2411,245,119647,0
hopper-13,false,0.13,2327,157,2325,157,109548,0
hopper-14,false,0.13,2332,157,2328,157,109087,0
hopper-15,false,0.13,2327,157,2322,157,112500,0
hopper-16,false,0.13,2329,157,2328,157,112363,0
hopper-17,false,0.30,1970,254,1964,254,69570,0
hopper-18,false,0.28,1227,209,1222,209,57837,0
hopper-19,false,0.33,3492,288,3487,288,174859,0
hopper-20,false,0.13,2329,157,2328,157,102981,0
hopper-21,false,0.13,2342,157,2341,157,102535,0
hopper-22,false,0.32,3950,315,3947,315,199408,0
hopper-23,false,0.13,2326,157,2323,157,113337,0
hopper-24,false,0.20,1621,192,1616,192,81981,0
hopper-25,false,0.31,1394,250,1389,250,68677,0
hopper-26,false,0.13,2327,157,2324,157,85687,0
hopper-27,false,0.13,2342,157,2337,157,84241,0
hopper-28,false,0.19,2255,225,2254,225,109549,0
hopper-29,false,0.25,3431,239,3430,239,138024,0
hopper-30,false,0.13,2332,157,2330,157,111962,0
hopper-31,false,0.13,2328,157,2327,157,114769,0
hopper-32,false,0.33,1874,231,1873,231,96398,0
hopper-33,false,0.49,3194,393,3180,393,116426,0
hopper-34,false,0.13,2340,157,2336,157,104816,0
hopper-35,false,0.13,2326,157,2324,157,115709,0
hopper-36,false,0.13,2327,157,2325,157,115829,0
hopper-37,false,0.41,1594,311,1587,311,82441,0
hopper-38,false,0.13,4213,219,4213,219,178810,0
hopper-39,false,0.36,3703,367,3698,367,183263,0
hopper-40,false,0.21,2766,211,2761,211,134019,0
hopper-41,false,0.24,3178,239,3175,239,154995,0
hopper-42,false,0.13,2328,157,2326,157,112561,0
hopper-43,false,0.13,2327,157,2324,157,112749,0
hopper-44,false,0.31,1997,246,1992,246,98089,0
hopper-45,false,0.21,1681,199,1676,199,83078,0
hopper-46,false,0.33,2448,308,2440,308,105174,0
hopper-47,false,0.32,2413,263,2406,263,96311,0
hopper-48,false,0.13,2328,157,2327,157,115955,0
hopper-49,false,0.13,2327,157,2325,157,117015,0
hopper-50,false,0.46,4033,450,4024,450,204802,0
hopper-51,false,0.33,3437,301,3434,301,170368,0
hopper-52,false,0.30,2261,272,2254,272,116063,0
hopper-53,false,0.13,2327,157,2324,157,115966,0
hopper-54,false,0.32,3109,306,3102,306,157737,0
hopper-55,false,0.54,6547,658,6536,658,298110,0
hopper-56,false,0.29,1943,229,1941,229,95789,0
hopper-57,false,0.28,2391,238,2384,238,97300,0
hopper-58,false,0.39,5330,458,5321,458,267645,0
hopper-59,false,0.20,2587,231,2586,231,135880,0
hopper-60,false,0.31,1144,236,1140,236,58826,0
hopper-61,false,0.13,2327,157,2323,157,115738,0
hopper-62,false,0.13,2326,157,2323,157,115250,0
hopper-63,false,0.22,681,151,679,151,32668,0
hopper-64,false,0.13,2327,157,2326,157,109525,0
hopper-65,false,0.13,2343,157,2341,157,115325,0
hopper-66,false,0.30,3952,313,3944,313,197825,0
hopper-67,false,0.31,2565,240,2563,240,124736,0
hopper-68,false,0.29,1522,235,1517,235,76089,0
hopper-69,false,0.14,1309,132,1306,132,63376,0
hopper-70,false,0.37,2724,320,2714,320,132270,0
hopper-71,false,0.29,2440,245,2435,245,121649,0
hopper-72,false,0.22,3897,270,3893,270,188872,0
hopper-73,false,0.13,2328,157,2323,157,113622,0
hopper-74,false,0.31,3063,290,3062,290,149566,0
hopper-75,false,0.13,2329,157,2328,157,112999,0
hopper-76,false,0.13,2327,157,2327,157,101559,0
hopper-77,false,0.39,3504,341,3490,341,149878,0
hopper-78,false,0.31,2331,224,2330,224,117774,0
hopper-79,false,0.13,2328,157,2325,157,115999,0
hopper-80,false,0.13,2326,157,2325,157,116020,0
hopper-81,false,0.13,2327,157,2324,157,115753,0
hopper-82,false,0.13,2327,157,2326,157,115751,0
hopper-83,false,0.13,2332,157,2331,157,114483,0
hopper-84,false,0.13,2326,157,2325,157,115922,0
hopper-85,false,0.31,1997,246,1991,246,101169,0
hopper-86,false,0.13,2327,157,2325,157,114660,0
hopper-87,false,0.13,2329,157,2328,157,82378,0
hopper-88,false,0.13,2338,157,2335,157,105072,0
hopper-89,false,0.13,2328,157,2327,157,113041,0
hopper-90,false,0.13,2329,157,2327,157,113185,0
hopper-91,false,0.39,3062,348,3052,348,148002,0
hopper-92,false,0.13,2328,157,2325,157,113809,0
hopper-93,false,0.28,2348,238,2344,238,121396,0
hopper-94,false,0.42,3453,373,3448,373,176170,0
hopper-95,false,0.34,2497,295,2490,295,126615,0
hopper-96,false,0.13,2327,157,2326,157,113967,0
hopper-97,false,0.13,2327,157,2327,157,115795,0
hopper-98,false,0.13,2326,157,2323,157,116402,0
hopper-99,false,0.13,2326,157,2325,157,115919,0
hopper-100,false,0.21,3841,252,3837,252,134788,0
