NDW:0.0
TTFW:1.0
DFPT:2.0
DFPAP:3.0
DFPMP:20.0
RIGHT_WINDOW_BORDER_X:295.0
level,win/fail,% travelled,run time,game ticks,planning time,total plannings,nodes evaluated,most backtracked nodes
patternOccur-1,true,1.00,1179,478,1166,451,59805,0
patternOccur-2,true,1.00,1136,432,1127,405,56183,0
patternOccur-3,true,1.00,2057,464,2044,436,111288,0
patternOccur-4,true,1.00,1618,481,1605,454,86998,0
patternOccur-5,true,1.00,996,449,989,421,51094,0
patternOccur-6,true,1.00,1474,439,1463,412,78831,0
patternOccur-7,true,1.00,1467,440,1459,404,78410,0
patternOccur-8,true,1.00,1647,426,1639,399,89382,0
patternOccur-9,true,1.00,1675,454,1664,418,90561,0
patternOccur-10,true,1.00,1129,428,1120,400,58783,0
patternOccur-11,true,1.00,3775,460,3764,426,192192,0
patternOccur-12,true,1.00,1844,500,1830,455,99167,0
patternOccur-13,true,1.00,868,421,856,394,43986,0
patternOccur-14,true,1.00,3490,438,3484,410,185909,0
patternOccur-15,true,1.00,1410,447,1401,420,75881,0
patternOccur-16,true,1.00,4134,497,4122,444,209620,0
patternOccur-17,true,1.00,1701,453,1683,426,89186,0
patternOccur-18,true,1.00,1172,458,1157,424,60176,0
patternOccur-19,false,0.83,3284,400,3276,400,168221,0
patternOccur-20,true,1.00,1192,443,1183,416,62619,0
patternOccur-21,true,1.00,1108,463,1093,429,58780,0
patternOccur-22,false,0.84,3915,438,3905,438,202692,0
patternOccur-23,true,1.00,1870,477,1858,451,98609,0
patternOccur-24,true,1.00,1214,472,1202,445,62993,0
patternOccur-25,true,1.00,1737,448,1720,420,92974,0
patternOccur-26,true,1.00,812,392,800,366,41540,0
patternOccur-27,true,1.00,2635,410,2625,371,133057,0
patternOccur-28,true,1.00,1810,472,1795,444,88871,0
patternOccur-29,true,1.00,1128,432,1116,396,55707,0
patternOccur-30,true,1.00,1147,467,1131,440,55964,0
patternOccur-31,true,1.00,4283,440,4270,405,223309,0
patternOccur-32,false,0.89,3027,415,3013,415,165989,0
patternOccur-33,true,1.00,1352,445,1342,417,72538,0
patternOccur-34,true,1.00,1307,431,1296,393,70217,0
patternOccur-35,true,1.00,1084,423,1074,395,56100,0
patternOccur-36,true,1.00,2882,405,2863,378,107067,0
patternOccur-37,true,1.00,2943,443,2934,406,155233,0
patternOccur-38,true,1.00,1169,415,1157,389,61909,0
patternOccur-39,true,1.00,2466,420,2456,392,131445,0
patternOccur-40,true,1.00,1660,425,1650,398,92164,0
patternOccur-41,true,1.00,1295,410,1282,374,69560,0
patternOccur-42,false,0.89,3071,430,3059,430,157145,0
patternOccur-43,true,1.00,1172,419,1164,392,62868,0
patternOccur-44,true,1.00,1175,407,1170,378,63902,0
patternOccur-45,true,1.00,1604,434,1583,377,84571,0
patternOccur-46,true,1.00,1375,441,1360,414,73767,0
patternOccur-47,true,1.00,3403,498,3387,451,176336,0
patternOccur-48,true,1.00,1240,424,1231,397,66847,0
patternOccur-49,true,1.00,1443,411,1427,384,78412,0
patternOccur-50,true,1.00,2120,440,2114,413,111265,0
patternOccur-51,true,1.00,1618,456,1607,416,88319,0
patternOccur-52,true,1.00,1575,444,1562,407,83568,0
patternOccur-53,true,1.00,1494,406,1483,379,78866,0
patternOccur-54,true,1.00,2009,423,1995,396,111474,0
patternOccur-55,true,1.00,1342,405,1330,378,72591,0
patternOccur-56,true,1.00,1512,490,1494,463,80681,0
patternOccur-57,true,1.00,1752,443,1738,404,96492,0
patternOccur-58,true,1.00,5133,500,5121,468,275554,0
patternOccur-59,true,1.00,1550,434,1542,406,84833,0
patternOccur-60,true,1.00,2596,465,2585,434,136676,0
patternOccur-61,true,1.00,1479,433,1469,397,80862,0
patternOccur-62,true,1.00,1413,436,1395,409,75681,0
patternOccur-63,true,1.00,1525,443,1507,406,83748,0
patternOccur-64,true,1.00,1700,501,1684,449,90896,0
patternOccur-65,true,1.00,1296,439,1285,412,67697,0
patternOccur-66,true,1.00,1585,461,1574,434,84699,0
patternOccur-67,false,0.89,3964,445,3951,445,191718,0
patternOccur-68,true,1.00,1224,469,1214,442,64000,0
patternOccur-69,true,1.00,2852,430,2845,393,151184,0
patternOccur-70,true,1.00,3920,477,3907,444,198628,0
patternOccur-71,true,1.00,1856,461,1846,434,104188,0
patternOccur-72,true,1.00,2641,460,2630,405,134830,0
patternOccur-73,true,1.00,4064,489,4056,448,211762,0
patternOccur-74,true,1.00,3130,469,3117,423,160135,0
patternOccur-75,true,1.00,2194,430,2182,402,117117,0
patternOccur-76,true,1.00,1446,413,1437,386,77279,0
patternOccur-77,true,1.00,1067,427,1058,400,54035,0
patternOccur-78,true,1.00,998,417,984,390,51787,0
patternOccur-79,true,1.00,1298,444,1290,417,68901,0
patternOccur-80,true,1.00,2547,463,2537,419,134826,0
patternOccur-81,true,1.00,3367,440,3356,410,172717,0
patternOccur-82,true,1.00,2189,482,2177,455,117137,0
patternOccur-83,false,0.82,2948,405,2934,405,146306,0
patternOccur-84,true,1.00,1102,380,1089,353,59063,0
patternOccur-85,true,1.00,1937,452,1922,425,105402,0
patternOccur-86,true,1.00,4574,504,4567,439,225394,0
patternOccur-87,true,1.00,827,436,813,409,42581,0
patternOccur-88,true,1.00,1252,429,1244,401,68621,0
patternOccur-89,true,1.00,1402,470,1396,443,73368,0
patternOccur-90,true,1.00,1531,479,1521,441,82973,0
patternOccur-91,true,1.00,1251,423,1241,390,66784,0
patternOccur-92,true,1.00,932,436,922,409,47573,0
patternOccur-93,true,1.00,1313,420,1304,392,71106,0
patternOccur-94,true,1.00,3831,481,3823,440,192271,0
patternOccur-95,true,1.00,1236,484,1225,444,65403,0
patternOccur-96,false,0.87,2365,419,2359,419,119336,0
patternOccur-97,true,1.00,1512,407,1504,380,82051,0
patternOccur-98,false,0.90,2683,443,2672,443,135483,0
patternOccur-99,true,1.00,891,448,879,421,45729,0
patternOccur-100,true,1.00,1629,466,1615,434,84292,0
