NDW:0.0
TTFW:0.2
DFPT:2.0
DFPAP:3.0
DFPMP:7.0
RIGHT_WINDOW_BORDER_X:176.0
level,win/fail,% travelled,run time,game ticks,planning time,total plannings,nodes evaluated,most backtracked nodes
notchParam-1,true,1.00,1829,320,1826,304,169818,0
notchParam-2,true,1.00,2125,339,2124,323,188721,0
notchParam-3,true,1.00,1335,330,1334,314,121677,0
notchParam-4,true,1.00,1315,311,1312,295,121778,0
notchParam-5,true,1.00,1328,302,1325,286,125000,0
notchParam-6,true,1.00,1555,318,1554,302,124469,0
notchParam-7,true,1.00,2689,377,2689,361,245052,0
notchParam-8,true,1.00,2017,344,2015,328,185945,0
notchParam-9,true,1.00,1188,315,1186,299,111688,0
notchParam-10,true,1.00,1676,322,1674,306,153205,0
notchParam-11,true,1.00,1248,298,1245,282,119131,0
notchParam-12,true,1.00,1991,348,1990,332,178639,0
notchParam-13,true,1.00,1098,302,1097,286,105467,0
notchParam-14,true,1.00,1023,298,1020,282,98500,0
notchParam-15,true,1.00,3416,391,3412,375,291139,0
notchParam-16,true,1.00,2722,352,2722,336,243393,0
notchParam-17,true,1.00,1752,316,1750,300,163948,0
notchParam-18,true,1.00,1210,316,1210,300,111917,0
notchParam-19,true,1.00,1131,324,1128,308,104385,0
notchParam-20,true,1.00,1030,298,1028,282,98950,0
notchParam-21,true,1.00,1117,306,1116,290,104671,0
notchParam-22,true,1.00,1159,308,1158,292,108616,0
notchParam-23,true,1.00,2223,353,2222,337,199651,0
notchParam-24,true,1.00,1901,330,1899,314,179527,0
notchParam-25,true,1.00,1699,318,1697,302,157329,0
notchParam-26,true,1.00,2224,354,2219,338,201104,0
notchParam-27,true,1.00,1047,308,1046,292,100554,0
notchParam-28,true,1.00,1316,312,1316,296,122379,0
notchParam-29,true,1.00,1377,310,1375,294,131585,0
notchParam-30,true,1.00,1096,298,1096,282,108158,0
notchParam-31,true,1.00,2292,336,2290,320,209971,0
notchParam-32,true,1.00,1604,302,1604,286,154698,0
notchParam-33,true,1.00,1149,308,1147,292,112287,0
notchParam-34,true,1.00,2737,352,2735,336,246066,0
notchParam-35,true,1.00,2363,343,2362,327,211803,0
notchParam-36,true,1.00,1509,294,1508,278,147346,0
notchParam-37,true,1.00,1092,298,1091,282,107451,0
notchParam-38,true,1.00,1207,308,1207,292,116532,0
notchParam-39,true,1.00,2417,344,2417,328,217261,0
notchParam-40,true,1.00,1360,314,1359,298,127960,0
notchParam-41,true,1.00,1589,336,1585,320,144153,0
notchParam-42,true,1.00,1085,310,1083,293,103083,0
notchParam-43,true,1.00,1799,316,1796,300,168014,0
notchParam-44,true,1.00,2543,351,2539,335,195967,0
notchParam-45,true,1.00,1599,302,1598,286,150265,0
notchParam-46,true,1.00,1847,328,1846,312,169126,0
notchParam-47,true,1.00,1054,294,1051,278,102529,0
notchParam-48,true,1.00,1152,318,1149,302,103725,0
notchParam-49,true,1.00,1173,314,1172,298,108330,0
notchParam-50,true,1.00,1983,362,1982,346,163587,0
notchParam-51,true,1.00,1025,308,1023,292,96987,0
notchParam-52,true,1.00,1933,325,1930,309,179122,0
notchParam-53,true,1.00,2810,358,2808,342,243822,0
notchParam-54,true,1.00,2418,351,2414,335,216241,0
notchParam-55,true,1.00,2026,360,2022,344,174741,0
notchParam-56,true,1.00,1052,296,1048,280,102473,0
notchParam-57,true,1.00,2596,371,2594,355,235765,0
notchParam-58,true,1.00,1284,327,1283,311,118849,0
notchParam-59,true,1.00,2317,357,2314,341,208946,0
notchParam-60,true,1.00,1791,348,1789,332,158919,0
notchParam-61,true,1.00,2172,356,2170,340,195924,0
notchParam-62,true,1.00,1512,306,1512,290,141100,0
notchParam-63,true,1.00,1095,306,1094,290,103769,0
notchParam-64,true,1.00,1132,306,1130,290,108039,0
notchParam-65,true,1.00,1135,300,1133,284,108398,0
notchParam-66,true,1.00,1663,338,1662,322,145626,0
notchParam-67,true,1.00,2287,330,2286,314,207233,0
notchParam-68,true,1.00,1795,314,1793,298,166011,0
notchParam-69,true,1.00,1455,294,1454,278,138116,0
notchParam-70,true,1.00,2370,360,2367,344,214542,0
notchParam-71,true,1.00,1711,350,1708,334,154017,0
notchParam-72,true,1.00,1367,344,1366,328,124238,0
notchParam-73,true,1.00,1143,320,1141,304,106123,0
notchParam-74,true,1.00,1203,308,1201,292,113028,0
notchParam-75,true,1.00,1475,328,1472,312,135570,0
notchParam-76,true,1.00,1856,336,1853,320,169596,0
notchParam-77,true,1.00,1601,336,1598,320,148718,0
notchParam-78,true,1.00,2004,342,2003,326,184478,0
notchParam-79,true,1.00,1218,315,1216,298,116507,0
notchParam-80,true,1.00,1211,310,1209,294,114976,0
notchParam-81,true,1.00,1158,300,1155,284,111153,0
notchParam-82,true,1.00,1108,306,1108,290,106828,0
notchParam-83,true,1.00,1075,294,1072,278,106232,0
notchParam-84,true,1.00,1924,316,1921,300,179559,0
notchParam-85,true,1.00,2259,336,2256,320,203309,0
notchParam-86,true,1.00,2079,346,2078,330,187936,0
notchParam-87,true,1.00,968,310,968,294,95015,0
notchParam-88,true,1.00,990,304,988,288,94862,0
notchParam-89,true,1.00,1022,296,1021,280,100116,0
notchParam-90,true,1.00,1214,324,1214,308,112301,0
notchParam-91,true,1.00,1726,322,1723,306,153465,0
notchParam-92,true,1.00,1611,296,1611,280,150292,0
notchParam-93,true,1.00,2321,368,2319,351,209803,0
notchParam-94,true,1.00,1932,326,1930,310,177067,0
notchParam-95,true,1.00,2234,355,2228,339,199070,0
notchParam-96,true,1.00,1217,308,1215,292,113683,0
notchParam-97,true,1.00,1268,322,1268,306,118277,0
notchParam-98,true,1.00,1153,310,1148,294,110183,0
notchParam-99,true,1.00,2441,349,2438,333,222649,0
notchParam-100,true,1.00,1569,300,1569,284,150123,0
