NDW:0.0
TTFW:1.6
DFPT:2.0
DFPAP:3.0
DFPMP:50.0
RIGHT_WINDOW_BORDER_X:155.0
level,win/fail,% travelled,run time,game ticks,planning time,total plannings,nodes evaluated,most backtracked nodes
ge-1,true,1.00,410,244,410,216,46417,0
ge-2,true,1.00,358,220,357,206,41243,0
ge-3,true,1.00,153,248,152,234,14384,0
ge-4,true,1.00,895,237,894,223,95364,0
ge-5,true,1.00,19,199,15,185,1692,0
ge-6,true,1.00,272,236,272,221,28877,0
ge-7,true,1.00,98,222,95,208,9440,0
ge-8,true,1.00,197,227,194,213,20475,0
ge-9,true,1.00,464,236,462,222,51588,0
ge-10,true,1.00,19,199,19,185,1585,0
ge-11,true,1.00,127,222,127,208,13182,0
ge-12,true,1.00,19,199,18,185,1504,0
ge-13,true,1.00,237,241,236,226,26725,0
ge-14,true,1.00,129,226,127,199,13141,0
ge-15,true,1.00,492,221,490,207,51748,0
ge-16,true,1.00,241,251,240,237,26938,0
ge-17,true,1.00,225,207,220,193,26967,0
ge-18,true,1.00,607,257,605,243,71091,0
ge-19,true,1.00,444,267,441,245,49186,0
ge-20,true,1.00,262,224,261,210,28454,0
ge-21,true,1.00,184,201,182,187,18399,0
ge-22,true,1.00,252,206,252,192,27685,0
ge-23,true,1.00,491,204,491,189,53920,0
ge-24,true,1.00,327,224,324,210,35250,0
ge-25,true,1.00,285,201,284,187,30828,0
ge-26,true,1.00,184,205,183,191,20436,0
ge-27,true,1.00,25,215,22,201,2466,0
ge-28,true,1.00,419,201,418,187,43682,0
ge-29,true,1.00,183,220,183,185,18737,0
ge-30,true,1.00,951,249,951,235,108198,0
ge-31,true,1.00,492,222,492,208,53436,0
ge-32,true,1.00,95,216,93,202,10210,0
ge-33,true,1.00,96,244,96,219,9582,0
ge-34,true,1.00,620,214,619,199,68530,0
ge-35,true,1.00,281,259,279,245,27977,0
ge-36,false,1.00,577,260,575,238,63688,0
ge-37,true,1.00,187,204,187,189,20830,0
ge-38,true,1.00,1085,236,1085,222,112309,0
ge-39,true,1.00,197,220,196,206,21668,0
ge-40,true,1.00,18,199,17,185,1603,0
ge-41,true,1.00,185,211,183,191,21064,0
ge-42,true,1.00,460,222,458,208,49681,0
ge-43,true,1.00,229,228,228,214,26063,0
ge-44,true,1.00,419,219,418,195,43439,0
ge-45,true,1.00,471,232,469,218,49433,0
ge-46,true,1.00,532,236,527,222,55261,0
ge-47,true,1.00,590,235,590,221,61051,0
ge-48,true,1.00,227,221,224,207,23865,0
ge-49,true,1.00,117,200,115,186,12856,0
ge-50,true,1.00,487,218,486,204,50449,0
ge-51,true,1.00,96,222,94,208,9999,0
ge-52,true,1.00,324,278,324,262,34835,0
ge-53,true,1.00,155,209,154,195,17358,0
ge-54,true,1.00,200,235,200,221,26269,0
ge-55,true,1.00,229,217,227,203,24138,0
ge-56,true,1.00,407,243,403,217,44069,0
ge-57,true,1.00,524,213,523,198,59295,0
ge-58,true,1.00,103,234,103,220,10340,0
ge-59,true,1.00,789,225,789,211,87494,0
ge-60,true,1.00,586,213,584,199,61558,0
ge-61,true,1.00,184,203,184,189,20920,0
ge-62,true,1.00,714,219,713,205,79710,0
ge-63,true,1.00,618,210,617,196,73296,0
ge-64,true,1.00,394,247,393,214,40779,0
ge-65,true,1.00,464,217,462,203,53034,0
ge-66,true,1.00,460,221,459,204,49205,0
ge-67,true,1.00,213,259,211,245,21869,0
ge-68,true,1.00,96,221,95,207,9081,0
ge-69,true,1.00,188,199,188,185,19632,0
ge-70,true,1.00,259,215,259,201,27541,0
ge-71,true,1.00,765,230,765,216,82741,0
ge-72,true,1.00,112,250,110,236,12359,0
ge-73,true,1.00,261,222,258,200,28411,0
ge-74,true,1.00,564,234,564,220,57819,0
ge-75,true,1.00,165,232,164,197,19847,0
ge-76,true,1.00,716,221,715,207,79271,0
ge-77,true,1.00,980,236,979,222,109258,0
ge-78,true,1.00,516,280,515,253,55508,0
ge-79,true,1.00,124,212,122,198,13849,0
ge-80,true,1.00,32,217,31,202,2716,0
ge-81,true,1.00,29,213,28,199,2793,0
ge-82,true,1.00,38,233,36,202,3888,0
ge-83,false,1.00,436,250,432,224,50313,0
ge-84,true,1.00,619,213,618,199,66504,0
ge-85,true,1.00,224,209,223,195,24816,0
ge-86,true,1.00,618,204,616,189,67273,0
ge-87,true,1.00,500,224,497,210,58466,0
ge-88,true,1.00,387,228,387,214,44652,0
ge-89,true,1.00,111,242,110,228,11285,0
ge-90,true,1.00,18,199,17,185,1663,0
ge-91,true,1.00,215,199,215,185,22547,0
ge-92,true,1.00,21,205,21,191,2052,0
ge-93,true,1.00,659,217,658,203,71704,0
ge-94,true,1.00,352,206,351,192,40165,0
ge-95,true,1.00,67,271,67,257,6442,0
ge-96,true,1.00,571,256,569,236,61970,0
ge-97,true,1.00,646,263,646,249,72431,0
ge-98,true,1.00,18,199,17,185,1551,0
ge-99,true,1.00,116,199,116,185,11181,0
ge-100,true,1.00,255,217,255,203,27233,0
