NDW:0.0
TTFW:0.6
DFPT:2.0
DFPAP:3.0
DFPMP:10.0
RIGHT_WINDOW_BORDER_X:215.0
level,win/fail,% travelled,run time,game ticks,planning time,total plannings,nodes evaluated,most backtracked nodes
patternWeightCount-1,true,1.00,2940,420,2927,388,119018,0
patternWeightCount-2,true,1.00,908,352,901,333,38209,0
patternWeightCount-3,true,1.00,761,395,750,375,36971,0
patternWeightCount-4,true,1.00,742,337,731,318,36793,0
patternWeightCount-5,true,1.00,1463,408,1456,387,72180,0
patternWeightCount-6,true,1.00,1507,394,1498,374,76024,0
patternWeightCount-7,true,1.00,1048,378,1043,359,51619,0
patternWeightCount-8,true,1.00,758,394,747,375,34469,0
patternWeightCount-9,true,1.00,1212,400,1202,381,61137,0
patternWeightCount-10,true,1.00,921,377,918,356,45169,0
patternWeightCount-11,true,1.00,563,370,556,351,27118,0
patternWeightCount-12,true,1.00,1138,400,1132,381,54757,0
patternWeightCount-13,true,1.00,830,342,823,323,42601,0
patternWeightCount-14,true,1.00,1131,416,1123,395,56153,0
patternWeightCount-15,true,1.00,1598,391,1590,372,80653,0
patternWeightCount-16,true,1.00,2680,417,2671,394,141364,0
patternWeightCount-17,true,1.00,841,393,830,374,41342,0
patternWeightCount-18,true,1.00,963,384,954,365,47798,0
patternWeightCount-19,true,1.00,524,366,514,347,25340,0
patternWeightCount-20,false,0.62,4068,314,4059,314,186484,0
patternWeightCount-21,true,1.00,576,387,564,368,27288,0
patternWeightCount-22,true,1.00,2771,476,2762,450,141673,0
patternWeightCount-23,true,1.00,1227,408,1217,385,62747,0
patternWeightCount-24,true,1.00,1044,348,1034,329,52956,0
patternWeightCount-25,true,1.00,1698,412,1688,393,86489,0
patternWeightCount-26,true,1.00,1406,413,1396,394,70771,0
patternWeightCount-27,true,1.00,1858,399,1846,371,93924,0
patternWeightCount-28,true,1.00,1116,382,1108,363,55527,0
patternWeightCount-29,true,1.00,1232,380,1226,360,60215,0
patternWeightCount-30,true,1.00,3906,441,3898,409,160536,0
patternWeightCount-31,true,1.00,1303,393,1291,374,59725,0
patternWeightCount-32,true,1.00,717,362,710,342,35554,0
patternWeightCount-33,true,1.00,970,402,962,383,49604,0
patternWeightCount-34,true,1.00,1385,386,1374,367,70227,0
patternWeightCount-35,true,1.00,1898,413,1888,394,91941,0
patternWeightCount-36,true,1.00,1469,385,1454,366,52707,0
patternWeightCount-37,true,1.00,864,336,843,317,29193,0
patternWeightCount-38,true,1.00,1983,379,1975,339,94557,0
patternWeightCount-39,true,1.00,1238,374,1232,355,60111,0
patternWeightCount-40,true,1.00,1729,424,1719,405,84168,0
patternWeightCount-41,true,1.00,1501,400,1490,381,73682,0
patternWeightCount-42,false,0.87,2830,370,2825,370,135737,0
patternWeightCount-43,true,1.00,921,342,912,323,45191,0
patternWeightCount-44,true,1.00,1640,427,1634,387,79352,0
patternWeightCount-45,true,1.00,3350,442,3340,421,137447,0
patternWeightCount-46,true,1.00,5174,504,5163,461,246316,0
patternWeightCount-47,true,1.00,747,378,740,359,36016,0
patternWeightCount-48,true,1.00,765,356,761,337,37651,0
patternWeightCount-49,true,1.00,858,350,848,331,41890,0
patternWeightCount-50,true,1.00,855,374,845,355,42483,0
patternWeightCount-51,true,1.00,1029,373,1022,342,53039,0
patternWeightCount-52,true,1.00,1367,394,1355,361,69287,0
patternWeightCount-53,true,1.00,3748,460,3735,440,184974,0
patternWeightCount-54,true,1.00,752,385,736,366,37246,0
patternWeightCount-55,true,1.00,1030,363,1025,340,52091,0
patternWeightCount-56,true,1.00,1344,371,1322,352,39743,0
patternWeightCount-57,true,1.00,711,338,698,319,25330,0
patternWeightCount-58,true,1.00,1043,356,1033,337,51180,0
patternWeightCount-59,true,1.00,680,364,674,345,32800,0
patternWeightCount-60,true,1.00,1536,434,1528,414,74506,0
patternWeightCount-61,true,1.00,918,360,912,340,46077,0
patternWeightCount-62,true,1.00,2052,383,2042,347,104457,0
patternWeightCount-63,true,1.00,1769,387,1752,368,58617,0
patternWeightCount-64,true,1.00,1589,368,1580,349,73666,0
patternWeightCount-65,true,1.00,1802,395,1796,376,85362,0
patternWeightCount-66,true,1.00,1042,404,1035,384,50019,0
patternWeightCount-67,true,1.00,1023,399,1013,380,47413,0
patternWeightCount-68,true,1.00,612,365,607,346,29009,0
patternWeightCount-69,true,1.00,1911,382,1900,350,87678,0
patternWeightCount-70,true,1.00,1543,386,1527,360,44278,0
patternWeightCount-71,true,1.00,921,359,911,338,41258,0
patternWeightCount-72,true,1.00,4921,457,4910,419,197664,0
patternWeightCount-73,true,1.00,5306,446,5299,420,265861,0
patternWeightCount-74,true,1.00,889,374,882,355,43617,0
patternWeightCount-75,true,1.00,1121,386,1112,367,54228,0
patternWeightCount-76,true,1.00,1361,399,1352,380,69601,0
patternWeightCount-77,true,1.00,998,395,988,376,49258,0
patternWeightCount-78,true,1.00,1983,412,1974,389,95111,0
patternWeightCount-79,true,1.00,770,364,763,345,37069,0
patternWeightCount-80,true,1.00,1666,396,1655,377,83210,0
patternWeightCount-81,true,1.00,3856,416,3850,397,188003,0
patternWeightCount-82,true,1.00,337,338,324,317,15756,0
patternWeightCount-83,true,1.00,1001,382,983,363,49404,0
patternWeightCount-84,true,1.00,819,385,806,366,39491,0
patternWeightCount-85,true,1.00,1329,385,1316,365,67226,0
patternWeightCount-86,false,0.94,3071,386,3059,386,150028,0
patternWeightCount-87,true,1.00,4658,426,4653,398,226219,0
patternWeightCount-88,true,1.00,1711,419,1698,400,84583,0
patternWeightCount-89,true,1.00,991,374,983,355,49184,0
patternWeightCount-90,true,1.00,4728,457,4718,425,234516,0
patternWeightCount-91,true,1.00,1047,377,1037,357,51189,0
patternWeightCount-92,true,1.00,3196,407,3185,370,162506,0
patternWeightCount-93,true,1.00,2360,377,2347,346,116882,0
patternWeightCount-94,true,1.00,2026,406,2015,387,99370,0
patternWeightCount-95,true,1.00,1270,371,1261,352,61872,0
patternWeightCount-96,true,1.00,813,396,804,377,39792,0
patternWeightCount-97,true,1.00,1043,352,1035,333,51610,0
patternWeightCount-98,true,1.00,6445,538,6435,512,317103,0
patternWeightCount-99,true,1.00,1648,433,1641,413,83392,0
patternWeightCount-100,true,1.00,953,386,942,367,46472,0
