NDW:0.0
TTFW:1.6
DFPT:2.0
DFPAP:3.0
DFPMP:2.0
RIGHT_WINDOW_BORDER_X:295.0
level,win/fail,% travelled,run time,game ticks,planning time,total plannings,nodes evaluated,most backtracked nodes
ge-1,true,1.00,453,248,451,205,49001,0
ge-2,true,1.00,375,230,372,203,42660,0
ge-3,true,1.00,218,228,216,202,20487,0
ge-4,true,1.00,1378,253,1375,226,159770,0
ge-5,true,1.00,42,199,42,172,2899,0
ge-6,true,1.00,335,247,334,220,35219,0
ge-7,true,1.00,130,224,129,195,11945,0
ge-8,true,1.00,389,223,387,196,39441,0
ge-9,true,1.00,559,222,557,194,67879,0
ge-10,true,1.00,38,199,37,172,2712,0
ge-11,true,1.00,147,211,145,184,15037,0
ge-12,true,1.00,38,199,38,172,2702,0
ge-13,true,1.00,306,246,305,217,33592,0
ge-14,true,1.00,162,235,162,193,16459,0
ge-15,true,1.00,821,220,818,193,87563,0
ge-16,true,1.00,138,272,137,245,11842,0
ge-17,true,1.00,248,216,245,180,29277,0
ge-18,true,1.00,193,258,189,232,19224,0
ge-19,true,1.00,967,265,967,238,120643,0
ge-20,true,1.00,559,223,556,196,61798,0
ge-21,true,1.00,207,201,206,174,21228,0
ge-22,true,1.00,285,208,285,176,31697,0
ge-23,true,1.00,530,215,529,177,61261,0
ge-24,true,1.00,403,229,403,196,44633,0
ge-25,true,1.00,282,201,281,174,32552,0
ge-26,true,1.00,172,205,170,178,20607,0
ge-27,true,1.00,53,221,50,195,4545,0
ge-28,true,1.00,470,205,469,178,52611,0
ge-29,true,1.00,170,222,170,172,17717,0
ge-30,true,1.00,534,247,533,200,61878,0
ge-31,true,1.00,538,222,537,192,61396,0
ge-32,true,1.00,141,226,138,199,13568,0
ge-33,true,1.00,103,254,101,216,9540,0
ge-34,true,1.00,482,212,481,180,57731,0
ge-35,true,1.00,335,264,334,237,36914,0
ge-36,false,1.00,574,258,574,223,65204,0
ge-37,true,1.00,234,204,232,172,27531,0
ge-38,true,1.00,508,244,507,217,57751,0
ge-39,true,1.00,248,221,242,193,27782,0
ge-40,true,1.00,37,199,37,172,2857,0
ge-41,true,1.00,174,205,173,178,20311,0
ge-42,true,1.00,543,220,541,193,61104,0
ge-43,true,1.00,270,233,270,190,31397,0
ge-44,true,1.00,447,213,447,182,52260,0
ge-45,true,1.00,468,219,466,193,49642,0
ge-46,true,1.00,779,235,779,208,84932,0
ge-47,true,1.00,662,226,661,199,77399,0
ge-48,true,1.00,325,234,324,208,34673,0
ge-49,true,1.00,138,204,137,172,15423,0
ge-50,true,1.00,516,212,512,185,57470,0
ge-51,true,1.00,103,229,103,202,10762,0
ge-52,true,1.00,232,266,232,238,24054,0
ge-53,true,1.00,216,209,214,183,25126,0
ge-54,true,1.00,879,260,876,230,126670,0
ge-55,true,1.00,262,220,261,188,29157,0
ge-56,true,1.00,300,240,297,185,33752,0
ge-57,true,1.00,469,229,468,185,54286,0
ge-58,true,1.00,191,307,190,271,18139,0
ge-59,true,1.00,787,217,785,190,96024,0
ge-60,true,1.00,500,201,500,174,55695,0
ge-61,true,1.00,239,203,236,176,28555,0
ge-62,true,1.00,489,213,489,186,57763,0
ge-63,true,1.00,674,224,673,192,85030,0
ge-64,false,1.00,197,236,196,195,20334,0
ge-65,true,1.00,538,232,536,206,64181,0
ge-66,true,1.00,504,228,502,182,57912,0
ge-67,true,1.00,211,232,210,205,21163,0
ge-68,true,1.00,132,221,132,195,11647,0
ge-69,true,1.00,140,199,137,172,14655,0
ge-70,true,1.00,285,215,284,187,31838,0
ge-71,true,1.00,800,266,799,240,97006,0
ge-72,true,1.00,178,251,175,224,18446,0
ge-73,true,1.00,243,229,243,186,29328,0
ge-74,true,1.00,662,273,661,246,71252,0
ge-75,true,1.00,189,236,187,189,22126,0
ge-76,true,1.00,622,217,622,190,74473,0
ge-77,true,1.00,840,238,839,211,98483,0
ge-78,true,1.00,558,243,554,216,65202,0
ge-79,true,1.00,153,219,151,192,16872,0
ge-80,true,1.00,56,221,54,172,3963,0
ge-81,true,1.00,61,213,61,186,4742,0
ge-82,true,1.00,66,238,64,187,5506,0
ge-83,true,1.00,142,255,142,194,14805,0
ge-84,true,1.00,473,209,471,182,53795,0
ge-85,true,1.00,256,213,255,186,29205,0
ge-86,true,1.00,645,212,644,174,76576,0
ge-87,true,1.00,454,225,454,199,52949,0
ge-88,true,1.00,515,244,513,208,63355,0
ge-89,true,1.00,178,254,177,224,15325,0
ge-90,true,1.00,42,199,39,172,2964,0
ge-91,true,1.00,239,199,238,172,25238,0
ge-92,true,1.00,45,205,45,178,3586,0
ge-93,true,1.00,508,213,508,186,59639,0
ge-94,true,1.00,351,208,347,178,38801,0
ge-95,true,1.00,150,285,148,255,11513,0
ge-96,true,1.00,611,258,608,212,67016,0
ge-97,true,1.00,326,211,324,184,36321,0
ge-98,true,1.00,38,199,38,172,2747,0
ge-99,true,1.00,137,199,137,172,12436,0
ge-100,true,1.00,47,205,45,178,3647,0
