NDW:0.0
TTFW:1.8
DFPT:2.0
DFPAP:3.0
DFPMP:20.0
RIGHT_WINDOW_BORDER_X:255.0
level,win/fail,% travelled,run time,game ticks,planning time,total plannings,nodes evaluated,most backtracked nodes
notch-1,true,1.00,794,263,793,240,96262,0
notch-2,true,1.00,921,285,920,262,117458,0
notch-3,true,1.00,791,270,790,247,96643,0
notch-4,true,1.00,957,261,955,237,118401,0
notch-5,true,1.00,608,250,607,227,73109,0
notch-6,true,1.00,659,308,656,284,84983,0
notch-7,true,1.00,711,297,711,266,89719,0
notch-8,true,1.00,577,318,576,279,71453,0
notch-9,true,1.00,964,278,964,255,119255,0
notch-10,true,1.00,997,287,996,264,125938,0
notch-11,true,1.00,770,266,770,241,95580,0
notch-12,true,1.00,525,262,525,239,62583,0
notch-13,true,1.00,772,262,770,239,94798,0
notch-14,true,1.00,935,265,934,240,110801,0
notch-15,true,1.00,981,272,980,249,117097,0
notch-16,true,1.00,965,294,964,257,121896,0
notch-17,true,1.00,955,293,954,269,118895,0
notch-18,true,1.00,849,319,845,293,110600,0
notch-19,true,1.00,1168,253,1167,230,145492,0
notch-20,true,1.00,867,296,863,273,109639,0
notch-21,true,1.00,1074,312,1073,289,138455,0
notch-22,true,1.00,584,264,584,241,67996,0
notch-23,true,1.00,940,271,939,245,114730,0
notch-24,true,1.00,597,265,597,242,74869,0
notch-25,true,1.00,945,306,945,277,118599,0
notch-26,true,1.00,717,273,716,245,87403,0
notch-27,true,1.00,1572,296,1571,272,205665,0
notch-28,true,1.00,727,281,726,248,91853,0
notch-29,true,1.00,1009,276,1009,253,122525,0
notch-30,true,1.00,902,252,900,221,104260,0
notch-31,true,1.00,583,276,583,248,71265,0
notch-32,true,1.00,711,283,710,248,87731,0
notch-33,true,1.00,592,237,590,214,71276,0
notch-34,true,1.00,592,259,589,236,77228,0
notch-35,true,1.00,526,282,524,259,65104,0
notch-36,true,1.00,1587,311,1584,288,192012,0
notch-37,true,1.00,1367,275,1364,249,177204,0
notch-38,true,1.00,996,308,992,263,122588,0
notch-39,true,1.00,637,230,636,205,76333,0
notch-40,true,1.00,873,269,873,241,112095,0
notch-41,true,1.00,887,280,886,257,112477,0
notch-42,true,1.00,861,266,860,236,106636,0
notch-43,true,1.00,632,261,631,238,79221,0
notch-44,true,1.00,564,246,564,223,69589,0
notch-45,true,1.00,851,242,850,219,102561,0
notch-46,true,1.00,675,255,674,232,83688,0
notch-47,true,1.00,1002,286,1000,258,125905,0
notch-48,true,1.00,1055,271,1051,247,133828,0
notch-49,true,1.00,630,269,629,239,78850,0
notch-50,true,1.00,740,291,739,266,90155,0
notch-51,true,1.00,675,254,674,226,83195,0
notch-52,true,1.00,653,272,650,249,80442,0
notch-53,true,1.00,293,288,289,251,30578,0
notch-54,true,1.00,1163,311,1162,286,151480,0
notch-55,true,1.00,955,290,952,266,119814,0
notch-56,true,1.00,1151,283,1150,260,140938,0
notch-57,true,1.00,951,287,949,263,113358,0
notch-58,true,1.00,1041,310,1038,280,132303,0
notch-59,true,1.00,733,275,732,252,88986,0
notch-60,true,1.00,1053,271,1052,248,123480,0
notch-61,true,1.00,812,254,809,231,97834,0
notch-62,true,1.00,917,278,916,255,115803,0
notch-63,true,1.00,867,292,866,269,113282,0
notch-64,true,1.00,1276,279,1276,255,154107,0
notch-65,true,1.00,1059,321,1057,293,139626,0
notch-66,true,1.00,1033,308,1033,279,128950,0
notch-67,true,1.00,984,266,983,238,112891,0
notch-68,true,1.00,420,240,419,217,52387,0
notch-69,true,1.00,1208,282,1208,259,153192,0
notch-70,true,1.00,1454,329,1453,298,188867,0
notch-71,true,1.00,1086,271,1084,248,132918,0
notch-72,true,1.00,660,247,658,224,82228,0
notch-73,true,1.00,695,285,692,262,83609,0
notch-74,true,1.00,546,257,546,234,66763,0
notch-75,true,1.00,1064,289,1061,259,134554,0
notch-76,true,1.00,962,294,961,257,120625,0
notch-77,true,1.00,657,255,655,232,83092,0
notch-78,true,1.00,763,281,761,247,93946,0
notch-79,true,1.00,965,290,963,256,120304,0
notch-80,true,1.00,402,232,401,209,46727,0
notch-81,true,1.00,1168,249,1167,226,142419,0
notch-82,true,1.00,728,266,727,243,87724,0
notch-83,true,1.00,1017,290,1016,261,123125,0
notch-84,true,1.00,752,255,750,232,89738,0
notch-85,true,1.00,616,288,613,257,75316,0
notch-86,true,1.00,711,245,710,222,87132,0
notch-87,true,1.00,854,257,853,231,103024,0
notch-88,true,1.00,1020,305,1019,280,130563,0
notch-89,true,1.00,935,299,929,276,116597,0
notch-90,true,1.00,994,282,993,259,121715,0
notch-91,true,1.00,1181,274,1181,251,145726,0
notch-92,true,1.00,914,262,913,239,115598,0
notch-93,true,1.00,754,298,751,272,88326,0
notch-94,true,1.00,1234,303,1233,267,145986,0
notch-95,true,1.00,515,249,514,225,60225,0
notch-96,true,1.00,622,268,618,245,73577,0
notch-97,true,1.00,1226,299,1225,275,144126,0
notch-98,true,1.00,1506,308,1503,278,180775,0
notch-99,true,1.00,1369,278,1366,254,174338,0
notch-100,true,1.00,840,311,839,279,105386,0
