NDW:0.0
TTFW:2.0
DFPT:2.0
DFPAP:3.0
DFPMP:50.0
RIGHT_WINDOW_BORDER_X:215.0
level,win/fail,% travelled,run time,game ticks,planning time,total plannings,nodes evaluated,most backtracked nodes
ge-1,true,1.00,510,247,508,213,29891,0
ge-2,true,1.00,392,224,388,205,23432,0
ge-3,true,1.00,208,228,202,209,10508,0
ge-4,true,1.00,1033,246,1026,222,61212,0
ge-5,true,1.00,57,199,51,180,2104,0
ge-6,true,1.00,397,255,392,224,22412,0
ge-7,true,1.00,141,224,137,204,7033,0
ge-8,true,1.00,212,221,207,202,11518,0
ge-9,true,1.00,527,218,524,198,30713,0
ge-10,true,1.00,57,199,55,180,2129,0
ge-11,true,1.00,177,217,171,194,9374,0
ge-12,true,1.00,54,199,51,180,1949,0
ge-13,true,1.00,323,246,315,221,18278,0
ge-14,true,1.00,188,230,184,194,9746,0
ge-15,true,1.00,540,217,534,198,31379,0
ge-16,true,1.00,184,260,181,241,8005,0
ge-17,true,1.00,278,225,273,198,16311,0
ge-18,true,1.00,377,265,372,245,20623,0
ge-19,true,1.00,510,267,504,248,29989,0
ge-20,true,1.00,387,222,383,203,22375,0
ge-21,true,1.00,194,201,186,182,10439,0
ge-22,true,1.00,331,206,327,185,19166,0
ge-23,true,1.00,558,208,552,185,33232,0
ge-24,true,1.00,402,228,398,208,23699,0
ge-25,true,1.00,323,201,317,182,19076,0
ge-26,true,1.00,223,205,216,186,12831,0
ge-27,true,1.00,73,215,67,196,3040,0
ge-28,true,1.00,494,205,487,186,28208,0
ge-29,true,1.00,221,218,218,179,12215,0
ge-30,true,1.00,583,246,578,208,34891,0
ge-31,true,1.00,606,224,604,204,36393,0
ge-32,true,1.00,184,250,181,231,8743,0
ge-33,true,1.00,123,240,120,206,5734,0
ge-34,true,1.00,779,212,775,190,47296,0
ge-35,true,1.00,384,260,380,237,21269,0
ge-36,true,1.00,658,268,650,235,39443,0
ge-37,true,1.00,280,200,277,180,16326,0
ge-38,true,1.00,595,250,591,231,33910,0
ge-39,true,1.00,229,220,223,200,12956,0
ge-40,true,1.00,53,199,47,180,1994,0
ge-41,true,1.00,192,211,187,186,11135,0
ge-42,true,1.00,506,220,504,201,29696,0
ge-43,true,1.00,324,230,317,208,18942,0
ge-44,true,1.00,493,217,488,198,29265,0
ge-45,true,1.00,406,218,403,199,22893,0
ge-46,true,1.00,737,228,726,209,43705,0
ge-47,true,1.00,699,230,693,211,41105,0
ge-48,true,1.00,366,238,359,219,20052,0
ge-49,true,1.00,155,200,149,180,8400,0
ge-50,true,1.00,519,214,511,195,30547,0
ge-51,true,1.00,129,224,119,204,6589,0
ge-52,true,1.00,445,248,439,228,25414,0
ge-53,true,1.00,237,211,233,192,13523,0
ge-54,true,1.00,332,237,324,216,19395,0
ge-55,true,1.00,308,217,306,198,17747,0
ge-56,true,1.00,560,248,555,216,32650,0
ge-57,true,1.00,725,217,724,192,44530,0
ge-58,true,1.00,165,239,158,220,8241,0
ge-59,true,1.00,744,216,737,195,45390,0
ge-60,true,1.00,546,201,542,182,32427,0
ge-61,true,1.00,285,204,275,183,16559,0
ge-62,true,1.00,524,213,518,194,31501,0
ge-63,true,1.00,761,224,758,199,46360,0
ge-64,false,1.00,678,233,670,201,38232,0
ge-65,true,1.00,596,234,594,215,36500,0
ge-66,true,1.00,616,226,610,189,38071,0
ge-67,true,1.00,222,237,214,218,11776,0
ge-68,true,1.00,120,221,113,202,5548,0
ge-69,true,1.00,254,199,250,180,14459,0
ge-70,true,1.00,373,216,367,196,22452,0
ge-71,true,1.00,1178,232,1171,213,73169,0
ge-72,true,1.00,210,258,200,234,10931,0
ge-73,true,1.00,365,209,362,190,21380,0
ge-74,true,1.00,761,239,755,220,44452,0
ge-75,true,1.00,249,243,241,204,14596,0
ge-76,true,1.00,876,218,871,197,53465,0
ge-77,true,1.00,1136,236,1131,217,70025,0
ge-78,true,1.00,569,238,563,213,33721,0
ge-79,true,1.00,176,221,170,194,9654,0
ge-80,true,1.00,82,218,81,196,3127,0
ge-81,true,1.00,93,213,88,194,3954,0
ge-82,true,1.00,95,244,91,196,4044,0
ge-83,false,1.00,319,261,307,226,17654,0
ge-84,true,1.00,695,209,691,190,40692,0
ge-85,true,1.00,316,209,310,190,18001,0
ge-86,true,1.00,726,206,721,181,42640,0
ge-87,true,1.00,515,226,511,207,29880,0
ge-88,true,1.00,478,232,473,212,28325,0
ge-89,true,1.00,256,242,253,222,13245,0
ge-90,true,1.00,54,199,51,180,2075,0
ge-91,true,1.00,257,199,252,180,14838,0
ge-92,true,1.00,62,205,57,186,2470,0
ge-93,true,1.00,521,213,516,194,31590,0
ge-94,true,1.00,377,208,372,188,21860,0
ge-95,true,1.00,137,246,132,226,6216,0
ge-96,true,1.00,753,249,746,215,43524,0
ge-97,true,1.00,404,213,398,194,22414,0
ge-98,true,1.00,52,199,51,180,1922,0
ge-99,true,1.00,159,199,153,180,8260,0
ge-100,true,1.00,325,205,320,186,18137,0
