NDW:0.0
TTFW:0.8
DFPT:2.0
DFPAP:3.0
DFPMP:0.0
RIGHT_WINDOW_BORDER_X:135.0
level,win/fail,% travelled,run time,game ticks,planning time,total plannings,nodes evaluated,most backtracked nodes
notch-1,true,1.00,889,268,885,256,54167,0
notch-2,true,1.00,1478,301,1470,289,95583,0
notch-3,true,1.00,1142,283,1140,271,69353,0
notch-4,true,1.00,1125,278,1119,261,68536,0
notch-5,true,1.00,904,280,899,268,55480,0
notch-6,true,1.00,759,269,753,257,47297,0
notch-7,true,1.00,590,275,583,255,36409,0
notch-8,true,1.00,729,276,722,264,45295,0
notch-9,true,1.00,1018,275,1015,263,60894,0
notch-10,true,1.00,1596,311,1588,299,98109,0
notch-11,true,1.00,1071,284,1064,272,65673,0
notch-12,true,1.00,724,263,716,251,43357,0
notch-13,true,1.00,720,261,716,249,44126,0
notch-14,true,1.00,941,273,935,261,57664,0
notch-15,true,1.00,755,251,746,239,45393,0
notch-16,true,1.00,1045,290,1042,268,64705,0
notch-17,true,1.00,853,272,848,260,51324,0
notch-18,true,1.00,1294,349,1290,336,77858,0
notch-19,true,1.00,1230,266,1225,253,75277,0
notch-20,true,1.00,1002,280,994,268,62434,0
notch-21,true,1.00,1173,309,1163,297,74398,0
notch-22,true,1.00,681,257,677,245,40626,0
notch-23,true,1.00,1021,264,1016,251,63616,0
notch-24,true,1.00,613,255,608,243,38069,0
notch-25,true,1.00,946,271,942,259,58303,0
notch-26,true,1.00,963,261,958,249,58456,0
notch-27,true,1.00,1220,284,1217,272,76757,0
notch-28,true,1.00,1420,302,1413,289,88462,0
notch-29,true,1.00,1131,283,1127,271,69374,0
notch-30,true,1.00,882,253,879,241,52837,0
notch-31,true,1.00,784,261,781,249,47816,0
notch-32,true,1.00,772,289,766,274,46870,0
notch-33,true,1.00,863,259,859,245,52351,0
notch-34,true,1.00,775,261,771,249,49220,0
notch-35,true,1.00,697,268,694,256,44036,0
notch-36,true,1.00,1618,311,1610,290,99975,0
notch-37,true,1.00,1239,291,1233,276,77037,0
notch-38,true,1.00,873,282,865,268,52256,0
notch-39,true,1.00,633,236,626,223,38944,0
notch-40,true,1.00,955,276,947,263,59754,0
notch-41,true,1.00,1245,290,1242,277,77508,0
notch-42,true,1.00,1042,264,1038,252,63781,0
notch-43,true,1.00,859,262,856,250,52001,0
notch-44,true,1.00,848,253,844,241,52190,0
notch-45,true,1.00,873,256,869,244,53571,0
notch-46,true,1.00,887,265,880,253,53878,0
notch-47,true,1.00,1099,275,1095,263,69280,0
notch-48,true,1.00,1255,259,1251,247,78035,0
notch-49,true,1.00,1123,306,1118,287,68851,0
notch-50,true,1.00,771,308,761,296,47597,0
notch-51,true,1.00,1021,267,1016,252,63505,0
notch-52,true,1.00,793,279,787,258,49483,0
notch-53,true,1.00,395,265,390,252,23508,0
notch-54,true,1.00,975,296,958,281,59867,0
notch-55,true,1.00,1146,299,1140,287,71514,0
notch-56,true,1.00,751,272,746,260,45588,0
notch-57,true,1.00,815,282,807,270,49285,0
notch-58,true,1.00,1040,307,1031,294,65360,0
notch-59,true,1.00,740,278,734,262,45497,0
notch-60,true,1.00,1079,294,1074,282,66292,0
notch-61,true,1.00,944,249,937,237,58066,0
notch-62,true,1.00,672,262,670,250,41633,0
notch-63,true,1.00,913,294,904,281,58188,0
notch-64,true,1.00,1093,260,1087,248,66666,0
notch-65,true,1.00,1517,303,1515,291,96666,0
notch-66,true,1.00,1068,277,1063,265,65142,0
notch-67,true,1.00,962,259,959,247,56542,0
notch-68,true,1.00,491,261,487,249,30564,0
notch-69,true,1.00,1133,282,1126,270,69165,0
notch-70,true,1.00,1150,297,1144,284,72771,0
notch-71,true,1.00,1296,274,1290,262,79148,0
notch-72,true,1.00,811,263,806,251,51198,0
notch-73,true,1.00,1282,295,1277,275,79717,0
notch-74,true,1.00,667,255,664,243,42547,0
notch-75,true,1.00,1488,300,1476,287,91310,0
notch-76,true,1.00,946,283,938,271,58849,0
notch-77,true,1.00,869,266,866,254,53856,0
notch-78,true,1.00,876,256,864,243,53713,0
notch-79,true,1.00,911,275,905,263,56622,0
notch-80,true,1.00,576,246,574,234,35375,0
notch-81,true,1.00,1192,271,1188,257,72618,0
notch-82,true,1.00,795,280,786,268,48141,0
notch-83,true,1.00,973,270,967,257,59166,0
notch-84,true,1.00,714,264,702,251,42361,0
notch-85,true,1.00,687,278,677,266,42159,0
notch-86,true,1.00,821,247,818,235,50153,0
notch-87,true,1.00,1764,284,1761,272,107990,0
notch-88,true,1.00,1209,292,1203,279,74750,0
notch-89,true,1.00,1061,277,1056,265,65870,0
notch-90,true,1.00,1130,289,1121,277,69535,0
notch-91,true,1.00,1255,278,1251,266,78155,0
notch-92,true,1.00,969,274,964,262,59804,0
notch-93,true,1.00,1054,286,1043,274,64089,0
notch-94,true,1.00,1341,295,1334,282,83373,0
notch-95,true,1.00,692,260,685,248,42045,0
notch-96,true,1.00,782,268,776,256,49443,0
notch-97,true,1.00,1575,308,1570,296,96507,0
notch-98,true,1.00,1564,296,1557,280,94890,0
notch-99,true,1.00,1205,293,1197,278,75580,0
notch-100,true,1.00,900,279,898,266,55851,0
