NDW:0.0
TTFW:1.6
DFPT:2.0
DFPAP:3.0
DFPMP:2.0
RIGHT_WINDOW_BORDER_X:75.0
level,win/fail,% travelled,run time,game ticks,planning time,total plannings,nodes evaluated,most backtracked nodes
Krys-1,false,0.38,28523,999,28519,999,910785,0
Krys-2,false,0.79,21094,999,21075,999,793859,0
Krys-3,true,1.00,12516,826,12509,818,657949,0
Krys-4,true,1.00,1845,541,1834,531,93135,0
Krys-5,false,0.62,3442,327,3436,327,200131,0
Krys-6,false,0.52,1501,260,1497,260,82799,0
Krys-7,true,1.00,279,379,266,371,16342,0
Krys-8,true,1.00,2184,522,2168,509,131382,0
Krys-9,false,0.71,8562,506,8556,506,524413,0
Krys-10,false,0.28,27703,999,27699,999,1114445,0
Krys-11,true,1.00,153,429,140,420,8113,0
Krys-12,false,0.43,321,192,319,192,16295,0
Krys-13,false,0.69,1106,290,1099,290,61104,0
Krys-14,false,0.79,21268,999,21257,999,804081,0
Krys-15,false,0.83,10690,742,10676,742,652259,0
Krys-16,false,0.69,20041,999,20026,999,746308,0
Krys-17,true,1.00,1967,556,1950,548,102982,0
Krys-18,true,1.00,1566,492,1556,485,88405,0
Krys-19,false,0.11,2987,155,2985,155,162770,0
Krys-20,false,0.73,3587,484,3577,484,216770,0
Krys-21,true,1.00,5199,495,5193,485,316121,0
Krys-22,false,0.83,6522,539,6514,539,392411,0
Krys-23,true,1.00,906,475,893,465,51124,0
Krys-24,false,0.83,6619,535,6611,535,383989,0
Krys-25,true,1.00,5246,572,5236,564,270728,0
Krys-26,false,0.61,26010,999,26004,999,1528765,0
Krys-27,false,0.62,2654,392,2638,392,141900,0
Krys-28,false,0.83,8601,689,8590,689,451787,0
Krys-29,true,1.00,1302,490,1292,483,64900,0
Krys-30,false,0.55,324,296,310,296,15595,0
Krys-31,true,1.00,1911,505,1892,492,115522,0
Krys-32,true,1.00,211,388,202,382,11848,0
Krys-33,true,1.00,826,426,820,416,45683,0
Krys-34,true,1.00,2267,482,2253,474,124392,0
Krys-35,false,0.82,10566,606,10556,606,593396,0
Krys-36,false,0.38,1547,182,1540,182,92659,0
Krys-37,false,0.72,9064,640,9054,640,491139,0
Krys-38,false,0.73,9030,534,9021,534,532081,0
Krys-39,true,1.00,10579,685,10568,671,587576,0
Krys-40,false,0.62,3334,356,3325,356,217272,0
Krys-41,false,0.82,11814,718,11807,718,685435,0
Krys-42,false,0.62,4781,403,4776,403,281940,0
Krys-43,false,0.82,4609,434,4600,434,279685,0
Krys-44,false,0.62,5161,415,5159,415,319861,0
Krys-45,true,1.00,519,473,512,458,26932,0
Krys-46,true,1.00,3034,545,3021,535,150858,0
Krys-47,true,1.00,1259,470,1254,460,75071,0
Krys-48,false,0.11,2986,155,2986,155,162705,0
Krys-49,true,1.00,1870,484,1856,474,103396,0
Krys-50,false,0.83,5625,546,5613,546,325941,0
Krys-51,false,0.39,627,156,618,156,29478,0
Krys-52,true,1.00,638,429,626,421,34847,0
Krys-53,true,1.00,1880,467,1873,454,93528,0
Krys-54,true,1.00,5711,621,5693,611,295242,0
Krys-55,true,1.00,2261,502,2243,494,122570,0
Krys-56,false,0.59,24572,999,24567,999,865859,0
Krys-57,false,0.82,4195,413,4187,413,223290,0
Krys-58,true,1.00,2429,525,2419,518,128279,0
Krys-59,false,0.89,17574,999,17559,999,688764,0
Krys-60,true,1.00,6814,632,6801,618,394784,0
Krys-61,false,0.48,26261,999,26257,999,907554,0
Krys-62,true,1.00,615,458,602,449,30461,0
Krys-63,true,1.00,2960,592,2947,584,141585,0
Krys-64,true,1.00,2312,527,2296,517,120883,0
Krys-65,true,1.00,1884,524,1877,517,89639,0
Krys-66,true,1.00,2784,558,2772,548,139571,0
Krys-67,true,1.00,2627,585,2615,577,136492,0
Krys-68,false,0.62,4309,328,4305,328,238681,0
Krys-69,false,0.48,27035,999,27020,999,917146,0
Krys-70,true,1.00,6832,617,6812,610,378836,0
Krys-71,false,0.73,8039,578,8027,578,444443,0
Krys-72,true,1.00,683,417,674,409,39060,0
Krys-73,true,1.00,4964,630,4945,621,201711,0
Krys-74,false,0.74,2978,408,2963,408,136101,0
Krys-75,true,1.00,245,438,226,430,13365,0
Krys-76,false,0.52,3625,316,3618,316,200116,0
Krys-77,true,1.00,3109,492,3096,482,178026,0
Krys-78,false,0.20,3174,212,3170,212,191950,0
Krys-79,true,1.00,749,468,738,460,37402,0
Krys-80,true,1.00,436,462,430,450,22468,0
Krys-81,true,1.00,1777,443,1762,436,68929,0
Krys-82,true,1.00,1476,413,1460,406,62702,0
Krys-83,false,0.91,19566,999,19552,999,808589,0
Krys-84,true,1.00,241,385,228,375,13254,0
Krys-85,true,1.00,2551,515,2539,505,134536,0
Krys-86,true,1.00,1585,418,1580,406,78226,0
Krys-87,true,1.00,369,389,359,383,19547,0
Krys-88,true,1.00,1578,433,1565,425,84594,0
Krys-89,true,1.00,3285,517,3279,508,183780,0
Krys-90,false,0.62,5408,385,5402,385,316987,0
Krys-91,true,1.00,355,437,343,430,21255,0
Krys-92,false,0.43,1463,265,1461,265,81511,0
Krys-93,false,0.83,6431,545,6418,545,389838,0
Krys-94,false,0.41,2534,218,2528,218,154305,0
Krys-95,true,1.00,1957,517,1947,508,96680,0
Krys-96,false,0.83,9480,613,9472,613,412176,0
Krys-97,false,0.71,2893,364,2886,364,160713,0
Krys-98,true,1.00,4417,570,4396,555,230833,0
Krys-99,true,1.00,875,478,859,468,30823,0
Krys-100,false,0.61,26363,999,26356,999,1459889,0
