NDW:0.0
TTFW:0.8
DFPT:2.0
DFPAP:3.0
DFPMP:5.0
RIGHT_WINDOW_BORDER_X:195.0
level,win/fail,% travelled,run time,game ticks,planning time,total plannings,nodes evaluated,most backtracked nodes
patternWeightCount-1,true,1.00,2739,457,2739,432,275399,0
patternWeightCount-2,true,1.00,486,411,484,388,51616,0
patternWeightCount-3,true,1.00,500,382,498,364,51357,0
patternWeightCount-4,true,1.00,656,380,651,363,64017,0
patternWeightCount-5,true,1.00,1560,420,1558,401,156408,0
patternWeightCount-6,true,1.00,1674,411,1673,393,169582,0
patternWeightCount-7,true,1.00,844,426,842,400,81948,0
patternWeightCount-8,true,1.00,481,400,476,383,42548,0
patternWeightCount-9,true,1.00,883,430,881,412,92128,0
patternWeightCount-10,true,1.00,816,423,815,405,78790,0
patternWeightCount-11,true,1.00,359,368,357,351,36157,0
patternWeightCount-12,true,1.00,1035,433,1032,415,101198,0
patternWeightCount-13,true,1.00,979,386,978,369,100924,0
patternWeightCount-14,true,1.00,691,414,688,395,70688,0
patternWeightCount-15,true,1.00,961,410,959,393,97473,0
patternWeightCount-16,true,1.00,3234,475,3234,453,337328,0
patternWeightCount-17,true,1.00,532,416,530,399,55136,0
patternWeightCount-18,true,1.00,678,389,675,372,67613,0
patternWeightCount-19,true,1.00,549,402,546,385,51889,0
patternWeightCount-20,false,0.61,3939,315,3937,315,350872,0
patternWeightCount-21,true,1.00,284,420,280,402,29207,0
patternWeightCount-22,true,1.00,1990,452,1986,425,207301,0
patternWeightCount-23,true,1.00,989,433,985,396,100964,0
patternWeightCount-24,true,1.00,1169,372,1164,355,116311,0
patternWeightCount-25,true,1.00,1018,376,1018,359,102620,0
patternWeightCount-26,true,1.00,1064,428,1058,406,110444,0
patternWeightCount-27,true,1.00,1857,466,1853,433,192483,0
patternWeightCount-28,true,1.00,1029,431,1026,414,102081,0
patternWeightCount-29,true,1.00,814,378,812,361,80956,0
patternWeightCount-30,true,1.00,5113,520,5109,495,475408,0
patternWeightCount-31,true,1.00,700,404,695,387,72313,0
patternWeightCount-32,true,1.00,383,385,377,368,39345,0
patternWeightCount-33,true,1.00,729,394,727,377,74158,0
patternWeightCount-34,true,1.00,1191,412,1188,395,119742,0
patternWeightCount-35,true,1.00,1496,456,1494,439,141761,0
patternWeightCount-36,true,1.00,1357,421,1355,404,136402,0
patternWeightCount-37,true,1.00,534,387,532,370,52445,0
patternWeightCount-38,true,1.00,3538,507,3533,458,314624,0
patternWeightCount-39,true,1.00,1391,380,1389,361,131178,0
patternWeightCount-40,true,1.00,2012,442,2007,425,203312,0
patternWeightCount-41,true,1.00,922,378,919,361,93266,0
patternWeightCount-42,false,0.87,3012,413,3009,413,267722,0
patternWeightCount-43,true,1.00,787,392,786,375,78600,0
patternWeightCount-44,true,1.00,1541,449,1535,415,161705,0
patternWeightCount-45,true,1.00,3197,474,3191,452,308921,0
patternWeightCount-46,true,1.00,3697,471,3696,447,330513,0
patternWeightCount-47,true,1.00,634,391,631,374,61090,0
patternWeightCount-48,true,1.00,629,374,624,357,61920,0
patternWeightCount-49,true,1.00,772,375,772,358,75386,0
patternWeightCount-50,true,1.00,885,426,881,401,83297,0
patternWeightCount-51,true,1.00,1154,398,1148,368,117070,0
patternWeightCount-52,true,1.00,1728,428,1725,408,177966,0
patternWeightCount-53,true,1.00,3730,505,3723,486,352492,0
patternWeightCount-54,true,1.00,710,449,703,432,69039,0
patternWeightCount-55,true,1.00,930,407,928,388,88225,0
patternWeightCount-56,true,1.00,797,392,795,375,79259,0
patternWeightCount-57,true,1.00,417,381,414,364,44317,0
patternWeightCount-58,true,1.00,1001,442,1000,424,101150,0
patternWeightCount-59,true,1.00,309,377,305,360,31367,0
patternWeightCount-60,true,1.00,1066,464,1064,439,106666,0
patternWeightCount-61,true,1.00,729,374,725,356,74338,0
patternWeightCount-62,true,1.00,1860,443,1855,412,181157,0
patternWeightCount-63,true,1.00,1272,425,1267,408,127902,0
patternWeightCount-64,true,1.00,1241,390,1237,373,120414,0
patternWeightCount-65,true,1.00,1265,448,1259,429,122127,0
patternWeightCount-66,true,1.00,948,450,945,433,91208,0
patternWeightCount-67,true,1.00,740,418,737,401,69846,0
patternWeightCount-68,true,1.00,889,493,887,476,67829,0
patternWeightCount-69,true,1.00,1406,422,1402,385,138189,0
patternWeightCount-70,true,1.00,943,465,938,444,93355,0
patternWeightCount-71,true,1.00,554,399,549,380,55162,0
patternWeightCount-72,true,1.00,6439,531,6437,497,584013,0
patternWeightCount-73,true,1.00,8473,603,8470,577,797104,0
patternWeightCount-74,true,1.00,832,377,832,360,84256,0
patternWeightCount-75,true,1.00,819,411,819,394,81499,0
patternWeightCount-76,true,1.00,996,415,994,398,103860,0
patternWeightCount-77,true,1.00,1141,397,1141,380,114815,0
patternWeightCount-78,true,1.00,2712,485,2709,467,262612,0
patternWeightCount-79,true,1.00,545,376,540,359,54527,0
patternWeightCount-80,true,1.00,1239,428,1237,411,123345,0
patternWeightCount-81,true,1.00,2673,448,2668,425,247090,0
patternWeightCount-82,true,1.00,203,387,202,354,20161,0
patternWeightCount-83,true,1.00,490,399,489,381,51180,0
patternWeightCount-84,true,1.00,735,452,732,435,71998,0
patternWeightCount-85,true,1.00,840,390,839,373,86881,0
patternWeightCount-86,false,0.93,4099,458,4097,458,360752,0
patternWeightCount-87,true,1.00,4854,478,4853,450,422896,0
patternWeightCount-88,true,1.00,1440,426,1439,408,141886,0
patternWeightCount-89,true,1.00,695,382,692,365,69040,0
patternWeightCount-90,true,1.00,4000,463,4000,444,400506,0
patternWeightCount-91,true,1.00,613,382,611,364,63207,0
patternWeightCount-92,true,1.00,3821,484,3818,464,376269,0
patternWeightCount-93,true,1.00,2522,421,2521,386,242280,0
patternWeightCount-94,true,1.00,1383,427,1381,410,136738,0
patternWeightCount-95,true,1.00,1137,425,1137,408,108814,0
patternWeightCount-96,true,1.00,935,415,930,398,91820,0
patternWeightCount-97,true,1.00,827,357,825,340,81511,0
patternWeightCount-98,true,1.00,4931,474,4928,445,469545,0
patternWeightCount-99,true,1.00,958,395,955,377,100283,0
patternWeightCount-100,true,1.00,696,401,696,384,66483,0
