NDW:0.0
TTFW:1.8
DFPT:2.0
DFPAP:3.0
DFPMP:7.0
RIGHT_WINDOW_BORDER_X:176.0
level,win/fail,% travelled,run time,game ticks,planning time,total plannings,nodes evaluated,most backtracked nodes
notch-1,true,1.00,805,265,803,249,90632,0
notch-2,true,1.00,1306,282,1304,266,159869,0
notch-3,true,1.00,1618,292,1617,276,180910,0
notch-4,true,1.00,1062,272,1061,251,119945,0
notch-5,true,1.00,807,254,806,237,92533,0
notch-6,true,1.00,871,301,871,285,105173,0
notch-7,true,1.00,718,296,715,280,91723,0
notch-8,true,1.00,728,308,727,286,91075,0
notch-9,true,1.00,1016,290,1015,274,117627,0
notch-10,true,1.00,970,299,968,283,115840,0
notch-11,true,1.00,813,280,812,264,95116,0
notch-12,true,1.00,649,264,649,248,74744,0
notch-13,true,1.00,926,282,925,266,105127,0
notch-14,true,1.00,755,279,753,262,87596,0
notch-15,true,1.00,774,273,771,257,89063,0
notch-16,true,1.00,1385,305,1382,278,162078,0
notch-17,true,1.00,1010,284,1008,268,118059,0
notch-18,true,1.00,773,342,772,325,96601,0
notch-19,true,1.00,1199,249,1199,233,142895,0
notch-20,true,1.00,848,282,843,266,100928,0
notch-21,true,1.00,1217,311,1216,295,150438,0
notch-22,true,1.00,539,257,534,241,60228,0
notch-23,true,1.00,1019,260,1018,243,119517,0
notch-24,true,1.00,864,273,863,257,100482,0
notch-25,true,1.00,1206,317,1203,290,144724,0
notch-26,true,1.00,678,273,674,256,80360,0
notch-27,true,1.00,1543,306,1541,290,191661,0
notch-28,true,1.00,834,259,834,242,101118,0
notch-29,true,1.00,1393,314,1393,298,161957,0
notch-30,true,1.00,865,255,864,237,97243,0
notch-31,true,1.00,842,281,841,265,97999,0
notch-32,true,1.00,673,276,670,255,78928,0
notch-33,true,1.00,770,252,768,236,87630,0
notch-34,true,1.00,634,259,632,243,79022,0
notch-35,true,1.00,826,299,826,283,98111,0
notch-36,true,1.00,1156,296,1155,280,135399,0
notch-37,true,1.00,1178,288,1178,264,142428,0
notch-38,true,1.00,889,308,889,277,102844,0
notch-39,true,1.00,595,232,592,215,67056,0
notch-40,true,1.00,1298,322,1297,304,158284,0
notch-41,true,1.00,1146,300,1141,282,134026,0
notch-42,true,1.00,930,268,927,252,109692,0
notch-43,true,1.00,1010,265,1008,249,116778,0
notch-44,true,1.00,649,247,647,231,76232,0
notch-45,true,1.00,764,250,761,234,86776,0
notch-46,true,1.00,679,253,679,237,80586,0
notch-47,true,1.00,1025,295,1023,279,122093,0
notch-48,true,1.00,1297,280,1295,264,155137,0
notch-49,true,1.00,750,304,747,282,90969,0
notch-50,true,1.00,711,302,709,285,86542,0
notch-51,true,1.00,835,264,832,243,98726,0
notch-52,true,1.00,857,280,855,262,100270,0
notch-53,true,1.00,360,295,358,276,41037,0
notch-54,true,1.00,1282,319,1280,302,153257,0
notch-55,true,1.00,973,294,971,278,113429,0
notch-56,true,1.00,796,295,794,279,93522,0
notch-57,true,1.00,759,285,758,269,86398,0
notch-58,true,1.00,950,289,947,273,116359,0
notch-59,true,1.00,706,304,706,277,78562,0
notch-60,true,1.00,1043,277,1041,261,119922,0
notch-61,true,1.00,1115,258,1115,242,132648,0
notch-62,true,1.00,866,339,866,323,106153,0
notch-63,true,1.00,1271,312,1270,291,162699,0
notch-64,true,1.00,838,249,835,233,96240,0
notch-65,true,1.00,1372,333,1370,313,173853,0
notch-66,true,1.00,788,297,785,280,94763,0
notch-67,true,1.00,770,255,768,239,85887,0
notch-68,true,1.00,516,250,515,234,59968,0
notch-69,true,1.00,1322,287,1321,271,161478,0
notch-70,true,1.00,1126,310,1124,293,138799,0
notch-71,true,1.00,1312,273,1312,257,148990,0
notch-72,true,1.00,637,245,634,229,77690,0
notch-73,true,1.00,788,288,786,272,96280,0
notch-74,true,1.00,623,259,622,243,79370,0
notch-75,true,1.00,1890,300,1887,283,233404,0
notch-76,true,1.00,805,287,800,270,96205,0
notch-77,true,1.00,816,261,813,245,96855,0
notch-78,true,1.00,973,275,972,257,113501,0
notch-79,true,1.00,802,284,802,267,93615,0
notch-80,true,1.00,410,234,408,218,46382,0
notch-81,true,1.00,1404,269,1403,243,161428,0
notch-82,true,1.00,769,262,767,246,87970,0
notch-83,true,1.00,1579,314,1576,293,181044,0
notch-84,true,1.00,980,269,980,253,105098,0
notch-85,true,1.00,961,299,957,281,119333,0
notch-86,true,1.00,928,255,927,239,109413,0
notch-87,true,1.00,980,249,980,233,113771,0
notch-88,true,1.00,1523,305,1520,287,189619,0
notch-89,true,1.00,1732,317,1730,301,215616,0
notch-90,true,1.00,1142,290,1140,274,130984,0
notch-91,true,1.00,1729,314,1728,298,202536,0
notch-92,true,1.00,1020,273,1019,257,121197,0
notch-93,true,1.00,1154,297,1153,279,135843,0
notch-94,true,1.00,1633,291,1632,274,189219,0
notch-95,true,1.00,818,253,817,237,96042,0
notch-96,true,1.00,545,268,543,252,67535,0
notch-97,true,1.00,1444,293,1442,277,171324,0
notch-98,true,1.00,1920,332,1920,315,218391,0
notch-99,true,1.00,1721,315,1720,294,214670,0
notch-100,true,1.00,646,298,646,280,77461,0
