NDW:0.0
TTFW:2.0
DFPT:2.0
DFPAP:3.0
DFPMP:50.0
RIGHT_WINDOW_BORDER_X:115.0
level,win/fail,% travelled,run time,game ticks,planning time,total plannings,nodes evaluated,most backtracked nodes
patternWeightCount-1,true,1.00,6150,646,6141,629,355378,0
patternWeightCount-2,true,1.00,917,506,896,488,54178,0
patternWeightCount-3,true,1.00,708,421,699,411,41807,0
patternWeightCount-4,true,1.00,816,466,803,456,47916,0
patternWeightCount-5,true,1.00,2331,530,2316,520,137886,0
patternWeightCount-6,true,1.00,1644,533,1633,523,99552,0
patternWeightCount-7,true,1.00,964,444,954,434,56782,0
patternWeightCount-8,true,1.00,621,446,609,436,30809,0
patternWeightCount-9,true,1.00,1352,533,1339,523,81782,0
patternWeightCount-10,true,1.00,1279,585,1267,575,75334,0
patternWeightCount-11,true,1.00,735,492,726,482,44342,0
patternWeightCount-12,true,1.00,2251,565,2237,551,134163,0
patternWeightCount-13,true,1.00,1425,453,1414,443,85544,0
patternWeightCount-14,true,1.00,1536,503,1529,492,93768,0
patternWeightCount-15,true,1.00,3250,516,3238,506,196571,0
patternWeightCount-16,true,1.00,3817,562,3805,550,234483,0
patternWeightCount-17,true,1.00,973,527,961,517,59237,0
patternWeightCount-18,true,1.00,738,478,729,468,44231,0
patternWeightCount-19,true,1.00,1180,537,1159,527,55184,0
patternWeightCount-20,false,0.61,3470,358,3454,358,160813,0
patternWeightCount-21,true,1.00,847,529,837,519,51646,0
patternWeightCount-22,true,1.00,3267,571,3250,547,200953,0
patternWeightCount-23,true,1.00,1084,507,1070,496,65240,0
patternWeightCount-24,true,1.00,1668,483,1660,468,100275,0
patternWeightCount-25,true,1.00,2811,539,2799,529,117174,0
patternWeightCount-26,true,1.00,1855,561,1844,545,114599,0
patternWeightCount-27,true,1.00,1884,522,1866,496,111548,0
patternWeightCount-28,true,1.00,1850,520,1840,510,114186,0
patternWeightCount-29,true,1.00,1145,423,1135,413,69230,0
patternWeightCount-30,false,0.85,4361,551,4348,551,254002,0
patternWeightCount-31,true,1.00,1817,515,1811,505,109021,0
patternWeightCount-32,true,1.00,583,466,569,456,34562,0
patternWeightCount-33,true,1.00,1100,503,1086,493,65259,0
patternWeightCount-34,true,1.00,2282,454,2274,444,140021,0
patternWeightCount-35,true,1.00,3804,568,3791,558,220080,0
patternWeightCount-36,true,1.00,3076,564,3060,554,190176,0
patternWeightCount-37,true,1.00,994,483,980,473,59232,0
patternWeightCount-38,false,0.94,5195,553,5187,553,303813,0
patternWeightCount-39,true,1.00,1840,438,1825,428,108797,0
patternWeightCount-40,true,1.00,1536,498,1526,488,95302,0
patternWeightCount-41,true,1.00,1985,515,1970,504,122461,0
patternWeightCount-42,false,0.86,4832,541,4822,541,274102,0
patternWeightCount-43,true,1.00,1549,463,1537,453,92803,0
patternWeightCount-44,true,1.00,2708,594,2695,580,170899,0
patternWeightCount-45,false,0.94,5569,635,5555,635,325431,0
patternWeightCount-46,false,0.86,5626,556,5620,556,335244,0
patternWeightCount-47,true,1.00,929,447,915,437,55174,0
patternWeightCount-48,true,1.00,842,466,820,456,45250,0
patternWeightCount-49,true,1.00,1330,459,1317,449,81033,0
patternWeightCount-50,true,1.00,1442,485,1428,475,87716,0
patternWeightCount-51,true,1.00,1271,525,1266,505,79251,0
patternWeightCount-52,true,1.00,1851,568,1838,554,114639,0
patternWeightCount-53,false,0.77,3035,474,3023,474,173199,0
patternWeightCount-54,true,1.00,906,554,891,544,54638,0
patternWeightCount-55,false,0.96,3288,586,3270,586,181032,0
patternWeightCount-56,true,1.00,1143,472,1130,462,69704,0
patternWeightCount-57,true,1.00,573,444,561,434,33890,0
patternWeightCount-58,true,1.00,1589,514,1576,503,95730,0
patternWeightCount-59,true,1.00,548,469,533,459,33028,0
patternWeightCount-60,true,1.00,1647,564,1628,552,70195,0
patternWeightCount-61,true,1.00,1437,462,1414,451,64660,0
patternWeightCount-62,true,1.00,3239,575,3230,558,167057,0
patternWeightCount-63,true,1.00,1670,496,1654,486,85613,0
patternWeightCount-64,true,1.00,1645,482,1626,472,53041,0
patternWeightCount-65,true,1.00,1526,549,1508,539,86700,0
patternWeightCount-66,true,1.00,1180,464,1172,454,71046,0
patternWeightCount-67,true,1.00,1800,531,1786,521,103753,0
patternWeightCount-68,false,0.85,20252,999,20236,999,666491,0
patternWeightCount-69,false,0.96,4255,560,4242,560,172594,0
patternWeightCount-70,true,1.00,1425,531,1412,519,87845,0
patternWeightCount-71,true,1.00,1088,449,1077,438,68483,0
patternWeightCount-72,false,0.76,4948,531,4938,531,292096,0
patternWeightCount-73,false,0.96,8895,624,8889,624,459462,0
patternWeightCount-74,true,1.00,847,466,835,456,52793,0
patternWeightCount-75,true,1.00,1086,460,1076,450,64474,0
patternWeightCount-76,true,1.00,984,501,976,491,60124,0
patternWeightCount-77,true,1.00,1594,493,1582,483,101046,0
patternWeightCount-78,true,1.00,3114,568,3100,558,178535,0
patternWeightCount-79,true,1.00,1801,432,1797,422,108393,0
patternWeightCount-80,true,1.00,1932,549,1919,539,118982,0
patternWeightCount-81,false,0.81,3429,520,3420,520,194325,0
patternWeightCount-82,true,1.00,291,414,277,402,17160,0
patternWeightCount-83,true,1.00,837,470,831,460,52446,0
patternWeightCount-84,true,1.00,1169,485,1156,475,71012,0
patternWeightCount-85,true,1.00,2291,478,2271,468,116032,0
patternWeightCount-86,false,0.93,4627,502,4607,502,233843,0
patternWeightCount-87,false,0.72,2812,422,2792,422,95009,0
patternWeightCount-88,true,1.00,1584,503,1572,489,97591,0
patternWeightCount-89,true,1.00,705,448,691,438,45016,0
patternWeightCount-90,false,0.90,5516,564,5506,564,337539,0
patternWeightCount-91,true,1.00,1543,514,1531,504,95074,0
patternWeightCount-92,true,1.00,4917,645,4908,618,294078,0
patternWeightCount-93,false,0.89,3694,530,3683,530,214491,0
patternWeightCount-94,true,1.00,1666,537,1652,527,98226,0
patternWeightCount-95,true,1.00,1659,474,1641,464,55479,0
patternWeightCount-96,true,1.00,1232,545,1220,535,68069,0
patternWeightCount-97,true,1.00,1309,401,1298,391,82900,0
patternWeightCount-98,false,0.93,10985,690,10974,690,661013,0
patternWeightCount-99,true,1.00,1959,542,1950,532,121703,0
patternWeightCount-100,true,1.00,1017,494,1008,484,61250,0
