NDW:0.0
TTFW:0.2
DFPT:2.0
DFPAP:3.0
DFPMP:5.0
RIGHT_WINDOW_BORDER_X:35.0
level,win/fail,% travelled,run time,game ticks,planning time,total plannings,nodes evaluated,most backtracked nodes
patternOccur-1,false,0.43,2174,544,2173,544,224774,0
patternOccur-2,false,0.85,5353,999,5346,999,534767,0
patternOccur-3,false,0.32,4039,673,4034,673,422760,0
patternOccur-4,false,0.05,734,131,731,131,101441,0
patternOccur-5,false,0.77,4205,999,4195,999,442979,0
patternOccur-6,false,0.05,1307,173,1306,173,181927,0
patternOccur-7,false,0.31,2751,483,2749,483,286042,0
patternOccur-8,false,0.59,7527,887,7524,887,722049,0
patternOccur-9,false,0.11,526,149,523,149,52906,0
patternOccur-10,false,0.66,5578,999,5574,999,579095,0
patternOccur-11,false,0.25,2635,444,2631,444,274019,0
patternOccur-12,false,0.52,5221,732,5214,732,507265,0
patternOccur-13,false,0.86,4511,999,4508,999,479707,0
patternOccur-14,false,0.17,3108,385,3104,385,325741,0
patternOccur-15,false,0.32,3195,479,3192,479,321974,0
patternOccur-16,false,0.05,529,111,528,111,74464,0
patternOccur-17,false,0.33,4254,475,4251,475,402662,0
patternOccur-18,false,0.45,2610,638,2606,638,269350,0
patternOccur-19,false,0.62,4068,790,4062,790,413439,0
patternOccur-20,false,0.44,1794,466,1791,466,184589,0
patternOccur-21,false,0.03,252,126,251,126,53021,0
patternOccur-22,false,0.33,7056,629,7053,629,685077,0
patternOccur-23,false,0.05,1301,152,1301,152,171559,0
patternOccur-24,false,0.52,4643,837,4639,837,513506,0
patternOccur-25,false,0.61,5599,999,5596,999,574683,0
patternOccur-26,true,1.00,3227,967,3225,962,329559,0
patternOccur-27,false,0.69,4018,999,4013,999,401770,0
patternOccur-28,false,0.22,1738,280,1736,280,174621,0
patternOccur-29,false,0.85,5857,999,5851,999,574105,0
patternOccur-30,false,0.14,1442,273,1440,273,166234,0
patternOccur-31,false,0.32,1679,507,1672,507,183236,0
patternOccur-32,false,0.75,6010,999,6007,999,631806,0
patternOccur-33,false,0.50,5212,740,5205,740,499626,0
patternOccur-34,false,0.66,9217,999,9213,999,904231,0
patternOccur-35,false,0.74,4972,999,4965,999,510145,0
patternOccur-36,false,0.12,2205,243,2204,243,227093,0
patternOccur-37,false,0.78,6301,999,6295,999,626088,0
patternOccur-38,false,0.04,144,62,144,62,25864,0
patternOccur-39,false,0.29,4864,503,4862,503,484721,0
patternOccur-40,false,0.46,4512,731,4508,731,473841,0
patternOccur-41,false,0.67,5756,987,5750,987,595081,0
patternOccur-42,false,0.09,2043,214,2043,214,208108,0
patternOccur-43,false,0.33,4342,542,4340,542,419134,0
patternOccur-44,false,0.14,410,1008,404,1008,49232,0
patternOccur-45,false,0.76,4576,999,4566,999,468946,0
patternOccur-46,false,0.69,4600,887,4591,887,457404,0
patternOccur-47,false,0.37,6042,596,6041,596,582854,0
patternOccur-48,false,0.35,3164,594,3159,594,326094,0
patternOccur-49,false,0.69,4515,860,4510,860,432854,0
patternOccur-50,false,0.34,1371,444,1369,444,136317,0
patternOccur-51,false,0.25,1939,328,1937,328,190516,0
patternOccur-52,false,0.61,6494,999,6490,999,653720,0
patternOccur-53,false,0.15,3551,300,3549,300,335160,0
patternOccur-54,false,0.18,2210,303,2210,303,219455,0
patternOccur-55,false,0.35,5779,666,5773,666,596299,0
patternOccur-56,false,0.14,3870,335,3868,335,381139,0
patternOccur-57,false,0.18,2548,349,2548,349,247102,0
patternOccur-58,false,0.71,5986,1008,5983,1008,592069,0
patternOccur-59,false,0.66,5551,971,5539,971,555655,0
patternOccur-60,false,0.76,4773,999,4766,999,502338,0
patternOccur-61,false,0.09,1302,199,1301,199,164119,0
patternOccur-62,false,0.48,5219,703,5215,703,518363,0
patternOccur-63,false,0.64,7222,999,7213,999,734354,0
patternOccur-64,false,0.63,5267,879,5260,879,529247,0
patternOccur-65,false,0.52,6418,783,6415,783,641444,0
patternOccur-66,false,0.57,5321,789,5316,789,564586,0
patternOccur-67,false,0.21,1112,231,1111,231,109236,0
patternOccur-68,false,0.90,5247,999,5242,999,524037,0
patternOccur-69,false,0.73,4520,999,4514,999,481294,0
patternOccur-70,false,0.06,1406,180,1404,180,182418,0
patternOccur-71,false,0.28,4372,592,4369,592,477963,0
patternOccur-72,false,0.68,7272,999,7269,999,716598,0
patternOccur-73,false,0.42,17531,999,17529,999,1593080,0
patternOccur-74,false,0.03,713,140,709,140,128448,0
patternOccur-75,false,0.34,1699,431,1696,431,168912,0
patternOccur-76,false,0.14,2369,306,2366,306,249281,0
patternOccur-77,false,0.30,1750,1008,1745,1008,177713,0
patternOccur-78,false,0.76,4732,999,4728,999,489997,0
patternOccur-79,false,0.12,1699,276,1696,276,190420,0
patternOccur-80,false,0.16,1837,255,1836,255,169071,0
patternOccur-81,false,0.19,4711,492,4707,492,467504,0
patternOccur-82,false,0.68,6643,999,6638,999,668312,0
patternOccur-83,false,0.92,4070,999,4061,999,421013,0
patternOccur-84,false,0.57,5550,918,5544,918,576799,0
patternOccur-85,false,0.24,992,328,990,328,109979,0
patternOccur-86,false,0.38,4526,573,4524,573,429055,0
patternOccur-87,false,0.75,5647,999,5642,999,585207,0
patternOccur-88,false,0.12,2498,333,2497,333,282196,0
patternOccur-89,false,0.00,1503,999,1497,999,413562,0
patternOccur-90,false,0.54,3526,708,3523,708,354360,0
patternOccur-91,false,0.34,3574,1008,3567,1008,433701,0
patternOccur-92,false,0.65,5735,946,5731,946,572377,0
patternOccur-93,false,0.67,7611,999,7605,999,721468,0
patternOccur-94,false,0.06,914,111,912,111,95767,0
patternOccur-95,false,0.18,1952,273,1952,273,202721,0
patternOccur-96,false,0.07,654,145,652,145,87083,0
patternOccur-97,false,0.07,3410,294,3408,294,431177,0
patternOccur-98,false,0.44,2535,626,2532,626,283348,0
patternOccur-99,false,0.34,1891,441,1886,441,185245,0
patternOccur-100,false,0.14,2283,266,2283,266,207610,0
