NDW:0.0
TTFW:1.4
DFPT:2.0
DFPAP:3.0
DFPMP:7.0
RIGHT_WINDOW_BORDER_X:15.0
level,win/fail,% travelled,run time,game ticks,planning time,total plannings,nodes evaluated,most backtracked nodes
ge-1,false,0.21,203,130,203,130,19668,0
ge-2,false,0.15,3,87,3,87,720,0
ge-3,false,0.50,6,223,5,223,1227,0
ge-4,false,0.09,123,88,122,88,13345,0
ge-5,false,0.43,5,166,3,166,956,0
ge-6,false,0.52,140,258,137,258,13942,0
ge-7,false,0.43,238,223,235,223,22656,0
ge-8,false,0.53,6,213,3,213,1169,0
ge-9,false,0.12,1,54,1,54,368,0
ge-10,true,1.00,11,403,10,401,2243,0
ge-11,false,0.30,5,170,2,170,1190,0
ge-12,false,0.25,2,104,2,104,530,0
ge-13,false,0.20,2,98,1,98,612,0
ge-14,false,0.20,2,98,2,98,612,0
ge-15,false,0.36,4,137,4,137,862,0
ge-16,false,0.08,1,44,0,44,346,0
ge-17,false,0.24,169,128,169,128,16320,0
ge-18,false,0.10,258,99,257,99,30789,0
ge-19,false,0.18,299,117,299,117,27785,0
ge-20,false,0.35,4,147,4,147,809,0
ge-21,false,0.35,502,210,502,210,45085,0
ge-22,false,0.67,7,258,6,258,1337,0
ge-23,false,0.31,400,176,400,176,37651,0
ge-24,false,0.46,7,214,6,214,1509,0
ge-25,false,0.12,2,56,2,56,378,0
ge-26,false,0.49,242,252,242,252,25083,0
ge-27,true,1.00,9,409,8,407,2079,0
ge-28,false,0.36,401,216,401,216,38175,0
ge-29,false,0.37,506,248,505,248,47458,0
ge-30,false,0.09,138,95,138,95,16840,0
ge-31,false,0.24,335,134,335,134,33105,0
ge-32,false,0.74,10,315,5,315,2094,0
ge-33,false,0.78,206,350,206,350,20251,0
ge-34,false,0.12,137,100,137,100,14304,0
ge-35,false,0.18,605,174,605,174,53037,0
ge-36,false,0.10,147,98,147,98,16468,0
ge-37,false,0.33,4,151,3,151,1078,0
ge-38,false,0.21,3,98,3,98,712,0
ge-39,false,0.17,1,73,0,73,458,0
ge-40,true,1.00,7,373,3,371,1525,0
ge-41,false,0.18,3,84,3,84,703,0
ge-42,false,0.17,2,72,2,72,425,0
ge-43,false,0.08,1,44,1,44,346,0
ge-44,false,0.33,206,208,205,208,20027,0
ge-45,false,0.10,3,61,2,61,559,0
ge-46,false,0.13,1,57,1,57,377,0
ge-47,false,0.17,203,127,203,127,22187,0
ge-48,false,0.33,11,194,11,194,2418,0
ge-49,false,0.61,4,229,4,229,932,0
ge-50,false,0.34,401,179,398,179,38153,0
ge-51,false,0.35,4,159,4,159,992,0
ge-52,false,0.12,1,54,1,54,368,0
ge-53,false,0.21,633,172,632,172,57803,0
ge-54,false,0.52,8,243,5,243,1840,0
ge-55,false,0.59,6,259,6,259,1437,0
ge-56,false,0.12,1003,164,1003,164,95302,0
ge-57,false,0.06,1,30,1,30,284,0
ge-58,false,0.15,4,92,3,92,842,0
ge-59,false,0.37,140,222,137,222,14589,0
ge-60,false,0.20,4,100,3,100,709,0
ge-61,false,0.20,3,94,3,94,606,0
ge-62,false,0.27,2,109,1,109,553,0
ge-63,false,0.20,2,83,1,83,456,0
ge-64,false,0.08,1,38,1,38,316,0
ge-65,false,0.39,371,230,369,230,37308,0
ge-66,false,0.24,2,95,2,95,496,0
ge-67,false,0.49,7,223,6,223,1311,0
ge-68,false,0.12,2,53,1,53,360,0
ge-69,false,0.06,1,30,1,30,293,0
ge-70,false,0.66,7,288,4,288,1678,0
ge-71,false,0.06,1,31,1,31,294,0
ge-72,false,0.56,5,230,4,230,1173,0
ge-73,false,0.15,201,97,201,97,19445,0
ge-74,false,0.46,243,271,242,271,24458,0
ge-75,false,0.17,2,74,2,74,431,0
ge-76,false,0.12,2,54,1,54,368,0
ge-77,false,0.11,212,90,211,90,22439,0
ge-78,false,0.56,340,303,338,303,32946,0
ge-79,false,0.30,2,117,2,117,559,0
ge-80,true,1.00,11,421,7,419,2422,0
ge-81,true,1.00,10,396,8,394,2046,0
ge-82,false,0.41,3,156,1,156,685,0
ge-83,false,0.09,293,94,292,94,34340,0
ge-84,false,0.12,2,54,0,54,368,0
ge-85,false,0.40,4,166,4,166,821,0
ge-86,false,0.36,238,176,237,176,22335,0
ge-87,false,0.12,2,56,0,56,378,0
ge-88,false,0.17,432,127,430,127,42502,0
ge-89,false,0.21,4,111,3,111,1003,0
ge-90,false,0.83,7,316,6,316,1473,0
ge-91,false,0.86,9,358,6,358,2021,0
ge-92,true,1.00,12,449,11,447,2629,0
ge-93,false,0.40,138,203,138,203,13172,0
ge-94,false,0.16,3,85,3,85,656,0
ge-95,false,0.10,3,61,3,61,559,0
ge-96,false,0.24,204,165,201,165,21668,0
ge-97,false,0.51,4,192,3,192,804,0
ge-98,true,1.00,8,373,5,371,1578,0
ge-99,false,0.18,3,77,2,77,535,0
ge-100,false,0.12,234,86,234,86,23143,0
