NDW:0.0
TTFW:0.4
DFPT:2.0
DFPAP:3.0
DFPMP:10.0
RIGHT_WINDOW_BORDER_X:95.0
level,win/fail,% travelled,run time,game ticks,planning time,total plannings,nodes evaluated,most backtracked nodes
patternWeightCount-1,false,0.83,7497,717,7495,717,764820,0
patternWeightCount-2,true,1.00,1124,504,1119,492,113073,0
patternWeightCount-3,true,1.00,1013,538,1010,529,110545,0
patternWeightCount-4,true,1.00,1104,476,1102,467,108810,0
patternWeightCount-5,true,1.00,4383,686,4375,675,448885,0
patternWeightCount-6,true,1.00,4065,664,4063,654,412729,0
patternWeightCount-7,true,1.00,1114,512,1109,502,114273,0
patternWeightCount-8,true,1.00,796,501,792,493,80932,0
patternWeightCount-9,true,1.00,1312,558,1307,548,140333,0
patternWeightCount-10,true,1.00,1389,572,1386,562,143237,0
patternWeightCount-11,true,1.00,826,535,822,526,93350,0
patternWeightCount-12,true,1.00,2618,540,2618,530,271692,0
patternWeightCount-13,true,1.00,1805,523,1802,514,185542,0
patternWeightCount-14,true,1.00,1545,548,1539,538,161521,0
patternWeightCount-15,true,1.00,5871,724,5866,715,583803,0
patternWeightCount-16,true,1.00,7621,755,7618,739,795302,0
patternWeightCount-17,true,1.00,1700,618,1696,608,194752,0
patternWeightCount-18,true,1.00,1551,606,1546,596,165200,0
patternWeightCount-19,true,1.00,1104,554,1100,544,108579,0
patternWeightCount-20,false,0.61,5888,496,5887,496,578206,0
patternWeightCount-21,true,1.00,427,525,422,515,49296,0
patternWeightCount-22,true,1.00,5144,782,5137,765,549065,0
patternWeightCount-23,true,1.00,1568,584,1566,571,170340,0
patternWeightCount-24,true,1.00,2296,561,2293,551,238908,0
patternWeightCount-25,false,0.28,2134,218,2134,218,218733,0
patternWeightCount-26,true,1.00,1804,622,1800,607,188853,0
patternWeightCount-27,true,1.00,3875,671,3867,661,394430,0
patternWeightCount-28,true,1.00,1864,578,1861,568,204989,0
patternWeightCount-29,true,1.00,3871,624,3869,613,395498,0
patternWeightCount-30,false,0.82,5508,635,5502,635,543396,0
patternWeightCount-31,true,1.00,1973,592,1969,581,209672,0
patternWeightCount-32,true,1.00,638,479,636,469,71159,0
patternWeightCount-33,true,1.00,1438,624,1433,615,155825,0
patternWeightCount-34,true,1.00,3390,662,3385,652,342780,0
patternWeightCount-35,true,1.00,5798,702,5795,692,572602,0
patternWeightCount-36,true,1.00,4633,706,4629,696,470870,0
patternWeightCount-37,true,1.00,1390,547,1386,537,143723,0
patternWeightCount-38,false,0.94,5025,679,5023,679,503485,0
patternWeightCount-39,true,1.00,4227,648,4224,634,419848,0
patternWeightCount-40,true,1.00,4606,665,4604,656,482859,0
patternWeightCount-41,true,1.00,2163,602,2159,592,220691,0
patternWeightCount-42,false,0.87,8095,712,8093,712,809865,0
patternWeightCount-43,true,1.00,2054,572,2052,562,212258,0
patternWeightCount-44,true,1.00,4099,690,4095,671,447055,0
patternWeightCount-45,false,0.84,6269,665,6267,665,587810,0
patternWeightCount-46,false,0.86,5730,635,5721,635,572328,0
patternWeightCount-47,true,1.00,2031,580,2030,570,196518,0
patternWeightCount-48,true,1.00,1359,487,1358,475,139301,0
patternWeightCount-49,true,1.00,1281,566,1280,557,133713,0
patternWeightCount-50,true,1.00,790,472,790,462,80563,0
patternWeightCount-51,true,1.00,1875,549,1872,537,193587,0
patternWeightCount-52,true,1.00,3508,580,3504,569,364879,0
patternWeightCount-53,false,0.85,9927,831,9923,831,961966,0
patternWeightCount-54,true,1.00,1427,574,1422,565,153965,0
patternWeightCount-55,false,0.97,3661,647,3655,647,322105,0
patternWeightCount-56,true,1.00,3022,618,3019,608,316152,0
patternWeightCount-57,true,1.00,1841,612,1838,603,197902,0
patternWeightCount-58,true,1.00,3127,637,3123,627,330228,0
patternWeightCount-59,true,1.00,851,505,849,495,100072,0
patternWeightCount-60,true,1.00,4060,709,4056,700,403260,0
patternWeightCount-61,true,1.00,2168,605,2163,589,208233,0
patternWeightCount-62,true,1.00,6738,744,6734,716,686902,0
patternWeightCount-63,true,1.00,3063,663,3060,653,346209,0
patternWeightCount-64,true,1.00,4140,648,4133,639,409238,0
patternWeightCount-65,true,1.00,3709,626,3703,616,372518,0
patternWeightCount-66,true,1.00,1236,528,1232,518,131946,0
patternWeightCount-67,true,1.00,2086,658,2086,648,209996,0
patternWeightCount-68,true,1.00,1612,630,1607,618,168197,0
patternWeightCount-69,false,0.97,9243,774,9237,774,922160,0
patternWeightCount-70,true,1.00,1803,568,1798,559,192510,0
patternWeightCount-71,true,1.00,1314,550,1313,539,133071,0
patternWeightCount-72,false,0.75,9150,697,9147,697,968535,0
patternWeightCount-73,false,0.67,6145,553,6142,553,606787,0
patternWeightCount-74,true,1.00,1176,522,1172,512,125794,0
patternWeightCount-75,true,1.00,2162,643,2159,633,216617,0
patternWeightCount-76,true,1.00,1531,581,1527,571,161944,0
patternWeightCount-77,true,1.00,3067,640,3062,630,310774,0
patternWeightCount-78,true,1.00,5954,677,5951,666,595774,0
patternWeightCount-79,true,1.00,2828,553,2826,542,275627,0
patternWeightCount-80,true,1.00,2033,624,2030,614,212023,0
patternWeightCount-81,false,0.81,7141,614,7140,614,664893,0
patternWeightCount-82,true,1.00,327,484,323,474,37874,0
patternWeightCount-83,true,1.00,1530,520,1526,510,172055,0
patternWeightCount-84,true,1.00,2126,605,2118,595,208306,0
patternWeightCount-85,true,1.00,3956,621,3950,611,400133,0
patternWeightCount-86,false,0.90,3990,592,3988,592,399875,0
patternWeightCount-87,false,0.71,6474,565,6471,565,608083,0
patternWeightCount-88,true,1.00,3887,655,3881,645,403169,0
patternWeightCount-89,true,1.00,1855,540,1852,530,192561,0
patternWeightCount-90,false,0.87,10302,844,10299,844,1029219,0
patternWeightCount-91,true,1.00,1835,561,1833,551,194449,0
patternWeightCount-92,true,1.00,7298,729,7295,692,732093,0
patternWeightCount-93,false,0.89,4599,623,4596,623,455956,0
patternWeightCount-94,true,1.00,1854,606,1849,595,211228,0
patternWeightCount-95,true,1.00,2210,566,2209,556,223325,0
patternWeightCount-96,true,1.00,1897,629,1895,619,200622,0
patternWeightCount-97,true,1.00,4464,641,4458,630,458246,0
patternWeightCount-98,false,0.77,4998,546,4994,546,508797,0
patternWeightCount-99,true,1.00,3049,668,3047,658,321865,0
patternWeightCount-100,true,1.00,1147,553,1143,543,123116,0
