NDW:0.0
TTFW:0.6
DFPT:2.0
DFPAP:3.0
DFPMP:20.0
RIGHT_WINDOW_BORDER_X:255.0
level,win/fail,% travelled,run time,game ticks,planning time,total plannings,nodes evaluated,most backtracked nodes
patternOccur-1,true,1.00,1548,425,1538,402,73141,0
patternOccur-2,true,1.00,1300,406,1291,383,63590,0
patternOccur-3,true,1.00,2202,414,2198,391,110833,0
patternOccur-4,true,1.00,1379,386,1371,363,69827,0
patternOccur-5,true,1.00,852,370,842,347,42194,0
patternOccur-6,true,1.00,1747,436,1739,413,86916,0
patternOccur-7,true,1.00,1492,420,1479,395,75286,0
patternOccur-8,true,1.00,1475,380,1467,357,73731,0
patternOccur-9,true,1.00,1937,418,1927,395,95561,0
patternOccur-10,true,1.00,1029,389,1016,366,52223,0
patternOccur-11,true,1.00,4219,452,4212,427,202849,0
patternOccur-12,true,1.00,1695,426,1683,397,83148,0
patternOccur-13,true,1.00,1173,414,1170,391,57231,0
patternOccur-14,true,1.00,3972,438,3964,379,194454,0
patternOccur-15,true,1.00,1320,344,1313,321,66712,0
patternOccur-16,true,1.00,5737,474,5730,451,277343,0
patternOccur-17,true,1.00,1454,394,1451,371,71935,0
patternOccur-18,true,1.00,1024,369,1014,341,50909,0
patternOccur-19,false,0.83,6036,473,6024,473,278708,0
patternOccur-20,true,1.00,972,356,962,333,50474,0
patternOccur-21,true,1.00,1188,428,1184,403,59602,0
patternOccur-22,false,0.84,2910,391,2898,391,144764,0
patternOccur-23,true,1.00,1612,391,1604,368,79464,0
patternOccur-24,true,1.00,1469,400,1453,377,71950,0
patternOccur-25,true,1.00,1635,426,1628,403,81797,0
patternOccur-26,true,1.00,817,346,807,323,41526,0
patternOccur-27,true,1.00,3485,448,3475,392,173228,0
patternOccur-28,true,1.00,1517,404,1508,380,75614,0
patternOccur-29,true,1.00,921,368,910,341,46216,0
patternOccur-30,true,1.00,898,371,889,348,44907,0
patternOccur-31,true,1.00,4042,437,4035,407,205918,0
patternOccur-32,true,1.00,3542,416,3537,392,175937,0
patternOccur-33,true,1.00,1255,378,1249,355,64518,0
patternOccur-34,true,1.00,1485,397,1476,374,78091,0
patternOccur-35,true,1.00,975,366,966,343,49414,0
patternOccur-36,true,1.00,2806,415,2797,382,145027,0
patternOccur-37,true,1.00,3921,483,3917,419,195630,0
patternOccur-38,true,1.00,1226,385,1217,362,62532,0
patternOccur-39,true,1.00,3068,460,3057,437,152985,0
patternOccur-40,true,1.00,2115,394,2105,371,108433,0
patternOccur-41,true,1.00,1522,418,1510,384,75977,0
patternOccur-42,false,0.89,3690,419,3677,419,178198,0
patternOccur-43,true,1.00,952,344,942,321,48040,0
patternOccur-44,true,1.00,1375,384,1365,361,71601,0
patternOccur-45,true,1.00,1744,383,1743,349,86339,0
patternOccur-46,true,1.00,1164,364,1156,341,59173,0
patternOccur-47,true,1.00,3662,450,3654,410,188318,0
patternOccur-48,true,1.00,1155,364,1141,341,58858,0
patternOccur-49,true,1.00,1183,379,1167,356,59226,0
patternOccur-50,true,1.00,1949,391,1945,367,97446,0
patternOccur-51,true,1.00,1281,361,1275,337,66740,0
patternOccur-52,true,1.00,1393,399,1387,376,71413,0
patternOccur-53,true,1.00,1429,374,1422,351,72388,0
patternOccur-54,true,1.00,1978,397,1966,369,102869,0
patternOccur-55,true,1.00,1981,437,1969,414,98239,0
patternOccur-56,true,1.00,1484,398,1476,375,76858,0
patternOccur-57,true,1.00,1632,403,1625,378,82310,0
patternOccur-58,true,1.00,5610,499,5601,445,284595,0
patternOccur-59,true,1.00,1451,378,1442,355,74965,0
patternOccur-60,true,1.00,2613,399,2609,364,132683,0
patternOccur-61,true,1.00,1451,385,1441,360,76150,0
patternOccur-62,true,1.00,1472,385,1464,362,73680,0
patternOccur-63,true,1.00,1334,392,1319,369,67640,0
patternOccur-64,true,1.00,1723,373,1715,348,87923,0
patternOccur-65,true,1.00,911,378,902,355,45797,0
patternOccur-66,true,1.00,1275,388,1262,365,64316,0
patternOccur-67,true,1.00,1652,415,1643,392,87418,0
patternOccur-68,true,1.00,1103,389,1099,366,55828,0
patternOccur-69,true,1.00,6356,520,6351,496,301746,0
patternOccur-70,true,1.00,4632,460,4624,421,223410,0
patternOccur-71,true,1.00,2371,416,2369,393,121987,0
patternOccur-72,false,0.87,3835,403,3824,403,183138,0
patternOccur-73,true,1.00,3456,410,3446,386,172607,0
patternOccur-74,true,1.00,3271,450,3268,406,162236,0
patternOccur-75,true,1.00,1972,412,1966,386,102277,0
patternOccur-76,true,1.00,1214,348,1205,325,62720,0
patternOccur-77,true,1.00,900,398,891,375,45515,0
patternOccur-78,true,1.00,867,367,857,344,42439,0
patternOccur-79,true,1.00,1396,383,1381,360,70787,0
patternOccur-80,true,1.00,2745,423,2737,388,135297,0
patternOccur-81,true,1.00,3753,409,3745,385,192086,0
patternOccur-82,true,1.00,1774,385,1768,355,89557,0
patternOccur-83,true,1.00,992,379,981,356,51028,0
patternOccur-84,true,1.00,1235,388,1222,365,60623,0
patternOccur-85,true,1.00,3306,451,3299,427,165835,0
patternOccur-86,true,1.00,4895,439,4885,414,230893,0
patternOccur-87,true,1.00,1138,401,1130,373,56101,0
patternOccur-88,true,1.00,1604,390,1600,367,81389,0
patternOccur-89,true,1.00,1381,393,1372,370,69966,0
patternOccur-90,true,1.00,1380,377,1366,353,70501,0
patternOccur-91,true,1.00,1019,387,1010,364,52107,0
patternOccur-92,true,1.00,1067,376,1058,353,51012,0
patternOccur-93,true,1.00,1258,361,1252,337,64515,0
patternOccur-94,true,1.00,5889,469,5884,445,280567,0
patternOccur-95,true,1.00,1368,418,1359,395,69899,0
patternOccur-96,false,0.87,2557,337,2554,337,126863,0
patternOccur-97,true,1.00,1436,397,1428,374,72767,0
patternOccur-98,false,0.90,2272,359,2265,359,111048,0
patternOccur-99,true,1.00,575,354,567,331,28879,0
patternOccur-100,true,1.00,1581,431,1572,408,76344,0
