NDW:0.0
TTFW:1.8
DFPT:2.0
DFPAP:3.0
DFPMP:0.0
RIGHT_WINDOW_BORDER_X:176.0
level,win/fail,% travelled,run time,game ticks,planning time,total plannings,nodes evaluated,most backtracked nodes
hopper-1,true,1.00,1476,357,1471,341,154624,0
hopper-2,true,1.00,1128,341,1127,325,116919,0
hopper-3,false,0.24,1161,101,1157,101,95644,0
hopper-4,false,0.26,864,102,860,102,81633,0
hopper-5,true,1.00,956,326,938,310,84382,0
hopper-6,true,1.00,940,322,937,304,95845,0
hopper-7,false,0.83,1554,274,1552,274,141774,0
hopper-8,false,0.42,1829,171,1829,171,152988,0
hopper-9,true,1.00,1300,335,1299,319,136688,0
hopper-10,true,1.00,920,329,917,313,102653,0
hopper-11,true,1.00,748,331,745,315,80260,0
hopper-12,true,1.00,1161,340,1158,323,120488,0
hopper-13,true,1.00,1725,377,1720,361,189295,0
hopper-14,true,1.00,1171,334,1171,316,122229,0
hopper-15,true,1.00,1025,317,1025,301,106528,0
hopper-16,false,0.54,1901,203,1900,203,157085,0
hopper-17,true,1.00,973,313,971,297,99716,0
hopper-18,true,1.00,1102,316,1102,300,109954,0
hopper-19,true,1.00,1000,331,999,315,121378,0
hopper-20,true,1.00,1194,355,1192,339,124804,0
hopper-21,false,0.62,2255,243,2253,243,192018,0
hopper-22,false,0.32,2302,156,2301,156,185175,0
hopper-23,true,1.00,1035,322,1033,306,106457,0
hopper-24,true,1.00,614,331,612,315,64020,0
hopper-25,true,1.00,1085,309,1083,293,121259,0
hopper-26,true,1.00,1029,305,1027,289,103827,0
hopper-27,true,1.00,998,332,995,316,109627,0
hopper-28,false,0.85,3049,333,3048,333,298135,0
hopper-29,false,0.26,1297,110,1297,110,103130,0
hopper-30,true,1.00,1133,344,1132,328,121665,0
hopper-31,false,0.77,2270,281,2269,281,201659,0
hopper-32,true,1.00,1407,315,1405,299,153646,0
hopper-33,false,0.49,1874,201,1872,201,154373,0
hopper-34,true,1.00,1529,356,1512,340,164209,0
hopper-35,true,1.00,1353,352,1347,336,158067,0
hopper-36,true,1.00,786,322,785,306,82577,0
hopper-37,false,0.51,655,171,653,171,58874,0
hopper-38,false,0.52,2448,218,2448,218,222683,0
hopper-39,true,1.00,1365,347,1365,331,153188,0
hopper-40,true,1.00,1013,350,1010,333,98074,0
hopper-41,true,1.00,1657,315,1655,299,167367,0
hopper-42,true,1.00,967,325,966,309,95753,0
hopper-43,false,0.45,2725,212,2724,212,225550,0
hopper-44,true,1.00,1439,323,1438,307,153222,0
hopper-45,false,0.43,2297,195,2297,195,189651,0
hopper-46,false,0.66,3732,308,3730,308,327511,0
hopper-47,true,1.00,1575,325,1572,309,166434,0
hopper-48,true,1.00,1111,325,1110,309,115244,0
hopper-49,true,1.00,1441,347,1435,331,153555,0
hopper-50,true,1.00,2327,361,2326,345,219904,0
hopper-51,false,0.33,1429,132,1429,132,114738,0
hopper-52,true,1.00,698,307,694,291,77402,0
hopper-53,false,0.63,2411,262,2409,262,209292,0
hopper-54,true,1.00,568,300,567,282,58917,0
hopper-55,true,1.00,724,355,721,338,81809,0
hopper-56,true,1.00,666,297,663,281,75021,0
hopper-57,true,1.00,1232,341,1231,325,122522,0
hopper-58,true,1.00,1439,328,1438,312,161061,0
hopper-59,true,1.00,800,310,797,294,88282,0
hopper-60,true,1.00,1014,326,1012,310,110710,0
hopper-61,true,1.00,1759,340,1757,324,183297,0
hopper-62,true,1.00,1153,340,1149,324,117953,0
hopper-63,true,1.00,1130,331,1128,315,126582,0
hopper-64,true,1.00,1121,331,1121,315,115170,0
hopper-65,true,1.00,956,321,953,303,104909,0
hopper-66,true,1.00,1041,348,1040,332,112401,0
hopper-67,true,1.00,857,326,856,310,93086,0
hopper-68,true,1.00,661,326,659,310,69828,0
hopper-69,false,0.84,3184,335,3181,335,272051,0
hopper-70,true,1.00,1254,322,1254,306,134441,0
hopper-71,true,1.00,608,305,607,289,62635,0
hopper-72,true,1.00,2087,355,2084,338,212778,0
hopper-73,true,1.00,1048,323,1047,307,108098,0
hopper-74,true,1.00,732,305,730,289,72020,0
hopper-75,true,1.00,912,323,904,307,92461,0
hopper-76,true,1.00,1545,353,1542,337,161327,0
hopper-77,true,1.00,1086,369,1083,353,107826,0
hopper-78,true,1.00,1113,318,1112,302,127992,0
hopper-79,true,1.00,702,309,699,293,74202,0
hopper-80,true,1.00,831,323,826,307,83709,0
hopper-81,false,0.38,2648,182,2648,182,216809,0
hopper-82,false,0.46,977,149,975,149,85145,0
hopper-83,true,1.00,1262,327,1261,311,134006,0
hopper-84,true,1.00,1181,311,1177,295,115994,0
hopper-85,true,1.00,1728,361,1726,345,173397,0
hopper-86,true,1.00,973,321,972,305,103766,0
hopper-87,true,1.00,1149,329,1148,313,116111,0
hopper-88,true,1.00,757,337,756,321,88445,0
hopper-89,true,1.00,812,348,810,332,85165,0
hopper-90,true,1.00,836,325,835,309,90847,0
hopper-91,true,1.00,981,326,980,310,109105,0
hopper-92,true,1.00,1266,327,1266,311,122942,0
hopper-93,true,1.00,777,349,775,333,84834,0
hopper-94,true,1.00,1477,343,1476,327,159528,0
hopper-95,true,1.00,971,315,969,299,101792,0
hopper-96,true,1.00,1268,304,1265,288,134618,0
hopper-97,true,1.00,1338,323,1336,307,134360,0
hopper-98,true,1.00,2068,363,2067,347,217849,0
hopper-99,true,1.00,3253,390,3249,374,342539,0
hopper-100,true,1.00,1245,362,1241,336,129436,0
