NDW:0.0
TTFW:2.0
DFPT:2.0
DFPAP:3.0
DFPMP:10.0
RIGHT_WINDOW_BORDER_X:350.0
level,win/fail,% travelled,run time,game ticks,planning time,total plannings,nodes evaluated,most backtracked nodes
patternCount-1,false,0.88,4962,434,4952,434,256345,0
patternCount-2,true,1.00,1371,491,1361,457,75212,0
patternCount-3,true,1.00,3437,482,3424,444,184824,0
patternCount-4,true,1.00,1446,455,1437,423,81435,0
patternCount-5,true,1.00,1485,477,1474,445,83385,0
patternCount-6,true,1.00,631,387,620,349,33443,0
patternCount-7,true,1.00,1369,470,1357,438,75044,0
patternCount-8,true,1.00,3223,518,3214,458,186941,0
patternCount-9,true,1.00,1250,476,1235,440,68647,0
patternCount-10,true,1.00,591,385,585,354,30677,0
patternCount-11,true,1.00,4543,552,4526,491,258121,0
patternCount-12,true,1.00,1018,408,1004,366,54796,0
patternCount-13,true,1.00,971,452,955,411,51713,0
patternCount-14,true,1.00,1613,406,1605,374,92034,0
patternCount-15,true,1.00,1314,491,1306,459,69376,0
patternCount-16,true,1.00,2357,470,2341,438,66962,0
patternCount-17,true,1.00,1608,526,1599,494,87212,0
patternCount-18,true,1.00,1554,474,1543,442,84240,0
patternCount-19,true,1.00,1115,417,1106,385,59238,0
patternCount-20,true,1.00,1246,453,1236,410,67172,0
patternCount-21,true,1.00,1329,470,1320,438,68755,0
patternCount-22,true,1.00,2943,517,2935,464,170817,0
patternCount-23,true,1.00,5966,497,5959,459,336805,0
patternCount-24,true,1.00,5547,462,5535,420,330493,0
patternCount-25,true,1.00,1306,457,1297,414,74905,0
patternCount-26,true,1.00,873,455,863,423,45621,0
patternCount-27,true,1.00,1216,441,1204,402,67811,0
patternCount-28,true,1.00,1066,480,1056,419,57896,0
patternCount-29,true,1.00,1365,436,1350,404,75916,0
patternCount-30,true,1.00,1489,515,1474,483,81241,0
patternCount-31,true,1.00,1591,490,1576,458,88673,0
patternCount-32,true,1.00,1526,460,1516,426,86269,0
patternCount-33,true,1.00,3637,499,3628,449,210416,0
patternCount-34,true,1.00,2881,543,2864,476,168684,0
patternCount-35,true,1.00,1395,458,1388,426,77952,0
patternCount-36,true,1.00,2823,485,2807,420,162706,0
patternCount-37,true,1.00,1348,401,1341,369,74172,0
patternCount-38,true,1.00,2559,494,2553,453,145532,0
patternCount-39,true,1.00,1011,455,999,406,53855,0
patternCount-40,true,1.00,4400,473,4392,418,249465,0
patternCount-41,true,1.00,2192,505,2173,473,129703,0
patternCount-42,true,1.00,1411,475,1399,435,76535,0
patternCount-43,true,1.00,861,468,840,436,45916,0
patternCount-44,true,1.00,977,430,966,396,53037,0
patternCount-45,true,1.00,1401,442,1388,403,70699,0
patternCount-46,true,1.00,1704,461,1690,419,97621,0
patternCount-47,true,1.00,2022,501,2010,469,113732,0
patternCount-48,true,1.00,1259,444,1244,412,70781,0
patternCount-49,true,1.00,1774,476,1763,441,100721,0
patternCount-50,true,1.00,5465,573,5456,504,320662,0
patternCount-51,true,1.00,1126,409,1119,368,58030,0
patternCount-52,true,1.00,987,467,979,435,52961,0
patternCount-53,true,1.00,4435,516,4419,471,196111,0
patternCount-54,true,1.00,2107,534,2095,493,121151,0
patternCount-55,true,1.00,6101,486,6094,419,280881,0
patternCount-56,true,1.00,1683,480,1672,448,91749,0
patternCount-57,true,1.00,1073,440,1065,406,52967,0
patternCount-58,false,0.80,4814,453,4809,453,229784,0
patternCount-59,true,1.00,1326,468,1316,436,73993,0
patternCount-60,true,1.00,1454,471,1438,438,81268,0
patternCount-61,true,1.00,1269,463,1260,408,70669,0
patternCount-62,true,1.00,1422,489,1404,439,80815,0
patternCount-63,true,1.00,972,465,961,433,53545,0
patternCount-64,true,1.00,1403,462,1393,430,77386,0
patternCount-65,true,1.00,1098,432,1083,389,61491,0
patternCount-66,true,1.00,2231,491,2219,459,130879,0
patternCount-67,true,1.00,1800,476,1787,428,102051,0
patternCount-68,true,1.00,1173,426,1166,394,60829,0
patternCount-69,true,1.00,1459,514,1441,472,82240,0
patternCount-70,true,1.00,791,424,780,392,42001,0
patternCount-71,true,1.00,1556,504,1549,471,87354,0
patternCount-72,true,1.00,5035,471,5023,428,277211,0
patternCount-73,true,1.00,2363,560,2345,525,133211,0
patternCount-74,true,1.00,5687,483,5675,443,310687,0
patternCount-75,true,1.00,1531,462,1518,416,82551,0
patternCount-76,true,1.00,1454,491,1448,459,81318,0
patternCount-77,true,1.00,1664,447,1661,406,86751,0
patternCount-78,true,1.00,1684,496,1668,464,93681,0
patternCount-79,true,1.00,4844,515,4837,471,275003,0
patternCount-80,true,1.00,3567,544,3556,470,201787,0
patternCount-81,true,1.00,879,437,870,405,45762,0
patternCount-82,true,1.00,1273,456,1260,424,69585,0
patternCount-83,true,1.00,983,444,978,412,51201,0
patternCount-84,true,1.00,1255,434,1245,402,61364,0
patternCount-85,true,1.00,1021,461,1002,429,54576,0
patternCount-86,true,1.00,1057,433,1045,402,55562,0
patternCount-87,true,1.00,1565,514,1553,473,84564,0
patternCount-88,true,1.00,1409,438,1397,388,79685,0
patternCount-89,true,1.00,1287,477,1279,445,70935,0
patternCount-90,true,1.00,867,422,858,390,45242,0
patternCount-91,true,1.00,1890,499,1877,466,103739,0
patternCount-92,true,1.00,1163,488,1146,456,62357,0
patternCount-93,true,1.00,5985,552,5976,498,334148,0
patternCount-94,true,1.00,1675,438,1663,406,95540,0
patternCount-95,true,1.00,1664,463,1646,431,93195,0
patternCount-96,true,1.00,1189,416,1178,384,65888,0
patternCount-97,false,0.88,4236,415,4232,415,222594,0
patternCount-98,true,1.00,1464,528,1454,481,81027,0
patternCount-99,true,1.00,1179,465,1168,433,64959,0
patternCount-100,true,1.00,845,403,837,372,44331,0
