NDW:0.0
TTFW:1.4
DFPT:2.0
DFPAP:3.0
DFPMP:7.0
RIGHT_WINDOW_BORDER_X:95.0
level,win/fail,% travelled,run time,game ticks,planning time,total plannings,nodes evaluated,most backtracked nodes
ge-1,true,1.00,544,249,539,234,31038,0
ge-2,true,1.00,2107,302,2099,294,125915,0
ge-3,true,1.00,211,232,207,223,11883,0
ge-4,true,1.00,4332,396,4328,387,219580,0
ge-5,true,1.00,56,199,50,191,1390,0
ge-6,true,1.00,977,265,968,256,41865,0
ge-7,true,1.00,92,224,88,216,5223,0
ge-8,true,1.00,154,237,150,229,8779,0
ge-9,true,1.00,1045,246,1039,238,59684,0
ge-10,true,1.00,27,199,24,191,1308,0
ge-11,true,1.00,240,220,233,211,14023,0
ge-12,true,1.00,31,207,28,199,1563,0
ge-13,false,0.36,104,113,103,113,5840,0
ge-14,true,1.00,163,238,157,228,9263,0
ge-15,true,1.00,1106,251,1102,243,63257,0
ge-16,true,1.00,245,255,233,247,14926,0
ge-17,true,1.00,409,218,405,210,24657,0
ge-18,true,1.00,1144,297,1139,289,64948,0
ge-19,true,1.00,2483,358,2476,348,144595,0
ge-20,true,1.00,585,258,580,250,33499,0
ge-21,true,1.00,296,209,291,201,16015,0
ge-22,true,1.00,415,216,408,208,23196,0
ge-23,true,1.00,3199,300,3194,288,188710,0
ge-24,true,1.00,394,242,388,232,22430,0
ge-25,false,0.64,1474,172,1472,172,81113,0
ge-26,true,1.00,461,219,449,211,26432,0
ge-27,true,1.00,36,209,30,201,1917,0
ge-28,true,1.00,1446,246,1442,238,76520,0
ge-29,true,1.00,928,249,923,222,51855,0
ge-30,true,1.00,3344,333,3337,325,164269,0
ge-31,true,1.00,2784,305,2781,297,161807,0
ge-32,true,1.00,115,220,108,212,6255,0
ge-33,true,1.00,116,230,113,208,6577,0
ge-34,true,1.00,991,228,985,220,58706,0
ge-35,true,1.00,338,257,330,249,18861,0
ge-36,false,0.75,7130,999,7110,999,458378,0
ge-37,true,1.00,1195,255,1189,237,66484,0
ge-38,false,0.75,3401,313,3394,313,146282,0
ge-39,false,0.19,123,48,121,48,3922,0
ge-40,true,1.00,54,199,44,191,1333,0
ge-41,true,1.00,367,215,360,201,11981,0
ge-42,true,1.00,763,262,753,254,24735,0
ge-43,true,1.00,365,240,359,231,12382,0
ge-44,false,0.69,2075,213,2070,213,104571,0
ge-45,true,1.00,1592,272,1587,264,89241,0
ge-46,true,1.00,3819,348,3814,340,209375,0
ge-47,true,1.00,3070,331,3059,323,126969,0
ge-48,true,1.00,1407,271,1400,263,60014,0
ge-49,true,1.00,246,206,232,198,7544,0
ge-50,false,0.46,1161,129,1157,129,38556,0
ge-51,true,1.00,158,240,144,232,7319,0
ge-52,true,1.00,551,265,539,254,18458,0
ge-53,true,1.00,245,228,238,220,7359,0
ge-54,true,1.00,329,259,320,251,10647,0
ge-55,true,1.00,362,230,350,221,13467,0
ge-56,true,1.00,3127,326,3123,306,174677,0
ge-57,true,1.00,5223,363,5217,354,306817,0
ge-58,true,1.00,167,270,162,259,9687,0
ge-59,true,1.00,3765,325,3763,317,164967,0
ge-60,true,1.00,2149,274,2141,266,112243,0
ge-61,true,1.00,981,225,976,217,50296,0
ge-62,true,1.00,2132,269,2124,261,123838,0
ge-63,true,1.00,7943,461,7936,452,465041,0
ge-64,true,1.00,557,249,552,240,23773,0
ge-65,true,1.00,2240,291,2231,282,82842,0
ge-66,true,1.00,2588,307,2580,297,153267,0
ge-67,false,0.93,141,260,135,260,7562,0
ge-68,true,1.00,107,220,101,212,5670,0
ge-69,true,1.00,263,221,258,213,15084,0
ge-70,true,1.00,2437,284,2433,276,107979,0
ge-71,true,1.00,2271,300,2265,292,107324,0
ge-72,true,1.00,169,256,161,247,9237,0
ge-73,true,1.00,1623,252,1618,242,93249,0
ge-74,true,1.00,3370,341,3365,333,182335,0
ge-75,true,1.00,282,248,278,208,15609,0
ge-76,true,1.00,1055,233,1048,225,59092,0
ge-77,true,1.00,4500,366,4492,358,256491,0
ge-78,true,1.00,3557,341,3555,332,201232,0
ge-79,true,1.00,187,235,180,225,10338,0
ge-80,true,1.00,48,219,43,210,2598,0
ge-81,true,1.00,48,216,46,208,2769,0
ge-82,true,1.00,53,236,48,208,3069,0
ge-83,true,1.00,484,236,475,228,27944,0
ge-84,false,0.15,2529,119,2529,119,146975,0
ge-85,true,1.00,3774,324,3762,316,204624,0
ge-86,true,1.00,2729,295,2720,286,133656,0
ge-87,true,1.00,881,248,875,240,50059,0
ge-88,true,1.00,1334,269,1326,261,78521,0
ge-89,true,1.00,143,252,137,244,8367,0
ge-90,true,1.00,28,199,21,191,1364,0
ge-91,true,1.00,987,225,981,217,56668,0
ge-92,true,1.00,35,205,27,197,1926,0
ge-93,false,0.38,114,88,112,88,6285,0
ge-94,true,1.00,1333,249,1328,241,76147,0
ge-95,true,1.00,85,266,80,258,4781,0
ge-96,true,1.00,1228,283,1224,269,67546,0
ge-97,true,1.00,1126,247,1123,239,57150,0
ge-98,true,1.00,27,199,20,191,1307,0
ge-99,true,1.00,170,205,162,197,8372,0
ge-100,true,1.00,506,225,504,217,28012,0
