NDW:0.0
TTFW:1.0
DFPT:2.0
DFPAP:3.0
DFPMP:0.0
RIGHT_WINDOW_BORDER_X:255.0
level,win/fail,% travelled,run time,game ticks,planning time,total plannings,nodes evaluated,most backtracked nodes
notchParam-1,true,1.00,873,312,864,289,48571,0
notchParam-2,true,1.00,861,316,856,293,46769,0
notchParam-3,true,1.00,608,314,601,291,33780,0
notchParam-4,true,1.00,610,324,601,301,33644,0
notchParam-5,true,1.00,623,314,609,289,34005,0
notchParam-6,true,1.00,635,324,625,301,35430,0
notchParam-7,true,1.00,916,322,909,299,51127,0
notchParam-8,true,1.00,1146,318,1141,295,66217,0
notchParam-9,true,1.00,672,342,665,319,37046,0
notchParam-10,true,1.00,1108,318,1100,295,62979,0
notchParam-11,true,1.00,585,316,577,293,31907,0
notchParam-12,true,1.00,1149,325,1136,302,64004,0
notchParam-13,true,1.00,283,314,278,291,14012,0
notchParam-14,true,1.00,271,304,266,281,13362,0
notchParam-15,true,1.00,803,298,798,275,42975,0
notchParam-16,true,1.00,838,307,830,284,45465,0
notchParam-17,true,1.00,881,302,873,279,47192,0
notchParam-18,true,1.00,347,328,340,305,16672,0
notchParam-19,true,1.00,280,309,273,286,13629,0
notchParam-20,true,1.00,277,308,267,285,13385,0
notchParam-21,true,1.00,268,304,261,281,12720,0
notchParam-22,true,1.00,308,316,302,293,15117,0
notchParam-23,true,1.00,1383,362,1371,339,76099,0
notchParam-24,true,1.00,1113,320,1103,297,62652,0
notchParam-25,true,1.00,1188,318,1184,295,65995,0
notchParam-26,true,1.00,1278,349,1269,326,70511,0
notchParam-27,true,1.00,276,309,268,286,13624,0
notchParam-28,true,1.00,665,333,661,310,35207,0
notchParam-29,true,1.00,678,323,674,300,37064,0
notchParam-30,true,1.00,280,308,272,285,13940,0
notchParam-31,true,1.00,880,310,876,287,48386,0
notchParam-32,true,1.00,951,316,946,293,51396,0
notchParam-33,true,1.00,270,300,265,277,13203,0
notchParam-34,true,1.00,845,308,837,285,44737,0
notchParam-35,true,1.00,1096,316,1085,293,54734,0
notchParam-36,true,1.00,862,302,856,279,47094,0
notchParam-37,true,1.00,264,300,256,277,12568,0
notchParam-38,true,1.00,268,304,258,281,13157,0
notchParam-39,true,1.00,836,304,827,281,44150,0
notchParam-40,true,1.00,585,316,576,293,31297,0
notchParam-41,true,1.00,644,325,632,302,33780,0
notchParam-42,true,1.00,305,313,297,290,13267,0
notchParam-43,true,1.00,1112,316,1106,293,61299,0
notchParam-44,true,1.00,1217,330,1209,307,67450,0
notchParam-45,true,1.00,1169,330,1165,299,67564,0
notchParam-46,true,1.00,1188,316,1178,293,64436,0
notchParam-47,true,1.00,269,300,262,277,12812,0
notchParam-48,true,1.00,319,320,311,297,15424,0
notchParam-49,true,1.00,305,327,297,300,14403,0
notchParam-50,true,1.00,364,329,358,306,15591,0
notchParam-51,true,1.00,268,306,257,283,12694,0
notchParam-52,true,1.00,825,306,819,283,45041,0
notchParam-53,true,1.00,889,302,879,279,46879,0
notchParam-54,true,1.00,1011,320,1009,297,50684,0
notchParam-55,true,1.00,323,322,317,299,15257,0
notchParam-56,true,1.00,281,304,272,281,13455,0
notchParam-57,true,1.00,1189,322,1183,299,64237,0
notchParam-58,true,1.00,679,335,673,312,35336,0
notchParam-59,true,1.00,1303,345,1294,322,69485,0
notchParam-60,true,1.00,682,348,674,325,34915,0
notchParam-61,true,1.00,1225,336,1214,313,66509,0
notchParam-62,true,1.00,729,298,720,275,38492,0
notchParam-63,true,1.00,640,328,635,305,33271,0
notchParam-64,true,1.00,603,328,596,305,32122,0
notchParam-65,true,1.00,670,322,656,299,35497,0
notchParam-66,true,1.00,634,334,625,311,33243,0
notchParam-67,true,1.00,917,308,906,285,48442,0
notchParam-68,true,1.00,828,308,821,285,42798,0
notchParam-69,true,1.00,743,298,735,275,39043,0
notchParam-70,true,1.00,885,306,875,283,46356,0
notchParam-71,true,1.00,753,335,745,312,40020,0
notchParam-72,true,1.00,637,328,624,305,33444,0
notchParam-73,true,1.00,601,324,594,301,31147,0
notchParam-74,true,1.00,729,334,720,311,38558,0
notchParam-75,true,1.00,667,322,655,299,35955,0
notchParam-76,true,1.00,1411,330,1400,307,76698,0
notchParam-77,true,1.00,658,318,651,295,34429,0
notchParam-78,true,1.00,1134,316,1125,293,60649,0
notchParam-79,true,1.00,664,320,654,297,35317,0
notchParam-80,true,1.00,312,308,305,285,14654,0
notchParam-81,true,1.00,624,334,616,311,33539,0
notchParam-82,true,1.00,284,307,274,284,13277,0
notchParam-83,true,1.00,277,302,273,279,12754,0
notchParam-84,true,1.00,880,316,875,293,45128,0
notchParam-85,true,1.00,1322,345,1312,322,63713,0
notchParam-86,true,1.00,1148,306,1135,283,62194,0
notchParam-87,true,1.00,284,316,275,293,13994,0
notchParam-88,true,1.00,310,308,304,285,15140,0
notchParam-89,true,1.00,277,304,267,281,12759,0
notchParam-90,true,1.00,292,311,287,288,14094,0
notchParam-91,true,1.00,1195,330,1189,307,63946,0
notchParam-92,true,1.00,1100,310,1094,287,59715,0
notchParam-93,true,1.00,1154,324,1141,301,62625,0
notchParam-94,true,1.00,1171,332,1160,309,63499,0
notchParam-95,true,1.00,1417,378,1412,355,74023,0
notchParam-96,true,1.00,640,314,636,291,34975,0
notchParam-97,true,1.00,588,310,575,287,30181,0
notchParam-98,true,1.00,281,304,269,281,13367,0
notchParam-99,true,1.00,1012,320,1006,297,51632,0
notchParam-100,true,1.00,838,302,833,279,44751,0
