NDW:0.0
TTFW:0.8
DFPT:2.0
DFPAP:3.0
DFPMP:3.0
RIGHT_WINDOW_BORDER_X:235.0
level,win/fail,% travelled,run time,game ticks,planning time,total plannings,nodes evaluated,most backtracked nodes
patternWeightCount-1,true,1.00,2852,423,2848,395,280167,0
patternWeightCount-2,true,1.00,573,396,571,374,56216,0
patternWeightCount-3,true,1.00,569,387,566,366,55617,0
patternWeightCount-4,true,1.00,437,379,436,358,41845,0
patternWeightCount-5,true,1.00,1351,413,1348,389,129794,0
patternWeightCount-6,true,1.00,1427,416,1422,394,140795,0
patternWeightCount-7,true,1.00,972,409,971,386,93096,0
patternWeightCount-8,true,1.00,767,392,764,371,67540,0
patternWeightCount-9,true,1.00,1105,455,1102,433,110179,0
patternWeightCount-10,true,1.00,764,401,763,379,72388,0
patternWeightCount-11,true,1.00,443,382,442,361,40653,0
patternWeightCount-12,true,1.00,906,400,905,379,86686,0
patternWeightCount-13,true,1.00,1192,398,1190,377,121525,0
patternWeightCount-14,true,1.00,754,403,748,378,75792,0
patternWeightCount-15,true,1.00,1458,385,1455,364,143101,0
patternWeightCount-16,true,1.00,2639,466,2637,438,270589,0
patternWeightCount-17,true,1.00,633,432,629,411,63640,0
patternWeightCount-18,true,1.00,693,383,692,362,69061,0
patternWeightCount-19,true,1.00,642,393,638,372,57984,0
patternWeightCount-20,false,0.62,2220,283,2217,283,207052,0
patternWeightCount-21,true,1.00,351,404,350,382,33194,0
patternWeightCount-22,true,1.00,2405,445,2403,413,243932,0
patternWeightCount-23,true,1.00,458,413,456,379,46608,0
patternWeightCount-24,true,1.00,919,361,915,340,94211,0
patternWeightCount-25,true,1.00,1170,375,1168,354,116003,0
patternWeightCount-26,true,1.00,1081,447,1078,418,108775,0
patternWeightCount-27,true,1.00,1431,444,1428,413,143712,0
patternWeightCount-28,true,1.00,1690,404,1688,383,168682,0
patternWeightCount-29,true,1.00,1115,385,1112,364,107782,0
patternWeightCount-30,true,1.00,4484,502,4480,477,398900,0
patternWeightCount-31,true,1.00,899,403,894,382,85797,0
patternWeightCount-32,true,1.00,616,396,612,375,60887,0
patternWeightCount-33,true,1.00,826,427,821,406,83519,0
patternWeightCount-34,true,1.00,1142,391,1140,370,114747,0
patternWeightCount-35,true,1.00,1839,445,1836,424,174995,0
patternWeightCount-36,true,1.00,1471,444,1469,423,145268,0
patternWeightCount-37,true,1.00,603,380,601,359,58560,0
patternWeightCount-38,true,1.00,1805,434,1803,390,166890,0
patternWeightCount-39,true,1.00,962,383,961,362,91457,0
patternWeightCount-40,true,1.00,1376,422,1371,401,137488,0
patternWeightCount-41,true,1.00,1327,415,1324,382,130758,0
patternWeightCount-42,false,0.87,3699,430,3694,430,311131,0
patternWeightCount-43,true,1.00,845,379,841,358,84998,0
patternWeightCount-44,true,1.00,1348,453,1346,428,140704,0
patternWeightCount-45,true,1.00,4375,517,4373,493,403156,0
patternWeightCount-46,true,1.00,3351,470,3346,436,285905,0
patternWeightCount-47,true,1.00,659,396,658,375,63983,0
patternWeightCount-48,true,1.00,602,403,601,382,61472,0
patternWeightCount-49,true,1.00,779,370,776,349,75617,0
patternWeightCount-50,true,1.00,758,389,755,368,70534,0
patternWeightCount-51,true,1.00,727,401,722,362,73330,0
patternWeightCount-52,true,1.00,1054,407,1052,369,107521,0
patternWeightCount-53,true,1.00,3861,472,3860,450,368307,0
patternWeightCount-54,true,1.00,724,429,722,408,70741,0
patternWeightCount-55,true,1.00,1004,419,1000,396,94573,0
patternWeightCount-56,true,1.00,1310,414,1308,393,127270,0
patternWeightCount-57,true,1.00,347,368,345,347,36868,0
patternWeightCount-58,true,1.00,1128,419,1125,393,109118,0
patternWeightCount-59,true,1.00,526,374,523,353,49291,0
patternWeightCount-60,true,1.00,1136,431,1134,404,110511,0
patternWeightCount-61,true,1.00,805,383,801,362,82402,0
patternWeightCount-62,true,1.00,1773,416,1771,392,173603,0
patternWeightCount-63,true,1.00,1013,392,1012,371,100535,0
patternWeightCount-64,true,1.00,1555,409,1553,388,155006,0
patternWeightCount-65,true,1.00,1379,436,1374,414,130464,0
patternWeightCount-66,true,1.00,698,386,697,365,68516,0
patternWeightCount-67,true,1.00,749,396,747,375,72773,0
patternWeightCount-68,true,1.00,972,462,969,441,77764,0
patternWeightCount-69,true,1.00,1549,411,1548,376,149318,0
patternWeightCount-70,true,1.00,878,455,873,425,86572,0
patternWeightCount-71,true,1.00,647,429,644,397,61470,0
patternWeightCount-72,true,1.00,5324,517,5322,477,451298,0
patternWeightCount-73,true,1.00,4340,437,4338,391,403693,0
patternWeightCount-74,true,1.00,677,380,671,359,67209,0
patternWeightCount-75,true,1.00,1112,396,1110,375,106723,0
patternWeightCount-76,true,1.00,745,419,742,398,76324,0
patternWeightCount-77,true,1.00,861,403,857,382,85790,0
patternWeightCount-78,true,1.00,1767,467,1766,445,162289,0
patternWeightCount-79,true,1.00,547,386,546,365,52795,0
patternWeightCount-80,true,1.00,1228,442,1222,421,118589,0
patternWeightCount-81,true,1.00,4171,495,4170,468,364837,0
patternWeightCount-82,true,1.00,197,398,193,362,18548,0
patternWeightCount-83,true,1.00,643,406,641,384,65558,0
patternWeightCount-84,true,1.00,802,432,799,403,75684,0
patternWeightCount-85,true,1.00,1179,404,1177,371,119572,0
patternWeightCount-86,false,0.94,2038,374,2038,374,195073,0
patternWeightCount-87,true,1.00,5636,483,5631,461,482977,0
patternWeightCount-88,true,1.00,1167,402,1160,380,115575,0
patternWeightCount-89,true,1.00,604,352,602,331,60584,0
patternWeightCount-90,true,1.00,4121,429,4118,398,384166,0
patternWeightCount-91,true,1.00,786,393,782,371,77814,0
patternWeightCount-92,true,1.00,4359,548,4357,517,425190,0
patternWeightCount-93,true,1.00,4852,473,4848,446,436734,0
patternWeightCount-94,true,1.00,1411,411,1408,390,135855,0
patternWeightCount-95,true,1.00,1314,422,1311,401,128596,0
patternWeightCount-96,true,1.00,563,406,559,384,53559,0
patternWeightCount-97,true,1.00,849,360,847,339,86148,0
patternWeightCount-98,true,1.00,4166,479,4163,432,396550,0
patternWeightCount-99,true,1.00,1585,461,1584,438,164450,0
patternWeightCount-100,true,1.00,977,429,974,408,95545,0
