NDW:0.0
TTFW:1.6
DFPT:2.0
DFPAP:3.0
DFPMP:1.0
RIGHT_WINDOW_BORDER_X:75.0
level,win/fail,% travelled,run time,game ticks,planning time,total plannings,nodes evaluated,most backtracked nodes
notchParamRand-1,false,0.28,3722,206,3719,206,167745,0
notchParamRand-2,true,1.00,152,310,144,303,8591,0
notchParamRand-3,false,0.42,2733,244,2730,244,149217,0
notchParamRand-4,false,0.83,9568,682,9556,682,516110,0
notchParamRand-5,false,0.28,61,111,61,111,3418,0
notchParamRand-6,true,1.00,572,340,565,334,31217,0
notchParamRand-7,true,1.00,974,335,967,329,53044,0
notchParamRand-8,true,1.00,1481,391,1476,385,73960,0
notchParamRand-9,true,1.00,4555,559,4544,552,250490,0
notchParamRand-10,true,1.00,4567,604,4546,598,256052,0
notchParamRand-11,true,1.00,153,320,146,314,8641,0
notchParamRand-12,true,1.00,1536,395,1523,389,82633,0
notchParamRand-13,false,0.17,1009,98,1008,98,53833,0
notchParamRand-14,false,0.80,5507,465,5497,465,290350,0
notchParamRand-15,true,1.00,3081,467,3065,460,167991,0
notchParamRand-16,true,1.00,1791,394,1787,388,100447,0
notchParamRand-17,true,1.00,78,296,72,289,4633,0
notchParamRand-18,false,0.19,2823,148,2822,148,155738,0
notchParamRand-19,true,1.00,217,345,208,339,12534,0
notchParamRand-20,false,0.44,7115,394,7112,394,390853,0
notchParamRand-21,true,1.00,99,322,93,315,5622,0
notchParamRand-22,true,1.00,3716,492,3705,486,194455,0
notchParamRand-23,false,0.24,1094,152,1092,152,55462,0
notchParamRand-24,true,1.00,258,320,252,313,13369,0
notchParamRand-25,true,1.00,93,318,78,311,5185,0
notchParamRand-26,true,1.00,544,374,532,368,27718,0
notchParamRand-27,true,1.00,496,336,484,329,12212,0
notchParamRand-28,false,0.55,453,209,441,209,13494,0
notchParamRand-29,true,1.00,164,298,147,291,4879,0
notchParamRand-30,false,0.18,4403,192,4402,192,219463,0
notchParamRand-31,true,1.00,465,336,455,330,25991,0
notchParamRand-32,true,1.00,159,320,152,314,9329,0
notchParamRand-33,false,0.20,4071,192,4067,192,221928,0
notchParamRand-34,false,0.43,5010,341,5004,341,265883,0
notchParamRand-35,true,1.00,716,322,707,315,38088,0
notchParamRand-36,true,1.00,77,300,73,293,4496,0
notchParamRand-37,true,1.00,1649,376,1639,370,90968,0
notchParamRand-38,false,0.19,2108,161,2107,161,113768,0
notchParamRand-39,false,0.83,11530,748,11519,748,617588,0
notchParamRand-40,false,0.18,2273,159,2271,159,117363,0
notchParamRand-41,true,1.00,76,294,63,287,4356,0
notchParamRand-42,true,1.00,617,346,607,339,33124,0
notchParamRand-43,true,1.00,319,323,313,317,17201,0
notchParamRand-44,true,1.00,337,326,328,319,18983,0
notchParamRand-45,false,0.29,3069,195,3067,195,164689,0
notchParamRand-46,false,0.37,2261,224,2256,224,122706,0
notchParamRand-47,false,0.43,472,160,467,160,25285,0
notchParamRand-48,true,1.00,12616,800,12605,794,667630,0
notchParamRand-49,false,0.69,2100,324,2092,324,79607,0
notchParamRand-50,true,1.00,5064,643,5044,633,257372,0
notchParamRand-51,true,1.00,187,314,181,307,10632,0
notchParamRand-52,true,1.00,6740,567,6726,561,361907,0
notchParamRand-53,true,1.00,6121,573,6113,566,329078,0
notchParamRand-54,false,0.28,4187,283,4180,283,193641,0
notchParamRand-55,false,0.19,2996,178,2994,178,159989,0
notchParamRand-56,false,0.36,2215,190,2213,190,85004,0
notchParamRand-57,false,0.61,5041,384,5038,384,268636,0
notchParamRand-58,true,1.00,1499,390,1488,383,82750,0
notchParamRand-59,true,1.00,1269,371,1264,364,72464,0
notchParamRand-60,true,1.00,4153,484,4145,478,233132,0
notchParamRand-61,true,1.00,805,361,787,354,24706,0
notchParamRand-62,true,1.00,695,360,679,354,21563,0
notchParamRand-63,true,1.00,15811,878,15803,872,791254,0
notchParamRand-64,true,1.00,405,332,399,325,16774,0
notchParamRand-65,false,0.18,2630,152,2627,152,137164,0
notchParamRand-66,true,1.00,1194,378,1184,371,64723,0
notchParamRand-67,true,1.00,431,332,428,326,23388,0
notchParamRand-68,false,0.19,1898,148,1896,148,103492,0
notchParamRand-69,true,1.00,1747,401,1739,395,100651,0
notchParamRand-70,true,1.00,1658,435,1650,428,94822,0
notchParamRand-71,true,1.00,408,314,402,307,22511,0
notchParamRand-72,true,1.00,141,300,133,293,8249,0
notchParamRand-73,false,0.34,795,162,794,162,44549,0
notchParamRand-74,true,1.00,80,298,78,291,4855,0
notchParamRand-75,true,1.00,77,298,68,291,4560,0
notchParamRand-76,true,1.00,3538,565,3529,559,191318,0
notchParamRand-77,false,0.21,4893,281,4891,281,261250,0
notchParamRand-78,true,1.00,7752,618,7737,611,329846,0
notchParamRand-79,true,1.00,257,349,248,343,14864,0
notchParamRand-80,true,1.00,574,332,565,326,30016,0
notchParamRand-81,true,1.00,423,332,418,325,22945,0
notchParamRand-82,true,1.00,2352,403,2347,397,126551,0
notchParamRand-83,false,0.84,3890,489,3882,489,208255,0
notchParamRand-84,true,1.00,615,333,598,326,22954,0
notchParamRand-85,true,1.00,241,322,221,315,5315,0
notchParamRand-86,true,1.00,769,385,746,378,35611,0
notchParamRand-87,false,0.17,2731,147,2727,147,138267,0
notchParamRand-88,true,1.00,477,333,461,327,14463,0
notchParamRand-89,false,0.52,2215,244,2211,244,104103,0
notchParamRand-90,false,0.36,2878,232,2875,232,149624,0
notchParamRand-91,true,1.00,75,296,70,289,4334,0
notchParamRand-92,true,1.00,3153,520,3146,514,172291,0
notchParamRand-93,true,1.00,399,351,392,344,22143,0
notchParamRand-94,false,0.84,12460,792,12449,792,630871,0
notchParamRand-95,true,1.00,1494,367,1486,361,66210,0
notchParamRand-96,true,1.00,2856,483,2848,476,159165,0
notchParamRand-97,true,1.00,5701,601,5688,595,311825,0
notchParamRand-98,true,1.00,1616,380,1605,374,88229,0
notchParamRand-99,true,1.00,374,326,357,320,11351,0
notchParamRand-100,false,0.21,1992,136,1988,136,71010,0
