NDW:0.0
TTFW:2.0
DFPT:2.0
DFPAP:3.0
DFPMP:7.0
RIGHT_WINDOW_BORDER_X:75.0
level,win/fail,% travelled,run time,game ticks,planning time,total plannings,nodes evaluated,most backtracked nodes
notchParamRand-1,false,0.29,3063,191,3060,191,170611,0
notchParamRand-2,true,1.00,138,306,131,299,7819,0
notchParamRand-3,false,0.43,3044,246,3037,246,171966,0
notchParamRand-4,true,1.00,9454,685,9445,679,521050,0
notchParamRand-5,true,1.00,294,343,284,337,16940,0
notchParamRand-6,true,1.00,576,341,570,334,33021,0
notchParamRand-7,true,1.00,1295,362,1286,356,73324,0
notchParamRand-8,true,1.00,4610,485,4604,479,236885,0
notchParamRand-9,true,1.00,2600,448,2589,441,146184,0
notchParamRand-10,true,1.00,4356,506,4345,500,253183,0
notchParamRand-11,true,1.00,134,302,128,295,7659,0
notchParamRand-12,true,1.00,399,351,391,344,23210,0
notchParamRand-13,false,0.17,1202,93,1200,93,66853,0
notchParamRand-14,false,0.80,6642,499,6631,499,356646,0
notchParamRand-15,true,1.00,1596,399,1587,393,89965,0
notchParamRand-16,true,1.00,1825,353,1821,347,102780,0
notchParamRand-17,true,1.00,68,296,57,289,4028,0
notchParamRand-18,false,0.19,2441,154,2439,154,138208,0
notchParamRand-19,true,1.00,212,330,207,324,12371,0
notchParamRand-20,false,0.32,4111,255,4107,255,227074,0
notchParamRand-21,true,1.00,74,313,69,307,4275,0
notchParamRand-22,true,1.00,2249,427,2241,421,127481,0
notchParamRand-23,false,0.24,2552,212,2551,212,141325,0
notchParamRand-24,true,1.00,252,324,247,318,14338,0
notchParamRand-25,true,1.00,75,318,66,311,4424,0
notchParamRand-26,true,1.00,498,360,491,353,27875,0
notchParamRand-27,true,1.00,387,336,374,329,22581,0
notchParamRand-28,true,1.00,541,343,532,337,30034,0
notchParamRand-29,true,1.00,71,298,62,291,4175,0
notchParamRand-30,false,0.17,30575,999,30573,999,1510690,0
notchParamRand-31,true,1.00,416,339,405,332,23939,0
notchParamRand-32,true,1.00,135,300,132,293,8012,0
notchParamRand-33,false,0.18,3454,180,3452,180,197214,0
notchParamRand-34,false,0.24,1869,146,1865,146,104097,0
notchParamRand-35,true,1.00,739,351,734,344,41259,0
notchParamRand-36,true,1.00,65,300,56,293,3877,0
notchParamRand-37,true,1.00,593,328,581,322,34511,0
notchParamRand-38,false,0.19,2097,135,2093,135,118689,0
notchParamRand-39,false,0.44,5241,356,5239,356,288939,0
notchParamRand-40,false,0.17,4669,236,4666,236,244745,0
notchParamRand-41,true,1.00,63,294,58,287,3639,0
notchParamRand-42,true,1.00,603,348,593,341,34433,0
notchParamRand-43,true,1.00,1424,343,1417,337,80101,0
notchParamRand-44,true,1.00,327,326,320,319,19084,0
notchParamRand-45,false,0.29,2864,185,2863,185,159408,0
notchParamRand-46,false,0.36,1391,173,1389,173,78757,0
notchParamRand-47,true,1.00,1127,380,1117,373,62701,0
notchParamRand-48,false,0.70,6841,506,6831,506,374103,0
notchParamRand-49,true,1.00,1083,358,1075,352,60033,0
notchParamRand-50,true,1.00,8176,660,8164,653,467841,0
notchParamRand-51,true,1.00,184,312,175,305,10651,0
notchParamRand-52,false,0.29,1217,139,1212,139,65826,0
notchParamRand-53,true,1.00,4805,579,4790,572,267055,0
notchParamRand-54,false,0.40,6653,367,6649,367,377247,0
notchParamRand-55,false,0.18,2492,146,2491,146,135411,0
notchParamRand-56,false,0.36,1354,164,1350,164,72705,0
notchParamRand-57,true,1.00,6365,554,6360,548,347743,0
notchParamRand-58,true,1.00,2171,445,2161,438,124447,0
notchParamRand-59,true,1.00,449,322,441,316,25721,0
notchParamRand-60,true,1.00,2550,450,2535,444,145731,0
notchParamRand-61,true,1.00,643,352,634,345,36038,0
notchParamRand-62,false,0.69,425,250,418,250,23854,0
notchParamRand-63,false,0.18,3060,160,3060,160,172891,0
notchParamRand-64,true,1.00,346,308,338,302,19864,0
notchParamRand-65,false,0.18,2897,165,2896,165,156790,0
notchParamRand-66,true,1.00,918,357,909,350,51061,0
notchParamRand-67,true,1.00,388,328,379,322,21676,0
notchParamRand-68,false,0.57,8136,476,8127,476,451996,0
notchParamRand-69,true,1.00,884,350,868,343,51480,0
notchParamRand-70,false,0.35,303,152,300,152,17317,0
notchParamRand-71,true,1.00,366,312,360,305,20443,0
notchParamRand-72,true,1.00,109,300,102,293,6516,0
notchParamRand-73,false,0.34,1214,160,1214,160,69271,0
notchParamRand-74,true,1.00,68,296,62,289,4084,0
notchParamRand-75,true,1.00,67,298,62,291,3898,0
notchParamRand-76,true,1.00,4383,524,4378,517,243749,0
notchParamRand-77,false,0.20,2700,183,2700,183,145031,0
notchParamRand-78,false,0.24,1842,161,1839,161,103057,0
notchParamRand-79,true,1.00,253,336,243,329,14838,0
notchParamRand-80,true,1.00,656,317,648,311,33911,0
notchParamRand-81,true,1.00,303,326,295,320,17927,0
notchParamRand-82,true,1.00,2722,408,2706,402,152995,0
notchParamRand-83,true,1.00,4696,600,4680,594,259541,0
notchParamRand-84,true,1.00,340,306,334,299,19524,0
notchParamRand-85,true,1.00,67,296,61,289,3943,0
notchParamRand-86,true,1.00,1144,393,1131,386,64892,0
notchParamRand-87,true,1.00,12904,799,12895,792,720633,0
notchParamRand-88,true,1.00,373,327,365,321,21596,0
notchParamRand-89,false,0.52,3641,328,3637,328,203507,0
notchParamRand-90,false,0.37,2279,213,2279,213,124559,0
notchParamRand-91,true,1.00,63,296,60,289,3705,0
notchParamRand-92,true,1.00,3714,503,3705,496,210159,0
notchParamRand-93,false,0.37,125,116,122,116,7123,0
notchParamRand-94,false,0.51,8817,570,8811,570,493440,0
notchParamRand-95,true,1.00,2069,390,2061,384,114207,0
notchParamRand-96,true,1.00,4270,516,4262,509,242025,0
notchParamRand-97,false,0.83,6825,583,6815,583,383680,0
notchParamRand-98,true,1.00,467,310,459,303,26843,0
notchParamRand-99,true,1.00,255,320,248,314,14985,0
notchParamRand-100,false,0.21,2141,159,2138,159,121328,0
