NDW:0.0
TTFW:1.6
DFPT:2.0
DFPAP:3.0
DFPMP:2.0
RIGHT_WINDOW_BORDER_X:235.0
level,win/fail,% travelled,run time,game ticks,planning time,total plannings,nodes evaluated,most backtracked nodes
ore-1,true,1.00,1510,416,1505,393,203545,0
ore-2,false,0.70,1962,362,1960,362,219695,0
ore-3,true,1.00,1677,447,1671,400,224845,0
ore-4,true,1.00,1739,457,1735,425,227185,0
ore-5,true,1.00,1480,401,1475,378,195227,0
ore-6,true,1.00,1463,455,1458,425,185457,0
ore-7,true,1.00,1184,434,1181,403,154836,0
ore-8,true,1.00,2512,491,2511,459,298749,0
ore-9,true,1.00,1567,396,1566,375,202254,0
ore-10,true,1.00,1705,415,1701,394,231937,0
ore-11,true,1.00,1246,488,1244,449,159383,0
ore-12,true,1.00,2471,456,2470,434,261192,0
ore-13,true,1.00,1654,475,1652,436,214690,0
ore-14,true,1.00,1709,449,1706,426,226808,0
ore-15,true,1.00,1630,442,1626,415,217050,0
ore-16,true,1.00,1564,473,1559,447,212077,0
ore-17,true,1.00,1510,491,1510,447,203700,0
ore-18,true,1.00,1302,506,1299,469,175268,0
ore-19,true,1.00,1433,419,1432,390,192450,0
ore-20,true,1.00,1800,431,1798,405,232490,0
ore-21,true,1.00,1964,543,1962,510,261193,0
ore-22,false,0.62,1525,263,1525,263,166716,0
ore-23,true,1.00,1900,481,1900,459,250051,0
ore-24,true,1.00,1842,487,1834,455,252064,0
ore-25,true,1.00,1423,395,1421,359,198444,0
ore-26,true,1.00,1475,466,1471,441,180651,0
ore-27,true,1.00,1527,400,1524,378,194689,0
ore-28,true,1.00,1441,449,1438,423,167570,0
ore-29,true,1.00,2210,427,2206,406,277090,0
ore-30,true,1.00,1714,400,1714,376,219995,0
ore-31,true,1.00,1471,466,1466,427,199390,0
ore-32,true,1.00,1228,427,1227,401,159079,0
ore-33,true,1.00,1334,483,1332,441,174032,0
ore-34,true,1.00,1794,478,1792,447,240254,0
ore-35,true,1.00,1914,398,1913,376,259337,0
ore-36,true,1.00,1199,447,1196,420,158601,0
ore-37,false,0.35,1127,137,1126,137,116840,0
ore-38,true,1.00,1341,422,1338,396,175560,0
ore-39,true,1.00,1699,444,1699,418,231046,0
ore-40,true,1.00,1636,419,1635,390,215593,0
ore-41,true,1.00,2217,440,2216,409,302878,0
ore-42,true,1.00,2714,495,2712,472,356104,0
ore-43,true,1.00,1786,477,1784,448,239629,0
ore-44,true,1.00,2023,433,2017,388,263366,0
ore-45,false,0.74,22981,999,22980,999,1571221,0
ore-46,false,0.12,967,53,967,53,99584,0
ore-47,true,1.00,1890,509,1889,487,242308,0
ore-48,true,1.00,1584,469,1579,447,205373,0
ore-49,true,1.00,1393,453,1391,403,177791,0
ore-50,true,1.00,1457,393,1455,371,187707,0
ore-51,true,1.00,1413,420,1411,374,189354,0
ore-52,true,1.00,1497,474,1496,450,200488,0
ore-53,true,1.00,1624,437,1621,411,207206,0
ore-54,false,0.72,1945,373,1942,373,213725,0
ore-55,true,1.00,1172,415,1167,384,160733,0
ore-56,true,1.00,1185,418,1184,380,153066,0
ore-57,true,1.00,1311,443,1309,406,177274,0
ore-58,true,1.00,2101,438,2100,417,291494,0
ore-59,true,1.00,1813,464,1812,441,244182,0
ore-60,true,1.00,1539,351,1536,330,194886,0
ore-61,true,1.00,1372,427,1369,403,163086,0
ore-62,true,1.00,1866,477,1863,455,250686,0
ore-63,true,1.00,2353,481,2350,446,290198,0
ore-64,true,1.00,1277,417,1276,395,159632,0
ore-65,true,1.00,2168,441,2165,415,295137,0
ore-66,true,1.00,3084,529,3079,491,374855,0
ore-67,true,1.00,1591,452,1591,426,204071,0
ore-68,true,1.00,1875,430,1872,408,235643,0
ore-69,true,1.00,2378,495,2376,472,321149,0
ore-70,false,0.95,3214,493,3208,493,372929,0
ore-71,true,1.00,1284,421,1279,399,167756,0
ore-72,true,1.00,1157,436,1153,402,156491,0
ore-73,true,1.00,1800,451,1800,417,239102,0
ore-74,true,1.00,2286,470,2283,448,264866,0
ore-75,true,1.00,1606,490,1605,468,207152,0
ore-76,true,1.00,1522,404,1519,382,213797,0
ore-77,true,1.00,1212,425,1210,393,164580,0
ore-78,true,1.00,2129,458,2129,437,290039,0
ore-79,true,1.00,1451,394,1448,373,192909,0
ore-80,true,1.00,2022,466,2019,436,270551,0
ore-81,true,1.00,2481,468,2479,446,332719,0
ore-82,true,1.00,1596,404,1593,378,200930,0
ore-83,true,1.00,1275,418,1273,389,164373,0
ore-84,true,1.00,2462,476,2458,448,308339,0
ore-85,true,1.00,1298,468,1292,438,163409,0
ore-86,true,1.00,2428,526,2424,493,306512,0
ore-87,true,1.00,1053,425,1050,401,133115,0
ore-88,true,1.00,1933,430,1928,407,260491,0
ore-89,true,1.00,2346,437,2345,416,308939,0
ore-90,true,1.00,1749,497,1745,453,224620,0
ore-91,true,1.00,1643,431,1641,409,209866,0
ore-92,true,1.00,1517,403,1513,380,199812,0
ore-93,false,0.13,1947,90,1947,90,168702,0
ore-94,true,1.00,1718,481,1716,455,229521,0
ore-95,true,1.00,1884,478,1882,454,250129,0
ore-96,true,1.00,2298,473,2298,452,323541,0
ore-97,true,1.00,2537,494,2535,453,319867,0
ore-98,true,1.00,1559,401,1557,379,207419,0
ore-99,true,1.00,1623,455,1621,431,218849,0
ore-100,true,1.00,1467,471,1462,436,199265,0
