NDW:0.0
TTFW:0.8
DFPT:2.0
DFPAP:3.0
DFPMP:2.0
RIGHT_WINDOW_BORDER_X:195.0
level,win/fail,% travelled,run time,game ticks,planning time,total plannings,nodes evaluated,most backtracked nodes
ore-1,true,1.00,2077,405,2074,383,219512,0
ore-2,false,0.70,2232,331,2231,331,220034,0
ore-3,true,1.00,1931,415,1931,391,195558,0
ore-4,true,1.00,1744,454,1742,427,182788,0
ore-5,true,1.00,2191,423,2187,405,226710,0
ore-6,true,1.00,1483,421,1482,390,149779,0
ore-7,true,1.00,1990,430,1987,410,210300,0
ore-8,true,1.00,3215,401,3211,384,331472,0
ore-9,true,1.00,1123,344,1120,325,114361,0
ore-10,false,0.55,649,261,648,261,72103,0
ore-11,true,1.00,1924,505,1921,473,205753,0
ore-12,true,1.00,1570,416,1568,398,162850,0
ore-13,true,1.00,2016,459,2012,441,207074,0
ore-14,true,1.00,1990,436,1985,410,213767,0
ore-15,true,1.00,1943,413,1938,396,191657,0
ore-16,true,1.00,1152,382,1148,363,129858,0
ore-17,true,1.00,3309,517,3303,489,370712,0
ore-18,true,1.00,1365,410,1364,389,147925,0
ore-19,true,1.00,2096,421,2094,404,222080,0
ore-20,true,1.00,2138,436,2135,410,221538,0
ore-21,true,1.00,1896,399,1891,377,210144,0
ore-22,false,0.59,2991,310,2990,310,262937,0
ore-23,true,1.00,1186,344,1183,326,129434,0
ore-24,true,1.00,1197,401,1194,372,127353,0
ore-25,true,1.00,2255,477,2249,452,253171,0
ore-26,true,1.00,1494,409,1494,391,153164,0
ore-27,true,1.00,1624,417,1623,400,174646,0
ore-28,true,1.00,2012,455,2011,432,212261,0
ore-29,true,1.00,1418,416,1415,398,144103,0
ore-30,true,1.00,1736,423,1733,404,175013,0
ore-31,true,1.00,1356,448,1355,430,141372,0
ore-32,true,1.00,1445,422,1442,391,148738,0
ore-33,true,1.00,1618,444,1618,417,167902,0
ore-34,true,1.00,2608,469,2604,446,265265,0
ore-35,true,1.00,2359,450,2357,432,255892,0
ore-36,true,1.00,1300,412,1296,393,137035,0
ore-37,false,0.34,999,149,998,149,84773,0
ore-38,true,1.00,2386,446,2383,418,255467,0
ore-39,true,1.00,2368,452,2366,431,251221,0
ore-40,true,1.00,1709,417,1709,399,181160,0
ore-41,true,1.00,1408,392,1402,369,150719,0
ore-42,true,1.00,1500,440,1499,420,158491,0
ore-43,true,1.00,1228,400,1225,381,131309,0
ore-44,true,1.00,1833,384,1829,363,209892,0
ore-45,false,0.74,23530,999,23527,999,1487962,0
ore-46,false,0.12,1325,68,1324,68,109328,0
ore-47,true,1.00,2450,473,2449,448,260954,0
ore-48,true,1.00,1221,392,1219,375,133826,0
ore-49,true,1.00,1272,405,1268,382,127411,0
ore-50,true,1.00,1703,385,1703,367,177487,0
ore-51,true,1.00,1375,386,1372,364,154416,0
ore-52,true,1.00,2985,423,2984,394,323468,0
ore-53,true,1.00,1501,409,1500,390,155478,0
ore-54,false,0.72,2728,342,2726,342,244758,0
ore-55,true,1.00,1171,401,1166,381,131194,0
ore-56,true,1.00,1130,400,1127,373,118594,0
ore-57,true,1.00,1838,454,1836,416,202152,0
ore-58,true,1.00,1495,373,1492,356,159054,0
ore-59,true,1.00,2755,460,2754,441,288555,0
ore-60,true,1.00,1987,405,1986,377,209383,0
ore-61,true,1.00,1267,385,1264,365,125797,0
ore-62,true,1.00,1478,388,1476,370,154223,0
ore-63,true,1.00,2467,440,2465,414,249675,0
ore-64,true,1.00,1312,377,1310,359,133471,0
ore-65,true,1.00,1906,449,1904,425,203902,0
ore-66,true,1.00,1378,403,1372,382,148084,0
ore-67,true,1.00,1264,380,1262,363,133008,0
ore-68,true,1.00,1394,392,1390,360,143510,0
ore-69,true,1.00,2916,506,2914,488,312183,0
ore-70,true,1.00,3954,531,3951,502,345195,0
ore-71,true,1.00,1354,401,1351,383,140188,0
ore-72,true,1.00,1121,410,1115,384,123191,0
ore-73,true,1.00,1327,379,1324,359,150942,0
ore-74,true,1.00,1882,425,1876,401,197610,0
ore-75,true,1.00,1761,466,1756,448,180051,0
ore-76,true,1.00,1288,372,1287,354,141058,0
ore-77,true,1.00,1244,424,1242,402,133026,0
ore-78,true,1.00,1449,388,1447,371,161406,0
ore-79,true,1.00,1736,447,1734,430,180856,0
ore-80,true,1.00,1562,392,1560,373,161709,0
ore-81,true,1.00,1458,425,1453,407,158720,0
ore-82,true,1.00,2686,415,2683,392,280606,0
ore-83,true,1.00,2625,457,2623,440,286056,0
ore-84,false,0.13,835,65,835,65,57134,0
ore-85,true,1.00,1244,400,1241,380,125073,0
ore-86,true,1.00,1548,411,1544,392,171330,0
ore-87,true,1.00,1473,388,1467,370,144006,0
ore-88,true,1.00,1450,389,1448,363,160151,0
ore-89,true,1.00,2448,421,2446,404,258991,0
ore-90,true,1.00,2684,460,2682,442,298657,0
ore-91,true,1.00,1394,426,1393,408,149278,0
ore-92,true,1.00,1177,373,1174,355,124776,0
ore-93,true,1.00,1792,448,1788,430,202378,0
ore-94,true,1.00,2212,452,2209,428,230780,0
ore-95,true,1.00,1660,454,1659,421,173822,0
ore-96,true,1.00,1354,412,1353,394,145365,0
ore-97,true,1.00,1589,442,1587,424,162416,0
ore-98,true,1.00,2053,416,2051,398,215905,0
ore-99,true,1.00,1782,432,1778,407,193423,0
ore-100,true,1.00,1147,406,1144,384,124549,0
