NDW:0.0
TTFW:1.4
DFPT:2.0
DFPAP:3.0
DFPMP:0.0
RIGHT_WINDOW_BORDER_X:255.0
level,win/fail,% travelled,run time,game ticks,planning time,total plannings,nodes evaluated,most backtracked nodes
ge-1,true,1.00,609,254,602,217,32684,0
ge-2,true,1.00,416,231,411,208,22559,0
ge-3,true,1.00,219,219,216,196,10744,0
ge-4,true,1.00,1017,245,1011,222,57656,0
ge-5,true,1.00,65,199,63,176,2361,0
ge-6,true,1.00,464,262,460,228,23990,0
ge-7,true,1.00,189,228,184,204,8846,0
ge-8,true,1.00,262,233,259,210,13757,0
ge-9,true,1.00,673,220,664,196,37641,0
ge-10,true,1.00,103,199,96,176,2236,0
ge-11,true,1.00,226,215,221,192,9838,0
ge-12,true,1.00,64,199,59,176,2206,0
ge-13,true,1.00,394,257,389,229,21006,0
ge-14,true,1.00,214,238,208,199,10585,0
ge-15,true,1.00,572,220,567,197,31775,0
ge-16,true,1.00,237,255,230,232,10415,0
ge-17,true,1.00,291,209,286,186,16169,0
ge-18,true,1.00,287,271,284,248,13850,0
ge-19,true,1.00,603,263,597,240,34376,0
ge-20,true,1.00,434,230,429,207,24035,0
ge-21,true,1.00,220,203,215,180,11478,0
ge-22,true,1.00,343,206,335,180,18568,0
ge-23,true,1.00,575,208,569,181,32556,0
ge-24,true,1.00,493,233,486,203,27493,0
ge-25,true,1.00,348,203,342,180,19501,0
ge-26,true,1.00,234,207,231,184,12785,0
ge-27,true,1.00,88,213,81,190,3590,0
ge-28,true,1.00,469,203,465,180,26282,0
ge-29,true,1.00,228,220,224,176,11768,0
ge-30,true,1.00,588,252,581,208,32873,0
ge-31,true,1.00,659,230,654,206,37160,0
ge-32,true,1.00,239,225,233,202,9270,0
ge-33,true,1.00,193,230,190,193,7815,0
ge-34,true,1.00,601,212,598,186,34889,0
ge-35,true,1.00,431,266,427,242,22737,0
ge-36,true,1.00,645,242,645,211,36320,0
ge-37,true,1.00,228,204,224,175,12652,0
ge-38,true,1.00,613,245,605,222,33425,0
ge-39,true,1.00,344,228,336,204,18268,0
ge-40,true,1.00,62,199,58,176,2286,0
ge-41,true,1.00,234,210,231,184,13005,0
ge-42,true,1.00,668,244,662,221,37053,0
ge-43,true,1.00,365,231,359,204,19479,0
ge-44,true,1.00,529,212,521,190,30158,0
ge-45,true,1.00,443,220,435,197,23440,0
ge-46,true,1.00,737,243,732,220,41603,0
ge-47,true,1.00,801,228,797,205,45452,0
ge-48,true,1.00,346,223,343,200,18170,0
ge-49,true,1.00,165,204,160,175,8640,0
ge-50,true,1.00,530,212,523,189,29854,0
ge-51,true,1.00,170,235,162,211,8255,0
ge-52,true,1.00,607,261,599,237,31072,0
ge-53,true,1.00,286,233,282,210,15371,0
ge-54,true,1.00,397,255,390,222,21549,0
ge-55,true,1.00,364,234,359,205,19560,0
ge-56,true,1.00,430,248,422,210,23263,0
ge-57,true,1.00,519,217,510,189,29977,0
ge-58,true,1.00,327,289,319,264,15421,0
ge-59,true,1.00,759,218,757,195,44666,0
ge-60,true,1.00,501,203,499,180,28443,0
ge-61,true,1.00,269,203,262,180,15203,0
ge-62,true,1.00,536,211,532,188,31010,0
ge-63,true,1.00,733,219,731,196,43050,0
ge-64,false,1.00,348,240,346,205,17808,0
ge-65,true,1.00,603,239,598,216,34339,0
ge-66,true,1.00,618,232,607,189,35783,0
ge-67,true,1.00,268,238,262,215,13239,0
ge-68,true,1.00,205,223,200,200,9732,0
ge-69,true,1.00,174,199,170,176,8884,0
ge-70,true,1.00,329,206,324,182,18488,0
ge-71,true,1.00,1227,233,1222,210,71352,0
ge-72,true,1.00,290,253,285,230,14359,0
ge-73,true,1.00,370,225,363,185,20553,0
ge-74,true,1.00,808,231,804,208,45073,0
ge-75,true,1.00,238,231,229,196,13034,0
ge-76,true,1.00,831,217,828,194,47971,0
ge-77,true,1.00,909,228,903,205,52696,0
ge-78,true,1.00,660,238,656,215,36675,0
ge-79,true,1.00,201,222,195,199,10245,0
ge-80,true,1.00,106,214,100,177,3835,0
ge-81,true,1.00,117,216,111,193,4750,0
ge-82,true,1.00,123,242,115,196,4927,0
ge-83,false,1.00,230,249,224,212,11280,0
ge-84,true,1.00,699,209,694,186,38935,0
ge-85,true,1.00,294,209,289,186,15687,0
ge-86,true,1.00,746,208,742,180,43034,0
ge-87,true,1.00,557,221,548,198,30862,0
ge-88,true,1.00,517,251,506,213,28960,0
ge-89,true,1.00,476,261,462,237,24314,0
ge-90,true,1.00,64,199,58,176,2385,0
ge-91,true,1.00,262,199,259,176,14526,0
ge-92,true,1.00,68,205,61,182,2496,0
ge-93,true,1.00,592,213,583,190,35053,0
ge-94,true,1.00,423,208,419,183,23065,0
ge-95,true,1.00,221,284,215,259,9726,0
ge-96,true,1.00,592,243,589,203,33505,0
ge-97,true,1.00,396,217,386,194,21379,0
ge-98,true,1.00,61,199,53,176,2195,0
ge-99,true,1.00,160,199,156,176,7902,0
ge-100,true,1.00,242,205,235,182,12961,0
