NDW:0.0
TTFW:0.8
DFPT:2.0
DFPAP:3.0
DFPMP:10.0
RIGHT_WINDOW_BORDER_X:255.0
level,win/fail,% travelled,run time,game ticks,planning time,total plannings,nodes evaluated,most backtracked nodes
patternWeightCount-1,true,1.00,2562,441,2562,410,252376,0
patternWeightCount-2,true,1.00,484,387,483,357,47851,0
patternWeightCount-3,true,1.00,591,398,588,374,54037,0
patternWeightCount-4,true,1.00,617,381,612,358,58410,0
patternWeightCount-5,true,1.00,1295,401,1294,378,123708,0
patternWeightCount-6,true,1.00,1170,399,1164,375,120058,0
patternWeightCount-7,true,1.00,1017,417,1014,389,98081,0
patternWeightCount-8,true,1.00,379,381,375,358,33204,0
patternWeightCount-9,true,1.00,943,408,941,385,92454,0
patternWeightCount-10,true,1.00,821,399,820,376,76892,0
patternWeightCount-11,true,1.00,518,393,515,369,47766,0
patternWeightCount-12,true,1.00,1030,414,1025,391,72050,0
patternWeightCount-13,true,1.00,722,364,719,341,73657,0
patternWeightCount-14,true,1.00,673,417,670,389,65145,0
patternWeightCount-15,true,1.00,1227,378,1224,355,121941,0
patternWeightCount-16,true,1.00,2421,444,2419,413,244973,0
patternWeightCount-17,true,1.00,582,416,574,393,54696,0
patternWeightCount-18,true,1.00,811,388,809,365,80708,0
patternWeightCount-19,true,1.00,465,383,462,360,42165,0
patternWeightCount-20,true,1.00,7509,522,7506,482,662559,0
patternWeightCount-21,true,1.00,276,372,274,349,25056,0
patternWeightCount-22,true,1.00,2283,440,2282,414,232284,0
patternWeightCount-23,true,1.00,564,411,562,388,53294,0
patternWeightCount-24,true,1.00,918,366,918,343,90169,0
patternWeightCount-25,true,1.00,1418,429,1417,406,137792,0
patternWeightCount-26,true,1.00,1314,439,1313,411,127331,0
patternWeightCount-27,true,1.00,1809,432,1806,398,181322,0
patternWeightCount-28,true,1.00,1256,462,1254,439,121668,0
patternWeightCount-29,true,1.00,659,377,658,354,61688,0
patternWeightCount-30,true,1.00,3191,473,3190,433,280449,0
patternWeightCount-31,true,1.00,975,443,970,420,85234,0
patternWeightCount-32,true,1.00,567,381,566,350,55428,0
patternWeightCount-33,true,1.00,878,431,875,408,86052,0
patternWeightCount-34,true,1.00,1395,386,1392,363,139554,0
patternWeightCount-35,true,1.00,1787,443,1785,420,165397,0
patternWeightCount-36,true,1.00,1269,415,1269,392,122788,0
patternWeightCount-37,true,1.00,566,370,565,347,50726,0
patternWeightCount-38,true,1.00,1973,441,1969,395,179037,0
patternWeightCount-39,true,1.00,779,360,777,335,73822,0
patternWeightCount-40,true,1.00,1066,418,1062,395,106739,0
patternWeightCount-41,true,1.00,1477,447,1468,409,146417,0
patternWeightCount-42,false,0.87,2391,384,2388,384,218785,0
patternWeightCount-43,true,1.00,927,414,923,391,88920,0
patternWeightCount-44,true,1.00,1172,438,1168,402,118280,0
patternWeightCount-45,true,1.00,3886,499,3884,465,360849,0
patternWeightCount-46,true,1.00,2537,430,2535,395,227407,0
patternWeightCount-47,true,1.00,563,377,560,354,54150,0
patternWeightCount-48,true,1.00,561,389,557,366,56043,0
patternWeightCount-49,true,1.00,771,354,770,331,73484,0
patternWeightCount-50,true,1.00,832,409,828,381,79861,0
patternWeightCount-51,true,1.00,1015,423,1011,387,102715,0
patternWeightCount-52,true,1.00,1329,421,1328,387,133623,0
patternWeightCount-53,true,1.00,3566,475,3562,450,329308,0
patternWeightCount-54,true,1.00,719,450,713,427,68793,0
patternWeightCount-55,true,1.00,990,405,988,378,91842,0
patternWeightCount-56,true,1.00,1269,401,1266,378,124806,0
patternWeightCount-57,true,1.00,590,367,586,344,62823,0
patternWeightCount-58,true,1.00,1278,434,1278,397,125168,0
patternWeightCount-59,true,1.00,360,371,358,348,34334,0
patternWeightCount-60,true,1.00,981,434,977,405,95842,0
patternWeightCount-61,true,1.00,839,381,837,353,84931,0
patternWeightCount-62,true,1.00,1962,443,1957,413,197276,0
patternWeightCount-63,true,1.00,1582,433,1579,410,152448,0
patternWeightCount-64,true,1.00,1613,446,1611,423,158767,0
patternWeightCount-65,true,1.00,1061,413,1058,390,100566,0
patternWeightCount-66,true,1.00,733,395,732,372,69124,0
patternWeightCount-67,true,1.00,772,413,771,390,72082,0
patternWeightCount-68,true,1.00,889,473,887,450,68120,0
patternWeightCount-69,true,1.00,1561,419,1560,381,152764,0
patternWeightCount-70,true,1.00,848,405,846,380,83861,0
patternWeightCount-71,true,1.00,679,392,677,367,66847,0
patternWeightCount-72,true,1.00,3590,465,3587,440,312245,0
patternWeightCount-73,true,1.00,4492,455,4490,413,424148,0
patternWeightCount-74,true,1.00,528,387,527,364,52742,0
patternWeightCount-75,true,1.00,1060,402,1058,379,101205,0
patternWeightCount-76,true,1.00,774,437,772,414,78340,0
patternWeightCount-77,true,1.00,1096,416,1094,393,106510,0
patternWeightCount-78,true,1.00,1563,443,1560,418,145551,0
patternWeightCount-79,true,1.00,745,386,745,363,72178,0
patternWeightCount-80,true,1.00,1106,451,1104,428,107988,0
patternWeightCount-81,true,1.00,4778,476,4775,454,408906,0
patternWeightCount-82,true,1.00,280,406,279,367,25057,0
patternWeightCount-83,true,1.00,615,376,613,353,62078,0
patternWeightCount-84,true,1.00,773,430,768,407,71544,0
patternWeightCount-85,true,1.00,1260,400,1258,375,128619,0
patternWeightCount-86,false,0.93,2338,393,2338,393,213701,0
patternWeightCount-87,true,1.00,4673,461,4673,426,405303,0
patternWeightCount-88,true,1.00,1150,397,1148,373,111951,0
patternWeightCount-89,true,1.00,720,372,719,349,72986,0
patternWeightCount-90,true,1.00,4060,462,4056,433,384417,0
patternWeightCount-91,true,1.00,890,380,886,356,88246,0
patternWeightCount-92,true,1.00,3191,437,3190,405,312201,0
patternWeightCount-93,true,1.00,2951,426,2947,392,274894,0
patternWeightCount-94,true,1.00,1013,417,1009,394,99080,0
patternWeightCount-95,true,1.00,908,381,905,358,85917,0
patternWeightCount-96,true,1.00,612,392,610,369,60428,0
patternWeightCount-97,true,1.00,788,347,785,324,75502,0
patternWeightCount-98,true,1.00,4872,486,4870,428,470596,0
patternWeightCount-99,true,1.00,1176,416,1175,392,119593,0
patternWeightCount-100,true,1.00,798,425,796,402,77320,0
