NDW:0.0
TTFW:1.2
DFPT:2.0
DFPAP:3.0
DFPMP:5.0
RIGHT_WINDOW_BORDER_X:75.0
level,win/fail,% travelled,run time,game ticks,planning time,total plannings,nodes evaluated,most backtracked nodes
ge-1,true,1.00,3226,437,3224,429,305861,0
ge-2,true,1.00,2133,315,2130,308,201135,0
ge-3,true,1.00,724,289,724,281,70030,0
ge-4,false,0.37,1994,219,1993,219,196218,0
ge-5,true,1.00,22,240,21,232,4303,0
ge-6,false,0.55,1897,210,1896,210,179442,0
ge-7,true,1.00,122,261,120,254,13456,0
ge-8,true,1.00,793,305,792,297,75333,0
ge-9,true,1.00,1077,301,1074,294,108079,0
ge-10,true,1.00,19,230,19,223,3631,0
ge-11,true,1.00,715,272,712,265,71779,0
ge-12,true,1.00,20,246,18,238,4096,0
ge-13,true,1.00,324,270,323,263,31838,0
ge-14,true,1.00,161,274,159,267,16816,0
ge-15,true,1.00,2315,345,2315,338,220280,0
ge-16,true,1.00,232,293,229,286,27917,0
ge-17,true,1.00,1371,298,1370,291,150026,0
ge-18,true,1.00,2073,369,2069,362,211344,0
ge-19,false,0.46,2394,224,2393,224,228129,0
ge-20,true,1.00,1761,360,1759,351,164776,0
ge-21,true,1.00,554,252,554,244,52400,0
ge-22,true,1.00,1415,332,1415,325,133240,0
ge-23,false,0.76,2425,270,2425,270,240139,0
ge-24,false,0.71,1271,242,1270,242,119133,0
ge-25,false,0.64,2095,240,2094,240,199252,0
ge-26,true,1.00,905,291,903,284,92710,0
ge-27,true,1.00,22,242,20,235,4214,0
ge-28,false,0.53,2434,223,2433,223,214138,0
ge-29,true,1.00,1288,327,1288,304,123513,0
ge-30,false,0.37,4365,251,4365,251,444974,0
ge-31,false,0.25,2579,157,2579,157,248861,0
ge-32,true,1.00,490,281,490,274,49180,0
ge-33,true,1.00,89,260,87,244,10729,0
ge-34,true,1.00,1819,306,1817,298,173408,0
ge-35,true,1.00,937,362,932,355,83986,0
ge-36,false,0.76,4928,397,4927,397,471737,0
ge-37,true,1.00,2885,361,2884,354,259030,0
ge-38,false,0.76,4457,399,4456,399,460637,0
ge-39,false,0.18,69,51,69,51,7364,0
ge-40,true,1.00,24,238,20,230,5022,0
ge-41,true,1.00,1641,288,1639,280,156920,0
ge-42,true,1.00,1295,359,1292,352,124315,0
ge-43,true,1.00,1946,335,1944,328,194964,0
ge-44,false,0.71,3888,377,3886,377,340518,0
ge-45,true,1.00,3051,389,3050,381,290227,0
ge-46,false,0.31,1857,162,1857,162,170068,0
ge-47,false,0.51,3180,251,3180,251,333076,0
ge-48,false,0.62,64,198,63,198,7944,0
ge-49,true,1.00,604,297,603,287,58251,0
ge-50,false,0.33,1196,131,1196,131,110607,0
ge-51,true,1.00,94,269,94,261,11038,0
ge-52,true,1.00,434,317,433,309,43127,0
ge-53,true,1.00,1526,337,1525,330,138388,0
ge-54,true,1.00,295,266,293,259,34608,0
ge-55,true,1.00,929,310,929,303,87373,0
ge-56,true,1.00,2898,335,2897,322,274722,0
ge-57,false,0.91,1782,321,1780,321,167850,0
ge-58,true,1.00,126,336,123,328,15646,0
ge-59,false,0.81,4604,379,4600,379,428413,0
ge-60,false,0.23,1094,103,1093,103,99950,0
ge-61,false,0.81,2027,289,2024,289,186748,0
ge-62,false,0.27,438,99,438,99,45747,0
ge-63,false,0.22,2914,178,2914,178,296822,0
ge-64,false,1.00,228,289,226,275,24232,0
ge-65,false,0.67,3092,287,3091,287,291915,0
ge-66,false,0.57,3549,302,3547,302,338084,0
ge-67,true,1.00,261,285,257,278,26649,0
ge-68,true,1.00,96,247,95,240,11000,0
ge-69,true,1.00,283,244,282,237,27751,0
ge-70,false,0.86,2698,304,2697,304,257051,0
ge-71,false,0.29,4765,248,4765,248,484350,0
ge-72,true,1.00,94,267,92,260,11041,0
ge-73,false,0.95,220,232,220,232,23360,0
ge-74,false,0.46,2090,180,2089,180,199817,0
ge-75,true,1.00,525,275,525,267,51528,0
ge-76,false,0.11,35,36,35,36,3706,0
ge-77,false,0.11,3494,151,3494,151,334299,0
ge-78,false,0.94,5364,489,5364,489,504570,0
ge-79,true,1.00,220,254,220,244,21793,0
ge-80,true,1.00,27,254,24,245,5129,0
ge-81,true,1.00,35,272,33,265,5906,0
ge-82,true,1.00,33,264,32,251,5552,0
ge-83,false,1.00,2571,387,2569,373,268562,0
ge-84,false,0.12,3439,150,3438,150,339262,0
ge-85,true,1.00,3809,402,3809,395,384702,0
ge-86,false,0.80,2249,301,2248,301,211767,0
ge-87,false,0.79,2653,341,2649,341,254059,0
ge-88,true,1.00,2579,356,2576,348,245181,0
ge-89,true,1.00,100,291,99,284,12193,0
ge-90,true,1.00,23,234,19,226,4668,0
ge-91,true,1.00,2767,293,2767,286,256108,0
ge-92,true,1.00,20,234,20,227,3932,0
ge-93,true,1.00,3046,369,3045,361,285237,0
ge-94,true,1.00,2278,332,2278,325,218313,0
ge-95,true,1.00,41,302,39,294,6944,0
ge-96,true,1.00,3175,380,3173,372,312289,0
ge-97,false,0.62,2628,296,2627,296,255225,0
ge-98,true,1.00,22,234,19,227,4411,0
ge-99,true,1.00,123,238,119,231,12945,0
ge-100,true,1.00,1132,294,1128,287,109063,0
