NDW:0.0
TTFW:0.8
DFPT:2.0
DFPAP:3.0
DFPMP:3.0
RIGHT_WINDOW_BORDER_X:295.0
level,win/fail,% travelled,run time,game ticks,planning time,total plannings,nodes evaluated,most backtracked nodes
patternWeightCount-1,true,1.00,3005,469,3003,417,307085,0
patternWeightCount-2,true,1.00,476,402,471,368,46785,0
patternWeightCount-3,true,1.00,650,398,645,371,58894,0
patternWeightCount-4,true,1.00,454,381,451,355,42365,0
patternWeightCount-5,true,1.00,1544,451,1542,413,150376,0
patternWeightCount-6,true,1.00,1520,409,1517,381,155191,0
patternWeightCount-7,true,1.00,831,427,829,400,77071,0
patternWeightCount-8,true,1.00,450,359,447,332,38168,0
patternWeightCount-9,true,1.00,1338,427,1334,400,135870,0
patternWeightCount-10,true,1.00,818,441,814,413,77132,0
patternWeightCount-11,true,1.00,470,387,469,360,42859,0
patternWeightCount-12,true,1.00,1059,425,1054,398,99682,0
patternWeightCount-13,true,1.00,597,348,594,321,60597,0
patternWeightCount-14,true,1.00,613,396,608,357,61836,0
patternWeightCount-15,true,1.00,1143,368,1143,342,113322,0
patternWeightCount-16,true,1.00,2498,453,2496,411,264069,0
patternWeightCount-17,true,1.00,607,420,604,393,58203,0
patternWeightCount-18,true,1.00,671,389,668,363,66806,0
patternWeightCount-19,true,1.00,550,405,547,379,48339,0
patternWeightCount-20,true,1.00,6518,460,6518,431,564587,0
patternWeightCount-21,true,1.00,453,400,450,372,39687,0
patternWeightCount-22,true,1.00,1939,450,1931,414,198117,0
patternWeightCount-23,true,1.00,587,401,585,374,54171,0
patternWeightCount-24,true,1.00,786,368,782,341,78264,0
patternWeightCount-25,true,1.00,1258,400,1256,373,124466,0
patternWeightCount-26,true,1.00,1510,404,1507,365,155000,0
patternWeightCount-27,true,1.00,1463,436,1459,404,144775,0
patternWeightCount-28,true,1.00,910,374,906,348,89598,0
patternWeightCount-29,true,1.00,1047,405,1045,378,100681,0
patternWeightCount-30,true,1.00,3041,473,3039,423,269291,0
patternWeightCount-31,true,1.00,1594,427,1593,401,147242,0
patternWeightCount-32,true,1.00,545,394,544,367,54058,0
patternWeightCount-33,true,1.00,556,387,552,360,53699,0
patternWeightCount-34,true,1.00,864,381,864,354,86149,0
patternWeightCount-35,true,1.00,1819,425,1819,398,168008,0
patternWeightCount-36,true,1.00,1127,406,1126,380,111764,0
patternWeightCount-37,true,1.00,539,385,534,359,48512,0
patternWeightCount-38,true,1.00,2142,412,2135,374,197922,0
patternWeightCount-39,true,1.00,758,393,754,355,73532,0
patternWeightCount-40,true,1.00,957,415,952,388,92964,0
patternWeightCount-41,true,1.00,1419,435,1419,397,140354,0
patternWeightCount-42,false,0.88,2549,401,2547,401,233682,0
patternWeightCount-43,true,1.00,825,395,821,369,78410,0
patternWeightCount-44,true,1.00,1020,444,1020,398,103022,0
patternWeightCount-45,true,1.00,2322,448,2318,401,220197,0
patternWeightCount-46,true,1.00,5021,515,5017,475,421419,0
patternWeightCount-47,true,1.00,596,394,594,368,56368,0
patternWeightCount-48,true,1.00,621,405,618,378,59373,0
patternWeightCount-49,true,1.00,907,395,904,368,86303,0
patternWeightCount-50,true,1.00,981,410,978,383,91148,0
patternWeightCount-51,true,1.00,885,392,882,350,87855,0
patternWeightCount-52,true,1.00,1076,393,1075,353,107658,0
patternWeightCount-53,true,1.00,2323,413,2320,378,221969,0
patternWeightCount-54,true,1.00,781,464,776,437,73590,0
patternWeightCount-55,true,1.00,1105,405,1104,378,102647,0
patternWeightCount-56,true,1.00,1277,417,1274,390,127176,0
patternWeightCount-57,true,1.00,366,367,362,340,35453,0
patternWeightCount-58,true,1.00,925,402,924,367,91477,0
patternWeightCount-59,true,1.00,412,378,410,351,37843,0
patternWeightCount-60,true,1.00,1136,474,1130,436,107792,0
patternWeightCount-61,true,1.00,799,391,798,353,80952,0
patternWeightCount-62,true,1.00,1703,424,1700,385,172781,0
patternWeightCount-63,true,1.00,972,409,968,382,94379,0
patternWeightCount-64,true,1.00,1337,423,1332,396,133960,0
patternWeightCount-65,true,1.00,1077,437,1072,410,101907,0
patternWeightCount-66,true,1.00,786,401,785,374,72516,0
patternWeightCount-67,true,1.00,801,384,801,358,73710,0
patternWeightCount-68,true,1.00,932,443,929,416,65756,0
patternWeightCount-69,true,1.00,1558,415,1555,362,148573,0
patternWeightCount-70,true,1.00,900,416,892,376,88749,0
patternWeightCount-71,true,1.00,829,405,826,370,77888,0
patternWeightCount-72,true,1.00,3517,448,3513,397,303390,0
patternWeightCount-73,true,1.00,4914,443,4912,402,451494,0
patternWeightCount-74,true,1.00,647,382,641,356,63885,0
patternWeightCount-75,true,1.00,870,406,867,380,81860,0
patternWeightCount-76,true,1.00,905,439,897,412,89044,0
patternWeightCount-77,true,1.00,835,395,832,369,83121,0
patternWeightCount-78,true,1.00,2418,485,2412,456,209679,0
patternWeightCount-79,true,1.00,516,401,515,375,50363,0
patternWeightCount-80,true,1.00,1228,448,1224,421,120022,0
patternWeightCount-81,true,1.00,2938,416,2934,381,261643,0
patternWeightCount-82,true,1.00,243,394,240,350,20781,0
patternWeightCount-83,true,1.00,686,387,684,359,67857,0
patternWeightCount-84,true,1.00,669,394,665,367,62111,0
patternWeightCount-85,true,1.00,1376,415,1373,384,143049,0
patternWeightCount-86,false,0.94,2315,395,2311,395,211357,0
patternWeightCount-87,true,1.00,4545,436,4540,397,387315,0
patternWeightCount-88,true,1.00,1061,403,1056,374,103567,0
patternWeightCount-89,true,1.00,567,372,565,345,56965,0
patternWeightCount-90,true,1.00,4046,439,4043,408,372620,0
patternWeightCount-91,true,1.00,993,399,991,370,98097,0
patternWeightCount-92,true,1.00,3601,495,3599,447,360938,0
patternWeightCount-93,true,1.00,3528,420,3527,381,314388,0
patternWeightCount-94,true,1.00,1147,419,1144,392,109700,0
patternWeightCount-95,true,1.00,1260,415,1255,389,118011,0
patternWeightCount-96,true,1.00,628,401,627,374,58956,0
patternWeightCount-97,true,1.00,746,343,744,317,71853,0
patternWeightCount-98,true,1.00,3892,452,3887,415,372394,0
patternWeightCount-99,true,1.00,1004,443,1001,410,99206,0
patternWeightCount-100,true,1.00,777,379,776,353,75059,0
