NDW:0.0
TTFW:1.8
DFPT:2.0
DFPAP:3.0
DFPMP:7.0
RIGHT_WINDOW_BORDER_X:15.0
level,win/fail,% travelled,run time,game ticks,planning time,total plannings,nodes evaluated,most backtracked nodes
notchParamRand-1,false,0.08,2,61,2,61,447,0
notchParamRand-2,false,0.13,2,77,2,77,397,0
notchParamRand-3,false,0.23,2,136,2,136,623,0
notchParamRand-4,false,0.18,736,243,734,243,71954,0
notchParamRand-5,false,0.27,3,156,3,156,732,0
notchParamRand-6,false,0.28,301,211,299,211,28893,0
notchParamRand-7,false,0.09,1,55,1,55,318,0
notchParamRand-8,false,0.36,203,246,200,246,17585,0
notchParamRand-9,false,0.11,2,79,2,79,514,0
notchParamRand-10,false,0.18,6,153,5,153,1313,0
notchParamRand-11,false,0.48,6,261,3,261,1200,0
notchParamRand-12,false,0.32,7,228,5,228,1587,0
notchParamRand-13,false,0.16,2,106,2,106,588,0
notchParamRand-14,false,0.24,667,243,665,243,62949,0
notchParamRand-15,false,0.29,170,226,169,226,17263,0
notchParamRand-16,false,0.12,3,86,3,86,548,0
notchParamRand-17,true,1.00,10,549,7,547,2128,0
notchParamRand-18,false,0.18,72,194,71,194,8061,0
notchParamRand-19,false,0.09,3,92,2,92,722,0
notchParamRand-20,false,0.14,4,124,2,124,975,0
notchParamRand-21,false,0.18,3,118,1,118,645,0
notchParamRand-22,false,0.15,2,94,1,94,450,0
notchParamRand-23,false,0.24,206,232,206,232,20531,0
notchParamRand-24,false,0.50,8,313,6,313,1815,0
notchParamRand-25,false,0.12,2,82,2,82,510,0
notchParamRand-26,false,0.21,372,223,371,223,36035,0
notchParamRand-27,false,0.52,272,351,271,351,25818,0
notchParamRand-28,false,0.18,203,181,203,181,20826,0
notchParamRand-29,false,0.13,4,117,4,117,913,0
notchParamRand-30,false,0.17,3,113,3,113,613,0
notchParamRand-31,false,0.21,568,218,567,218,50656,0
notchParamRand-32,false,0.24,3,148,2,148,786,0
notchParamRand-33,false,0.19,150,163,148,163,15504,0
notchParamRand-34,false,0.20,2,115,2,115,554,0
notchParamRand-35,false,0.24,207,249,207,249,20463,0
notchParamRand-36,false,0.70,7,392,5,392,1525,0
notchParamRand-37,false,0.27,3,156,3,156,815,0
notchParamRand-38,false,0.04,1,30,1,30,247,0
notchParamRand-39,false,0.18,605,194,605,194,58045,0
notchParamRand-40,false,0.04,1,30,0,30,247,0
notchParamRand-41,false,0.20,4,134,2,134,918,0
notchParamRand-42,false,0.18,174,159,173,159,17118,0
notchParamRand-43,false,0.52,501,324,500,324,49463,0
notchParamRand-44,false,0.16,2,104,1,104,608,0
notchParamRand-45,false,0.11,2,76,2,76,488,0
notchParamRand-46,false,0.35,4,198,3,198,855,0
notchParamRand-47,false,0.05,1,36,1,36,262,0
notchParamRand-48,false,0.09,1,55,0,55,318,0
notchParamRand-49,false,0.14,2,85,1,85,437,0
notchParamRand-50,false,0.17,203,167,202,167,20055,0
notchParamRand-51,false,0.10,2,79,2,79,498,0
notchParamRand-52,false,0.29,184,230,182,230,18101,0
notchParamRand-53,false,0.12,58,999,54,999,13318,0
notchParamRand-54,false,0.10,2,80,2,80,499,0
notchParamRand-55,false,0.18,468,210,466,210,43898,0
notchParamRand-56,false,0.17,2,104,2,104,491,0
notchParamRand-57,false,0.24,205,198,204,198,20882,0
notchParamRand-58,false,0.17,3,113,3,113,660,0
notchParamRand-59,false,0.29,205,219,203,219,19977,0
notchParamRand-60,false,0.29,468,213,467,213,46995,0
notchParamRand-61,false,0.09,1,58,1,58,331,0
notchParamRand-62,false,0.07,1,45,1,45,287,0
notchParamRand-63,false,0.17,2,104,0,104,494,0
notchParamRand-64,false,0.36,237,256,236,256,22687,0
notchParamRand-65,false,0.17,4,139,1,139,942,0
notchParamRand-66,false,0.09,2,78,2,78,499,0
notchParamRand-67,false,0.34,4,208,3,208,947,0
notchParamRand-68,false,0.18,202,172,201,172,20498,0
notchParamRand-69,false,0.10,2,78,2,78,485,0
notchParamRand-70,false,0.21,237,221,235,221,22978,0
notchParamRand-71,false,0.24,237,197,234,197,21620,0
notchParamRand-72,false,0.52,207,331,206,331,21489,0
notchParamRand-73,false,0.27,5,183,3,183,1034,0
notchParamRand-74,true,1.00,10,567,6,565,2309,0
notchParamRand-75,false,0.14,3,111,3,111,820,0
notchParamRand-76,false,0.18,536,240,534,240,48988,0
notchParamRand-77,false,0.17,5,120,4,120,1138,0
notchParamRand-78,false,0.24,270,203,267,203,27207,0
notchParamRand-79,false,0.25,4,167,4,167,883,0
notchParamRand-80,false,0.10,1,60,0,60,335,0
notchParamRand-81,false,0.16,3,104,2,104,588,0
notchParamRand-82,false,0.09,1,55,1,55,318,0
notchParamRand-83,false,0.17,572,220,571,220,56140,0
notchParamRand-84,false,0.14,2,88,2,88,437,0
notchParamRand-85,true,1.00,8,538,5,536,2001,0
notchParamRand-86,false,0.21,107,203,107,203,11361,0
notchParamRand-87,false,0.16,2,106,1,106,593,0
notchParamRand-88,false,0.35,5,198,2,198,1037,0
notchParamRand-89,false,0.15,3,103,3,103,602,0
notchParamRand-90,false,0.06,1,42,1,42,278,0
notchParamRand-91,true,1.00,10,567,8,565,2280,0
notchParamRand-92,false,0.17,171,158,169,158,16699,0
notchParamRand-93,false,0.32,4,201,4,201,1054,0
notchParamRand-94,false,0.15,1,95,1,95,464,0
notchParamRand-95,false,0.19,402,179,400,179,37139,0
notchParamRand-96,false,0.37,241,312,238,312,23363,0
notchParamRand-97,false,0.04,1,30,1,30,247,0
notchParamRand-98,false,0.32,5,201,5,201,1064,0
notchParamRand-99,false,0.28,6,193,6,193,1272,0
notchParamRand-100,false,0.20,3,119,3,119,556,0
