NDW:0.0
TTFW:1.2
DFPT:2.0
DFPAP:3.0
DFPMP:10.0
RIGHT_WINDOW_BORDER_X:215.0
level,win/fail,% travelled,run time,game ticks,planning time,total plannings,nodes evaluated,most backtracked nodes
hopper-1,true,1.00,1046,323,1045,304,110118,0
hopper-2,true,1.00,1300,333,1298,314,133154,0
hopper-3,true,1.00,1482,334,1478,315,159839,0
hopper-4,false,0.27,2133,136,2133,136,182349,0
hopper-5,true,1.00,792,324,791,305,82928,0
hopper-6,true,1.00,1142,320,1141,300,126391,0
hopper-7,true,1.00,925,329,924,310,95622,0
hopper-8,false,0.42,1320,152,1319,152,120923,0
hopper-9,true,1.00,941,320,940,296,101490,0
hopper-10,true,1.00,879,319,878,300,96423,0
hopper-11,true,1.00,620,321,617,302,64848,0
hopper-12,true,1.00,1225,320,1222,301,139842,0
hopper-13,true,1.00,1902,362,1900,343,198606,0
hopper-14,true,1.00,1026,328,1023,305,110949,0
hopper-15,true,1.00,970,310,969,287,98984,0
hopper-16,false,0.54,1335,180,1334,180,117834,0
hopper-17,true,1.00,844,315,842,296,86138,0
hopper-18,true,1.00,1069,310,1067,291,105122,0
hopper-19,true,1.00,880,320,877,297,99807,0
hopper-20,true,1.00,1076,338,1071,318,110589,0
hopper-21,true,1.00,902,327,898,308,92792,0
hopper-22,false,0.33,1221,122,1221,122,107887,0
hopper-23,true,1.00,1020,321,1018,302,117714,0
hopper-24,true,1.00,587,330,586,309,61523,0
hopper-25,true,1.00,1030,311,1028,292,110765,0
hopper-26,true,1.00,1025,301,1024,282,102512,0
hopper-27,true,1.00,835,299,835,280,89571,0
hopper-28,true,1.00,1623,355,1623,336,193833,0
hopper-29,false,0.26,1461,111,1461,111,118229,0
hopper-30,true,1.00,847,332,847,312,90816,0
hopper-31,false,0.77,2910,295,2909,295,259999,0
hopper-32,true,1.00,1257,299,1256,280,136714,0
hopper-33,false,0.50,950,169,947,169,87209,0
hopper-34,true,1.00,1455,338,1452,319,154475,0
hopper-35,true,1.00,1348,348,1347,328,154328,0
hopper-36,true,1.00,653,316,651,297,67011,0
hopper-37,false,0.51,804,166,801,166,71570,0
hopper-38,true,1.00,1824,339,1822,320,210829,0
hopper-39,true,1.00,1555,355,1551,330,180036,0
hopper-40,true,1.00,981,337,980,318,95111,0
hopper-41,true,1.00,1820,321,1819,302,183311,0
hopper-42,true,1.00,760,309,757,290,75970,0
hopper-43,false,0.45,1765,160,1765,160,153999,0
hopper-44,true,1.00,1205,313,1202,293,130399,0
hopper-45,false,0.42,1308,151,1308,151,118832,0
hopper-46,false,0.67,2764,270,2763,270,257726,0
hopper-47,true,1.00,1257,307,1256,288,133884,0
hopper-48,true,1.00,1037,305,1037,286,104766,0
hopper-49,true,1.00,1033,321,1033,302,113719,0
hopper-50,true,1.00,1184,339,1183,320,129186,0
hopper-51,false,0.33,1686,135,1686,135,139666,0
hopper-52,true,1.00,702,307,702,288,76910,0
hopper-53,false,0.63,2975,261,2973,261,261514,0
hopper-54,true,1.00,597,302,596,277,60045,0
hopper-55,true,1.00,751,326,748,303,84286,0
hopper-56,true,1.00,667,297,665,278,74332,0
hopper-57,true,1.00,937,307,936,288,92004,0
hopper-58,true,1.00,1269,327,1265,308,145624,0
hopper-59,true,1.00,697,297,695,278,76391,0
hopper-60,true,1.00,1120,343,1117,324,129798,0
hopper-61,true,1.00,1371,319,1370,300,145895,0
hopper-62,true,1.00,1098,330,1093,310,111222,0
hopper-63,true,1.00,1429,345,1425,326,157736,0
hopper-64,true,1.00,1331,321,1327,302,130331,0
hopper-65,true,1.00,939,324,938,300,102222,0
hopper-66,true,1.00,1408,356,1406,337,149221,0
hopper-67,true,1.00,809,327,808,308,84402,0
hopper-68,true,1.00,622,328,617,309,64503,0
hopper-69,true,1.00,1017,347,1015,328,107416,0
hopper-70,true,1.00,1072,312,1072,289,116135,0
hopper-71,true,1.00,607,305,606,286,60896,0
hopper-72,true,1.00,1333,330,1330,305,141500,0
hopper-73,true,1.00,875,299,873,280,89973,0
hopper-74,true,1.00,739,305,735,286,71754,0
hopper-75,true,1.00,1101,310,1100,291,116706,0
hopper-76,true,1.00,1602,353,1600,333,176053,0
hopper-77,true,1.00,923,355,919,336,93908,0
hopper-78,true,1.00,1034,310,1032,290,119881,0
hopper-79,true,1.00,704,316,703,286,71865,0
hopper-80,true,1.00,645,313,643,294,63829,0
hopper-81,false,0.39,1322,132,1322,132,117323,0
hopper-82,false,0.45,2913,203,2911,203,244817,0
hopper-83,true,1.00,1211,324,1209,305,131069,0
hopper-84,true,1.00,1137,307,1136,288,116939,0
hopper-85,true,1.00,1624,334,1623,315,165608,0
hopper-86,true,1.00,939,303,937,284,99425,0
hopper-87,true,1.00,975,315,975,296,101611,0
hopper-88,true,1.00,718,313,716,294,83259,0
hopper-89,true,1.00,768,344,767,324,82218,0
hopper-90,true,1.00,806,316,803,296,87380,0
hopper-91,true,1.00,939,322,938,303,103349,0
hopper-92,true,1.00,1071,319,1069,300,104961,0
hopper-93,true,1.00,712,317,709,298,76847,0
hopper-94,true,1.00,1387,336,1384,317,152042,0
hopper-95,true,1.00,895,297,894,278,93055,0
hopper-96,true,1.00,1436,311,1434,292,155141,0
hopper-97,true,1.00,1203,314,1202,295,122613,0
hopper-98,true,1.00,1268,321,1268,302,131700,0
hopper-99,true,1.00,2294,360,2292,341,243945,0
hopper-100,true,1.00,1049,332,1046,305,109427,0
