NDW:0.0
TTFW:1.4
DFPT:2.0
DFPAP:3.0
DFPMP:2.0
RIGHT_WINDOW_BORDER_X:35.0
level,win/fail,% travelled,run time,game ticks,planning time,total plannings,nodes evaluated,most backtracked nodes
hopper-1,false,0.13,1259,124,1257,124,97472,0
hopper-2,false,0.13,1259,124,1259,124,97628,0
hopper-3,false,0.30,1447,273,1443,273,122523,0
hopper-4,false,0.32,24558,999,24557,999,2145035,0
hopper-5,false,0.13,1259,124,1258,124,97532,0
hopper-6,false,0.30,3245,285,3243,285,256108,0
hopper-7,false,0.13,1259,124,1259,124,97553,0
hopper-8,false,0.13,1259,124,1259,124,97666,0
hopper-9,false,0.13,1259,124,1258,124,97575,0
hopper-10,false,0.28,1792,242,1792,242,141104,0
hopper-11,false,0.13,1259,124,1259,124,97664,0
hopper-12,false,0.32,2586,268,2585,268,207316,0
hopper-13,false,0.13,1259,124,1258,124,97553,0
hopper-14,false,0.13,1259,124,1259,124,97630,0
hopper-15,false,0.13,1259,124,1259,124,97605,0
hopper-16,false,0.13,1259,124,1257,124,97664,0
hopper-17,false,0.31,2425,284,2424,284,199295,0
hopper-18,false,0.28,3113,271,3113,271,245897,0
hopper-19,false,0.41,3422,397,3416,397,298823,0
hopper-20,false,0.13,1260,124,1259,124,97667,0
hopper-21,false,0.13,1260,124,1259,124,97604,0
hopper-22,false,0.13,1160,123,1159,123,89777,0
hopper-23,false,0.13,1260,124,1259,124,97751,0
hopper-24,false,0.13,1259,124,1259,124,97655,0
hopper-25,false,0.32,2484,258,2483,258,195754,0
hopper-26,false,0.13,1259,124,1259,124,97636,0
hopper-27,false,0.13,1263,124,1261,124,97047,0
hopper-28,false,0.13,1259,124,1259,124,97602,0
hopper-29,false,0.30,2330,315,2328,315,205654,0
hopper-30,false,0.13,1260,124,1260,124,97607,0
hopper-31,false,0.13,1260,124,1260,124,97767,0
hopper-32,false,0.33,4137,319,4137,319,326269,0
hopper-33,false,0.29,1725,224,1723,224,135375,0
hopper-34,false,0.13,1260,124,1259,124,97605,0
hopper-35,false,0.13,1259,124,1259,124,97747,0
hopper-36,false,0.13,1259,124,1259,124,97658,0
hopper-37,false,0.32,604,200,602,200,48250,0
hopper-38,false,0.13,1160,123,1158,123,89957,0
hopper-39,false,0.29,2915,263,2914,263,228216,0
hopper-40,false,0.13,1259,124,1259,124,97657,0
hopper-41,false,0.24,1871,312,1869,312,170391,0
hopper-42,false,0.13,1259,124,1259,124,97540,0
hopper-43,false,0.13,1259,124,1258,124,97564,0
hopper-44,false,0.30,1760,248,1760,248,137546,0
hopper-45,false,0.13,1259,124,1259,124,97598,0
hopper-46,false,0.13,1259,124,1259,124,97739,0
hopper-47,false,0.32,2981,280,2979,280,233788,0
hopper-48,false,0.13,1260,124,1260,124,97646,0
hopper-49,false,0.13,1259,124,1259,124,97689,0
hopper-50,false,0.13,1259,124,1258,124,97552,0
hopper-51,false,0.13,1259,124,1257,124,97506,0
hopper-52,false,0.34,25280,999,25279,999,2164985,0
hopper-53,false,0.13,1260,124,1259,124,97736,0
hopper-54,false,0.31,1760,245,1759,245,137648,0
hopper-55,false,0.13,1261,124,1259,124,97708,0
hopper-56,false,0.29,2351,226,2350,226,187268,0
hopper-57,false,0.29,1498,242,1496,242,120680,0
hopper-58,false,0.13,1260,124,1260,124,97638,0
hopper-59,false,0.13,1259,124,1259,124,97710,0
hopper-60,false,0.30,1922,221,1919,221,158458,0
hopper-61,false,0.13,1259,124,1259,124,97666,0
hopper-62,false,0.13,1259,124,1259,124,97720,0
hopper-63,false,0.28,1854,340,1851,340,167830,0
hopper-64,false,0.13,1259,124,1259,124,97727,0
hopper-65,false,0.13,1259,124,1259,124,97610,0
hopper-66,false,0.30,969,225,967,225,76820,0
hopper-67,false,0.31,3309,281,3308,281,262119,0
hopper-68,false,0.29,935,225,933,225,77077,0
hopper-69,false,0.13,1259,124,1259,124,97666,0
hopper-70,false,0.13,1259,124,1259,124,97698,0
hopper-71,false,0.29,2319,241,2318,241,190184,0
hopper-72,false,0.13,1260,124,1260,124,97682,0
hopper-73,false,0.13,1260,124,1260,124,97760,0
hopper-74,false,0.13,1259,124,1259,124,97554,0
hopper-75,false,0.13,1259,124,1259,124,97640,0
hopper-76,false,0.13,1259,124,1257,124,97623,0
hopper-77,false,0.13,1259,124,1258,124,97653,0
hopper-78,false,0.30,1560,222,1560,222,122754,0
hopper-79,false,0.13,1259,124,1258,124,97704,0
hopper-80,false,0.13,1259,124,1259,124,97598,0
hopper-81,false,0.13,1259,124,1259,124,97633,0
hopper-82,false,0.13,1259,124,1259,124,97617,0
hopper-83,false,0.13,1259,124,1259,124,97594,0
hopper-84,false,0.13,1259,124,1258,124,97704,0
hopper-85,false,0.30,2156,236,2156,236,168596,0
hopper-86,false,0.13,1259,124,1259,124,97586,0
hopper-87,false,0.13,1259,124,1259,124,97688,0
hopper-88,false,0.13,1259,124,1259,124,97606,0
hopper-89,false,0.13,1259,124,1259,124,97593,0
hopper-90,false,0.13,1259,124,1258,124,97570,0
hopper-91,false,0.13,1259,124,1259,124,97608,0
hopper-92,false,0.13,1259,124,1259,124,97507,0
hopper-93,false,0.29,1889,224,1889,224,153636,0
hopper-94,false,0.13,1260,124,1260,124,97613,0
hopper-95,false,0.33,25259,999,25256,999,2185728,0
hopper-96,false,0.13,1259,124,1258,124,97564,0
hopper-97,false,0.13,1259,124,1259,124,97523,0
hopper-98,false,0.13,1259,124,1259,124,97675,0
hopper-99,false,0.13,1259,124,1259,124,97608,0
hopper-100,false,0.13,1259,124,1259,124,97712,0
