NDW:0.0
TTFW:1.6
DFPT:2.0
DFPAP:3.0
DFPMP:10.0
RIGHT_WINDOW_BORDER_X:215.0
level,win/fail,% travelled,run time,game ticks,planning time,total plannings,nodes evaluated,most backtracked nodes
hopper-1,true,1.00,1047,323,1043,304,113474,0
hopper-2,true,1.00,1273,333,1273,314,136643,0
hopper-3,true,1.00,2846,379,2844,360,278307,0
hopper-4,false,0.27,1828,126,1827,126,158440,0
hopper-5,true,1.00,796,324,794,305,86790,0
hopper-6,true,1.00,935,313,933,293,99179,0
hopper-7,false,0.83,1550,266,1547,266,141596,0
hopper-8,false,0.42,1468,157,1467,157,129590,0
hopper-9,true,1.00,914,320,914,296,103468,0
hopper-10,true,1.00,878,317,878,298,99676,0
hopper-11,true,1.00,620,321,619,302,67183,0
hopper-12,true,1.00,1190,318,1189,299,139686,0
hopper-13,true,1.00,2189,351,2188,332,227853,0
hopper-14,true,1.00,1043,332,1041,309,116094,0
hopper-15,true,1.00,935,303,929,284,99116,0
hopper-16,false,0.55,976,170,974,170,90154,0
hopper-17,true,1.00,842,315,839,296,89383,0
hopper-18,true,1.00,1037,310,1034,291,106686,0
hopper-19,true,1.00,846,315,843,296,98418,0
hopper-20,true,1.00,1045,336,1043,316,111850,0
hopper-21,true,1.00,2504,386,2501,366,234657,0
hopper-22,false,0.33,1068,117,1067,117,97689,0
hopper-23,true,1.00,905,312,904,293,99646,0
hopper-24,true,1.00,582,330,580,309,62776,0
hopper-25,true,1.00,1066,309,1065,290,122651,0
hopper-26,true,1.00,999,301,999,282,104148,0
hopper-27,true,1.00,806,299,803,280,90683,0
hopper-28,true,1.00,2989,390,2988,371,312383,0
hopper-29,false,0.26,1396,109,1396,109,115509,0
hopper-30,true,1.00,847,332,845,312,94854,0
hopper-31,false,0.77,2396,280,2396,280,211404,0
hopper-32,true,1.00,1224,299,1220,280,137277,0
hopper-33,false,0.50,952,171,949,171,90159,0
hopper-34,true,1.00,1861,351,1858,332,194729,0
hopper-35,true,1.00,1255,347,1252,327,150873,0
hopper-36,true,1.00,730,316,727,297,64244,0
hopper-37,false,0.51,848,166,848,166,63210,0
hopper-38,false,0.52,1048,169,1048,169,68019,0
hopper-39,true,1.00,2753,365,2752,346,223755,0
hopper-40,true,1.00,983,337,982,318,95335,0
hopper-41,true,1.00,1539,309,1537,290,146032,0
hopper-42,true,1.00,887,317,883,298,79091,0
hopper-43,false,0.45,2244,169,2244,169,152240,0
hopper-44,true,1.00,1227,311,1226,291,108720,0
hopper-45,false,0.43,1311,160,1311,160,117467,0
hopper-46,false,0.67,1780,237,1780,237,176723,0
hopper-47,true,1.00,1275,307,1273,288,110742,0
hopper-48,true,1.00,1141,334,1137,315,95324,0
hopper-49,true,1.00,1043,321,1041,302,111100,0
hopper-50,false,0.63,2131,236,2128,236,180734,0
hopper-51,false,0.34,1497,131,1496,131,121152,0
hopper-52,true,1.00,706,307,705,288,77717,0
hopper-53,false,0.63,1719,227,1717,227,161752,0
hopper-54,true,1.00,601,302,600,277,61078,0
hopper-55,true,1.00,747,341,745,318,86302,0
hopper-56,true,1.00,668,297,668,278,77864,0
hopper-57,true,1.00,1176,329,1175,310,116207,0
hopper-58,true,1.00,2292,349,2292,330,232730,0
hopper-59,true,1.00,700,306,699,287,80214,0
hopper-60,true,1.00,1057,341,1053,322,123547,0
hopper-61,true,1.00,1825,329,1821,310,190117,0
hopper-62,true,1.00,1101,332,1101,313,115921,0
hopper-63,true,1.00,2727,377,2722,358,268413,0
hopper-64,true,1.00,1332,321,1332,302,136841,0
hopper-65,true,1.00,946,327,942,307,106341,0
hopper-66,true,1.00,2310,382,2308,363,228649,0
hopper-67,true,1.00,765,323,764,304,85439,0
hopper-68,true,1.00,626,328,626,309,67207,0
hopper-69,false,0.84,2022,294,2019,294,188701,0
hopper-70,true,1.00,1075,312,1074,289,121040,0
hopper-71,true,1.00,608,305,606,286,63642,0
hopper-72,true,1.00,1166,303,1163,284,127484,0
hopper-73,true,1.00,888,315,886,296,94689,0
hopper-74,true,1.00,736,305,733,286,74771,0
hopper-75,true,1.00,886,317,884,298,95591,0
hopper-76,true,1.00,1717,342,1715,322,188712,0
hopper-77,true,1.00,891,349,888,328,94111,0
hopper-78,true,1.00,1029,310,1029,290,123983,0
hopper-79,true,1.00,678,307,677,287,72627,0
hopper-80,true,1.00,644,313,644,294,66850,0
hopper-81,false,0.39,1001,124,1001,124,93859,0
hopper-82,false,0.46,4217,247,4217,247,340401,0
hopper-83,true,1.00,1182,324,1178,305,134899,0
hopper-84,true,1.00,1092,307,1088,288,119301,0
hopper-85,true,1.00,1487,331,1485,312,158662,0
hopper-86,true,1.00,917,315,915,296,102627,0
hopper-87,true,1.00,1006,317,1004,298,108164,0
hopper-88,true,1.00,717,331,715,312,86021,0
hopper-89,true,1.00,700,328,699,308,78530,0
hopper-90,true,1.00,779,316,779,296,88514,0
hopper-91,true,1.00,939,322,938,303,106649,0
hopper-92,true,1.00,1013,317,1011,298,103559,0
hopper-93,true,1.00,712,317,707,298,79842,0
hopper-94,true,1.00,1963,351,1962,332,210886,0
hopper-95,true,1.00,933,313,931,294,98970,0
hopper-96,true,1.00,1071,297,1070,278,121944,0
hopper-97,true,1.00,1144,312,1142,293,121858,0
hopper-98,true,1.00,1268,321,1265,302,135438,0
hopper-99,true,1.00,3600,396,3596,377,366652,0
hopper-100,true,1.00,1046,332,1044,305,114967,0
