NDW:0.0
TTFW:0.6
DFPT:2.0
DFPAP:3.0
DFPMP:2.0
RIGHT_WINDOW_BORDER_X:95.0
level,win/fail,% travelled,run time,game ticks,planning time,total plannings,nodes evaluated,most backtracked nodes
ge-1,true,1.00,2350,387,2346,368,203905,0
ge-2,true,1.00,2283,373,2279,363,203872,0
ge-3,true,1.00,888,306,886,296,76954,0
ge-4,true,1.00,7046,531,7045,520,604291,0
ge-5,true,1.00,34,268,32,258,5378,0
ge-6,true,1.00,1164,342,1163,332,101619,0
ge-7,true,1.00,106,270,104,261,11470,0
ge-8,true,1.00,372,280,371,270,33875,0
ge-9,true,1.00,1437,321,1435,311,128447,0
ge-10,true,1.00,37,262,36,252,5629,0
ge-11,true,1.00,172,279,172,263,17654,0
ge-12,true,1.00,36,266,32,256,5583,0
ge-13,true,1.00,393,292,391,282,35424,0
ge-14,true,1.00,790,342,788,332,65727,0
ge-15,true,1.00,3447,382,3447,371,292843,0
ge-16,true,1.00,240,298,235,288,26549,0
ge-17,true,1.00,401,272,399,263,42209,0
ge-18,true,1.00,1950,384,1947,374,192226,0
ge-19,true,1.00,1887,372,1884,362,164014,0
ge-20,true,1.00,2106,334,2105,324,179107,0
ge-21,true,1.00,864,309,862,299,71604,0
ge-22,true,1.00,2253,348,2252,338,187583,0
ge-23,true,1.00,4277,442,4274,431,375984,0
ge-24,true,1.00,3853,407,3850,394,323607,0
ge-25,true,1.00,4467,400,4467,390,377586,0
ge-26,true,1.00,1559,320,1559,310,143323,0
ge-27,true,1.00,38,270,36,260,5666,0
ge-28,true,1.00,2535,353,2535,342,200658,0
ge-29,true,1.00,1133,310,1129,300,95597,0
ge-30,false,0.36,4364,250,4363,250,393129,0
ge-31,true,1.00,4982,490,4981,480,428311,0
ge-32,true,1.00,141,276,141,266,15050,0
ge-33,true,1.00,193,283,193,267,19711,0
ge-34,true,1.00,2187,336,2185,326,187615,0
ge-35,true,1.00,1043,329,1041,315,85092,0
ge-36,false,0.75,24547,999,24545,999,2123020,0
ge-37,true,1.00,1835,370,1833,358,150710,0
ge-38,false,0.76,4229,391,4224,391,356265,0
ge-39,true,1.00,2121,346,2121,336,197690,0
ge-40,true,1.00,31,264,30,254,5264,0
ge-41,true,1.00,500,278,496,265,45188,0
ge-42,true,1.00,2158,400,2155,390,184571,0
ge-43,true,1.00,1755,362,1753,349,158654,0
ge-44,false,0.71,3180,318,3178,318,255843,0
ge-45,true,1.00,1493,343,1490,333,127737,0
ge-46,true,1.00,5200,455,5199,446,426265,0
ge-47,false,0.53,4890,334,4886,334,455213,0
ge-48,true,1.00,2363,418,2361,409,207050,0
ge-49,true,1.00,1093,297,1093,285,91683,0
ge-50,true,1.00,3932,431,3931,421,322084,0
ge-51,true,1.00,103,270,102,261,10960,0
ge-52,true,1.00,1331,350,1329,338,115039,0
ge-53,true,1.00,1596,320,1595,310,133015,0
ge-54,true,1.00,1015,320,1014,310,108360,0
ge-55,true,1.00,1085,314,1085,304,101282,0
ge-56,false,0.71,25865,999,25863,999,2062211,0
ge-57,true,1.00,5308,454,5308,445,454953,0
ge-58,true,1.00,213,328,212,318,21222,0
ge-59,true,1.00,5501,471,5498,461,467586,0
ge-60,false,0.44,4371,283,4370,283,359574,0
ge-61,true,1.00,2018,322,2015,312,170642,0
ge-62,true,1.00,2984,368,2983,358,267617,0
ge-63,true,1.00,6721,494,6717,483,582121,0
ge-64,true,1.00,522,313,518,296,45361,0
ge-65,false,0.67,4138,317,4137,317,351631,0
ge-66,false,0.56,5786,328,5785,328,499569,0
ge-67,true,1.00,997,334,993,321,84268,0
ge-68,true,1.00,145,289,142,279,14496,0
ge-69,true,1.00,734,296,733,286,64385,0
ge-70,true,1.00,2082,334,2080,324,179628,0
ge-71,true,1.00,3906,446,3904,436,345621,0
ge-72,true,1.00,591,365,590,349,54262,0
ge-73,true,1.00,2065,349,2065,339,179215,0
ge-74,true,1.00,5158,465,5155,455,444927,0
ge-75,true,1.00,732,343,732,333,67102,0
ge-76,true,1.00,3229,365,3226,355,283380,0
ge-77,false,0.12,3210,144,3210,144,285333,0
ge-78,false,0.56,1787,232,1787,232,150929,0
ge-79,true,1.00,839,318,837,297,71881,0
ge-80,true,1.00,79,293,78,284,10210,0
ge-81,true,1.00,27,227,27,219,3754,0
ge-82,true,1.00,104,307,99,282,11931,0
ge-83,false,1.00,2392,381,2388,369,236336,0
ge-84,false,0.14,3133,138,3132,138,277000,0
ge-85,true,1.00,1736,339,1735,329,159514,0
ge-86,false,0.93,5544,463,5542,463,477051,0
ge-87,true,1.00,2991,351,2989,341,253358,0
ge-88,true,1.00,2363,370,2363,360,203557,0
ge-89,true,1.00,209,292,206,282,21010,0
ge-90,true,1.00,34,268,30,258,5402,0
ge-91,true,1.00,1805,333,1804,323,154077,0
ge-92,true,1.00,33,253,32,245,5113,0
ge-93,true,1.00,3714,416,3712,406,317704,0
ge-94,true,1.00,1506,364,1503,354,133385,0
ge-95,true,1.00,116,294,116,285,13763,0
ge-96,true,1.00,1763,325,1762,314,156432,0
ge-97,true,1.00,3766,458,3764,448,319141,0
ge-98,true,1.00,33,262,32,253,5448,0
ge-99,true,1.00,230,266,228,257,19879,0
ge-100,true,1.00,1777,324,1776,314,152460,0
