NDW:0.0
TTFW:0.4
DFPT:2.0
DFPAP:3.0
DFPMP:2.0
RIGHT_WINDOW_BORDER_X:255.0
level,win/fail,% travelled,run time,game ticks,planning time,total plannings,nodes evaluated,most backtracked nodes
notchParamRand-1,true,1.00,889,302,885,279,66229,0
notchParamRand-2,true,1.00,132,300,132,277,9940,0
notchParamRand-3,true,1.00,1114,308,1110,285,94135,0
notchParamRand-4,true,1.00,1478,306,1474,283,127958,0
notchParamRand-5,true,1.00,255,306,254,283,20627,0
notchParamRand-6,true,1.00,511,304,509,281,41890,0
notchParamRand-7,true,1.00,244,296,242,273,19360,0
notchParamRand-8,true,1.00,651,300,648,277,49657,0
notchParamRand-9,true,1.00,587,304,587,281,51039,0
notchParamRand-10,true,1.00,974,312,967,289,77822,0
notchParamRand-11,true,1.00,163,296,160,273,11924,0
notchParamRand-12,true,1.00,407,304,406,281,31635,0
notchParamRand-13,true,1.00,1745,312,1744,289,143627,0
notchParamRand-14,true,1.00,1004,308,1002,285,80948,0
notchParamRand-15,true,1.00,622,306,620,283,51106,0
notchParamRand-16,true,1.00,423,298,421,275,34715,0
notchParamRand-17,true,1.00,76,294,73,271,5083,0
notchParamRand-18,true,1.00,1789,339,1788,316,149035,0
notchParamRand-19,true,1.00,296,312,294,289,21876,0
notchParamRand-20,true,1.00,1840,337,1838,314,144142,0
notchParamRand-21,true,1.00,74,294,70,271,4525,0
notchParamRand-22,true,1.00,868,310,867,287,72780,0
notchParamRand-23,true,1.00,1333,333,1333,310,105537,0
notchParamRand-24,true,1.00,355,310,351,287,26521,0
notchParamRand-25,true,1.00,83,300,81,276,5838,0
notchParamRand-26,true,1.00,766,338,764,315,52627,0
notchParamRand-27,true,1.00,250,296,248,273,19689,0
notchParamRand-28,true,1.00,501,300,499,277,39198,0
notchParamRand-29,true,1.00,67,294,66,271,4144,0
notchParamRand-30,true,1.00,1985,324,1983,301,162333,0
notchParamRand-31,true,1.00,453,304,450,281,36806,0
notchParamRand-32,true,1.00,156,300,156,277,12071,0
notchParamRand-33,true,1.00,2000,314,1998,291,167567,0
notchParamRand-34,true,1.00,1029,306,1026,283,83492,0
notchParamRand-35,true,1.00,577,313,574,290,47126,0
notchParamRand-36,true,1.00,66,294,64,271,4048,0
notchParamRand-37,true,1.00,527,306,525,283,36583,0
notchParamRand-38,true,1.00,2065,326,2063,303,167444,0
notchParamRand-39,true,1.00,1654,310,1653,287,134739,0
notchParamRand-40,true,1.00,2305,332,2304,309,185371,0
notchParamRand-41,true,1.00,70,294,69,271,4037,0
notchParamRand-42,true,1.00,464,304,462,281,37638,0
notchParamRand-43,true,1.00,266,298,265,275,21048,0
notchParamRand-44,true,1.00,334,300,333,277,26361,0
notchParamRand-45,true,1.00,1036,310,1033,287,80996,0
notchParamRand-46,true,1.00,564,298,562,275,47110,0
notchParamRand-47,true,1.00,673,304,672,281,53807,0
notchParamRand-48,true,1.00,1414,310,1413,287,115762,0
notchParamRand-49,true,1.00,751,306,751,283,61151,0
notchParamRand-50,true,1.00,1230,312,1229,289,103386,0
notchParamRand-51,true,1.00,230,298,227,275,17912,0
notchParamRand-52,true,1.00,789,300,785,277,64672,0
notchParamRand-53,true,1.00,942,308,941,285,76444,0
notchParamRand-54,true,1.00,2248,328,2246,305,182291,0
notchParamRand-55,true,1.00,1777,308,1775,285,141757,0
notchParamRand-56,true,1.00,799,302,798,279,65448,0
notchParamRand-57,true,1.00,991,302,991,279,82662,0
notchParamRand-58,true,1.00,729,302,727,279,59318,0
notchParamRand-59,true,1.00,433,300,431,277,36001,0
notchParamRand-60,true,1.00,616,302,615,279,51237,0
notchParamRand-61,true,1.00,473,304,470,281,38238,0
notchParamRand-62,true,1.00,426,310,425,287,33808,0
notchParamRand-63,true,1.00,1454,314,1454,291,121015,0
notchParamRand-64,true,1.00,317,298,316,275,25283,0
notchParamRand-65,true,1.00,2179,322,2177,299,173976,0
notchParamRand-66,true,1.00,616,304,615,281,43318,0
notchParamRand-67,true,1.00,320,300,318,277,24261,0
notchParamRand-68,true,1.00,1432,306,1430,283,118183,0
notchParamRand-69,true,1.00,243,296,240,273,19480,0
notchParamRand-70,true,1.00,620,306,617,283,52837,0
notchParamRand-71,true,1.00,356,308,356,285,28323,0
notchParamRand-72,true,1.00,168,300,168,277,12254,0
notchParamRand-73,true,1.00,516,310,514,287,38347,0
notchParamRand-74,true,1.00,70,294,69,271,4269,0
notchParamRand-75,true,1.00,67,294,67,271,3714,0
notchParamRand-76,true,1.00,1122,308,1120,285,89842,0
notchParamRand-77,true,1.00,1737,318,1735,295,136901,0
notchParamRand-78,true,1.00,1031,306,1030,283,84382,0
notchParamRand-79,true,1.00,294,300,290,277,22790,0
notchParamRand-80,true,1.00,365,300,363,277,27531,0
notchParamRand-81,true,1.00,329,302,327,279,26621,0
notchParamRand-82,true,1.00,775,302,770,279,63751,0
notchParamRand-83,true,1.00,1654,331,1652,308,136483,0
notchParamRand-84,true,1.00,326,300,324,277,26807,0
notchParamRand-85,true,1.00,73,294,73,271,4626,0
notchParamRand-86,true,1.00,717,332,715,309,52648,0
notchParamRand-87,true,1.00,1694,310,1692,287,141356,0
notchParamRand-88,true,1.00,388,309,388,286,29523,0
notchParamRand-89,true,1.00,401,308,397,285,33245,0
notchParamRand-90,true,1.00,753,304,750,281,60227,0
notchParamRand-91,true,1.00,74,294,71,271,4474,0
notchParamRand-92,true,1.00,878,308,877,285,74390,0
notchParamRand-93,true,1.00,355,304,355,281,28667,0
notchParamRand-94,true,1.00,2168,329,2167,306,172407,0
notchParamRand-95,true,1.00,733,314,731,291,60268,0
notchParamRand-96,true,1.00,495,310,494,287,39421,0
notchParamRand-97,true,1.00,1362,312,1358,289,107844,0
notchParamRand-98,true,1.00,242,296,241,273,18437,0
notchParamRand-99,true,1.00,280,304,280,281,22709,0
notchParamRand-100,true,1.00,1633,316,1630,293,136563,0
