NDW:0.0
TTFW:2.0
DFPT:2.0
DFPAP:3.0
DFPMP:20.0
RIGHT_WINDOW_BORDER_X:275.0
level,win/fail,% travelled,run time,game ticks,planning time,total plannings,nodes evaluated,most backtracked nodes
ge-1,true,1.00,577,249,569,209,33211,0
ge-2,true,1.00,595,231,591,206,35130,0
ge-3,true,1.00,284,229,280,204,15451,0
ge-4,true,1.00,1317,240,1314,215,78811,0
ge-5,true,1.00,126,199,123,174,6839,0
ge-6,true,1.00,438,234,428,209,25038,0
ge-7,true,1.00,218,225,212,199,11606,0
ge-8,true,1.00,299,219,295,194,17200,0
ge-9,true,1.00,604,224,602,198,36465,0
ge-10,true,1.00,124,199,118,174,6498,0
ge-11,true,1.00,249,212,244,187,14485,0
ge-12,true,1.00,137,199,134,174,7536,0
ge-13,true,1.00,382,237,377,209,21537,0
ge-14,true,1.00,238,227,231,188,12794,0
ge-15,true,1.00,723,217,717,192,43314,0
ge-16,true,1.00,272,301,265,276,12450,0
ge-17,true,1.00,331,223,323,190,19498,0
ge-18,true,1.00,277,254,270,224,14415,0
ge-19,true,1.00,671,279,662,254,39801,0
ge-20,true,1.00,480,220,474,195,28353,0
ge-21,true,1.00,296,201,290,176,16833,0
ge-22,true,1.00,367,208,361,177,21536,0
ge-23,true,1.00,645,205,637,180,38504,0
ge-24,true,1.00,424,240,418,204,24294,0
ge-25,true,1.00,412,201,406,176,24880,0
ge-26,true,1.00,305,205,299,180,18472,0
ge-27,true,1.00,131,213,127,188,6632,0
ge-28,true,1.00,563,205,558,180,33295,0
ge-29,true,1.00,297,221,293,174,17274,0
ge-30,true,1.00,609,246,600,202,36461,0
ge-31,true,1.00,733,247,729,220,43006,0
ge-32,true,1.00,207,221,205,196,10790,0
ge-33,true,1.00,215,223,210,186,11692,0
ge-34,true,1.00,582,212,571,181,35659,0
ge-35,true,1.00,390,242,381,217,21330,0
ge-36,false,1.00,678,248,674,216,39836,0
ge-37,true,1.00,319,199,315,174,19168,0
ge-38,true,1.00,573,219,572,194,33687,0
ge-39,true,1.00,374,222,370,196,21869,0
ge-40,true,1.00,137,199,134,174,7696,0
ge-41,true,1.00,299,210,294,180,17945,0
ge-42,true,1.00,584,220,582,195,34125,0
ge-43,true,1.00,350,236,345,192,20246,0
ge-44,true,1.00,533,215,532,190,31965,0
ge-45,true,1.00,496,220,487,195,28459,0
ge-46,true,1.00,799,267,795,242,46607,0
ge-47,true,1.00,787,232,783,207,46947,0
ge-48,true,1.00,389,231,383,206,21524,0
ge-49,true,1.00,231,199,228,174,13737,0
ge-50,true,1.00,573,212,568,187,32167,0
ge-51,true,1.00,173,225,166,199,9005,0
ge-52,true,1.00,517,256,509,230,29094,0
ge-53,true,1.00,304,211,299,186,17512,0
ge-54,true,1.00,1038,247,1031,220,64266,0
ge-55,true,1.00,409,245,402,220,22878,0
ge-56,true,1.00,468,249,461,208,26292,0
ge-57,true,1.00,568,223,559,187,34344,0
ge-58,true,1.00,239,241,235,216,11940,0
ge-59,true,1.00,894,217,891,192,54527,0
ge-60,true,1.00,597,201,591,176,35840,0
ge-61,true,1.00,328,203,323,178,19689,0
ge-62,true,1.00,623,213,618,188,37727,0
ge-63,true,1.00,858,219,851,194,51829,0
ge-64,false,1.00,289,235,281,197,15520,0
ge-65,true,1.00,686,230,678,205,41148,0
ge-66,true,1.00,610,230,605,184,36926,0
ge-67,true,1.00,310,253,299,228,16295,0
ge-68,true,1.00,221,223,216,198,11349,0
ge-69,true,1.00,241,199,237,174,13675,0
ge-70,true,1.00,385,216,376,191,22752,0
ge-71,true,1.00,854,238,846,213,51035,0
ge-72,true,1.00,245,255,238,231,12116,0
ge-73,true,1.00,495,211,491,186,28618,0
ge-74,true,1.00,799,245,789,220,45627,0
ge-75,true,1.00,296,240,286,193,17160,0
ge-76,true,1.00,712,217,709,192,42618,0
ge-77,true,1.00,891,232,888,207,53336,0
ge-78,true,1.00,656,249,647,207,37477,0
ge-79,true,1.00,231,213,225,188,12750,0
ge-80,true,1.00,160,220,158,174,8356,0
ge-81,true,1.00,154,213,144,188,7889,0
ge-82,true,1.00,161,241,152,193,7867,0
ge-83,false,1.00,227,252,220,196,12031,0
ge-84,true,1.00,673,209,668,184,40904,0
ge-85,true,1.00,361,209,352,184,21384,0
ge-86,true,1.00,736,212,732,176,45166,0
ge-87,true,1.00,570,234,565,209,33869,0
ge-88,true,1.00,563,232,559,204,33706,0
ge-89,true,1.00,255,244,249,218,12787,0
ge-90,true,1.00,132,199,124,174,7373,0
ge-91,true,1.00,335,199,330,174,20044,0
ge-92,true,1.00,125,205,120,180,6536,0
ge-93,true,1.00,650,215,644,190,39989,0
ge-94,true,1.00,469,208,465,181,27537,0
ge-95,true,1.00,171,246,166,219,7481,0
ge-96,true,1.00,667,239,663,196,38756,0
ge-97,true,1.00,450,213,440,188,26136,0
ge-98,true,1.00,132,199,125,174,7392,0
ge-99,true,1.00,239,199,235,174,14002,0
ge-100,true,1.00,146,205,140,180,7971,0
