NDW:0.0
TTFW:0.4
DFPT:2.0
DFPAP:3.0
DFPMP:50.0
RIGHT_WINDOW_BORDER_X:135.0
level,win/fail,% travelled,run time,game ticks,planning time,total plannings,nodes evaluated,most backtracked nodes
Krys-1,true,1.00,6795,610,6792,594,551373,0
Krys-2,false,0.79,12597,999,12590,999,839041,0
Krys-3,true,1.00,9200,670,9197,653,862288,0
Krys-4,true,1.00,3783,535,3780,518,314343,0
Krys-5,true,1.00,7852,621,7845,600,761947,0
Krys-6,true,1.00,1436,411,1435,391,134504,0
Krys-7,true,1.00,437,322,437,307,43434,0
Krys-8,true,1.00,2111,522,2110,500,186241,0
Krys-9,true,1.00,7799,599,7795,586,775064,0
Krys-10,true,1.00,1714,392,1711,379,166532,0
Krys-11,true,1.00,884,378,883,365,69255,0
Krys-12,true,1.00,5093,519,5090,501,445931,0
Krys-13,false,0.62,1389,247,1388,247,130689,0
Krys-14,false,0.79,13445,999,13435,999,869355,0
Krys-15,false,0.52,25824,999,25820,999,2689508,0
Krys-16,false,0.69,12783,999,12774,999,847596,0
Krys-17,true,1.00,3289,466,3286,445,273700,0
Krys-18,true,1.00,2714,535,2711,519,193477,0
Krys-19,true,1.00,7817,550,7814,528,654144,0
Krys-20,true,1.00,6261,685,6258,658,560943,0
Krys-21,true,1.00,5028,479,5026,463,509000,0
Krys-22,true,1.00,5877,511,5872,489,604176,0
Krys-23,true,1.00,2621,525,2617,503,205913,0
Krys-24,false,0.70,24832,999,24831,999,1619120,0
Krys-25,true,1.00,2465,401,2462,371,211400,0
Krys-26,false,0.62,4486,320,4486,320,464036,0
Krys-27,true,1.00,4985,554,4983,532,443079,0
Krys-28,true,1.00,4008,523,4005,503,366251,0
Krys-29,true,1.00,3382,570,3377,557,266967,0
Krys-30,true,1.00,2783,580,2779,557,216481,0
Krys-31,true,1.00,1863,438,1857,423,162800,0
Krys-32,true,1.00,665,360,664,348,56053,0
Krys-33,true,1.00,595,353,593,335,53396,0
Krys-34,true,1.00,3683,561,3678,537,302380,0
Krys-35,true,1.00,8281,583,8279,564,865267,0
Krys-36,true,1.00,5938,483,5934,470,549253,0
Krys-37,false,0.75,8845,563,8844,563,782286,0
Krys-38,true,1.00,9035,618,9035,599,905805,0
Krys-39,false,0.21,2756,198,2756,198,252741,0
Krys-40,true,1.00,4814,593,4813,571,466240,0
Krys-41,true,1.00,7573,506,7572,492,711163,0
Krys-42,true,1.00,4878,516,4871,498,493554,0
Krys-43,false,0.83,4142,375,4137,375,420017,0
Krys-44,false,0.62,5390,448,5384,448,560651,0
Krys-45,true,1.00,1664,397,1662,384,117663,0
Krys-46,true,1.00,2600,490,2596,463,201774,0
Krys-47,true,1.00,1816,452,1812,430,151391,0
Krys-48,true,1.00,6142,523,6140,510,599774,0
Krys-49,true,1.00,2684,496,2683,467,217382,0
Krys-50,false,0.70,22528,999,22524,999,1557133,0
Krys-51,true,1.00,8351,589,8351,571,820306,0
Krys-52,true,1.00,2634,595,2631,578,194010,0
Krys-53,true,1.00,2308,438,2306,422,181621,0
Krys-54,true,1.00,3224,443,3223,429,296450,0
Krys-55,true,1.00,3274,463,3273,443,266259,0
Krys-56,true,1.00,1317,405,1314,383,107563,0
Krys-57,true,1.00,3055,377,3054,363,262534,0
Krys-58,true,1.00,3984,528,3980,516,315048,0
Krys-59,false,0.89,12208,999,12202,999,801726,0
Krys-60,true,1.00,6678,531,6675,518,632831,0
Krys-61,true,1.00,2793,412,2791,400,215953,0
Krys-62,true,1.00,1829,404,1824,390,129793,0
Krys-63,true,1.00,4916,643,4913,623,381167,0
Krys-64,true,1.00,3537,551,3528,535,286796,0
Krys-65,true,1.00,3410,470,3404,458,253909,0
Krys-66,true,1.00,2553,493,2547,471,192981,0
Krys-67,true,1.00,1771,441,1770,421,150972,0
Krys-68,false,0.82,7824,577,7823,577,719957,0
Krys-69,true,1.00,5770,646,5768,626,415918,0
Krys-70,true,1.00,4237,564,4233,549,366708,0
Krys-71,true,1.00,5780,578,5777,562,596224,0
Krys-72,true,1.00,2410,495,2405,482,201509,0
Krys-73,true,1.00,6141,525,6141,510,546277,0
Krys-74,true,1.00,2118,371,2116,351,174284,0
Krys-75,true,1.00,696,355,690,335,56131,0
Krys-76,false,0.52,4661,347,4661,347,451638,0
Krys-77,true,1.00,4126,469,4121,439,407786,0
Krys-78,true,1.00,6733,577,6730,554,638108,0
Krys-79,true,1.00,1355,376,1352,363,103589,0
Krys-80,true,1.00,802,399,799,386,66621,0
Krys-81,true,1.00,1824,371,1821,351,159234,0
Krys-82,true,1.00,1043,370,1042,352,81285,0
Krys-83,true,1.00,5252,523,5249,500,478308,0
Krys-84,true,1.00,315,339,310,310,30400,0
Krys-85,true,1.00,4748,491,4737,461,325664,0
Krys-86,true,1.00,2295,375,2288,359,155339,0
Krys-87,true,1.00,961,371,958,359,74679,0
Krys-88,true,1.00,3123,419,3122,398,251754,0
Krys-89,true,1.00,2664,389,2661,374,226983,0
Krys-90,true,1.00,9538,566,9536,553,891884,0
Krys-91,true,1.00,473,373,469,346,44123,0
Krys-92,true,1.00,7550,675,7547,650,639299,0
Krys-93,true,1.00,5231,479,5226,464,531359,0
Krys-94,true,1.00,2419,416,2417,396,242015,0
Krys-95,true,1.00,2506,399,2503,386,191435,0
Krys-96,false,0.82,4857,406,4857,406,462031,0
Krys-97,true,1.00,2722,413,2718,393,238057,0
Krys-98,true,1.00,3686,574,3681,557,295831,0
Krys-99,true,1.00,1714,449,1712,436,128157,0
Krys-100,false,0.62,4007,330,4007,330,404519,0
