NDW:0.0
TTFW:1.6
DFPT:2.0
DFPAP:3.0
DFPMP:0.0
RIGHT_WINDOW_BORDER_X:215.0
level,win/fail,% travelled,run time,game ticks,planning time,total plannings,nodes evaluated,most backtracked nodes
patternOccur-1,true,1.00,691,506,688,483,84938,0
patternOccur-2,true,1.00,680,470,678,449,84371,0
patternOccur-3,true,1.00,1426,469,1423,448,188382,0
patternOccur-4,true,1.00,1922,511,1916,492,251360,0
patternOccur-5,true,1.00,728,502,724,482,92242,0
patternOccur-6,true,1.00,1514,533,1507,514,194940,0
patternOccur-7,true,1.00,1239,514,1235,493,153308,0
patternOccur-8,true,1.00,1472,475,1470,456,191668,0
patternOccur-9,true,1.00,1388,479,1385,454,172570,0
patternOccur-10,true,1.00,798,566,791,545,103290,0
patternOccur-11,true,1.00,3925,553,3923,528,420148,0
patternOccur-12,true,1.00,1219,521,1218,493,160454,0
patternOccur-13,true,1.00,956,455,955,436,126481,0
patternOccur-14,true,1.00,3064,510,3063,483,358710,0
patternOccur-15,true,1.00,1125,439,1120,420,141607,0
patternOccur-16,true,1.00,3716,525,3713,500,405488,0
patternOccur-17,true,1.00,1113,504,1110,483,141562,0
patternOccur-18,true,1.00,984,497,977,478,125551,0
patternOccur-19,false,0.83,3983,525,3980,525,442051,0
patternOccur-20,true,1.00,1243,507,1241,488,163565,0
patternOccur-21,true,1.00,911,483,911,463,120430,0
patternOccur-22,false,0.84,3448,491,3445,491,408453,0
patternOccur-23,true,1.00,1318,494,1315,475,159706,0
patternOccur-24,true,1.00,1073,499,1070,480,138592,0
patternOccur-25,true,1.00,1359,486,1357,466,176039,0
patternOccur-26,true,1.00,715,430,712,411,91095,0
patternOccur-27,true,1.00,2760,478,2756,457,311643,0
patternOccur-28,true,1.00,1262,497,1261,477,164451,0
patternOccur-29,true,1.00,1007,443,1003,414,123990,0
patternOccur-30,true,1.00,969,465,969,446,119586,0
patternOccur-31,true,1.00,4520,540,4517,514,525331,0
patternOccur-32,true,1.00,4532,569,4530,548,510886,0
patternOccur-33,true,1.00,1157,496,1154,476,147976,0
patternOccur-34,true,1.00,1579,502,1575,472,205959,0
patternOccur-35,true,1.00,887,472,882,452,110362,0
patternOccur-36,true,1.00,2390,488,2387,462,294417,0
patternOccur-37,true,1.00,4612,561,4609,539,514317,0
patternOccur-38,true,1.00,1079,480,1071,461,138549,0
patternOccur-39,true,1.00,3042,503,3039,483,335443,0
patternOccur-40,true,1.00,1750,479,1747,459,224215,0
patternOccur-41,true,1.00,1019,496,1015,466,132788,0
patternOccur-42,false,0.89,3942,518,3938,518,431260,0
patternOccur-43,true,1.00,835,472,830,453,109350,0
patternOccur-44,true,1.00,996,461,993,442,130568,0
patternOccur-45,true,1.00,1982,470,1980,449,225525,0
patternOccur-46,true,1.00,692,474,690,455,86924,0
patternOccur-47,true,1.00,2950,544,2947,506,351189,0
patternOccur-48,true,1.00,1529,489,1526,470,205376,0
patternOccur-49,true,1.00,964,462,962,443,125038,0
patternOccur-50,true,1.00,1818,486,1813,466,216033,0
patternOccur-51,true,1.00,1022,525,1021,500,137992,0
patternOccur-52,true,1.00,1517,473,1513,453,200139,0
patternOccur-53,true,1.00,1415,481,1409,462,183290,0
patternOccur-54,true,1.00,2036,522,2035,494,270852,0
patternOccur-55,true,1.00,1721,472,1720,453,224539,0
patternOccur-56,true,1.00,1109,546,1105,527,140157,0
patternOccur-57,true,1.00,1581,502,1575,480,204006,0
patternOccur-58,true,1.00,3473,508,3471,483,389755,0
patternOccur-59,true,1.00,1025,518,1022,498,129062,0
patternOccur-60,true,1.00,2085,513,2079,482,239221,0
patternOccur-61,true,1.00,1649,511,1646,489,220337,0
patternOccur-62,true,1.00,1114,482,1112,463,138091,0
patternOccur-63,true,1.00,1084,513,1082,482,143144,0
patternOccur-64,true,1.00,1922,565,1917,545,252493,0
patternOccur-65,true,1.00,885,504,885,483,117028,0
patternOccur-66,true,1.00,1524,454,1523,433,196810,0
patternOccur-67,false,0.89,1922,439,1917,439,228490,0
patternOccur-68,true,1.00,936,526,934,507,120859,0
patternOccur-69,true,1.00,5471,609,5466,573,557975,0
patternOccur-70,true,1.00,6270,549,6267,522,667084,0
patternOccur-71,true,1.00,1797,476,1794,457,251697,0
patternOccur-72,false,0.87,2133,421,2131,421,237630,0
patternOccur-73,true,1.00,3940,591,3937,559,426515,0
patternOccur-74,true,1.00,2342,495,2337,461,265288,0
patternOccur-75,true,1.00,1591,499,1587,471,192639,0
patternOccur-76,true,1.00,1368,478,1365,459,180429,0
patternOccur-77,true,1.00,730,469,717,450,82533,0
patternOccur-78,true,1.00,510,453,507,434,62140,0
patternOccur-79,true,1.00,1220,502,1216,483,169495,0
patternOccur-80,true,1.00,2582,511,2579,484,314784,0
patternOccur-81,true,1.00,4888,535,4885,515,514082,0
patternOccur-82,true,1.00,1702,510,1701,488,202477,0
patternOccur-83,false,0.82,4038,503,4035,503,424959,0
patternOccur-84,true,1.00,993,458,991,439,127292,0
patternOccur-85,true,1.00,2236,507,2236,474,258500,0
patternOccur-86,true,1.00,3792,441,3788,415,417555,0
patternOccur-87,true,1.00,1038,496,1037,477,136743,0
patternOccur-88,true,1.00,1504,473,1500,453,196853,0
patternOccur-89,true,1.00,1380,534,1374,515,178583,0
patternOccur-90,true,1.00,1713,567,1707,541,223208,0
patternOccur-91,true,1.00,775,444,774,414,99787,0
patternOccur-92,true,1.00,664,444,657,425,85769,0
patternOccur-93,true,1.00,1220,478,1218,458,154197,0
patternOccur-94,true,1.00,3601,510,3595,479,398495,0
patternOccur-95,true,1.00,977,483,973,462,127715,0
patternOccur-96,false,0.87,2017,480,2013,480,211651,0
patternOccur-97,true,1.00,1888,473,1885,454,252521,0
patternOccur-98,false,0.90,2325,467,2321,467,273003,0
patternOccur-99,true,1.00,821,483,817,463,106789,0
patternOccur-100,true,1.00,939,470,936,451,117419,0
