NDW:0.0
TTFW:0.6
DFPT:2.0
DFPAP:3.0
DFPMP:50.0
RIGHT_WINDOW_BORDER_X:275.0
level,win/fail,% travelled,run time,game ticks,planning time,total plannings,nodes evaluated,most backtracked nodes
notch-1,true,1.00,738,248,734,223,43771,0
notch-2,true,1.00,1052,270,1046,245,60968,0
notch-3,true,1.00,853,247,850,222,50947,0
notch-4,true,1.00,738,237,733,212,44025,0
notch-5,true,1.00,709,242,708,217,42375,0
notch-6,true,1.00,694,265,686,239,40754,0
notch-7,true,1.00,517,254,510,229,30486,0
notch-8,true,1.00,616,242,607,210,36593,0
notch-9,true,1.00,1026,258,1023,233,60774,0
notch-10,true,1.00,937,255,930,230,56003,0
notch-11,true,1.00,858,250,855,225,50363,0
notch-12,true,1.00,613,243,605,218,35209,0
notch-13,true,1.00,720,245,717,220,42311,0
notch-14,true,1.00,944,237,940,212,56072,0
notch-15,true,1.00,739,249,733,224,43352,0
notch-16,true,1.00,910,251,905,216,55223,0
notch-17,true,1.00,914,251,907,225,54741,0
notch-18,true,1.00,1485,265,1476,239,79146,0
notch-19,true,1.00,1079,237,1077,212,65852,0
notch-20,true,1.00,1065,272,1055,247,61467,0
notch-21,true,1.00,802,256,796,231,48075,0
notch-22,true,1.00,588,245,581,220,34905,0
notch-23,true,1.00,1077,246,1071,215,64023,0
notch-24,true,1.00,660,259,656,233,38792,0
notch-25,true,1.00,926,252,921,225,55969,0
notch-26,true,1.00,834,253,829,222,48645,0
notch-27,true,1.00,1151,270,1147,245,66989,0
notch-28,true,1.00,781,241,779,214,45038,0
notch-29,true,1.00,1102,273,1098,238,65007,0
notch-30,true,1.00,945,251,940,213,55358,0
notch-31,true,1.00,698,253,694,227,39927,0
notch-32,true,1.00,790,259,781,234,45957,0
notch-33,true,1.00,671,229,666,204,39227,0
notch-34,true,1.00,660,255,655,230,39284,0
notch-35,true,1.00,683,252,676,227,39421,0
notch-36,true,1.00,1462,306,1458,281,85716,0
notch-37,true,1.00,1408,270,1403,242,83355,0
notch-38,true,1.00,853,251,849,220,50001,0
notch-39,true,1.00,717,234,712,203,42315,0
notch-40,true,1.00,879,249,874,220,52581,0
notch-41,true,1.00,984,267,976,237,58978,0
notch-42,true,1.00,802,244,796,219,47598,0
notch-43,true,1.00,701,244,694,219,42129,0
notch-44,true,1.00,660,235,654,210,38679,0
notch-45,true,1.00,735,244,730,219,44330,0
notch-46,true,1.00,793,263,787,238,45713,0
notch-47,true,1.00,838,251,833,225,49938,0
notch-48,true,1.00,1159,243,1155,218,70600,0
notch-49,true,1.00,879,267,875,228,48127,0
notch-50,true,1.00,1070,272,1063,244,58439,0
notch-51,true,1.00,1029,253,1025,223,59888,0
notch-52,true,1.00,720,255,718,224,42937,0
notch-53,true,1.00,371,258,367,220,19995,0
notch-54,true,1.00,1048,253,1041,228,61197,0
notch-55,true,1.00,1189,268,1184,242,69468,0
notch-56,true,1.00,727,258,724,233,43617,0
notch-57,true,1.00,758,263,755,234,43674,0
notch-58,true,1.00,1270,278,1265,247,69794,0
notch-59,true,1.00,997,262,992,237,57539,0
notch-60,true,1.00,1014,255,1008,230,60663,0
notch-61,true,1.00,855,231,851,206,51071,0
notch-62,true,1.00,1116,268,1109,243,61383,0
notch-63,true,1.00,760,256,753,231,44336,0
notch-64,true,1.00,959,240,953,214,56788,0
notch-65,true,1.00,1465,285,1459,252,84905,0
notch-66,true,1.00,933,265,929,234,54595,0
notch-67,true,1.00,905,245,898,214,54073,0
notch-68,true,1.00,598,246,593,221,35455,0
notch-69,true,1.00,2003,283,2000,258,115628,0
notch-70,true,1.00,1088,267,1086,236,65973,0
notch-71,true,1.00,881,230,874,205,53148,0
notch-72,true,1.00,809,249,807,224,48545,0
notch-73,true,1.00,701,241,694,215,40244,0
notch-74,true,1.00,681,231,678,206,40024,0
notch-75,true,1.00,1160,251,1156,226,69293,0
notch-76,true,1.00,1186,266,1181,241,69710,0
notch-77,true,1.00,821,241,814,216,47670,0
notch-78,true,1.00,949,233,942,208,57035,0
notch-79,true,1.00,867,251,860,225,51545,0
notch-80,true,1.00,452,237,449,211,27391,0
notch-81,true,1.00,1166,238,1163,213,70181,0
notch-82,true,1.00,886,254,882,229,51920,0
notch-83,true,1.00,946,263,941,229,55693,0
notch-84,true,1.00,619,243,616,218,36426,0
notch-85,true,1.00,679,260,674,228,39974,0
notch-86,true,1.00,926,251,918,226,54691,0
notch-87,true,1.00,883,247,879,219,53879,0
notch-88,true,1.00,969,248,967,222,58719,0
notch-89,true,1.00,965,267,961,242,57501,0
notch-90,true,1.00,1095,255,1093,230,65386,0
notch-91,true,1.00,1299,264,1294,239,76583,0
notch-92,true,1.00,963,251,959,226,57944,0
notch-93,true,1.00,856,270,853,242,51200,0
notch-94,true,1.00,1376,273,1368,233,80225,0
notch-95,true,1.00,713,250,705,224,41822,0
notch-96,true,1.00,690,246,686,221,41538,0
notch-97,true,1.00,779,247,775,222,46646,0
notch-98,true,1.00,984,264,978,238,57233,0
notch-99,true,1.00,1057,253,1052,227,63279,0
notch-100,true,1.00,711,271,708,237,41424,0
