NDW:0.0
TTFW:0.4
DFPT:2.0
DFPAP:3.0
DFPMP:7.0
RIGHT_WINDOW_BORDER_X:215.0
level,win/fail,% travelled,run time,game ticks,planning time,total plannings,nodes evaluated,most backtracked nodes
ge-1,true,1.00,752,239,747,208,59521,0
ge-2,true,1.00,589,234,586,215,48244,0
ge-3,true,1.00,161,201,156,182,13230,0
ge-4,true,1.00,1558,247,1556,222,129763,0
ge-5,true,1.00,54,199,52,180,4158,0
ge-6,true,1.00,769,243,766,223,55854,0
ge-7,true,1.00,108,199,106,180,8288,0
ge-8,true,1.00,215,201,212,182,17222,0
ge-9,true,1.00,421,199,421,180,36137,0
ge-10,true,1.00,45,199,44,180,3292,0
ge-11,true,1.00,210,205,205,186,17108,0
ge-12,true,1.00,48,199,48,180,3421,0
ge-13,true,1.00,740,237,739,218,53232,0
ge-14,true,1.00,270,211,268,192,21433,0
ge-15,true,1.00,471,203,471,184,40530,0
ge-16,true,1.00,710,253,706,234,50220,0
ge-17,true,1.00,282,204,282,184,22795,0
ge-18,true,1.00,556,224,556,205,41607,0
ge-19,true,1.00,583,225,582,206,50098,0
ge-20,true,1.00,423,215,420,196,35087,0
ge-21,true,1.00,192,199,191,180,15532,0
ge-22,true,1.00,330,202,328,181,27088,0
ge-23,true,1.00,505,205,504,181,43177,0
ge-24,true,1.00,459,210,459,190,38294,0
ge-25,true,1.00,285,201,284,182,25305,0
ge-26,true,1.00,273,205,270,186,24297,0
ge-27,true,1.00,171,224,170,205,12602,0
ge-28,true,1.00,414,199,414,180,33401,0
ge-29,true,1.00,283,206,281,181,22997,0
ge-30,true,1.00,715,220,711,201,58488,0
ge-31,true,1.00,834,234,832,215,67650,0
ge-32,true,1.00,308,209,305,190,22299,0
ge-33,true,1.00,135,212,125,186,9927,0
ge-34,true,1.00,869,213,867,194,75078,0
ge-35,true,1.00,928,254,927,235,64909,0
ge-36,true,1.00,521,215,520,186,46002,0
ge-37,true,1.00,251,199,250,180,20898,0
ge-38,true,1.00,609,205,608,186,52749,0
ge-39,true,1.00,392,211,390,191,30476,0
ge-40,true,1.00,53,199,52,180,4456,0
ge-41,true,1.00,181,199,179,180,14946,0
ge-42,true,1.00,754,227,753,208,58376,0
ge-43,true,1.00,644,230,643,209,48484,0
ge-44,true,1.00,550,213,548,194,44876,0
ge-45,true,1.00,608,216,608,197,46779,0
ge-46,true,1.00,1219,247,1216,228,96838,0
ge-47,true,1.00,543,199,541,180,45167,0
ge-48,true,1.00,412,211,410,192,32988,0
ge-49,true,1.00,154,199,153,180,12436,0
ge-50,true,1.00,509,205,509,186,41886,0
ge-51,true,1.00,187,206,186,186,14958,0
ge-52,true,1.00,600,226,595,206,47382,0
ge-53,true,1.00,274,205,269,186,22458,0
ge-54,true,1.00,457,218,453,195,34825,0
ge-55,true,1.00,466,213,463,194,37872,0
ge-56,true,1.00,521,208,519,183,44182,0
ge-57,true,1.00,707,208,707,188,60986,0
ge-58,true,1.00,895,259,893,238,58288,0
ge-59,true,1.00,643,199,640,180,55137,0
ge-60,true,1.00,685,209,684,190,55225,0
ge-61,true,1.00,259,201,257,182,21978,0
ge-62,true,1.00,484,207,482,188,43053,0
ge-63,true,1.00,797,214,794,194,67547,0
ge-64,true,1.00,1017,234,1016,215,75671,0
ge-65,true,1.00,731,229,728,210,56825,0
ge-66,true,1.00,634,212,633,185,55665,0
ge-67,true,1.00,347,209,346,190,25640,0
ge-68,true,1.00,152,205,150,186,11593,0
ge-69,true,1.00,281,201,279,182,22361,0
ge-70,true,1.00,354,202,353,181,30949,0
ge-71,true,1.00,727,217,725,198,63719,0
ge-72,true,1.00,431,216,429,197,32609,0
ge-73,true,1.00,346,201,346,182,30521,0
ge-74,true,1.00,697,213,697,194,58328,0
ge-75,true,1.00,362,212,361,187,28939,0
ge-76,true,1.00,1107,225,1105,206,93260,0
ge-77,true,1.00,1385,227,1384,208,118214,0
ge-78,true,1.00,785,228,783,202,63086,0
ge-79,false,1.00,228,200,228,182,18129,0
ge-80,true,1.00,234,209,234,187,15724,0
ge-81,true,1.00,257,209,257,190,18893,0
ge-82,true,1.00,396,247,392,206,26896,0
ge-83,true,1.00,637,262,634,226,47500,0
ge-84,true,1.00,632,199,632,180,54482,0
ge-85,true,1.00,296,203,295,184,25089,0
ge-86,true,1.00,662,200,661,180,56574,0
ge-87,true,1.00,619,213,618,194,52457,0
ge-88,true,1.00,615,246,612,226,48739,0
ge-89,true,1.00,751,252,750,232,53658,0
ge-90,true,1.00,52,199,48,180,4427,0
ge-91,true,1.00,262,201,262,182,22794,0
ge-92,true,1.00,77,203,76,184,6564,0
ge-93,true,1.00,455,200,452,180,39494,0
ge-94,true,1.00,323,201,321,182,28003,0
ge-95,true,1.00,499,231,495,211,35974,0
ge-96,true,1.00,597,214,593,195,50423,0
ge-97,true,1.00,702,231,699,211,54158,0
ge-98,true,1.00,54,199,52,180,4399,0
ge-99,true,1.00,180,199,180,180,11289,0
ge-100,true,1.00,389,203,388,184,32968,0
