NDW:0.0
TTFW:2.0
DFPT:2.0
DFPAP:3.0
DFPMP:50.0
RIGHT_WINDOW_BORDER_X:195.0
level,win/fail,% travelled,run time,game ticks,planning time,total plannings,nodes evaluated,most backtracked nodes
hopper-1,true,1.00,1215,322,1209,305,72455,0
hopper-2,true,1.00,1081,317,1076,300,65230,0
hopper-3,false,0.24,1206,100,1204,100,58903,0
hopper-4,false,0.27,619,94,616,94,35430,0
hopper-5,true,1.00,858,316,851,299,50620,0
hopper-6,true,1.00,1081,327,1075,309,63914,0
hopper-7,false,0.83,1933,279,1926,279,100822,0
hopper-8,false,0.42,843,139,842,139,46740,0
hopper-9,true,1.00,932,317,925,300,55842,0
hopper-10,true,1.00,900,315,896,298,55681,0
hopper-11,true,1.00,701,321,693,304,41428,0
hopper-12,true,1.00,1120,325,1114,302,67770,0
hopper-13,false,0.40,1576,144,1573,144,81566,0
hopper-14,true,1.00,1073,326,1066,306,65886,0
hopper-15,true,1.00,1033,301,1027,284,61960,0
hopper-16,false,0.54,1750,192,1748,192,89014,0
hopper-17,true,1.00,914,311,905,294,55835,0
hopper-18,true,1.00,1079,310,1071,293,64827,0
hopper-19,true,1.00,818,311,809,294,50223,0
hopper-20,true,1.00,1103,334,1096,316,67918,0
hopper-21,false,0.61,1539,214,1538,214,81763,0
hopper-22,false,0.33,787,110,783,110,42803,0
hopper-23,true,1.00,949,310,939,293,58491,0
hopper-24,true,1.00,613,327,608,309,36734,0
hopper-25,true,1.00,1158,311,1153,291,71926,0
hopper-26,true,1.00,1031,301,1025,284,61949,0
hopper-27,true,1.00,881,301,869,281,54572,0
hopper-28,false,0.85,1762,288,1753,288,105602,0
hopper-29,false,0.26,1174,104,1171,104,59144,0
hopper-30,true,1.00,959,335,953,317,57595,0
hopper-31,false,0.77,2029,270,2024,270,106895,0
hopper-32,true,1.00,1273,299,1267,282,79520,0
hopper-33,false,0.49,892,169,890,169,50598,0
hopper-34,false,0.31,782,103,780,103,42672,0
hopper-35,true,1.00,1290,343,1287,325,82085,0
hopper-36,true,1.00,675,303,670,286,40618,0
hopper-37,false,0.51,845,168,843,168,45490,0
hopper-38,false,0.52,1771,193,1767,193,94423,0
hopper-39,false,0.52,1040,172,1035,172,58881,0
hopper-40,true,1.00,992,352,986,329,58861,0
hopper-41,true,1.00,1595,307,1588,290,96447,0
hopper-42,true,1.00,901,317,894,300,53264,0
hopper-43,false,0.45,1222,143,1221,143,69717,0
hopper-44,true,1.00,1359,315,1354,297,84217,0
hopper-45,false,0.43,996,153,996,153,55339,0
hopper-46,false,0.67,1354,227,1350,227,80320,0
hopper-47,true,1.00,1313,303,1311,286,79378,0
hopper-48,true,1.00,1164,334,1157,317,70519,0
hopper-49,true,1.00,996,309,992,292,61432,0
hopper-50,false,0.62,1809,222,1803,222,95776,0
hopper-51,false,0.33,1279,126,1278,126,65441,0
hopper-52,true,1.00,739,307,726,290,43708,0
hopper-53,false,0.63,1597,223,1592,223,91877,0
hopper-54,true,1.00,665,302,661,279,40732,0
hopper-55,true,1.00,802,341,787,321,49989,0
hopper-56,true,1.00,730,297,725,280,45451,0
hopper-57,true,1.00,1227,327,1218,310,72531,0
hopper-58,false,0.58,1265,186,1260,186,69567,0
hopper-59,true,1.00,706,306,702,289,43245,0
hopper-60,true,1.00,1004,321,994,304,62802,0
hopper-61,false,0.82,1533,251,1527,251,89528,0
hopper-62,true,1.00,1186,330,1179,311,72926,0
hopper-63,false,0.23,1436,101,1435,101,69861,0
hopper-64,true,1.00,1139,315,1131,298,68259,0
hopper-65,true,1.00,950,315,945,295,58797,0
hopper-66,false,0.74,1132,252,1129,252,63710,0
hopper-67,true,1.00,966,326,954,309,59920,0
hopper-68,true,1.00,694,328,688,311,41488,0
hopper-69,false,0.84,1266,282,1258,282,72780,0
hopper-70,true,1.00,1144,312,1141,292,70455,0
hopper-71,true,1.00,706,303,698,286,43316,0
hopper-72,true,1.00,1198,303,1191,286,73024,0
hopper-73,true,1.00,946,315,941,298,58285,0
hopper-74,true,1.00,770,305,762,288,46580,0
hopper-75,true,1.00,957,317,953,300,58115,0
hopper-76,false,0.47,1618,166,1617,166,85653,0
hopper-77,true,1.00,1005,349,996,331,59953,0
hopper-78,true,1.00,1108,308,1097,290,67645,0
hopper-79,true,1.00,722,311,717,293,43731,0
hopper-80,true,1.00,712,311,707,294,42045,0
hopper-81,false,0.38,953,124,950,124,48436,0
hopper-82,false,0.46,1808,171,1804,171,87502,0
hopper-83,true,1.00,1295,346,1287,329,78718,0
hopper-84,true,1.00,1144,333,1137,316,69470,0
hopper-85,true,1.00,1822,359,1816,342,109471,0
hopper-86,true,1.00,980,321,974,304,60032,0
hopper-87,true,1.00,1065,315,1059,298,64120,0
hopper-88,true,1.00,736,323,732,306,45918,0
hopper-89,true,1.00,745,338,737,320,45250,0
hopper-90,true,1.00,859,316,851,298,53109,0
hopper-91,true,1.00,994,322,986,305,61221,0
hopper-92,true,1.00,1205,315,1199,298,72406,0
hopper-93,true,1.00,693,317,687,300,42974,0
hopper-94,false,0.65,1120,211,1119,211,64642,0
hopper-95,true,1.00,988,309,982,292,60625,0
hopper-96,true,1.00,1110,297,1105,280,69995,0
hopper-97,true,1.00,1200,312,1192,295,73441,0
hopper-98,true,1.00,1358,337,1353,320,82420,0
hopper-99,false,0.73,2105,244,2100,244,123469,0
hopper-100,true,1.00,1130,334,1118,308,69432,0
