NDW:0.0
TTFW:2.0
DFPT:2.0
DFPAP:3.0
DFPMP:1.0
RIGHT_WINDOW_BORDER_X:215.0
level,win/fail,% travelled,run time,game ticks,planning time,total plannings,nodes evaluated,most backtracked nodes
patternOccur-1,true,1.00,1001,506,987,483,53827,0
patternOccur-2,true,1.00,908,473,899,452,48596,0
patternOccur-3,true,1.00,1823,483,1812,464,107215,0
patternOccur-4,true,1.00,2255,519,2237,500,131521,0
patternOccur-5,true,1.00,940,482,929,462,51150,0
patternOccur-6,true,1.00,1586,530,1574,511,90156,0
patternOccur-7,true,1.00,2097,573,2088,552,116909,0
patternOccur-8,true,1.00,1839,480,1827,461,105165,0
patternOccur-9,true,1.00,1648,530,1636,509,93949,0
patternOccur-10,true,1.00,1047,538,1034,506,58429,0
patternOccur-11,true,1.00,4296,553,4288,527,227976,0
patternOccur-12,true,1.00,1350,485,1332,457,78091,0
patternOccur-13,true,1.00,1349,440,1336,421,78485,0
patternOccur-14,true,1.00,3576,530,3564,509,200962,0
patternOccur-15,true,1.00,1432,494,1421,475,80095,0
patternOccur-16,true,1.00,3998,545,3988,520,215735,0
patternOccur-17,true,1.00,1409,519,1395,498,80743,0
patternOccur-18,true,1.00,1357,522,1336,503,76230,0
patternOccur-19,false,0.82,4747,525,4742,525,244414,0
patternOccur-20,true,1.00,1451,522,1433,503,80907,0
patternOccur-21,true,1.00,1125,505,1109,485,65157,0
patternOccur-22,false,0.84,3654,523,3643,523,204411,0
patternOccur-23,true,1.00,1602,480,1586,461,91853,0
patternOccur-24,true,1.00,1597,516,1584,497,91277,0
patternOccur-25,true,1.00,1581,507,1569,487,92702,0
patternOccur-26,true,1.00,970,440,957,421,56244,0
patternOccur-27,true,1.00,3538,525,3523,498,194107,0
patternOccur-28,true,1.00,1554,481,1544,461,91929,0
patternOccur-29,true,1.00,1357,467,1342,437,78500,0
patternOccur-30,true,1.00,1486,510,1473,491,87100,0
patternOccur-31,false,0.80,2708,483,2697,483,162923,0
patternOccur-32,true,1.00,5695,584,5684,563,312511,0
patternOccur-33,true,1.00,1612,520,1599,500,96112,0
patternOccur-34,true,1.00,1856,510,1842,480,111197,0
patternOccur-35,true,1.00,1229,501,1215,481,69516,0
patternOccur-36,true,1.00,2659,481,2648,452,154716,0
patternOccur-37,true,1.00,3093,562,3087,535,180085,0
patternOccur-38,true,1.00,1305,485,1294,466,76025,0
patternOccur-39,false,0.78,21720,999,21708,999,1010592,0
patternOccur-40,true,1.00,2358,505,2344,485,141925,0
patternOccur-41,true,1.00,1397,505,1382,475,82611,0
patternOccur-42,false,0.89,2981,487,2969,487,172846,0
patternOccur-43,true,1.00,1201,495,1192,476,71215,0
patternOccur-44,true,1.00,1291,467,1273,448,76498,0
patternOccur-45,true,1.00,1784,436,1773,416,100319,0
patternOccur-46,true,1.00,1090,516,1075,497,62362,0
patternOccur-47,true,1.00,3119,510,3112,477,177170,0
patternOccur-48,true,1.00,1805,498,1792,479,108323,0
patternOccur-49,true,1.00,1049,451,1038,432,60098,0
patternOccur-50,true,1.00,2299,517,2280,497,132088,0
patternOccur-51,true,1.00,1549,562,1537,537,92456,0
patternOccur-52,true,1.00,1958,538,1948,518,108388,0
patternOccur-53,true,1.00,1721,464,1714,445,101629,0
patternOccur-54,true,1.00,2257,505,2239,477,137905,0
patternOccur-55,true,1.00,1681,436,1668,417,99259,0
patternOccur-56,true,1.00,1479,536,1466,517,80715,0
patternOccur-57,true,1.00,2045,519,2032,497,120757,0
patternOccur-58,true,1.00,5865,596,5852,571,327384,0
patternOccur-59,true,1.00,1347,483,1334,463,76116,0
patternOccur-60,true,1.00,2619,516,2607,474,145939,0
patternOccur-61,true,1.00,1853,497,1839,475,108392,0
patternOccur-62,true,1.00,1313,485,1295,466,75825,0
patternOccur-63,true,1.00,1723,548,1710,517,100068,0
patternOccur-64,true,1.00,2380,584,2364,556,141760,0
patternOccur-65,true,1.00,1150,496,1141,475,65886,0
patternOccur-66,true,1.00,1910,483,1901,462,111130,0
patternOccur-67,false,0.88,2568,451,2561,451,145058,0
patternOccur-68,true,1.00,1287,547,1280,528,73488,0
patternOccur-69,true,1.00,4707,568,4700,532,243919,0
patternOccur-70,false,0.86,4791,479,4782,479,222512,0
patternOccur-71,true,1.00,2825,545,2817,526,147077,0
patternOccur-72,false,0.87,3132,500,3118,500,159804,0
patternOccur-73,true,1.00,2663,514,2644,483,143302,0
patternOccur-74,true,1.00,2726,494,2713,460,147887,0
patternOccur-75,true,1.00,1856,506,1837,486,106283,0
patternOccur-76,true,1.00,2159,515,2140,496,125429,0
patternOccur-77,true,1.00,876,527,861,508,47054,0
patternOccur-78,true,1.00,809,480,796,461,44275,0
patternOccur-79,true,1.00,1672,509,1657,488,95308,0
patternOccur-80,true,1.00,3002,513,2991,486,167175,0
patternOccur-81,true,1.00,3018,495,3007,452,160609,0
patternOccur-82,true,1.00,2071,534,2051,509,110015,0
patternOccur-83,false,0.82,3110,500,3102,500,172095,0
patternOccur-84,true,1.00,1629,513,1613,494,92483,0
patternOccur-85,false,0.93,1704,460,1689,460,91059,0
patternOccur-86,true,1.00,4184,492,4176,466,227727,0
patternOccur-87,true,1.00,1355,541,1348,522,80385,0
patternOccur-88,true,1.00,2376,488,2361,468,143576,0
patternOccur-89,true,1.00,1539,501,1527,482,91608,0
patternOccur-90,true,1.00,2001,564,1994,543,121503,0
patternOccur-91,true,1.00,1219,494,1208,463,70549,0
patternOccur-92,true,1.00,1095,440,1089,421,64720,0
patternOccur-93,true,1.00,1753,515,1738,495,104773,0
patternOccur-94,true,1.00,4417,540,4411,508,244378,0
patternOccur-95,true,1.00,1311,471,1299,450,77177,0
patternOccur-96,false,0.87,2335,511,2322,511,123507,0
patternOccur-97,true,1.00,2129,458,2124,439,128357,0
patternOccur-98,false,0.90,3001,529,2983,529,163777,0
patternOccur-99,true,1.00,1203,482,1194,462,70876,0
patternOccur-100,true,1.00,1859,490,1846,471,106762,0
