NDW:0.0
TTFW:0.6
DFPT:2.0
DFPAP:3.0
DFPMP:20.0
RIGHT_WINDOW_BORDER_X:55.0
level,win/fail,% travelled,run time,game ticks,planning time,total plannings,nodes evaluated,most backtracked nodes
notch-1,true,1.00,7580,902,7576,889,688464,0
notch-2,false,0.64,5551,592,5548,592,540048,0
notch-3,false,0.29,4306,339,4305,339,385149,0
notch-4,false,0.85,8103,823,8101,823,736965,0
notch-5,true,1.00,6050,895,6045,888,554926,0
notch-6,true,1.00,6707,871,6705,863,633719,0
notch-7,true,1.00,2575,717,2571,710,247641,0
notch-8,true,1.00,5609,752,5606,747,546097,0
notch-9,true,1.00,9562,987,9559,980,855761,0
notch-10,false,0.22,817,168,815,168,75937,0
notch-11,true,1.00,7112,824,7108,817,653063,0
notch-12,false,0.31,962,236,960,236,90227,0
notch-13,false,0.45,1133,353,1133,353,105179,0
notch-14,true,1.00,6338,829,6332,821,575363,0
notch-15,true,1.00,5385,649,5381,639,482712,0
notch-16,false,0.79,10024,953,10021,953,928031,0
notch-17,true,1.00,7194,808,7189,800,685447,0
notch-18,false,0.27,496,198,496,198,50740,0
notch-19,true,1.00,9077,952,9076,947,873723,0
notch-20,true,1.00,5904,752,5900,745,567172,0
notch-21,false,0.11,1161,123,1160,123,101949,0
notch-22,true,1.00,5087,823,5083,815,458802,0
notch-23,false,0.90,10319,999,10314,999,923280,0
notch-24,false,0.78,3364,658,3361,658,321224,0
notch-25,true,1.00,7735,946,7730,938,718121,0
notch-26,true,1.00,5544,763,5542,755,507395,0
notch-27,true,1.00,9792,889,9788,882,950798,0
notch-28,false,0.45,23527,1008,23524,1008,1968695,0
notch-29,false,0.31,2948,340,2947,340,283685,0
notch-30,true,1.00,7935,811,7931,803,712389,0
notch-31,true,1.00,6086,814,6080,807,563717,0
notch-32,true,1.00,4845,843,4840,835,445519,0
notch-33,true,1.00,5010,724,5009,716,452939,0
notch-34,false,0.34,1667,267,1665,267,162656,0
notch-35,true,1.00,4573,794,4571,787,437621,0
notch-36,true,1.00,6593,885,6589,878,607626,0
notch-37,true,1.00,9743,837,9740,830,925773,0
notch-38,false,0.23,1313,220,1312,220,118943,0
notch-39,false,0.31,1946,257,1945,257,166043,0
notch-40,false,0.71,7010,749,7008,749,646433,0
notch-41,false,0.36,3224,365,3220,365,309559,0
notch-42,true,1.00,8416,952,8415,947,783649,0
notch-43,true,1.00,4729,678,4725,670,440623,0
notch-44,true,1.00,5665,712,5662,702,509760,0
notch-45,true,1.00,6160,750,6157,743,579428,0
notch-46,true,1.00,4754,773,4748,768,455457,0
notch-47,true,1.00,7058,825,7055,815,654411,0
notch-48,false,0.27,466,201,466,201,44899,0
notch-49,true,1.00,6339,725,6337,720,572469,0
notch-50,false,0.50,4171,446,4170,446,394289,0
notch-51,false,0.20,1343,174,1343,174,134735,0
notch-52,true,1.00,5856,817,5854,809,540451,0
notch-53,true,1.00,1966,551,1961,544,177966,0
notch-54,true,1.00,8151,997,8145,991,772036,0
notch-55,false,0.99,9051,999,9046,999,833354,0
notch-56,false,0.12,2974,171,2974,171,269139,0
notch-57,true,1.00,6381,820,6378,813,560917,0
notch-58,true,1.00,7886,874,7882,866,763106,0
notch-59,true,1.00,5835,775,5830,767,531988,0
notch-60,false,0.18,1640,165,1640,165,134018,0
notch-61,false,0.72,4429,629,4426,629,427705,0
notch-62,true,1.00,5945,755,5941,748,564367,0
notch-63,false,0.44,2146,439,2144,439,228767,0
notch-64,false,0.61,5235,587,5233,587,485455,0
notch-65,false,0.57,4956,550,4952,550,472509,0
notch-66,true,1.00,5286,688,5280,681,511183,0
notch-67,false,0.56,3845,448,3844,448,325066,0
notch-68,false,0.24,1491,240,1491,240,131124,0
notch-69,false,0.79,4446,681,4446,681,425173,0
notch-70,false,0.17,1690,179,1690,179,159896,0
notch-71,true,1.00,9124,877,9121,870,834651,0
notch-72,true,1.00,7079,876,7075,869,672867,0
notch-73,true,1.00,7117,840,7112,832,667153,0
notch-74,false,0.25,2471,256,2471,256,253548,0
notch-75,true,1.00,8364,994,8361,987,782954,0
notch-76,true,1.00,5995,826,5988,819,552201,0
notch-77,true,1.00,5299,772,5294,762,486636,0
notch-78,true,1.00,7377,784,7374,774,700309,0
notch-79,false,0.78,6688,760,6684,760,629236,0
notch-80,true,1.00,2461,668,2459,663,222082,0
notch-81,false,0.39,7427,548,7427,548,669780,0
notch-82,false,0.13,842,149,840,149,74123,0
notch-83,true,1.00,6682,888,6679,880,632189,0
notch-84,true,1.00,4374,818,4368,811,399267,0
notch-85,false,0.25,589,138,589,138,53222,0
notch-86,false,0.86,6891,862,6889,862,639312,0
notch-87,true,1.00,8639,887,8636,874,815277,0
notch-88,false,0.91,8206,999,8201,999,804744,0
notch-89,false,0.91,9781,999,9777,999,927220,0
notch-90,false,0.21,1575,217,1574,217,147197,0
notch-91,true,1.00,7348,965,7345,952,688066,0
notch-92,true,1.00,5977,901,5972,894,559755,0
notch-93,true,1.00,4900,804,4894,799,458314,0
notch-94,true,1.00,10049,986,10041,976,939070,0
notch-95,true,1.00,5112,810,5109,802,473255,0
notch-96,true,1.00,5810,743,5809,735,544172,0
notch-97,true,1.00,8634,866,8628,859,810430,0
notch-98,true,1.00,8107,831,8105,824,754830,0
notch-99,false,0.11,933,100,933,100,85322,0
notch-100,false,0.79,5116,662,5112,662,487966,0
