NDW:0.0
TTFW:1.4
DFPT:2.0
DFPAP:3.0
DFPMP:7.0
RIGHT_WINDOW_BORDER_X:35.0
level,win/fail,% travelled,run time,game ticks,planning time,total plannings,nodes evaluated,most backtracked nodes
hopper-1,false,0.13,1259,124,1259,124,97673,0
hopper-2,false,0.13,1259,124,1259,124,97602,0
hopper-3,false,0.30,1445,273,1445,273,122469,0
hopper-4,false,0.32,24558,999,24557,999,2146888,0
hopper-5,false,0.13,1260,124,1259,124,97624,0
hopper-6,false,0.30,3245,285,3245,285,256250,0
hopper-7,false,0.13,1259,124,1259,124,97575,0
hopper-8,false,0.13,1259,124,1259,124,97703,0
hopper-9,false,0.13,1259,124,1259,124,97729,0
hopper-10,false,0.28,1792,242,1792,242,141211,0
hopper-11,false,0.13,1259,124,1257,124,97685,0
hopper-12,false,0.32,2586,268,2585,268,207372,0
hopper-13,false,0.13,1259,124,1259,124,97726,0
hopper-14,false,0.13,1259,124,1259,124,97717,0
hopper-15,false,0.13,1259,124,1259,124,97682,0
hopper-16,false,0.13,1259,124,1259,124,97740,0
hopper-17,false,0.31,2424,284,2420,284,199199,0
hopper-18,false,0.28,3114,271,3114,271,246018,0
hopper-19,false,0.41,3423,397,3421,397,299230,0
hopper-20,false,0.13,1259,124,1258,124,97662,0
hopper-21,false,0.13,1259,124,1259,124,97584,0
hopper-22,false,0.13,1159,123,1159,123,89925,0
hopper-23,false,0.13,1259,124,1259,124,97792,0
hopper-24,false,0.13,1259,124,1258,124,97662,0
hopper-25,false,0.32,2484,258,2483,258,195795,0
hopper-26,false,0.13,1259,124,1258,124,97091,0
hopper-27,false,0.13,1259,124,1258,124,97682,0
hopper-28,false,0.13,1259,124,1258,124,97623,0
hopper-29,false,0.25,1871,232,1870,232,145693,0
hopper-30,false,0.13,1267,124,1267,124,97143,0
hopper-31,false,0.13,1259,124,1258,124,97735,0
hopper-32,false,0.33,4137,319,4137,319,326578,0
hopper-33,false,0.29,1725,224,1723,224,135516,0
hopper-34,false,0.13,1259,124,1257,124,97655,0
hopper-35,false,0.13,1259,124,1257,124,97717,0
hopper-36,false,0.13,1259,124,1259,124,97764,0
hopper-37,false,0.32,603,200,600,200,48237,0
hopper-38,false,0.13,1159,123,1158,123,89890,0
hopper-39,false,0.29,2915,263,2912,263,228369,0
hopper-40,false,0.13,1259,124,1259,124,97604,0
hopper-41,false,0.24,1871,312,1869,312,170819,0
hopper-42,false,0.13,1259,124,1257,124,97602,0
hopper-43,false,0.13,1259,124,1258,124,97551,0
hopper-44,false,0.30,1760,248,1758,248,137672,0
hopper-45,false,0.13,1259,124,1258,124,97721,0
hopper-46,false,0.13,1259,124,1259,124,97728,0
hopper-47,false,0.32,2980,280,2977,280,233892,0
hopper-48,false,0.13,1259,124,1259,124,97706,0
hopper-49,false,0.13,1259,124,1259,124,97766,0
hopper-50,false,0.13,1259,124,1258,124,97625,0
hopper-51,false,0.13,1259,124,1259,124,97590,0
hopper-52,false,0.34,25280,999,25279,999,2165373,0
hopper-53,false,0.13,1259,124,1259,124,97643,0
hopper-54,false,0.31,1760,245,1759,245,137582,0
hopper-55,false,0.13,1259,124,1259,124,97623,0
hopper-56,false,0.29,2351,226,2351,226,187319,0
hopper-57,false,0.29,1498,242,1495,242,120756,0
hopper-58,false,0.13,1259,124,1259,124,97658,0
hopper-59,false,0.13,1259,124,1258,124,97714,0
hopper-60,false,0.30,1922,221,1919,221,158624,0
hopper-61,false,0.13,1259,124,1259,124,97708,0
hopper-62,false,0.13,1259,124,1258,124,97700,0
hopper-63,false,0.28,1849,340,1848,340,167839,0
hopper-64,false,0.13,1259,124,1259,124,97675,0
hopper-65,false,0.13,1259,124,1259,124,97684,0
hopper-66,false,0.30,968,225,965,225,76748,0
hopper-67,false,0.31,3309,281,3308,281,262215,0
hopper-68,false,0.29,935,225,933,225,77178,0
hopper-69,false,0.13,1259,124,1259,124,97613,0
hopper-70,false,0.13,1259,124,1259,124,97511,0
hopper-71,false,0.29,2320,241,2319,241,190119,0
hopper-72,false,0.13,1259,124,1259,124,97478,0
hopper-73,false,0.13,1260,124,1260,124,97623,0
hopper-74,false,0.13,1259,124,1258,124,97573,0
hopper-75,false,0.13,1259,124,1259,124,97670,0
hopper-76,false,0.13,1259,124,1258,124,97697,0
hopper-77,false,0.13,1259,124,1258,124,97669,0
hopper-78,false,0.30,1560,222,1559,222,122718,0
hopper-79,false,0.13,1259,124,1257,124,97674,0
hopper-80,false,0.13,1259,124,1259,124,97709,0
hopper-81,false,0.13,1259,124,1259,124,97624,0
hopper-82,false,0.13,1259,124,1259,124,97528,0
hopper-83,false,0.13,1259,124,1259,124,97507,0
hopper-84,false,0.13,1259,124,1258,124,97594,0
hopper-85,false,0.30,2156,236,2155,236,168401,0
hopper-86,false,0.13,1259,124,1258,124,97596,0
hopper-87,false,0.13,1259,124,1258,124,95663,0
hopper-88,false,0.13,1260,124,1259,124,97554,0
hopper-89,false,0.13,1260,124,1260,124,97539,0
hopper-90,false,0.13,1259,124,1259,124,97545,0
hopper-91,false,0.13,1259,124,1259,124,97607,0
hopper-92,false,0.13,1259,124,1258,124,97572,0
hopper-93,false,0.29,1890,224,1888,224,154024,0
hopper-94,false,0.13,1259,124,1259,124,97515,0
hopper-95,false,0.33,25258,999,25256,999,2184462,0
hopper-96,false,0.13,1259,124,1259,124,97467,0
hopper-97,false,0.13,1260,124,1259,124,97595,0
hopper-98,false,0.13,1259,124,1259,124,97552,0
hopper-99,false,0.13,1259,124,1259,124,97560,0
hopper-100,false,0.13,1259,124,1259,124,97737,0
