NDW:0.0
TTFW:1.4
DFPT:2.0
DFPAP:3.0
DFPMP:1.0
RIGHT_WINDOW_BORDER_X:275.0
level,win/fail,% travelled,run time,game ticks,planning time,total plannings,nodes evaluated,most backtracked nodes
Mario-1,true,1.00,786,388,762,341,18421,0
Mario-2,true,1.00,1178,349,1167,325,44854,0
Mario-3,true,1.00,1916,271,1902,222,56460,0
Mario-4,true,1.00,2417,417,2399,359,60917,0
Mario-5,true,1.00,1004,425,990,398,43824,0
Mario-6,true,1.00,1947,272,1942,246,100456,0
Mario-7,true,1.00,864,441,854,392,42913,0
Mario-8,true,1.00,1280,455,1268,406,63707,0
Mario-9,true,1.00,562,421,551,369,28609,0
Mario-10,true,1.00,2433,325,2426,276,135957,0
Mario-11,true,1.00,933,413,927,350,46964,0
Mario-12,true,1.00,1743,641,1730,583,71052,0
Mario-13,true,1.00,1979,331,1968,300,105972,0
Mario-14,true,1.00,427,396,415,350,20242,0
Mario-15,true,1.00,2091,855,2073,804,104102,0
