NDW:0.0
TTFW:0.6
DFPT:2.0
DFPAP:3.0
DFPMP:0.0
RIGHT_WINDOW_BORDER_X:55.0
level,win/fail,% travelled,run time,game ticks,planning time,total plannings,nodes evaluated,most backtracked nodes
notchParamRand-1,false,0.29,1088,271,1087,271,98078,0
notchParamRand-2,true,1.00,583,572,583,567,57690,0
notchParamRand-3,false,0.24,2103,260,2101,260,194118,0
notchParamRand-4,false,0.18,2308,261,2306,261,205538,0
notchParamRand-5,true,1.00,1563,793,1558,783,142455,0
notchParamRand-6,true,1.00,3928,856,3924,849,351991,0
notchParamRand-7,true,1.00,1493,587,1493,582,136729,0
notchParamRand-8,false,0.36,4090,369,4089,369,319051,0
notchParamRand-9,false,0.29,2128,312,2127,312,194172,0
notchParamRand-10,false,0.25,2181,248,2178,248,206413,0
notchParamRand-11,true,1.00,684,730,678,717,64189,0
notchParamRand-12,false,0.36,935,320,933,320,84524,0
notchParamRand-13,false,0.16,3125,257,3124,257,270488,0
notchParamRand-14,false,0.24,1055,251,1054,251,94481,0
notchParamRand-15,false,0.29,1088,265,1087,265,98590,0
notchParamRand-16,false,0.37,1566,340,1562,340,155347,0
notchParamRand-17,true,1.00,75,663,68,655,14488,0
notchParamRand-18,false,0.19,2391,282,2391,282,225848,0
notchParamRand-19,true,1.00,532,726,530,719,55969,0
notchParamRand-20,false,0.18,3101,258,3100,258,255518,0
notchParamRand-21,true,1.00,85,679,82,672,16304,0
notchParamRand-22,true,1.00,7462,984,7458,979,673481,0
notchParamRand-23,false,0.24,1863,307,1863,307,164711,0
notchParamRand-24,true,1.00,1483,723,1483,716,139966,0
notchParamRand-25,true,1.00,83,677,77,665,15913,0
notchParamRand-26,true,1.00,1651,737,1646,727,150205,0
notchParamRand-27,true,1.00,1858,596,1857,591,174386,0
notchParamRand-28,true,1.00,4324,920,4321,913,375253,0
notchParamRand-29,true,1.00,85,661,80,654,16917,0
notchParamRand-30,false,0.18,2431,240,2429,240,207121,0
notchParamRand-31,true,1.00,2845,960,2838,953,270475,0
notchParamRand-32,true,1.00,421,700,416,693,46821,0
notchParamRand-33,false,0.17,27344,999,27343,999,2395956,0
notchParamRand-34,false,0.24,2780,336,2777,336,241376,0
notchParamRand-35,true,1.00,3651,863,3646,856,323322,0
notchParamRand-36,true,1.00,75,670,71,662,14565,0
notchParamRand-37,true,1.00,3415,805,3408,786,319067,0
notchParamRand-38,false,0.18,849,198,849,198,77043,0
notchParamRand-39,false,0.18,1442,193,1442,193,126227,0
notchParamRand-40,false,0.17,1078,198,1078,198,92975,0
notchParamRand-41,true,1.00,158,659,138,652,16887,0
notchParamRand-42,true,1.00,4627,868,4622,858,421971,0
notchParamRand-43,false,0.53,1449,423,1448,423,132262,0
notchParamRand-44,true,1.00,2641,819,2636,807,246905,0
notchParamRand-45,false,0.29,1754,308,1751,308,156553,0
notchParamRand-46,false,0.36,1489,317,1487,317,133018,0
notchParamRand-47,false,0.70,4084,647,4080,647,352660,0
notchParamRand-48,false,0.19,1715,229,1713,229,150442,0
notchParamRand-49,true,1.00,5535,816,5531,809,496582,0
notchParamRand-50,false,0.16,24743,999,24742,999,2115457,0
notchParamRand-51,true,1.00,1175,736,1170,728,111190,0
notchParamRand-52,false,0.29,2196,336,2194,336,190131,0
notchParamRand-53,false,0.36,3175,369,3173,369,276043,0
notchParamRand-54,false,0.17,884,182,884,182,77504,0
notchParamRand-55,false,0.19,1322,265,1321,265,117066,0
notchParamRand-56,false,0.36,3222,412,3220,412,274489,0
notchParamRand-57,false,0.24,3381,353,3380,353,304776,0
notchParamRand-58,true,1.00,6957,898,6951,879,618814,0
notchParamRand-59,true,1.00,3276,889,3274,882,298367,0
notchParamRand-60,false,0.53,3737,477,3735,477,339785,0
notchParamRand-61,true,1.00,3273,900,3254,893,295772,0
notchParamRand-62,true,1.00,2378,882,2373,875,215869,0
notchParamRand-63,false,0.19,1411,206,1410,206,125711,0
notchParamRand-64,false,0.65,1433,550,1431,550,129336,0
notchParamRand-65,false,0.18,2662,285,2662,285,229805,0
notchParamRand-66,false,0.52,1722,438,1719,438,151728,0
notchParamRand-67,true,1.00,4222,777,4220,770,343763,0
notchParamRand-68,false,0.18,2235,223,2235,223,199101,0
notchParamRand-69,true,1.00,1823,744,1821,737,176119,0
notchParamRand-70,false,0.95,5996,999,5988,999,545697,0
notchParamRand-71,true,1.00,1796,769,1795,762,160540,0
notchParamRand-72,true,1.00,391,704,385,697,44739,0
notchParamRand-73,false,0.36,830,374,828,374,80477,0
notchParamRand-74,true,1.00,85,659,83,652,16801,0
notchParamRand-75,true,1.00,80,675,75,656,15782,0
notchParamRand-76,false,0.31,4075,354,4075,354,342170,0
notchParamRand-77,false,0.21,3635,296,3635,296,314001,0
notchParamRand-78,false,0.24,2713,330,2712,330,246481,0
notchParamRand-79,true,1.00,1681,779,1674,772,158920,0
notchParamRand-80,false,0.52,4134,491,4131,491,323323,0
notchParamRand-81,true,1.00,1788,654,1782,647,174156,0
notchParamRand-82,false,0.44,3074,473,3074,473,280259,0
notchParamRand-83,false,0.17,2086,231,2086,231,186268,0
notchParamRand-84,true,1.00,2157,804,2154,797,209766,0
notchParamRand-85,true,1.00,84,666,78,659,16568,0
notchParamRand-86,false,0.49,2614,524,2613,524,250095,0
notchParamRand-87,false,0.17,1738,216,1738,216,148782,0
notchParamRand-88,true,1.00,2117,791,2114,784,208039,0
notchParamRand-89,false,0.51,1375,458,1373,458,130810,0
notchParamRand-90,false,0.37,1882,327,1881,327,160913,0
notchParamRand-91,true,1.00,79,665,76,658,15452,0
notchParamRand-92,true,1.00,5567,916,5563,909,493765,0
notchParamRand-93,true,1.00,2206,772,2201,765,201501,0
notchParamRand-94,false,0.17,2473,253,2472,253,212460,0
notchParamRand-95,false,0.19,615,186,612,186,53791,0
notchParamRand-96,false,0.67,4054,664,4051,664,358885,0
notchParamRand-97,false,0.15,319,154,319,154,29236,0
notchParamRand-98,true,1.00,2090,622,2086,617,191207,0
notchParamRand-99,true,1.00,1628,760,1625,753,149557,0
notchParamRand-100,false,0.21,2206,261,2205,261,195022,0
