NDW:0.0
TTFW:1.6
DFPT:2.0
DFPAP:3.0
DFPMP:7.0
RIGHT_WINDOW_BORDER_X:115.0
level,win/fail,% travelled,run time,game ticks,planning time,total plannings,nodes evaluated,most backtracked nodes
patternCount-1,false,0.68,3498,403,3496,403,333002,0
patternCount-2,true,1.00,1111,479,1109,469,125568,0
patternCount-3,false,0.92,4649,610,4649,610,428398,0
patternCount-4,true,1.00,1270,493,1270,478,146760,0
patternCount-5,true,1.00,1107,486,1106,475,132846,0
patternCount-6,true,1.00,955,461,948,451,114631,0
patternCount-7,true,1.00,1833,441,1830,431,224588,0
patternCount-8,false,0.92,6805,696,6802,696,790790,0
patternCount-9,true,1.00,926,465,925,455,109143,0
patternCount-10,true,1.00,371,413,369,403,48678,0
patternCount-11,false,0.77,4543,571,4542,571,599313,0
patternCount-12,true,1.00,864,483,862,473,108306,0
patternCount-13,true,1.00,564,395,559,385,64826,0
patternCount-14,true,1.00,1680,486,1677,468,202307,0
patternCount-15,true,1.00,1264,490,1261,480,154993,0
patternCount-16,true,1.00,707,457,703,447,85909,0
patternCount-17,true,1.00,1597,576,1593,566,189143,0
patternCount-18,true,1.00,3254,573,3253,534,321257,0
patternCount-19,true,1.00,703,425,701,415,79135,0
patternCount-20,true,1.00,3162,581,3161,570,395487,0
patternCount-21,true,1.00,943,491,942,481,115014,0
patternCount-22,false,0.83,3282,515,3280,515,376956,0
patternCount-23,false,0.68,3424,463,3421,463,353455,0
patternCount-24,true,1.00,16273,986,16269,956,1923155,0
patternCount-25,true,1.00,2560,564,2557,553,312989,0
patternCount-26,true,1.00,732,465,727,455,86491,0
patternCount-27,true,1.00,1390,513,1389,503,166389,0
patternCount-28,true,1.00,1541,522,1539,504,182220,0
patternCount-29,true,1.00,1135,474,1130,464,134827,0
patternCount-30,true,1.00,711,477,710,467,92093,0
patternCount-31,true,1.00,1569,537,1566,527,181248,0
patternCount-32,true,1.00,1735,587,1733,577,194126,0
patternCount-33,false,0.83,4164,549,4160,549,458180,0
patternCount-34,true,1.00,3655,652,3648,638,430830,0
patternCount-35,true,1.00,815,479,814,469,96882,0
patternCount-36,true,1.00,5417,700,5416,688,579842,0
patternCount-37,true,1.00,1286,488,1282,478,146042,0
patternCount-38,true,1.00,4538,628,4536,618,509262,0
patternCount-39,true,1.00,778,465,776,453,88720,0
patternCount-40,false,0.77,6043,619,6041,619,746905,0
patternCount-41,true,1.00,4323,590,4321,580,523104,0
patternCount-42,true,1.00,1504,521,1504,507,189537,0
patternCount-43,true,1.00,635,461,632,451,79078,0
patternCount-44,true,1.00,667,450,662,440,83008,0
patternCount-45,true,1.00,1131,517,1128,507,127929,0
patternCount-46,true,1.00,1791,502,1790,492,216739,0
patternCount-47,true,1.00,2439,526,2435,516,288477,0
patternCount-48,true,1.00,1194,491,1188,481,144817,0
patternCount-49,true,1.00,1337,575,1336,555,153286,0
patternCount-50,false,0.96,11200,779,11198,779,1247983,0
patternCount-51,true,1.00,727,454,724,444,87864,0
patternCount-52,true,1.00,1216,455,1216,445,141642,0
patternCount-53,false,0.74,4586,465,4586,465,508825,0
patternCount-54,true,1.00,2055,522,2051,512,247849,0
patternCount-55,false,0.54,2478,353,2477,353,265565,0
patternCount-56,true,1.00,1698,516,1697,506,201374,0
patternCount-57,true,1.00,839,474,833,464,98844,0
patternCount-58,true,1.00,731,514,725,504,108933,0
patternCount-59,true,1.00,1990,550,1987,540,239509,0
patternCount-60,true,1.00,1449,496,1446,485,160232,0
patternCount-61,true,1.00,1504,502,1503,491,168535,0
patternCount-62,true,1.00,1694,555,1691,538,203100,0
patternCount-63,true,1.00,628,466,627,456,86487,0
patternCount-64,true,1.00,812,447,811,437,114413,0
patternCount-65,true,1.00,1228,455,1227,444,149606,0
patternCount-66,true,1.00,1263,510,1257,500,163257,0
patternCount-67,true,1.00,1691,508,1686,496,198401,0
patternCount-68,true,1.00,593,455,589,445,72089,0
patternCount-69,true,1.00,1382,495,1380,485,171862,0
patternCount-70,true,1.00,712,423,710,413,99052,0
patternCount-71,true,1.00,1287,557,1284,547,164864,0
patternCount-72,false,0.82,7693,645,7691,645,879116,0
patternCount-73,true,1.00,1750,554,1747,544,202316,0
patternCount-74,false,0.53,23540,999,23538,999,2580039,0
patternCount-75,true,1.00,2028,514,2025,500,230586,0
patternCount-76,true,1.00,1228,468,1226,458,149744,0
patternCount-77,true,1.00,1856,482,1853,470,206522,0
patternCount-78,true,1.00,3468,648,3467,638,434564,0
patternCount-79,false,0.75,5274,520,5271,520,646098,0
patternCount-80,true,1.00,4923,666,4920,650,518251,0
patternCount-81,true,1.00,1093,511,1086,501,127894,0
patternCount-82,true,1.00,867,445,866,435,106871,0
patternCount-83,true,1.00,716,478,715,468,84973,0
patternCount-84,true,1.00,620,499,620,489,84786,0
patternCount-85,true,1.00,913,513,910,503,111358,0
patternCount-86,true,1.00,1043,504,1038,494,131008,0
patternCount-87,true,1.00,2415,557,2412,539,320465,0
patternCount-88,true,1.00,2031,522,2030,510,241194,0
patternCount-89,true,1.00,1637,551,1633,541,194929,0
patternCount-90,true,1.00,412,406,407,396,55476,0
patternCount-91,true,1.00,1334,533,1331,523,158439,0
patternCount-92,true,1.00,934,487,932,477,106738,0
patternCount-93,false,0.79,6556,588,6555,588,748880,0
patternCount-94,true,1.00,2771,535,2768,524,330741,0
patternCount-95,true,1.00,2323,534,2320,523,281811,0
patternCount-96,true,1.00,1262,555,1259,545,143991,0
patternCount-97,false,0.76,5151,476,5150,476,566813,0
patternCount-98,true,1.00,1757,555,1754,545,220215,0
patternCount-99,true,1.00,855,530,853,520,105128,0
patternCount-100,true,1.00,602,427,600,417,74932,0
