NDW:0.0
TTFW:2.0
DFPT:2.0
DFPAP:3.0
DFPMP:2.0
RIGHT_WINDOW_BORDER_X:95.0
level,win/fail,% travelled,run time,game ticks,planning time,total plannings,nodes evaluated,most backtracked nodes
Mario-1,true,1.00,401,422,387,409,19216,0
Mario-2,true,1.00,1301,379,1293,364,65531,0
Mario-3,true,1.00,2336,337,2324,324,120339,0
Mario-4,true,1.00,1832,484,1813,475,85657,0
Mario-5,true,1.00,1607,443,1592,434,77866,0
Mario-6,true,1.00,3572,430,3566,421,185663,0
Mario-7,true,1.00,765,458,748,445,34310,0
Mario-8,true,1.00,2751,542,2729,532,126740,0
Mario-9,true,1.00,1301,439,1287,429,65963,0
Mario-10,true,1.00,3522,430,3510,417,176651,0
Mario-11,true,1.00,932,457,917,441,48044,0
Mario-12,true,1.00,1550,699,1525,686,70090,0
Mario-13,true,1.00,2830,436,2819,423,147271,0
Mario-14,true,1.00,256,399,243,386,11921,0
Mario-15,true,1.00,3175,914,3143,901,147628,0
