NDW:0.0
TTFW:0.2
DFPT:2.0
DFPAP:3.0
DFPMP:2.0
RIGHT_WINDOW_BORDER_X:176.0
level,win/fail,% travelled,run time,game ticks,planning time,total plannings,nodes evaluated,most backtracked nodes
ge-1,true,1.00,1593,258,1592,235,138965,0
ge-2,true,1.00,1243,249,1242,233,106615,0
ge-3,true,1.00,1092,216,1090,200,88187,0
ge-4,true,1.00,1582,235,1578,219,145805,0
ge-5,true,1.00,594,199,593,183,53997,0
ge-6,true,1.00,1585,279,1581,259,123460,0
ge-7,true,1.00,543,205,542,189,48904,0
ge-8,true,1.00,944,229,941,213,80864,0
ge-9,true,1.00,958,218,958,202,87928,0
ge-10,true,1.00,532,199,530,183,47369,0
ge-11,true,1.00,722,201,721,185,69528,0
ge-12,true,1.00,538,199,538,183,49839,0
ge-13,true,1.00,983,230,983,214,84081,0
ge-14,true,1.00,735,215,734,189,64703,0
ge-15,true,1.00,935,217,935,201,87122,0
ge-16,true,1.00,2628,319,2627,303,212436,0
ge-17,true,1.00,790,211,789,195,72089,0
ge-18,true,1.00,1737,270,1735,254,154665,0
ge-19,true,1.00,924,222,921,206,84280,0
ge-20,true,1.00,791,199,788,183,74064,0
ge-21,true,1.00,794,199,791,183,69220,0
ge-22,true,1.00,917,216,914,199,77600,0
ge-23,true,1.00,1185,210,1183,192,111243,0
ge-24,true,1.00,745,208,744,192,67631,0
ge-25,true,1.00,802,203,801,187,76590,0
ge-26,true,1.00,732,199,730,183,72007,0
ge-27,true,1.00,744,213,743,197,64467,0
ge-28,true,1.00,1114,217,1113,201,102205,0
ge-29,true,1.00,697,199,696,183,66520,0
ge-30,true,1.00,1719,257,1717,238,161217,0
ge-31,true,1.00,1659,239,1655,223,144016,0
ge-32,true,1.00,831,216,830,200,71524,0
ge-33,true,1.00,597,209,597,183,54822,0
ge-34,true,1.00,1033,207,1029,191,99763,0
ge-35,true,1.00,1480,241,1480,225,120643,0
ge-36,true,1.00,2016,271,2015,255,180983,0
ge-37,true,1.00,673,200,672,184,65483,0
ge-38,true,1.00,2112,248,2112,232,181896,0
ge-39,true,1.00,1042,218,1038,201,97587,0
ge-40,true,1.00,614,203,612,187,61271,0
ge-41,true,1.00,827,207,826,191,76338,0
ge-42,true,1.00,1160,233,1157,217,102124,0
ge-43,true,1.00,1152,226,1151,210,99580,0
ge-44,true,1.00,1214,222,1212,206,108639,0
ge-45,true,1.00,1135,219,1132,203,95412,0
ge-46,true,1.00,1103,224,1103,207,98330,0
ge-47,true,1.00,1104,213,1104,197,103521,0
ge-48,true,1.00,808,217,808,201,70344,0
ge-49,true,1.00,654,202,654,186,62255,0
ge-50,true,1.00,1169,217,1167,201,99303,0
ge-51,true,1.00,586,206,584,190,51429,0
ge-52,true,1.00,1134,236,1133,220,91924,0
ge-53,true,1.00,875,213,870,197,79472,0
ge-54,true,1.00,1147,223,1145,206,96364,0
ge-55,true,1.00,952,221,951,205,86381,0
ge-56,true,1.00,1056,230,1054,205,95981,0
ge-57,true,1.00,1598,232,1598,216,141980,0
ge-58,true,1.00,1103,256,1099,236,86939,0
ge-59,true,1.00,1513,229,1511,213,140310,0
ge-60,true,1.00,1228,213,1228,197,107747,0
ge-61,true,1.00,734,203,733,187,69904,0
ge-62,true,1.00,1159,217,1157,201,107421,0
ge-63,true,1.00,1925,250,1924,233,160806,0
ge-64,true,1.00,1038,219,1036,203,88660,0
ge-65,true,1.00,921,216,919,200,86626,0
ge-66,true,1.00,1070,212,1067,195,100827,0
ge-67,true,1.00,1024,234,1020,218,86370,0
ge-68,true,1.00,565,211,565,195,52295,0
ge-69,true,1.00,699,203,698,187,65922,0
ge-70,true,1.00,733,199,731,183,70589,0
ge-71,true,1.00,1276,225,1276,209,121569,0
ge-72,true,1.00,1038,226,1038,210,87960,0
ge-73,true,1.00,974,206,971,188,95454,0
ge-74,true,1.00,1079,219,1078,203,97880,0
ge-75,true,1.00,775,212,773,190,70626,0
ge-76,true,1.00,1158,217,1155,201,106307,0
ge-77,true,1.00,1813,238,1810,222,162978,0
ge-78,true,1.00,1364,234,1362,216,119227,0
ge-79,true,1.00,616,202,614,185,57297,0
ge-80,true,1.00,870,216,868,199,74073,0
ge-81,true,1.00,586,199,586,183,52394,0
ge-82,true,1.00,1389,255,1388,221,106191,0
ge-83,true,1.00,1280,236,1280,215,121408,0
ge-84,true,1.00,1097,207,1097,191,104093,0
ge-85,true,1.00,835,205,835,189,78775,0
ge-86,true,1.00,1297,214,1296,197,119355,0
ge-87,true,1.00,989,213,988,197,92620,0
ge-88,true,1.00,1478,248,1477,228,125597,0
ge-89,true,1.00,1521,265,1518,248,119403,0
ge-90,true,1.00,597,199,596,183,57655,0
ge-91,true,1.00,751,202,749,186,71691,0
ge-92,true,1.00,578,199,578,183,55143,0
ge-93,true,1.00,1029,211,1027,195,96571,0
ge-94,true,1.00,946,213,945,197,83456,0
ge-95,true,1.00,1154,233,1150,217,92287,0
ge-96,true,1.00,1026,219,1025,203,91132,0
ge-97,true,1.00,1367,242,1365,226,115497,0
ge-98,true,1.00,596,199,593,183,58703,0
ge-99,true,1.00,757,199,755,183,73770,0
ge-100,true,1.00,949,209,947,193,87401,0
