NDW:0.0
TTFW:1.2
DFPT:2.0
DFPAP:3.0
DFPMP:20.0
RIGHT_WINDOW_BORDER_X:55.0
level,win/fail,% travelled,run time,game ticks,planning time,total plannings,nodes evaluated,most backtracked nodes
ge-1,false,0.21,1361,161,1361,161,127604,0
ge-2,false,0.78,3840,533,3839,533,370950,0
ge-3,true,1.00,1795,473,1788,466,172908,0
ge-4,false,0.37,3426,316,3425,316,345992,0
ge-5,true,1.00,34,368,31,360,7597,0
ge-6,false,0.54,2438,325,2437,325,230039,0
ge-7,true,1.00,1001,449,999,439,101324,0
ge-8,true,1.00,1487,435,1486,428,142036,0
ge-9,true,1.00,3067,529,3064,522,317038,0
ge-10,true,1.00,32,365,31,359,7027,0
ge-11,true,1.00,1446,437,1445,431,145921,0
ge-12,true,1.00,33,376,30,369,7433,0
ge-13,true,1.00,2001,519,1998,512,191804,0
ge-14,false,0.22,1067,134,1065,134,96972,0
ge-15,false,0.37,1421,201,1420,201,144225,0
ge-16,false,0.07,164,70,164,70,19637,0
ge-17,true,1.00,2553,559,2553,553,271315,0
ge-18,false,0.08,29789,999,29782,999,3012993,0
ge-19,false,0.46,2509,379,2508,379,241367,0
ge-20,false,0.50,2565,344,2563,344,236249,0
ge-21,true,1.00,4392,434,4392,429,399179,0
ge-22,false,0.70,648,272,648,272,61637,0
ge-23,false,0.76,3239,441,3236,441,323611,0
ge-24,false,0.70,3131,402,3130,402,300636,0
ge-25,false,0.63,2532,346,2529,346,245071,0
ge-26,false,0.49,1274,251,1273,251,130380,0
ge-27,true,1.00,33,370,31,365,7264,0
ge-28,false,0.36,1995,238,1994,238,188825,0
ge-29,false,0.38,3073,260,3072,260,288580,0
ge-30,false,0.36,5477,377,5477,377,564921,0
ge-31,false,0.24,2058,187,2058,187,199993,0
ge-32,true,1.00,341,423,338,417,37285,0
ge-33,true,1.00,636,442,634,430,66340,0
ge-34,false,0.13,1140,134,1140,134,114989,0
ge-35,true,1.00,2444,592,2439,585,230109,0
ge-36,false,0.43,3574,380,3574,380,360132,0
ge-37,false,0.90,1747,433,1746,433,163308,0
ge-38,false,0.54,2404,355,2402,355,260221,0
ge-39,false,0.20,2295,177,2291,177,229230,0
ge-40,true,1.00,35,363,34,357,8232,0
ge-41,true,1.00,1378,440,1374,432,136923,0
ge-42,false,0.19,1295,141,1293,141,126967,0
ge-43,true,1.00,1848,557,1842,547,184238,0
ge-44,false,0.70,3923,437,3921,437,370529,0
ge-45,false,0.55,5155,410,5154,410,487647,0
ge-46,false,0.31,1663,222,1663,222,152506,0
ge-47,false,0.51,3820,382,3819,382,383824,0
ge-48,false,0.63,2806,445,2803,445,276133,0
ge-49,true,1.00,739,388,737,383,72812,0
ge-50,false,0.34,2390,236,2389,236,224277,0
ge-51,true,1.00,797,428,795,420,79390,0
ge-52,false,0.27,2160,235,2159,235,211546,0
ge-53,false,0.21,1723,161,1722,161,159228,0
ge-54,false,0.90,2477,499,2474,499,254061,0
ge-55,true,1.00,1230,426,1226,421,120870,0
ge-56,false,0.73,1923,273,1921,273,190628,0
ge-57,false,0.53,2698,369,2697,369,253202,0
ge-58,true,1.00,461,524,458,514,49903,0
ge-59,false,0.39,3540,294,3538,294,355460,0
ge-60,false,0.22,1261,135,1259,135,117156,0
ge-61,false,0.80,1019,362,1018,362,98738,0
ge-62,false,0.28,1633,179,1632,179,163508,0
ge-63,false,0.21,1890,171,1889,171,190588,0
ge-64,false,0.71,1860,372,1856,372,182834,0
ge-65,false,0.66,3180,408,3180,408,309883,0
ge-66,false,0.25,2618,217,2618,217,254806,0
ge-67,true,1.00,1447,483,1444,476,138525,0
ge-68,true,1.00,1419,363,1418,358,125673,0
ge-69,true,1.00,2449,482,2449,475,232972,0
ge-70,false,0.85,3928,507,3925,507,380846,0
ge-71,false,0.29,2499,261,2497,261,259232,0
ge-72,true,1.00,327,463,326,456,36820,0
ge-73,false,0.97,2956,464,2954,464,287624,0
ge-74,false,0.45,2263,301,2263,301,225392,0
ge-75,true,1.00,2759,468,2757,461,264632,0
ge-76,false,0.59,4909,395,4908,395,476585,0
ge-77,false,0.11,1529,159,1529,159,157268,0
ge-78,false,0.55,2071,317,2070,317,198018,0
ge-79,true,1.00,1292,454,1291,448,122126,0
ge-80,true,1.00,50,395,46,388,9358,0
ge-81,true,1.00,46,402,46,395,9080,0
ge-82,true,1.00,60,433,57,426,11166,0
ge-83,false,0.09,1129,113,1128,113,132298,0
ge-84,false,0.10,447,72,447,72,45792,0
ge-85,false,0.40,478,189,478,189,52855,0
ge-86,false,0.80,2505,418,2503,418,237146,0
ge-87,false,0.61,1810,352,1810,352,180438,0
ge-88,false,0.18,2132,165,2131,165,214723,0
ge-89,true,1.00,144,426,141,419,18299,0
ge-90,true,1.00,34,365,32,358,8049,0
ge-91,false,0.87,1932,338,1928,338,181640,0
ge-92,true,1.00,33,371,32,364,7616,0
ge-93,false,0.39,1233,191,1232,191,113647,0
ge-94,false,0.75,1842,390,1841,390,177488,0
ge-95,true,1.00,49,428,49,422,9730,0
ge-96,false,0.32,1335,200,1334,200,131744,0
ge-97,false,0.61,1424,356,1423,356,145564,0
ge-98,true,1.00,34,363,31,357,7645,0
ge-99,true,1.00,1630,433,1629,427,145838,0
ge-100,false,0.12,1961,152,1961,152,192591,0
