NDW:0.0
TTFW:0.2
DFPT:2.0
DFPAP:3.0
DFPMP:5.0
RIGHT_WINDOW_BORDER_X:115.0
level,win/fail,% travelled,run time,game ticks,planning time,total plannings,nodes evaluated,most backtracked nodes
ore-1,true,1.00,3473,482,3470,467,350541,0
ore-2,true,1.00,3482,490,3478,477,338938,0
ore-3,true,1.00,2436,504,2432,493,245356,0
ore-4,true,1.00,3570,493,3567,482,343229,0
ore-5,true,1.00,3362,502,3360,491,328998,0
ore-6,true,1.00,4511,572,4509,561,430006,0
ore-7,true,1.00,2468,451,2466,441,245330,0
ore-8,false,0.66,3878,393,3876,393,366057,0
ore-9,true,1.00,2324,437,2322,427,227754,0
ore-10,true,1.00,3884,527,3882,516,404977,0
ore-11,true,1.00,1984,423,1981,412,203180,0
ore-12,false,0.45,4934,335,4932,335,444014,0
ore-13,true,1.00,2386,448,2384,436,234412,0
ore-14,true,1.00,2853,515,2846,498,287540,0
ore-15,true,1.00,4882,518,4878,507,454714,0
ore-16,true,1.00,2602,483,2601,472,270789,0
ore-17,true,1.00,3629,520,3627,507,362989,0
ore-18,true,1.00,2114,448,2111,435,210496,0
ore-19,true,1.00,2643,459,2642,448,262109,0
ore-20,true,1.00,3469,505,3464,494,336465,0
ore-21,true,1.00,6731,657,6728,645,651965,0
ore-22,false,0.58,4624,374,4623,374,418218,0
ore-23,false,0.81,3452,467,3444,467,331413,0
ore-24,true,1.00,2530,467,2530,455,262444,0
ore-25,true,1.00,4098,543,4096,531,414631,0
ore-26,true,1.00,3634,521,3631,511,346336,0
ore-27,false,0.24,3649,218,3648,218,300888,0
ore-28,true,1.00,2555,514,2550,503,248242,0
ore-29,true,1.00,4279,520,4274,509,418878,0
ore-30,true,1.00,1648,407,1645,396,159488,0
ore-31,true,1.00,4366,552,4361,541,407013,0
ore-32,true,1.00,2755,515,2750,504,257681,0
ore-33,false,0.81,2050,434,2044,434,204477,0
ore-34,true,1.00,3276,554,3272,540,318859,0
ore-35,true,1.00,5105,597,5102,586,526984,0
ore-36,true,1.00,2148,480,2143,469,218096,0
ore-37,false,0.33,3826,265,3825,265,302868,0
ore-38,true,1.00,4147,560,4147,549,393574,0
ore-39,true,1.00,2779,467,2777,456,280319,0
ore-40,true,1.00,4205,604,4201,591,402787,0
ore-41,true,1.00,4166,577,4162,566,394498,0
ore-42,true,1.00,3028,531,3024,520,272916,0
ore-43,true,1.00,2808,518,2806,507,273157,0
ore-44,true,1.00,5075,667,5072,655,509042,0
ore-45,false,0.74,21129,999,21123,999,1402751,0
ore-46,false,0.11,5089,203,5088,203,453823,0
ore-47,false,0.84,7267,618,7265,618,645805,0
ore-48,true,1.00,1722,443,1720,432,176818,0
ore-49,true,1.00,2731,513,2728,497,264452,0
ore-50,true,1.00,2982,475,2975,463,299276,0
ore-51,true,1.00,4027,540,4023,530,414320,0
ore-52,true,1.00,2525,446,2523,436,248404,0
ore-53,true,1.00,4425,546,4424,532,415942,0
ore-54,true,1.00,2896,563,2891,552,284543,0
ore-55,true,1.00,2265,436,2264,426,247613,0
ore-56,true,1.00,2441,535,2439,524,242206,0
ore-57,true,1.00,5358,620,5356,608,507717,0
ore-58,true,1.00,2713,490,2709,479,268217,0
ore-59,true,1.00,3548,468,3546,457,357103,0
ore-60,true,1.00,4300,545,4296,533,410285,0
ore-61,true,1.00,4064,533,4060,520,375714,0
ore-62,true,1.00,2372,454,2370,443,239662,0
ore-63,true,1.00,3039,522,3039,512,268781,0
ore-64,true,1.00,2614,464,2608,453,262933,0
ore-65,true,1.00,3657,508,3656,498,370281,0
ore-66,true,1.00,3399,456,3397,444,330296,0
ore-67,true,1.00,2262,487,2260,476,216109,0
ore-68,true,1.00,1869,408,1869,397,190973,0
ore-69,true,1.00,4696,561,4692,551,448311,0
ore-70,false,0.93,6521,607,6518,607,618655,0
ore-71,true,1.00,3322,538,3317,528,319804,0
ore-72,true,1.00,3189,514,3186,503,309379,0
ore-73,true,1.00,1835,423,1832,410,193748,0
ore-74,false,0.16,1908,175,1907,175,159564,0
ore-75,true,1.00,3996,549,3992,539,388082,0
ore-76,true,1.00,3821,498,3819,486,387219,0
ore-77,true,1.00,2892,474,2890,462,286195,0
ore-78,true,1.00,4221,546,4220,536,423491,0
ore-79,true,1.00,2424,488,2419,478,237995,0
ore-80,true,1.00,3364,553,3360,541,328233,0
ore-81,false,0.60,2223,345,2220,345,222732,0
ore-82,true,1.00,4364,555,4359,544,414687,0
ore-83,true,1.00,5140,584,5139,573,496059,0
ore-84,true,1.00,4741,533,4738,522,441479,0
ore-85,true,1.00,2561,511,2559,497,244313,0
ore-86,false,0.44,645,202,643,202,68126,0
ore-87,true,1.00,1816,464,1810,453,179375,0
ore-88,true,1.00,2956,480,2953,469,291309,0
ore-89,true,1.00,5636,589,5632,578,552534,0
ore-90,true,1.00,4143,553,4141,543,407047,0
ore-91,true,1.00,3581,536,3577,522,333148,0
ore-92,true,1.00,3021,498,3018,487,293811,0
ore-93,false,0.13,2516,117,2515,117,207422,0
ore-94,true,1.00,3433,502,3431,491,328342,0
ore-95,true,1.00,2565,461,2561,451,249067,0
ore-96,true,1.00,4184,641,4180,630,398723,0
ore-97,true,1.00,4041,536,4035,525,385161,0
ore-98,true,1.00,2935,446,2934,435,293019,0
ore-99,true,1.00,2448,469,2447,447,243484,0
ore-100,true,1.00,2531,480,2526,469,270321,0
