NDW:0.0
TTFW:0.2
DFPT:2.0
DFPAP:3.0
DFPMP:50.0
RIGHT_WINDOW_BORDER_X:215.0
level,win/fail,% travelled,run time,game ticks,planning time,total plannings,nodes evaluated,most backtracked nodes
ge-1,true,1.00,1646,234,1645,203,110651,0
ge-2,true,1.00,1175,217,1175,198,78672,0
ge-3,true,1.00,884,206,884,186,57782,0
ge-4,true,1.00,1588,215,1586,195,115543,0
ge-5,true,1.00,673,203,670,184,41867,0
ge-6,true,1.00,2413,257,2412,234,149485,0
ge-7,true,1.00,789,201,786,182,50093,0
ge-8,true,1.00,918,212,917,192,62155,0
ge-9,true,1.00,830,203,830,184,59619,0
ge-10,true,1.00,581,199,581,180,34620,0
ge-11,true,1.00,937,209,936,190,63421,0
ge-12,true,1.00,688,206,688,186,43363,0
ge-13,true,1.00,1372,223,1371,204,90573,0
ge-14,true,1.00,931,210,931,190,61411,0
ge-15,true,1.00,1211,223,1205,204,85436,0
ge-16,true,1.00,3057,265,3056,246,187428,0
ge-17,true,1.00,818,203,817,184,56024,0
ge-18,true,1.00,1527,220,1526,201,98707,0
ge-19,true,1.00,1309,216,1308,196,90095,0
ge-20,true,1.00,1064,208,1062,188,71066,0
ge-21,true,1.00,798,203,796,184,53186,0
ge-22,true,1.00,915,203,913,184,60201,0
ge-23,true,1.00,1173,206,1173,186,84198,0
ge-24,true,1.00,947,208,945,188,67259,0
ge-25,true,1.00,823,204,819,184,58485,0
ge-26,true,1.00,806,203,805,184,55594,0
ge-27,true,1.00,1028,215,1025,196,64632,0
ge-28,true,1.00,1100,207,1099,188,78704,0
ge-29,true,1.00,878,211,877,186,60077,0
ge-30,true,1.00,1588,219,1586,200,109552,0
ge-31,true,1.00,1787,224,1785,205,123767,0
ge-32,true,1.00,1167,214,1164,195,72354,0
ge-33,true,1.00,831,219,827,190,53057,0
ge-34,true,1.00,1242,205,1240,186,94621,0
ge-35,true,1.00,2276,245,2273,225,139066,0
ge-36,false,1.00,1087,207,1086,183,80566,0
ge-37,true,1.00,782,204,780,184,55016,0
ge-38,true,1.00,1505,224,1505,204,103139,0
ge-39,true,1.00,1372,215,1372,195,92465,0
ge-40,true,1.00,774,204,772,184,51649,0
ge-41,true,1.00,806,204,804,184,52936,0
ge-42,true,1.00,1617,225,1615,206,110948,0
ge-43,true,1.00,1944,226,1944,207,127082,0
ge-44,true,1.00,1454,220,1452,201,100520,0
ge-45,true,1.00,1501,225,1500,206,98097,0
ge-46,true,1.00,1202,215,1198,196,82759,0
ge-47,true,1.00,1032,205,1030,186,73817,0
ge-48,true,1.00,1414,225,1412,206,88794,0
ge-49,true,1.00,789,204,786,184,51980,0
ge-50,true,1.00,1240,216,1238,196,85811,0
ge-51,true,1.00,1159,227,1156,207,73599,0
ge-52,true,1.00,1519,229,1514,209,100204,0
ge-53,true,1.00,1482,225,1482,206,95201,0
ge-54,true,1.00,1441,223,1440,203,88789,0
ge-55,true,1.00,1363,218,1361,199,93256,0
ge-56,true,1.00,1072,208,1069,183,77149,0
ge-57,true,1.00,1231,199,1228,180,87585,0
ge-58,true,1.00,1163,222,1163,203,70727,0
ge-59,true,1.00,1395,213,1393,194,102860,0
ge-60,true,1.00,1054,205,1054,185,72657,0
ge-61,true,1.00,953,209,952,190,65528,0
ge-62,true,1.00,1124,210,1119,190,78866,0
ge-63,true,1.00,1423,212,1423,192,98458,0
ge-64,false,1.00,1141,213,1140,194,72935,0
ge-65,true,1.00,1178,201,1177,182,83955,0
ge-66,true,1.00,1027,203,1025,184,74590,0
ge-67,true,1.00,1578,227,1572,208,97394,0
ge-68,true,1.00,1249,225,1248,206,76097,0
ge-69,true,1.00,783,199,781,180,52965,0
ge-70,true,1.00,986,208,984,188,68535,0
ge-71,true,1.00,1503,223,1502,204,107024,0
ge-72,true,1.00,1506,226,1506,207,98574,0
ge-73,true,1.00,970,203,969,184,68490,0
ge-74,true,1.00,1066,203,1065,184,77969,0
ge-75,true,1.00,1432,228,1430,196,92835,0
ge-76,true,1.00,1556,218,1555,198,114459,0
ge-77,true,1.00,2104,225,2103,206,158287,0
ge-78,true,1.00,1690,222,1690,203,114747,0
ge-79,true,1.00,916,205,915,186,61400,0
ge-80,true,1.00,1257,220,1253,198,76694,0
ge-81,true,1.00,915,209,915,190,57751,0
ge-82,true,1.00,1479,233,1478,196,92243,0
ge-83,true,1.00,1847,250,1845,218,123554,0
ge-84,true,1.00,1174,201,1174,182,90502,0
ge-85,true,1.00,1048,208,1046,188,71762,0
ge-86,true,1.00,1199,207,1196,187,87400,0
ge-87,true,1.00,1453,221,1453,202,100684,0
ge-88,true,1.00,2013,238,2013,218,127021,0
ge-89,true,1.00,1503,223,1502,204,98770,0
ge-90,true,1.00,698,204,697,184,46026,0
ge-91,true,1.00,870,207,868,188,61920,0
ge-92,true,1.00,633,203,632,184,41143,0
ge-93,true,1.00,998,203,996,184,72103,0
ge-94,true,1.00,988,207,988,187,65930,0
ge-95,true,1.00,2118,248,2117,228,130428,0
ge-96,true,1.00,1036,200,1036,181,73545,0
ge-97,true,1.00,1904,233,1902,214,120327,0
ge-98,true,1.00,721,204,720,184,47741,0
ge-99,true,1.00,833,204,833,184,55232,0
ge-100,true,1.00,1003,203,1001,184,67232,0
