NDW:0.0
TTFW:1.8
DFPT:2.0
DFPAP:3.0
DFPMP:10.0
RIGHT_WINDOW_BORDER_X:400.0
level,win/fail,% travelled,run time,game ticks,planning time,total plannings,nodes evaluated,most backtracked nodes
patternCount-1,false,0.88,7950,546,7938,546,340879,0
patternCount-2,true,1.00,1637,469,1625,433,72538,0
patternCount-3,true,1.00,3330,462,3315,406,143545,0
patternCount-4,true,1.00,1708,472,1694,428,74650,0
patternCount-5,true,1.00,1482,460,1464,403,63151,0
patternCount-6,true,1.00,650,393,627,348,25097,0
patternCount-7,true,1.00,1752,462,1737,418,74182,0
patternCount-8,true,1.00,3334,497,3315,425,152153,0
patternCount-9,true,1.00,1783,475,1758,429,64146,0
patternCount-10,true,1.00,1031,373,1004,330,21701,0
patternCount-11,true,1.00,4516,558,4504,497,200180,0
patternCount-12,true,1.00,1247,433,1234,383,53862,0
patternCount-13,true,1.00,1277,449,1262,404,55458,0
patternCount-14,true,1.00,1330,410,1312,361,58411,0
patternCount-15,true,1.00,1595,471,1586,435,69361,0
patternCount-16,true,1.00,1575,404,1559,368,63709,0
patternCount-17,true,1.00,1650,564,1632,528,71554,0
patternCount-18,true,1.00,1808,490,1795,454,81233,0
patternCount-19,true,1.00,1435,411,1413,375,49915,0
patternCount-20,true,1.00,2188,470,2153,421,47882,0
patternCount-21,true,1.00,2158,468,2133,432,70466,0
patternCount-22,true,1.00,3513,533,3485,472,142196,0
patternCount-23,true,1.00,4690,501,4677,437,231142,0
patternCount-24,true,1.00,6245,502,6236,456,327522,0
patternCount-25,true,1.00,1676,447,1656,411,78411,0
patternCount-26,true,1.00,1047,433,1035,397,48348,0
patternCount-27,true,1.00,1472,448,1458,412,67541,0
patternCount-28,true,1.00,1815,478,1800,442,89207,0
patternCount-29,true,1.00,1307,447,1302,403,61161,0
patternCount-30,true,1.00,1400,475,1387,430,66136,0
patternCount-31,true,1.00,1943,501,1926,465,91206,0
patternCount-32,true,1.00,2049,498,2038,457,98538,0
patternCount-33,true,1.00,4843,569,4831,510,244857,0
patternCount-34,true,1.00,2888,519,2876,464,143227,0
patternCount-35,true,1.00,1744,492,1732,456,84937,0
patternCount-36,true,1.00,2958,491,2944,424,150005,0
patternCount-37,true,1.00,1233,410,1225,374,59062,0
patternCount-38,true,1.00,2816,476,2798,426,142741,0
patternCount-39,true,1.00,1189,436,1177,395,57992,0
patternCount-40,true,1.00,4816,532,4802,441,250083,0
patternCount-41,true,1.00,2586,530,2567,494,134084,0
patternCount-42,true,1.00,1296,460,1281,424,61619,0
patternCount-43,true,1.00,1097,474,1083,438,51022,0
patternCount-44,true,1.00,1231,441,1222,396,57501,0
patternCount-45,true,1.00,1752,461,1740,414,73916,0
patternCount-46,true,1.00,1917,477,1899,432,93447,0
patternCount-47,true,1.00,2127,482,2108,445,100911,0
patternCount-48,true,1.00,1082,421,1069,384,49244,0
patternCount-49,true,1.00,1764,470,1753,432,83941,0
patternCount-50,true,1.00,5229,543,5209,491,266917,0
patternCount-51,true,1.00,1335,424,1319,378,59671,0
patternCount-52,true,1.00,1092,463,1078,427,50135,0
patternCount-53,true,1.00,3935,469,3924,422,195156,0
patternCount-54,true,1.00,2224,549,2208,503,106903,0
patternCount-55,true,1.00,6613,506,6603,444,305734,0
patternCount-56,true,1.00,1653,459,1635,423,74965,0
patternCount-57,true,1.00,1204,464,1190,415,54305,0
patternCount-58,false,0.80,5459,458,5446,458,238063,0
patternCount-59,true,1.00,1654,491,1640,446,77822,0
patternCount-60,true,1.00,1843,486,1826,447,88580,0
patternCount-61,true,1.00,1313,494,1304,433,59035,0
patternCount-62,true,1.00,1658,495,1640,442,79736,0
patternCount-63,true,1.00,1320,472,1305,435,63053,0
patternCount-64,true,1.00,1201,419,1186,372,55407,0
patternCount-65,true,1.00,1079,430,1063,378,50266,0
patternCount-66,true,1.00,1891,504,1878,459,92591,0
patternCount-67,true,1.00,1795,507,1785,458,86324,0
patternCount-68,true,1.00,1138,429,1126,393,50213,0
patternCount-69,true,1.00,1367,466,1349,415,65266,0
patternCount-70,true,1.00,964,433,951,397,42577,0
patternCount-71,true,1.00,1582,491,1565,454,74967,0
patternCount-72,true,1.00,5501,511,5485,463,259742,0
patternCount-73,true,1.00,2238,493,2224,447,110155,0
patternCount-74,true,1.00,5206,456,5200,398,251161,0
patternCount-75,true,1.00,1457,428,1447,379,66355,0
patternCount-76,true,1.00,1658,474,1644,438,80606,0
patternCount-77,true,1.00,1641,416,1628,360,72215,0
patternCount-78,true,1.00,2112,516,2097,479,100929,0
patternCount-79,true,1.00,5604,557,5592,514,278041,0
patternCount-80,true,1.00,3332,520,3315,451,168002,0
patternCount-81,true,1.00,1375,498,1364,454,61412,0
patternCount-82,true,1.00,1615,458,1598,422,75542,0
patternCount-83,true,1.00,1243,430,1235,394,58094,0
patternCount-84,true,1.00,1429,438,1415,402,61582,0
patternCount-85,true,1.00,960,473,947,437,42417,0
patternCount-86,true,1.00,1248,408,1239,372,60811,0
patternCount-87,true,1.00,1814,521,1807,477,86517,0
patternCount-88,true,1.00,1558,476,1545,420,76254,0
patternCount-89,true,1.00,1051,447,1045,401,51606,0
patternCount-90,true,1.00,1055,451,1038,415,49738,0
patternCount-91,true,1.00,1898,508,1884,470,92696,0
patternCount-92,true,1.00,1094,443,1082,407,52054,0
patternCount-93,true,1.00,6206,480,6199,431,315559,0
patternCount-94,true,1.00,1264,464,1253,412,61637,0
patternCount-95,true,1.00,1873,472,1866,436,96652,0
patternCount-96,true,1.00,1331,464,1317,424,66189,0
patternCount-97,false,0.88,4849,410,4838,410,239990,0
patternCount-98,true,1.00,1734,545,1718,492,87966,0
patternCount-99,true,1.00,1191,481,1177,434,57279,0
patternCount-100,true,1.00,1603,448,1587,412,60947,0
