NDW:0.0
TTFW:2.0
DFPT:2.0
DFPAP:3.0
DFPMP:5.0
RIGHT_WINDOW_BORDER_X:295.0
level,win/fail,% travelled,run time,game ticks,planning time,total plannings,nodes evaluated,most backtracked nodes
notch-1,true,1.00,894,263,884,236,49702,0
notch-2,true,1.00,1187,286,1178,259,67751,0
notch-3,true,1.00,1012,267,1004,240,57152,0
notch-4,true,1.00,942,258,939,231,53440,0
notch-5,true,1.00,853,250,847,224,47553,0
notch-6,true,1.00,913,299,904,271,50641,0
notch-7,true,1.00,1042,312,1031,275,58356,0
notch-8,true,1.00,1142,301,1134,258,64555,0
notch-9,true,1.00,1052,256,1045,230,57949,0
notch-10,true,1.00,1039,304,1032,277,58297,0
notch-11,true,1.00,902,264,896,237,50273,0
notch-12,true,1.00,701,262,685,235,38069,0
notch-13,true,1.00,778,259,771,233,43551,0
notch-14,true,1.00,939,261,936,230,52965,0
notch-15,true,1.00,691,269,683,242,37538,0
notch-16,true,1.00,974,294,969,255,54234,0
notch-17,true,1.00,892,294,885,262,49678,0
notch-18,true,1.00,1257,333,1248,286,69989,0
notch-19,true,1.00,920,253,911,219,53369,0
notch-20,true,1.00,856,289,853,262,47578,0
notch-21,true,1.00,1024,309,1020,282,58263,0
notch-22,true,1.00,635,260,630,233,34485,0
notch-23,true,1.00,1110,272,1105,240,62945,0
notch-24,true,1.00,847,290,840,263,46890,0
notch-25,true,1.00,1322,290,1316,263,75947,0
notch-26,true,1.00,904,273,896,246,51899,0
notch-27,true,1.00,1179,297,1177,268,67649,0
notch-28,true,1.00,828,256,821,214,47326,0
notch-29,true,1.00,1001,283,995,251,55811,0
notch-30,true,1.00,795,246,792,209,44374,0
notch-31,true,1.00,814,283,808,254,42810,0
notch-32,true,1.00,903,280,895,239,49747,0
notch-33,true,1.00,700,235,696,208,39238,0
notch-34,true,1.00,698,259,690,233,39785,0
notch-35,true,1.00,679,298,672,270,37501,0
notch-36,true,1.00,1116,305,1109,268,62044,0
notch-37,true,1.00,1310,274,1303,242,74746,0
notch-38,true,1.00,1242,321,1235,254,69469,0
notch-39,true,1.00,644,228,640,202,35428,0
notch-40,true,1.00,1157,267,1155,237,66300,0
notch-41,true,1.00,1246,286,1240,260,70045,0
notch-42,true,1.00,853,264,843,226,47896,0
notch-43,true,1.00,731,261,725,234,40646,0
notch-44,true,1.00,767,242,761,216,42276,0
notch-45,true,1.00,670,244,656,217,37572,0
notch-46,true,1.00,765,257,759,231,42532,0
notch-47,true,1.00,1828,318,1821,289,104891,0
notch-48,true,1.00,1250,259,1247,231,71610,0
notch-49,true,1.00,918,272,911,245,51486,0
notch-50,true,1.00,948,294,943,254,52945,0
notch-51,true,1.00,708,243,702,216,39569,0
notch-52,true,1.00,807,272,801,244,44561,0
notch-53,true,1.00,330,290,323,223,16242,0
notch-54,true,1.00,1139,306,1135,272,64349,0
notch-55,true,1.00,1204,288,1196,260,68033,0
notch-56,true,1.00,642,281,632,254,35366,0
notch-57,true,1.00,826,284,820,255,45563,0
notch-58,true,1.00,1113,301,1107,275,62057,0
notch-59,true,1.00,854,268,852,241,47093,0
notch-60,true,1.00,992,269,990,243,56045,0
notch-61,true,1.00,1185,252,1178,225,65997,0
notch-62,true,1.00,767,313,754,287,41387,0
notch-63,true,1.00,949,292,937,265,53188,0
notch-64,true,1.00,993,268,986,239,55685,0
notch-65,true,1.00,1246,318,1236,276,70757,0
notch-66,true,1.00,1093,294,1086,250,60499,0
notch-67,true,1.00,1195,264,1184,232,66775,0
notch-68,true,1.00,600,240,599,214,32913,0
notch-69,true,1.00,1664,297,1657,270,95197,0
notch-70,true,1.00,1093,311,1087,269,60478,0
notch-71,true,1.00,958,249,954,222,53762,0
notch-72,true,1.00,825,245,819,218,44360,0
notch-73,true,1.00,866,286,858,257,48422,0
notch-74,true,1.00,582,266,569,228,32076,0
notch-75,true,1.00,1361,304,1357,277,78852,0
notch-76,true,1.00,1368,289,1361,251,81471,0
notch-77,true,1.00,821,251,815,225,46664,0
notch-78,true,1.00,1178,281,1172,243,69047,0
notch-79,true,1.00,850,288,842,250,49392,0
notch-80,true,1.00,512,235,506,204,28883,0
notch-81,true,1.00,1000,252,995,225,57835,0
notch-82,true,1.00,898,275,891,248,51186,0
notch-83,true,1.00,1298,302,1293,269,75344,0
notch-84,true,1.00,592,252,589,225,32921,0
notch-85,true,1.00,742,278,734,244,42953,0
notch-86,true,1.00,801,245,796,218,46839,0
notch-87,true,1.00,957,243,954,216,56588,0
notch-88,true,1.00,1292,308,1289,277,75812,0
notch-89,true,1.00,1100,293,1089,267,65040,0
notch-90,true,1.00,1068,275,1062,248,62517,0
notch-91,true,1.00,1288,303,1283,276,74395,0
notch-92,true,1.00,1047,277,1042,250,61130,0
notch-93,true,1.00,1185,289,1179,253,68038,0
notch-94,true,1.00,1546,293,1538,246,91838,0
notch-95,true,1.00,694,259,685,231,39785,0
notch-96,true,1.00,809,278,806,250,47783,0
notch-97,true,1.00,910,288,905,260,52073,0
notch-98,true,1.00,1075,301,1069,266,62078,0
notch-99,true,1.00,932,292,923,247,55239,0
notch-100,true,1.00,706,267,696,240,40738,0
