NDW:0.0
TTFW:1.4
DFPT:2.0
DFPAP:3.0
DFPMP:20.0
RIGHT_WINDOW_BORDER_X:15.0
level,win/fail,% travelled,run time,game ticks,planning time,total plannings,nodes evaluated,most backtracked nodes
Mario-1,false,0.35,210,311,208,311,19612,0
Mario-2,false,0.36,11,249,9,249,2247,0
Mario-3,false,0.13,755,138,754,138,75743,0
Mario-4,false,0.44,113,380,111,380,14840,0
Mario-5,false,0.15,5,120,5,120,987,0
Mario-6,false,0.10,468,118,468,118,50056,0
Mario-7,false,0.12,80,151,78,151,9448,0
Mario-8,false,0.05,153,70,153,70,16255,0
Mario-9,false,0.03,1,24,0,24,194,0
Mario-10,false,0.08,565,114,564,114,59160,0
Mario-11,false,0.08,233,86,233,86,23869,0
Mario-12,false,0.25,34,263,31,263,6559,0
Mario-13,false,0.31,1083,464,1080,464,121611,0
Mario-14,false,0.20,5,120,5,120,1000,0
Mario-15,false,0.06,2,64,0,64,388,0
