NDW:0.0
TTFW:1.2
DFPT:2.0
DFPAP:3.0
DFPMP:20.0
RIGHT_WINDOW_BORDER_X:155.0
level,win/fail,% travelled,run time,game ticks,planning time,total plannings,nodes evaluated,most backtracked nodes
Krys-1,false,0.38,19169,999,19158,999,1328053,0
Krys-2,true,1.00,1197,408,1191,383,116617,0
Krys-3,true,1.00,5749,584,5746,562,568484,0
Krys-4,true,1.00,2822,520,2818,503,256202,0
Krys-5,true,1.00,2355,380,2354,356,282544,0
Krys-6,true,1.00,910,405,908,383,99488,0
Krys-7,true,1.00,197,357,194,330,22271,0
Krys-8,true,1.00,1515,444,1510,421,171982,0
Krys-9,true,1.00,4165,435,4162,410,468553,0
Krys-10,true,1.00,1198,372,1196,350,132269,0
Krys-11,true,1.00,125,407,124,382,11938,0
Krys-12,true,1.00,3399,456,3393,433,274196,0
Krys-13,false,0.72,4451,366,4449,366,433546,0
Krys-14,true,1.00,568,374,563,347,44240,0
Krys-15,true,1.00,5171,493,5166,465,586044,0
Krys-16,true,1.00,985,435,968,408,63650,0
Krys-17,true,1.00,2008,415,2005,372,167217,0
Krys-18,true,1.00,1317,383,1316,360,126634,0
Krys-19,true,1.00,5706,445,5701,414,602479,0
Krys-20,false,0.73,3530,437,3529,437,401795,0
Krys-21,true,1.00,2005,396,2004,373,233201,0
Krys-22,true,1.00,3231,440,3228,409,389290,0
Krys-23,true,1.00,1525,464,1521,439,140478,0
Krys-24,false,0.70,25936,999,25936,999,1794971,0
Krys-25,true,1.00,1838,416,1837,385,168079,0
Krys-26,true,1.00,6355,466,6354,443,709340,0
Krys-27,true,1.00,3190,466,3188,442,281645,0
Krys-28,true,1.00,2789,470,2786,442,278706,0
Krys-29,true,1.00,1776,440,1772,424,146314,0
Krys-30,true,1.00,2402,495,2399,467,192982,0
Krys-31,true,1.00,2376,478,2370,456,286888,0
Krys-32,true,1.00,248,399,246,384,23596,0
Krys-33,true,1.00,292,340,289,317,31376,0
Krys-34,true,1.00,1761,445,1760,420,154312,0
Krys-35,true,1.00,6737,527,6737,499,779246,0
Krys-36,true,1.00,4809,496,4804,474,453773,0
Krys-37,true,1.00,5722,511,5720,496,544583,0
Krys-38,true,1.00,5509,489,5505,464,595956,0
Krys-39,true,1.00,6422,544,6421,521,699229,0
Krys-40,true,1.00,5944,581,5940,558,664235,0
Krys-41,true,1.00,7078,519,7077,491,656528,0
Krys-42,true,1.00,3563,512,3561,481,409843,0
Krys-43,true,1.00,3064,447,3062,420,354697,0
Krys-44,true,1.00,6885,574,6880,546,729139,0
Krys-45,true,1.00,799,419,798,396,58169,0
Krys-46,true,1.00,1671,502,1668,471,128053,0
Krys-47,true,1.00,952,546,945,523,96363,0
Krys-48,true,1.00,3374,397,3367,374,378631,0
Krys-49,true,1.00,1705,433,1703,402,161076,0
Krys-50,true,1.00,5890,519,5886,503,604542,0
Krys-51,false,0.62,5216,394,5215,394,619584,0
Krys-52,true,1.00,1252,451,1247,424,120085,0
Krys-53,true,1.00,2242,419,2241,396,173057,0
Krys-54,true,1.00,4666,554,4664,539,488570,0
Krys-55,true,1.00,3035,458,3033,429,261937,0
Krys-56,true,1.00,782,411,780,381,71097,0
Krys-57,false,0.83,2561,315,2561,315,235090,0
Krys-58,true,1.00,2323,472,2320,457,189571,0
Krys-59,true,1.00,1332,471,1331,443,95084,0
Krys-60,true,1.00,3290,403,3289,381,329751,0
Krys-61,false,0.48,18439,999,18434,999,1270551,0
Krys-62,true,1.00,767,463,764,448,60799,0
Krys-63,true,1.00,3433,621,3430,590,268707,0
Krys-64,true,1.00,3394,565,3386,537,300261,0
Krys-65,true,1.00,2530,426,2529,411,189151,0
Krys-66,true,1.00,1282,415,1277,384,105725,0
Krys-67,true,1.00,1565,498,1559,473,141806,0
Krys-68,true,1.00,3638,359,3637,331,357038,0
Krys-69,true,1.00,5854,647,5848,618,424630,0
Krys-70,true,1.00,4217,505,4216,477,385264,0
Krys-71,true,1.00,7147,508,7145,485,792873,0
Krys-72,true,1.00,1320,510,1316,488,148495,0
Krys-73,true,1.00,4860,552,4855,525,457200,0
Krys-74,true,1.00,2377,458,2372,436,203178,0
Krys-75,true,1.00,372,398,370,367,29137,0
Krys-76,true,1.00,4029,413,4028,397,433988,0
Krys-77,true,1.00,1242,359,1240,328,137541,0
Krys-78,true,1.00,4562,552,4559,527,466538,0
Krys-79,true,1.00,515,392,512,366,39840,0
Krys-80,true,1.00,172,400,171,377,18161,0
Krys-81,true,1.00,2959,494,2956,467,292084,0
Krys-82,true,1.00,659,373,655,345,53590,0
Krys-83,true,1.00,4259,501,4257,473,403210,0
Krys-84,true,1.00,151,363,147,338,16772,0
Krys-85,true,1.00,2837,511,2833,480,265288,0
Krys-86,true,1.00,1652,416,1643,392,129954,0
Krys-87,true,1.00,624,375,620,359,46435,0
Krys-88,true,1.00,1920,442,1917,419,164960,0
Krys-89,true,1.00,1552,437,1552,421,143939,0
Krys-90,true,1.00,4606,399,4604,377,470768,0
Krys-91,true,1.00,261,377,260,350,30053,0
Krys-92,true,1.00,5082,489,5079,465,459699,0
Krys-93,true,1.00,2484,383,2480,355,325511,0
Krys-94,true,1.00,1315,378,1313,355,148117,0
Krys-95,true,1.00,1824,451,1820,423,157406,0
Krys-96,false,0.83,4947,401,4945,401,505586,0
Krys-97,true,1.00,2355,397,2353,374,226385,0
Krys-98,true,1.00,3743,600,3736,577,305393,0
Krys-99,true,1.00,723,441,715,405,61184,0
Krys-100,true,1.00,5527,473,5525,451,649332,0
