NDW:0.0
TTFW:0.2
DFPT:2.0
DFPAP:3.0
DFPMP:3.0
RIGHT_WINDOW_BORDER_X:255.0
level,win/fail,% travelled,run time,game ticks,planning time,total plannings,nodes evaluated,most backtracked nodes
ore-1,true,1.00,5116,379,5112,356,313268,0
ore-2,false,0.70,2991,238,2989,238,190372,0
ore-3,true,1.00,5065,394,5061,365,312707,0
ore-4,true,1.00,5292,410,5288,374,319190,0
ore-5,true,1.00,4506,384,4503,361,286247,0
ore-6,true,1.00,4578,378,4574,343,283007,0
ore-7,true,1.00,3614,355,3611,332,229163,0
ore-8,true,1.00,6098,406,6097,383,416807,0
ore-9,true,1.00,4038,358,4037,333,262677,0
ore-10,true,1.00,4656,373,4655,350,292472,0
ore-11,true,1.00,4376,372,4372,348,270309,0
ore-12,true,1.00,4786,403,4785,380,293158,0
ore-13,true,1.00,5485,404,5483,375,338917,0
ore-14,true,1.00,4574,367,4572,344,272796,0
ore-15,true,1.00,4198,374,4195,347,261185,0
ore-16,true,1.00,3747,356,3746,333,241798,0
ore-17,true,1.00,4326,369,4325,338,271801,0
ore-18,true,1.00,3848,353,3846,322,234642,0
ore-19,true,1.00,4607,380,4605,356,280279,0
ore-20,true,1.00,5037,377,5035,354,297146,0
ore-21,true,1.00,3556,346,3555,323,217097,0
ore-22,true,1.00,4822,355,4819,332,300926,0
ore-23,true,1.00,3127,338,3127,315,204069,0
ore-24,true,1.00,3208,340,3206,316,198885,0
ore-25,true,1.00,4189,342,4184,319,263661,0
ore-26,true,1.00,4509,374,4506,351,276110,0
ore-27,false,0.24,1724,95,1723,95,116897,0
ore-28,true,1.00,4438,376,4432,353,283204,0
ore-29,true,1.00,4285,374,4283,351,263584,0
ore-30,true,1.00,3577,354,3576,325,225463,0
ore-31,true,1.00,3111,342,3111,312,199677,0
ore-32,true,1.00,4417,358,4415,333,262828,0
ore-33,true,1.00,4256,376,4252,353,251723,0
ore-34,true,1.00,4557,397,4553,374,284767,0
ore-35,true,1.00,3529,350,3527,321,229810,0
ore-36,true,1.00,4258,390,4256,361,273074,0
ore-37,false,0.34,2429,148,2429,148,155671,0
ore-38,true,1.00,3157,345,3157,316,210011,0
ore-39,true,1.00,4599,357,4598,334,291357,0
ore-40,true,1.00,5025,363,5024,338,312351,0
ore-41,true,1.00,4475,360,4473,335,283139,0
ore-42,true,1.00,5095,392,5094,368,308206,0
ore-43,true,1.00,5938,409,5936,385,390841,0
ore-44,true,1.00,4273,354,4269,330,286319,0
ore-45,false,0.74,26795,999,26793,999,1537951,0
ore-46,true,1.00,3007,328,3002,305,192738,0
ore-47,true,1.00,4262,365,4260,342,258160,0
ore-48,true,1.00,4643,388,4638,365,290901,0
ore-49,true,1.00,3269,334,3268,311,202209,0
ore-50,true,1.00,4450,357,4450,334,287348,0
ore-51,true,1.00,3693,343,3691,320,237972,0
ore-52,true,1.00,5578,400,5575,375,340247,0
ore-53,true,1.00,3886,372,3884,349,237257,0
ore-54,false,0.72,4229,287,4229,287,265524,0
ore-55,true,1.00,3014,330,3013,307,193190,0
ore-56,true,1.00,3312,346,3310,322,205861,0
ore-57,true,1.00,3873,366,3867,326,241664,0
ore-58,true,1.00,3475,334,3473,311,227237,0
ore-59,true,1.00,3753,354,3749,331,232913,0
ore-60,true,1.00,4160,367,4158,344,256687,0
ore-61,true,1.00,3489,346,3489,323,213450,0
ore-62,true,1.00,3525,356,3524,333,225371,0
ore-63,true,1.00,3536,361,3524,338,226782,0
ore-64,true,1.00,4659,373,4654,349,289428,0
ore-65,true,1.00,3535,345,3532,322,228187,0
ore-66,true,1.00,3265,352,3264,323,209909,0
ore-67,true,1.00,3014,327,3011,304,195065,0
ore-68,true,1.00,5280,408,5277,376,324058,0
ore-69,true,1.00,6361,425,6358,402,387401,0
ore-70,true,1.00,4610,370,4607,347,279463,0
ore-71,true,1.00,4526,364,4524,341,295656,0
ore-72,true,1.00,4000,362,3994,339,257159,0
ore-73,true,1.00,4069,364,4065,330,246176,0
ore-74,true,1.00,3616,354,3616,329,218348,0
ore-75,true,1.00,5088,406,5087,383,322002,0
ore-76,true,1.00,2928,314,2923,291,203413,0
ore-77,true,1.00,4361,363,4358,338,266798,0
ore-78,true,1.00,4633,384,4630,360,292454,0
ore-79,true,1.00,4446,361,4442,338,276313,0
ore-80,true,1.00,3537,351,3534,328,223232,0
ore-81,true,1.00,4342,368,4336,345,275524,0
ore-82,true,1.00,5139,373,5137,350,305784,0
ore-83,true,1.00,3427,348,3423,325,221980,0
ore-84,true,1.00,6819,435,6816,412,402857,0
ore-85,true,1.00,3668,340,3662,311,229246,0
ore-86,true,1.00,3643,358,3642,335,235175,0
ore-87,true,1.00,3703,355,3702,332,234337,0
ore-88,true,1.00,3436,346,3432,323,221455,0
ore-89,true,1.00,5071,372,5070,349,310588,0
ore-90,true,1.00,4671,379,4668,356,291619,0
ore-91,true,1.00,3073,339,3069,316,202617,0
ore-92,true,1.00,5391,397,5388,371,335167,0
ore-93,false,0.14,2127,86,2127,86,132368,0
ore-94,true,1.00,4273,366,4271,343,260052,0
ore-95,true,1.00,5356,389,5352,366,320114,0
ore-96,true,1.00,4356,379,4352,356,267311,0
ore-97,false,0.77,4464,308,4461,308,285180,0
ore-98,true,1.00,3761,339,3757,316,246871,0
ore-99,true,1.00,3456,340,3456,317,214268,0
ore-100,true,1.00,4223,390,4219,367,269894,0
