NDW:0.0
TTFW:0.2
DFPT:2.0
DFPAP:3.0
DFPMP:10.0
RIGHT_WINDOW_BORDER_X:195.0
level,win/fail,% travelled,run time,game ticks,planning time,total plannings,nodes evaluated,most backtracked nodes
patternOccur-1,true,1.00,2440,393,2439,376,189299,0
patternOccur-2,true,1.00,2836,393,2832,376,218331,0
patternOccur-3,true,1.00,3979,449,3978,432,306450,0
patternOccur-4,true,1.00,3638,420,3634,402,288912,0
patternOccur-5,true,1.00,2671,393,2669,376,201983,0
patternOccur-6,true,1.00,3871,429,3866,412,298250,0
patternOccur-7,true,1.00,3049,415,3044,396,238126,0
patternOccur-8,true,1.00,3887,439,3884,422,300562,0
patternOccur-9,true,1.00,3720,444,3715,427,287576,0
patternOccur-10,true,1.00,2076,373,2075,356,163881,0
patternOccur-11,false,0.86,4937,424,4933,424,395239,0
patternOccur-12,true,1.00,5371,481,5368,463,409249,0
patternOccur-13,true,1.00,3038,403,3035,386,234573,0
patternOccur-14,true,1.00,6097,446,6095,427,503402,0
patternOccur-15,true,1.00,2938,391,2933,374,228923,0
patternOccur-16,true,1.00,5089,436,5085,418,418852,0
patternOccur-17,true,1.00,3712,431,3709,414,290890,0
patternOccur-18,true,1.00,2567,383,2564,366,196918,0
patternOccur-19,false,0.83,7521,497,7521,497,573597,0
patternOccur-20,true,1.00,4099,464,4096,447,308940,0
patternOccur-21,true,1.00,2902,389,2900,372,231245,0
patternOccur-22,false,0.84,6295,451,6292,451,498032,0
patternOccur-23,true,1.00,4473,482,4471,464,338620,0
patternOccur-24,true,1.00,3369,417,3365,400,253566,0
patternOccur-25,true,1.00,4395,464,4391,447,337159,0
patternOccur-26,true,1.00,1834,341,1834,324,141089,0
patternOccur-27,true,1.00,5250,469,5245,423,420674,0
patternOccur-28,true,1.00,3192,392,3189,374,251861,0
patternOccur-29,true,1.00,2436,381,2436,357,190507,0
patternOccur-30,true,1.00,3224,430,3221,413,245343,0
patternOccur-31,true,1.00,7235,478,7230,454,592608,0
patternOccur-32,true,1.00,4457,410,4456,392,365258,0
patternOccur-33,true,1.00,2327,375,2323,357,185725,0
patternOccur-34,true,1.00,2294,365,2293,348,182492,0
patternOccur-35,true,1.00,2636,378,2630,361,205627,0
patternOccur-36,true,1.00,5265,452,5262,427,427921,0
patternOccur-37,true,1.00,5690,468,5685,444,452702,0
patternOccur-38,true,1.00,2567,392,2560,375,199956,0
patternOccur-39,false,0.78,24145,999,24143,999,1804668,0
patternOccur-40,true,1.00,4328,446,4323,428,336196,0
patternOccur-41,true,1.00,2931,399,2930,372,230332,0
patternOccur-42,false,0.88,4525,387,4521,387,357850,0
patternOccur-43,true,1.00,3331,417,3329,400,252622,0
patternOccur-44,true,1.00,2645,371,2645,354,210313,0
patternOccur-45,true,1.00,3695,444,3692,419,292015,0
patternOccur-46,true,1.00,2824,412,2821,395,214328,0
patternOccur-47,true,1.00,5044,472,5039,435,410960,0
patternOccur-48,true,1.00,3111,411,3109,394,235559,0
patternOccur-49,true,1.00,2357,356,2354,339,189311,0
patternOccur-50,true,1.00,3841,413,3838,395,298013,0
patternOccur-51,true,1.00,3717,434,3713,415,286746,0
patternOccur-52,true,1.00,4220,460,4214,437,324789,0
patternOccur-53,true,1.00,2763,368,2763,351,223733,0
patternOccur-54,true,1.00,4799,445,4795,427,371243,0
patternOccur-55,true,1.00,4002,423,4000,406,295472,0
patternOccur-56,true,1.00,4621,476,4620,459,328153,0
patternOccur-57,true,1.00,3287,400,3283,381,260705,0
patternOccur-58,true,1.00,6196,455,6192,437,505101,0
patternOccur-59,true,1.00,3130,399,3129,382,248865,0
patternOccur-60,true,1.00,3952,411,3949,382,321916,0
patternOccur-61,true,1.00,2377,358,2375,341,197739,0
patternOccur-62,true,1.00,2792,380,2789,363,219435,0
patternOccur-63,true,1.00,3079,405,3077,388,239752,0
patternOccur-64,true,1.00,4471,444,4471,426,345901,0
patternOccur-65,true,1.00,2959,413,2956,396,226950,0
patternOccur-66,true,1.00,3573,436,3571,419,277200,0
patternOccur-67,false,0.88,4972,415,4971,415,389718,0
patternOccur-68,true,1.00,3192,424,3189,407,234835,0
patternOccur-69,true,1.00,5443,447,5442,420,434066,0
patternOccur-70,false,0.87,6691,467,6687,467,519260,0
patternOccur-71,true,1.00,5034,478,5034,461,392262,0
patternOccur-72,false,0.86,5392,449,5390,449,419729,0
patternOccur-73,true,1.00,5716,481,5711,448,448051,0
patternOccur-74,true,1.00,5987,491,5984,455,482187,0
patternOccur-75,true,1.00,3798,424,3795,400,298527,0
patternOccur-76,true,1.00,3739,421,3736,404,290625,0
patternOccur-77,true,1.00,2822,412,2819,395,212457,0
patternOccur-78,true,1.00,3028,418,3025,401,227779,0
patternOccur-79,true,1.00,3610,436,3610,419,280966,0
patternOccur-80,true,1.00,7924,548,7920,523,608899,0
patternOccur-81,false,0.90,5669,452,5667,452,452399,0
patternOccur-82,true,1.00,4207,446,4205,422,320833,0
patternOccur-83,false,0.82,3689,347,3688,347,301652,0
patternOccur-84,true,1.00,2730,400,2727,383,213695,0
patternOccur-85,true,1.00,3885,415,3884,386,314142,0
patternOccur-86,true,1.00,7052,503,7049,479,539393,0
patternOccur-87,true,1.00,2915,411,2909,394,222697,0
patternOccur-88,true,1.00,3968,460,3964,443,304062,0
patternOccur-89,true,1.00,4076,445,4075,428,316812,0
patternOccur-90,true,1.00,2932,392,2926,374,235610,0
patternOccur-91,true,1.00,3381,424,3376,407,271167,0
patternOccur-92,true,1.00,2723,386,2720,369,205069,0
patternOccur-93,true,1.00,3187,392,3183,374,248201,0
patternOccur-94,true,1.00,6606,476,6605,454,544570,0
patternOccur-95,true,1.00,4318,472,4313,454,327446,0
patternOccur-96,false,0.87,3669,393,3667,393,281971,0
patternOccur-97,true,1.00,3657,417,3654,400,281170,0
patternOccur-98,false,0.90,4704,399,4701,399,323207,0
patternOccur-99,true,1.00,1610,356,1607,337,124932,0
patternOccur-100,true,1.00,3433,420,3429,403,264779,0
