NDW:0.0
TTFW:1.0
DFPT:2.0
DFPAP:3.0
DFPMP:2.0
RIGHT_WINDOW_BORDER_X:115.0
level,win/fail,% travelled,run time,game ticks,planning time,total plannings,nodes evaluated,most backtracked nodes
notchParam-1,false,0.36,554,136,553,136,27770,0
notchParam-2,false,0.67,5279,363,5275,363,273693,0
notchParam-3,true,1.00,691,345,679,335,37621,0
notchParam-4,true,1.00,935,353,923,343,51242,0
notchParam-5,true,1.00,813,340,803,330,43913,0
notchParam-6,true,1.00,1125,340,1115,330,62208,0
notchParam-7,false,0.69,7144,428,7139,428,393503,0
notchParam-8,true,1.00,3020,399,3011,389,170675,0
notchParam-9,true,1.00,1227,376,1222,366,68357,0
notchParam-10,true,1.00,1627,354,1619,344,85895,0
notchParam-11,true,1.00,868,347,856,337,47779,0
notchParam-12,true,1.00,2888,435,2877,425,163328,0
notchParam-13,true,1.00,626,326,620,316,34754,0
notchParam-14,true,1.00,619,314,611,304,34160,0
notchParam-15,true,1.00,7117,516,7110,506,356272,0
notchParam-16,false,0.67,5389,393,5381,393,277878,0
notchParam-17,false,0.37,3311,215,3307,215,169397,0
notchParam-18,true,1.00,218,337,208,327,11615,0
notchParam-19,true,1.00,220,308,207,298,11807,0
notchParam-20,true,1.00,248,304,241,294,13088,0
notchParam-21,true,1.00,253,306,242,296,12513,0
notchParam-22,true,1.00,467,338,464,328,25388,0
notchParam-23,true,1.00,2727,423,2721,413,150630,0
notchParam-24,true,1.00,2233,373,2229,363,121033,0
notchParam-25,true,1.00,2226,377,2218,367,115254,0
notchParam-26,true,1.00,4011,441,4001,431,213346,0
notchParam-27,true,1.00,226,316,215,306,11524,0
notchParam-28,true,1.00,1469,370,1461,360,79118,0
notchParam-29,true,1.00,1602,370,1593,360,83528,0
notchParam-30,true,1.00,297,322,289,312,14928,0
notchParam-31,false,0.37,2706,200,2699,200,134080,0
notchParam-32,false,0.37,3311,215,3308,215,166307,0
notchParam-33,true,1.00,249,300,242,290,12462,0
notchParam-34,false,0.36,1768,160,1764,160,81866,0
notchParam-35,false,0.67,7622,431,7618,431,395800,0
notchParam-36,false,0.67,6323,386,6315,386,316433,0
notchParam-37,true,1.00,217,304,208,294,10851,0
notchParam-38,true,1.00,223,312,217,302,11606,0
notchParam-39,false,0.36,2559,184,2557,184,133348,0
notchParam-40,true,1.00,857,347,849,337,45002,0
notchParam-41,true,1.00,828,345,819,335,42532,0
notchParam-42,true,1.00,240,326,228,316,12053,0
notchParam-43,true,1.00,3327,410,3321,400,177893,0
notchParam-44,true,1.00,1679,358,1671,348,90980,0
notchParam-45,true,1.00,2878,390,2875,378,153124,0
notchParam-46,true,1.00,4872,454,4857,444,262144,0
notchParam-47,true,1.00,255,312,249,302,13922,0
notchParam-48,true,1.00,285,324,277,314,15645,0
notchParam-49,true,1.00,264,313,253,302,13862,0
notchParam-50,true,1.00,256,325,249,315,13119,0
notchParam-51,true,1.00,244,302,239,292,12617,0
notchParam-52,false,0.67,4630,336,4622,336,228680,0
notchParam-53,true,1.00,7470,531,7463,521,399765,0
notchParam-54,false,0.67,5809,378,5802,378,315200,0
notchParam-55,true,1.00,308,336,299,326,17236,0
notchParam-56,true,1.00,224,316,219,306,12066,0
notchParam-57,true,1.00,3779,419,3775,409,207010,0
notchParam-58,true,1.00,823,363,810,353,45494,0
notchParam-59,true,1.00,3060,430,3056,420,163298,0
notchParam-60,true,1.00,774,367,762,357,41038,0
notchParam-61,true,1.00,3936,476,3931,466,224354,0
notchParam-62,true,1.00,5142,449,5133,439,260549,0
notchParam-63,true,1.00,705,326,695,316,38882,0
notchParam-64,true,1.00,775,348,768,338,42844,0
notchParam-65,true,1.00,894,352,888,342,50219,0
notchParam-66,true,1.00,714,336,704,326,38816,0
notchParam-67,false,0.68,4188,339,4180,339,219484,0
notchParam-68,false,0.36,1766,160,1761,160,88281,0
notchParam-69,true,1.00,6884,527,6877,517,358651,0
notchParam-70,false,0.67,4842,343,4837,343,259075,0
notchParam-71,true,1.00,832,368,822,358,45149,0
notchParam-72,true,1.00,1108,356,1102,346,60984,0
notchParam-73,true,1.00,1400,362,1389,352,76562,0
notchParam-74,true,1.00,702,344,698,334,37042,0
notchParam-75,true,1.00,1071,340,1062,330,60930,0
notchParam-76,true,1.00,3449,420,3442,410,189617,0
notchParam-77,true,1.00,810,345,803,335,44503,0
notchParam-78,true,1.00,3326,403,3320,393,184167,0
notchParam-79,true,1.00,874,334,867,324,49112,0
notchParam-80,true,1.00,237,320,225,310,12864,0
notchParam-81,true,1.00,1243,352,1235,340,69478,0
notchParam-82,true,1.00,627,320,617,310,34778,0
notchParam-83,true,1.00,208,318,204,308,11405,0
notchParam-84,true,1.00,6645,492,6643,482,344880,0
notchParam-85,false,0.35,29153,999,29150,999,1506972,0
notchParam-86,true,1.00,3676,421,3665,411,186312,0
notchParam-87,true,1.00,254,306,243,296,13163,0
notchParam-88,true,1.00,432,322,429,312,23445,0
notchParam-89,true,1.00,639,320,633,310,34285,0
notchParam-90,true,1.00,267,318,259,308,14151,0
notchParam-91,true,1.00,3174,399,3166,389,166092,0
notchParam-92,true,1.00,3672,413,3664,403,199904,0
notchParam-93,true,1.00,3116,428,3109,418,173661,0
notchParam-94,true,1.00,5365,477,5354,467,301329,0
notchParam-95,true,1.00,2765,450,2759,440,158334,0
notchParam-96,true,1.00,626,320,617,310,35013,0
notchParam-97,true,1.00,1480,352,1472,342,81041,0
notchParam-98,true,1.00,242,298,238,288,12824,0
notchParam-99,false,0.67,5372,360,5369,360,292693,0
notchParam-100,false,0.37,2705,200,2699,200,141150,0
