NDW:0.0
TTFW:1.8
DFPT:2.0
DFPAP:3.0
DFPMP:0.0
RIGHT_WINDOW_BORDER_X:235.0
level,win/fail,% travelled,run time,game ticks,planning time,total plannings,nodes evaluated,most backtracked nodes
notchParamRand-1,true,1.00,831,314,828,293,94457,0
notchParamRand-2,true,1.00,119,306,116,285,17059,0
notchParamRand-3,true,1.00,869,304,868,283,109321,0
notchParamRand-4,true,1.00,1303,337,1301,316,159213,0
notchParamRand-5,true,1.00,183,306,180,285,24547,0
notchParamRand-6,true,1.00,368,314,367,293,43832,0
notchParamRand-7,true,1.00,216,294,216,273,29387,0
notchParamRand-8,true,1.00,479,306,473,285,55170,0
notchParamRand-9,true,1.00,487,336,484,315,61974,0
notchParamRand-10,true,1.00,668,345,666,324,84535,0
notchParamRand-11,true,1.00,142,294,142,273,19029,0
notchParamRand-12,true,1.00,280,324,278,303,34065,0
notchParamRand-13,true,1.00,1525,312,1523,291,171522,0
notchParamRand-14,true,1.00,899,310,898,289,102889,0
notchParamRand-15,true,1.00,509,308,507,287,63567,0
notchParamRand-16,true,1.00,352,300,351,279,50044,0
notchParamRand-17,true,1.00,84,303,80,282,12714,0
notchParamRand-18,true,1.00,1558,326,1555,305,191116,0
notchParamRand-19,true,1.00,190,328,187,307,24356,0
notchParamRand-20,true,1.00,1312,336,1311,315,164896,0
notchParamRand-21,true,1.00,84,296,82,275,13426,0
notchParamRand-22,true,1.00,772,310,770,289,95146,0
notchParamRand-23,true,1.00,938,339,936,318,117092,0
notchParamRand-24,true,1.00,194,327,191,306,26048,0
notchParamRand-25,true,1.00,74,310,69,287,11146,0
notchParamRand-26,true,1.00,410,338,408,317,48309,0
notchParamRand-27,true,1.00,217,300,217,279,32778,0
notchParamRand-28,true,1.00,463,317,461,296,54084,0
notchParamRand-29,true,1.00,90,298,88,277,14925,0
notchParamRand-30,true,1.00,1714,326,1713,305,204636,0
notchParamRand-31,true,1.00,274,318,273,297,34184,0
notchParamRand-32,true,1.00,127,294,124,273,20187,0
notchParamRand-33,true,1.00,1587,322,1585,301,187300,0
notchParamRand-34,true,1.00,868,316,867,295,104686,0
notchParamRand-35,true,1.00,472,318,471,297,58362,0
notchParamRand-36,true,1.00,80,300,76,277,12032,0
notchParamRand-37,true,1.00,368,310,365,289,46035,0
notchParamRand-38,true,1.00,1726,321,1722,300,195671,0
notchParamRand-39,true,1.00,1383,318,1380,297,164823,0
notchParamRand-40,true,1.00,1864,312,1864,291,217539,0
notchParamRand-41,true,1.00,90,294,84,273,14652,0
notchParamRand-42,true,1.00,354,316,352,295,44482,0
notchParamRand-43,true,1.00,219,300,218,279,31184,0
notchParamRand-44,true,1.00,274,302,273,281,36034,0
notchParamRand-45,true,1.00,802,316,799,295,89273,0
notchParamRand-46,true,1.00,475,311,474,290,58379,0
notchParamRand-47,true,1.00,781,314,780,293,92648,0
notchParamRand-48,true,1.00,1293,324,1290,303,153167,0
notchParamRand-49,true,1.00,684,304,684,283,83059,0
notchParamRand-50,true,1.00,1179,340,1176,319,144562,0
notchParamRand-51,true,1.00,206,315,205,294,26042,0
notchParamRand-52,true,1.00,701,306,700,285,82261,0
notchParamRand-53,true,1.00,753,326,751,305,90939,0
notchParamRand-54,true,1.00,2158,337,2157,316,247464,0
notchParamRand-55,true,1.00,1738,320,1736,299,194024,0
notchParamRand-56,true,1.00,558,319,557,298,66167,0
notchParamRand-57,true,1.00,863,310,862,289,108330,0
notchParamRand-58,true,1.00,776,333,775,312,93878,0
notchParamRand-59,true,1.00,403,314,398,293,49390,0
notchParamRand-60,true,1.00,604,311,601,290,74350,0
notchParamRand-61,true,1.00,474,304,473,283,59133,0
notchParamRand-62,true,1.00,438,322,432,301,50564,0
notchParamRand-63,true,1.00,1262,310,1262,289,147513,0
notchParamRand-64,true,1.00,277,296,276,275,37426,0
notchParamRand-65,true,1.00,1708,329,1703,308,195028,0
notchParamRand-66,true,1.00,265,316,261,295,32722,0
notchParamRand-67,true,1.00,278,300,276,279,33827,0
notchParamRand-68,true,1.00,1271,310,1270,289,152975,0
notchParamRand-69,true,1.00,212,309,211,288,29361,0
notchParamRand-70,true,1.00,599,328,597,307,74337,0
notchParamRand-71,true,1.00,312,322,307,301,37632,0
notchParamRand-72,true,1.00,114,294,113,273,17077,0
notchParamRand-73,true,1.00,342,314,340,293,39708,0
notchParamRand-74,true,1.00,85,296,84,275,13846,0
notchParamRand-75,true,1.00,91,294,90,273,14888,0
notchParamRand-76,true,1.00,1033,348,1032,327,120227,0
notchParamRand-77,true,1.00,1410,344,1396,323,140575,0
notchParamRand-78,true,1.00,919,310,918,289,110944,0
notchParamRand-79,true,1.00,212,298,209,277,27386,0
notchParamRand-80,true,1.00,276,302,275,281,33566,0
notchParamRand-81,true,1.00,276,298,272,277,37194,0
notchParamRand-82,true,1.00,707,312,702,291,86628,0
notchParamRand-83,true,1.00,1326,334,1325,313,152147,0
notchParamRand-84,true,1.00,306,300,302,279,38924,0
notchParamRand-85,true,1.00,91,294,88,273,15271,0
notchParamRand-86,true,1.00,512,336,510,315,61089,0
notchParamRand-87,true,1.00,1463,318,1462,297,177280,0
notchParamRand-88,true,1.00,274,306,273,285,37022,0
notchParamRand-89,true,1.00,315,300,314,279,42527,0
notchParamRand-90,true,1.00,546,315,545,294,65482,0
notchParamRand-91,true,1.00,83,294,82,273,13283,0
notchParamRand-92,true,1.00,864,326,863,305,105577,0
notchParamRand-93,true,1.00,270,316,269,286,34227,0
notchParamRand-94,true,1.00,1534,314,1533,293,173672,0
notchParamRand-95,true,1.00,635,312,632,291,75989,0
notchParamRand-96,true,1.00,353,320,351,299,43752,0
notchParamRand-97,true,1.00,1365,339,1360,318,156248,0
notchParamRand-98,true,1.00,213,294,211,273,31921,0
notchParamRand-99,true,1.00,183,310,180,289,23694,0
notchParamRand-100,true,1.00,1299,316,1297,295,151755,0
