NDW:0.0
TTFW:0.4
DFPT:2.0
DFPAP:3.0
DFPMP:7.0
RIGHT_WINDOW_BORDER_X:35.0
level,win/fail,% travelled,run time,game ticks,planning time,total plannings,nodes evaluated,most backtracked nodes
ge-1,false,0.20,28556,999,28556,999,2311031,0
ge-2,false,0.40,449,161,447,161,39960,0
ge-3,true,1.00,1853,438,1849,428,156504,0
ge-4,false,0.36,2454,371,2449,371,216884,0
ge-5,true,1.00,48,366,48,356,8719,0
ge-6,false,0.55,989,293,988,293,86570,0
ge-7,true,1.00,794,436,791,432,77593,0
ge-8,false,0.68,888,326,888,326,76248,0
ge-9,false,0.76,3518,480,3517,480,305371,0
ge-10,true,1.00,50,356,48,351,8698,0
ge-11,false,0.94,3742,542,3742,542,327490,0
ge-12,true,1.00,45,354,43,350,8264,0
ge-13,false,0.38,755,195,751,195,62098,0
ge-14,false,0.23,412,113,412,113,32939,0
ge-15,false,0.51,3593,368,3590,368,304713,0
ge-16,false,0.10,921,120,919,120,94123,0
ge-17,false,0.24,279,124,278,124,26660,0
ge-18,false,0.10,270,69,270,69,28827,0
ge-19,false,0.18,1015,135,1013,135,84751,0
ge-20,false,0.51,480,239,477,239,41242,0
ge-21,false,0.34,1941,210,1941,210,155029,0
ge-22,false,0.70,915,344,912,344,77019,0
ge-23,false,0.32,1550,225,1550,225,135681,0
ge-24,false,0.70,2823,424,2823,424,240513,0
ge-25,false,0.63,904,293,902,293,78588,0
ge-26,false,0.48,1878,299,1877,299,167480,0
ge-27,true,1.00,46,372,45,368,8335,0
ge-28,false,0.36,1120,213,1118,213,94074,0
ge-29,false,0.35,27385,999,27383,999,2242651,0
ge-30,false,0.10,282,71,281,71,30360,0
ge-31,false,0.24,1749,192,1748,192,149015,0
ge-32,true,1.00,960,413,958,408,82983,0
ge-33,false,0.57,262,240,262,240,25406,0
ge-34,false,0.14,1277,158,1277,158,112442,0
ge-35,false,0.17,2180,201,2178,201,169157,0
ge-36,false,0.44,2827,400,2826,400,251653,0
ge-37,false,0.90,418,381,416,381,38635,0
ge-38,false,0.52,1538,275,1537,275,129184,0
ge-39,false,0.20,2076,201,2076,201,176814,0
ge-40,true,1.00,38,333,34,329,7234,0
ge-41,false,0.50,1325,309,1324,309,114629,0
ge-42,false,0.18,1834,149,1834,149,153939,0
ge-43,false,0.38,1043,247,1040,247,87918,0
ge-44,false,0.33,339,176,338,176,30473,0
ge-45,false,0.55,1149,316,1147,316,99668,0
ge-46,false,0.30,2390,268,2390,268,192836,0
ge-47,false,0.20,1364,187,1363,187,126895,0
ge-48,false,0.62,1009,346,1008,346,87981,0
ge-49,true,1.00,1750,453,1748,448,145463,0
ge-50,false,0.34,1681,239,1681,239,139340,0
ge-51,true,1.00,767,405,760,401,68240,0
ge-52,false,0.12,29932,999,29928,999,2499568,0
ge-53,false,0.21,2095,140,2094,140,169527,0
ge-54,true,1.00,2517,617,2513,612,231464,0
ge-55,false,0.83,685,374,683,374,61224,0
ge-56,false,0.12,1282,142,1282,142,110203,0
ge-57,false,0.12,901,106,900,106,78074,0
ge-58,true,1.00,614,540,608,533,60391,0
ge-59,false,0.35,623,201,621,201,58202,0
ge-60,false,0.22,1142,152,1140,152,92336,0
ge-61,false,0.80,1904,407,1899,407,159038,0
ge-62,false,0.28,1040,205,1040,205,90198,0
ge-63,false,0.21,946,144,946,144,81469,0
ge-64,false,0.70,1305,316,1304,316,109214,0
ge-65,false,0.39,972,225,972,225,86526,0
ge-66,false,0.25,1419,188,1419,188,121845,0
ge-67,false,0.95,1598,520,1595,520,134836,0
ge-68,true,1.00,2610,461,2606,457,219551,0
ge-69,false,0.13,289,100,289,100,24789,0
ge-70,false,0.85,488,362,486,362,45710,0
ge-71,false,0.29,1131,207,1130,207,103214,0
ge-72,false,0.98,399,428,399,428,39682,0
ge-73,false,0.96,2207,458,2207,458,192396,0
ge-74,false,0.46,982,295,982,295,86500,0
ge-75,false,0.83,2119,421,2118,421,182358,0
ge-76,false,0.13,841,120,841,120,73329,0
ge-77,false,0.11,1471,155,1471,155,137047,0
ge-78,false,0.55,1655,323,1652,323,125157,0
ge-79,false,0.99,737,409,735,409,55493,0
ge-80,true,1.00,98,380,96,371,13152,0
ge-81,true,1.00,51,351,51,346,8447,0
ge-82,true,1.00,74,380,72,376,11668,0
ge-83,false,0.09,1276,150,1274,150,131169,0
ge-84,false,0.12,1052,105,1051,105,91212,0
ge-85,false,0.41,430,194,430,194,38034,0
ge-86,false,0.37,1301,214,1299,214,117507,0
ge-87,false,0.60,3099,406,3097,406,266210,0
ge-88,false,0.17,1526,158,1526,158,135898,0
ge-89,false,0.46,334,257,334,257,32251,0
ge-90,true,1.00,38,338,35,333,7319,0
ge-91,false,0.87,722,380,717,380,64061,0
ge-92,false,0.79,66,322,60,322,10308,0
ge-93,false,0.39,2098,255,2097,255,168718,0
ge-94,false,0.75,3133,415,3131,415,267705,0
ge-95,true,1.00,98,416,97,412,14857,0
ge-96,false,0.32,3238,267,3238,267,274964,0
ge-97,false,0.62,699,303,695,303,64391,0
ge-98,true,1.00,47,353,46,349,7990,0
ge-99,true,1.00,1747,428,1743,424,135752,0
ge-100,false,0.12,311,78,310,78,27842,0
