NDW:0.0
TTFW:0.6
DFPT:2.0
DFPAP:3.0
DFPMP:20.0
RIGHT_WINDOW_BORDER_X:235.0
level,win/fail,% travelled,run time,game ticks,planning time,total plannings,nodes evaluated,most backtracked nodes
patternCount-1,false,0.68,1981,309,1968,309,99107,0
patternCount-2,true,1.00,1150,384,1141,363,58073,0
patternCount-3,true,1.00,6065,538,6046,498,250075,0
patternCount-4,true,1.00,1323,412,1315,386,71042,0
patternCount-5,true,1.00,1363,400,1353,376,70817,0
patternCount-6,true,1.00,719,352,711,331,37265,0
patternCount-7,true,1.00,1155,363,1142,342,59654,0
patternCount-8,true,1.00,3962,480,3954,446,186860,0
patternCount-9,true,1.00,1291,358,1279,336,52819,0
patternCount-10,true,1.00,561,338,553,313,29473,0
patternCount-11,true,1.00,5739,470,5730,434,269238,0
patternCount-12,true,1.00,1143,393,1127,367,39957,0
patternCount-13,true,1.00,1362,406,1347,385,46376,0
patternCount-14,true,1.00,1208,363,1200,331,62619,0
patternCount-15,true,1.00,1123,384,1109,363,55851,0
patternCount-16,true,1.00,1246,373,1239,352,62734,0
patternCount-17,true,1.00,1303,392,1296,371,63679,0
patternCount-18,true,1.00,1302,356,1297,335,67775,0
patternCount-19,true,1.00,776,341,772,320,40215,0
patternCount-20,true,1.00,1486,371,1472,348,46205,0
patternCount-21,true,1.00,1119,363,1114,342,56517,0
patternCount-22,true,1.00,3543,436,3537,401,188875,0
patternCount-23,true,1.00,6911,476,6900,453,357183,0
patternCount-24,true,1.00,7560,515,7550,487,403418,0
patternCount-25,true,1.00,1213,395,1206,370,64368,0
patternCount-26,true,1.00,960,360,950,337,50945,0
patternCount-27,true,1.00,1151,397,1145,375,59499,0
patternCount-28,true,1.00,1230,395,1226,367,63635,0
patternCount-29,true,1.00,1366,373,1357,352,72760,0
patternCount-30,true,1.00,925,338,918,317,49077,0
patternCount-31,true,1.00,1576,408,1564,387,82115,0
patternCount-32,true,1.00,1272,381,1264,360,67243,0
patternCount-33,true,1.00,3265,476,3253,446,171460,0
patternCount-34,true,1.00,2068,438,2062,414,109376,0
patternCount-35,true,1.00,1186,382,1176,361,61553,0
patternCount-36,true,1.00,3010,477,3002,441,122376,0
patternCount-37,true,1.00,1091,378,1083,357,58152,0
patternCount-38,true,1.00,2594,429,2586,407,134504,0
patternCount-39,true,1.00,964,373,959,352,52260,0
patternCount-40,true,1.00,5988,472,5980,439,268267,0
patternCount-41,true,1.00,2227,438,2218,412,112597,0
patternCount-42,true,1.00,1827,397,1807,376,50627,0
patternCount-43,true,1.00,1112,379,1101,353,54595,0
patternCount-44,true,1.00,990,368,980,347,50601,0
patternCount-45,true,1.00,1649,460,1634,433,77720,0
patternCount-46,true,1.00,1661,380,1653,354,84668,0
patternCount-47,true,1.00,2022,420,2013,399,98907,0
patternCount-48,true,1.00,788,376,780,350,39262,0
patternCount-49,true,1.00,1072,380,1059,354,53862,0
patternCount-50,true,1.00,5939,554,5930,503,263834,0
patternCount-51,true,1.00,924,374,915,353,45489,0
patternCount-52,true,1.00,1128,370,1120,344,57151,0
patternCount-53,true,1.00,4783,444,4771,416,212715,0
patternCount-54,true,1.00,2095,409,2088,388,105280,0
patternCount-55,true,1.00,6352,439,6343,406,328117,0
patternCount-56,true,1.00,1605,389,1594,368,83699,0
patternCount-57,true,1.00,817,365,810,339,42992,0
patternCount-58,false,0.80,6645,419,6640,419,312998,0
patternCount-59,true,1.00,1112,371,1099,350,58302,0
patternCount-60,true,1.00,1229,388,1218,367,63912,0
patternCount-61,true,1.00,1191,393,1187,365,62762,0
patternCount-62,true,1.00,1589,383,1583,362,81350,0
patternCount-63,true,1.00,834,334,823,313,42401,0
patternCount-64,true,1.00,750,354,744,333,40062,0
patternCount-65,true,1.00,1063,356,1057,334,55372,0
patternCount-66,true,1.00,1409,387,1399,361,73641,0
patternCount-67,true,1.00,1757,385,1743,359,94265,0
patternCount-68,true,1.00,711,403,693,382,36382,0
patternCount-69,true,1.00,856,353,848,326,45410,0
patternCount-70,true,1.00,1013,364,1004,343,51908,0
patternCount-71,true,1.00,985,376,979,354,52183,0
patternCount-72,true,1.00,5293,424,5285,394,268360,0
patternCount-73,true,1.00,1968,444,1956,422,100508,0
patternCount-74,true,1.00,7606,516,7600,455,380659,0
patternCount-75,true,1.00,1541,481,1528,458,79572,0
patternCount-76,true,1.00,939,352,933,331,50678,0
patternCount-77,true,1.00,1367,397,1360,376,70024,0
patternCount-78,true,1.00,1095,370,1086,349,56335,0
patternCount-79,true,1.00,6164,482,6151,451,326179,0
patternCount-80,true,1.00,3758,467,3743,422,152102,0
patternCount-81,true,1.00,1074,359,1071,338,54019,0
patternCount-82,true,1.00,1054,364,1046,338,54684,0
patternCount-83,true,1.00,1021,398,1014,377,50530,0
patternCount-84,true,1.00,1132,399,1128,378,56201,0
patternCount-85,true,1.00,1053,381,1044,360,53234,0
patternCount-86,true,1.00,1517,393,1504,372,49036,0
patternCount-87,true,1.00,1372,364,1358,338,61147,0
patternCount-88,true,1.00,1612,396,1602,375,84914,0
patternCount-89,true,1.00,1159,369,1152,348,63471,0
patternCount-90,true,1.00,1096,391,1094,370,56693,0
patternCount-91,true,1.00,1689,398,1681,377,87880,0
patternCount-92,true,1.00,1099,357,1089,336,57664,0
patternCount-93,true,1.00,4731,461,4724,421,236682,0
patternCount-94,true,1.00,1491,383,1481,360,75101,0
patternCount-95,true,1.00,1673,391,1663,370,83756,0
patternCount-96,true,1.00,1299,433,1290,411,65683,0
patternCount-97,false,0.82,4067,349,4060,349,202141,0
patternCount-98,true,1.00,1187,370,1181,348,60397,0
patternCount-99,true,1.00,970,387,959,366,49043,0
patternCount-100,true,1.00,1048,355,1034,334,53949,0
