NDW:0.0
TTFW:0.6
DFPT:2.0
DFPAP:3.0
DFPMP:3.0
RIGHT_WINDOW_BORDER_X:155.0
level,win/fail,% travelled,run time,game ticks,planning time,total plannings,nodes evaluated,most backtracked nodes
notch-1,true,1.00,887,266,879,252,46642,0
notch-2,true,1.00,1134,275,1130,261,60486,0
notch-3,true,1.00,732,245,730,231,38726,0
notch-4,true,1.00,1132,256,1131,242,59825,0
notch-5,true,1.00,723,244,719,230,38109,0
notch-6,true,1.00,770,282,763,268,40631,0
notch-7,true,1.00,562,251,560,237,29736,0
notch-8,true,1.00,769,304,759,287,39832,0
notch-9,true,1.00,905,250,900,236,47297,0
notch-10,true,1.00,1151,279,1143,265,61154,0
notch-11,true,1.00,899,252,895,238,47474,0
notch-12,true,1.00,541,231,532,217,27662,0
notch-13,true,1.00,735,251,726,237,38311,0
notch-14,true,1.00,789,241,785,227,41423,0
notch-15,true,1.00,691,243,688,229,35462,0
notch-16,true,1.00,854,245,844,231,45096,0
notch-17,true,1.00,867,258,863,244,45716,0
notch-18,true,1.00,1291,301,1285,287,64638,0
notch-19,true,1.00,1075,243,1067,229,57325,0
notch-20,true,1.00,1171,294,1161,280,60656,0
notch-21,true,1.00,1431,291,1426,277,76835,0
notch-22,true,1.00,500,223,497,209,25629,0
notch-23,true,1.00,1085,250,1074,236,56963,0
notch-24,true,1.00,632,247,623,233,32780,0
notch-25,true,1.00,900,253,895,239,47250,0
notch-26,true,1.00,742,252,738,238,38269,0
notch-27,true,1.00,1262,280,1258,266,65586,0
notch-28,true,1.00,927,260,925,245,49467,0
notch-29,true,1.00,1029,281,1024,267,54227,0
notch-30,true,1.00,844,235,841,221,43136,0
notch-31,true,1.00,670,251,664,237,34826,0
notch-32,true,1.00,715,254,710,239,37027,0
notch-33,true,1.00,693,233,691,219,35628,0
notch-34,true,1.00,681,251,677,237,35994,0
notch-35,true,1.00,553,236,546,222,29217,0
notch-36,true,1.00,1008,275,1003,261,53257,0
notch-37,true,1.00,1183,266,1172,250,62054,0
notch-38,true,1.00,891,249,883,235,46511,0
notch-39,true,1.00,833,248,825,234,43342,0
notch-40,true,1.00,955,263,950,248,51011,0
notch-41,true,1.00,1239,284,1233,264,65908,0
notch-42,true,1.00,901,242,894,228,48043,0
notch-43,true,1.00,647,238,639,224,33837,0
notch-44,true,1.00,770,237,767,223,40186,0
notch-45,true,1.00,1254,270,1251,256,65946,0
notch-46,true,1.00,949,272,940,258,49680,0
notch-47,true,1.00,945,253,942,239,50541,0
notch-48,true,1.00,1179,255,1174,241,63612,0
notch-49,true,1.00,1182,286,1175,270,60048,0
notch-50,true,1.00,938,292,932,278,46946,0
notch-51,true,1.00,632,232,626,218,33548,0
notch-52,true,1.00,668,252,660,238,35597,0
notch-53,true,1.00,447,260,439,245,22003,0
notch-54,true,1.00,1002,281,996,266,53344,0
notch-55,true,1.00,1373,293,1366,279,70408,0
notch-56,true,1.00,607,244,603,230,31664,0
notch-57,true,1.00,768,261,763,247,39346,0
notch-58,true,1.00,1300,315,1295,300,66555,0
notch-59,true,1.00,733,258,725,244,37672,0
notch-60,true,1.00,870,245,865,231,45829,0
notch-61,true,1.00,891,235,886,221,46220,0
notch-62,true,1.00,818,265,812,251,41547,0
notch-63,true,1.00,1014,282,1005,268,53617,0
notch-64,true,1.00,957,248,953,234,49840,0
notch-65,true,1.00,1520,307,1513,293,79746,0
notch-66,true,1.00,1195,290,1189,275,60861,0
notch-67,true,1.00,693,229,688,215,35668,0
notch-68,true,1.00,581,250,575,236,30449,0
notch-69,true,1.00,1596,305,1592,291,82631,0
notch-70,true,1.00,1152,298,1141,284,62412,0
notch-71,true,1.00,971,228,965,214,50689,0
notch-72,true,1.00,869,265,869,251,46287,0
notch-73,true,1.00,920,269,910,255,47730,0
notch-74,true,1.00,518,235,511,221,27747,0
notch-75,true,1.00,1173,268,1169,254,61268,0
notch-76,true,1.00,953,275,946,261,49997,0
notch-77,true,1.00,721,247,711,233,38000,0
notch-78,true,1.00,975,251,971,231,51929,0
notch-79,true,1.00,979,263,971,249,51268,0
notch-80,true,1.00,436,226,432,212,22209,0
notch-81,true,1.00,1356,260,1353,246,71312,0
notch-82,true,1.00,794,254,779,240,40858,0
notch-83,true,1.00,1047,272,1039,257,54351,0
notch-84,true,1.00,615,239,609,225,32070,0
notch-85,true,1.00,504,232,498,218,26529,0
notch-86,true,1.00,752,233,746,219,38947,0
notch-87,true,1.00,973,251,969,237,51070,0
notch-88,true,1.00,1287,276,1284,261,68953,0
notch-89,true,1.00,1218,293,1208,279,64582,0
notch-90,true,1.00,1132,268,1127,254,59950,0
notch-91,true,1.00,1171,265,1162,251,62424,0
notch-92,true,1.00,1524,284,1516,270,80326,0
notch-93,true,1.00,896,260,890,246,47407,0
notch-94,true,1.00,1333,288,1326,274,70845,0
notch-95,true,1.00,571,228,567,214,29210,0
notch-96,true,1.00,654,244,648,230,34885,0
notch-97,true,1.00,1009,264,1002,250,53476,0
notch-98,true,1.00,1242,272,1232,258,64821,0
notch-99,true,1.00,1046,243,1043,229,56382,0
notch-100,true,1.00,993,287,985,271,51506,0
