NDW:0.0
TTFW:1.6
DFPT:2.0
DFPAP:3.0
DFPMP:50.0
RIGHT_WINDOW_BORDER_X:115.0
level,win/fail,% travelled,run time,game ticks,planning time,total plannings,nodes evaluated,most backtracked nodes
notchParamRand-1,true,1.00,3431,443,3430,433,345436,0
notchParamRand-2,true,1.00,83,302,83,292,8904,0
notchParamRand-3,true,1.00,2927,387,2925,377,309728,0
notchParamRand-4,true,1.00,4301,488,4301,478,460966,0
notchParamRand-5,true,1.00,183,300,182,290,18859,0
notchParamRand-6,true,1.00,649,324,649,314,70941,0
notchParamRand-7,true,1.00,347,306,346,296,36386,0
notchParamRand-8,true,1.00,450,322,449,312,41949,0
notchParamRand-9,true,1.00,1712,375,1709,365,183342,0
notchParamRand-10,true,1.00,1553,388,1549,378,178637,0
notchParamRand-11,true,1.00,86,310,85,300,9333,0
notchParamRand-12,true,1.00,452,318,452,308,49444,0
notchParamRand-13,true,1.00,5534,479,5533,469,578647,0
notchParamRand-14,true,1.00,3356,409,3356,399,350167,0
notchParamRand-15,true,1.00,716,318,714,308,76840,0
notchParamRand-16,true,1.00,382,304,380,294,44809,0
notchParamRand-17,true,1.00,18,303,15,293,2154,0
notchParamRand-18,true,1.00,9142,629,9142,619,957992,0
notchParamRand-19,true,1.00,187,326,185,316,20420,0
notchParamRand-20,true,1.00,4467,451,4466,441,485953,0
notchParamRand-21,true,1.00,17,296,16,286,1900,0
notchParamRand-22,true,1.00,1411,356,1409,346,152609,0
notchParamRand-23,true,1.00,2746,425,2745,415,299569,0
notchParamRand-24,true,1.00,122,329,117,319,13376,0
notchParamRand-25,true,1.00,18,312,16,302,2429,0
notchParamRand-26,true,1.00,391,358,387,348,42181,0
notchParamRand-27,true,1.00,183,304,183,294,23489,0
notchParamRand-28,true,1.00,455,333,453,323,48800,0
notchParamRand-29,true,1.00,17,298,17,288,1993,0
notchParamRand-30,true,1.00,8825,571,8824,561,848236,0
notchParamRand-31,true,1.00,349,314,348,304,37989,0
notchParamRand-32,true,1.00,84,308,82,298,9642,0
notchParamRand-33,true,1.00,8765,614,8756,604,949471,0
notchParamRand-34,true,1.00,3628,421,3626,411,377322,0
notchParamRand-35,true,1.00,1021,344,1020,334,111451,0
notchParamRand-36,true,1.00,17,303,15,289,1985,0
notchParamRand-37,true,1.00,472,314,472,304,53432,0
notchParamRand-38,true,1.00,5756,536,5756,526,592493,0
notchParamRand-39,true,1.00,3597,446,3595,436,377838,0
notchParamRand-40,true,1.00,9968,656,9967,646,1045863,0
notchParamRand-41,true,1.00,16,294,16,284,1676,0
notchParamRand-42,true,1.00,383,316,381,306,41478,0
notchParamRand-43,true,1.00,217,300,212,290,23770,0
notchParamRand-44,true,1.00,423,320,420,310,49886,0
notchParamRand-45,true,1.00,1383,336,1382,326,135405,0
notchParamRand-46,true,1.00,1613,353,1610,343,175191,0
notchParamRand-47,true,1.00,1315,370,1312,360,139753,0
notchParamRand-48,true,1.00,6366,526,6364,516,660827,0
notchParamRand-49,true,1.00,1025,338,1025,328,107962,0
notchParamRand-50,true,1.00,6293,532,6290,522,732868,0
notchParamRand-51,true,1.00,122,317,120,307,13700,0
notchParamRand-52,true,1.00,3522,403,3520,393,370843,0
notchParamRand-53,true,1.00,2097,361,2095,351,217583,0
notchParamRand-54,true,1.00,8526,584,8525,574,912195,0
notchParamRand-55,true,1.00,8246,590,8242,580,831173,0
notchParamRand-56,true,1.00,2036,368,2034,358,209272,0
notchParamRand-57,true,1.00,2833,384,2830,374,302707,0
notchParamRand-58,true,1.00,1318,368,1316,358,143003,0
notchParamRand-59,true,1.00,958,332,957,322,105264,0
notchParamRand-60,true,1.00,1738,358,1736,348,188490,0
notchParamRand-61,true,1.00,517,328,514,318,55759,0
notchParamRand-62,true,1.00,385,324,381,314,41389,0
notchParamRand-63,true,1.00,5834,494,5832,484,604339,0
notchParamRand-64,true,1.00,382,314,381,304,41665,0
notchParamRand-65,true,1.00,7438,586,7436,576,763293,0
notchParamRand-66,true,1.00,222,321,221,311,22854,0
notchParamRand-67,true,1.00,247,298,246,288,24672,0
notchParamRand-68,true,1.00,3687,415,3686,405,388461,0
notchParamRand-69,true,1.00,910,330,907,320,102150,0
notchParamRand-70,true,1.00,856,350,854,340,93828,0
notchParamRand-71,true,1.00,252,308,252,298,27761,0
notchParamRand-72,true,1.00,83,298,83,288,9214,0
notchParamRand-73,true,1.00,1046,343,1044,333,109811,0
notchParamRand-74,true,1.00,17,296,15,286,1983,0
notchParamRand-75,true,1.00,16,294,14,284,1739,0
notchParamRand-76,true,1.00,2356,387,2354,377,251425,0
notchParamRand-77,true,1.00,7876,559,7876,549,790263,0
notchParamRand-78,true,1.00,3426,419,3425,409,364305,0
notchParamRand-79,true,1.00,217,308,214,298,23250,0
notchParamRand-80,true,1.00,315,306,313,296,29696,0
notchParamRand-81,true,1.00,384,310,383,300,44560,0
notchParamRand-82,true,1.00,1613,382,1611,372,175996,0
notchParamRand-83,true,1.00,2770,395,2769,385,293854,0
notchParamRand-84,true,1.00,324,330,321,320,37152,0
notchParamRand-85,true,1.00,16,294,14,284,1684,0
notchParamRand-86,true,1.00,397,355,397,345,44851,0
notchParamRand-87,true,1.00,5939,485,5939,475,637955,0
notchParamRand-88,true,1.00,255,304,252,294,30694,0
notchParamRand-89,true,1.00,2389,372,2388,362,254371,0
notchParamRand-90,true,1.00,1140,335,1137,325,111507,0
notchParamRand-91,true,1.00,16,296,13,285,1865,0
notchParamRand-92,true,1.00,1053,354,1051,344,113774,0
notchParamRand-93,true,1.00,348,314,347,304,37370,0
notchParamRand-94,true,1.00,4457,455,4457,445,461108,0
notchParamRand-95,true,1.00,1343,346,1342,336,140174,0
notchParamRand-96,true,1.00,1970,374,1969,364,214491,0
notchParamRand-97,true,1.00,3357,419,3356,409,349814,0
notchParamRand-98,true,1.00,583,325,580,315,75061,0
notchParamRand-99,true,1.00,252,320,250,310,27332,0
notchParamRand-100,true,1.00,5986,509,5984,499,619255,0
