NDW:0.0
TTFW:2.0
DFPT:2.0
DFPAP:3.0
DFPMP:1.0
RIGHT_WINDOW_BORDER_X:235.0
level,win/fail,% travelled,run time,game ticks,planning time,total plannings,nodes evaluated,most backtracked nodes
notchParam-1,true,1.00,978,312,970,291,54413,0
notchParam-2,true,1.00,1003,346,998,325,56535,0
notchParam-3,true,1.00,682,309,672,288,38995,0
notchParam-4,true,1.00,701,318,690,297,39829,0
notchParam-5,true,1.00,695,312,688,290,39915,0
notchParam-6,true,1.00,732,320,715,299,41380,0
notchParam-7,true,1.00,976,321,966,300,56084,0
notchParam-8,true,1.00,1165,315,1159,294,67942,0
notchParam-9,true,1.00,685,331,673,310,39101,0
notchParam-10,true,1.00,1151,314,1145,293,66207,0
notchParam-11,true,1.00,629,314,622,293,36322,0
notchParam-12,true,1.00,1146,333,1132,312,66718,0
notchParam-13,true,1.00,354,314,346,293,19568,0
notchParam-14,true,1.00,352,304,348,283,19938,0
notchParam-15,true,1.00,1080,320,1069,299,58562,0
notchParam-16,true,1.00,909,309,901,288,51991,0
notchParam-17,true,1.00,906,306,903,285,52456,0
notchParam-18,true,1.00,412,347,402,326,22346,0
notchParam-19,true,1.00,359,311,346,290,20286,0
notchParam-20,true,1.00,334,308,326,287,19139,0
notchParam-21,true,1.00,364,304,360,283,20489,0
notchParam-22,true,1.00,365,315,357,294,20667,0
notchParam-23,true,1.00,1340,360,1333,339,77672,0
notchParam-24,true,1.00,1184,337,1178,316,68391,0
notchParam-25,true,1.00,1137,320,1131,299,66764,0
notchParam-26,true,1.00,1173,326,1163,305,68699,0
notchParam-27,true,1.00,349,309,337,288,19718,0
notchParam-28,true,1.00,695,319,688,298,40068,0
notchParam-29,true,1.00,689,321,681,300,39556,0
notchParam-30,true,1.00,352,310,341,289,19708,0
notchParam-31,true,1.00,1069,326,1062,305,59214,0
notchParam-32,true,1.00,995,321,989,300,57563,0
notchParam-33,true,1.00,369,300,365,279,21604,0
notchParam-34,true,1.00,964,320,955,299,54903,0
notchParam-35,true,1.00,998,313,991,292,56586,0
notchParam-36,true,1.00,908,302,900,281,52890,0
notchParam-37,true,1.00,373,300,366,279,21679,0
notchParam-38,true,1.00,351,304,340,283,20315,0
notchParam-39,true,1.00,885,304,879,283,50541,0
notchParam-40,true,1.00,623,308,609,287,35755,0
notchParam-41,true,1.00,682,322,672,301,38607,0
notchParam-42,true,1.00,369,309,366,288,20812,0
notchParam-43,true,1.00,1147,313,1140,292,67359,0
notchParam-44,true,1.00,1184,340,1174,319,68890,0
notchParam-45,true,1.00,1137,327,1121,297,67223,0
notchParam-46,true,1.00,1174,310,1167,289,67915,0
notchParam-47,true,1.00,351,312,345,291,20150,0
notchParam-48,true,1.00,367,337,355,316,20336,0
notchParam-49,true,1.00,378,324,368,299,21509,0
notchParam-50,true,1.00,410,326,403,305,21825,0
notchParam-51,true,1.00,352,308,345,287,20115,0
notchParam-52,true,1.00,1363,330,1357,309,70098,0
notchParam-53,true,1.00,1203,342,1195,321,67085,0
notchParam-54,true,1.00,1102,324,1095,303,60056,0
notchParam-55,true,1.00,403,321,391,300,22657,0
notchParam-56,true,1.00,347,314,339,293,20001,0
notchParam-57,true,1.00,1283,329,1277,308,75395,0
notchParam-58,true,1.00,656,336,649,315,37994,0
notchParam-59,true,1.00,1238,337,1232,316,71982,0
notchParam-60,true,1.00,683,338,673,317,38760,0
notchParam-61,true,1.00,1222,356,1210,335,71010,0
notchParam-62,true,1.00,874,298,870,277,49973,0
notchParam-63,true,1.00,682,324,678,303,38155,0
notchParam-64,true,1.00,635,324,627,303,36084,0
notchParam-65,true,1.00,682,346,674,325,38782,0
notchParam-66,true,1.00,729,328,722,307,42119,0
notchParam-67,true,1.00,1008,312,999,291,57432,0
notchParam-68,true,1.00,884,308,875,286,48905,0
notchParam-69,true,1.00,869,308,865,287,49903,0
notchParam-70,true,1.00,930,310,925,289,53187,0
notchParam-71,true,1.00,806,354,784,333,44082,0
notchParam-72,true,1.00,704,340,700,319,41038,0
notchParam-73,true,1.00,656,308,650,287,37025,0
notchParam-74,true,1.00,720,331,705,310,40278,0
notchParam-75,true,1.00,710,330,704,309,41766,0
notchParam-76,true,1.00,1273,357,1263,336,72889,0
notchParam-77,true,1.00,744,337,739,316,43292,0
notchParam-78,true,1.00,1192,330,1189,309,69347,0
notchParam-79,true,1.00,678,317,671,296,37713,0
notchParam-80,true,1.00,454,365,446,344,21459,0
notchParam-81,true,1.00,663,320,651,299,38684,0
notchParam-82,true,1.00,408,305,404,284,23060,0
notchParam-83,true,1.00,420,302,406,281,20215,0
notchParam-84,true,1.00,1224,321,1209,300,51524,0
notchParam-85,true,1.00,1454,349,1446,328,65467,0
notchParam-86,true,1.00,1179,304,1175,283,62954,0
notchParam-87,true,1.00,396,323,395,302,22060,0
notchParam-88,true,1.00,420,310,412,289,23718,0
notchParam-89,true,1.00,363,306,354,285,20317,0
notchParam-90,true,1.00,363,309,356,288,20473,0
notchParam-91,true,1.00,1239,330,1234,309,70583,0
notchParam-92,true,1.00,1249,329,1243,308,71975,0
notchParam-93,true,1.00,1163,320,1157,299,68441,0
notchParam-94,true,1.00,1188,341,1175,320,68018,0
notchParam-95,true,1.00,1255,361,1247,340,72764,0
notchParam-96,true,1.00,707,321,699,300,41358,0
notchParam-97,true,1.00,690,315,684,294,39106,0
notchParam-98,true,1.00,369,300,363,279,21177,0
notchParam-99,true,1.00,1103,324,1097,303,61619,0
notchParam-100,true,1.00,926,304,918,283,52484,0
