NDW:0.0
TTFW:1.2
DFPT:2.0
DFPAP:3.0
DFPMP:2.0
RIGHT_WINDOW_BORDER_X:15.0
level,win/fail,% travelled,run time,game ticks,planning time,total plannings,nodes evaluated,most backtracked nodes
hopper-1,false,0.13,278,117,275,117,13304,0
hopper-2,false,0.13,278,117,276,117,13351,0
hopper-3,false,0.24,627,215,627,215,30288,0
hopper-4,false,0.14,19,122,15,122,1122,0
hopper-5,false,0.13,279,117,276,117,13310,0
hopper-6,false,0.14,20,122,17,122,1122,0
hopper-7,false,0.13,278,117,271,117,13172,0
hopper-8,false,0.13,301,117,288,117,8062,0
hopper-9,false,0.13,295,117,291,117,8115,0
hopper-10,false,0.14,22,99,14,99,605,0
hopper-11,false,0.13,295,117,288,117,8166,0
hopper-12,false,0.14,39,122,33,122,1122,0
hopper-13,false,0.13,293,117,285,117,8113,0
hopper-14,false,0.13,293,117,287,117,8130,0
hopper-15,false,0.13,292,117,289,117,8600,0
hopper-16,false,0.13,288,117,283,117,9804,0
hopper-17,false,0.14,27,122,24,122,1122,0
hopper-18,false,0.14,16,99,11,99,605,0
hopper-19,false,0.14,16,101,10,101,620,0
hopper-20,false,0.13,283,117,280,117,11904,0
hopper-21,false,0.13,281,117,278,117,13257,0
hopper-22,false,0.13,444,122,440,122,20931,0
hopper-23,false,0.13,279,117,276,117,13303,0
hopper-24,false,0.13,278,117,277,117,13317,0
hopper-25,false,0.14,12,101,11,101,620,0
hopper-26,false,0.13,277,117,275,117,13151,0
hopper-27,false,0.13,278,117,277,117,13241,0
hopper-28,false,0.13,279,117,276,117,13182,0
hopper-29,false,0.26,438,244,432,244,20772,0
hopper-30,false,0.13,278,117,276,117,13309,0
hopper-31,false,0.13,279,117,276,117,13370,0
hopper-32,false,0.14,12,101,9,101,620,0
hopper-33,false,0.24,19,164,13,164,957,0
hopper-34,false,0.13,278,117,276,117,13360,0
hopper-35,false,0.13,278,117,274,117,13392,0
hopper-36,false,0.13,281,117,280,117,13387,0
hopper-37,false,0.14,20,122,16,122,1122,0
hopper-38,false,0.13,714,166,708,166,34173,0
hopper-39,false,0.14,12,99,7,99,605,0
hopper-40,false,0.13,277,117,275,117,13283,0
hopper-41,false,0.24,1945,256,1939,256,91355,0
hopper-42,false,0.13,281,117,279,117,12916,0
hopper-43,false,0.13,280,117,276,117,12923,0
hopper-44,false,0.14,12,99,9,99,605,0
hopper-45,false,0.13,279,117,275,117,12940,0
hopper-46,false,0.13,281,117,280,117,12859,0
hopper-47,false,0.14,12,99,9,99,605,0
hopper-48,false,0.13,279,117,275,117,12837,0
hopper-49,false,0.13,281,117,278,117,12919,0
hopper-50,false,0.13,280,117,278,117,12929,0
hopper-51,false,0.13,279,117,278,117,12915,0
hopper-52,false,0.17,14,110,12,110,636,0
hopper-53,false,0.13,278,117,275,117,12881,0
hopper-54,false,0.14,12,99,9,99,605,0
hopper-55,false,0.13,280,117,277,117,12867,0
hopper-56,false,0.17,13,112,11,112,648,0
hopper-57,false,0.14,12,99,9,99,605,0
hopper-58,false,0.13,280,117,279,117,12875,0
hopper-59,false,0.13,278,117,274,117,12852,0
hopper-60,false,0.14,21,122,16,122,1122,0
hopper-61,false,0.13,278,117,274,117,12789,0
hopper-62,false,0.13,280,117,277,117,12943,0
hopper-63,false,0.23,1114,234,1107,234,51274,0
hopper-64,false,0.13,280,117,275,117,12826,0
hopper-65,false,0.13,280,117,277,117,12793,0
hopper-66,false,0.14,12,99,9,99,605,0
hopper-67,false,0.14,21,122,16,122,1122,0
hopper-68,false,0.14,21,122,15,122,1122,0
hopper-69,false,0.13,281,117,278,117,12839,0
hopper-70,false,0.13,281,117,278,117,12801,0
hopper-71,false,0.14,12,101,8,101,620,0
hopper-72,false,0.13,294,117,289,117,8008,0
hopper-73,false,0.13,294,117,285,117,8003,0
hopper-74,false,0.13,295,117,286,117,7861,0
hopper-75,false,0.13,295,117,290,117,8006,0
hopper-76,false,0.13,295,117,286,117,8061,0
hopper-77,false,0.13,293,117,291,117,8513,0
hopper-78,false,0.14,20,99,13,99,605,0
hopper-79,false,0.13,288,117,283,117,9737,0
hopper-80,false,0.13,284,117,280,117,11257,0
hopper-81,false,0.13,280,117,276,117,12765,0
hopper-82,false,0.13,280,117,277,117,12658,0
hopper-83,false,0.13,280,117,277,117,12541,0
hopper-84,false,0.13,280,117,278,117,12542,0
hopper-85,false,0.30,229,224,224,224,10286,0
hopper-86,false,0.13,280,117,279,117,12768,0
hopper-87,false,0.13,279,117,278,117,13084,0
hopper-88,false,0.13,283,117,281,117,12818,0
hopper-89,false,0.13,281,117,277,117,13132,0
hopper-90,false,0.13,279,117,279,117,13139,0
hopper-91,false,0.13,280,117,278,117,12888,0
hopper-92,false,0.13,280,117,277,117,12984,0
hopper-93,false,0.14,20,122,17,122,1122,0
hopper-94,false,0.13,278,117,278,117,13210,0
hopper-95,false,0.14,12,99,9,99,605,0
hopper-96,false,0.13,278,117,276,117,13169,0
hopper-97,false,0.13,279,117,276,117,13161,0
hopper-98,false,0.13,279,117,276,117,13164,0
hopper-99,false,0.13,280,117,277,117,13104,0
hopper-100,false,0.13,278,117,277,117,13145,0
