NDW:0.0
TTFW:1.8
DFPT:2.0
DFPAP:3.0
DFPMP:7.0
RIGHT_WINDOW_BORDER_X:195.0
level,win/fail,% travelled,run time,game ticks,planning time,total plannings,nodes evaluated,most backtracked nodes
notchParamRand-1,true,1.00,902,334,902,317,97308,0
notchParamRand-2,true,1.00,75,308,75,291,7887,0
notchParamRand-3,true,1.00,907,310,907,293,110002,0
notchParamRand-4,true,1.00,1305,337,1302,320,157973,0
notchParamRand-5,true,1.00,145,306,145,289,16133,0
notchParamRand-6,true,1.00,309,312,306,295,36740,0
notchParamRand-7,true,1.00,167,298,165,281,18953,0
notchParamRand-8,true,1.00,435,314,432,297,45413,0
notchParamRand-9,true,1.00,519,338,516,321,62639,0
notchParamRand-10,true,1.00,661,321,660,304,81239,0
notchParamRand-11,true,1.00,71,310,69,293,7028,0
notchParamRand-12,true,1.00,295,340,292,323,33104,0
notchParamRand-13,true,1.00,1552,330,1550,313,172659,0
notchParamRand-14,true,1.00,934,316,931,299,101930,0
notchParamRand-15,true,1.00,471,308,467,291,57574,0
notchParamRand-16,true,1.00,303,300,302,283,40244,0
notchParamRand-17,true,1.00,38,303,36,286,2945,0
notchParamRand-18,true,1.00,2449,356,2448,339,285907,0
notchParamRand-19,true,1.00,128,328,126,311,14815,0
notchParamRand-20,true,1.00,1449,330,1448,313,158125,0
notchParamRand-21,true,1.00,48,296,46,279,2643,0
notchParamRand-22,true,1.00,794,318,793,301,87393,0
notchParamRand-23,true,1.00,916,350,914,333,108766,0
notchParamRand-24,true,1.00,154,339,153,322,17502,0
notchParamRand-25,true,1.00,38,308,37,290,3537,0
notchParamRand-26,true,1.00,316,340,312,323,37646,0
notchParamRand-27,true,1.00,179,300,177,283,21961,0
notchParamRand-28,true,1.00,324,317,322,300,36978,0
notchParamRand-29,true,1.00,53,298,51,281,2804,0
notchParamRand-30,true,1.00,1612,312,1611,295,179618,0
notchParamRand-31,true,1.00,220,319,219,302,26408,0
notchParamRand-32,true,1.00,74,294,72,277,6803,0
notchParamRand-33,true,1.00,1652,326,1651,309,179415,0
notchParamRand-34,true,1.00,916,320,916,303,106927,0
notchParamRand-35,true,1.00,476,314,475,297,56306,0
notchParamRand-36,true,1.00,34,302,31,283,2691,0
notchParamRand-37,true,1.00,296,310,296,293,36625,0
notchParamRand-38,true,1.00,1744,347,1744,330,193384,0
notchParamRand-39,true,1.00,1444,326,1444,309,166955,0
notchParamRand-40,true,1.00,1996,337,1994,320,230169,0
notchParamRand-41,true,1.00,32,294,31,277,2199,0
notchParamRand-42,true,1.00,360,316,359,299,44827,0
notchParamRand-43,true,1.00,166,300,166,283,20101,0
notchParamRand-44,true,1.00,247,302,245,285,30227,0
notchParamRand-45,true,1.00,806,322,806,305,87798,0
notchParamRand-46,true,1.00,448,311,447,294,53480,0
notchParamRand-47,true,1.00,716,320,713,303,82493,0
notchParamRand-48,true,1.00,1288,326,1288,309,150366,0
notchParamRand-49,true,1.00,677,312,677,295,78937,0
notchParamRand-50,true,1.00,1337,341,1336,324,158424,0
notchParamRand-51,true,1.00,141,315,140,298,15259,0
notchParamRand-52,true,1.00,721,322,719,305,82824,0
notchParamRand-53,true,1.00,908,328,906,311,102950,0
notchParamRand-54,true,1.00,2010,357,2010,340,227250,0
notchParamRand-55,true,1.00,1588,320,1587,303,173913,0
notchParamRand-56,true,1.00,639,323,638,306,72726,0
notchParamRand-57,true,1.00,918,314,916,297,111838,0
notchParamRand-58,true,1.00,756,347,755,330,89920,0
notchParamRand-59,true,1.00,439,311,437,294,50083,0
notchParamRand-60,true,1.00,576,323,575,306,68540,0
notchParamRand-61,true,1.00,398,310,396,293,47145,0
notchParamRand-62,true,1.00,375,322,374,305,43668,0
notchParamRand-63,true,1.00,1266,310,1266,293,145957,0
notchParamRand-64,true,1.00,228,294,226,277,27025,0
notchParamRand-65,true,1.00,1861,348,1858,331,211653,0
notchParamRand-66,true,1.00,217,327,217,310,22793,0
notchParamRand-67,true,1.00,234,300,233,283,24921,0
notchParamRand-68,true,1.00,1361,340,1360,323,157822,0
notchParamRand-69,true,1.00,173,309,172,292,21229,0
notchParamRand-70,true,1.00,717,326,714,309,88257,0
notchParamRand-71,true,1.00,248,336,247,319,27241,0
notchParamRand-72,true,1.00,68,294,65,277,6903,0
notchParamRand-73,true,1.00,469,308,468,291,50588,0
notchParamRand-74,true,1.00,37,296,36,279,2929,0
notchParamRand-75,true,1.00,34,294,32,277,2274,0
notchParamRand-76,true,1.00,1068,344,1065,327,121053,0
notchParamRand-77,true,1.00,1619,372,1619,355,175074,0
notchParamRand-78,true,1.00,1014,320,1013,303,118450,0
notchParamRand-79,true,1.00,140,306,139,289,15656,0
notchParamRand-80,true,1.00,230,296,227,279,23665,0
notchParamRand-81,true,1.00,219,298,218,281,27190,0
notchParamRand-82,true,1.00,700,330,699,313,82452,0
notchParamRand-83,true,1.00,1288,330,1285,313,143818,0
notchParamRand-84,true,1.00,256,300,255,283,30145,0
notchParamRand-85,true,1.00,33,294,32,277,2212,0
notchParamRand-86,true,1.00,441,354,439,337,51610,0
notchParamRand-87,true,1.00,1505,312,1504,295,180265,0
notchParamRand-88,true,1.00,215,300,213,283,27582,0
notchParamRand-89,true,1.00,272,296,271,279,32776,0
notchParamRand-90,true,1.00,641,329,639,312,71594,0
notchParamRand-91,true,1.00,33,294,32,277,2355,0
notchParamRand-92,true,1.00,794,324,790,307,95347,0
notchParamRand-93,true,1.00,241,319,236,292,28686,0
notchParamRand-94,true,1.00,1539,314,1538,297,171306,0
notchParamRand-95,true,1.00,653,316,651,299,75061,0
notchParamRand-96,true,1.00,415,329,413,312,47426,0
notchParamRand-97,true,1.00,1403,351,1400,334,157980,0
notchParamRand-98,true,1.00,164,294,162,277,20402,0
notchParamRand-99,true,1.00,143,310,141,293,16127,0
notchParamRand-100,true,1.00,1293,308,1293,291,151287,0
