NDW:0.0
TTFW:1.8
DFPT:2.0
DFPAP:3.0
DFPMP:20.0
RIGHT_WINDOW_BORDER_X:215.0
level,win/fail,% travelled,run time,game ticks,planning time,total plannings,nodes evaluated,most backtracked nodes
ge-1,true,1.00,449,247,448,213,52771,0
ge-2,true,1.00,338,224,336,205,41846,0
ge-3,true,1.00,157,228,157,209,16231,0
ge-4,true,1.00,996,252,995,228,120509,0
ge-5,true,1.00,27,199,24,180,2096,0
ge-6,true,1.00,303,255,302,224,35856,0
ge-7,true,1.00,81,224,79,204,8864,0
ge-8,true,1.00,203,223,202,204,22409,0
ge-9,true,1.00,467,218,466,198,56777,0
ge-10,true,1.00,26,199,25,180,2101,0
ge-11,true,1.00,132,210,129,191,14604,0
ge-12,true,1.00,26,199,26,180,1949,0
ge-13,true,1.00,266,250,265,225,32464,0
ge-14,true,1.00,138,230,137,194,14956,0
ge-15,true,1.00,475,218,474,199,54191,0
ge-16,true,1.00,78,260,78,241,8226,0
ge-17,true,1.00,230,207,228,188,28692,0
ge-18,true,1.00,273,265,272,245,32353,0
ge-19,true,1.00,404,267,403,248,52623,0
ge-20,true,1.00,370,222,369,203,41622,0
ge-21,true,1.00,160,201,158,182,16961,0
ge-22,true,1.00,296,206,295,185,34331,0
ge-23,true,1.00,480,208,480,185,57980,0
ge-24,true,1.00,440,230,440,210,49928,0
ge-25,true,1.00,270,201,269,182,31992,0
ge-26,true,1.00,191,205,191,186,23567,0
ge-27,true,1.00,34,215,33,196,3024,0
ge-28,true,1.00,522,209,522,190,57053,0
ge-29,true,1.00,191,218,187,179,21028,0
ge-30,true,1.00,494,246,490,208,60963,0
ge-31,true,1.00,521,224,518,204,63728,0
ge-32,true,1.00,111,224,110,205,11935,0
ge-33,true,1.00,74,240,72,206,7411,0
ge-34,true,1.00,754,214,753,192,90356,0
ge-35,true,1.00,327,249,326,230,37866,0
ge-36,true,1.00,537,264,536,231,64083,0
ge-37,true,1.00,234,200,234,180,29322,0
ge-38,true,1.00,707,234,704,215,92156,0
ge-39,true,1.00,179,220,176,200,21469,0
ge-40,true,1.00,25,199,24,180,1988,0
ge-41,true,1.00,160,211,160,186,19635,0
ge-42,true,1.00,474,222,474,203,54959,0
ge-43,true,1.00,274,230,272,208,32579,0
ge-44,true,1.00,474,219,471,200,57810,0
ge-45,true,1.00,344,228,344,209,38684,0
ge-46,true,1.00,738,232,733,213,85977,0
ge-47,true,1.00,616,230,614,211,71644,0
ge-48,true,1.00,284,238,282,219,32854,0
ge-49,true,1.00,124,200,123,180,14701,0
ge-50,true,1.00,488,220,487,201,57520,0
ge-51,true,1.00,75,224,73,204,8456,0
ge-52,true,1.00,383,248,381,228,43481,0
ge-53,true,1.00,197,211,197,192,23927,0
ge-54,true,1.00,260,237,259,216,33997,0
ge-55,true,1.00,247,217,245,198,29542,0
ge-56,true,1.00,486,248,485,216,57157,0
ge-57,true,1.00,644,217,641,192,80940,0
ge-58,true,1.00,123,239,122,220,13507,0
ge-59,true,1.00,687,213,685,194,86020,0
ge-60,true,1.00,499,201,497,182,58411,0
ge-61,true,1.00,235,204,233,183,29708,0
ge-62,true,1.00,449,213,447,194,56909,0
ge-63,true,1.00,646,224,644,199,85153,0
ge-64,false,1.00,575,242,573,210,64657,0
ge-65,true,1.00,527,234,524,215,66253,0
ge-66,true,1.00,550,226,549,189,65779,0
ge-67,true,1.00,162,236,161,217,16939,0
ge-68,true,1.00,74,221,73,202,6683,0
ge-69,true,1.00,224,199,224,180,25845,0
ge-70,true,1.00,300,222,299,202,35348,0
ge-71,true,1.00,1270,240,1269,221,156320,0
ge-72,true,1.00,132,258,130,234,14998,0
ge-73,true,1.00,304,229,301,189,39756,0
ge-74,true,1.00,750,246,749,227,85291,0
ge-75,true,1.00,203,243,201,204,25631,0
ge-76,true,1.00,872,224,872,203,105026,0
ge-77,true,1.00,1049,236,1048,217,128239,0
ge-78,true,1.00,491,238,491,213,59629,0
ge-79,true,1.00,135,221,134,194,15851,0
ge-80,true,1.00,42,218,41,196,3204,0
ge-81,true,1.00,43,213,43,194,3974,0
ge-82,true,1.00,45,241,43,196,4113,0
ge-83,false,1.00,230,261,230,226,27515,0
ge-84,true,1.00,636,209,635,190,74097,0
ge-85,true,1.00,269,209,268,190,31540,0
ge-86,true,1.00,643,206,643,181,79516,0
ge-87,true,1.00,482,230,482,211,56547,0
ge-88,true,1.00,417,232,415,212,55110,0
ge-89,true,1.00,172,242,169,222,18645,0
ge-90,true,1.00,26,199,25,180,2068,0
ge-91,true,1.00,225,199,224,180,25463,0
ge-92,true,1.00,29,205,26,186,2488,0
ge-93,true,1.00,466,213,466,194,59016,0
ge-94,true,1.00,321,208,321,188,39644,0
ge-95,true,1.00,64,246,62,226,6342,0
ge-96,true,1.00,580,245,580,211,69181,0
ge-97,true,1.00,366,223,364,204,43406,0
ge-98,true,1.00,25,199,24,180,1916,0
ge-99,true,1.00,129,199,128,180,12738,0
ge-100,true,1.00,295,205,294,186,35437,0
