NDW:0.0
TTFW:0.4
DFPT:2.0
DFPAP:3.0
DFPMP:20.0
RIGHT_WINDOW_BORDER_X:235.0
level,win/fail,% travelled,run time,game ticks,planning time,total plannings,nodes evaluated,most backtracked nodes
notch-1,true,1.00,1148,267,1145,245,101329,0
notch-2,true,1.00,1340,257,1336,236,117861,0
notch-3,true,1.00,1129,269,1128,247,99010,0
notch-4,true,1.00,1064,229,1064,203,97179,0
notch-5,true,1.00,853,258,850,237,77612,0
notch-6,true,1.00,837,259,836,238,75804,0
notch-7,true,1.00,646,241,643,220,58786,0
notch-8,true,1.00,796,286,794,263,67712,0
notch-9,true,1.00,1135,262,1135,241,101070,0
notch-10,true,1.00,929,247,927,226,85191,0
notch-11,true,1.00,1159,261,1158,240,103000,0
notch-12,true,1.00,735,253,735,227,63640,0
notch-13,true,1.00,807,239,806,218,71975,0
notch-14,true,1.00,1002,239,1000,216,91236,0
notch-15,true,1.00,827,241,822,220,72107,0
notch-16,true,1.00,1205,259,1204,232,109281,0
notch-17,true,1.00,1047,260,1044,239,93114,0
notch-18,true,1.00,1488,287,1484,262,115724,0
notch-19,true,1.00,1247,241,1244,220,115243,0
notch-20,true,1.00,1027,268,1026,247,90472,0
notch-21,true,1.00,982,268,980,242,89782,0
notch-22,true,1.00,765,243,764,222,67951,0
notch-23,true,1.00,1139,264,1139,241,100163,0
notch-24,true,1.00,722,265,719,243,65081,0
notch-25,true,1.00,1063,255,1060,229,96140,0
notch-26,true,1.00,930,242,930,221,82800,0
notch-27,true,1.00,2417,295,2415,269,203658,0
notch-28,true,1.00,852,251,850,226,75147,0
notch-29,true,1.00,1087,249,1087,228,96294,0
notch-30,true,1.00,1011,243,1007,222,89524,0
notch-31,true,1.00,1044,260,1044,238,91496,0
notch-32,true,1.00,894,258,893,237,78690,0
notch-33,true,1.00,899,231,896,205,81762,0
notch-34,true,1.00,971,251,969,230,87806,0
notch-35,true,1.00,852,244,851,223,75554,0
notch-36,true,1.00,1121,275,1120,249,98875,0
notch-37,true,1.00,1654,271,1654,250,147969,0
notch-38,true,1.00,1041,252,1040,229,92946,0
notch-39,true,1.00,835,253,833,230,75171,0
notch-40,true,1.00,947,240,945,218,87397,0
notch-41,true,1.00,1178,276,1175,254,106235,0
notch-42,true,1.00,1003,230,1002,209,91889,0
notch-43,true,1.00,888,238,887,217,81179,0
notch-44,true,1.00,666,227,666,206,60750,0
notch-45,true,1.00,1013,248,1013,227,92297,0
notch-46,true,1.00,756,247,756,226,68150,0
notch-47,true,1.00,1599,281,1598,259,143984,0
notch-48,true,1.00,1481,257,1477,235,135251,0
notch-49,true,1.00,835,256,833,227,71422,0
notch-50,true,1.00,1177,280,1177,256,95381,0
notch-51,true,1.00,1159,268,1156,247,101786,0
notch-52,true,1.00,767,238,765,215,69886,0
notch-53,true,1.00,541,260,535,227,43804,0
notch-54,true,1.00,1018,259,1014,238,90352,0
notch-55,true,1.00,1251,276,1250,250,106477,0
notch-56,true,1.00,724,260,722,239,64917,0
notch-57,true,1.00,762,248,760,226,65840,0
notch-58,true,1.00,1375,269,1374,248,115575,0
notch-59,true,1.00,888,252,886,231,77779,0
notch-60,true,1.00,1170,263,1170,242,104723,0
notch-61,true,1.00,1116,247,1116,226,100027,0
notch-62,true,1.00,1090,268,1088,247,90431,0
notch-63,true,1.00,945,280,944,259,80954,0
notch-64,true,1.00,1129,242,1129,221,101108,0
notch-65,true,1.00,1687,276,1685,253,143952,0
notch-66,true,1.00,1046,257,1044,234,91881,0
notch-67,true,1.00,962,231,961,210,84231,0
notch-68,true,1.00,635,236,634,215,57848,0
notch-69,true,1.00,1353,259,1350,233,118393,0
notch-70,true,1.00,1201,283,1200,260,107629,0
notch-71,true,1.00,1431,259,1428,238,130737,0
notch-72,true,1.00,859,247,858,226,79315,0
notch-73,true,1.00,962,259,962,238,82590,0
notch-74,true,1.00,841,259,838,237,72648,0
notch-75,true,1.00,1774,265,1770,239,152232,0
notch-76,true,1.00,929,245,927,224,83688,0
notch-77,true,1.00,717,238,715,217,62955,0
notch-78,true,1.00,982,242,981,221,89819,0
notch-79,true,1.00,1280,263,1280,241,111807,0
notch-80,true,1.00,638,238,638,217,55938,0
notch-81,true,1.00,1316,238,1312,217,119254,0
notch-82,true,1.00,1000,250,996,229,88180,0
notch-83,true,1.00,1155,250,1153,229,101564,0
notch-84,true,1.00,830,235,829,209,73975,0
notch-85,true,1.00,696,236,694,213,61912,0
notch-86,true,1.00,986,253,982,232,87288,0
notch-87,true,1.00,1001,258,1000,232,91354,0
notch-88,true,1.00,1275,256,1275,233,115390,0
notch-89,true,1.00,987,245,987,224,90490,0
notch-90,true,1.00,1517,264,1515,241,133309,0
notch-91,true,1.00,1280,259,1278,233,113614,0
notch-92,true,1.00,924,239,924,213,85252,0
notch-93,true,1.00,889,251,887,230,77116,0
notch-94,true,1.00,1875,284,1872,259,165270,0
notch-95,true,1.00,680,236,680,214,61252,0
notch-96,true,1.00,732,242,732,221,69127,0
notch-97,true,1.00,1062,255,1062,234,93557,0
notch-98,true,1.00,1526,267,1525,245,134909,0
notch-99,true,1.00,1441,267,1441,246,127321,0
notch-100,true,1.00,844,243,843,222,76131,0
