NDW:0.0
TTFW:1.2
DFPT:2.0
DFPAP:3.0
DFPMP:5.0
RIGHT_WINDOW_BORDER_X:255.0
level,win/fail,% travelled,run time,game ticks,planning time,total plannings,nodes evaluated,most backtracked nodes
ore-1,true,1.00,1284,399,1280,374,152617,0
ore-2,false,0.70,3033,326,3031,326,295379,0
ore-3,true,1.00,1558,427,1557,386,188946,0
ore-4,true,1.00,1982,436,1979,413,234679,0
ore-5,true,1.00,1671,415,1671,386,200494,0
ore-6,true,1.00,1175,433,1175,400,130544,0
ore-7,true,1.00,1810,435,1803,404,207174,0
ore-8,true,1.00,2612,406,2611,369,244480,0
ore-9,true,1.00,1188,398,1188,367,111766,0
ore-10,true,1.00,1314,436,1311,401,159626,0
ore-11,true,1.00,1292,453,1290,428,149778,0
ore-12,true,1.00,2571,435,2571,411,235669,0
ore-13,true,1.00,1806,476,1803,434,207105,0
ore-14,true,1.00,1621,428,1617,405,199266,0
ore-15,true,1.00,1641,416,1641,393,196872,0
ore-16,true,1.00,1471,449,1467,418,178131,0
ore-17,true,1.00,1422,458,1418,413,174928,0
ore-18,true,1.00,1244,448,1243,411,157878,0
ore-19,true,1.00,1267,409,1264,384,152816,0
ore-20,true,1.00,1891,423,1887,391,220590,0
ore-21,true,1.00,2395,482,2389,457,300966,0
ore-22,false,0.62,1779,321,1779,321,170996,0
ore-23,true,1.00,1276,392,1274,368,150946,0
ore-24,true,1.00,1567,461,1563,426,189343,0
ore-25,true,1.00,1432,448,1428,415,178543,0
ore-26,true,1.00,1691,429,1688,400,187504,0
ore-27,true,1.00,2179,462,2176,438,251529,0
ore-28,true,1.00,1302,419,1300,390,138616,0
ore-29,true,1.00,1796,415,1795,392,203689,0
ore-30,true,1.00,1103,404,1101,371,121964,0
ore-31,true,1.00,1372,463,1370,439,161745,0
ore-32,true,1.00,1631,442,1627,407,189524,0
ore-33,true,1.00,1445,466,1443,423,171754,0
ore-34,true,1.00,1549,420,1548,395,186293,0
ore-35,true,1.00,1517,407,1514,374,183815,0
ore-36,true,1.00,1164,411,1158,379,135843,0
ore-37,false,0.34,1206,140,1205,140,109979,0
ore-38,true,1.00,1138,412,1136,372,133875,0
ore-39,true,1.00,2059,473,2057,448,255256,0
ore-40,true,1.00,1926,439,1920,402,121472,0
ore-41,true,1.00,1531,410,1530,371,177050,0
ore-42,true,1.00,1407,465,1407,430,165356,0
ore-43,true,1.00,1786,421,1783,398,206080,0
ore-44,true,1.00,1918,408,1915,374,231920,0
ore-45,true,1.00,2335,465,2332,427,263365,0
ore-46,false,0.13,774,52,774,52,66625,0
ore-47,true,1.00,1753,482,1752,453,199211,0
ore-48,true,1.00,1971,450,1969,427,229976,0
ore-49,true,1.00,1716,466,1713,420,201949,0
ore-50,true,1.00,2186,447,2184,424,250597,0
ore-51,true,1.00,1421,402,1419,367,166346,0
ore-52,true,1.00,1335,425,1332,388,157889,0
ore-53,true,1.00,1509,429,1502,402,174952,0
ore-54,false,0.72,2290,352,2289,352,220416,0
ore-55,true,1.00,1434,425,1431,391,179412,0
ore-56,true,1.00,1273,386,1271,353,153377,0
ore-57,true,1.00,1361,422,1360,380,163170,0
ore-58,true,1.00,1617,496,1613,468,195830,0
ore-59,true,1.00,1599,418,1598,395,198278,0
ore-60,true,1.00,1842,373,1841,344,209805,0
ore-61,true,1.00,1422,399,1420,368,155847,0
ore-62,true,1.00,1586,411,1585,387,193790,0
ore-63,true,1.00,1932,432,1930,394,227118,0
ore-64,true,1.00,1487,431,1484,407,175884,0
ore-65,true,1.00,2007,453,2006,419,243536,0
ore-66,true,1.00,1751,452,1748,408,212448,0
ore-67,true,1.00,1873,413,1871,390,212318,0
ore-68,true,1.00,1220,408,1217,384,145565,0
ore-69,true,1.00,2010,502,2006,476,221883,0
ore-70,false,0.95,2801,448,2797,448,301909,0
ore-71,true,1.00,1374,420,1372,396,161647,0
ore-72,true,1.00,1138,444,1133,409,142209,0
ore-73,true,1.00,1362,428,1358,392,173095,0
ore-74,true,1.00,1929,438,1927,413,199427,0
ore-75,true,1.00,1428,451,1425,427,166776,0
ore-76,true,1.00,1271,404,1271,369,154033,0
ore-77,true,1.00,1263,437,1257,409,154096,0
ore-78,true,1.00,2006,433,2002,410,251340,0
ore-79,true,1.00,1386,385,1383,362,166475,0
ore-80,true,1.00,1446,398,1444,369,169432,0
ore-81,true,1.00,2320,446,2316,421,283269,0
ore-82,true,1.00,1574,397,1570,365,193424,0
ore-83,true,1.00,1483,434,1482,411,174459,0
ore-84,true,1.00,1962,415,1960,391,200820,0
ore-85,true,1.00,1367,462,1364,430,159171,0
ore-86,true,1.00,2325,484,2323,455,289439,0
ore-87,true,1.00,1142,415,1142,387,126350,0
ore-88,true,1.00,2009,427,2006,402,242595,0
ore-89,true,1.00,1881,440,1879,417,222498,0
ore-90,true,1.00,2418,451,2418,428,301733,0
ore-91,true,1.00,1425,381,1420,354,170948,0
ore-92,true,1.00,1867,428,1866,402,219419,0
ore-93,false,0.14,1416,76,1416,76,117795,0
ore-94,true,1.00,1531,455,1526,425,182077,0
ore-95,true,1.00,1507,456,1504,417,170228,0
ore-96,true,1.00,1861,485,1859,461,223767,0
ore-97,true,1.00,2278,475,2276,445,263084,0
ore-98,true,1.00,1928,441,1925,416,231866,0
ore-99,true,1.00,1568,454,1562,422,192632,0
ore-100,true,1.00,1715,452,1712,417,209797,0
