NDW:0.0
TTFW:0.2
DFPT:2.0
DFPAP:3.0
DFPMP:20.0
RIGHT_WINDOW_BORDER_X:255.0
level,win/fail,% travelled,run time,game ticks,planning time,total plannings,nodes evaluated,most backtracked nodes
notchParam-1,true,1.00,2014,304,2011,281,138219,0
notchParam-2,true,1.00,2779,320,2778,297,181310,0
notchParam-3,true,1.00,2236,312,2236,289,148445,0
notchParam-4,true,1.00,2541,318,2540,295,165883,0
notchParam-5,true,1.00,1842,304,1839,281,123645,0
notchParam-6,true,1.00,2192,306,2190,283,146450,0
notchParam-7,true,1.00,2361,310,2359,287,155415,0
notchParam-8,true,1.00,3001,320,3001,297,206650,0
notchParam-9,true,1.00,2345,314,2342,291,157124,0
notchParam-10,true,1.00,2147,302,2144,279,150662,0
notchParam-11,true,1.00,1881,300,1875,277,127185,0
notchParam-12,true,1.00,2883,318,2882,295,193817,0
notchParam-13,true,1.00,1584,298,1583,275,100547,0
notchParam-14,true,1.00,1624,298,1620,275,102933,0
notchParam-15,true,1.00,1930,298,1929,275,129295,0
notchParam-16,true,1.00,2917,328,2914,305,191845,0
notchParam-17,true,1.00,2396,306,2395,283,164171,0
notchParam-18,true,1.00,2190,304,2190,281,133707,0
notchParam-19,true,1.00,1825,310,1823,287,115888,0
notchParam-20,true,1.00,1589,300,1588,277,99809,0
notchParam-21,true,1.00,1570,298,1565,275,99521,0
notchParam-22,true,1.00,1623,300,1620,277,102367,0
notchParam-23,true,1.00,3725,330,3725,307,243787,0
notchParam-24,true,1.00,2284,304,2284,281,159898,0
notchParam-25,true,1.00,2335,306,2334,283,164400,0
notchParam-26,true,1.00,3133,334,3132,311,211451,0
notchParam-27,true,1.00,1954,306,1953,283,122308,0
notchParam-28,true,1.00,2523,312,2519,289,166528,0
notchParam-29,true,1.00,2312,314,2308,291,156686,0
notchParam-30,true,1.00,1653,300,1653,277,106446,0
notchParam-31,true,1.00,2578,318,2571,295,173742,0
notchParam-32,true,1.00,3538,347,3537,324,232446,0
notchParam-33,true,1.00,1846,304,1844,281,119085,0
notchParam-34,true,1.00,2588,316,2587,293,172559,0
notchParam-35,true,1.00,3276,334,3275,311,211833,0
notchParam-36,true,1.00,2143,302,2143,279,148300,0
notchParam-37,true,1.00,1692,296,1690,273,108219,0
notchParam-38,true,1.00,1622,300,1620,277,103336,0
notchParam-39,true,1.00,2490,314,2487,291,168492,0
notchParam-40,true,1.00,1718,298,1717,275,115514,0
notchParam-41,true,1.00,2003,313,2002,290,131693,0
notchParam-42,true,1.00,2151,312,2151,289,134145,0
notchParam-43,true,1.00,2440,304,2437,281,171556,0
notchParam-44,true,1.00,2700,318,2696,295,186170,0
notchParam-45,true,1.00,2168,304,2166,279,155662,0
notchParam-46,true,1.00,2352,304,2351,281,165178,0
notchParam-47,true,1.00,1439,296,1438,273,90064,0
notchParam-48,true,1.00,1768,306,1765,283,111512,0
notchParam-49,true,1.00,2519,328,2519,299,154558,0
notchParam-50,true,1.00,2418,330,2416,307,142492,0
notchParam-51,true,1.00,1568,300,1567,277,99376,0
notchParam-52,true,1.00,2510,314,2509,291,169618,0
notchParam-53,true,1.00,2635,320,2632,297,175083,0
notchParam-54,true,1.00,3096,335,3093,312,202839,0
notchParam-55,true,1.00,2217,312,2216,289,134366,0
notchParam-56,true,1.00,1572,298,1572,275,100501,0
notchParam-57,true,1.00,2275,306,2271,283,161610,0
notchParam-58,true,1.00,1742,298,1742,275,116531,0
notchParam-59,true,1.00,3141,326,3141,303,208966,0
notchParam-60,true,1.00,3392,346,3389,323,216051,0
notchParam-61,true,1.00,2891,320,2891,297,194561,0
notchParam-62,true,1.00,2161,306,2161,283,144073,0
notchParam-63,true,1.00,2208,314,2206,291,144330,0
notchParam-64,true,1.00,1832,306,1831,283,123355,0
notchParam-65,true,1.00,2020,306,2019,283,133940,0
notchParam-66,true,1.00,2094,308,2094,285,137377,0
notchParam-67,true,1.00,2440,310,2437,287,161030,0
notchParam-68,true,1.00,2612,324,2606,301,175438,0
notchParam-69,true,1.00,2438,322,2436,299,160980,0
notchParam-70,true,1.00,2282,308,2281,285,151699,0
notchParam-71,true,1.00,3032,336,3030,313,199102,0
notchParam-72,true,1.00,2058,306,2056,283,138287,0
notchParam-73,true,1.00,1805,304,1803,279,119702,0
notchParam-74,true,1.00,2192,312,2192,289,143383,0
notchParam-75,true,1.00,2359,316,2358,293,152428,0
notchParam-76,true,1.00,3134,335,3132,312,211526,0
notchParam-77,true,1.00,2210,310,2205,287,147798,0
notchParam-78,true,1.00,2550,310,2549,287,177716,0
notchParam-79,true,1.00,2165,310,2160,285,144302,0
notchParam-80,true,1.00,2824,336,2822,313,170607,0
notchParam-81,true,1.00,1932,304,1929,281,131134,0
notchParam-82,true,1.00,2074,314,2071,291,130473,0
notchParam-83,true,1.00,1652,298,1651,275,105136,0
notchParam-84,true,1.00,2493,312,2493,289,165000,0
notchParam-85,true,1.00,2430,306,2428,283,159242,0
notchParam-86,true,1.00,2292,304,2290,281,155936,0
notchParam-87,true,1.00,1456,294,1455,271,93518,0
notchParam-88,true,1.00,1592,300,1589,277,99668,0
notchParam-89,true,1.00,1676,302,1674,279,105821,0
notchParam-90,true,1.00,1805,308,1801,285,113509,0
notchParam-91,true,1.00,2285,306,2283,283,156219,0
notchParam-92,true,1.00,2318,304,2313,281,163949,0
notchParam-93,true,1.00,2396,310,2394,287,168291,0
notchParam-94,true,1.00,3070,334,3067,311,205821,0
notchParam-95,true,1.00,5164,386,5164,363,330411,0
notchParam-96,true,1.00,1768,302,1766,279,120393,0
notchParam-97,true,1.00,1901,304,1899,281,127548,0
notchParam-98,true,1.00,1967,317,1963,294,123925,0
notchParam-99,true,1.00,3257,340,3254,317,216718,0
notchParam-100,true,1.00,2276,308,2275,285,156679,0
