NDW:0.0
TTFW:1.4
DFPT:2.0
DFPAP:3.0
DFPMP:5.0
RIGHT_WINDOW_BORDER_X:350.0
level,win/fail,% travelled,run time,game ticks,planning time,total plannings,nodes evaluated,most backtracked nodes
patternOccur-1,true,1.00,1234,495,1218,463,62325,0
patternOccur-2,true,1.00,1491,453,1480,421,76435,0
patternOccur-3,true,1.00,1941,477,1928,445,107417,0
patternOccur-4,true,1.00,1767,462,1752,430,97220,0
patternOccur-5,true,1.00,1194,479,1182,447,60467,0
patternOccur-6,true,1.00,2214,551,2198,519,117845,0
patternOccur-7,true,1.00,2228,524,2204,475,120303,0
patternOccur-8,true,1.00,1518,463,1510,431,81034,0
patternOccur-9,true,1.00,2086,463,2076,431,117031,0
patternOccur-10,true,1.00,1302,527,1285,489,66855,0
patternOccur-11,true,1.00,2637,499,2626,429,133452,0
patternOccur-12,true,1.00,1860,524,1849,462,101455,0
patternOccur-13,true,1.00,990,435,980,403,50504,0
patternOccur-14,true,1.00,3923,513,3913,454,212292,0
patternOccur-15,true,1.00,1672,422,1661,390,92363,0
patternOccur-16,true,1.00,4240,501,4227,462,218642,0
patternOccur-17,true,1.00,1662,494,1642,462,89188,0
patternOccur-18,true,1.00,1285,486,1270,449,65276,0
patternOccur-19,false,0.83,3555,431,3547,431,179171,0
patternOccur-20,true,1.00,1665,491,1657,459,87710,0
patternOccur-21,true,1.00,1378,463,1370,429,74854,0
patternOccur-22,true,1.00,4167,517,4152,467,225694,0
patternOccur-23,true,1.00,2061,482,2039,450,112530,0
patternOccur-24,true,1.00,1747,499,1735,466,94558,0
patternOccur-25,true,1.00,1858,495,1844,463,101738,0
patternOccur-26,true,1.00,1064,451,1058,419,55184,0
patternOccur-27,true,1.00,3464,504,3455,441,179105,0
patternOccur-28,true,1.00,2041,524,2032,478,111279,0
patternOccur-29,true,1.00,1314,444,1303,402,70823,0
patternOccur-30,true,1.00,1387,465,1379,433,73328,0
patternOccur-31,true,1.00,4549,498,4536,459,247618,0
patternOccur-32,true,1.00,4553,539,4544,480,242755,0
patternOccur-33,true,1.00,1279,497,1267,461,66334,0
patternOccur-34,true,1.00,1507,487,1497,444,80192,0
patternOccur-35,true,1.00,898,424,882,389,46013,0
patternOccur-36,true,1.00,3183,491,3173,459,177965,0
patternOccur-37,true,1.00,3655,520,3645,475,198756,0
patternOccur-38,true,1.00,1376,464,1368,432,73338,0
patternOccur-39,true,1.00,3134,458,3127,424,168365,0
patternOccur-40,true,1.00,1936,477,1922,441,101981,0
patternOccur-41,true,1.00,1598,449,1588,407,80691,0
patternOccur-42,false,0.89,3335,459,3326,459,161080,0
patternOccur-43,true,1.00,1791,481,1773,449,79127,0
patternOccur-44,true,1.00,1701,427,1685,393,48416,0
patternOccur-45,true,1.00,1668,463,1662,431,83089,0
patternOccur-46,true,1.00,1157,456,1148,424,57693,0
patternOccur-47,true,1.00,3281,511,3271,456,173833,0
patternOccur-48,true,1.00,1484,480,1471,448,78027,0
patternOccur-49,true,1.00,1659,444,1648,412,87687,0
patternOccur-50,true,1.00,2327,495,2316,462,122381,0
patternOccur-51,true,1.00,1775,516,1760,480,93719,0
patternOccur-52,true,1.00,2272,456,2253,401,63581,0
patternOccur-53,true,1.00,1903,468,1889,436,96558,0
patternOccur-54,true,1.00,2285,514,2269,471,128857,0
patternOccur-55,true,1.00,1586,439,1580,407,86626,0
patternOccur-56,true,1.00,1728,513,1712,481,95255,0
patternOccur-57,true,1.00,1962,489,1946,449,108583,0
patternOccur-58,true,1.00,5752,543,5744,505,311005,0
patternOccur-59,true,1.00,2004,493,1994,458,111804,0
patternOccur-60,true,1.00,3476,500,3465,444,183865,0
patternOccur-61,true,1.00,1626,462,1612,420,90081,0
patternOccur-62,true,1.00,1836,516,1821,484,98711,0
patternOccur-63,true,1.00,1519,528,1508,479,82102,0
patternOccur-64,true,1.00,2118,558,2103,508,114694,0
patternOccur-65,true,1.00,1295,472,1287,440,68726,0
patternOccur-66,true,1.00,1600,457,1592,415,86057,0
patternOccur-67,false,0.89,2803,420,2794,420,145113,0
patternOccur-68,true,1.00,1264,516,1238,484,64793,0
patternOccur-69,true,1.00,3256,501,3246,455,140288,0
patternOccur-70,false,0.87,4120,460,4105,460,132196,0
patternOccur-71,true,1.00,2152,495,2145,444,117106,0
patternOccur-72,true,1.00,3546,528,3533,485,178904,0
patternOccur-73,true,1.00,3822,535,3812,485,204453,0
patternOccur-74,true,1.00,2987,473,2977,421,159597,0
patternOccur-75,true,1.00,2250,501,2241,467,119990,0
patternOccur-76,true,1.00,2302,492,2290,460,96883,0
patternOccur-77,true,1.00,1414,458,1399,426,71939,0
patternOccur-78,true,1.00,869,432,861,400,43841,0
patternOccur-79,true,1.00,1777,496,1766,464,99710,0
patternOccur-80,true,1.00,3329,514,3318,467,180501,0
patternOccur-81,true,1.00,4668,520,4659,488,250481,0
patternOccur-82,true,1.00,2203,482,2194,449,118281,0
patternOccur-83,true,1.00,2907,487,2901,455,146825,0
patternOccur-84,true,1.00,1450,469,1440,437,77236,0
patternOccur-85,true,1.00,2505,515,2495,483,131741,0
patternOccur-86,true,1.00,3471,455,3459,396,184362,0
patternOccur-87,true,1.00,1623,494,1610,454,87957,0
patternOccur-88,true,1.00,1506,437,1494,402,81943,0
patternOccur-89,true,1.00,1866,500,1852,467,100353,0
patternOccur-90,true,1.00,2125,573,2112,506,116484,0
patternOccur-91,true,1.00,1274,449,1262,406,66688,0
patternOccur-92,true,1.00,1020,451,1012,419,51882,0
patternOccur-93,true,1.00,1365,495,1351,460,72234,0
patternOccur-94,true,1.00,4601,519,4591,458,233521,0
patternOccur-95,true,1.00,1872,551,1864,497,99455,0
patternOccur-96,false,0.86,2885,449,2870,449,139313,0
patternOccur-97,true,1.00,2151,456,2147,400,113974,0
patternOccur-98,false,0.90,4009,484,4003,484,202601,0
patternOccur-99,true,1.00,942,455,925,409,48931,0
patternOccur-100,true,1.00,1458,480,1446,448,76085,0
