NDW:0.0
TTFW:1.2
DFPT:2.0
DFPAP:3.0
DFPMP:2.0
RIGHT_WINDOW_BORDER_X:75.0
level,win/fail,% travelled,run time,game ticks,planning time,total plannings,nodes evaluated,most backtracked nodes
Mario-1,true,1.00,346,459,341,447,40802,0
Mario-2,true,1.00,1367,425,1363,416,140020,0
Mario-3,false,0.25,490,144,489,144,54945,0
Mario-4,true,1.00,1223,564,1223,552,142526,0
Mario-5,true,1.00,1442,538,1440,528,153116,0
Mario-6,true,1.00,5313,571,5307,564,596453,0
Mario-7,true,1.00,731,528,731,516,68039,0
Mario-8,true,1.00,2850,590,2845,582,273788,0
Mario-9,true,1.00,471,416,466,406,46776,0
Mario-10,false,0.54,3172,335,3170,335,325418,0
Mario-11,true,1.00,1184,468,1177,456,119443,0
Mario-12,true,1.00,573,776,567,763,66300,0
Mario-13,false,0.31,1609,201,1608,201,197407,0
Mario-14,true,1.00,174,383,171,373,19569,0
Mario-15,false,0.58,5095,650,5092,650,426406,0
