NDW:0.0
TTFW:1.2
DFPT:2.0
DFPAP:3.0
DFPMP:5.0
RIGHT_WINDOW_BORDER_X:15.0
level,win/fail,% travelled,run time,game ticks,planning time,total plannings,nodes evaluated,most backtracked nodes
notchParam-1,false,0.26,21,166,18,166,1015,0
notchParam-2,false,0.28,22,178,15,178,1049,0
notchParam-3,false,0.19,331,191,325,191,16721,0
notchParam-4,false,0.17,14,114,12,114,698,0
notchParam-5,false,0.19,198,161,195,161,10098,0
notchParam-6,false,0.22,436,179,433,179,22243,0
notchParam-7,false,0.11,11,80,9,80,597,0
notchParam-8,false,0.14,11,85,8,85,491,0
notchParam-9,false,0.19,198,161,192,161,10155,0
notchParam-10,false,0.18,1057,211,1051,211,52065,0
notchParam-11,false,0.17,14,115,11,115,706,0
notchParam-12,false,0.10,12,73,11,73,647,0
notchParam-13,false,0.37,268,283,261,283,13564,0
notchParam-14,false,0.09,8,58,7,58,374,0
notchParam-15,false,0.36,263,252,261,252,12855,0
notchParam-16,false,0.34,25,220,18,220,1200,0
notchParam-17,false,0.37,150,273,144,273,7764,0
notchParam-18,false,0.13,16,103,9,103,861,0
notchParam-19,false,0.24,17,148,13,148,815,0
notchParam-20,false,0.35,18,196,12,196,811,0
notchParam-21,false,0.08,8,57,5,57,386,0
notchParam-22,false,0.06,7,42,7,42,324,0
notchParam-23,false,0.10,8,60,7,60,381,0
notchParam-24,false,0.09,7,58,4,58,377,0
notchParam-25,false,0.07,11,61,10,61,585,0
notchParam-26,false,0.09,10,65,10,65,549,0
notchParam-27,false,0.35,18,196,15,196,814,0
notchParam-28,false,0.32,622,252,610,252,31519,0
notchParam-29,false,0.31,860,289,853,289,41865,0
notchParam-30,false,0.35,25,223,18,223,1168,0
notchParam-31,false,0.36,264,257,256,257,13380,0
notchParam-32,false,0.37,150,273,143,273,7685,0
notchParam-33,false,0.20,12,115,10,115,560,0
notchParam-34,false,0.12,9,75,7,75,432,0
notchParam-35,false,0.36,1035,313,1024,313,54140,0
notchParam-36,false,0.35,26,223,22,223,1207,0
notchParam-37,false,0.36,621,242,617,242,31436,0
notchParam-38,false,0.37,432,275,425,275,22804,0
notchParam-39,false,0.37,272,274,262,274,14511,0
notchParam-40,false,0.18,249,141,248,141,11521,0
notchParam-41,false,0.07,10,61,9,61,585,0
notchParam-42,false,0.37,273,274,266,274,14721,0
notchParam-43,false,0.08,8,56,7,56,378,0
notchParam-44,false,0.19,355,162,350,162,17781,0
notchParam-45,false,0.06,6,42,4,42,324,0
notchParam-46,false,0.17,15,115,13,115,710,0
notchParam-47,false,0.36,433,275,423,275,22846,0
notchParam-48,false,0.34,27,221,20,221,1315,0
notchParam-49,false,0.36,264,257,255,257,12755,0
notchParam-50,false,0.32,29,214,23,214,1361,0
notchParam-51,false,0.04,6,30,3,30,293,0
notchParam-52,false,0.25,17,150,13,150,818,0
notchParam-53,false,0.37,149,273,140,273,7468,0
notchParam-54,false,0.36,294,238,289,238,14991,0
notchParam-55,false,0.13,27,110,25,110,934,0
notchParam-56,false,0.36,528,258,526,258,27165,0
notchParam-57,false,0.18,255,141,253,141,11512,0
notchParam-58,false,0.18,316,158,296,158,9073,0
notchParam-59,false,0.17,38,133,33,133,1031,0
notchParam-60,false,0.18,364,182,354,182,10270,0
notchParam-61,false,0.17,32,113,24,113,814,0
notchParam-62,false,0.15,25,99,19,99,655,0
notchParam-63,false,0.17,27,115,23,115,700,0
notchParam-64,false,0.18,230,153,222,153,6588,0
notchParam-65,false,0.19,246,161,236,161,6848,0
notchParam-66,false,0.17,27,115,19,115,701,0
notchParam-67,false,0.14,24,96,18,96,650,0
notchParam-68,false,0.16,19,93,17,93,487,0
notchParam-69,false,0.29,47,183,42,183,1239,0
notchParam-70,false,0.27,33,161,23,161,853,0
notchParam-71,false,0.07,37,66,34,66,1075,0
notchParam-72,false,0.17,27,113,21,113,711,0
notchParam-73,false,0.19,556,178,549,178,17904,0
notchParam-74,false,0.11,11,66,8,66,400,0
notchParam-75,false,0.17,20,113,17,113,710,0
notchParam-76,false,0.18,375,190,368,190,16908,0
notchParam-77,false,0.31,356,222,349,222,18301,0
notchParam-78,false,0.18,255,149,253,149,12984,0
notchParam-79,false,0.17,13,115,8,115,706,0
notchParam-80,false,0.36,432,281,420,281,23613,0
notchParam-81,false,0.44,675,375,670,375,35837,0
notchParam-82,false,0.09,7,58,3,58,377,0
notchParam-83,false,0.37,433,275,426,275,23823,0
notchParam-84,false,0.36,263,246,258,246,13851,0
notchParam-85,false,0.34,24,226,17,226,1227,0
notchParam-86,false,0.18,285,148,279,148,15378,0
notchParam-87,false,0.09,7,58,7,58,377,0
notchParam-88,false,0.15,13,99,7,99,654,0
notchParam-89,false,0.32,20,190,15,190,973,0
notchParam-90,false,0.36,230,265,226,265,12378,0
notchParam-91,false,0.18,249,141,243,141,11838,0
notchParam-92,false,0.19,268,205,259,205,14146,0
notchParam-93,false,0.17,14,115,11,115,704,0
notchParam-94,false,0.18,307,221,302,221,16357,0
notchParam-95,false,0.16,18,135,15,135,972,0
notchParam-96,false,0.07,5,45,4,45,333,0
notchParam-97,false,0.14,12,93,9,93,640,0
notchParam-98,false,0.34,24,218,18,218,1262,0
notchParam-99,false,0.36,525,258,518,258,28179,0
notchParam-100,false,0.36,263,257,256,257,13831,0
