NDW:0.0
TTFW:0.8
DFPT:2.0
DFPAP:3.0
DFPMP:0.0
RIGHT_WINDOW_BORDER_X:235.0
level,win/fail,% travelled,run time,game ticks,planning time,total plannings,nodes evaluated,most backtracked nodes
patternOccur-1,true,1.00,1098,441,1095,420,103579,0
patternOccur-2,true,1.00,948,424,945,395,88725,0
patternOccur-3,true,1.00,1613,450,1607,429,151202,0
patternOccur-4,true,1.00,1591,457,1587,436,152278,0
patternOccur-5,true,1.00,803,423,800,402,73617,0
patternOccur-6,true,1.00,1258,459,1256,438,122398,0
patternOccur-7,true,1.00,1298,427,1292,404,125666,0
patternOccur-8,true,1.00,1728,414,1726,393,166661,0
patternOccur-9,true,1.00,1548,424,1546,394,147794,0
patternOccur-10,true,1.00,805,395,798,373,74618,0
patternOccur-11,true,1.00,3948,473,3946,445,333703,0
patternOccur-12,true,1.00,1199,479,1198,448,116780,0
patternOccur-13,true,1.00,780,432,776,411,75883,0
patternOccur-14,true,1.00,4213,433,4213,398,366025,0
patternOccur-15,true,1.00,1081,363,1081,342,104922,0
patternOccur-16,true,1.00,4005,469,4003,441,343775,0
patternOccur-17,true,1.00,1370,432,1364,410,128726,0
patternOccur-18,true,1.00,767,381,763,360,71631,0
patternOccur-19,false,0.82,5276,477,5274,477,440485,0
patternOccur-20,true,1.00,985,401,983,380,95640,0
patternOccur-21,true,1.00,1021,439,1016,415,98421,0
patternOccur-22,false,0.84,2888,417,2885,417,253760,0
patternOccur-23,true,1.00,1437,440,1434,415,131721,0
patternOccur-24,true,1.00,854,433,851,412,83254,0
patternOccur-25,true,1.00,1184,419,1181,398,114045,0
patternOccur-26,true,1.00,583,366,580,345,57932,0
patternOccur-27,true,1.00,2538,407,2534,384,225408,0
patternOccur-28,true,1.00,1084,432,1083,410,104113,0
patternOccur-29,true,1.00,929,383,928,353,88595,0
patternOccur-30,true,1.00,885,447,882,426,84070,0
patternOccur-31,true,1.00,4489,466,4488,440,398453,0
patternOccur-32,true,1.00,3511,459,3506,431,308147,0
patternOccur-33,true,1.00,1161,426,1158,405,108121,0
patternOccur-34,true,1.00,1312,412,1308,383,127887,0
patternOccur-35,true,1.00,928,447,925,425,90357,0
patternOccur-36,true,1.00,1665,403,1663,379,164675,0
patternOccur-37,true,1.00,3220,450,3214,422,284433,0
patternOccur-38,true,1.00,1021,388,1018,367,98687,0
patternOccur-39,true,1.00,3296,508,3295,486,277156,0
patternOccur-40,true,1.00,1460,418,1458,396,141087,0
patternOccur-41,true,1.00,951,407,950,377,96183,0
patternOccur-42,false,0.89,2897,414,2896,414,246837,0
patternOccur-43,true,1.00,897,405,893,384,89985,0
patternOccur-44,true,1.00,1082,392,1076,371,102955,0
patternOccur-45,true,1.00,2791,459,2786,410,236238,0
patternOccur-46,true,1.00,757,423,753,401,70637,0
patternOccur-47,true,1.00,3173,424,3171,391,283410,0
patternOccur-48,true,1.00,1364,430,1361,401,133246,0
patternOccur-49,true,1.00,1119,408,1118,387,106691,0
patternOccur-50,true,1.00,1765,437,1762,415,161599,0
patternOccur-51,true,1.00,1272,422,1270,397,122101,0
patternOccur-52,true,1.00,1144,421,1142,400,112433,0
patternOccur-53,true,1.00,1663,438,1661,417,156604,0
patternOccur-54,true,1.00,2414,465,2412,443,231902,0
patternOccur-55,true,1.00,1056,391,1051,370,100890,0
patternOccur-56,true,1.00,1312,435,1311,414,124283,0
patternOccur-57,true,1.00,1479,412,1479,385,140343,0
patternOccur-58,true,1.00,4382,479,4379,448,391647,0
patternOccur-59,true,1.00,1116,401,1112,379,108163,0
patternOccur-60,true,1.00,2933,453,2932,420,255761,0
patternOccur-61,true,1.00,1131,396,1124,371,111240,0
patternOccur-62,true,1.00,1058,410,1057,389,102779,0
patternOccur-63,true,1.00,1137,431,1135,397,111216,0
patternOccur-64,true,1.00,1399,446,1398,417,133062,0
patternOccur-65,true,1.00,841,420,837,399,81301,0
patternOccur-66,true,1.00,989,427,984,405,92369,0
patternOccur-67,true,1.00,1259,437,1255,415,126421,0
patternOccur-68,true,1.00,983,411,981,390,90830,0
patternOccur-69,true,1.00,5406,497,5403,464,439833,0
patternOccur-70,false,0.87,4479,444,4477,444,362467,0
patternOccur-71,true,1.00,2178,442,2173,421,220830,0
patternOccur-72,true,1.00,3063,445,3062,418,270355,0
patternOccur-73,true,1.00,3315,461,3314,428,282187,0
patternOccur-74,true,1.00,2640,411,2637,382,230501,0
patternOccur-75,true,1.00,1439,406,1437,378,132788,0
patternOccur-76,true,1.00,1300,401,1297,380,129671,0
patternOccur-77,true,1.00,591,405,588,375,56145,0
patternOccur-78,true,1.00,583,371,582,350,54042,0
patternOccur-79,true,1.00,1026,432,1023,403,100963,0
patternOccur-80,true,1.00,3554,489,3553,455,319441,0
patternOccur-81,true,1.00,3512,455,3510,433,314142,0
patternOccur-82,true,1.00,1491,411,1489,382,136781,0
patternOccur-83,true,1.00,1370,447,1369,426,132111,0
patternOccur-84,true,1.00,972,377,969,356,90895,0
patternOccur-85,false,0.94,3436,486,3434,486,312595,0
patternOccur-86,true,1.00,4432,478,4427,454,382940,0
patternOccur-87,true,1.00,847,396,846,375,83342,0
patternOccur-88,true,1.00,1508,450,1507,428,147734,0
patternOccur-89,true,1.00,1269,447,1269,425,120831,0
patternOccur-90,true,1.00,1123,418,1120,395,111640,0
patternOccur-91,true,1.00,1171,410,1167,383,110746,0
patternOccur-92,true,1.00,734,402,731,381,70019,0
patternOccur-93,true,1.00,1258,420,1255,398,117610,0
patternOccur-94,true,1.00,4552,478,4547,443,380731,0
patternOccur-95,true,1.00,909,423,907,401,89669,0
patternOccur-96,false,0.86,2487,399,2480,399,209560,0
patternOccur-97,true,1.00,1779,386,1778,365,181244,0
patternOccur-98,false,0.90,2163,401,2160,401,196234,0
patternOccur-99,true,1.00,530,388,526,366,52270,0
patternOccur-100,true,1.00,1151,428,1150,407,107437,0
