NDW:0.0
TTFW:0.2
DFPT:2.0
DFPAP:3.0
DFPMP:7.0
RIGHT_WINDOW_BORDER_X:95.0
level,win/fail,% travelled,run time,game ticks,planning time,total plannings,nodes evaluated,most backtracked nodes
Mario-1,true,1.00,930,484,924,470,89606,0
Mario-2,true,1.00,2267,450,2263,439,202950,0
Mario-3,false,0.25,532,127,531,127,50095,0
Mario-4,true,1.00,2668,561,2665,552,235781,0
Mario-5,true,1.00,2925,589,2921,579,264553,0
Mario-6,true,1.00,3791,465,3787,455,390363,0
Mario-7,true,1.00,2332,589,2330,580,202700,0
Mario-8,true,1.00,4358,720,4355,701,389767,0
Mario-9,true,1.00,2046,553,2043,540,187917,0
Mario-10,false,0.58,3369,297,3365,297,336057,0
Mario-11,true,1.00,1760,481,1757,467,164568,0
Mario-12,true,1.00,4511,829,4508,816,376224,0
Mario-13,true,1.00,3218,473,3216,457,317836,0
Mario-14,true,1.00,693,443,689,431,67332,0
Mario-15,true,1.00,8686,1298,8682,1284,764888,0
