NDW:0.0
TTFW:0.4
DFPT:2.0
DFPAP:3.0
DFPMP:5.0
RIGHT_WINDOW_BORDER_X:235.0
level,win/fail,% travelled,run time,game ticks,planning time,total plannings,nodes evaluated,most backtracked nodes
patternWeightCount-1,true,1.00,4001,462,4000,437,331268,0
patternWeightCount-2,true,1.00,835,367,830,346,68762,0
patternWeightCount-3,true,1.00,898,344,893,323,74865,0
patternWeightCount-4,true,1.00,897,349,895,328,72583,0
patternWeightCount-5,true,1.00,2074,407,2069,384,163274,0
patternWeightCount-6,true,1.00,2476,429,2472,407,193657,0
patternWeightCount-7,true,1.00,1187,386,1187,365,90472,0
patternWeightCount-8,true,1.00,845,375,841,354,65337,0
patternWeightCount-9,true,1.00,1443,402,1437,376,113393,0
patternWeightCount-10,true,1.00,1222,366,1220,345,97500,0
patternWeightCount-11,true,1.00,864,379,861,358,68930,0
patternWeightCount-12,true,1.00,1874,430,1871,409,145677,0
patternWeightCount-13,true,1.00,784,322,782,301,67941,0
patternWeightCount-14,true,1.00,1204,422,1197,397,93593,0
patternWeightCount-15,true,1.00,1524,356,1521,335,126435,0
patternWeightCount-16,true,1.00,3074,410,3071,381,260360,0
patternWeightCount-17,true,1.00,1476,446,1473,425,111435,0
patternWeightCount-18,true,1.00,1545,405,1540,379,120558,0
patternWeightCount-19,true,1.00,684,343,683,322,56108,0
patternWeightCount-20,false,0.75,4134,323,4133,323,341896,0
patternWeightCount-21,true,1.00,774,369,771,348,57133,0
patternWeightCount-22,true,1.00,3620,463,3617,438,295926,0
patternWeightCount-23,true,1.00,1158,401,1157,380,90395,0
patternWeightCount-24,true,1.00,1319,383,1316,361,110427,0
patternWeightCount-25,true,1.00,2133,443,2131,422,167316,0
patternWeightCount-26,true,1.00,2044,464,2041,438,154443,0
patternWeightCount-27,true,1.00,2543,444,2540,413,199151,0
patternWeightCount-28,true,1.00,1650,403,1646,382,129564,0
patternWeightCount-29,true,1.00,1292,361,1284,340,101763,0
patternWeightCount-30,true,1.00,5861,519,5859,488,472666,0
patternWeightCount-31,true,1.00,997,347,993,321,80841,0
patternWeightCount-32,true,1.00,1028,378,1025,357,81524,0
patternWeightCount-33,true,1.00,1499,406,1497,385,119323,0
patternWeightCount-34,true,1.00,1699,364,1697,343,142267,0
patternWeightCount-35,true,1.00,1958,412,1957,391,153002,0
patternWeightCount-36,true,1.00,1741,411,1735,385,139327,0
patternWeightCount-37,true,1.00,1120,374,1116,353,88557,0
patternWeightCount-38,true,1.00,2641,421,2637,384,205522,0
patternWeightCount-39,true,1.00,1510,396,1509,370,122725,0
patternWeightCount-40,true,1.00,1241,352,1239,331,104267,0
patternWeightCount-41,true,1.00,1628,386,1625,364,131091,0
patternWeightCount-42,false,0.87,3146,364,3143,364,250749,0
patternWeightCount-43,true,1.00,1580,375,1576,354,125378,0
patternWeightCount-44,true,1.00,2051,423,2048,378,155783,0
patternWeightCount-45,true,1.00,3616,455,3615,418,299399,0
patternWeightCount-46,true,1.00,4714,485,4710,454,373124,0
patternWeightCount-47,true,1.00,1185,373,1183,352,92041,0
patternWeightCount-48,true,1.00,894,340,893,319,72576,0
patternWeightCount-49,true,1.00,1095,345,1094,322,86965,0
patternWeightCount-50,true,1.00,1085,373,1084,352,84717,0
patternWeightCount-51,true,1.00,1323,385,1319,357,109259,0
patternWeightCount-52,true,1.00,1677,385,1672,345,131720,0
patternWeightCount-53,true,1.00,6042,562,6038,539,482449,0
patternWeightCount-54,true,1.00,815,358,813,337,66910,0
patternWeightCount-55,true,1.00,1298,356,1297,334,104011,0
patternWeightCount-56,true,1.00,1340,374,1337,353,108997,0
patternWeightCount-57,true,1.00,966,372,966,351,78515,0
patternWeightCount-58,true,1.00,1343,408,1337,387,106407,0
patternWeightCount-59,true,1.00,889,361,887,340,69284,0
patternWeightCount-60,true,1.00,2336,415,2334,393,179779,0
patternWeightCount-61,true,1.00,1556,398,1552,377,122250,0
patternWeightCount-62,true,1.00,2175,403,2173,365,185773,0
patternWeightCount-63,true,1.00,1347,383,1343,362,110499,0
patternWeightCount-64,true,1.00,2272,393,2270,372,184962,0
patternWeightCount-65,true,1.00,2046,401,2043,375,154622,0
patternWeightCount-66,true,1.00,1444,414,1440,391,112818,0
patternWeightCount-67,true,1.00,867,364,866,343,71281,0
patternWeightCount-68,true,1.00,1188,451,1186,430,84701,0
patternWeightCount-69,true,1.00,2546,405,2541,370,202249,0
patternWeightCount-70,true,1.00,1470,386,1467,360,117410,0
patternWeightCount-71,true,1.00,920,364,918,343,71945,0
patternWeightCount-72,true,1.00,5968,485,5967,445,473401,0
patternWeightCount-73,true,1.00,7631,529,7628,492,632748,0
patternWeightCount-74,true,1.00,1418,373,1412,352,109490,0
patternWeightCount-75,true,1.00,1983,417,1979,396,152493,0
patternWeightCount-76,true,1.00,943,365,942,344,77930,0
patternWeightCount-77,true,1.00,1283,392,1280,366,104316,0
patternWeightCount-78,true,1.00,2334,417,2330,396,180525,0
patternWeightCount-79,true,1.00,1018,351,1015,330,81567,0
patternWeightCount-80,true,1.00,1334,378,1329,352,108016,0
patternWeightCount-81,true,1.00,4063,443,4060,421,321334,0
patternWeightCount-82,true,1.00,600,358,595,335,45614,0
patternWeightCount-83,true,1.00,905,353,902,332,75843,0
patternWeightCount-84,true,1.00,1121,350,1119,329,89722,0
patternWeightCount-85,true,1.00,2653,421,2650,400,212949,0
patternWeightCount-86,false,0.94,6166,456,6166,456,493065,0
patternWeightCount-87,true,1.00,6590,468,6588,435,530975,0
patternWeightCount-88,true,1.00,1657,392,1656,366,134972,0
patternWeightCount-89,true,1.00,1099,355,1098,334,89627,0
patternWeightCount-90,true,1.00,5905,519,5903,491,481399,0
patternWeightCount-91,true,1.00,1273,381,1272,359,102178,0
patternWeightCount-92,true,1.00,3764,443,3763,412,317136,0
patternWeightCount-93,true,1.00,4716,434,4712,400,381558,0
patternWeightCount-94,true,1.00,1447,371,1443,345,118883,0
patternWeightCount-95,true,1.00,1618,364,1617,343,129352,0
patternWeightCount-96,true,1.00,1010,374,1008,352,80158,0
patternWeightCount-97,true,1.00,994,332,993,310,81727,0
patternWeightCount-98,true,1.00,6567,486,6561,451,542825,0
patternWeightCount-99,true,1.00,2157,444,2155,422,166291,0
patternWeightCount-100,true,1.00,1295,384,1293,358,102302,0
