NDW:0.0
TTFW:0.4
DFPT:2.0
DFPAP:3.0
DFPMP:20.0
RIGHT_WINDOW_BORDER_X:235.0
level,win/fail,% travelled,run time,game ticks,planning time,total plannings,nodes evaluated,most backtracked nodes
patternWeightCount-1,true,1.00,4004,462,4002,437,329691,0
patternWeightCount-2,true,1.00,839,367,836,346,69104,0
patternWeightCount-3,true,1.00,899,344,898,323,74855,0
patternWeightCount-4,true,1.00,901,349,898,328,72100,0
patternWeightCount-5,true,1.00,2076,407,2074,384,163324,0
patternWeightCount-6,true,1.00,2480,429,2478,407,193271,0
patternWeightCount-7,true,1.00,1191,386,1188,365,90042,0
patternWeightCount-8,true,1.00,842,375,837,354,65280,0
patternWeightCount-9,true,1.00,1443,402,1443,376,113031,0
patternWeightCount-10,true,1.00,1222,366,1218,345,96994,0
patternWeightCount-11,true,1.00,868,379,867,358,68930,0
patternWeightCount-12,true,1.00,1873,430,1871,409,145554,0
patternWeightCount-13,true,1.00,784,322,781,301,67971,0
patternWeightCount-14,true,1.00,1201,422,1199,397,93235,0
patternWeightCount-15,true,1.00,1549,356,1549,335,126754,0
patternWeightCount-16,true,1.00,3188,430,3187,401,266382,0
patternWeightCount-17,true,1.00,1485,446,1482,425,111360,0
patternWeightCount-18,true,1.00,1549,405,1545,379,120361,0
patternWeightCount-19,true,1.00,684,343,682,322,55899,0
patternWeightCount-20,false,0.75,4139,323,4136,323,340619,0
patternWeightCount-21,true,1.00,774,369,773,348,57129,0
patternWeightCount-22,true,1.00,3626,463,3625,438,295948,0
patternWeightCount-23,true,1.00,1159,401,1154,380,90314,0
patternWeightCount-24,true,1.00,1323,383,1319,361,109954,0
patternWeightCount-25,true,1.00,2138,443,2137,422,167159,0
patternWeightCount-26,true,1.00,1969,452,1965,425,148618,0
patternWeightCount-27,true,1.00,2548,444,2547,413,199411,0
patternWeightCount-28,true,1.00,1649,403,1648,382,129419,0
patternWeightCount-29,true,1.00,1294,361,1291,340,101565,0
patternWeightCount-30,true,1.00,5864,519,5860,488,472454,0
patternWeightCount-31,true,1.00,998,347,998,321,81098,0
patternWeightCount-32,true,1.00,1029,378,1028,357,81323,0
patternWeightCount-33,true,1.00,1498,406,1497,385,119618,0
patternWeightCount-34,true,1.00,1704,364,1701,343,141149,0
patternWeightCount-35,true,1.00,1958,412,1957,391,152908,0
patternWeightCount-36,true,1.00,1746,411,1745,385,137623,0
patternWeightCount-37,true,1.00,1125,374,1121,353,88211,0
patternWeightCount-38,true,1.00,2642,421,2637,384,203718,0
patternWeightCount-39,true,1.00,1513,396,1511,370,122232,0
patternWeightCount-40,true,1.00,1246,352,1243,331,103541,0
patternWeightCount-41,true,1.00,1329,362,1326,340,108064,0
patternWeightCount-42,false,0.87,3147,364,3144,364,250876,0
patternWeightCount-43,true,1.00,1583,375,1580,354,125393,0
patternWeightCount-44,true,1.00,2054,423,2052,378,155412,0
patternWeightCount-45,true,1.00,3616,455,3612,418,298603,0
patternWeightCount-46,true,1.00,4713,485,4710,454,371117,0
patternWeightCount-47,true,1.00,1186,373,1185,352,91877,0
patternWeightCount-48,true,1.00,890,340,890,319,72436,0
patternWeightCount-49,true,1.00,1095,345,1094,322,87065,0
patternWeightCount-50,true,1.00,1089,373,1085,352,84703,0
patternWeightCount-51,true,1.00,1323,385,1321,357,109191,0
patternWeightCount-52,true,1.00,1677,385,1676,345,131438,0
patternWeightCount-53,true,1.00,6629,569,6628,543,531706,0
patternWeightCount-54,true,1.00,832,358,828,337,65749,0
patternWeightCount-55,true,1.00,1302,356,1298,334,103574,0
patternWeightCount-56,true,1.00,1339,374,1335,353,108682,0
patternWeightCount-57,true,1.00,970,372,967,351,78472,0
patternWeightCount-58,true,1.00,1343,408,1339,387,106346,0
patternWeightCount-59,true,1.00,891,361,890,340,69381,0
patternWeightCount-60,true,1.00,2343,415,2337,393,179353,0
patternWeightCount-61,true,1.00,1560,398,1557,377,122128,0
patternWeightCount-62,true,1.00,2178,403,2177,365,184941,0
patternWeightCount-63,true,1.00,1346,383,1342,362,110137,0
patternWeightCount-64,true,1.00,2274,393,2271,372,184185,0
patternWeightCount-65,true,1.00,2051,401,2049,375,154511,0
patternWeightCount-66,true,1.00,1449,414,1448,391,112459,0
patternWeightCount-67,true,1.00,871,364,870,343,71402,0
patternWeightCount-68,true,1.00,1187,451,1184,430,84588,0
patternWeightCount-69,true,1.00,2534,405,2529,370,201415,0
patternWeightCount-70,true,1.00,1471,386,1470,360,116942,0
patternWeightCount-71,true,1.00,921,364,919,343,71918,0
patternWeightCount-72,true,1.00,5969,485,5965,445,470963,0
patternWeightCount-73,true,1.00,7634,529,7631,492,631723,0
patternWeightCount-74,true,1.00,1422,373,1419,352,109657,0
patternWeightCount-75,true,1.00,1986,417,1986,396,152236,0
patternWeightCount-76,true,1.00,965,365,961,344,77489,0
patternWeightCount-77,true,1.00,1285,392,1282,366,104507,0
patternWeightCount-78,true,1.00,2334,417,2332,396,179963,0
patternWeightCount-79,true,1.00,1018,351,1014,330,81519,0
patternWeightCount-80,true,1.00,1335,378,1330,352,107729,0
patternWeightCount-81,true,1.00,3202,408,3199,381,257789,0
patternWeightCount-82,true,1.00,599,358,596,335,45575,0
patternWeightCount-83,true,1.00,907,353,901,332,75314,0
patternWeightCount-84,true,1.00,1129,350,1128,329,88769,0
patternWeightCount-85,true,1.00,2663,421,2660,400,210606,0
patternWeightCount-86,false,0.94,6174,456,6170,456,489808,0
patternWeightCount-87,true,1.00,6593,468,6591,435,529396,0
patternWeightCount-88,true,1.00,1663,392,1662,366,134908,0
patternWeightCount-89,true,1.00,1102,355,1099,334,89587,0
patternWeightCount-90,true,1.00,5905,519,5903,491,481828,0
patternWeightCount-91,true,1.00,1274,381,1274,359,102011,0
patternWeightCount-92,true,1.00,3763,443,3762,412,316574,0
patternWeightCount-93,true,1.00,4713,434,4711,400,381151,0
patternWeightCount-94,true,1.00,1450,371,1446,345,118905,0
patternWeightCount-95,true,1.00,1614,364,1611,343,129433,0
patternWeightCount-96,true,1.00,1013,374,1011,352,79883,0
patternWeightCount-97,true,1.00,993,332,993,310,81961,0
patternWeightCount-98,true,1.00,6189,465,6185,440,514962,0
patternWeightCount-99,true,1.00,2163,444,2159,422,166587,0
patternWeightCount-100,true,1.00,1298,384,1294,358,102108,0
