NDW:0.0
TTFW:2.0
DFPT:2.0
DFPAP:3.0
DFPMP:20.0
RIGHT_WINDOW_BORDER_X:35.0
level,win/fail,% travelled,run time,game ticks,planning time,total plannings,nodes evaluated,most backtracked nodes
patternWeightCount-1,false,0.18,2168,287,2160,287,133520,0
patternWeightCount-2,true,1.00,3826,927,3803,923,224708,0
patternWeightCount-3,true,1.00,4197,994,4168,990,251364,0
patternWeightCount-4,true,1.00,2030,776,2012,771,124071,0
patternWeightCount-5,false,0.19,1530,221,1529,221,89614,0
patternWeightCount-6,false,0.44,5332,628,5315,628,337647,0
patternWeightCount-7,false,0.44,3084,502,3071,502,183988,0
patternWeightCount-8,true,1.00,2508,915,2490,910,147524,0
patternWeightCount-9,false,0.27,2359,350,2351,350,143251,0
patternWeightCount-10,false,0.56,4364,678,4348,678,255600,0
patternWeightCount-11,true,1.00,3507,834,3493,829,221440,0
patternWeightCount-12,false,0.33,1378,361,1371,361,83013,0
patternWeightCount-13,false,0.36,6031,682,6019,682,362473,0
patternWeightCount-14,false,0.03,118,55,115,55,7843,0
patternWeightCount-15,false,0.56,6667,864,6649,864,410664,0
patternWeightCount-16,false,0.36,4907,612,4901,612,316440,0
patternWeightCount-17,false,0.39,3466,508,3459,508,224841,0
patternWeightCount-18,false,0.01,6,21,4,21,421,0
patternWeightCount-19,true,1.00,2987,876,2964,872,176419,0
patternWeightCount-20,false,0.58,6835,727,6826,727,411811,0
patternWeightCount-21,true,1.00,2170,942,2145,938,133332,0
patternWeightCount-22,false,0.31,3829,437,3818,437,232585,0
patternWeightCount-23,false,0.06,2339,166,2337,166,137181,0
patternWeightCount-24,false,0.07,964,148,963,148,59112,0
patternWeightCount-25,false,0.06,687,76,685,76,32563,0
patternWeightCount-26,false,0.19,1996,261,1982,261,99122,0
patternWeightCount-27,false,0.13,2540,227,2536,227,169051,0
patternWeightCount-28,false,0.05,370,83,369,83,23895,0
patternWeightCount-29,false,0.29,1960,398,1952,398,123779,0
patternWeightCount-30,false,0.55,3814,732,3802,732,221954,0
patternWeightCount-31,false,0.19,1870,205,1865,205,121885,0
patternWeightCount-32,false,0.20,332,1017,319,1017,18904,0
patternWeightCount-33,false,0.62,2581,585,2572,585,160381,0
patternWeightCount-34,false,0.02,1044,111,1041,111,77496,0
patternWeightCount-35,false,0.55,3193,584,3185,584,193826,0
patternWeightCount-36,false,0.79,6270,999,6248,999,373124,0
patternWeightCount-37,false,0.63,6180,828,6166,828,324744,0
patternWeightCount-38,false,0.10,1249,151,1246,151,69090,0
patternWeightCount-39,false,0.03,1563,110,1563,110,105824,0
patternWeightCount-40,false,0.56,2963,622,2946,622,178935,0
patternWeightCount-41,false,0.92,5516,999,5486,999,337634,0
patternWeightCount-42,false,0.77,7506,999,7481,999,438881,0
patternWeightCount-43,false,0.82,5637,999,5613,999,333389,0
patternWeightCount-44,false,0.89,4410,999,4388,999,270749,0
patternWeightCount-45,false,0.17,2137,237,2134,237,121688,0
patternWeightCount-46,false,0.41,6423,649,6408,649,385672,0
patternWeightCount-47,false,0.50,2878,501,2874,501,166456,0
patternWeightCount-48,false,0.38,2882,394,2874,394,170492,0
patternWeightCount-49,false,0.24,2947,346,2941,346,172598,0
patternWeightCount-50,false,0.21,2587,316,2581,316,145132,0
patternWeightCount-51,false,0.34,4698,502,4690,502,270688,0
patternWeightCount-52,false,0.63,3921,598,3908,598,230337,0
patternWeightCount-53,false,0.28,21918,999,21908,999,1103725,0
patternWeightCount-54,false,0.03,837,117,836,117,58130,0
patternWeightCount-55,false,0.96,6458,989,6436,989,295476,0
patternWeightCount-56,false,0.11,1371,134,1367,134,76324,0
patternWeightCount-57,false,0.13,1595,178,1589,178,66524,0
patternWeightCount-58,false,0.83,5574,999,5550,999,332355,0
patternWeightCount-59,true,1.00,1974,801,1957,792,116039,0
patternWeightCount-60,false,0.06,3205,232,3200,232,200769,0
patternWeightCount-61,false,0.01,5904,999,5888,999,443149,0
patternWeightCount-62,false,0.85,4745,907,4729,907,276706,0
patternWeightCount-63,false,0.03,1331,105,1331,105,85428,0
patternWeightCount-64,false,0.63,8108,999,8094,999,465919,0
patternWeightCount-65,false,0.64,3034,658,3021,658,177466,0
patternWeightCount-66,true,1.00,4112,983,4084,979,246319,0
patternWeightCount-67,true,1.00,3938,894,3919,890,231115,0
patternWeightCount-68,true,1.00,4431,978,4411,973,259086,0
patternWeightCount-69,false,0.81,3143,835,3127,835,161527,0
patternWeightCount-70,false,0.55,3494,671,3477,671,198921,0
patternWeightCount-71,false,0.98,4741,999,4718,999,276938,0
patternWeightCount-72,false,0.07,748,88,748,88,44630,0
patternWeightCount-73,false,0.07,2096,182,2095,182,126118,0
patternWeightCount-74,false,0.12,2794,279,2788,279,165184,0
patternWeightCount-75,false,0.41,4772,532,4760,532,278431,0
patternWeightCount-76,false,0.87,5879,999,5863,999,359876,0
patternWeightCount-77,false,0.13,3965,305,3963,305,245321,0
patternWeightCount-78,false,0.09,3189,237,3182,237,194562,0
patternWeightCount-79,false,0.08,29464,999,29459,999,1975502,0
patternWeightCount-80,false,0.06,564,142,563,142,36777,0
patternWeightCount-81,false,0.41,3215,512,3208,512,193222,0
patternWeightCount-82,true,1.00,622,706,602,701,37647,0
patternWeightCount-83,false,0.19,3396,389,3389,389,214774,0
patternWeightCount-84,false,0.41,3221,475,3210,475,192678,0
patternWeightCount-85,false,0.24,1543,268,1540,268,93440,0
patternWeightCount-86,false,0.01,113,34,113,34,8222,0
patternWeightCount-87,false,0.45,6266,588,6259,588,355217,0
patternWeightCount-88,false,0.07,2171,155,2168,155,129753,0
patternWeightCount-89,true,1.00,3171,762,3158,758,194809,0
patternWeightCount-90,false,0.53,5237,653,5228,653,315906,0
patternWeightCount-91,false,0.39,3399,582,3389,582,209243,0
patternWeightCount-92,false,0.22,1983,227,1977,227,118641,0
patternWeightCount-93,false,0.73,7879,999,7864,999,480063,0
patternWeightCount-94,false,0.46,4353,637,4345,637,272343,0
patternWeightCount-95,false,0.09,1574,140,1574,140,103239,0
patternWeightCount-96,true,1.00,3914,955,3892,950,241929,0
patternWeightCount-97,false,0.24,2291,305,2286,305,146639,0
patternWeightCount-98,false,0.64,4756,724,4743,724,285787,0
patternWeightCount-99,false,0.13,3589,318,3587,318,222774,0
patternWeightCount-100,false,0.46,3137,542,3128,542,191848,0
