NDW:0.0
TTFW:1.2
DFPT:2.0
DFPAP:3.0
DFPMP:1.0
RIGHT_WINDOW_BORDER_X:235.0
level,win/fail,% travelled,run time,game ticks,planning time,total plannings,nodes evaluated,most backtracked nodes
Mario-1,true,1.00,356,393,355,351,33021,0
Mario-2,true,1.00,797,341,794,320,73249,0
Mario-3,true,1.00,1351,297,1348,242,150768,0
Mario-4,true,1.00,775,381,767,339,69225,0
Mario-5,true,1.00,1005,396,1001,374,97171,0
Mario-6,true,1.00,1131,255,1130,232,126191,0
Mario-7,true,1.00,649,414,647,364,58576,0
Mario-8,true,1.00,1045,430,1042,374,95419,0
Mario-9,true,1.00,433,403,427,363,41481,0
Mario-10,true,1.00,1679,332,1679,289,194595,0
Mario-11,true,1.00,691,426,688,379,61913,0
Mario-12,true,1.00,1100,693,1086,656,79095,0
Mario-13,true,1.00,1345,333,1344,312,149898,0
Mario-14,true,1.00,215,389,213,352,18692,0
Mario-15,true,1.00,1963,822,1948,790,173737,0
