NDW:0.0
TTFW:1.0
DFPT:2.0
DFPAP:3.0
DFPMP:20.0
RIGHT_WINDOW_BORDER_X:176.0
level,win/fail,% travelled,run time,game ticks,planning time,total plannings,nodes evaluated,most backtracked nodes
Krys-1,false,0.38,28917,999,28911,999,939413,0
Krys-2,false,0.79,23914,999,23903,999,801765,0
Krys-3,false,0.70,25329,999,25320,999,902889,0
Krys-4,true,1.00,2968,464,2953,440,120199,0
Krys-5,true,1.00,3359,384,3351,357,168011,0
Krys-6,true,1.00,1616,376,1609,351,67147,0
Krys-7,true,1.00,372,347,360,316,17005,0
Krys-8,true,1.00,2650,461,2639,431,119835,0
Krys-9,true,1.00,3626,373,3616,353,166369,0
Krys-10,true,1.00,2032,361,2020,333,91172,0
Krys-11,true,1.00,343,346,334,329,13363,0
Krys-12,false,0.70,25431,999,25423,999,839902,0
Krys-13,true,1.00,5952,470,5945,446,275570,0
Krys-14,false,0.79,24984,999,24976,999,786946,0
Krys-15,true,1.00,5997,435,5984,406,187082,0
Krys-16,false,0.69,24803,999,24794,999,763334,0
Krys-17,true,1.00,2442,430,2428,402,102688,0
Krys-18,true,1.00,1618,365,1605,335,76438,0
Krys-19,true,1.00,3210,354,3201,327,151206,0
Krys-20,true,1.00,4510,534,4499,498,192865,0
Krys-21,true,1.00,2467,368,2457,341,112986,0
Krys-22,false,0.82,3276,317,3272,317,154584,0
Krys-23,true,1.00,2218,462,2202,432,87841,0
Krys-24,true,1.00,5913,438,5899,409,232050,0
Krys-25,true,1.00,3014,384,3007,350,121461,0
Krys-26,true,1.00,4217,385,4210,358,213452,0
Krys-27,true,1.00,2420,383,2408,350,108156,0
Krys-28,true,1.00,5575,537,5558,513,230349,0
Krys-29,true,1.00,2375,496,2359,478,96623,0
Krys-30,true,1.00,2236,507,2221,479,87788,0
Krys-31,true,1.00,2814,455,2802,429,132023,0
Krys-32,true,1.00,722,390,710,374,27724,0
Krys-33,true,1.00,436,322,430,299,18514,0
Krys-34,true,1.00,3356,478,3340,444,138455,0
Krys-35,true,1.00,2824,362,2814,332,136726,0
Krys-36,true,1.00,5192,451,5187,426,223798,0
Krys-37,true,1.00,4577,447,4569,429,200473,0
Krys-38,true,1.00,4051,413,4043,385,194722,0
Krys-39,true,1.00,5393,439,5384,414,235249,0
Krys-40,true,1.00,4312,431,4305,404,206060,0
Krys-41,false,0.70,26247,999,26241,999,880471,0
Krys-42,true,1.00,2032,357,2026,334,98173,0
Krys-43,true,1.00,1963,355,1957,321,98094,0
Krys-44,true,1.00,6794,475,6788,446,316515,0
Krys-45,false,0.39,27787,999,27782,999,926244,0
Krys-46,true,1.00,2114,473,2095,439,84229,0
Krys-47,true,1.00,1413,463,1397,434,58609,0
Krys-48,true,1.00,3015,373,3005,348,153358,0
Krys-49,true,1.00,1408,413,1396,388,57938,0
Krys-50,true,1.00,7466,504,7456,477,327578,0
Krys-51,true,1.00,4288,434,4282,407,205806,0
Krys-52,true,1.00,2471,498,2457,470,101014,0
Krys-53,true,1.00,2142,448,2129,421,86367,0
Krys-54,true,1.00,4982,482,4972,452,227416,0
Krys-55,true,1.00,3040,523,3031,492,126105,0
Krys-56,false,0.59,26577,999,26570,999,815639,0
Krys-57,true,1.00,5510,427,5497,396,238080,0
Krys-58,true,1.00,2740,428,2729,410,105722,0
Krys-59,true,1.00,2919,465,2908,431,92299,0
Krys-60,true,1.00,3618,403,3608,371,143421,0
Krys-61,false,0.48,26857,999,26848,999,827252,0
Krys-62,true,1.00,1823,415,1815,385,58438,0
Krys-63,true,1.00,5023,607,5000,576,177300,0
Krys-64,true,1.00,3028,509,3016,475,113862,0
Krys-65,true,1.00,2488,408,2475,390,87645,0
Krys-66,true,1.00,3346,465,3332,437,112356,0
Krys-67,true,1.00,3605,518,3593,487,133133,0
Krys-68,true,1.00,5578,424,5571,395,250400,0
Krys-69,true,1.00,8799,728,8781,700,294251,0
Krys-70,false,0.80,24735,999,24718,999,797016,0
Krys-71,true,1.00,4198,392,4190,362,207360,0
Krys-72,true,1.00,1551,425,1535,399,67395,0
Krys-73,false,0.80,23101,999,23086,999,741767,0
Krys-74,true,1.00,3038,431,3024,394,124622,0
Krys-75,true,1.00,937,378,923,344,31210,0
Krys-76,true,1.00,4522,381,4507,362,199291,0
Krys-77,true,1.00,1285,360,1270,326,56356,0
Krys-78,false,0.70,25886,999,25879,999,787933,0
Krys-79,true,1.00,1160,402,1149,374,40775,0
Krys-80,true,1.00,544,392,526,367,20888,0
Krys-81,true,1.00,1255,384,1245,357,53783,0
Krys-82,true,1.00,1195,370,1180,340,41925,0
Krys-83,true,1.00,4460,425,4453,396,177041,0
Krys-84,true,1.00,365,343,342,306,14224,0
Krys-85,true,1.00,3595,493,3581,459,141905,0
Krys-86,true,1.00,1821,397,1808,370,68593,0
Krys-87,true,1.00,936,347,926,331,31142,0
Krys-88,true,1.00,1969,403,1962,378,77340,0
Krys-89,true,1.00,1522,368,1515,337,62025,0
Krys-90,true,1.00,7198,481,7191,458,310178,0
Krys-91,true,1.00,612,385,592,339,25086,0
Krys-92,true,1.00,5704,516,5698,489,225478,0
Krys-93,true,1.00,2626,352,2610,321,119844,0
Krys-94,true,1.00,1669,359,1656,330,77517,0
Krys-95,true,1.00,1325,387,1313,359,49635,0
Krys-96,true,1.00,4029,375,4023,345,185094,0
Krys-97,true,1.00,2455,372,2446,344,102228,0
Krys-98,true,1.00,4899,591,4880,568,182698,0
Krys-99,true,1.00,1695,446,1683,412,59824,0
Krys-100,true,1.00,3711,381,3704,347,184743,0
