NDW:0.0
TTFW:0.8
DFPT:2.0
DFPAP:3.0
DFPMP:20.0
RIGHT_WINDOW_BORDER_X:95.0
level,win/fail,% travelled,run time,game ticks,planning time,total plannings,nodes evaluated,most backtracked nodes
ore-1,true,1.00,2961,545,2950,525,172420,0
ore-2,false,0.70,4441,427,4433,427,231183,0
ore-3,true,1.00,2018,499,2003,489,117578,0
ore-4,true,1.00,5858,639,5844,629,334916,0
ore-5,true,1.00,1910,470,1901,460,110982,0
ore-6,true,1.00,2928,527,2919,518,166944,0
ore-7,true,1.00,2409,454,2402,446,136296,0
ore-8,false,0.12,3631,162,3630,162,179491,0
ore-9,true,1.00,3798,513,3783,504,218721,0
ore-10,true,1.00,2131,489,2118,479,125816,0
ore-11,true,1.00,3547,597,3539,587,206643,0
ore-12,true,1.00,4950,612,4935,603,284276,0
ore-13,true,1.00,3104,556,3092,545,172753,0
ore-14,true,1.00,3218,568,3205,558,189787,0
ore-15,true,1.00,3818,600,3803,591,214933,0
ore-16,true,1.00,3137,527,3118,518,185575,0
ore-17,true,1.00,6046,699,6041,689,359511,0
ore-18,true,1.00,4188,567,4176,556,243542,0
ore-19,true,1.00,1875,486,1857,476,106995,0
ore-20,true,1.00,3360,553,3352,544,190821,0
ore-21,true,1.00,3241,572,3227,561,189552,0
ore-22,false,0.58,4047,389,4041,389,214400,0
ore-23,true,1.00,2022,504,2008,491,117831,0
ore-24,true,1.00,3711,593,3701,584,216128,0
ore-25,true,1.00,6475,683,6460,674,383573,0
ore-26,true,1.00,6041,638,6027,629,337312,0
ore-27,true,1.00,3588,546,3577,536,202813,0
ore-28,true,1.00,1697,474,1684,464,92739,0
ore-29,true,1.00,4641,558,4627,548,261604,0
ore-30,true,1.00,3485,523,3476,513,193385,0
ore-31,true,1.00,6981,690,6972,673,401465,0
ore-32,true,1.00,4000,550,3987,541,231251,0
ore-33,true,1.00,2936,540,2922,530,170784,0
ore-34,false,0.90,16112,999,16094,999,943323,0
ore-35,true,1.00,8111,739,8093,729,463334,0
ore-36,true,1.00,3599,566,3590,554,212160,0
ore-37,false,0.09,177,92,175,92,9381,0
ore-38,true,1.00,5974,619,5962,609,347722,0
ore-39,true,1.00,4927,618,4912,608,294570,0
ore-40,true,1.00,3776,552,3768,538,218017,0
ore-41,true,1.00,3181,564,3165,554,182250,0
ore-42,true,1.00,3052,578,3043,568,175435,0
ore-43,true,1.00,3630,605,3624,593,212196,0
ore-44,true,1.00,3317,579,3301,569,195851,0
ore-45,false,0.74,19577,999,19567,999,830090,0
ore-46,false,0.11,2399,129,2398,129,127246,0
ore-47,true,1.00,4954,644,4934,635,286521,0
ore-48,true,1.00,2826,519,2820,510,165866,0
ore-49,true,1.00,4061,561,4050,552,232389,0
ore-50,true,1.00,5459,587,5446,577,307958,0
ore-51,true,1.00,3811,600,3802,590,225871,0
ore-52,true,1.00,3189,533,3183,525,190511,0
ore-53,true,1.00,4680,589,4665,580,265685,0
ore-54,true,1.00,3330,591,3317,581,195963,0
ore-55,true,1.00,2121,516,2106,508,127885,0
ore-56,true,1.00,2224,515,2213,506,128471,0
ore-57,true,1.00,2660,513,2644,503,154625,0
ore-58,true,1.00,5239,597,5220,587,296275,0
ore-59,true,1.00,4220,625,4207,615,188206,0
ore-60,false,0.82,19429,999,19417,999,1140219,0
ore-61,true,1.00,5589,611,5580,601,303284,0
ore-62,true,1.00,2876,509,2860,495,165598,0
ore-63,true,1.00,2979,528,2966,519,169931,0
ore-64,false,0.84,1667,411,1662,411,95767,0
ore-65,true,1.00,5211,645,5197,636,300566,0
ore-66,false,0.18,709,137,708,137,41176,0
ore-67,true,1.00,2653,515,2642,506,151433,0
ore-68,true,1.00,2773,536,2760,522,156366,0
ore-69,true,1.00,3733,578,3722,569,220423,0
ore-70,false,0.93,6976,648,6965,648,383352,0
ore-71,true,1.00,3302,584,3293,574,188056,0
ore-72,false,0.51,1974,322,1965,322,115979,0
ore-73,true,1.00,5441,636,5431,625,303379,0
ore-74,true,1.00,5775,644,5766,628,335884,0
ore-75,true,1.00,5025,629,5019,620,286666,0
ore-76,false,0.77,3675,434,3666,434,217172,0
ore-77,true,1.00,3717,588,3704,578,215796,0
ore-78,true,1.00,4496,568,4485,559,265643,0
ore-79,true,1.00,3878,621,3870,611,220719,0
ore-80,true,1.00,3383,531,3369,513,189175,0
ore-81,false,0.61,2249,392,2233,392,130805,0
ore-82,true,1.00,4446,601,4438,591,253467,0
ore-83,false,0.31,2435,257,2432,257,141599,0
ore-84,false,0.12,3426,161,3426,161,155883,0
ore-85,true,1.00,3023,544,3008,534,170186,0
ore-86,false,0.62,3258,406,3251,406,189078,0
ore-87,true,1.00,1983,494,1972,484,112428,0
ore-88,true,1.00,4035,564,4022,555,233038,0
ore-89,true,1.00,2081,496,2070,487,116839,0
ore-90,true,1.00,2626,518,2610,508,135083,0
ore-91,false,0.71,2675,433,2666,433,146407,0
ore-92,true,1.00,3529,498,3518,489,199954,0
ore-93,false,0.12,30281,999,30279,999,1499813,0
ore-94,true,1.00,2762,513,2751,503,157886,0
ore-95,true,1.00,4998,674,4984,664,282089,0
ore-96,true,1.00,2086,504,2074,495,121899,0
ore-97,true,1.00,4257,619,4247,606,240728,0
ore-98,true,1.00,3120,506,3110,496,179171,0
ore-99,false,0.57,2026,322,2016,322,116299,0
ore-100,true,1.00,2336,491,2328,481,138077,0
