NDW:0.0
TTFW:2.0
DFPT:2.0
DFPAP:3.0
DFPMP:50.0
RIGHT_WINDOW_BORDER_X:135.0
level,win/fail,% travelled,run time,game ticks,planning time,total plannings,nodes evaluated,most backtracked nodes
notchParamRand-1,true,1.00,1211,336,1201,324,68570,0
notchParamRand-2,true,1.00,183,304,176,292,11086,0
notchParamRand-3,true,1.00,1080,312,1075,300,66772,0
notchParamRand-4,true,1.00,1524,338,1519,326,93518,0
notchParamRand-5,true,1.00,336,306,332,294,20467,0
notchParamRand-6,true,1.00,545,318,534,306,33850,0
notchParamRand-7,true,1.00,1149,328,1142,316,69512,0
notchParamRand-8,true,1.00,778,324,771,312,44858,0
notchParamRand-9,true,1.00,823,340,817,328,50580,0
notchParamRand-10,true,1.00,1068,351,1059,339,65851,0
notchParamRand-11,true,1.00,173,314,167,302,10490,0
notchParamRand-12,true,1.00,313,324,309,312,19428,0
notchParamRand-13,true,1.00,2792,368,2783,356,168928,0
notchParamRand-14,true,1.00,1056,314,1048,302,62783,0
notchParamRand-15,true,1.00,779,314,774,302,48217,0
notchParamRand-16,true,1.00,558,310,551,298,35314,0
notchParamRand-17,true,1.00,87,303,81,291,4779,0
notchParamRand-18,true,1.00,2941,360,2933,348,174287,0
notchParamRand-19,true,1.00,212,330,206,318,12602,0
notchParamRand-20,true,1.00,1641,389,1634,377,101381,0
notchParamRand-21,true,1.00,86,296,82,284,4727,0
notchParamRand-22,true,1.00,998,334,992,322,61424,0
notchParamRand-23,true,1.00,1114,337,1109,325,67072,0
notchParamRand-24,true,1.00,214,327,206,315,12707,0
notchParamRand-25,true,1.00,95,308,89,296,5441,0
notchParamRand-26,true,1.00,448,341,445,329,27123,0
notchParamRand-27,true,1.00,258,302,253,290,16235,0
notchParamRand-28,true,1.00,504,315,499,303,30626,0
notchParamRand-29,true,1.00,86,298,82,286,4776,0
notchParamRand-30,true,1.00,2207,348,2202,336,128943,0
notchParamRand-31,true,1.00,377,318,369,306,23030,0
notchParamRand-32,true,1.00,164,296,156,284,9669,0
notchParamRand-33,true,1.00,2791,385,2785,373,168928,0
notchParamRand-34,true,1.00,1174,326,1168,314,70241,0
notchParamRand-35,true,1.00,667,318,654,306,41812,0
notchParamRand-36,true,1.00,82,302,78,290,4540,0
notchParamRand-37,true,1.00,713,319,703,307,44392,0
notchParamRand-38,true,1.00,2813,363,2807,351,168702,0
notchParamRand-39,true,1.00,1748,334,1743,322,104601,0
notchParamRand-40,true,1.00,4046,382,4039,370,241339,0
notchParamRand-41,true,1.00,86,294,78,282,4762,0
notchParamRand-42,true,1.00,405,316,395,304,24951,0
notchParamRand-43,true,1.00,383,308,380,296,23223,0
notchParamRand-44,true,1.00,332,302,325,290,20455,0
notchParamRand-45,true,1.00,1360,324,1354,312,78618,0
notchParamRand-46,true,1.00,655,315,648,303,40668,0
notchParamRand-47,true,1.00,874,332,866,320,53017,0
notchParamRand-48,true,1.00,1750,338,1742,326,104047,0
notchParamRand-49,true,1.00,796,318,789,306,49473,0
notchParamRand-50,true,1.00,1563,355,1556,343,95793,0
notchParamRand-51,true,1.00,228,317,215,305,13484,0
notchParamRand-52,true,1.00,1767,338,1758,326,106623,0
notchParamRand-53,true,1.00,1216,336,1210,324,74363,0
notchParamRand-54,true,1.00,2101,362,2095,350,122784,0
notchParamRand-55,true,1.00,2117,330,2107,318,122095,0
notchParamRand-56,true,1.00,656,325,649,313,38627,0
notchParamRand-57,true,1.00,1147,316,1142,304,63090,0
notchParamRand-58,true,1.00,971,343,955,331,30119,0
notchParamRand-59,true,1.00,580,311,561,299,18669,0
notchParamRand-60,true,1.00,738,327,731,315,33760,0
notchParamRand-61,true,1.00,545,316,538,304,33833,0
notchParamRand-62,true,1.00,421,320,409,308,25707,0
notchParamRand-63,true,1.00,1604,332,1598,320,95566,0
notchParamRand-64,true,1.00,363,300,356,288,21865,0
notchParamRand-65,true,1.00,2875,384,2870,372,166191,0
notchParamRand-66,true,1.00,279,316,269,304,16196,0
notchParamRand-67,true,1.00,428,306,418,294,25101,0
notchParamRand-68,true,1.00,2176,376,2167,364,129114,0
notchParamRand-69,true,1.00,334,309,328,297,19651,0
notchParamRand-70,true,1.00,982,348,975,336,60252,0
notchParamRand-71,true,1.00,385,345,378,333,22684,0
notchParamRand-72,true,1.00,154,296,149,284,8902,0
notchParamRand-73,true,1.00,573,314,563,302,32633,0
notchParamRand-74,true,1.00,90,296,86,284,4976,0
notchParamRand-75,true,1.00,86,294,81,282,4590,0
notchParamRand-76,true,1.00,1402,361,1390,349,74288,0
notchParamRand-77,true,1.00,1800,374,1793,362,101378,0
notchParamRand-78,true,1.00,1206,318,1200,306,72098,0
notchParamRand-79,true,1.00,311,304,306,292,18538,0
notchParamRand-80,true,1.00,455,310,448,298,26270,0
notchParamRand-81,true,1.00,327,298,320,286,20205,0
notchParamRand-82,true,1.00,850,320,844,308,51353,0
notchParamRand-83,true,1.00,1558,360,1544,348,92702,0
notchParamRand-84,true,1.00,320,310,308,298,19646,0
notchParamRand-85,true,1.00,87,294,79,282,4636,0
notchParamRand-86,true,1.00,585,366,575,354,34945,0
notchParamRand-87,true,1.00,2251,340,2243,328,136429,0
notchParamRand-88,true,1.00,367,304,359,292,23024,0
notchParamRand-89,true,1.00,424,300,416,288,25452,0
notchParamRand-90,true,1.00,856,335,849,323,50435,0
notchParamRand-91,true,1.00,82,296,72,283,4446,0
notchParamRand-92,true,1.00,1092,351,1084,339,67265,0
notchParamRand-93,true,1.00,340,310,332,298,20344,0
notchParamRand-94,true,1.00,1839,336,1833,324,109110,0
notchParamRand-95,true,1.00,845,330,835,318,52424,0
notchParamRand-96,true,1.00,565,348,556,336,34762,0
notchParamRand-97,true,1.00,1586,356,1579,344,95109,0
notchParamRand-98,true,1.00,294,304,287,292,18402,0
notchParamRand-99,true,1.00,320,308,309,296,19057,0
notchParamRand-100,true,1.00,2106,336,2101,324,126438,0
