NDW:0.0
TTFW:2.0
DFPT:2.0
DFPAP:3.0
DFPMP:5.0
RIGHT_WINDOW_BORDER_X:75.0
level,win/fail,% travelled,run time,game ticks,planning time,total plannings,nodes evaluated,most backtracked nodes
notchParam-1,false,0.36,2352,209,2348,209,111781,0
notchParam-2,false,0.36,4948,263,4945,263,261010,0
notchParam-3,true,1.00,1007,372,1001,365,51265,0
notchParam-4,true,1.00,1095,382,1088,375,54824,0
notchParam-5,true,1.00,1533,400,1518,394,74385,0
notchParam-6,false,0.30,196,106,190,106,9360,0
notchParam-7,false,0.37,5483,296,5478,296,289432,0
notchParam-8,false,0.56,2111,274,2106,274,105034,0
notchParam-9,false,0.43,311,151,307,151,15258,0
notchParam-10,false,0.70,6985,465,6976,465,328555,0
notchParam-11,true,1.00,1982,414,1969,407,94891,0
notchParam-12,true,1.00,4511,487,4502,481,209217,0
notchParam-13,true,1.00,370,332,364,325,17034,0
notchParam-14,true,1.00,270,306,261,299,12412,0
notchParam-15,false,0.36,1048,171,1043,171,47997,0
notchParam-16,false,0.36,6803,319,6798,319,350723,0
notchParam-17,false,0.36,3401,214,3400,214,162624,0
notchParam-18,true,1.00,916,384,904,378,47193,0
notchParam-19,true,1.00,646,344,641,337,32772,0
notchParam-20,true,1.00,1447,342,1435,335,69094,0
notchParam-21,true,1.00,233,316,226,310,10832,0
notchParam-22,true,1.00,464,348,450,342,23488,0
notchParam-23,false,0.29,274,128,270,128,13796,0
notchParam-24,false,0.31,5352,278,5348,278,268350,0
notchParam-25,true,1.00,7847,604,7838,598,380082,0
notchParam-26,true,1.00,8437,572,8434,565,431401,0
notchParam-27,true,1.00,470,346,458,339,24790,0
notchParam-28,true,1.00,777,362,764,355,38321,0
notchParam-29,true,1.00,1594,419,1582,413,81086,0
notchParam-30,true,1.00,310,312,303,305,15495,0
notchParam-31,false,0.36,2309,180,2304,180,112185,0
notchParam-32,false,0.36,1762,174,1761,174,65217,0
notchParam-33,true,1.00,484,310,470,303,12887,0
notchParam-34,false,0.37,2744,204,2735,204,116245,0
notchParam-35,false,0.35,28904,999,28901,999,1379265,0
notchParam-36,false,0.36,3401,214,3398,214,155806,0
notchParam-37,true,1.00,315,328,308,321,13926,0
notchParam-38,true,1.00,241,328,230,322,11405,0
notchParam-39,false,0.36,4390,244,4387,244,217336,0
notchParam-40,true,1.00,872,350,865,344,40310,0
notchParam-41,true,1.00,1893,404,1884,397,89418,0
notchParam-42,true,1.00,242,330,227,323,11567,0
notchParam-43,true,1.00,4992,516,4982,510,234234,0
notchParam-44,false,0.83,8206,585,8198,585,412843,0
notchParam-45,false,0.19,1083,105,1082,105,51974,0
notchParam-46,true,1.00,3599,470,3586,463,173183,0
notchParam-47,true,1.00,789,336,780,330,43033,0
notchParam-48,true,1.00,729,344,712,338,28000,0
notchParam-49,true,1.00,1204,354,1179,344,33238,0
notchParam-50,true,1.00,402,347,384,341,11900,0
notchParam-51,true,1.00,329,318,316,311,12428,0
notchParam-52,false,0.36,4396,244,4390,244,217757,0
notchParam-53,false,0.35,28859,999,28856,999,1367696,0
notchParam-54,false,0.36,4268,259,4265,259,218295,0
notchParam-55,true,1.00,543,345,533,339,29322,0
notchParam-56,true,1.00,382,314,375,307,19400,0
notchParam-57,false,0.44,2408,243,2402,243,124360,0
notchParam-58,false,0.17,53,70,53,70,2832,0
notchParam-59,true,1.00,6607,556,6598,550,335958,0
notchParam-60,true,1.00,1026,398,1020,391,53694,0
notchParam-61,true,1.00,6612,543,6608,537,348610,0
notchParam-62,false,0.36,1317,148,1314,148,61530,0
notchParam-63,true,1.00,2765,425,2756,419,143224,0
notchParam-64,true,1.00,1282,390,1271,383,65302,0
notchParam-65,false,0.43,312,165,308,165,16462,0
notchParam-66,true,1.00,928,390,914,383,48999,0
notchParam-67,false,0.36,4946,263,4941,263,277674,0
notchParam-68,false,0.36,2619,197,2611,197,127536,0
notchParam-69,false,0.36,2674,207,2668,207,86013,0
notchParam-70,false,0.35,28899,999,28894,999,1335198,0
notchParam-71,true,1.00,1049,394,1042,388,53045,0
notchParam-72,false,0.42,359,164,355,164,17433,0
notchParam-73,true,1.00,797,355,786,349,37947,0
notchParam-74,true,1.00,794,386,785,379,37971,0
notchParam-75,true,1.00,2932,419,2926,412,149538,0
notchParam-76,true,1.00,5699,567,5684,560,276288,0
notchParam-77,true,1.00,1356,398,1350,392,67843,0
notchParam-78,true,1.00,4814,521,4804,514,237461,0
notchParam-79,false,0.43,344,160,340,160,17346,0
notchParam-80,true,1.00,290,357,281,351,14997,0
notchParam-81,true,1.00,979,371,970,362,51022,0
notchParam-82,true,1.00,329,330,317,323,16895,0
notchParam-83,true,1.00,235,338,226,332,12654,0
notchParam-84,false,0.36,2242,187,2236,187,111607,0
notchParam-85,false,0.37,5484,293,5479,293,301267,0
notchParam-86,false,0.19,1909,132,1905,132,97427,0
notchParam-87,true,1.00,403,342,390,335,21011,0
notchParam-88,true,1.00,471,346,462,340,25257,0
notchParam-89,true,1.00,298,318,291,312,15410,0
notchParam-90,true,1.00,259,316,251,310,13285,0
notchParam-91,true,1.00,4867,552,4860,546,241908,0
notchParam-92,false,0.70,5431,410,5423,410,265365,0
notchParam-93,true,1.00,9388,680,9382,673,465520,0
notchParam-94,true,1.00,9710,713,9703,707,501151,0
notchParam-95,true,1.00,9614,674,9605,668,510057,0
notchParam-96,true,1.00,1098,361,1090,354,57274,0
notchParam-97,true,1.00,2319,413,2309,407,117777,0
notchParam-98,true,1.00,318,306,306,299,16392,0
notchParam-99,false,0.35,28878,999,28874,999,1485965,0
notchParam-100,false,0.36,2303,180,2302,180,115868,0
