NDW:0.0
TTFW:0.8
DFPT:2.0
DFPAP:3.0
DFPMP:50.0
RIGHT_WINDOW_BORDER_X:295.0
level,win/fail,% travelled,run time,game ticks,planning time,total plannings,nodes evaluated,most backtracked nodes
ore-1,true,1.00,1359,427,1357,386,144026,0
ore-2,false,0.70,2012,276,2010,276,185860,0
ore-3,true,1.00,1917,432,1914,397,200228,0
ore-4,true,1.00,1856,393,1854,363,191018,0
ore-5,true,1.00,1613,413,1609,380,168638,0
ore-6,true,1.00,1369,392,1368,353,132048,0
ore-7,true,1.00,1320,391,1318,353,137877,0
ore-8,false,0.13,925,66,925,66,72580,0
ore-9,true,1.00,1003,369,1001,337,101476,0
ore-10,true,1.00,1257,365,1255,338,140655,0
ore-11,true,1.00,1490,454,1489,417,154134,0
ore-12,true,1.00,1632,401,1632,361,166269,0
ore-13,true,1.00,1497,417,1496,387,153446,0
ore-14,true,1.00,1903,425,1901,398,205028,0
ore-15,true,1.00,1812,399,1811,372,184228,0
ore-16,true,1.00,1301,380,1299,348,139042,0
ore-17,true,1.00,1377,429,1374,381,148306,0
ore-18,true,1.00,1208,430,1205,389,127281,0
ore-19,true,1.00,1515,398,1510,368,161477,0
ore-20,true,1.00,1859,436,1856,400,192971,0
ore-21,true,1.00,1602,382,1598,355,176345,0
ore-22,false,0.62,1670,278,1668,278,140807,0
ore-23,true,1.00,1197,332,1196,304,131631,0
ore-24,true,1.00,1344,411,1338,370,139847,0
ore-25,true,1.00,1337,402,1336,368,144466,0
ore-26,true,1.00,1238,402,1233,367,121598,0
ore-27,true,1.00,2080,429,2080,401,206200,0
ore-28,true,1.00,1223,443,1219,411,112224,0
ore-29,true,1.00,1852,383,1847,356,184846,0
ore-30,true,1.00,1292,397,1289,352,130867,0
ore-31,true,1.00,1408,434,1404,394,144167,0
ore-32,true,1.00,1330,394,1326,356,136484,0
ore-33,true,1.00,1452,411,1449,383,145209,0
ore-34,true,1.00,1604,424,1602,387,167228,0
ore-35,true,1.00,1551,394,1548,366,173666,0
ore-36,true,1.00,1182,417,1179,374,125935,0
ore-37,false,0.35,1658,142,1657,142,135713,0
ore-38,true,1.00,1183,377,1179,348,122716,0
ore-39,true,1.00,1679,422,1676,393,181822,0
ore-40,true,1.00,1594,379,1589,342,164165,0
ore-41,true,1.00,1390,394,1388,367,153822,0
ore-42,true,1.00,1801,422,1799,390,190009,0
ore-43,true,1.00,1972,400,1968,373,193643,0
ore-44,true,1.00,1622,391,1617,348,177659,0
ore-45,true,1.00,2427,478,2421,438,239928,0
ore-46,false,0.13,830,48,830,48,67993,0
ore-47,true,1.00,1542,423,1540,391,163607,0
ore-48,true,1.00,2802,462,2799,435,289916,0
ore-49,true,1.00,1347,407,1344,375,138831,0
ore-50,true,1.00,1612,353,1610,325,170182,0
ore-51,true,1.00,1597,431,1591,394,169776,0
ore-52,true,1.00,1348,412,1344,374,134775,0
ore-53,true,1.00,1458,445,1456,404,147092,0
ore-54,true,1.00,1782,420,1779,383,191330,0
ore-55,true,1.00,1293,389,1289,353,144422,0
ore-56,true,1.00,1446,388,1443,361,153164,0
ore-57,true,1.00,1457,380,1451,337,152894,0
ore-58,true,1.00,1201,354,1198,327,129156,0
ore-59,true,1.00,1618,394,1616,365,167655,0
ore-60,true,1.00,2023,388,2021,355,211468,0
ore-61,true,1.00,1507,395,1504,363,151486,0
ore-62,true,1.00,1366,372,1363,344,151259,0
ore-63,true,1.00,1688,389,1687,362,172189,0
ore-64,true,1.00,1029,383,1027,356,108457,0
ore-65,true,1.00,1633,411,1632,374,169348,0
ore-66,true,1.00,1792,433,1787,383,186628,0
ore-67,true,1.00,1584,398,1582,361,163268,0
ore-68,true,1.00,1097,384,1090,346,112374,0
ore-69,true,1.00,2427,480,2424,437,241844,0
ore-70,true,1.00,1971,416,1966,390,201514,0
ore-71,true,1.00,1559,422,1555,387,161888,0
ore-72,true,1.00,1202,398,1199,369,131728,0
ore-73,true,1.00,1531,411,1530,382,167089,0
ore-74,true,1.00,1605,393,1601,355,157461,0
ore-75,true,1.00,1467,413,1465,383,156248,0
ore-76,true,1.00,1144,342,1144,309,125226,0
ore-77,true,1.00,1569,403,1569,361,164003,0
ore-78,true,1.00,1785,387,1783,360,198381,0
ore-79,true,1.00,2076,416,2074,389,225084,0
ore-80,true,1.00,1422,356,1415,327,148988,0
ore-81,true,1.00,1713,423,1710,394,179533,0
ore-82,true,1.00,1608,382,1605,350,171779,0
ore-83,true,1.00,1475,453,1472,426,153106,0
ore-84,true,1.00,2388,383,2386,354,214615,0
ore-85,true,1.00,1190,380,1185,345,123899,0
ore-86,true,1.00,1503,395,1496,363,165223,0
ore-87,true,1.00,934,356,931,329,95134,0
ore-88,true,1.00,1716,408,1715,373,185194,0
ore-89,true,1.00,1884,387,1882,360,193157,0
ore-90,true,1.00,2632,437,2632,395,286209,0
ore-91,true,1.00,1675,398,1670,371,179873,0
ore-92,true,1.00,1351,363,1349,332,145676,0
ore-93,false,0.14,2590,104,2590,104,201215,0
ore-94,true,1.00,1709,390,1708,363,177984,0
ore-95,true,1.00,2139,464,2137,424,211320,0
ore-96,true,1.00,1808,466,1806,439,189128,0
ore-97,true,1.00,1525,426,1522,388,153922,0
ore-98,true,1.00,1647,426,1645,396,176494,0
ore-99,true,1.00,1708,407,1706,373,176158,0
ore-100,true,1.00,1144,383,1141,345,125531,0
