NDW:0.0
TTFW:1.4
DFPT:2.0
DFPAP:3.0
DFPMP:3.0
RIGHT_WINDOW_BORDER_X:195.0
level,win/fail,% travelled,run time,game ticks,planning time,total plannings,nodes evaluated,most backtracked nodes
hopper-1,true,1.00,1225,328,1220,311,70430,0
hopper-2,true,1.00,1085,317,1077,300,62996,0
hopper-3,false,0.24,1768,116,1765,116,83010,0
hopper-4,false,0.27,621,94,621,94,34125,0
hopper-5,true,1.00,891,316,887,299,50489,0
hopper-6,true,1.00,1067,327,1062,309,60868,0
hopper-7,false,0.83,1967,280,1963,280,97207,0
hopper-8,false,0.42,847,139,844,139,44974,0
hopper-9,true,1.00,1017,323,1010,306,57707,0
hopper-10,true,1.00,909,315,900,298,52950,0
hopper-11,true,1.00,704,321,699,304,39840,0
hopper-12,true,1.00,1113,325,1107,302,63532,0
hopper-13,false,0.39,2009,156,2008,156,96615,0
hopper-14,true,1.00,1079,326,1068,306,62803,0
hopper-15,true,1.00,1043,301,1037,284,60217,0
hopper-16,false,0.54,1747,192,1741,192,84657,0
hopper-17,true,1.00,916,311,910,294,51393,0
hopper-18,true,1.00,1111,310,1097,293,59589,0
hopper-19,true,1.00,825,311,817,294,47279,0
hopper-20,true,1.00,1123,334,1118,316,59936,0
hopper-21,false,0.61,1117,201,1109,201,54491,0
hopper-22,false,0.33,1883,143,1879,143,84232,0
hopper-23,true,1.00,1065,310,1050,293,39852,0
hopper-24,true,1.00,708,327,691,309,23382,0
hopper-25,true,1.00,1197,311,1188,291,64479,0
hopper-26,true,1.00,1032,301,1026,284,55192,0
hopper-27,true,1.00,888,301,880,281,48581,0
hopper-28,false,0.85,1805,289,1800,289,96586,0
hopper-29,false,0.26,1177,104,1176,104,52897,0
hopper-30,true,1.00,904,322,896,304,47608,0
hopper-31,false,0.77,2045,270,2039,270,94916,0
hopper-32,true,1.00,1278,299,1274,282,69343,0
hopper-33,false,0.49,905,169,899,169,45717,0
hopper-34,false,0.31,786,103,783,103,37700,0
hopper-35,true,1.00,1307,324,1297,306,72036,0
hopper-36,true,1.00,705,303,698,286,31355,0
hopper-37,false,0.51,854,168,850,168,40227,0
hopper-38,false,0.52,1642,187,1632,187,77301,0
hopper-39,false,0.52,1047,172,1039,172,52353,0
hopper-40,true,1.00,1013,352,999,329,51694,0
hopper-41,true,1.00,1531,301,1525,284,82430,0
hopper-42,true,1.00,912,317,903,300,47312,0
hopper-43,false,0.45,1269,145,1264,145,37929,0
hopper-44,true,1.00,1405,315,1400,297,69268,0
hopper-45,false,0.43,998,153,996,153,51011,0
hopper-46,false,0.67,1374,229,1370,229,74773,0
hopper-47,true,1.00,1317,303,1309,286,73482,0
hopper-48,true,1.00,1058,303,1052,286,58684,0
hopper-49,true,1.00,1224,325,1217,308,68346,0
hopper-50,false,0.62,1352,210,1348,210,68465,0
hopper-51,false,0.34,1056,119,1053,119,51215,0
hopper-52,true,1.00,735,307,728,290,41794,0
hopper-53,false,0.63,1630,221,1621,221,67311,0
hopper-54,true,1.00,720,302,709,279,26711,0
hopper-55,true,1.00,941,343,925,323,28064,0
hopper-56,true,1.00,791,297,780,280,29487,0
hopper-57,true,1.00,1270,327,1256,310,67552,0
hopper-58,false,0.58,1296,186,1294,186,66283,0
hopper-59,true,1.00,738,299,728,282,41792,0
hopper-60,true,1.00,1013,321,1002,304,57676,0
hopper-61,false,0.82,1566,252,1559,252,83897,0
hopper-62,true,1.00,1331,330,1313,311,41232,0
hopper-63,false,0.23,663,79,660,79,24359,0
hopper-64,true,1.00,1150,315,1139,298,61820,0
hopper-65,true,1.00,962,313,955,293,52017,0
hopper-66,false,0.74,1145,252,1137,252,56560,0
hopper-67,true,1.00,999,326,988,309,54216,0
hopper-68,true,1.00,708,328,700,311,38140,0
hopper-69,false,0.84,1277,282,1267,282,65366,0
hopper-70,true,1.00,1195,309,1185,289,61904,0
hopper-71,true,1.00,722,303,711,286,38313,0
hopper-72,true,1.00,1210,303,1201,286,65138,0
hopper-73,true,1.00,969,315,960,298,52443,0
hopper-74,true,1.00,782,305,774,288,41524,0
hopper-75,true,1.00,969,317,958,300,51987,0
hopper-76,false,0.47,2056,178,2052,178,82160,0
hopper-77,true,1.00,1104,351,1096,333,48652,0
hopper-78,true,1.00,1112,308,1103,290,62403,0
hopper-79,true,1.00,724,316,713,288,39619,0
hopper-80,true,1.00,723,311,717,294,38343,0
hopper-81,false,0.39,1012,127,1011,127,50000,0
hopper-82,false,0.46,1755,179,1753,179,81154,0
hopper-83,true,1.00,1313,346,1304,329,72921,0
hopper-84,true,1.00,1101,303,1093,286,60302,0
hopper-85,true,1.00,1839,359,1831,342,98600,0
hopper-86,true,1.00,977,305,966,288,52689,0
hopper-87,true,1.00,1119,317,1115,300,59596,0
hopper-88,true,1.00,675,309,668,292,35752,0
hopper-89,true,1.00,768,338,759,320,41303,0
hopper-90,true,1.00,875,316,866,298,47681,0
hopper-91,true,1.00,1004,322,994,305,55233,0
hopper-92,true,1.00,1226,315,1217,298,65002,0
hopper-93,true,1.00,701,317,696,300,38138,0
hopper-94,false,0.65,1134,211,1133,211,58329,0
hopper-95,true,1.00,1006,309,999,292,53900,0
hopper-96,true,1.00,1120,297,1117,280,62278,0
hopper-97,true,1.00,1214,312,1207,295,64150,0
hopper-98,true,1.00,1366,337,1359,320,73588,0
hopper-99,false,0.73,2004,251,2001,251,104287,0
hopper-100,true,1.00,1143,334,1135,308,62530,0
