NDW:0.0
TTFW:1.4
DFPT:2.0
DFPAP:3.0
DFPMP:20.0
RIGHT_WINDOW_BORDER_X:35.0
level,win/fail,% travelled,run time,game ticks,planning time,total plannings,nodes evaluated,most backtracked nodes
ore-1,false,0.17,1393,258,1391,258,148963,0
ore-2,false,0.54,7211,917,7208,917,763050,0
ore-3,false,0.10,554,108,554,108,56280,0
ore-4,false,0.31,649,312,648,312,73766,0
ore-5,false,0.33,1995,312,1993,312,244742,0
ore-6,false,0.08,1416,166,1416,166,158143,0
ore-7,false,0.12,391,124,391,124,41674,0
ore-8,false,0.12,3629,244,3627,244,327762,0
ore-9,false,0.09,887,145,887,145,96466,0
ore-10,false,0.49,4126,687,4121,687,485923,0
ore-11,false,0.55,4847,760,4839,760,509607,0
ore-12,false,0.29,2701,402,2698,402,299295,0
ore-13,false,0.19,1687,269,1686,269,191505,0
ore-14,false,0.50,5704,743,5702,743,634521,0
ore-15,false,0.16,2560,313,2557,313,284344,0
ore-16,false,0.21,343,167,343,167,38683,0
ore-17,false,0.14,847,218,846,218,106790,0
ore-18,false,0.10,1580,191,1579,191,192431,0
ore-19,false,0.13,1318,213,1315,213,155144,0
ore-20,false,0.12,390,134,389,134,42319,0
ore-21,false,0.33,3427,514,3425,514,413476,0
ore-22,false,0.15,932,168,932,168,89889,0
ore-23,false,0.22,1116,260,1115,260,119298,0
ore-24,false,0.14,1268,212,1268,212,140247,0
ore-25,false,0.08,1015,171,1014,171,116712,0
ore-26,false,0.18,2069,233,2067,233,232989,0
ore-27,false,0.07,639,113,637,113,74856,0
ore-28,false,0.19,4241,369,4239,369,451436,0
ore-29,false,0.18,359,184,358,184,36114,0
ore-30,false,0.28,2802,347,2801,347,270748,0
ore-31,false,0.16,1233,221,1232,221,152664,0
ore-32,false,0.12,26374,999,26371,999,2699114,0
ore-33,false,0.09,374,103,374,103,44012,0
ore-34,false,0.19,2319,241,2317,241,232972,0
ore-35,false,0.71,5604,810,5598,810,616973,0
ore-36,false,0.25,1639,277,1638,277,160608,0
ore-37,false,0.33,4847,472,4846,472,480802,0
ore-38,false,0.20,4484,442,4481,442,523121,0
ore-39,false,0.37,2129,487,2128,487,235387,0
ore-40,false,0.32,4612,999,4609,999,478825,0
ore-41,false,0.34,3545,524,3545,524,387734,0
ore-42,false,0.35,5216,493,5215,493,556258,0
ore-43,false,0.54,3020,776,3014,776,356094,0
ore-44,false,0.09,1860,153,1857,153,235262,0
ore-45,false,0.22,1363,999,1355,999,154173,0
ore-46,false,0.12,2085,231,2085,231,228787,0
ore-47,false,0.16,1991,222,1990,222,220920,0
ore-48,false,0.14,1002,154,1002,154,109784,0
ore-49,false,0.28,4053,578,4051,578,432456,0
ore-50,false,0.04,483,111,481,111,74180,0
ore-51,false,0.31,945,276,944,276,99849,0
ore-52,false,0.26,7583,539,7579,539,888883,0
ore-53,false,0.08,1379,189,1376,189,169861,0
ore-54,false,0.18,4283,313,4283,313,487104,0
ore-55,false,0.41,2771,529,2767,529,326946,0
ore-56,false,0.34,3969,546,3966,546,452521,0
ore-57,false,0.13,26486,999,26485,999,3095958,0
ore-58,false,0.08,1541,167,1541,167,173839,0
ore-59,false,0.08,2129,179,2129,179,214204,0
ore-60,false,0.04,329,111,328,111,36597,0
ore-61,false,0.22,1047,248,1043,248,118998,0
ore-62,false,0.04,519,111,518,111,78795,0
ore-63,false,0.08,1165,197,1164,197,131448,0
ore-64,false,0.39,3006,525,3003,525,306234,0
ore-65,false,0.18,1429,238,1428,238,149868,0
ore-66,false,0.21,2058,310,2053,310,243824,0
ore-67,false,0.13,1501,211,1500,211,154853,0
ore-68,false,0.31,2986,431,2984,431,319939,0
ore-69,false,0.49,6940,770,6938,770,801804,0
ore-70,false,0.15,1464,216,1463,216,156526,0
ore-71,false,0.32,1698,315,1695,315,181388,0
ore-72,false,0.07,641,113,641,113,78105,0
ore-73,false,0.25,3968,394,3965,394,479995,0
ore-74,false,0.26,1632,343,1632,343,189621,0
ore-75,false,0.65,7734,996,7724,996,798884,0
ore-76,false,0.28,3478,474,3477,474,399279,0
ore-77,false,0.15,452,142,450,142,49937,0
ore-78,false,0.13,3410,281,3408,281,404281,0
ore-79,false,0.24,3501,421,3500,421,405000,0
ore-80,false,0.16,2866,284,2866,284,315863,0
ore-81,false,0.10,257,117,256,117,29819,0
ore-82,false,0.19,3058,375,3057,375,354572,0
ore-83,false,0.07,9,54,9,54,2385,0
ore-84,false,0.13,1659,175,1658,175,133445,0
ore-85,false,0.13,1501,202,1501,202,147279,0
ore-86,false,0.40,1817,470,1814,470,205513,0
ore-87,false,0.08,345,100,344,100,36280,0
ore-88,false,0.12,1203,234,1202,234,139286,0
ore-89,false,0.09,2146,189,2146,189,235303,0
ore-90,false,0.16,4335,320,4332,320,516944,0
ore-91,false,0.14,2226,249,2225,249,245018,0
ore-92,false,0.22,1694,332,1692,332,190494,0
ore-93,false,0.10,1191,210,1190,210,138877,0
ore-94,false,0.17,1805,275,1802,275,224534,0
ore-95,false,0.15,2259,255,2259,255,233898,0
ore-96,false,0.22,1500,272,1499,272,147108,0
ore-97,false,0.21,2523,333,2522,333,237882,0
ore-98,false,0.10,1145,143,1145,143,114930,0
ore-99,false,0.57,12278,999,12276,999,1344238,0
ore-100,false,0.04,482,111,480,111,74180,0
