NDW:0.0
TTFW:1.4
DFPT:2.0
DFPAP:3.0
DFPMP:5.0
RIGHT_WINDOW_BORDER_X:295.0
level,win/fail,% travelled,run time,game ticks,planning time,total plannings,nodes evaluated,most backtracked nodes
Krys-1,true,1.00,9306,579,9299,518,378337,0
Krys-2,false,0.79,24914,999,24911,999,876043,0
Krys-3,true,1.00,8811,548,8805,481,415475,0
Krys-4,true,1.00,4524,515,4518,447,185636,0
Krys-5,true,1.00,1730,357,1720,311,95715,0
Krys-6,true,1.00,1700,363,1690,313,77821,0
Krys-7,true,1.00,846,379,837,330,40484,0
Krys-8,true,1.00,3105,443,3092,387,138342,0
Krys-9,true,1.00,2346,346,2338,298,134104,0
Krys-10,true,1.00,3816,459,3805,396,172326,0
Krys-11,true,1.00,422,414,408,346,16105,0
Krys-12,true,1.00,4638,408,4632,341,191895,0
Krys-13,true,1.00,3713,406,3701,342,198421,0
Krys-14,false,0.79,26168,999,26166,999,944861,0
Krys-15,true,1.00,3533,408,3518,344,181516,0
Krys-16,false,0.69,25736,999,25724,999,943537,0
Krys-17,true,1.00,2405,449,2393,397,104890,0
Krys-18,true,1.00,2188,462,2178,400,90772,0
Krys-19,true,1.00,4504,377,4497,331,224599,0
Krys-20,true,1.00,4267,626,4248,549,187879,0
Krys-21,true,1.00,1731,347,1723,300,98031,0
Krys-22,true,1.00,2331,367,2325,315,134321,0
Krys-23,true,1.00,2891,469,2878,402,122587,0
Krys-24,false,0.70,27102,999,27099,999,985721,0
Krys-25,true,1.00,3022,423,3011,348,132321,0
Krys-26,true,1.00,3525,358,3514,306,191857,0
Krys-27,true,1.00,3190,376,3185,319,150187,0
Krys-28,true,1.00,8413,593,8400,541,363263,0
Krys-29,true,1.00,2757,444,2747,406,114214,0
Krys-30,true,1.00,3257,487,3249,415,126128,0
Krys-31,true,1.00,2283,473,2274,401,104681,0
Krys-32,true,1.00,709,387,702,332,29390,0
Krys-33,true,1.00,670,375,660,311,31466,0
Krys-34,true,1.00,3298,451,3288,385,154378,0
Krys-35,true,1.00,2349,375,2340,332,116312,0
Krys-36,true,1.00,4444,406,4439,331,216094,0
Krys-37,true,1.00,6058,480,6048,441,302590,0
Krys-38,true,1.00,5447,511,5438,450,267110,0
Krys-39,true,1.00,4051,405,4042,332,203068,0
Krys-40,true,1.00,4256,430,4249,374,204210,0
Krys-41,true,1.00,4936,404,4933,358,236334,0
Krys-42,true,1.00,2973,412,2965,348,163949,0
Krys-43,true,1.00,1724,350,1712,307,93684,0
Krys-44,true,1.00,5876,458,5872,403,297041,0
Krys-45,true,1.00,2902,476,2888,429,106983,0
Krys-46,true,1.00,2601,501,2590,457,104444,0
Krys-47,true,1.00,1678,489,1663,427,75443,0
Krys-48,true,1.00,1790,372,1782,325,99360,0
Krys-49,true,1.00,1056,391,1044,345,45387,0
Krys-50,true,1.00,5848,482,5843,429,249297,0
Krys-51,true,1.00,5018,425,5012,362,252434,0
Krys-52,true,1.00,3379,530,3364,470,133826,0
Krys-53,true,1.00,2666,459,2657,422,110032,0
Krys-54,true,1.00,4737,463,4728,420,221731,0
Krys-55,true,1.00,3381,498,3367,444,136284,0
Krys-56,false,0.59,26938,999,26933,999,923027,0
Krys-57,true,1.00,1791,358,1785,311,89556,0
Krys-58,true,1.00,3067,487,3056,448,128077,0
Krys-59,false,0.89,24968,999,24959,999,913644,0
Krys-60,true,1.00,3613,409,3610,333,171640,0
Krys-61,true,1.00,3057,448,3045,404,122930,0
Krys-62,true,1.00,2114,434,2104,380,76648,0
Krys-63,true,1.00,5805,614,5788,559,230286,0
Krys-64,true,1.00,3584,539,3572,496,155016,0
Krys-65,true,1.00,3146,479,3133,441,121019,0
Krys-66,true,1.00,3124,408,3114,365,122987,0
Krys-67,true,1.00,2313,422,2308,367,97219,0
Krys-68,true,1.00,2431,349,2428,294,129127,0
Krys-69,true,1.00,10143,723,10132,674,383034,0
Krys-70,true,1.00,6093,488,6086,425,259430,0
Krys-71,true,1.00,2633,354,2629,302,147438,0
Krys-72,true,1.00,1657,483,1640,423,68457,0
Krys-73,false,0.80,23299,999,23289,999,794213,0
Krys-74,true,1.00,2385,401,2375,355,119166,0
Krys-75,true,1.00,1928,441,1920,363,54495,0
Krys-76,true,1.00,3909,340,3904,303,189762,0
Krys-77,true,1.00,1161,366,1150,303,62525,0
Krys-78,false,0.91,24808,999,24797,999,999583,0
Krys-79,true,1.00,1380,402,1371,352,53780,0
Krys-80,true,1.00,696,391,682,343,30451,0
Krys-81,true,1.00,1376,416,1364,355,65753,0
Krys-82,true,1.00,1727,394,1720,350,67132,0
Krys-83,true,1.00,4468,478,4461,390,184551,0
Krys-84,true,1.00,414,370,404,318,18185,0
Krys-85,true,1.00,4226,562,4217,490,176999,0
Krys-86,true,1.00,1777,419,1767,369,74395,0
Krys-87,true,1.00,1635,387,1626,332,59971,0
Krys-88,true,1.00,1876,468,1863,419,83254,0
Krys-89,true,1.00,1632,460,1620,420,71344,0
Krys-90,true,1.00,2888,329,2882,267,154476,0
Krys-91,true,1.00,486,375,477,332,20601,0
Krys-92,true,1.00,4833,447,4819,357,213064,0
Krys-93,true,1.00,3311,415,3297,307,164480,0
Krys-94,true,1.00,1404,372,1396,310,78522,0
Krys-95,true,1.00,1946,424,1931,359,85520,0
Krys-96,true,1.00,3749,392,3742,337,209161,0
Krys-97,true,1.00,3349,437,3339,375,150110,0
Krys-98,true,1.00,7253,559,7240,517,305258,0
Krys-99,true,1.00,2361,470,2347,400,89412,0
Krys-100,true,1.00,2140,343,2133,301,124320,0
