NDW:0.0
TTFW:1.6
DFPT:2.0
DFPAP:3.0
DFPMP:1.0
RIGHT_WINDOW_BORDER_X:400.0
level,win/fail,% travelled,run time,game ticks,planning time,total plannings,nodes evaluated,most backtracked nodes
patternOccur-1,true,1.00,1143,507,1140,466,133108,0
patternOccur-2,true,1.00,851,448,848,409,93408,0
patternOccur-3,true,1.00,1634,499,1633,450,208472,0
patternOccur-4,true,1.00,1382,519,1376,482,169608,0
patternOccur-5,true,1.00,1138,511,1132,465,132445,0
patternOccur-6,true,1.00,1315,538,1312,501,157128,0
patternOccur-7,true,1.00,1464,552,1463,497,173654,0
patternOccur-8,true,1.00,1402,469,1401,431,176590,0
patternOccur-9,true,1.00,1468,488,1464,437,180503,0
patternOccur-10,true,1.00,1004,521,1000,478,118671,0
patternOccur-11,true,1.00,2630,520,2626,466,296607,0
patternOccur-12,true,1.00,1365,520,1362,451,169078,0
patternOccur-13,true,1.00,650,446,644,409,74750,0
patternOccur-14,true,1.00,3153,477,3151,427,358931,0
patternOccur-15,true,1.00,1125,451,1123,415,135738,0
patternOccur-16,true,1.00,4205,546,4204,502,447058,0
patternOccur-17,true,1.00,1311,507,1309,469,155696,0
patternOccur-18,true,1.00,1111,506,1109,464,127577,0
patternOccur-19,false,0.83,3611,459,3607,459,402898,0
patternOccur-20,true,1.00,1420,509,1419,472,168543,0
patternOccur-21,true,1.00,744,477,741,431,89424,0
patternOccur-22,true,1.00,4052,533,4047,486,440343,0
patternOccur-23,true,1.00,1624,494,1621,452,190209,0
patternOccur-24,true,1.00,1332,499,1330,460,175986,0
patternOccur-25,true,1.00,1187,515,1183,470,142803,0
patternOccur-26,true,1.00,681,434,677,398,75745,0
patternOccur-27,true,1.00,3544,500,3542,442,395404,0
patternOccur-28,true,1.00,1137,480,1135,434,135889,0
patternOccur-29,true,1.00,848,410,843,365,103262,0
patternOccur-30,true,1.00,1066,519,1064,481,127663,0
patternOccur-31,false,0.80,2792,399,2789,399,342628,0
patternOccur-32,true,1.00,4536,536,4533,484,506023,0
patternOccur-33,true,1.00,978,512,977,465,112375,0
patternOccur-34,true,1.00,934,503,933,456,109277,0
patternOccur-35,true,1.00,833,493,832,437,92839,0
patternOccur-36,true,1.00,2142,503,2137,461,256711,0
patternOccur-37,true,1.00,3390,597,3387,504,381879,0
patternOccur-38,true,1.00,1465,516,1463,480,180111,0
patternOccur-39,true,1.00,2355,445,2350,400,264707,0
patternOccur-40,true,1.00,1361,494,1358,433,169798,0
patternOccur-41,true,1.00,1156,497,1153,449,154389,0
patternOccur-42,false,0.89,4409,482,4403,482,475977,0
patternOccur-43,true,1.00,1092,483,1090,447,139598,0
patternOccur-44,true,1.00,1396,458,1395,419,189273,0
patternOccur-45,true,1.00,1435,440,1433,404,164284,0
patternOccur-46,true,1.00,1011,453,1008,416,122848,0
patternOccur-47,true,1.00,2871,496,2867,435,335066,0
patternOccur-48,true,1.00,1429,460,1426,423,186142,0
patternOccur-49,true,1.00,1069,467,1066,430,126708,0
patternOccur-50,true,1.00,1831,515,1826,459,222078,0
patternOccur-51,true,1.00,1450,588,1446,518,181863,0
patternOccur-52,true,1.00,1393,477,1392,413,164906,0
patternOccur-53,true,1.00,1279,468,1277,431,154429,0
patternOccur-54,true,1.00,2026,500,2026,451,259688,0
patternOccur-55,true,1.00,1527,452,1525,416,187937,0
patternOccur-56,true,1.00,1031,481,1028,444,129422,0
patternOccur-57,true,1.00,1727,531,1722,485,210902,0
patternOccur-58,true,1.00,5651,598,5646,554,632193,0
patternOccur-59,true,1.00,1389,513,1386,466,173531,0
patternOccur-60,true,1.00,3444,513,3440,447,392664,0
patternOccur-61,true,1.00,933,461,932,424,116950,0
patternOccur-62,true,1.00,975,441,970,404,118853,0
patternOccur-63,true,1.00,1239,518,1233,448,152924,0
patternOccur-64,true,1.00,1877,575,1870,516,230533,0
patternOccur-65,true,1.00,1003,497,998,458,124375,0
patternOccur-66,true,1.00,1507,514,1505,475,188862,0
patternOccur-67,true,1.00,3579,516,3576,475,398606,0
patternOccur-68,true,1.00,939,526,936,488,109643,0
patternOccur-69,true,1.00,4491,567,4490,514,475876,0
patternOccur-70,true,1.00,4534,540,4533,491,483138,0
patternOccur-71,true,1.00,1956,500,1952,443,262800,0
patternOccur-72,true,1.00,3456,521,3453,474,342165,0
patternOccur-73,true,1.00,4774,575,4770,514,550194,0
patternOccur-74,true,1.00,2869,481,2864,417,325399,0
patternOccur-75,true,1.00,2023,483,2019,442,231527,0
patternOccur-76,true,1.00,1575,513,1574,477,189812,0
patternOccur-77,true,1.00,797,467,796,431,90078,0
patternOccur-78,true,1.00,527,463,523,427,59534,0
patternOccur-79,true,1.00,1204,518,1200,480,157309,0
patternOccur-80,true,1.00,2825,545,2822,470,337951,0
patternOccur-81,true,1.00,3477,495,3477,430,411023,0
patternOccur-82,true,1.00,1950,493,1946,454,223662,0
patternOccur-83,false,0.82,3478,462,3476,462,352490,0
patternOccur-84,true,1.00,985,472,983,436,116438,0
patternOccur-85,true,1.00,1871,490,1869,454,230386,0
patternOccur-86,true,1.00,2765,459,2762,378,296781,0
patternOccur-87,true,1.00,886,498,886,452,108613,0
patternOccur-88,true,1.00,800,492,799,445,99257,0
patternOccur-89,true,1.00,1237,517,1233,477,144776,0
patternOccur-90,true,1.00,1756,532,1751,490,221362,0
patternOccur-91,true,1.00,1095,495,1092,444,129300,0
patternOccur-92,true,1.00,724,477,721,441,83234,0
patternOccur-93,true,1.00,951,471,950,418,115600,0
patternOccur-94,true,1.00,4979,545,4979,492,528472,0
patternOccur-95,true,1.00,1343,513,1341,474,167590,0
patternOccur-96,false,0.88,4875,525,4872,525,439403,0
patternOccur-97,true,1.00,1703,496,1700,441,213881,0
patternOccur-98,false,0.90,3912,536,3910,536,412910,0
patternOccur-99,true,1.00,648,505,648,453,76161,0
patternOccur-100,true,1.00,1368,498,1363,461,162204,0
