NDW:0.0
TTFW:0.8
DFPT:2.0
DFPAP:3.0
DFPMP:7.0
RIGHT_WINDOW_BORDER_X:400.0
level,win/fail,% travelled,run time,game ticks,planning time,total plannings,nodes evaluated,most backtracked nodes
patternOccur-1,true,1.00,961,432,956,391,85384,0
patternOccur-2,true,1.00,977,425,971,386,82269,0
patternOccur-3,true,1.00,1741,454,1739,417,165322,0
patternOccur-4,true,1.00,1184,430,1182,393,113486,0
patternOccur-5,true,1.00,721,378,720,341,61849,0
patternOccur-6,true,1.00,1199,438,1195,401,108699,0
patternOccur-7,true,1.00,1672,460,1670,405,156186,0
patternOccur-8,true,1.00,1339,418,1335,381,129325,0
patternOccur-9,true,1.00,1662,442,1661,397,163807,0
patternOccur-10,true,1.00,725,400,721,354,65708,0
patternOccur-11,true,1.00,3621,439,3618,385,317812,0
patternOccur-12,true,1.00,1391,422,1387,382,131173,0
patternOccur-13,true,1.00,802,399,800,363,73125,0
patternOccur-14,true,1.00,2657,423,2656,373,238923,0
patternOccur-15,true,1.00,1063,376,1062,340,102881,0
patternOccur-16,true,1.00,3607,440,3602,395,310756,0
patternOccur-17,true,1.00,1304,420,1303,382,119793,0
patternOccur-18,true,1.00,788,390,785,343,70972,0
patternOccur-19,false,0.83,3491,378,3489,378,280638,0
patternOccur-20,true,1.00,1111,400,1109,363,106127,0
patternOccur-21,true,1.00,900,429,898,383,84943,0
patternOccur-22,true,1.00,3358,427,3353,390,295585,0
patternOccur-23,true,1.00,1598,417,1594,381,143940,0
patternOccur-24,true,1.00,919,435,917,396,81516,0
patternOccur-25,true,1.00,1236,418,1233,380,116308,0
patternOccur-26,true,1.00,797,403,794,367,73715,0
patternOccur-27,true,1.00,2605,414,2601,358,232070,0
patternOccur-28,true,1.00,1259,423,1255,379,118241,0
patternOccur-29,true,1.00,835,373,831,328,77496,0
patternOccur-30,true,1.00,922,411,919,373,83426,0
patternOccur-31,true,1.00,6343,520,6340,475,585947,0
patternOccur-32,true,1.00,3665,451,3657,400,331589,0
patternOccur-33,true,1.00,1004,412,1003,375,91654,0
patternOccur-34,true,1.00,853,406,850,362,77853,0
patternOccur-35,true,1.00,722,382,719,342,65185,0
patternOccur-36,true,1.00,1658,376,1656,337,157412,0
patternOccur-37,true,1.00,3175,468,3174,394,279282,0
patternOccur-38,true,1.00,1158,401,1155,365,108660,0
patternOccur-39,true,1.00,2571,467,2565,422,225739,0
patternOccur-40,true,1.00,1572,388,1570,352,154908,0
patternOccur-41,true,1.00,1146,408,1141,363,112177,0
patternOccur-42,false,0.89,3464,413,3460,413,300712,0
patternOccur-43,true,1.00,991,408,990,372,94882,0
patternOccur-44,true,1.00,1434,403,1433,365,143061,0
patternOccur-45,true,1.00,1495,391,1491,348,130796,0
patternOccur-46,true,1.00,1239,443,1236,404,112914,0
patternOccur-47,true,1.00,2661,454,2658,393,243449,0
patternOccur-48,true,1.00,1266,412,1264,375,119993,0
patternOccur-49,true,1.00,1241,398,1241,362,120943,0
patternOccur-50,true,1.00,1461,426,1457,381,133622,0
patternOccur-51,true,1.00,1281,462,1276,404,117937,0
patternOccur-52,true,1.00,1226,410,1222,373,114589,0
patternOccur-53,true,1.00,1176,401,1172,364,107560,0
patternOccur-54,true,1.00,1783,453,1781,404,172997,0
patternOccur-55,true,1.00,1058,388,1058,352,101664,0
patternOccur-56,true,1.00,1275,434,1272,397,117470,0
patternOccur-57,true,1.00,1608,436,1606,388,156390,0
patternOccur-58,true,1.00,4632,513,4628,464,395290,0
patternOccur-59,true,1.00,1046,405,1046,359,90290,0
patternOccur-60,true,1.00,2500,455,2499,402,229013,0
patternOccur-61,true,1.00,1043,412,1042,375,99794,0
patternOccur-62,true,1.00,1131,412,1129,375,107211,0
patternOccur-63,true,1.00,1117,428,1113,380,105531,0
patternOccur-64,true,1.00,1439,415,1438,371,137100,0
patternOccur-65,true,1.00,1343,431,1340,395,126155,0
patternOccur-66,true,1.00,1256,456,1251,417,115123,0
patternOccur-67,true,1.00,2711,421,2707,381,239704,0
patternOccur-68,true,1.00,965,448,964,410,84635,0
patternOccur-69,true,1.00,4571,520,4568,466,385457,0
patternOccur-70,true,1.00,2645,396,2642,353,236408,0
patternOccur-71,true,1.00,1592,405,1589,367,158230,0
patternOccur-72,true,1.00,3123,456,3120,414,251406,0
patternOccur-73,true,1.00,4376,493,4372,432,375538,0
patternOccur-74,true,1.00,2564,403,2560,342,231557,0
patternOccur-75,true,1.00,1488,399,1487,363,138002,0
patternOccur-76,true,1.00,1241,365,1240,329,122029,0
patternOccur-77,true,1.00,802,399,799,362,74977,0
patternOccur-78,true,1.00,801,398,795,362,71736,0
patternOccur-79,true,1.00,1175,446,1173,410,112950,0
patternOccur-80,true,1.00,2283,440,2281,386,215202,0
patternOccur-81,true,1.00,3271,433,3268,384,308693,0
patternOccur-82,true,1.00,1900,425,1899,388,171103,0
patternOccur-83,true,1.00,1079,433,1077,397,101839,0
patternOccur-84,true,1.00,1093,425,1091,386,101182,0
patternOccur-85,true,1.00,1764,435,1756,398,167728,0
patternOccur-86,true,1.00,2405,424,2403,374,212676,0
patternOccur-87,true,1.00,906,398,903,361,84892,0
patternOccur-88,true,1.00,857,416,856,371,80838,0
patternOccur-89,true,1.00,1104,432,1103,396,97991,0
patternOccur-90,true,1.00,1745,466,1743,423,169773,0
patternOccur-91,true,1.00,892,390,887,348,83822,0
patternOccur-92,true,1.00,859,413,856,377,75794,0
patternOccur-93,true,1.00,1016,420,1016,370,93427,0
patternOccur-94,true,1.00,5148,481,5144,437,412091,0
patternOccur-95,true,1.00,1035,403,1032,366,97174,0
patternOccur-96,false,0.88,2302,355,2300,355,185598,0
patternOccur-97,true,1.00,1140,394,1138,346,111749,0
patternOccur-98,false,0.90,2731,367,2728,367,228752,0
patternOccur-99,true,1.00,600,398,597,361,55340,0
patternOccur-100,true,1.00,1470,439,1466,402,130266,0
