NDW:0.0
TTFW:0.6
DFPT:2.0
DFPAP:3.0
DFPMP:10.0
RIGHT_WINDOW_BORDER_X:400.0
level,win/fail,% travelled,run time,game ticks,planning time,total plannings,nodes evaluated,most backtracked nodes
Mario-1,true,1.00,696,346,686,291,29576,0
Mario-2,true,1.00,1579,305,1568,265,58297,0
Mario-3,true,1.00,1426,248,1419,207,70011,0
Mario-4,true,1.00,2663,403,2654,343,99697,0
Mario-5,true,1.00,2243,428,2227,383,87842,0
Mario-6,true,1.00,1556,246,1553,209,76138,0
Mario-7,true,1.00,2515,444,2506,379,95168,0
Mario-8,true,1.00,2107,380,2099,338,84256,0
Mario-9,true,1.00,945,347,936,295,39018,0
Mario-10,true,1.00,1661,262,1656,209,80820,0
Mario-11,true,1.00,1542,354,1532,297,61560,0
Mario-12,true,1.00,5090,597,5076,537,182484,0
Mario-13,true,1.00,1677,312,1670,271,82028,0
Mario-14,true,1.00,751,313,746,252,28668,0
Mario-15,true,1.00,5469,834,5441,779,209954,0
