NDW:0.0
TTFW:2.0
DFPT:2.0
DFPAP:3.0
DFPMP:5.0
RIGHT_WINDOW_BORDER_X:255.0
level,win/fail,% travelled,run time,game ticks,planning time,total plannings,nodes evaluated,most backtracked nodes
patternOccur-1,true,1.00,1352,520,1341,497,74867,0
patternOccur-2,true,1.00,1319,466,1303,443,73005,0
patternOccur-3,true,1.00,2309,515,2299,492,137507,0
patternOccur-4,true,1.00,1715,471,1704,448,100751,0
patternOccur-5,true,1.00,1160,517,1138,493,63734,0
patternOccur-6,true,1.00,1850,548,1836,525,104705,0
patternOccur-7,true,1.00,2039,549,2028,523,114209,0
patternOccur-8,true,1.00,2006,470,1997,447,115099,0
patternOccur-9,true,1.00,1839,533,1823,500,101261,0
patternOccur-10,true,1.00,1525,517,1515,488,84591,0
patternOccur-11,true,1.00,3428,532,3417,492,189202,0
patternOccur-12,true,1.00,1818,529,1805,492,102485,0
patternOccur-13,true,1.00,1050,459,1039,436,56419,0
patternOccur-14,true,1.00,3707,498,3699,468,181876,0
patternOccur-15,true,1.00,2295,500,2279,477,118033,0
patternOccur-16,true,1.00,5419,559,5403,525,266754,0
patternOccur-17,true,1.00,1597,562,1583,525,89335,0
patternOccur-18,true,1.00,1367,489,1355,467,72786,0
patternOccur-19,false,0.83,4699,542,4689,542,244807,0
patternOccur-20,true,1.00,1823,578,1807,555,102429,0
patternOccur-21,true,1.00,1356,485,1344,460,78305,0
patternOccur-22,false,0.84,3729,528,3720,528,204846,0
patternOccur-23,true,1.00,2392,520,2382,497,137270,0
patternOccur-24,true,1.00,1354,515,1343,492,76648,0
patternOccur-25,true,1.00,1861,493,1852,470,107979,0
patternOccur-26,true,1.00,963,458,953,435,53067,0
patternOccur-27,true,1.00,3992,513,3977,483,221964,0
patternOccur-28,true,1.00,1755,484,1743,460,101234,0
patternOccur-29,true,1.00,1323,436,1313,403,75896,0
patternOccur-30,true,1.00,1421,505,1408,482,79578,0
patternOccur-31,true,1.00,4054,500,4046,475,229911,0
patternOccur-32,true,1.00,4103,525,4094,500,224011,0
patternOccur-33,true,1.00,1377,514,1361,490,76318,0
patternOccur-34,true,1.00,1655,507,1639,473,93696,0
patternOccur-35,true,1.00,1289,517,1279,493,70358,0
patternOccur-36,true,1.00,2721,513,2707,483,158508,0
patternOccur-37,true,1.00,3705,532,3694,502,212773,0
patternOccur-38,true,1.00,1529,490,1519,467,88204,0
patternOccur-39,false,0.79,21652,999,21638,999,970860,0
patternOccur-40,true,1.00,2216,510,2209,486,131373,0
patternOccur-41,true,1.00,1442,522,1431,489,82355,0
patternOccur-42,false,0.89,3318,498,3304,498,186009,0
patternOccur-43,true,1.00,1694,486,1683,463,99715,0
patternOccur-44,true,1.00,1449,490,1429,467,82647,0
patternOccur-45,true,1.00,1788,470,1775,423,97817,0
patternOccur-46,true,1.00,1379,540,1365,517,77144,0
patternOccur-47,true,1.00,3412,489,3399,453,191966,0
patternOccur-48,true,1.00,1526,502,1515,479,89530,0
patternOccur-49,true,1.00,1601,482,1587,459,91425,0
patternOccur-50,true,1.00,2180,532,2166,508,122956,0
patternOccur-51,true,1.00,2609,611,2595,574,155720,0
patternOccur-52,true,1.00,2031,563,2006,529,116167,0
patternOccur-53,true,1.00,1363,462,1352,439,76845,0
patternOccur-54,true,1.00,2566,530,2552,499,150930,0
patternOccur-55,true,1.00,1479,435,1469,412,85203,0
patternOccur-56,true,1.00,1606,560,1590,537,91234,0
patternOccur-57,true,1.00,1918,517,1904,488,109354,0
patternOccur-58,true,1.00,6476,561,6464,532,371398,0
patternOccur-59,true,1.00,2000,495,1987,471,116381,0
patternOccur-60,true,1.00,3332,535,3320,500,184040,0
patternOccur-61,true,1.00,2233,545,2216,513,127106,0
patternOccur-62,true,1.00,1839,542,1828,519,105947,0
patternOccur-63,true,1.00,1762,503,1744,473,101878,0
patternOccur-64,true,1.00,2425,567,2413,531,139404,0
patternOccur-65,true,1.00,1290,495,1280,472,71143,0
patternOccur-66,true,1.00,1779,500,1762,477,101101,0
patternOccur-67,false,0.88,2818,480,2809,480,147668,0
patternOccur-68,true,1.00,1132,544,1122,521,58988,0
patternOccur-69,true,1.00,3678,575,3663,541,189799,0
patternOccur-70,false,0.87,3876,465,3867,465,201099,0
patternOccur-71,true,1.00,2747,548,2728,525,162746,0
patternOccur-72,true,1.00,3514,516,3504,482,185112,0
patternOccur-73,true,1.00,3093,511,3079,475,170747,0
patternOccur-74,true,1.00,2876,493,2865,456,158981,0
patternOccur-75,true,1.00,2259,476,2251,453,127747,0
patternOccur-76,true,1.00,2573,494,2557,471,151603,0
patternOccur-77,true,1.00,1062,514,1046,491,56361,0
patternOccur-78,true,1.00,1106,486,1088,463,60799,0
patternOccur-79,true,1.00,1677,533,1660,510,97980,0
patternOccur-80,true,1.00,3336,542,3324,505,189505,0
patternOccur-81,true,1.00,3351,516,3340,469,184059,0
patternOccur-82,true,1.00,2681,506,2671,483,153465,0
patternOccur-83,false,0.82,2993,452,2986,452,159564,0
patternOccur-84,true,1.00,1466,493,1459,470,83456,0
patternOccur-85,false,0.93,2610,538,2599,538,147225,0
patternOccur-86,true,1.00,6212,539,6201,514,327808,0
patternOccur-87,true,1.00,1256,548,1247,517,71070,0
patternOccur-88,true,1.00,1735,486,1728,462,101541,0
patternOccur-89,true,1.00,1653,525,1640,502,95049,0
patternOccur-90,true,1.00,1928,555,1912,528,113006,0
patternOccur-91,true,1.00,1394,497,1380,460,77417,0
patternOccur-92,true,1.00,1359,466,1349,443,77939,0
patternOccur-93,true,1.00,1758,512,1746,488,101385,0
patternOccur-94,true,1.00,3728,535,3718,503,199988,0
patternOccur-95,true,1.00,1667,473,1655,450,97213,0
patternOccur-96,false,0.86,2542,486,2532,486,135740,0
patternOccur-97,true,1.00,2018,475,2006,452,111324,0
patternOccur-98,false,0.90,2944,515,2928,515,158240,0
patternOccur-99,true,1.00,816,470,809,445,43764,0
patternOccur-100,true,1.00,1382,478,1371,455,76986,0
