NDW:0.0
TTFW:1.2
DFPT:2.0
DFPAP:3.0
DFPMP:3.0
RIGHT_WINDOW_BORDER_X:135.0
level,win/fail,% travelled,run time,game ticks,planning time,total plannings,nodes evaluated,most backtracked nodes
patternWeightCount-1,true,1.00,5368,570,5367,555,592720,0
patternWeightCount-2,true,1.00,470,423,468,411,59038,0
patternWeightCount-3,true,1.00,573,406,570,394,66064,0
patternWeightCount-4,true,1.00,703,447,699,435,78662,0
patternWeightCount-5,true,1.00,1648,495,1647,483,193303,0
patternWeightCount-6,true,1.00,2198,524,2191,512,256345,0
patternWeightCount-7,true,1.00,771,438,768,426,88707,0
patternWeightCount-8,true,1.00,347,448,346,436,34429,0
patternWeightCount-9,true,1.00,910,482,906,470,115179,0
patternWeightCount-10,true,1.00,1516,507,1515,495,132755,0
patternWeightCount-11,true,1.00,711,436,705,424,57224,0
patternWeightCount-12,true,1.00,1436,517,1433,505,125785,0
patternWeightCount-13,true,1.00,1240,433,1234,421,109799,0
patternWeightCount-14,true,1.00,844,464,840,452,91689,0
patternWeightCount-15,true,1.00,2661,482,2659,470,308918,0
patternWeightCount-16,true,1.00,2618,561,2614,538,277305,0
patternWeightCount-17,true,1.00,679,455,674,443,81724,0
patternWeightCount-18,true,1.00,700,434,700,422,68739,0
patternWeightCount-19,true,1.00,687,428,685,416,73924,0
patternWeightCount-20,false,0.61,2110,302,2107,302,213749,0
patternWeightCount-21,true,1.00,492,509,487,497,58861,0
patternWeightCount-22,true,1.00,3459,602,3455,578,423950,0
patternWeightCount-23,true,1.00,669,461,668,440,81665,0
patternWeightCount-24,true,1.00,1337,461,1334,442,160833,0
patternWeightCount-25,true,1.00,1540,457,1536,445,181576,0
patternWeightCount-26,true,1.00,2569,548,2567,529,310412,0
patternWeightCount-27,true,1.00,2568,563,2566,540,320804,0
patternWeightCount-28,true,1.00,1481,535,1477,523,178605,0
patternWeightCount-29,true,1.00,1489,419,1488,407,186708,0
patternWeightCount-30,false,0.84,4504,533,4501,533,463773,0
patternWeightCount-31,true,1.00,1670,491,1667,479,211072,0
patternWeightCount-32,true,1.00,415,380,412,368,49217,0
patternWeightCount-33,true,1.00,923,440,923,428,115380,0
patternWeightCount-34,true,1.00,2642,477,2639,465,305345,0
patternWeightCount-35,true,1.00,1930,528,1925,516,210850,0
patternWeightCount-36,true,1.00,2367,489,2367,477,276369,0
patternWeightCount-37,true,1.00,488,461,484,449,58327,0
patternWeightCount-38,false,0.95,8953,640,8952,640,918347,0
patternWeightCount-39,true,1.00,1050,410,1048,398,122073,0
patternWeightCount-40,true,1.00,1455,495,1451,483,175212,0
patternWeightCount-41,true,1.00,2063,568,2058,555,232168,0
patternWeightCount-42,false,0.87,6632,564,6630,564,705843,0
patternWeightCount-43,true,1.00,2284,486,2281,474,256893,0
patternWeightCount-44,true,1.00,1953,562,1949,543,259651,0
patternWeightCount-45,false,0.83,2255,484,2253,484,247936,0
patternWeightCount-46,false,0.86,4967,541,4963,541,523824,0
patternWeightCount-47,true,1.00,620,453,618,441,68218,0
patternWeightCount-48,true,1.00,703,431,700,419,80886,0
patternWeightCount-49,true,1.00,1181,444,1180,432,133901,0
patternWeightCount-50,true,1.00,1642,459,1640,447,187211,0
patternWeightCount-51,true,1.00,2112,500,2108,476,246114,0
patternWeightCount-52,true,1.00,1356,474,1354,454,165057,0
patternWeightCount-53,false,0.72,2966,467,2962,467,320249,0
patternWeightCount-54,true,1.00,1151,472,1150,460,135634,0
patternWeightCount-55,true,1.00,2126,515,2124,490,206494,0
patternWeightCount-56,true,1.00,1586,489,1582,477,170601,0
patternWeightCount-57,true,1.00,329,424,326,412,44979,0
patternWeightCount-58,true,1.00,1582,521,1579,505,187759,0
patternWeightCount-59,true,1.00,358,402,355,390,43201,0
patternWeightCount-60,true,1.00,3467,557,3466,542,436374,0
patternWeightCount-61,true,1.00,1736,419,1735,407,209787,0
patternWeightCount-62,true,1.00,2431,536,2427,516,278322,0
patternWeightCount-63,true,1.00,1572,498,1570,486,189973,0
patternWeightCount-64,true,1.00,2522,511,2517,499,278283,0
patternWeightCount-65,true,1.00,1719,507,1714,486,194516,0
patternWeightCount-66,true,1.00,662,469,656,457,77481,0
patternWeightCount-67,true,1.00,662,493,659,481,75107,0
patternWeightCount-68,true,1.00,1099,505,1096,493,104102,0
patternWeightCount-69,true,1.00,3696,530,3692,496,392697,0
patternWeightCount-70,true,1.00,1455,510,1451,497,166907,0
patternWeightCount-71,true,1.00,1785,534,1782,519,213541,0
patternWeightCount-72,false,0.83,5929,569,5927,569,624371,0
patternWeightCount-73,false,0.65,4314,443,4313,443,491400,0
patternWeightCount-74,true,1.00,665,434,663,422,80721,0
patternWeightCount-75,true,1.00,793,465,790,453,90430,0
patternWeightCount-76,true,1.00,810,478,805,466,99278,0
patternWeightCount-77,true,1.00,1815,490,1809,478,224647,0
patternWeightCount-78,true,1.00,2886,572,2884,560,330812,0
patternWeightCount-79,true,1.00,1499,436,1494,424,177830,0
patternWeightCount-80,true,1.00,1588,513,1588,501,180990,0
patternWeightCount-81,false,0.91,20169,999,20169,999,1804815,0
patternWeightCount-82,true,1.00,199,433,197,419,24816,0
patternWeightCount-83,true,1.00,755,395,752,383,88184,0
patternWeightCount-84,true,1.00,580,419,578,407,69432,0
patternWeightCount-85,true,1.00,2446,501,2442,489,293612,0
patternWeightCount-86,false,0.93,4069,506,4064,506,427875,0
patternWeightCount-87,false,0.77,4471,499,4470,499,456203,0
patternWeightCount-88,true,1.00,1973,477,1972,465,227918,0
patternWeightCount-89,true,1.00,762,462,761,450,90341,0
patternWeightCount-90,true,1.00,8476,650,8473,627,966610,0
patternWeightCount-91,true,1.00,897,490,893,477,110191,0
patternWeightCount-92,true,1.00,4704,549,4702,528,516667,0
patternWeightCount-93,false,0.94,12402,999,12398,999,1366909,0
patternWeightCount-94,true,1.00,1223,504,1222,492,140545,0
patternWeightCount-95,true,1.00,1385,516,1384,504,163193,0
patternWeightCount-96,true,1.00,1014,484,1008,472,115816,0
patternWeightCount-97,true,1.00,1431,402,1430,390,167006,0
patternWeightCount-98,false,0.92,19781,999,19777,999,1991970,0
patternWeightCount-99,true,1.00,1261,508,1258,496,146654,0
patternWeightCount-100,true,1.00,856,472,851,460,98685,0
