NDW:0.0
TTFW:0.8
DFPT:2.0
DFPAP:3.0
DFPMP:3.0
RIGHT_WINDOW_BORDER_X:235.0
level,win/fail,% travelled,run time,game ticks,planning time,total plannings,nodes evaluated,most backtracked nodes
patternCount-1,false,0.68,1737,276,1737,276,158340,0
patternCount-2,true,1.00,991,419,990,397,98033,0
patternCount-3,true,1.00,4388,493,4385,471,353085,0
patternCount-4,true,1.00,981,379,978,358,97527,0
patternCount-5,true,1.00,761,395,761,371,73215,0
patternCount-6,true,1.00,569,413,567,391,58122,0
patternCount-7,true,1.00,874,400,870,379,85457,0
patternCount-8,true,1.00,2522,427,2519,393,242415,0
patternCount-9,true,1.00,918,406,913,385,89516,0
patternCount-10,true,1.00,333,357,331,331,36551,0
patternCount-11,true,1.00,4999,496,4998,443,452295,0
patternCount-12,true,1.00,472,382,468,356,47293,0
patternCount-13,true,1.00,702,396,699,375,67764,0
patternCount-14,true,1.00,1273,417,1266,389,125962,0
patternCount-15,true,1.00,774,397,770,376,77373,0
patternCount-16,true,1.00,753,415,751,394,73795,0
patternCount-17,true,1.00,1128,415,1123,394,108445,0
patternCount-18,true,1.00,1185,384,1184,363,118859,0
patternCount-19,true,1.00,850,396,849,375,80869,0
patternCount-20,true,1.00,984,409,981,383,93152,0
patternCount-21,true,1.00,547,366,545,345,55729,0
patternCount-22,true,1.00,3539,464,3539,430,340632,0
patternCount-23,true,1.00,5690,524,5688,501,499892,0
patternCount-24,true,1.00,7175,511,7169,485,686940,0
patternCount-25,true,1.00,854,398,849,373,82416,0
patternCount-26,true,1.00,571,380,565,359,57618,0
patternCount-27,true,1.00,888,422,882,399,87897,0
patternCount-28,true,1.00,1067,437,1062,405,101923,0
patternCount-29,true,1.00,995,390,991,369,95445,0
patternCount-30,true,1.00,831,401,831,371,81121,0
patternCount-31,true,1.00,1213,466,1207,445,116761,0
patternCount-32,true,1.00,1553,441,1548,420,142759,0
patternCount-33,true,1.00,2614,440,2610,402,236817,0
patternCount-34,true,1.00,1872,472,1869,430,178784,0
patternCount-35,true,1.00,1288,440,1284,419,124938,0
patternCount-36,true,1.00,2444,474,2442,437,221916,0
patternCount-37,true,1.00,876,406,874,385,85510,0
patternCount-38,true,1.00,3066,487,3064,465,283266,0
patternCount-39,true,1.00,765,391,761,365,74814,0
patternCount-40,true,1.00,5085,468,5082,435,470876,0
patternCount-41,true,1.00,2043,444,2038,423,201553,0
patternCount-42,true,1.00,827,397,826,376,80820,0
patternCount-43,true,1.00,547,403,544,382,54718,0
patternCount-44,true,1.00,685,370,685,349,69384,0
patternCount-45,true,1.00,1097,497,1096,470,100919,0
patternCount-46,true,1.00,1171,368,1168,347,119192,0
patternCount-47,true,1.00,1611,446,1607,425,156286,0
patternCount-48,true,1.00,643,413,641,392,66079,0
patternCount-49,true,1.00,1344,459,1338,437,124757,0
patternCount-50,true,1.00,5457,543,5453,506,523613,0
patternCount-51,true,1.00,873,430,871,408,84261,0
patternCount-52,true,1.00,885,413,882,392,88087,0
patternCount-53,true,1.00,4446,452,4443,420,402104,0
patternCount-54,true,1.00,1259,448,1259,427,122958,0
patternCount-55,true,1.00,5331,421,5328,387,488263,0
patternCount-56,true,1.00,1050,407,1044,386,103735,0
patternCount-57,true,1.00,559,395,557,372,55289,0
patternCount-58,false,0.80,6281,487,6279,487,518165,0
patternCount-59,true,1.00,910,371,907,350,89543,0
patternCount-60,true,1.00,1115,423,1115,402,107609,0
patternCount-61,true,1.00,822,434,817,403,79821,0
patternCount-62,true,1.00,770,366,769,343,76601,0
patternCount-63,true,1.00,747,413,742,392,75524,0
patternCount-64,true,1.00,694,395,691,374,69883,0
patternCount-65,true,1.00,640,387,639,362,65580,0
patternCount-66,true,1.00,1606,422,1602,401,163528,0
patternCount-67,true,1.00,1266,411,1262,385,127529,0
patternCount-68,true,1.00,401,373,394,352,41610,0
patternCount-69,true,1.00,709,417,704,390,72392,0
patternCount-70,true,1.00,717,397,712,376,70697,0
patternCount-71,true,1.00,1171,432,1170,411,114334,0
patternCount-72,true,1.00,4043,406,4040,383,372534,0
patternCount-73,true,1.00,1489,412,1487,391,143645,0
patternCount-74,true,1.00,6533,483,6530,454,566940,0
patternCount-75,true,1.00,1042,423,1040,400,100693,0
patternCount-76,true,1.00,994,392,990,371,101822,0
patternCount-77,true,1.00,1430,406,1429,373,136606,0
patternCount-78,true,1.00,983,402,983,381,94167,0
patternCount-79,true,1.00,4780,452,4780,423,451889,0
patternCount-80,true,1.00,3112,487,3107,454,280233,0
patternCount-81,true,1.00,967,397,963,376,90398,0
patternCount-82,true,1.00,978,405,975,384,97427,0
patternCount-83,true,1.00,854,444,851,423,82626,0
patternCount-84,true,1.00,664,370,662,349,65778,0
patternCount-85,true,1.00,745,414,741,393,73994,0
patternCount-86,true,1.00,651,394,649,373,65247,0
patternCount-87,true,1.00,1051,439,1050,410,102062,0
patternCount-88,true,1.00,831,406,827,371,84086,0
patternCount-89,true,1.00,1065,392,1061,371,105760,0
patternCount-90,true,1.00,666,380,663,359,68681,0
patternCount-91,true,1.00,1365,455,1361,434,130453,0
patternCount-92,true,1.00,1073,387,1065,366,101768,0
patternCount-93,true,1.00,4936,463,4934,428,444620,0
patternCount-94,true,1.00,1196,413,1194,392,118327,0
patternCount-95,true,1.00,1768,421,1766,400,171390,0
patternCount-96,true,1.00,881,442,880,421,83805,0
patternCount-97,true,1.00,1482,416,1478,395,152261,0
patternCount-98,true,1.00,759,400,756,379,77452,0
patternCount-99,true,1.00,737,404,736,383,73524,0
patternCount-100,true,1.00,526,371,522,350,53859,0
