NDW:0.0
TTFW:2.0
DFPT:2.0
DFPAP:3.0
DFPMP:7.0
RIGHT_WINDOW_BORDER_X:35.0
level,win/fail,% travelled,run time,game ticks,planning time,total plannings,nodes evaluated,most backtracked nodes
ore-1,false,0.10,3565,219,3561,219,183859,0
ore-2,false,0.53,10011,956,10002,956,595734,0
ore-3,false,0.04,143,65,143,65,8955,0
ore-4,false,0.35,3274,483,3264,483,203676,0
ore-5,false,0.03,134,34,134,34,8629,0
ore-6,false,0.31,6386,619,6378,619,384070,0
ore-7,false,0.04,143,65,141,65,9147,0
ore-8,false,0.12,3382,242,3381,242,190367,0
ore-9,false,0.08,28772,999,28770,999,1761800,0
ore-10,false,0.47,2946,540,2938,540,178564,0
ore-11,false,0.20,508,193,504,193,29666,0
ore-12,false,0.13,668,171,665,171,40559,0
ore-13,false,0.17,452,212,447,212,27984,0
ore-14,false,0.40,5063,570,5049,570,251679,0
ore-15,false,0.12,1589,197,1582,197,97862,0
ore-16,false,0.62,2313,514,2304,514,144875,0
ore-17,false,0.13,1559,150,1555,150,102274,0
ore-18,false,0.09,2452,191,2448,191,155219,0
ore-19,false,0.33,4555,427,4548,427,275787,0
ore-20,false,0.11,2432,170,2430,170,152828,0
ore-21,false,0.65,10261,999,10245,999,599515,0
ore-22,false,0.31,3580,369,3573,369,209702,0
ore-23,false,0.31,3726,398,3715,398,224887,0
ore-24,false,0.30,3535,413,3529,413,211962,0
ore-25,false,0.08,1680,133,1680,133,106836,0
ore-26,false,0.27,4805,423,4799,423,307171,0
ore-27,false,0.07,653,112,653,112,41125,0
ore-28,false,0.08,2156,152,2153,152,113803,0
ore-29,false,0.18,1242,203,1241,203,67591,0
ore-30,false,0.17,1534,217,1528,217,88881,0
ore-31,false,0.37,3135,441,3131,441,198410,0
ore-32,false,0.12,1001,167,1001,167,60297,0
ore-33,false,0.58,8876,703,8866,703,552801,0
ore-34,false,0.56,4035,640,4024,640,237208,0
ore-35,false,0.64,3765,686,3750,686,232695,0
ore-36,false,0.29,3593,390,3587,390,214170,0
ore-37,false,0.14,2006,236,2001,236,117126,0
ore-38,false,0.14,4873,302,4866,302,254052,0
ore-39,false,0.13,1914,248,1913,248,115073,0
ore-40,false,0.69,11813,999,11793,999,713804,0
ore-41,false,0.35,6126,589,6114,589,346484,0
ore-42,false,0.27,2672,285,2668,285,166353,0
ore-43,false,0.32,2659,391,2653,391,145036,0
ore-44,false,0.09,1452,141,1449,141,92073,0
ore-45,false,0.24,1693,999,1671,999,104539,0
ore-46,false,0.12,1401,205,1396,205,81302,0
ore-47,false,0.48,7386,733,7370,733,452772,0
ore-48,false,0.14,1959,199,1956,199,120800,0
ore-49,false,0.17,2425,293,2422,293,148957,0
ore-50,false,0.04,698,84,695,84,44043,0
ore-51,false,0.41,3538,433,3528,433,169977,0
ore-52,false,0.08,1747,152,1744,152,84321,0
ore-53,false,0.14,4020,331,4012,331,237034,0
ore-54,false,0.12,28059,999,28055,999,1632195,0
ore-55,false,0.03,29448,999,29444,999,1899617,0
ore-56,false,0.26,3428,373,3424,373,208077,0
ore-57,false,0.14,3543,302,3538,302,162094,0
ore-58,false,0.08,1307,130,1302,130,79967,0
ore-59,false,0.39,7385,614,7377,614,469140,0
ore-60,false,0.09,1156,150,1153,150,70006,0
ore-61,false,0.51,11251,856,11236,856,706009,0
ore-62,false,0.04,697,84,697,84,45482,0
ore-63,false,0.62,10151,887,10130,887,619089,0
ore-64,false,0.22,966,201,960,201,56256,0
ore-65,false,0.30,3993,412,3990,412,246037,0
ore-66,false,0.12,1075,149,1072,149,61099,0
ore-67,false,0.13,1905,151,1902,151,117883,0
ore-68,false,0.53,8173,792,8160,792,506046,0
ore-69,false,0.72,9755,994,9733,994,611934,0
ore-70,false,0.18,5783,368,5780,368,358716,0
ore-71,false,0.31,1366,328,1359,328,86894,0
ore-72,false,0.08,329,97,329,97,19763,0
ore-73,false,0.25,4508,388,4503,388,297368,0
ore-74,false,0.57,5424,654,5414,654,344875,0
ore-75,false,0.61,7432,794,7419,794,445809,0
ore-76,false,0.32,5906,600,5897,600,369703,0
ore-77,false,0.21,1692,257,1685,257,110739,0
ore-78,false,0.11,992,136,991,136,62943,0
ore-79,false,0.40,7375,695,7366,695,468990,0
ore-80,false,0.57,7082,739,7072,739,379448,0
ore-81,false,0.10,348,120,345,120,21641,0
ore-82,false,0.19,4708,349,4699,349,281428,0
ore-83,false,0.17,3286,255,3285,255,192632,0
ore-84,false,0.13,1978,174,1976,174,100679,0
ore-85,false,0.12,1783,208,1778,208,100547,0
ore-86,false,0.15,2146,238,2141,238,127449,0
ore-87,false,0.08,504,102,503,102,27979,0
ore-88,false,0.12,1808,194,1801,194,94440,0
ore-89,false,0.67,8606,929,8589,929,525212,0
ore-90,false,0.16,5452,345,5447,345,333351,0
ore-91,false,0.12,1268,161,1263,161,72890,0
ore-92,false,0.48,3287,512,3276,512,189983,0
ore-93,false,0.14,4023,306,4019,306,226259,0
ore-94,false,0.16,1521,196,1517,196,94200,0
ore-95,false,0.11,541,110,536,110,34287,0
ore-96,false,0.22,1569,276,1563,276,94377,0
ore-97,false,0.49,4400,625,4382,625,247198,0
ore-98,false,0.10,2030,206,2028,206,123946,0
ore-99,false,0.27,1725,247,1719,247,100126,0
ore-100,false,0.04,701,84,698,84,45162,0
