NDW:0.0
TTFW:0.8
DFPT:2.0
DFPAP:3.0
DFPMP:3.0
RIGHT_WINDOW_BORDER_X:215.0
level,win/fail,% travelled,run time,game ticks,planning time,total plannings,nodes evaluated,most backtracked nodes
hopper-1,true,1.00,1042,315,1040,296,97402,0
hopper-2,true,1.00,1304,333,1300,314,118709,0
hopper-3,true,1.00,1340,334,1339,315,132688,0
hopper-4,true,1.00,912,344,910,323,94474,0
hopper-5,true,1.00,774,305,772,286,71937,0
hopper-6,true,1.00,1174,320,1174,300,114110,0
hopper-7,true,1.00,764,329,761,310,70561,0
hopper-8,true,1.00,859,335,856,314,85095,0
hopper-9,true,1.00,838,302,836,278,77897,0
hopper-10,true,1.00,875,307,873,288,85401,0
hopper-11,true,1.00,618,311,617,292,57412,0
hopper-12,true,1.00,2124,343,2122,324,227169,0
hopper-13,true,1.00,1793,346,1790,327,174712,0
hopper-14,true,1.00,981,323,978,300,92632,0
hopper-15,true,1.00,966,305,964,286,87707,0
hopper-16,true,1.00,1438,339,1436,311,139698,0
hopper-17,true,1.00,845,315,842,296,75596,0
hopper-18,true,1.00,937,305,932,286,82579,0
hopper-19,true,1.00,915,318,913,295,93902,0
hopper-20,true,1.00,1040,318,1038,298,96544,0
hopper-21,true,1.00,727,320,725,301,69245,0
hopper-22,true,1.00,1156,341,1153,315,112336,0
hopper-23,true,1.00,904,303,901,284,84981,0
hopper-24,true,1.00,575,301,573,282,53627,0
hopper-25,true,1.00,1032,309,1030,290,97331,0
hopper-26,true,1.00,1029,301,1028,282,92704,0
hopper-27,true,1.00,847,299,843,280,80953,0
hopper-28,true,1.00,1457,353,1454,334,153845,0
hopper-29,false,0.26,864,93,864,93,68172,0
hopper-30,true,1.00,777,323,775,294,74619,0
hopper-31,true,1.00,976,340,975,319,96320,0
hopper-32,true,1.00,1258,299,1253,280,121815,0
hopper-33,false,0.49,951,169,951,169,78392,0
hopper-34,true,1.00,1040,329,1038,310,103952,0
hopper-35,true,1.00,1177,324,1177,303,118481,0
hopper-36,true,1.00,679,316,676,297,62220,0
hopper-37,false,0.51,1125,174,1124,174,89059,0
hopper-38,true,1.00,1170,320,1168,301,126520,0
hopper-39,true,1.00,1643,351,1641,328,174395,0
hopper-40,true,1.00,951,316,947,291,82106,0
hopper-41,true,1.00,1898,335,1895,316,170850,0
hopper-42,true,1.00,772,305,772,286,68310,0
hopper-43,false,0.45,1767,159,1767,159,139165,0
hopper-44,true,1.00,1802,330,1800,311,178750,0
hopper-45,false,0.43,1410,155,1410,155,115020,0
hopper-46,false,0.67,2205,252,2203,252,189617,0
hopper-47,true,1.00,1674,327,1670,308,157542,0
hopper-48,true,1.00,1203,317,1202,298,109643,0
hopper-49,true,1.00,1095,321,1093,302,107266,0
hopper-50,true,1.00,1044,339,1041,320,104330,0
hopper-51,true,1.00,1251,344,1249,325,120176,0
hopper-52,true,1.00,706,308,706,289,68898,0
hopper-53,false,0.63,2457,238,2455,238,209198,0
hopper-54,true,1.00,600,302,598,277,54105,0
hopper-55,true,1.00,753,315,750,294,74263,0
hopper-56,true,1.00,668,297,667,278,65804,0
hopper-57,true,1.00,938,307,935,288,82303,0
hopper-58,true,1.00,1160,321,1159,302,121439,0
hopper-59,true,1.00,699,297,697,278,68502,0
hopper-60,true,1.00,1818,343,1815,324,196013,0
hopper-61,true,1.00,1227,318,1226,299,118957,0
hopper-62,true,1.00,1089,326,1086,303,98139,0
hopper-63,true,1.00,1290,345,1287,326,130196,0
hopper-64,true,1.00,1237,319,1235,300,109620,0
hopper-65,true,1.00,911,316,909,292,88588,0
hopper-66,true,1.00,1237,342,1232,323,119406,0
hopper-67,true,1.00,746,319,745,300,69372,0
hopper-68,true,1.00,622,319,621,300,56173,0
hopper-69,true,1.00,925,345,923,317,87953,0
hopper-70,true,1.00,1076,316,1070,293,101868,0
hopper-71,true,1.00,611,305,610,286,54916,0
hopper-72,true,1.00,1340,330,1337,305,125029,0
hopper-73,true,1.00,942,307,940,288,85441,0
hopper-74,true,1.00,740,305,739,286,64669,0
hopper-75,true,1.00,932,301,928,282,85276,0
hopper-76,true,1.00,1785,361,1783,341,180421,0
hopper-77,true,1.00,895,335,890,314,81590,0
hopper-78,true,1.00,1034,310,1034,290,105571,0
hopper-79,true,1.00,739,314,738,288,68366,0
hopper-80,true,1.00,654,313,654,294,58463,0
hopper-81,true,1.00,1751,351,1750,330,163752,0
hopper-82,true,1.00,1170,329,1167,310,122312,0
hopper-83,true,1.00,1273,315,1272,296,118622,0
hopper-84,true,1.00,1137,307,1136,288,106161,0
hopper-85,true,1.00,1549,335,1548,316,138036,0
hopper-86,true,1.00,939,303,935,284,90595,0
hopper-87,true,1.00,1081,323,1077,304,100523,0
hopper-88,true,1.00,686,315,682,296,71375,0
hopper-89,true,1.00,759,321,757,302,72085,0
hopper-90,true,1.00,808,316,803,296,77864,0
hopper-91,true,1.00,962,297,959,278,92406,0
hopper-92,true,1.00,1074,319,1073,300,93442,0
hopper-93,true,1.00,713,317,711,298,67806,0
hopper-94,true,1.00,1354,336,1353,317,133127,0
hopper-95,true,1.00,896,297,895,278,83286,0
hopper-96,true,1.00,1025,319,1021,300,103419,0
hopper-97,true,1.00,1202,303,1198,284,109094,0
hopper-98,true,1.00,1239,311,1237,292,114066,0
hopper-99,true,1.00,1903,342,1902,323,184116,0
hopper-100,true,1.00,1085,334,1084,305,100521,0
