NDW:0.0
TTFW:1.8
DFPT:2.0
DFPAP:3.0
DFPMP:10.0
RIGHT_WINDOW_BORDER_X:95.0
level,win/fail,% travelled,run time,game ticks,planning time,total plannings,nodes evaluated,most backtracked nodes
notch-1,true,1.00,2046,404,2042,396,197029,0
notch-2,true,1.00,2019,377,2018,369,213677,0
notch-3,true,1.00,1580,346,1576,338,155015,0
notch-4,true,1.00,1018,290,1018,280,96108,0
notch-5,true,1.00,870,286,869,278,82722,0
notch-6,true,1.00,1009,304,1007,296,100953,0
notch-7,true,1.00,530,277,529,268,53406,0
notch-8,true,1.00,825,340,822,331,84031,0
notch-9,true,1.00,2382,387,2379,379,234207,0
notch-10,true,1.00,1082,320,1082,312,105444,0
notch-11,true,1.00,1517,328,1514,320,142311,0
notch-12,true,1.00,770,284,769,276,72469,0
notch-13,true,1.00,964,343,964,334,94794,0
notch-14,true,1.00,2157,335,2156,327,204690,0
notch-15,true,1.00,1521,319,1519,311,154388,0
notch-16,true,1.00,1508,342,1505,331,148752,0
notch-17,true,1.00,960,316,960,308,95348,0
notch-18,true,1.00,995,360,992,351,102856,0
notch-19,true,1.00,1989,353,1988,344,195312,0
notch-20,true,1.00,1466,333,1466,325,148215,0
notch-21,true,1.00,1070,323,1068,315,108120,0
notch-22,true,1.00,2488,363,2484,355,227825,0
notch-23,true,1.00,1664,335,1661,327,164754,0
notch-24,true,1.00,1007,323,1006,315,100216,0
notch-25,true,1.00,1807,344,1806,335,172079,0
notch-26,true,1.00,826,283,821,275,71433,0
notch-27,true,1.00,2892,377,2891,369,284576,0
notch-28,true,1.00,1063,324,1062,316,105212,0
notch-29,true,1.00,1467,339,1464,331,143969,0
notch-30,true,1.00,2008,307,2004,299,182752,0
notch-31,true,1.00,1389,332,1387,324,141102,0
notch-32,true,1.00,1341,320,1340,311,134369,0
notch-33,true,1.00,851,283,849,275,80280,0
notch-34,true,1.00,1249,309,1247,301,127424,0
notch-35,true,1.00,1461,325,1459,317,139590,0
notch-36,true,1.00,1834,351,1833,343,177621,0
notch-37,true,1.00,1922,340,1921,330,195117,0
notch-38,true,1.00,1748,374,1744,365,169607,0
notch-39,true,1.00,822,264,820,256,79024,0
notch-40,true,1.00,1438,375,1436,366,141099,0
notch-41,true,1.00,1257,304,1257,295,124477,0
notch-42,true,1.00,1036,307,1035,299,104562,0
notch-43,false,0.17,1061,85,1061,85,99140,0
notch-44,true,1.00,1137,298,1135,290,113230,0
notch-45,true,1.00,913,272,911,264,88304,0
notch-46,true,1.00,1288,314,1287,306,126701,0
notch-47,true,1.00,1116,330,1114,322,109722,0
notch-48,false,0.88,2011,326,2011,326,203839,0
notch-49,true,1.00,822,302,819,292,80892,0
notch-50,true,1.00,1556,332,1553,324,151102,0
notch-51,true,1.00,791,276,789,267,76768,0
notch-52,true,1.00,1394,312,1391,303,135916,0
notch-53,true,1.00,456,301,452,292,42362,0
notch-54,true,1.00,2903,399,2902,389,286821,0
notch-55,true,1.00,2342,377,2339,369,227010,0
notch-56,true,1.00,1297,335,1294,327,120893,0
notch-57,true,1.00,630,306,628,298,61851,0
notch-58,true,1.00,1268,333,1267,324,135282,0
notch-59,true,1.00,1027,326,1026,316,95517,0
notch-60,true,1.00,1731,329,1730,321,168724,0
notch-61,true,1.00,1896,322,1895,314,194528,0
notch-62,true,1.00,766,321,762,313,76033,0
notch-63,true,1.00,1382,348,1380,340,146842,0
notch-64,true,1.00,2134,357,2130,349,201112,0
notch-65,true,1.00,1498,328,1496,320,157601,0
notch-66,true,1.00,2057,400,2053,391,205704,0
notch-67,true,1.00,1168,302,1166,293,105159,0
notch-68,true,1.00,1104,296,1101,288,105534,0
notch-69,true,1.00,1259,315,1256,307,122201,0
notch-70,true,1.00,1419,355,1416,346,146421,0
notch-71,true,1.00,1888,350,1885,342,179766,0
notch-72,true,1.00,966,289,965,280,96415,0
notch-73,true,1.00,962,307,959,298,96377,0
notch-74,true,1.00,1162,325,1161,316,125232,0
notch-75,true,1.00,2170,377,2169,369,204543,0
notch-76,true,1.00,1166,337,1164,328,111632,0
notch-77,true,1.00,757,288,757,280,74391,0
notch-78,true,1.00,1739,336,1739,328,169009,0
notch-79,true,1.00,1525,342,1523,333,148314,0
notch-80,true,1.00,699,278,695,270,65713,0
notch-81,true,1.00,2474,350,2472,341,239417,0
notch-82,true,1.00,1511,289,1509,281,146632,0
notch-83,true,1.00,1938,367,1934,357,193138,0
notch-84,true,1.00,1503,313,1500,304,139177,0
notch-85,true,1.00,619,284,618,275,61480,0
notch-86,true,1.00,892,271,892,263,87857,0
notch-87,true,1.00,1650,323,1647,315,160344,0
notch-88,true,1.00,1779,379,1776,370,177258,0
notch-89,true,1.00,1240,310,1238,302,123558,0
notch-90,true,1.00,1888,321,1885,313,190049,0
notch-91,true,1.00,2699,397,2697,388,274596,0
notch-92,true,1.00,2465,352,2464,343,241072,0
notch-93,true,1.00,1061,327,1060,319,102088,0
notch-94,true,1.00,2216,372,2213,363,213601,0
notch-95,true,1.00,760,284,758,276,73588,0
notch-96,true,1.00,788,294,784,286,76828,0
notch-97,true,1.00,1160,333,1160,325,112117,0
notch-98,true,1.00,2957,382,2956,374,290777,0
notch-99,true,1.00,1271,334,1270,324,129429,0
notch-100,true,1.00,870,301,868,292,86683,0
