NDW:0.0
TTFW:1.4
DFPT:2.0
DFPAP:3.0
DFPMP:2.0
RIGHT_WINDOW_BORDER_X:275.0
level,win/fail,% travelled,run time,game ticks,planning time,total plannings,nodes evaluated,most backtracked nodes
ore-1,true,1.00,2138,453,2129,425,121291,0
ore-2,false,0.70,2858,326,2848,326,150998,0
ore-3,true,1.00,1572,437,1562,392,90202,0
ore-4,true,1.00,2336,507,2328,481,124722,0
ore-5,true,1.00,1867,405,1852,368,105420,0
ore-6,true,1.00,1530,455,1518,419,85855,0
ore-7,true,1.00,2280,436,2269,405,129984,0
ore-8,false,0.13,1892,90,1890,90,93001,0
ore-9,true,1.00,1149,372,1142,348,64445,0
ore-10,true,1.00,2478,489,2463,449,131101,0
ore-11,true,1.00,1616,452,1604,413,88570,0
ore-12,false,0.46,1669,227,1664,227,84242,0
ore-13,true,1.00,1877,482,1863,434,104745,0
ore-14,true,1.00,1898,440,1890,415,106552,0
ore-15,true,1.00,1944,416,1938,386,108090,0
ore-16,true,1.00,2204,461,2196,424,116632,0
ore-17,true,1.00,1874,465,1863,417,100284,0
ore-18,true,1.00,1792,474,1776,436,96151,0
ore-19,true,1.00,1346,411,1329,385,73000,0
ore-20,true,1.00,2600,451,2586,418,145410,0
ore-21,true,1.00,2439,525,2428,495,136099,0
ore-22,false,0.62,1828,264,1824,264,91193,0
ore-23,true,1.00,2626,431,2610,400,144442,0
ore-24,true,1.00,2191,494,2173,445,125565,0
ore-25,true,1.00,1702,462,1693,423,97415,0
ore-26,true,1.00,2165,421,2149,392,114334,0
ore-27,false,0.24,1521,135,1521,135,75200,0
ore-28,true,1.00,1491,416,1480,390,79224,0
ore-29,true,1.00,2153,436,2140,412,113721,0
ore-30,true,1.00,1370,442,1360,396,75085,0
ore-31,true,1.00,1866,448,1853,406,104705,0
ore-32,true,1.00,2031,423,2021,398,110082,0
ore-33,true,1.00,1798,490,1789,464,98112,0
ore-34,true,1.00,1785,463,1778,420,99155,0
ore-35,true,1.00,1908,414,1896,387,107510,0
ore-36,true,1.00,1663,431,1651,396,93649,0
ore-37,false,0.34,1369,122,1366,122,67812,0
ore-38,true,1.00,1348,392,1340,367,73939,0
ore-39,true,1.00,2706,488,2695,448,155288,0
ore-40,true,1.00,2008,423,1997,394,108258,0
ore-41,true,1.00,1651,451,1635,405,93143,0
ore-42,true,1.00,2918,479,2906,454,161144,0
ore-43,true,1.00,2533,464,2523,438,133966,0
ore-44,true,1.00,2857,430,2848,376,162818,0
ore-45,false,0.74,23977,999,23967,999,876946,0
ore-46,false,0.12,870,53,870,53,42122,0
ore-47,false,0.85,3014,453,3000,453,161224,0
ore-48,true,1.00,3219,486,3211,459,176674,0
ore-49,true,1.00,1493,428,1482,379,83637,0
ore-50,true,1.00,2476,446,2461,419,138925,0
ore-51,true,1.00,1999,434,1986,391,108975,0
ore-52,true,1.00,1752,444,1741,400,95280,0
ore-53,true,1.00,1882,412,1874,380,103053,0
ore-54,false,0.72,2955,380,2948,380,152551,0
ore-55,true,1.00,1658,396,1650,356,96448,0
ore-56,true,1.00,1363,376,1355,351,75753,0
ore-57,true,1.00,1670,415,1661,377,92880,0
ore-58,true,1.00,1850,454,1837,429,103868,0
ore-59,true,1.00,2365,506,2353,478,134614,0
ore-60,true,1.00,2242,438,2235,406,118559,0
ore-61,true,1.00,1821,431,1812,401,95169,0
ore-62,false,0.78,2106,321,2097,321,107046,0
ore-63,false,0.32,2020,156,2015,156,95800,0
ore-64,true,1.00,1381,417,1372,390,76667,0
ore-65,true,1.00,2159,499,2142,465,117366,0
ore-66,true,1.00,2461,487,2450,440,134317,0
ore-67,true,1.00,2213,429,2203,394,122326,0
ore-68,true,1.00,1302,440,1290,405,67834,0
ore-69,true,1.00,2850,476,2840,447,145317,0
ore-70,false,0.95,3151,465,3139,465,165778,0
ore-71,true,1.00,1523,417,1516,391,84277,0
ore-72,true,1.00,1527,443,1511,406,83459,0
ore-73,true,1.00,1776,400,1764,362,95483,0
ore-74,true,1.00,2156,415,2148,373,114137,0
ore-75,true,1.00,1877,471,1864,444,101416,0
ore-76,true,1.00,1541,392,1532,362,86090,0
ore-77,true,1.00,1604,397,1594,358,90614,0
ore-78,true,1.00,1704,402,1695,377,95401,0
ore-79,true,1.00,1943,460,1925,408,104628,0
ore-80,true,1.00,1737,412,1729,366,97073,0
ore-81,true,1.00,1938,448,1925,420,107391,0
ore-82,true,1.00,1623,414,1612,379,90615,0
ore-83,true,1.00,1636,436,1625,411,90748,0
ore-84,true,1.00,5347,524,5337,498,248178,0
ore-85,true,1.00,2065,440,2056,406,117510,0
ore-86,false,0.60,2468,323,2461,323,138247,0
ore-87,true,1.00,1682,441,1671,407,94023,0
ore-88,true,1.00,2259,434,2246,406,129482,0
ore-89,true,1.00,2537,434,2530,409,136501,0
ore-90,true,1.00,3217,531,3198,475,184008,0
ore-91,true,1.00,2200,393,2190,360,123159,0
ore-92,true,1.00,1966,445,1956,415,110428,0
ore-93,false,0.13,1707,77,1706,77,77100,0
ore-94,true,1.00,1965,466,1954,434,107009,0
ore-95,true,1.00,2320,465,2311,432,127768,0
ore-96,true,1.00,2545,495,2532,458,139479,0
ore-97,true,1.00,2662,477,2656,434,146504,0
ore-98,true,1.00,2680,435,2670,404,156327,0
ore-99,true,1.00,2275,437,2265,399,125399,0
ore-100,true,1.00,1727,455,1718,416,97297,0
