NDW:0.0
TTFW:1.0
DFPT:2.0
DFPAP:3.0
DFPMP:1.0
RIGHT_WINDOW_BORDER_X:15.0
level,win/fail,% travelled,run time,game ticks,planning time,total plannings,nodes evaluated,most backtracked nodes
notch-1,false,0.12,2,60,0,60,406,0
notch-2,false,0.10,1,52,1,52,367,0
notch-3,false,0.14,2,67,1,67,429,0
notch-4,false,0.11,204,110,202,110,17760,0
notch-5,false,0.24,140,157,138,157,12409,0
notch-6,false,0.10,1,53,0,53,376,0
notch-7,false,0.11,3,66,3,66,627,0
notch-8,false,0.11,459,134,458,134,38005,0
notch-9,false,0.20,898,181,898,181,73039,0
notch-10,false,0.11,532,104,531,104,45662,0
notch-11,false,0.18,302,122,300,122,24833,0
notch-12,false,0.31,159,199,159,199,15681,0
notch-13,false,0.11,634,140,633,140,52943,0
notch-14,false,0.11,1,57,0,57,395,0
notch-15,false,0.13,270,110,270,110,25193,0
notch-16,false,0.12,304,104,303,104,26901,0
notch-17,false,0.12,536,114,535,114,46186,0
notch-18,false,0.10,1,53,1,53,376,0
notch-19,false,0.12,534,100,534,100,44366,0
notch-20,false,0.11,2,57,2,57,395,0
notch-21,false,0.10,2,57,2,57,404,0
notch-22,false,0.23,3,108,3,108,580,0
notch-23,false,0.17,508,167,506,167,43953,0
notch-24,false,0.17,3,96,1,96,785,0
notch-25,false,0.18,4,112,3,112,968,0
notch-26,false,0.30,778,205,778,205,60330,0
notch-27,false,0.12,237,114,237,114,23024,0
notch-28,false,0.09,256,96,256,96,25287,0
notch-29,false,0.11,1,53,1,53,378,0
notch-30,false,0.12,1129,152,1128,152,84210,0
notch-31,false,0.12,2,55,1,55,387,0
notch-32,false,0.15,3,80,3,80,648,0
notch-33,false,0.17,1743,234,1740,234,144326,0
notch-34,false,0.10,1,56,1,56,396,0
notch-35,false,0.23,270,153,270,153,24911,0
notch-36,false,0.13,203,104,202,104,17111,0
notch-37,false,0.12,235,101,234,101,19725,0
notch-38,false,0.11,401,113,401,113,37480,0
notch-39,false,0.13,2,61,2,61,407,0
notch-40,false,0.19,1900,293,1898,293,166930,0
notch-41,false,0.10,609,147,608,147,53008,0
notch-42,false,0.10,2,55,1,55,403,0
notch-43,false,0.15,233,115,232,115,20580,0
notch-44,false,0.15,404,134,403,134,35702,0
notch-45,false,0.11,173,112,172,112,15034,0
notch-46,false,0.19,73,146,72,146,6888,0
notch-47,false,0.12,470,146,469,146,43716,0
notch-48,false,0.14,479,136,477,136,44063,0
notch-49,false,0.30,138,178,137,178,12350,0
notch-50,false,0.24,240,174,239,174,23098,0
notch-51,false,0.11,1,57,1,57,404,0
notch-52,false,0.21,171,138,171,138,15620,0
notch-53,false,0.09,1152,148,1152,148,106719,0
notch-54,false,0.12,236,95,236,95,20448,0
notch-55,false,0.13,170,101,170,101,14619,0
notch-56,false,0.10,405,147,405,147,35822,0
notch-57,false,0.14,731,137,731,137,55006,0
notch-58,false,0.18,469,169,468,169,44849,0
notch-59,false,0.13,205,136,204,136,19015,0
notch-60,false,0.12,1127,152,1126,152,84521,0
notch-61,false,0.14,237,123,236,123,21388,0
notch-62,false,0.11,238,117,237,117,22467,0
notch-63,false,0.09,2,55,2,55,403,0
notch-64,false,0.13,965,174,964,174,85629,0
notch-65,false,0.10,1,57,1,57,400,0
notch-66,false,0.16,237,122,236,122,21565,0
notch-67,false,0.12,172,112,172,112,14722,0
notch-68,false,0.13,170,102,169,102,14303,0
notch-69,false,0.13,203,100,201,100,17634,0
notch-70,false,0.12,268,100,267,100,24947,0
notch-71,false,0.11,668,158,665,158,57346,0
notch-72,false,0.07,1,40,0,40,337,0
notch-73,false,0.11,470,144,469,144,44043,0
notch-74,false,0.20,1041,257,1041,257,87424,0
notch-75,false,0.22,342,187,332,187,29744,0
notch-76,false,0.13,204,115,204,115,17152,0
notch-77,false,0.14,467,128,467,128,41590,0
notch-78,false,0.14,239,134,239,134,21144,0
notch-79,false,0.10,1,52,1,52,367,0
notch-80,false,0.17,2,85,1,85,519,0
notch-81,false,0.12,203,99,202,99,17703,0
notch-82,false,0.11,1,57,1,57,395,0
notch-83,false,0.12,138,122,138,122,13397,0
notch-84,false,0.13,665,124,664,124,59806,0
notch-85,false,0.16,372,155,372,155,31082,0
notch-86,false,0.18,401,106,399,106,30346,0
notch-87,false,0.10,242,80,241,80,22700,0
notch-88,false,0.12,440,120,440,120,38884,0
notch-89,false,0.17,969,197,969,197,86894,0
notch-90,false,0.15,743,160,743,160,66616,0
notch-91,false,0.15,1489,160,1487,160,108632,0
notch-92,false,0.11,2,57,2,57,404,0
notch-93,false,0.09,291,88,291,88,28901,0
notch-94,false,0.12,766,127,766,127,62027,0
notch-95,false,0.21,377,209,376,209,36037,0
notch-96,false,0.15,2,74,2,74,452,0
notch-97,false,0.09,867,136,865,136,83097,0
notch-98,false,0.11,636,158,634,158,56085,0
notch-99,false,0.11,202,90,202,90,17895,0
notch-100,false,0.12,202,95,202,95,17743,0
