NDW:0.0
TTFW:1.2
DFPT:2.0
DFPAP:3.0
DFPMP:2.0
RIGHT_WINDOW_BORDER_X:95.0
level,win/fail,% travelled,run time,game ticks,planning time,total plannings,nodes evaluated,most backtracked nodes
hopper-1,true,1.00,2744,436,2742,428,268570,0
hopper-2,true,1.00,2939,458,2937,450,274587,0
hopper-3,true,1.00,1505,398,1502,390,148990,0
hopper-4,true,1.00,1424,411,1420,403,143575,0
hopper-5,true,1.00,2349,418,2346,409,218301,0
hopper-6,true,1.00,1717,370,1714,362,162028,0
hopper-7,true,1.00,1138,384,1138,376,103838,0
hopper-8,true,1.00,1791,454,1789,446,173775,0
hopper-9,true,1.00,2272,381,2270,373,212593,0
hopper-10,true,1.00,2393,413,2389,404,240503,0
hopper-11,true,1.00,886,351,885,343,84623,0
hopper-12,true,1.00,1620,392,1617,384,159195,0
hopper-13,true,1.00,3108,440,3106,432,318697,0
hopper-14,true,1.00,2510,430,2507,421,253142,0
hopper-15,true,1.00,1808,371,1807,363,165796,0
hopper-16,true,1.00,2214,420,2213,409,228789,0
hopper-17,true,1.00,1318,383,1318,375,122190,0
hopper-18,true,1.00,2041,381,2039,373,190079,0
hopper-19,true,1.00,1593,377,1591,369,164977,0
hopper-20,false,0.81,2728,400,2725,400,267997,0
hopper-21,true,1.00,1345,373,1345,365,115908,0
hopper-22,true,1.00,2288,441,2284,432,206793,0
hopper-23,true,1.00,2178,406,2176,398,176531,0
hopper-24,true,1.00,760,351,759,343,63375,0
hopper-25,true,1.00,2376,417,2375,409,218911,0
hopper-26,true,1.00,1844,374,1843,366,157268,0
hopper-27,true,1.00,2737,410,2736,402,268339,0
hopper-28,false,0.57,3583,322,3583,322,364232,0
hopper-29,false,0.25,2341,149,2341,149,194686,0
hopper-30,true,1.00,2134,414,2128,406,210465,0
hopper-31,false,0.44,946,181,945,181,92216,0
hopper-32,true,1.00,8682,612,8680,604,838417,0
hopper-33,false,0.48,26887,999,26886,999,2281987,0
hopper-34,true,1.00,1103,373,1102,365,109534,0
hopper-35,true,1.00,5184,538,5180,530,534229,0
hopper-36,true,1.00,952,349,949,341,85741,0
hopper-37,false,0.51,2480,228,2480,228,208897,0
hopper-38,true,1.00,6702,623,6699,615,740475,0
hopper-39,true,1.00,2073,414,2070,405,207395,0
hopper-40,true,1.00,2975,440,2974,431,264961,0
hopper-41,true,1.00,2812,460,2810,452,270065,0
hopper-42,true,1.00,1458,365,1458,357,134456,0
hopper-43,false,0.44,4171,265,4171,265,350316,0
hopper-44,true,1.00,3248,443,3246,434,302947,0
hopper-45,false,0.42,1795,192,1793,192,152605,0
hopper-46,false,0.66,3642,352,3641,352,341810,0
hopper-47,true,1.00,5680,490,5678,482,542656,0
hopper-48,true,1.00,2263,403,2261,395,211638,0
hopper-49,true,1.00,4770,521,4767,513,455655,0
hopper-50,true,1.00,2452,435,2451,427,237140,0
hopper-51,true,1.00,2128,447,2125,439,217208,0
hopper-52,true,1.00,1964,387,1962,379,198371,0
hopper-53,true,1.00,3524,515,3522,507,355391,0
hopper-54,true,1.00,1283,362,1279,353,117411,0
hopper-55,true,1.00,1679,391,1677,383,170673,0
hopper-56,true,1.00,1132,345,1129,337,112493,0
hopper-57,true,1.00,1297,378,1295,370,119067,0
hopper-58,true,1.00,3898,494,3896,486,388268,0
hopper-59,true,1.00,2612,397,2611,389,266336,0
hopper-60,true,1.00,3002,406,2998,398,319720,0
hopper-61,true,1.00,2301,421,2299,413,219390,0
hopper-62,true,1.00,2543,407,2543,399,242324,0
hopper-63,true,1.00,2016,418,2016,410,194633,0
hopper-64,true,1.00,4026,459,4023,451,395208,0
hopper-65,true,1.00,4193,494,4191,485,412512,0
hopper-66,true,1.00,1185,393,1182,385,116864,0
hopper-67,true,1.00,2871,426,2869,418,285938,0
hopper-68,true,1.00,1614,376,1611,368,156299,0
hopper-69,true,1.00,2514,429,2511,421,237559,0
hopper-70,true,1.00,2124,415,2124,407,208146,0
hopper-71,true,1.00,1835,363,1833,355,168980,0
hopper-72,true,1.00,1842,387,1840,379,171149,0
hopper-73,true,1.00,1405,333,1405,325,127787,0
hopper-74,true,1.00,1180,353,1178,345,107148,0
hopper-75,true,1.00,3365,423,3364,415,315400,0
hopper-76,true,1.00,1543,385,1542,377,146750,0
hopper-77,true,1.00,1775,391,1774,383,159416,0
hopper-78,true,1.00,5688,495,5687,487,597234,0
hopper-79,true,1.00,1937,385,1934,377,205091,0
hopper-80,true,1.00,1549,385,1545,377,140214,0
hopper-81,true,1.00,1980,440,1975,432,191749,0
hopper-82,true,1.00,4029,488,4025,480,399547,0
hopper-83,true,1.00,2224,410,2222,402,216400,0
hopper-84,true,1.00,3332,424,3327,416,321430,0
hopper-85,true,1.00,1844,415,1838,407,168992,0
hopper-86,true,1.00,2438,447,2438,439,231853,0
hopper-87,true,1.00,2489,426,2484,418,234798,0
hopper-88,true,1.00,3633,465,3629,457,374280,0
hopper-89,true,1.00,2043,419,2040,411,194034,0
hopper-90,true,1.00,1918,385,1910,377,192602,0
hopper-91,true,1.00,3574,444,3572,436,351111,0
hopper-92,true,1.00,1877,371,1875,363,170766,0
hopper-93,true,1.00,1126,386,1121,378,111284,0
hopper-94,true,1.00,2375,435,2375,427,240105,0
hopper-95,true,1.00,2218,370,2216,362,210167,0
hopper-96,false,0.37,5220,298,5218,298,477461,0
hopper-97,true,1.00,2463,405,2460,397,223792,0
hopper-98,true,1.00,2851,413,2848,405,267343,0
hopper-99,true,1.00,4313,531,4305,523,430595,0
hopper-100,false,0.51,3646,316,3646,316,341326,0
