NDW:0.0
TTFW:1.6
DFPT:2.0
DFPAP:3.0
DFPMP:50.0
RIGHT_WINDOW_BORDER_X:95.0
level,win/fail,% travelled,run time,game ticks,planning time,total plannings,nodes evaluated,most backtracked nodes
notch-1,true,1.00,887,294,882,286,50501,0
notch-2,true,1.00,2636,347,2629,339,159730,0
notch-3,true,1.00,1179,287,1175,279,66416,0
notch-4,true,1.00,2084,346,2080,336,117606,0
notch-5,true,1.00,788,281,784,273,43947,0
notch-6,true,1.00,942,315,939,307,54871,0
notch-7,true,1.00,609,301,598,292,35187,0
notch-8,true,1.00,732,324,724,315,42100,0
notch-9,true,1.00,1511,318,1501,310,84773,0
notch-10,true,1.00,1145,307,1135,299,64879,0
notch-11,true,1.00,2141,331,2136,323,120226,0
notch-12,true,1.00,1575,316,1568,308,87226,0
notch-13,true,1.00,1054,309,1049,301,60913,0
notch-14,true,1.00,1088,295,1080,287,60104,0
notch-15,true,1.00,1734,337,1723,329,100282,0
notch-16,true,1.00,1188,330,1177,318,68287,0
notch-17,true,1.00,1754,341,1749,333,100648,0
notch-18,true,1.00,1621,367,1609,358,93139,0
notch-19,true,1.00,2806,356,2803,348,164311,0
notch-20,true,1.00,1049,307,1043,299,59562,0
notch-21,true,1.00,1079,307,1074,299,63658,0
notch-22,true,1.00,1553,313,1551,305,88318,0
notch-23,true,1.00,2029,322,2020,314,115609,0
notch-24,true,1.00,1499,326,1493,317,87503,0
notch-25,true,1.00,1264,318,1256,309,72979,0
notch-26,true,1.00,799,289,786,280,45896,0
notch-27,true,1.00,1580,334,1573,326,93076,0
notch-28,true,1.00,1219,325,1217,317,71925,0
notch-29,true,1.00,1563,327,1556,319,90097,0
notch-30,true,1.00,1369,284,1358,276,77903,0
notch-31,true,1.00,918,298,909,290,52123,0
notch-32,true,1.00,1741,332,1732,322,97537,0
notch-33,true,1.00,914,277,914,269,51645,0
notch-34,true,1.00,804,273,798,265,47091,0
notch-35,true,1.00,811,299,803,291,46843,0
notch-36,true,1.00,1270,325,1264,316,71485,0
notch-37,true,1.00,1470,314,1464,304,84971,0
notch-38,true,1.00,2042,374,2033,365,115897,0
notch-39,true,1.00,995,268,984,259,51731,0
notch-40,true,1.00,1463,338,1449,329,49872,0
notch-41,true,1.00,1216,296,1206,287,47577,0
notch-42,true,1.00,1049,278,1044,270,60925,0
notch-43,true,1.00,1275,333,1263,324,73256,0
notch-44,true,1.00,811,271,805,263,46787,0
notch-45,true,1.00,1473,310,1466,302,83397,0
notch-46,true,1.00,995,294,972,286,41173,0
notch-47,true,1.00,1408,337,1396,329,62277,0
notch-48,true,1.00,2515,370,2504,361,147722,0
notch-49,true,1.00,820,297,818,288,49204,0
notch-50,true,1.00,905,308,899,300,54406,0
notch-51,true,1.00,748,269,739,261,43746,0
notch-52,true,1.00,862,295,856,287,50433,0
notch-53,true,1.00,469,294,463,285,26247,0
notch-54,true,1.00,2042,367,2033,359,119918,0
notch-55,true,1.00,1383,336,1379,328,81135,0
notch-56,true,1.00,1503,323,1496,315,85779,0
notch-57,true,1.00,779,310,765,302,45910,0
notch-58,true,1.00,1683,345,1676,336,98695,0
notch-59,true,1.00,861,338,854,328,49249,0
notch-60,true,1.00,1057,302,1051,294,61640,0
notch-61,true,1.00,1078,301,1075,293,64727,0
notch-62,true,1.00,829,316,821,308,48663,0
notch-63,true,1.00,1776,333,1767,325,107559,0
notch-64,true,1.00,1404,310,1398,302,82167,0
notch-65,true,1.00,1505,339,1501,331,92217,0
notch-66,true,1.00,2804,391,2796,383,165262,0
notch-67,true,1.00,1148,290,1145,281,64607,0
notch-68,true,1.00,740,278,734,270,42863,0
notch-69,true,1.00,1533,355,1528,346,90980,0
notch-70,true,1.00,1782,380,1775,371,110440,0
notch-71,true,1.00,3038,360,3031,352,174609,0
notch-72,true,1.00,1630,306,1620,298,98609,0
notch-73,true,1.00,1176,284,1168,276,69036,0
notch-74,true,1.00,1417,324,1410,315,86854,0
notch-75,true,1.00,1711,359,1703,350,100164,0
notch-76,true,1.00,1218,335,1211,326,70060,0
notch-77,true,1.00,863,276,857,268,49332,0
notch-78,true,1.00,1298,307,1294,298,75191,0
notch-79,true,1.00,1672,348,1668,339,96318,0
notch-80,true,1.00,679,268,667,260,38208,0
notch-81,true,1.00,2733,338,2729,330,156748,0
notch-82,true,1.00,1677,320,1672,312,96539,0
notch-83,true,1.00,2007,356,1998,346,115559,0
notch-84,true,1.00,1398,320,1392,311,76595,0
notch-85,true,1.00,646,280,640,271,37706,0
notch-86,true,1.00,931,271,922,263,52970,0
notch-87,true,1.00,2115,331,2111,323,120606,0
notch-88,true,1.00,2103,355,2096,346,121513,0
notch-89,true,1.00,1371,330,1366,321,79473,0
notch-90,true,1.00,1527,321,1522,313,88130,0
notch-91,true,1.00,2241,382,2235,374,128891,0
notch-92,true,1.00,1521,307,1513,299,87912,0
notch-93,true,1.00,1252,328,1244,320,70874,0
notch-94,true,1.00,1410,314,1404,306,80860,0
notch-95,true,1.00,844,282,839,274,46685,0
notch-96,true,1.00,771,288,755,280,44601,0
notch-97,true,1.00,1712,333,1703,325,96854,0
notch-98,true,1.00,1973,343,1964,334,113591,0
notch-99,true,1.00,2011,340,2006,330,120389,0
notch-100,true,1.00,1174,316,1165,308,67991,0
