NDW:0.0
TTFW:0.6
DFPT:2.0
DFPAP:3.0
DFPMP:20.0
RIGHT_WINDOW_BORDER_X:275.0
level,win/fail,% travelled,run time,game ticks,planning time,total plannings,nodes evaluated,most backtracked nodes
patternWeightCount-1,true,1.00,2876,406,2867,366,164606,0
patternWeightCount-2,true,1.00,619,346,610,321,34388,0
patternWeightCount-3,true,1.00,760,365,752,338,41824,0
patternWeightCount-4,true,1.00,879,346,869,321,48080,0
patternWeightCount-5,true,1.00,1671,414,1665,389,90477,0
patternWeightCount-6,true,1.00,1987,393,1982,367,112436,0
patternWeightCount-7,true,1.00,967,387,952,362,52066,0
patternWeightCount-8,true,1.00,829,377,822,352,42610,0
patternWeightCount-9,true,1.00,1031,372,1027,347,57672,0
patternWeightCount-10,true,1.00,1023,364,1017,339,55729,0
patternWeightCount-11,true,1.00,592,353,586,328,32018,0
patternWeightCount-12,true,1.00,1643,404,1634,379,89745,0
patternWeightCount-13,true,1.00,836,351,829,326,48403,0
patternWeightCount-14,true,1.00,1014,397,1003,366,56532,0
patternWeightCount-15,true,1.00,1426,398,1421,373,79457,0
patternWeightCount-16,true,1.00,2784,398,2779,361,161017,0
patternWeightCount-17,true,1.00,835,396,827,371,43338,0
patternWeightCount-18,true,1.00,1191,376,1186,351,67375,0
patternWeightCount-19,true,1.00,747,384,739,359,39658,0
patternWeightCount-20,true,1.00,6571,463,6563,425,350300,0
patternWeightCount-21,true,1.00,650,358,638,333,33173,0
patternWeightCount-22,true,1.00,2839,419,2826,393,156188,0
patternWeightCount-23,true,1.00,804,374,794,349,42456,0
patternWeightCount-24,true,1.00,1086,361,1074,335,61870,0
patternWeightCount-25,true,1.00,1568,411,1560,386,86016,0
patternWeightCount-26,true,1.00,1338,384,1330,359,73288,0
patternWeightCount-27,true,1.00,1961,390,1954,365,106744,0
patternWeightCount-28,true,1.00,1235,375,1225,350,67778,0
patternWeightCount-29,true,1.00,1024,370,1013,345,54808,0
patternWeightCount-30,true,1.00,3612,415,3605,372,195970,0
patternWeightCount-31,true,1.00,804,338,794,313,44814,0
patternWeightCount-32,true,1.00,866,359,855,334,46959,0
patternWeightCount-33,true,1.00,952,386,941,361,52850,0
patternWeightCount-34,true,1.00,1327,384,1322,359,73867,0
patternWeightCount-35,true,1.00,1957,424,1949,399,105710,0
patternWeightCount-36,true,1.00,1550,410,1541,385,84239,0
patternWeightCount-37,true,1.00,954,383,949,358,51139,0
patternWeightCount-38,true,1.00,2510,380,2505,349,132926,0
patternWeightCount-39,true,1.00,1059,354,1050,329,58054,0
patternWeightCount-40,true,1.00,1172,370,1166,345,66216,0
patternWeightCount-41,true,1.00,1344,382,1337,357,75175,0
patternWeightCount-42,true,1.00,1296,375,1284,350,71606,0
patternWeightCount-43,true,1.00,946,344,935,319,52342,0
patternWeightCount-44,true,1.00,1368,390,1357,357,75771,0
patternWeightCount-45,true,1.00,3691,505,3678,470,202942,0
patternWeightCount-46,true,1.00,4807,495,4800,458,247478,0
patternWeightCount-47,true,1.00,800,355,794,330,43524,0
patternWeightCount-48,true,1.00,755,344,745,319,40735,0
patternWeightCount-49,true,1.00,1154,368,1148,343,62229,0
patternWeightCount-50,true,1.00,923,365,912,340,50627,0
patternWeightCount-51,true,1.00,1034,375,1027,338,58407,0
patternWeightCount-52,true,1.00,1294,368,1284,332,70680,0
patternWeightCount-53,true,1.00,3795,459,3784,431,209276,0
patternWeightCount-54,true,1.00,879,360,870,335,48635,0
patternWeightCount-55,true,1.00,1198,369,1195,338,66047,0
patternWeightCount-56,true,1.00,1250,372,1236,347,69255,0
patternWeightCount-57,true,1.00,570,345,563,320,31476,0
patternWeightCount-58,true,1.00,963,349,958,324,54225,0
patternWeightCount-59,true,1.00,581,387,571,362,30808,0
patternWeightCount-60,true,1.00,1349,410,1342,378,73656,0
patternWeightCount-61,true,1.00,1223,374,1210,349,67587,0
patternWeightCount-62,true,1.00,1793,365,1789,331,103291,0
patternWeightCount-63,true,1.00,1035,385,1031,360,58251,0
patternWeightCount-64,true,1.00,1521,356,1515,331,86792,0
patternWeightCount-65,true,1.00,1489,389,1483,364,80778,0
patternWeightCount-66,true,1.00,1055,375,1050,350,57068,0
patternWeightCount-67,true,1.00,931,389,917,364,50167,0
patternWeightCount-68,true,1.00,520,355,511,329,27332,0
patternWeightCount-69,true,1.00,2016,389,2013,348,111485,0
patternWeightCount-70,true,1.00,1195,397,1186,365,63602,0
patternWeightCount-71,true,1.00,902,352,893,317,49828,0
patternWeightCount-72,true,1.00,5272,479,5266,454,275171,0
patternWeightCount-73,true,1.00,4843,497,4834,452,268699,0
patternWeightCount-74,true,1.00,871,378,866,353,48110,0
patternWeightCount-75,true,1.00,1000,373,997,348,54222,0
patternWeightCount-76,true,1.00,967,359,960,334,54183,0
patternWeightCount-77,true,1.00,1060,371,1049,346,59331,0
patternWeightCount-78,true,1.00,3069,495,3062,469,157068,0
patternWeightCount-79,true,1.00,1004,353,998,328,54429,0
patternWeightCount-80,true,1.00,1212,383,1207,358,67224,0
patternWeightCount-81,true,1.00,2935,404,2929,373,163215,0
patternWeightCount-82,true,1.00,327,333,319,308,16929,0
patternWeightCount-83,true,1.00,732,348,722,323,40365,0
patternWeightCount-84,true,1.00,877,371,866,346,47593,0
patternWeightCount-85,true,1.00,1268,355,1265,330,71622,0
patternWeightCount-86,false,0.94,4359,430,4349,430,223629,0
patternWeightCount-87,true,1.00,5212,427,5204,389,268915,0
patternWeightCount-88,true,1.00,1495,384,1484,358,72182,0
patternWeightCount-89,true,1.00,803,344,796,319,42958,0
patternWeightCount-90,true,1.00,5146,466,5140,439,265627,0
patternWeightCount-91,true,1.00,878,340,871,314,45714,0
patternWeightCount-92,true,1.00,3796,465,3786,422,204552,0
patternWeightCount-93,true,1.00,2841,385,2832,359,158437,0
patternWeightCount-94,true,1.00,1155,390,1149,365,61949,0
patternWeightCount-95,true,1.00,1357,358,1347,333,73989,0
patternWeightCount-96,true,1.00,959,387,950,362,50989,0
patternWeightCount-97,true,1.00,910,334,903,309,49953,0
patternWeightCount-98,true,1.00,4322,458,4317,411,245693,0
patternWeightCount-99,true,1.00,1449,405,1446,380,79413,0
patternWeightCount-100,true,1.00,961,352,952,327,53089,0
