NDW:0.0
TTFW:1.8
DFPT:2.0
DFPAP:3.0
DFPMP:2.0
RIGHT_WINDOW_BORDER_X:275.0
level,win/fail,% travelled,run time,game ticks,planning time,total plannings,nodes evaluated,most backtracked nodes
patternOccur-1,true,1.00,1157,522,1146,497,62274,0
patternOccur-2,true,1.00,1194,463,1180,438,62755,0
patternOccur-3,true,1.00,2500,503,2485,478,145088,0
patternOccur-4,true,1.00,2044,541,2037,516,116136,0
patternOccur-5,true,1.00,1095,491,1076,465,57308,0
patternOccur-6,true,1.00,2054,531,2043,506,113869,0
patternOccur-7,true,1.00,2315,546,2303,511,128629,0
patternOccur-8,true,1.00,2281,477,2268,452,132552,0
patternOccur-9,true,1.00,1879,515,1863,485,106568,0
patternOccur-10,true,1.00,1370,526,1356,495,74514,0
patternOccur-11,true,1.00,4632,543,4620,516,233814,0
patternOccur-12,true,1.00,2156,527,2144,492,125540,0
patternOccur-13,true,1.00,1033,480,1025,455,55292,0
patternOccur-14,true,1.00,3810,553,3800,482,212667,0
patternOccur-15,true,1.00,1630,477,1621,452,92309,0
patternOccur-16,true,1.00,4114,521,4102,489,215796,0
patternOccur-17,true,1.00,2092,562,2079,522,119535,0
patternOccur-18,true,1.00,1955,512,1938,487,104700,0
patternOccur-19,false,0.83,3380,455,3372,455,182443,0
patternOccur-20,true,1.00,1726,545,1710,520,94403,0
patternOccur-21,true,1.00,1409,487,1400,460,82626,0
patternOccur-22,false,0.84,3871,499,3857,499,214627,0
patternOccur-23,true,1.00,2245,512,2231,487,130804,0
patternOccur-24,true,1.00,1223,496,1208,465,66913,0
patternOccur-25,true,1.00,2154,492,2135,467,120781,0
patternOccur-26,true,1.00,1328,450,1317,425,77309,0
patternOccur-27,true,1.00,3555,508,3542,459,200334,0
patternOccur-28,true,1.00,1937,537,1920,510,111939,0
patternOccur-29,true,1.00,1077,437,1060,402,61887,0
patternOccur-30,true,1.00,1520,528,1502,503,85897,0
patternOccur-31,true,1.00,4785,535,4774,507,271915,0
patternOccur-32,true,1.00,4634,533,4618,493,249340,0
patternOccur-33,true,1.00,1348,538,1339,512,73546,0
patternOccur-34,true,1.00,1535,520,1521,485,84427,0
patternOccur-35,true,1.00,1209,494,1200,468,66226,0
patternOccur-36,true,1.00,2625,488,2615,445,150489,0
patternOccur-37,true,1.00,3169,518,3161,481,179052,0
patternOccur-38,true,1.00,1383,488,1370,463,77989,0
patternOccur-39,true,1.00,3168,497,3151,457,184138,0
patternOccur-40,true,1.00,2111,517,2100,491,123490,0
patternOccur-41,true,1.00,2041,516,2022,480,120057,0
patternOccur-42,false,0.89,4032,481,4025,481,214945,0
patternOccur-43,true,1.00,1785,494,1771,469,103440,0
patternOccur-44,true,1.00,1599,455,1590,430,92573,0
patternOccur-45,true,1.00,1816,473,1800,412,101027,0
patternOccur-46,true,1.00,1385,486,1371,461,77849,0
patternOccur-47,true,1.00,3649,499,3639,462,206873,0
patternOccur-48,true,1.00,1627,476,1623,451,93459,0
patternOccur-49,true,1.00,1700,511,1685,486,98362,0
patternOccur-50,true,1.00,2349,570,2333,543,130494,0
patternOccur-51,true,1.00,2223,563,2212,526,130221,0
patternOccur-52,true,1.00,2181,570,2168,533,123322,0
patternOccur-53,true,1.00,1740,505,1726,480,99325,0
patternOccur-54,true,1.00,2580,531,2573,497,156270,0
patternOccur-55,true,1.00,1991,452,1983,427,118607,0
patternOccur-56,true,1.00,1810,542,1796,517,107111,0
patternOccur-57,true,1.00,2314,524,2298,475,137364,0
patternOccur-58,true,1.00,6120,608,6103,553,353907,0
patternOccur-59,true,1.00,1748,495,1740,469,103810,0
patternOccur-60,true,1.00,3703,517,3689,471,205716,0
patternOccur-61,true,1.00,1878,523,1870,487,108554,0
patternOccur-62,true,1.00,1724,481,1713,456,99017,0
patternOccur-63,true,1.00,1762,485,1755,448,103391,0
patternOccur-64,true,1.00,2095,561,2080,523,123801,0
patternOccur-65,true,1.00,1173,494,1166,469,65257,0
patternOccur-66,true,1.00,1576,466,1569,441,87165,0
patternOccur-67,false,0.88,3406,473,3402,473,182695,0
patternOccur-68,true,1.00,1235,519,1220,494,66591,0
patternOccur-69,true,1.00,4079,543,4067,507,210772,0
patternOccur-70,true,1.00,4769,494,4761,465,257666,0
patternOccur-71,true,1.00,2244,559,2225,534,132076,0
patternOccur-72,false,0.87,3191,482,3183,482,164010,0
patternOccur-73,true,1.00,3926,568,3912,531,215128,0
patternOccur-74,true,1.00,3122,491,3112,444,173779,0
patternOccur-75,true,1.00,2246,492,2235,467,128548,0
patternOccur-76,true,1.00,2755,544,2747,519,163520,0
patternOccur-77,true,1.00,1455,492,1442,467,82398,0
patternOccur-78,true,1.00,1187,423,1176,398,67497,0
patternOccur-79,true,1.00,1926,553,1911,528,112378,0
patternOccur-80,true,1.00,3108,563,3098,526,175116,0
patternOccur-81,true,1.00,4580,533,4568,489,247779,0
patternOccur-82,true,1.00,2460,522,2452,497,140539,0
patternOccur-83,false,0.82,3193,467,3176,467,167564,0
patternOccur-84,true,1.00,1527,497,1513,472,86128,0
patternOccur-85,true,1.00,2439,462,2424,437,140226,0
patternOccur-86,true,1.00,4617,489,4612,457,240891,0
patternOccur-87,true,1.00,1496,517,1486,483,87395,0
patternOccur-88,true,1.00,1905,487,1889,462,113316,0
patternOccur-89,true,1.00,1515,508,1500,483,85603,0
patternOccur-90,true,1.00,1788,549,1772,503,102161,0
patternOccur-91,true,1.00,1382,489,1368,453,77118,0
patternOccur-92,true,1.00,1438,454,1425,429,84596,0
patternOccur-93,true,1.00,1753,504,1747,478,100628,0
patternOccur-94,true,1.00,3698,504,3687,469,199658,0
patternOccur-95,true,1.00,1728,496,1714,471,99985,0
patternOccur-96,false,0.87,2997,498,2984,498,161967,0
patternOccur-97,true,1.00,1689,444,1678,419,94669,0
patternOccur-98,false,0.90,2743,458,2730,458,144929,0
patternOccur-99,true,1.00,875,486,857,461,47235,0
patternOccur-100,true,1.00,1777,474,1768,449,101479,0
