NDW:0.0
TTFW:0.6
DFPT:2.0
DFPAP:3.0
DFPMP:2.0
RIGHT_WINDOW_BORDER_X:215.0
level,win/fail,% travelled,run time,game ticks,planning time,total plannings,nodes evaluated,most backtracked nodes
patternWeightCount-1,true,1.00,3066,435,3061,403,151933,0
patternWeightCount-2,true,1.00,863,352,856,333,41954,0
patternWeightCount-3,true,1.00,783,395,777,375,36531,0
patternWeightCount-4,true,1.00,752,337,740,318,35925,0
patternWeightCount-5,true,1.00,1483,408,1473,387,71001,0
patternWeightCount-6,true,1.00,1520,394,1505,374,74859,0
patternWeightCount-7,true,1.00,1052,378,1039,359,50906,0
patternWeightCount-8,true,1.00,769,394,759,375,34348,0
patternWeightCount-9,true,1.00,1240,400,1232,381,60479,0
patternWeightCount-10,true,1.00,924,377,913,356,44922,0
patternWeightCount-11,true,1.00,562,370,553,351,26933,0
patternWeightCount-12,true,1.00,1143,400,1134,381,54438,0
patternWeightCount-13,true,1.00,834,342,825,323,42286,0
patternWeightCount-14,true,1.00,1148,416,1139,395,55784,0
patternWeightCount-15,true,1.00,1608,391,1602,372,79651,0
patternWeightCount-16,true,1.00,2689,417,2680,394,138189,0
patternWeightCount-17,true,1.00,867,413,849,394,41849,0
patternWeightCount-18,true,1.00,967,384,960,365,47536,0
patternWeightCount-19,true,1.00,531,366,524,347,25102,0
patternWeightCount-20,false,0.62,4074,314,4071,314,182912,0
patternWeightCount-21,true,1.00,581,387,570,368,27228,0
patternWeightCount-22,true,1.00,2880,484,2863,447,142037,0
patternWeightCount-23,true,1.00,1244,408,1232,385,61677,0
patternWeightCount-24,true,1.00,1051,348,1040,329,52574,0
patternWeightCount-25,true,1.00,1717,412,1707,393,84632,0
patternWeightCount-26,true,1.00,1406,413,1395,394,70339,0
patternWeightCount-27,true,1.00,1865,399,1854,371,92775,0
patternWeightCount-28,true,1.00,1120,382,1114,363,55370,0
patternWeightCount-29,true,1.00,1232,380,1219,360,60737,0
patternWeightCount-30,true,1.00,3026,406,3017,379,151298,0
patternWeightCount-31,true,1.00,1306,393,1294,374,59671,0
patternWeightCount-32,true,1.00,717,362,705,342,35478,0
patternWeightCount-33,true,1.00,983,402,971,383,49287,0
patternWeightCount-34,true,1.00,1393,386,1387,367,70897,0
patternWeightCount-35,true,1.00,1914,413,1899,394,91943,0
patternWeightCount-36,true,1.00,1279,395,1272,376,64371,0
patternWeightCount-37,true,1.00,717,342,712,323,34647,0
patternWeightCount-38,true,1.00,2570,397,2561,357,121113,0
patternWeightCount-39,true,1.00,1223,374,1212,355,61038,0
patternWeightCount-40,true,1.00,1713,424,1704,405,86506,0
patternWeightCount-41,true,1.00,1487,400,1475,381,75403,0
patternWeightCount-42,false,0.87,2810,370,2805,370,139126,0
patternWeightCount-43,true,1.00,908,342,901,323,46368,0
patternWeightCount-44,true,1.00,1628,427,1621,387,80194,0
patternWeightCount-45,true,1.00,3295,465,3284,425,167778,0
patternWeightCount-46,true,1.00,5176,504,5166,461,247583,0
patternWeightCount-47,true,1.00,743,378,733,359,35814,0
patternWeightCount-48,true,1.00,765,356,755,337,38675,0
patternWeightCount-49,true,1.00,854,350,845,331,41790,0
patternWeightCount-50,true,1.00,857,374,848,355,42579,0
patternWeightCount-51,true,1.00,1025,373,1017,342,52904,0
patternWeightCount-52,true,1.00,1362,394,1345,361,69365,0
patternWeightCount-53,true,1.00,3440,447,3430,426,171920,0
patternWeightCount-54,true,1.00,746,385,733,366,37401,0
patternWeightCount-55,true,1.00,1028,363,1020,340,52695,0
patternWeightCount-56,true,1.00,1137,381,1132,362,58056,0
patternWeightCount-57,true,1.00,580,338,572,319,29308,0
patternWeightCount-58,true,1.00,1028,356,1020,337,52660,0
patternWeightCount-59,true,1.00,671,364,663,345,33223,0
patternWeightCount-60,true,1.00,1520,434,1514,414,76006,0
patternWeightCount-61,true,1.00,908,360,898,340,46529,0
patternWeightCount-62,true,1.00,2039,383,2028,347,107004,0
patternWeightCount-63,true,1.00,1481,390,1466,371,75477,0
patternWeightCount-64,true,1.00,1521,368,1511,349,78663,0
patternWeightCount-65,true,1.00,1785,395,1773,376,87794,0
patternWeightCount-66,true,1.00,1038,404,1025,384,50713,0
patternWeightCount-67,true,1.00,998,399,986,380,47907,0
patternWeightCount-68,true,1.00,602,365,596,346,29873,0
patternWeightCount-69,true,1.00,2187,395,2180,363,109917,0
patternWeightCount-70,true,1.00,1130,384,1124,358,56537,0
patternWeightCount-71,true,1.00,868,359,857,338,43076,0
patternWeightCount-72,true,1.00,6481,493,6470,469,308172,0
patternWeightCount-73,true,1.00,5292,446,5284,420,271496,0
patternWeightCount-74,true,1.00,873,374,865,355,43863,0
patternWeightCount-75,true,1.00,1101,386,1097,367,54623,0
patternWeightCount-76,true,1.00,1353,399,1339,380,70393,0
patternWeightCount-77,true,1.00,984,395,969,376,49776,0
patternWeightCount-78,true,1.00,1971,412,1961,389,95983,0
patternWeightCount-79,true,1.00,767,364,757,345,38033,0
patternWeightCount-80,true,1.00,1661,396,1654,377,84165,0
patternWeightCount-81,true,1.00,3850,416,3843,397,189954,0
patternWeightCount-82,true,1.00,331,338,325,317,15701,0
patternWeightCount-83,true,1.00,997,382,984,363,49972,0
patternWeightCount-84,true,1.00,830,385,818,366,39468,0
patternWeightCount-85,true,1.00,1322,385,1316,365,68218,0
patternWeightCount-86,false,0.94,3062,386,3054,386,153684,0
patternWeightCount-87,true,1.00,4664,426,4658,398,226826,0
patternWeightCount-88,true,1.00,1711,419,1707,400,84695,0
patternWeightCount-89,true,1.00,987,374,976,355,49764,0
patternWeightCount-90,true,1.00,4722,457,4710,425,237476,0
patternWeightCount-91,true,1.00,1036,377,1028,357,51907,0
patternWeightCount-92,true,1.00,3194,407,3187,370,164707,0
patternWeightCount-93,true,1.00,2359,377,2351,346,118503,0
patternWeightCount-94,true,1.00,2014,402,2003,383,100668,0
patternWeightCount-95,true,1.00,1268,371,1255,352,61843,0
patternWeightCount-96,true,1.00,812,396,801,377,39696,0
patternWeightCount-97,true,1.00,1039,352,1029,333,52025,0
patternWeightCount-98,true,1.00,6462,538,6453,512,311020,0
patternWeightCount-99,true,1.00,1659,433,1653,413,82804,0
patternWeightCount-100,true,1.00,958,386,944,367,46565,0
