NDW:0.0
TTFW:0.8
DFPT:2.0
DFPAP:3.0
DFPMP:10.0
RIGHT_WINDOW_BORDER_X:235.0
level,win/fail,% travelled,run time,game ticks,planning time,total plannings,nodes evaluated,most backtracked nodes
notchParam-1,true,1.00,928,312,926,291,87596,0
notchParam-2,true,1.00,843,306,842,285,78599,0
notchParam-3,true,1.00,619,310,616,289,62421,0
notchParam-4,true,1.00,552,314,551,293,53541,0
notchParam-5,true,1.00,625,318,622,296,63460,0
notchParam-6,true,1.00,654,324,652,303,64389,0
notchParam-7,true,1.00,774,310,771,289,77008,0
notchParam-8,true,1.00,1075,314,1073,293,105981,0
notchParam-9,true,1.00,621,331,619,310,59105,0
notchParam-10,true,1.00,1083,320,1081,299,104045,0
notchParam-11,true,1.00,546,314,546,293,54224,0
notchParam-12,true,1.00,1094,329,1094,308,107440,0
notchParam-13,true,1.00,234,314,232,293,25921,0
notchParam-14,true,1.00,231,304,230,283,25882,0
notchParam-15,true,1.00,790,296,787,275,80919,0
notchParam-16,true,1.00,827,305,826,284,86785,0
notchParam-17,true,1.00,768,302,767,281,76978,0
notchParam-18,true,1.00,297,328,295,307,30642,0
notchParam-19,true,1.00,254,309,251,288,27476,0
notchParam-20,true,1.00,227,306,220,285,25468,0
notchParam-21,true,1.00,232,298,231,277,26317,0
notchParam-22,true,1.00,241,316,240,295,26645,0
notchParam-23,true,1.00,1153,338,1153,317,110182,0
notchParam-24,true,1.00,1006,318,1001,297,100506,0
notchParam-25,true,1.00,1051,316,1049,295,101139,0
notchParam-26,true,1.00,1118,328,1117,307,108766,0
notchParam-27,true,1.00,228,320,225,299,25385,0
notchParam-28,true,1.00,566,323,562,302,55784,0
notchParam-29,true,1.00,614,321,610,300,60849,0
notchParam-30,true,1.00,227,308,225,287,24768,0
notchParam-31,true,1.00,768,310,765,289,79803,0
notchParam-32,true,1.00,787,308,786,287,79262,0
notchParam-33,true,1.00,234,300,234,279,26505,0
notchParam-34,true,1.00,879,316,876,295,83487,0
notchParam-35,true,1.00,1323,353,1321,332,117060,0
notchParam-36,true,1.00,766,302,764,281,79021,0
notchParam-37,true,1.00,234,300,232,279,26286,0
notchParam-38,true,1.00,233,306,230,285,26768,0
notchParam-39,true,1.00,763,304,763,283,74191,0
notchParam-40,true,1.00,519,310,515,289,51091,0
notchParam-41,true,1.00,563,321,558,300,55992,0
notchParam-42,true,1.00,236,312,232,291,26252,0
notchParam-43,true,1.00,1151,328,1145,307,110338,0
notchParam-44,true,1.00,1124,322,1123,301,112636,0
notchParam-45,true,1.00,1037,327,1035,297,106391,0
notchParam-46,true,1.00,1103,318,1102,297,104353,0
notchParam-47,true,1.00,234,304,233,283,27785,0
notchParam-48,true,1.00,263,315,261,294,27607,0
notchParam-49,true,1.00,234,318,231,290,25770,0
notchParam-50,true,1.00,492,344,489,323,42590,0
notchParam-51,true,1.00,225,306,220,285,24992,0
notchParam-52,true,1.00,790,306,789,285,83653,0
notchParam-53,true,1.00,1094,341,1093,320,112189,0
notchParam-54,true,1.00,773,302,772,281,77010,0
notchParam-55,true,1.00,309,317,307,296,31746,0
notchParam-56,true,1.00,232,304,230,283,26021,0
notchParam-57,true,1.00,1206,324,1204,303,119369,0
notchParam-58,true,1.00,562,329,559,308,53700,0
notchParam-59,true,1.00,1150,335,1149,314,112043,0
notchParam-60,true,1.00,611,343,609,322,57559,0
notchParam-61,true,1.00,1188,352,1185,331,115061,0
notchParam-62,true,1.00,794,304,793,283,77544,0
notchParam-63,true,1.00,531,322,529,301,52945,0
notchParam-64,true,1.00,585,324,583,303,59941,0
notchParam-65,true,1.00,579,318,578,297,57025,0
notchParam-66,true,1.00,703,336,702,315,66822,0
notchParam-67,true,1.00,917,317,915,296,93612,0
notchParam-68,true,1.00,926,324,924,302,85555,0
notchParam-69,true,1.00,821,300,819,279,76927,0
notchParam-70,true,1.00,1039,324,1037,303,97975,0
notchParam-71,true,1.00,667,349,662,319,66736,0
notchParam-72,true,1.00,539,331,536,309,54176,0
notchParam-73,true,1.00,561,308,560,287,56172,0
notchParam-74,true,1.00,624,329,624,308,60316,0
notchParam-75,true,1.00,593,315,590,294,61768,0
notchParam-76,true,1.00,1122,332,1116,311,110244,0
notchParam-77,true,1.00,593,315,590,294,59908,0
notchParam-78,true,1.00,1137,318,1135,297,111102,0
notchParam-79,true,1.00,579,320,574,299,57584,0
notchParam-80,true,1.00,314,318,312,297,34100,0
notchParam-81,true,1.00,552,330,551,309,55816,0
notchParam-82,true,1.00,239,305,235,284,26927,0
notchParam-83,true,1.00,236,306,235,285,27024,0
notchParam-84,true,1.00,850,308,849,287,82164,0
notchParam-85,true,1.00,948,325,947,304,89961,0
notchParam-86,true,1.00,1108,316,1104,295,108182,0
notchParam-87,true,1.00,223,314,219,293,25210,0
notchParam-88,true,1.00,296,310,294,289,31430,0
notchParam-89,true,1.00,233,306,232,285,26327,0
notchParam-90,true,1.00,229,300,226,279,25989,0
notchParam-91,true,1.00,1145,328,1145,307,106467,0
notchParam-92,true,1.00,1069,310,1069,289,101069,0
notchParam-93,true,1.00,1024,324,1021,303,99801,0
notchParam-94,true,1.00,1080,332,1079,311,105587,0
notchParam-95,true,1.00,1131,365,1128,344,107057,0
notchParam-96,true,1.00,554,312,548,291,58554,0
notchParam-97,true,1.00,583,312,582,291,55763,0
notchParam-98,true,1.00,237,308,233,287,26658,0
notchParam-99,true,1.00,778,302,777,281,78156,0
notchParam-100,true,1.00,766,304,765,283,79462,0
