NDW:0.0
TTFW:0.8
DFPT:2.0
DFPAP:3.0
DFPMP:10.0
RIGHT_WINDOW_BORDER_X:115.0
level,win/fail,% travelled,run time,game ticks,planning time,total plannings,nodes evaluated,most backtracked nodes
patternOccur-1,true,1.00,1397,472,1385,462,84336,0
patternOccur-2,true,1.00,1171,477,1156,467,70378,0
patternOccur-3,true,1.00,2942,512,2930,502,176340,0
patternOccur-4,true,1.00,3400,546,3391,536,206824,0
patternOccur-5,true,1.00,1623,481,1609,471,97751,0
patternOccur-6,true,1.00,2195,468,2187,458,126762,0
patternOccur-7,true,1.00,1604,500,1596,489,97287,0
patternOccur-8,true,1.00,2313,485,2302,475,140961,0
patternOccur-9,true,1.00,1821,483,1809,473,110589,0
patternOccur-10,true,1.00,1371,453,1363,443,86382,0
patternOccur-11,false,0.85,5516,503,5501,503,317758,0
patternOccur-12,true,1.00,1582,472,1571,462,97657,0
patternOccur-13,true,1.00,2579,512,2565,502,159235,0
patternOccur-14,true,1.00,7111,608,7099,596,410382,0
patternOccur-15,true,1.00,1577,460,1567,450,94405,0
patternOccur-16,false,0.92,4212,500,4203,500,232748,0
patternOccur-17,true,1.00,1650,411,1639,401,98580,0
patternOccur-18,true,1.00,1074,418,1065,408,63729,0
patternOccur-19,false,0.82,6602,578,6597,578,415427,0
patternOccur-20,true,1.00,2699,497,2689,487,166551,0
patternOccur-21,true,1.00,2332,512,2325,502,143495,0
patternOccur-22,false,0.83,3598,475,3589,475,215584,0
patternOccur-23,true,1.00,2491,500,2482,490,149340,0
patternOccur-24,true,1.00,1186,489,1174,479,72956,0
patternOccur-25,true,1.00,1370,441,1357,431,81455,0
patternOccur-26,true,1.00,694,408,685,398,41907,0
patternOccur-27,false,0.96,19054,999,19043,999,1006768,0
patternOccur-28,true,1.00,2202,519,2190,509,132208,0
patternOccur-29,true,1.00,1171,360,1163,346,71834,0
patternOccur-30,true,1.00,1200,495,1186,485,73726,0
patternOccur-31,false,0.77,4688,441,4684,441,274469,0
patternOccur-32,false,0.92,7935,629,7927,629,467800,0
patternOccur-33,true,1.00,2008,476,1991,466,121433,0
patternOccur-34,true,1.00,1732,485,1715,474,105084,0
patternOccur-35,true,1.00,2497,518,2492,508,151132,0
patternOccur-36,false,0.93,6214,595,6200,595,355813,0
patternOccur-37,false,0.89,5446,520,5439,520,317735,0
patternOccur-38,true,1.00,1326,423,1316,413,83166,0
patternOccur-39,false,0.79,5439,513,5429,513,324851,0
patternOccur-40,true,1.00,2191,469,2180,459,134223,0
patternOccur-41,true,1.00,2774,552,2764,530,165310,0
patternOccur-42,false,0.88,4371,495,4366,495,257733,0
patternOccur-43,true,1.00,1751,474,1742,464,108502,0
patternOccur-44,true,1.00,5118,567,5109,557,310502,0
patternOccur-45,false,0.93,5519,573,5506,573,322224,0
patternOccur-46,true,1.00,1364,468,1354,458,82726,0
patternOccur-47,false,0.94,7797,658,7784,658,460733,0
patternOccur-48,true,1.00,2168,476,2156,466,134335,0
patternOccur-49,true,1.00,935,419,929,409,56725,0
patternOccur-50,true,1.00,1814,425,1804,415,108810,0
patternOccur-51,true,1.00,1783,516,1775,506,108626,0
patternOccur-52,true,1.00,2427,514,2419,502,147238,0
patternOccur-53,true,1.00,2536,475,2524,465,147665,0
patternOccur-54,true,1.00,4869,639,4853,627,300100,0
patternOccur-55,true,1.00,1579,440,1569,430,96806,0
patternOccur-56,true,1.00,2618,538,2607,528,155931,0
patternOccur-57,true,1.00,3934,550,3924,539,233434,0
patternOccur-58,false,0.92,9152,645,9141,645,509242,0
patternOccur-59,true,1.00,2340,483,2328,473,142869,0
patternOccur-60,true,1.00,7066,625,7056,602,399733,0
patternOccur-61,true,1.00,2870,492,2861,482,176415,0
patternOccur-62,true,1.00,1345,455,1338,445,81852,0
patternOccur-63,true,1.00,1260,445,1250,434,78591,0
patternOccur-64,true,1.00,1983,489,1976,477,121237,0
patternOccur-65,true,1.00,900,418,891,408,55613,0
patternOccur-66,true,1.00,2529,513,2520,503,155752,0
patternOccur-67,true,1.00,1555,478,1547,468,95438,0
patternOccur-68,true,1.00,1014,486,1006,476,61181,0
patternOccur-69,false,0.85,4625,487,4615,487,269363,0
patternOccur-70,false,0.86,20751,999,20737,999,1268775,0
patternOccur-71,true,1.00,3180,515,3168,505,198700,0
patternOccur-72,false,0.85,20745,999,20736,999,1114248,0
patternOccur-73,true,1.00,7573,605,7562,589,433219,0
patternOccur-74,true,1.00,6631,614,6624,595,376982,0
patternOccur-75,false,0.97,3088,527,3079,527,180994,0
patternOccur-76,true,1.00,2106,508,2097,498,128701,0
patternOccur-77,true,1.00,1216,423,1207,413,74121,0
patternOccur-78,true,1.00,1253,430,1241,420,76495,0
patternOccur-79,true,1.00,2162,521,2152,511,131892,0
patternOccur-80,false,0.89,5397,516,5387,516,323147,0
patternOccur-81,false,0.88,5728,514,5722,514,339273,0
patternOccur-82,false,0.96,7101,630,7088,630,405250,0
patternOccur-83,false,0.82,5135,506,5126,506,290045,0
patternOccur-84,true,1.00,1627,445,1618,435,97151,0
patternOccur-85,false,0.92,4683,509,4673,509,274514,0
patternOccur-86,false,0.91,5386,521,5380,521,313821,0
patternOccur-87,true,1.00,1171,461,1162,451,72946,0
patternOccur-88,true,1.00,2264,493,2252,483,140699,0
patternOccur-89,true,1.00,1592,519,1580,509,97104,0
patternOccur-90,true,1.00,3049,536,3040,525,189309,0
patternOccur-91,true,1.00,1388,413,1376,403,85291,0
patternOccur-92,true,1.00,976,417,968,407,59288,0
patternOccur-93,true,1.00,1669,476,1660,466,100247,0
patternOccur-94,false,0.84,4419,467,4409,467,262301,0
patternOccur-95,true,1.00,1870,508,1859,498,117187,0
patternOccur-96,false,0.86,6204,564,6195,564,329728,0
patternOccur-97,true,1.00,3444,527,3430,517,212919,0
patternOccur-98,false,0.90,7529,587,7516,587,446120,0
patternOccur-99,true,1.00,838,400,835,390,51846,0
patternOccur-100,true,1.00,2120,489,2112,479,123745,0
