NDW:0.0
TTFW:2.0
DFPT:2.0
DFPAP:3.0
DFPMP:0.0
RIGHT_WINDOW_BORDER_X:135.0
level,win/fail,% travelled,run time,game ticks,planning time,total plannings,nodes evaluated,most backtracked nodes
Krys-1,false,0.38,28699,999,28689,999,966318,0
Krys-2,false,0.79,22646,999,22613,999,726836,0
Krys-3,true,1.00,7886,571,7807,549,344852,0
Krys-4,true,1.00,4092,530,4074,514,177916,0
Krys-5,true,1.00,4433,458,4422,436,224927,0
Krys-6,true,1.00,1698,432,1683,415,81057,0
Krys-7,true,1.00,415,395,394,374,15519,0
Krys-8,true,1.00,2045,493,2026,468,107116,0
Krys-9,true,1.00,3356,425,3347,402,180468,0
Krys-10,false,0.28,28603,999,28599,999,1031250,0
Krys-11,true,1.00,214,425,200,401,9046,0
Krys-12,false,0.54,1251,237,1244,237,50555,0
Krys-13,true,1.00,4492,496,4475,474,226707,0
Krys-14,false,0.79,23906,999,23839,999,812910,0
Krys-15,true,1.00,4925,491,4911,469,261594,0
Krys-16,false,0.69,22438,999,22422,999,785303,0
Krys-17,true,1.00,1893,444,1879,422,93361,0
Krys-18,true,1.00,1885,502,1862,480,99712,0
Krys-19,true,1.00,3950,451,3934,429,204604,0
Krys-20,true,1.00,3622,591,3611,566,176480,0
Krys-21,true,1.00,2287,409,2278,388,127829,0
Krys-22,true,1.00,3067,409,3047,378,164402,0
Krys-23,true,1.00,1737,496,1726,468,81759,0
Krys-24,false,0.70,24319,999,24307,999,848366,0
Krys-25,true,1.00,2457,428,2445,400,110346,0
Krys-26,true,1.00,3683,376,3675,354,190584,0
Krys-27,true,1.00,1799,392,1786,366,80086,0
Krys-28,true,1.00,5563,569,5539,538,239596,0
Krys-29,true,1.00,1496,485,1478,467,58972,0
Krys-30,true,1.00,2240,553,2228,526,86836,0
Krys-31,true,1.00,1288,492,1268,467,64145,0
Krys-32,true,1.00,489,435,474,423,20464,0
Krys-33,true,1.00,452,383,436,358,18911,0
Krys-34,true,1.00,2159,410,2147,398,90460,0
Krys-35,true,1.00,3962,419,3956,389,186468,0
Krys-36,false,0.28,29509,999,29503,999,1026697,0
Krys-37,true,1.00,5536,509,5524,491,269762,0
Krys-38,true,1.00,5624,518,5601,487,279059,0
Krys-39,true,1.00,5774,528,5754,508,261235,0
Krys-40,true,1.00,4182,463,4175,448,203177,0
Krys-41,false,0.70,25435,999,25421,999,890620,0
Krys-42,true,1.00,4140,537,4127,515,222420,0
Krys-43,true,1.00,2731,398,2721,373,147756,0
Krys-44,false,0.65,1543,285,1533,285,82536,0
Krys-45,true,1.00,943,490,930,469,37389,0
Krys-46,true,1.00,2543,532,2530,507,112261,0
Krys-47,true,1.00,868,470,855,448,42944,0
Krys-48,true,1.00,3704,437,3690,416,191050,0
Krys-49,true,1.00,959,392,944,370,47215,0
Krys-50,true,1.00,5435,526,5423,501,259105,0
Krys-51,true,1.00,4496,473,4487,448,234714,0
Krys-52,true,1.00,1582,498,1564,473,68916,0
Krys-53,true,1.00,2129,446,2118,425,88898,0
Krys-54,true,1.00,3852,529,3837,504,191111,0
Krys-55,true,1.00,3268,524,3260,498,156868,0
Krys-56,false,0.59,24695,999,24684,999,858077,0
Krys-57,true,1.00,1686,378,1672,353,82939,0
Krys-58,true,1.00,3846,489,3822,477,170128,0
Krys-59,false,0.89,19982,999,19948,999,684935,0
Krys-60,true,1.00,3124,441,3115,421,148558,0
Krys-61,false,0.48,26533,999,26524,999,865739,0
Krys-62,true,1.00,1050,480,1042,456,39753,0
Krys-63,true,1.00,4706,612,4689,586,204065,0
Krys-64,true,1.00,2014,497,1997,483,93357,0
Krys-65,true,1.00,2969,530,2952,514,127608,0
Krys-66,true,1.00,3092,577,3073,549,136382,0
Krys-67,true,1.00,2300,553,2286,531,105581,0
Krys-68,true,1.00,4551,479,4536,457,220723,0
Krys-69,true,1.00,8126,718,8103,696,311626,0
Krys-70,true,1.00,4221,498,4202,472,194574,0
Krys-71,true,1.00,3645,422,3636,400,196214,0
Krys-72,true,1.00,1205,564,1183,544,57462,0
Krys-73,false,0.80,21061,999,21039,999,731916,0
Krys-74,true,1.00,2621,519,2608,497,123833,0
Krys-75,true,1.00,321,436,312,405,13955,0
Krys-76,true,1.00,3491,406,3484,390,176799,0
Krys-77,true,1.00,1808,424,1794,396,99711,0
Krys-78,false,0.91,22003,999,21984,999,859021,0
Krys-79,true,1.00,829,440,810,415,36969,0
Krys-80,true,1.00,509,417,498,396,22048,0
Krys-81,true,1.00,1312,444,1299,422,67627,0
Krys-82,true,1.00,978,417,959,395,40248,0
Krys-83,true,1.00,4140,475,4123,452,186416,0
Krys-84,true,1.00,379,388,364,366,16897,0
Krys-85,true,1.00,3362,577,3343,546,149405,0
Krys-86,true,1.00,1757,416,1742,395,72555,0
Krys-87,true,1.00,567,374,550,362,21640,0
Krys-88,true,1.00,1667,431,1655,410,73544,0
Krys-89,true,1.00,1923,428,1911,415,88657,0
Krys-90,true,1.00,5655,460,5645,442,260277,0
Krys-91,true,1.00,351,411,323,398,14980,0
Krys-92,false,0.62,2488,374,2468,374,103789,0
Krys-93,true,1.00,2954,427,2950,400,140532,0
Krys-94,true,1.00,1918,423,1903,401,86038,0
Krys-95,true,1.00,1469,435,1457,408,64955,0
Krys-96,true,1.00,4107,478,4096,456,201078,0
Krys-97,true,1.00,1731,431,1709,409,81056,0
Krys-98,true,1.00,4519,625,4506,605,188328,0
Krys-99,true,1.00,1310,502,1293,471,51642,0
Krys-100,true,1.00,3379,402,3371,380,176704,0
