NDW:0.0
TTFW:0.6
DFPT:2.0
DFPAP:3.0
DFPMP:0.0
RIGHT_WINDOW_BORDER_X:255.0
level,win/fail,% travelled,run time,game ticks,planning time,total plannings,nodes evaluated,most backtracked nodes
patternOccur-1,true,1.00,1524,425,1516,402,74590,0
patternOccur-2,true,1.00,1274,406,1266,383,64853,0
patternOccur-3,true,1.00,2580,421,2572,398,133564,0
patternOccur-4,true,1.00,1353,386,1342,363,71239,0
patternOccur-5,true,1.00,840,370,833,347,43162,0
patternOccur-6,true,1.00,1734,436,1727,413,87811,0
patternOccur-7,true,1.00,1465,420,1457,395,76811,0
patternOccur-8,true,1.00,1456,380,1448,357,75498,0
patternOccur-9,true,1.00,1914,418,1905,395,98222,0
patternOccur-10,true,1.00,1012,389,1003,366,53028,0
patternOccur-11,true,1.00,4188,452,4178,427,210605,0
patternOccur-12,true,1.00,1657,426,1651,397,84785,0
patternOccur-13,true,1.00,1148,414,1136,391,58881,0
patternOccur-14,true,1.00,3627,390,3621,364,187952,0
patternOccur-15,true,1.00,1315,344,1306,321,68185,0
patternOccur-16,true,1.00,5724,474,5723,451,285360,0
patternOccur-17,true,1.00,1438,394,1432,371,73418,0
patternOccur-18,true,1.00,1209,385,1200,357,61211,0
patternOccur-19,false,0.83,6023,473,6012,473,282489,0
patternOccur-20,true,1.00,973,356,962,333,51110,0
patternOccur-21,true,1.00,1173,428,1164,403,59111,0
patternOccur-22,false,0.84,2892,391,2885,391,146968,0
patternOccur-23,true,1.00,1601,391,1594,368,80460,0
patternOccur-24,true,1.00,1454,400,1446,377,72736,0
patternOccur-25,true,1.00,1618,426,1602,403,83536,0
patternOccur-26,true,1.00,815,346,805,323,41749,0
patternOccur-27,true,1.00,3472,448,3465,392,178270,0
patternOccur-28,true,1.00,1501,404,1492,380,77559,0
patternOccur-29,true,1.00,929,370,917,343,47645,0
patternOccur-30,true,1.00,979,373,973,350,49773,0
patternOccur-31,true,1.00,4031,437,4026,407,209864,0
patternOccur-32,true,1.00,3533,416,3526,392,178622,0
patternOccur-33,true,1.00,1260,378,1251,355,64791,0
patternOccur-34,true,1.00,1480,397,1470,374,78131,0
patternOccur-35,true,1.00,971,366,962,343,49467,0
patternOccur-36,true,1.00,2804,415,2796,382,146046,0
patternOccur-37,true,1.00,3957,494,3944,430,196814,0
patternOccur-38,true,1.00,1224,385,1213,362,62805,0
patternOccur-39,true,1.00,2803,439,2792,416,143671,0
patternOccur-40,true,1.00,2116,394,2111,371,109980,0
patternOccur-41,true,1.00,1526,418,1517,384,76122,0
patternOccur-42,false,0.89,3206,405,3194,405,161575,0
patternOccur-43,true,1.00,948,344,940,321,49769,0
patternOccur-44,true,1.00,1364,384,1351,361,71796,0
patternOccur-45,true,1.00,1748,383,1742,349,87467,0
patternOccur-46,true,1.00,1161,364,1151,341,59017,0
patternOccur-47,true,1.00,2689,416,2683,381,140049,0
patternOccur-48,true,1.00,1156,364,1150,341,58339,0
patternOccur-49,true,1.00,1178,379,1169,356,59155,0
patternOccur-50,true,1.00,1965,391,1958,367,96366,0
patternOccur-51,true,1.00,1287,361,1280,337,66443,0
patternOccur-52,true,1.00,1397,399,1389,376,70348,0
patternOccur-53,true,1.00,1439,374,1429,351,71567,0
patternOccur-54,true,1.00,1987,397,1979,369,101787,0
patternOccur-55,true,1.00,1983,437,1973,414,98777,0
patternOccur-56,true,1.00,1495,398,1484,375,76549,0
patternOccur-57,true,1.00,1641,403,1629,378,81372,0
patternOccur-58,true,1.00,6207,509,6202,462,307420,0
patternOccur-59,true,1.00,1556,380,1540,357,78705,0
patternOccur-60,true,1.00,2620,399,2614,364,132498,0
patternOccur-61,true,1.00,1459,385,1443,360,76211,0
patternOccur-62,true,1.00,1474,385,1468,362,72892,0
patternOccur-63,true,1.00,1334,392,1323,369,67140,0
patternOccur-64,true,1.00,1726,373,1719,348,87873,0
patternOccur-65,true,1.00,905,378,902,355,45996,0
patternOccur-66,true,1.00,1264,388,1249,365,65317,0
patternOccur-67,true,1.00,1646,415,1637,392,88172,0
patternOccur-68,true,1.00,1100,389,1085,366,56392,0
patternOccur-69,true,1.00,6349,520,6338,496,306431,0
patternOccur-70,true,1.00,4629,460,4618,421,226444,0
patternOccur-71,true,1.00,2369,416,2362,393,121620,0
patternOccur-72,false,0.87,3842,403,3835,403,180913,0
patternOccur-73,true,1.00,3460,410,3454,386,171025,0
patternOccur-74,true,1.00,3282,450,3267,406,161631,0
patternOccur-75,true,1.00,1988,412,1979,386,101231,0
patternOccur-76,true,1.00,1212,348,1205,325,62235,0
patternOccur-77,true,1.00,929,398,921,375,45099,0
patternOccur-78,true,1.00,869,367,863,344,42127,0
patternOccur-79,true,1.00,1394,383,1386,360,71115,0
patternOccur-80,true,1.00,2748,423,2738,388,135197,0
patternOccur-81,true,1.00,3750,409,3742,385,190969,0
patternOccur-82,true,1.00,1824,380,1810,357,91837,0
patternOccur-83,true,1.00,1017,379,1008,356,50530,0
patternOccur-84,true,1.00,1242,388,1236,365,60483,0
patternOccur-85,true,1.00,3315,451,3308,427,163750,0
patternOccur-86,true,1.00,5194,488,5187,422,240549,0
patternOccur-87,true,1.00,1140,401,1128,373,56193,0
patternOccur-88,true,1.00,1613,390,1601,367,81810,0
patternOccur-89,true,1.00,1390,393,1383,370,69095,0
patternOccur-90,true,1.00,1381,377,1373,353,69772,0
patternOccur-91,true,1.00,1030,387,1014,364,51850,0
patternOccur-92,true,1.00,1111,390,1102,367,53866,0
patternOccur-93,true,1.00,1271,361,1261,337,63702,0
patternOccur-94,true,1.00,5395,465,5383,441,254559,0
patternOccur-95,true,1.00,1382,418,1371,395,69458,0
patternOccur-96,false,0.87,2570,337,2566,337,125423,0
patternOccur-97,true,1.00,1445,397,1434,374,71963,0
patternOccur-98,false,0.90,2276,359,2269,359,110020,0
patternOccur-99,true,1.00,567,354,551,331,28305,0
patternOccur-100,true,1.00,1311,381,1302,358,63124,0
