NDW:0.0
TTFW:0.6
DFPT:2.0
DFPAP:3.0
DFPMP:7.0
RIGHT_WINDOW_BORDER_X:350.0
level,win/fail,% travelled,run time,game ticks,planning time,total plannings,nodes evaluated,most backtracked nodes
patternWeightCount-1,true,1.00,2532,371,2526,333,139613,0
patternWeightCount-2,true,1.00,854,371,848,337,45238,0
patternWeightCount-3,true,1.00,1010,361,1000,328,52892,0
patternWeightCount-4,true,1.00,810,362,799,330,40323,0
patternWeightCount-5,true,1.00,2184,410,2180,378,110149,0
patternWeightCount-6,true,1.00,1666,387,1654,355,87265,0
patternWeightCount-7,true,1.00,1078,384,1071,346,54159,0
patternWeightCount-8,true,1.00,680,354,674,322,30622,0
patternWeightCount-9,true,1.00,1064,374,1058,342,54939,0
patternWeightCount-10,true,1.00,944,366,937,333,48013,0
patternWeightCount-11,true,1.00,871,348,861,316,43669,0
patternWeightCount-12,true,1.00,1692,410,1681,378,85330,0
patternWeightCount-13,true,1.00,899,346,889,314,47813,0
patternWeightCount-14,true,1.00,1168,401,1159,360,60182,0
patternWeightCount-15,true,1.00,1174,349,1172,317,62091,0
patternWeightCount-16,true,1.00,2489,399,2483,360,137449,0
patternWeightCount-17,true,1.00,923,367,915,335,46296,0
patternWeightCount-18,true,1.00,1116,378,1109,346,56740,0
patternWeightCount-19,true,1.00,954,426,949,394,45607,0
patternWeightCount-20,false,0.62,2369,247,2368,247,121094,0
patternWeightCount-21,true,1.00,735,370,727,338,35884,0
patternWeightCount-22,true,1.00,2545,414,2535,374,137047,0
patternWeightCount-23,true,1.00,1198,391,1186,359,59190,0
patternWeightCount-24,true,1.00,1106,342,1095,310,59002,0
patternWeightCount-25,true,1.00,1939,392,1926,360,101671,0
patternWeightCount-26,true,1.00,1519,420,1510,383,77018,0
patternWeightCount-27,true,1.00,1967,410,1955,363,103183,0
patternWeightCount-28,true,1.00,1229,361,1221,329,63009,0
patternWeightCount-29,true,1.00,957,350,947,318,48934,0
patternWeightCount-30,true,1.00,2949,404,2942,353,150689,0
patternWeightCount-31,true,1.00,1603,397,1595,365,76272,0
patternWeightCount-32,true,1.00,856,367,849,336,44525,0
patternWeightCount-33,true,1.00,941,381,936,349,47700,0
patternWeightCount-34,true,1.00,1431,374,1427,342,72360,0
patternWeightCount-35,true,1.00,1613,392,1599,360,82838,0
patternWeightCount-36,true,1.00,1547,376,1537,344,80433,0
patternWeightCount-37,true,1.00,965,370,960,338,47058,0
patternWeightCount-38,true,1.00,1824,378,1819,320,90446,0
patternWeightCount-39,true,1.00,1035,384,1027,353,53059,0
patternWeightCount-40,true,1.00,1184,367,1174,335,61074,0
patternWeightCount-41,true,1.00,1450,376,1441,344,75256,0
patternWeightCount-42,false,0.87,2458,319,2452,319,126207,0
patternWeightCount-43,true,1.00,1121,358,1112,326,58706,0
patternWeightCount-44,true,1.00,1390,383,1382,341,72794,0
patternWeightCount-45,true,1.00,2926,440,2916,389,151737,0
patternWeightCount-46,true,1.00,4537,476,4528,425,223732,0
patternWeightCount-47,true,1.00,851,369,843,337,42258,0
patternWeightCount-48,true,1.00,794,346,788,315,39975,0
patternWeightCount-49,true,1.00,974,367,967,335,48519,0
patternWeightCount-50,true,1.00,939,377,929,340,48017,0
patternWeightCount-51,true,1.00,1149,380,1140,337,60186,0
patternWeightCount-52,true,1.00,1349,366,1344,329,68991,0
patternWeightCount-53,true,1.00,2634,410,2627,365,138108,0
patternWeightCount-54,true,1.00,1127,420,1119,388,56970,0
patternWeightCount-55,true,1.00,1383,358,1376,326,73961,0
patternWeightCount-56,true,1.00,1186,361,1181,324,62274,0
patternWeightCount-57,true,1.00,754,336,746,304,39170,0
patternWeightCount-58,true,1.00,1043,355,1033,318,54374,0
patternWeightCount-59,true,1.00,591,357,583,324,28622,0
patternWeightCount-60,true,1.00,1461,423,1456,384,71910,0
patternWeightCount-61,true,1.00,1276,384,1269,347,65932,0
patternWeightCount-62,true,1.00,2035,382,2029,332,111868,0
patternWeightCount-63,true,1.00,1374,417,1364,385,72689,0
patternWeightCount-64,true,1.00,1706,382,1699,350,91445,0
patternWeightCount-65,true,1.00,1619,412,1609,379,78536,0
patternWeightCount-66,true,1.00,1253,362,1243,330,63520,0
patternWeightCount-67,true,1.00,1050,382,1041,350,52444,0
patternWeightCount-68,true,1.00,503,356,497,324,23763,0
patternWeightCount-69,true,1.00,1974,371,1967,321,101863,0
patternWeightCount-70,true,1.00,1121,399,1109,356,55854,0
patternWeightCount-71,true,1.00,843,367,834,324,42595,0
patternWeightCount-72,true,1.00,4694,418,4686,380,234311,0
patternWeightCount-73,true,1.00,4257,409,4249,364,221670,0
patternWeightCount-74,true,1.00,1148,383,1139,351,57233,0
patternWeightCount-75,true,1.00,1327,384,1323,352,65416,0
patternWeightCount-76,true,1.00,985,362,981,330,50291,0
patternWeightCount-77,true,1.00,1258,398,1248,366,64545,0
patternWeightCount-78,true,1.00,2840,454,2829,422,137642,0
patternWeightCount-79,true,1.00,632,344,627,312,30910,0
patternWeightCount-80,true,1.00,1444,390,1435,358,74992,0
patternWeightCount-81,true,1.00,3258,392,3252,355,167917,0
patternWeightCount-82,true,1.00,492,371,481,332,22565,0
patternWeightCount-83,true,1.00,787,355,779,322,40682,0
patternWeightCount-84,true,1.00,912,378,902,346,44490,0
patternWeightCount-85,true,1.00,1297,351,1290,318,70441,0
patternWeightCount-86,false,0.94,2600,344,2594,344,133327,0
patternWeightCount-87,true,1.00,4536,446,4526,397,230188,0
patternWeightCount-88,true,1.00,1575,384,1568,344,81978,0
patternWeightCount-89,true,1.00,940,347,934,315,48078,0
patternWeightCount-90,true,1.00,3820,431,3815,391,197534,0
patternWeightCount-91,true,1.00,1114,354,1106,322,57598,0
patternWeightCount-92,true,1.00,2926,392,2920,347,157834,0
patternWeightCount-93,true,1.00,2492,350,2486,317,129648,0
patternWeightCount-94,true,1.00,1168,368,1161,336,60287,0
patternWeightCount-95,true,1.00,1114,368,1109,336,54917,0
patternWeightCount-96,true,1.00,930,384,919,347,46793,0
patternWeightCount-97,true,1.00,969,338,963,303,49649,0
patternWeightCount-98,true,1.00,3909,429,3904,371,209934,0
patternWeightCount-99,true,1.00,1987,411,1973,373,104038,0
patternWeightCount-100,true,1.00,855,348,849,316,43535,0
