NDW:0.0
TTFW:0.4
DFPT:2.0
DFPAP:3.0
DFPMP:1.0
RIGHT_WINDOW_BORDER_X:35.0
level,win/fail,% travelled,run time,game ticks,planning time,total plannings,nodes evaluated,most backtracked nodes
hopper-1,false,0.20,3113,218,3111,218,216431,0
hopper-2,false,0.13,1535,130,1535,130,103696,0
hopper-3,false,0.31,2115,314,2114,314,153774,0
hopper-4,false,0.33,3274,369,3271,369,247632,0
hopper-5,false,0.13,1536,130,1535,130,102889,0
hopper-6,false,0.30,1199,247,1197,247,86407,0
hopper-7,false,0.13,1534,130,1534,130,104383,0
hopper-8,false,0.22,3955,288,3954,288,271505,0
hopper-9,false,0.13,1535,130,1534,130,102583,0
hopper-10,false,0.37,4045,370,4044,370,291073,0
hopper-11,false,0.22,2598,283,2594,283,190113,0
hopper-12,false,0.39,3447,405,3443,405,243725,0
hopper-13,false,0.13,1537,130,1537,130,103642,0
hopper-14,false,0.13,1537,130,1536,130,99380,0
hopper-15,false,0.13,1534,130,1532,130,101100,0
hopper-16,false,0.13,1535,130,1535,130,104424,0
hopper-17,false,0.31,957,218,956,218,68391,0
hopper-18,false,0.28,2582,269,2581,269,177966,0
hopper-19,false,0.41,3494,402,3493,402,243722,0
hopper-20,false,0.13,1536,130,1536,130,102897,0
hopper-21,false,0.13,1536,130,1536,130,101685,0
hopper-22,false,0.13,29051,999,29048,999,1880397,0
hopper-23,false,0.13,1536,130,1536,130,102749,0
hopper-24,false,0.19,2289,229,2288,229,173465,0
hopper-25,false,0.31,744,247,741,247,53767,0
hopper-26,false,0.13,1538,130,1537,130,103185,0
hopper-27,false,0.13,1536,130,1534,130,102141,0
hopper-28,false,0.19,4057,273,4056,273,304562,0
hopper-29,false,0.25,2106,250,2102,250,143530,0
hopper-30,false,0.13,1536,130,1534,130,102548,0
hopper-31,false,0.13,1537,130,1536,130,102256,0
hopper-32,false,0.33,1827,266,1824,266,127387,0
hopper-33,false,0.49,4047,447,4046,447,279148,0
hopper-34,false,0.13,1535,130,1534,130,102192,0
hopper-35,false,0.13,1536,130,1536,130,102061,0
hopper-36,false,0.13,1536,130,1536,130,101871,0
hopper-37,false,0.50,3852,457,3847,457,266948,0
hopper-38,false,0.13,2308,155,2308,155,154507,0
hopper-39,false,0.29,2675,256,2673,256,181214,0
hopper-40,false,0.21,27501,999,27501,999,1894388,0
hopper-41,false,0.24,1069,248,1067,248,77931,0
hopper-42,false,0.13,1536,130,1536,130,102558,0
hopper-43,false,0.13,1536,130,1536,130,102038,0
hopper-44,false,0.30,2786,274,2785,274,190774,0
hopper-45,false,0.21,1977,199,1977,199,139102,0
hopper-46,false,0.32,2895,329,2892,329,199521,0
hopper-47,false,0.32,1710,234,1710,234,117469,0
hopper-48,false,0.13,1536,130,1536,130,103301,0
hopper-49,false,0.13,1537,130,1537,130,103162,0
hopper-50,false,0.19,2753,215,2752,215,194226,0
hopper-51,false,0.38,3504,396,3502,396,251823,0
hopper-52,false,0.35,24909,999,24907,999,1773456,0
hopper-53,false,0.13,1535,130,1534,130,103576,0
hopper-54,false,0.32,2986,292,2985,292,203306,0
hopper-55,false,0.21,2568,267,2567,267,182709,0
hopper-56,false,0.29,2219,245,2217,245,151866,0
hopper-57,false,0.28,2904,240,2902,240,194476,0
hopper-58,false,0.32,2742,326,2738,326,186263,0
hopper-59,false,0.20,2783,266,2782,266,210308,0
hopper-60,false,0.30,859,261,856,261,62862,0
hopper-61,false,0.13,1539,130,1539,130,102622,0
hopper-62,false,0.13,1536,130,1536,130,101869,0
hopper-63,false,0.28,3151,346,3150,346,229636,0
hopper-64,false,0.13,1537,130,1537,130,102556,0
hopper-65,false,0.13,1535,130,1535,130,103875,0
hopper-66,false,0.30,961,221,960,221,67569,0
hopper-67,false,0.31,2087,253,2087,253,143920,0
hopper-68,false,0.28,26478,999,26476,999,1905520,0
hopper-69,false,0.20,1047,149,1044,149,72650,0
hopper-70,false,0.37,3560,378,3557,378,247655,0
hopper-71,false,0.29,1289,218,1286,218,91927,0
hopper-72,false,0.22,3105,224,3103,224,214468,0
hopper-73,false,0.13,1536,130,1535,130,104546,0
hopper-74,false,0.30,25855,999,25853,999,1792184,0
hopper-75,false,0.13,1535,130,1534,130,108161,0
hopper-76,false,0.13,1534,130,1533,130,105544,0
hopper-77,false,0.39,3920,375,3917,375,278708,0
hopper-78,false,0.31,2405,252,2404,252,170492,0
hopper-79,false,0.13,1535,130,1535,130,103711,0
hopper-80,false,0.13,1535,130,1535,130,103894,0
hopper-81,false,0.13,1537,130,1536,130,104019,0
hopper-82,false,0.13,1537,130,1534,130,104207,0
hopper-83,false,0.13,1536,130,1536,130,104149,0
hopper-84,false,0.13,1538,130,1538,130,104414,0
hopper-85,false,0.30,2586,290,2584,290,180375,0
hopper-86,false,0.13,1537,130,1536,130,104594,0
hopper-87,false,0.13,1537,130,1537,130,105706,0
hopper-88,false,0.13,1536,130,1535,130,104584,0
hopper-89,false,0.13,1536,130,1535,130,104561,0
hopper-90,false,0.13,1535,130,1534,130,104002,0
hopper-91,false,0.40,2823,336,2822,336,196219,0
hopper-92,false,0.13,1537,130,1537,130,104576,0
hopper-93,false,0.29,1023,208,1023,208,74263,0
hopper-94,false,0.42,3106,386,3102,386,221407,0
hopper-95,false,0.28,3215,260,3214,260,225815,0
hopper-96,false,0.13,1535,130,1535,130,104267,0
hopper-97,false,0.13,1536,130,1535,130,107067,0
hopper-98,false,0.13,1534,130,1534,130,104061,0
hopper-99,false,0.13,1534,130,1534,130,105508,0
hopper-100,false,0.21,1682,184,1681,184,117952,0
