NDW:0.0
TTFW:0.6
DFPT:2.0
DFPAP:3.0
DFPMP:1.0
RIGHT_WINDOW_BORDER_X:350.0
level,win/fail,% travelled,run time,game ticks,planning time,total plannings,nodes evaluated,most backtracked nodes
patternOccur-1,true,1.00,1233,374,1223,342,62615,0
patternOccur-2,true,1.00,1158,376,1156,344,58945,0
patternOccur-3,true,1.00,1744,406,1735,374,90831,0
patternOccur-4,true,1.00,1790,395,1781,363,92855,0
patternOccur-5,true,1.00,1032,366,1028,334,52698,0
patternOccur-6,true,1.00,1740,406,1731,374,90613,0
patternOccur-7,true,1.00,1450,391,1439,357,75181,0
patternOccur-8,true,1.00,1537,386,1529,353,81109,0
patternOccur-9,true,1.00,1684,383,1676,351,89225,0
patternOccur-10,true,1.00,1068,365,1061,327,56350,0
patternOccur-11,true,1.00,4640,467,4630,423,230557,0
patternOccur-12,true,1.00,1811,413,1799,373,91234,0
patternOccur-13,true,1.00,1439,418,1430,386,73724,0
patternOccur-14,true,1.00,3203,386,3196,336,166033,0
patternOccur-15,true,1.00,1286,344,1280,312,67353,0
patternOccur-16,true,1.00,2890,366,2885,328,151635,0
patternOccur-17,true,1.00,1663,392,1654,360,85544,0
patternOccur-18,true,1.00,1176,370,1164,338,59143,0
patternOccur-19,false,0.83,4600,401,4595,401,222506,0
patternOccur-20,true,1.00,1092,356,1083,324,58549,0
patternOccur-21,true,1.00,1250,408,1240,367,64146,0
patternOccur-22,true,1.00,3506,436,3499,387,185063,0
patternOccur-23,true,1.00,1532,382,1523,350,75836,0
patternOccur-24,true,1.00,1354,384,1342,352,68409,0
patternOccur-25,true,1.00,1604,394,1598,362,83862,0
patternOccur-26,true,1.00,918,363,911,331,46632,0
patternOccur-27,true,1.00,2648,409,2639,359,135799,0
patternOccur-28,true,1.00,1967,405,1956,373,102798,0
patternOccur-29,true,1.00,961,363,954,326,49863,0
patternOccur-30,true,1.00,1078,363,1075,331,55235,0
patternOccur-31,true,1.00,4501,392,4492,359,238024,0
patternOccur-32,true,1.00,3422,392,3417,359,176172,0
patternOccur-33,true,1.00,1054,376,1044,344,55777,0
patternOccur-34,true,1.00,1365,399,1357,360,72047,0
patternOccur-35,true,1.00,1148,384,1140,352,59715,0
patternOccur-36,true,1.00,2581,435,2577,384,138210,0
patternOccur-37,true,1.00,3184,396,3181,350,161377,0
patternOccur-38,true,1.00,1301,360,1291,328,68518,0
patternOccur-39,true,1.00,2582,420,2574,387,131453,0
patternOccur-40,true,1.00,1908,415,1897,379,98594,0
patternOccur-41,true,1.00,1604,400,1599,358,81395,0
patternOccur-42,false,0.89,2753,360,2751,360,140582,0
patternOccur-43,true,1.00,1096,360,1092,328,57873,0
patternOccur-44,true,1.00,1366,380,1360,347,71824,0
patternOccur-45,true,1.00,1696,359,1690,325,87270,0
patternOccur-46,true,1.00,933,361,921,329,46117,0
patternOccur-47,true,1.00,3086,423,3079,373,160948,0
patternOccur-48,true,1.00,1282,364,1278,332,67493,0
patternOccur-49,true,1.00,1099,363,1091,331,56051,0
patternOccur-50,true,1.00,1941,375,1938,341,100283,0
patternOccur-51,true,1.00,1722,396,1717,360,89349,0
patternOccur-52,true,1.00,1707,395,1699,354,89163,0
patternOccur-53,true,1.00,1963,368,1960,336,101937,0
patternOccur-54,true,1.00,2241,392,2233,360,116568,0
patternOccur-55,true,1.00,1383,381,1374,349,71550,0
patternOccur-56,true,1.00,1604,404,1589,372,81568,0
patternOccur-57,true,1.00,1641,387,1632,342,86745,0
patternOccur-58,true,1.00,3402,414,3398,376,177145,0
patternOccur-59,true,1.00,1429,366,1424,334,74561,0
patternOccur-60,true,1.00,2424,400,2418,351,125947,0
patternOccur-61,true,1.00,1382,378,1377,336,74292,0
patternOccur-62,true,1.00,1518,373,1507,341,77459,0
patternOccur-63,true,1.00,1424,375,1413,336,74496,0
patternOccur-64,true,1.00,1964,397,1958,356,101942,0
patternOccur-65,true,1.00,1318,408,1311,376,65809,0
patternOccur-66,true,1.00,1601,434,1595,396,81729,0
patternOccur-67,true,1.00,2188,398,2180,366,114404,0
patternOccur-68,true,1.00,987,374,977,342,49635,0
patternOccur-69,true,1.00,4173,434,4167,396,211675,0
patternOccur-70,true,1.00,3448,402,3439,367,169606,0
patternOccur-71,true,1.00,2002,400,1996,368,106460,0
patternOccur-72,true,1.00,4785,458,4773,421,230463,0
patternOccur-73,true,1.00,4008,446,4000,396,207593,0
patternOccur-74,true,1.00,3328,434,3319,381,169465,0
patternOccur-75,true,1.00,1698,373,1691,341,90201,0
patternOccur-76,true,1.00,1215,346,1205,314,64373,0
patternOccur-77,true,1.00,955,359,949,327,48285,0
patternOccur-78,true,1.00,934,358,929,326,44859,0
patternOccur-79,true,1.00,1290,368,1284,336,67495,0
patternOccur-80,true,1.00,3153,419,3144,379,161828,0
patternOccur-81,true,1.00,3676,408,3667,374,190259,0
patternOccur-82,true,1.00,1946,379,1938,347,100434,0
patternOccur-83,true,1.00,1286,374,1282,342,67429,0
patternOccur-84,true,1.00,1446,410,1435,378,71907,0
patternOccur-85,true,1.00,2452,420,2445,388,130837,0
patternOccur-86,true,1.00,3245,429,3239,378,165611,0
patternOccur-87,true,1.00,1333,401,1327,360,68928,0
patternOccur-88,true,1.00,1608,405,1600,373,83473,0
patternOccur-89,true,1.00,1598,384,1588,351,81756,0
patternOccur-90,true,1.00,1748,396,1739,364,89267,0
patternOccur-91,true,1.00,1086,390,1071,353,54740,0
patternOccur-92,true,1.00,1178,363,1172,331,60552,0
patternOccur-93,true,1.00,1371,395,1358,360,68859,0
patternOccur-94,true,1.00,4550,441,4539,405,218923,0
patternOccur-95,true,1.00,1447,417,1436,385,74124,0
patternOccur-96,false,0.87,2620,343,2605,343,131169,0
patternOccur-97,true,1.00,1764,398,1758,366,92113,0
patternOccur-98,false,0.90,2772,356,2762,356,133765,0
patternOccur-99,true,1.00,690,350,675,318,35267,0
patternOccur-100,true,1.00,1681,408,1671,376,81506,0
