NDW:0.0
TTFW:1.4
DFPT:2.0
DFPAP:3.0
DFPMP:50.0
RIGHT_WINDOW_BORDER_X:95.0
level,win/fail,% travelled,run time,game ticks,planning time,total plannings,nodes evaluated,most backtracked nodes
patternCount-1,false,0.67,3674,465,3666,465,197332,0
patternCount-2,true,1.00,1765,518,1759,510,103703,0
patternCount-3,false,0.91,6319,638,6315,638,344500,0
patternCount-4,true,1.00,3397,539,3382,517,203852,0
patternCount-5,true,1.00,1460,513,1443,504,85525,0
patternCount-6,true,1.00,832,425,823,417,49320,0
patternCount-7,true,1.00,2339,509,2330,501,137419,0
patternCount-8,false,0.90,4484,999,4460,999,266389,0
patternCount-9,true,1.00,2344,507,2328,499,134835,0
patternCount-10,true,1.00,587,415,575,407,36215,0
patternCount-11,false,0.82,10091,721,10080,721,589758,0
patternCount-12,true,1.00,1080,466,1074,458,63731,0
patternCount-13,true,1.00,967,468,958,460,57379,0
patternCount-14,true,1.00,2679,525,2671,514,161308,0
patternCount-15,true,1.00,1295,491,1284,483,77749,0
patternCount-16,true,1.00,1373,516,1357,508,82278,0
patternCount-17,true,1.00,1349,511,1340,503,78355,0
patternCount-18,false,0.98,3739,543,3734,543,200153,0
patternCount-19,true,1.00,2203,507,2195,499,125314,0
patternCount-20,true,1.00,2135,480,2125,472,126484,0
patternCount-21,true,1.00,993,478,976,470,58792,0
patternCount-22,true,1.00,6785,728,6769,716,399571,0
patternCount-23,false,0.67,5616,476,5608,476,297216,0
patternCount-24,false,0.81,12207,837,12193,837,734233,0
patternCount-25,true,1.00,1167,467,1156,458,68890,0
patternCount-26,true,1.00,840,476,830,467,49355,0
patternCount-27,true,1.00,1656,520,1642,512,98403,0
patternCount-28,true,1.00,1515,500,1505,488,93334,0
patternCount-29,true,1.00,1931,490,1915,482,114457,0
patternCount-30,true,1.00,1171,520,1159,512,71643,0
patternCount-31,true,1.00,2794,559,2782,551,163816,0
patternCount-32,true,1.00,2442,570,2428,562,138565,0
patternCount-33,false,0.82,6688,637,6678,637,369463,0
patternCount-34,true,1.00,4175,705,4168,695,244443,0
patternCount-35,true,1.00,1304,497,1289,488,77824,0
patternCount-36,true,1.00,3227,626,3215,601,182367,0
patternCount-37,true,1.00,1714,465,1704,457,98827,0
patternCount-38,false,0.81,4544,597,4535,597,265893,0
patternCount-39,true,1.00,1755,560,1738,552,103343,0
patternCount-40,false,0.85,8270,716,8256,716,489155,0
patternCount-41,true,1.00,4281,579,4275,571,260163,0
patternCount-42,true,1.00,1775,554,1764,545,107139,0
patternCount-43,true,1.00,1495,531,1491,523,92148,0
patternCount-44,true,1.00,1172,469,1164,461,69582,0
patternCount-45,true,1.00,1871,588,1863,578,103787,0
patternCount-46,true,1.00,2104,538,2091,530,125368,0
patternCount-47,true,1.00,1816,503,1809,495,108550,0
patternCount-48,true,1.00,1160,502,1148,494,69554,0
patternCount-49,true,1.00,2477,590,2465,572,143507,0
patternCount-50,false,0.64,2561,424,2551,424,151675,0
patternCount-51,true,1.00,1294,501,1278,493,74696,0
patternCount-52,true,1.00,1528,523,1522,515,90916,0
patternCount-53,false,0.79,7288,643,7280,643,402157,0
patternCount-54,true,1.00,2560,512,2543,504,85760,0
patternCount-55,false,0.56,4988,410,4981,410,306711,0
patternCount-56,true,1.00,1476,472,1460,464,92783,0
patternCount-57,true,1.00,1092,492,1082,483,69561,0
patternCount-58,true,1.00,1326,494,1319,486,87270,0
patternCount-59,true,1.00,2343,569,2329,561,148659,0
patternCount-60,true,1.00,1792,480,1780,472,109820,0
patternCount-61,true,1.00,1879,523,1868,514,114994,0
patternCount-62,true,1.00,1705,515,1694,507,109280,0
patternCount-63,true,1.00,919,438,910,430,59087,0
patternCount-64,true,1.00,1147,456,1136,448,75823,0
patternCount-65,true,1.00,1598,484,1591,476,100868,0
patternCount-66,true,1.00,2123,544,2112,536,135165,0
patternCount-67,true,1.00,3481,565,3470,554,217462,0
patternCount-68,true,1.00,823,451,813,443,52465,0
patternCount-69,true,1.00,1161,510,1143,502,72484,0
patternCount-70,true,1.00,1570,465,1558,457,98969,0
patternCount-71,true,1.00,2504,550,2492,542,152928,0
patternCount-72,false,0.67,4780,499,4771,499,300115,0
patternCount-73,true,1.00,3630,600,3621,592,215200,0
patternCount-74,false,0.53,1845,999,1819,999,115890,0
patternCount-75,true,1.00,2179,549,2166,541,129120,0
patternCount-76,true,1.00,3228,554,3219,546,198377,0
patternCount-77,true,1.00,2830,549,2823,539,167731,0
patternCount-78,true,1.00,3552,592,3545,584,218752,0
patternCount-79,false,0.75,4710,529,4707,529,282693,0
patternCount-80,true,1.00,7206,757,7194,747,349099,0
patternCount-81,true,1.00,1048,494,1040,486,64105,0
patternCount-82,true,1.00,1656,479,1649,471,104316,0
patternCount-83,true,1.00,1255,487,1238,479,76092,0
patternCount-84,true,1.00,1704,510,1691,502,105956,0
patternCount-85,true,1.00,1383,500,1369,492,85997,0
patternCount-86,true,1.00,1354,494,1342,486,83702,0
patternCount-87,true,1.00,2541,557,2530,547,158771,0
patternCount-88,true,1.00,2068,532,2055,522,129327,0
patternCount-89,true,1.00,2270,568,2259,560,138584,0
patternCount-90,true,1.00,832,461,826,453,51077,0
patternCount-91,true,1.00,4412,706,4401,698,257569,0
patternCount-92,true,1.00,1328,497,1320,489,80540,0
patternCount-93,false,0.57,4898,438,4891,438,304092,0
patternCount-94,true,1.00,2722,524,2712,515,166167,0
patternCount-95,true,1.00,3114,504,3102,496,190778,0
patternCount-96,true,1.00,1984,568,1973,559,117107,0
patternCount-97,false,0.75,5620,487,5613,487,333432,0
patternCount-98,true,1.00,2155,552,2144,544,124200,0
patternCount-99,true,1.00,1504,481,1494,473,87853,0
patternCount-100,true,1.00,1018,467,1009,459,58918,0
