NDW:0.0
TTFW:1.6
DFPT:2.0
DFPAP:3.0
DFPMP:5.0
RIGHT_WINDOW_BORDER_X:215.0
level,win/fail,% travelled,run time,game ticks,planning time,total plannings,nodes evaluated,most backtracked nodes
notchParam-1,true,1.00,904,322,904,303,100468,0
notchParam-2,true,1.00,856,342,854,323,90698,0
notchParam-3,true,1.00,578,313,575,294,68770,0
notchParam-4,true,1.00,517,316,516,297,59435,0
notchParam-5,true,1.00,540,312,540,292,62890,0
notchParam-6,true,1.00,644,324,644,305,74351,0
notchParam-7,true,1.00,751,322,750,303,90419,0
notchParam-8,true,1.00,1080,319,1080,300,127267,0
notchParam-9,true,1.00,540,350,540,331,63520,0
notchParam-10,true,1.00,1117,320,1115,301,128000,0
notchParam-11,true,1.00,520,321,519,298,61146,0
notchParam-12,true,1.00,1128,331,1128,312,135203,0
notchParam-13,true,1.00,185,314,184,295,21050,0
notchParam-14,true,1.00,174,304,173,285,18873,0
notchParam-15,true,1.00,695,294,693,275,76777,0
notchParam-16,true,1.00,717,309,714,290,86711,0
notchParam-17,true,1.00,727,308,726,289,83409,0
notchParam-18,true,1.00,212,342,208,323,25128,0
notchParam-19,true,1.00,208,311,207,292,23845,0
notchParam-20,true,1.00,175,308,174,289,20065,0
notchParam-21,true,1.00,180,306,176,287,18846,0
notchParam-22,true,1.00,196,321,196,302,24085,0
notchParam-23,true,1.00,1174,364,1172,345,139234,0
notchParam-24,true,1.00,1135,356,1131,337,135609,0
notchParam-25,true,1.00,1145,326,1139,307,130004,0
notchParam-26,true,1.00,1189,332,1187,313,142351,0
notchParam-27,true,1.00,175,309,174,290,20389,0
notchParam-28,true,1.00,586,339,584,320,69279,0
notchParam-29,true,1.00,542,323,540,304,63572,0
notchParam-30,true,1.00,176,308,175,289,18953,0
notchParam-31,true,1.00,753,320,752,301,91559,0
notchParam-32,true,1.00,753,316,751,297,92924,0
notchParam-33,true,1.00,177,300,177,281,20180,0
notchParam-34,true,1.00,754,308,754,289,86892,0
notchParam-35,true,1.00,1084,353,1081,334,121861,0
notchParam-36,true,1.00,758,302,756,283,86181,0
notchParam-37,true,1.00,171,298,171,279,17080,0
notchParam-38,true,1.00,175,304,172,285,20374,0
notchParam-39,true,1.00,883,338,883,319,96741,0
notchParam-40,true,1.00,552,314,551,295,64165,0
notchParam-41,true,1.00,586,331,586,312,68838,0
notchParam-42,true,1.00,189,321,187,292,22985,0
notchParam-43,true,1.00,1103,312,1100,293,127742,0
notchParam-44,true,1.00,1119,340,1119,321,132652,0
notchParam-45,true,1.00,985,342,985,314,123167,0
notchParam-46,true,1.00,1144,320,1142,301,125435,0
notchParam-47,true,1.00,210,312,208,293,26014,0
notchParam-48,true,1.00,227,333,224,314,27591,0
notchParam-49,true,1.00,219,332,217,308,25383,0
notchParam-50,true,1.00,212,329,211,310,23824,0
notchParam-51,true,1.00,172,308,172,289,19271,0
notchParam-52,true,1.00,701,300,698,281,84855,0
notchParam-53,true,1.00,922,332,921,313,110917,0
notchParam-54,true,1.00,1000,339,997,320,108046,0
notchParam-55,true,1.00,224,321,220,302,26126,0
notchParam-56,true,1.00,177,312,176,293,19633,0
notchParam-57,true,1.00,1113,334,1112,315,135710,0
notchParam-58,true,1.00,557,341,554,322,64504,0
notchParam-59,true,1.00,1103,357,1103,338,129291,0
notchParam-60,true,1.00,524,332,522,313,59617,0
notchParam-61,true,1.00,1029,341,1027,322,124600,0
notchParam-62,true,1.00,699,298,698,279,76763,0
notchParam-63,true,1.00,554,333,550,314,62844,0
notchParam-64,true,1.00,517,326,517,307,61996,0
notchParam-65,true,1.00,550,328,549,309,64572,0
notchParam-66,true,1.00,525,339,521,320,62833,0
notchParam-67,true,1.00,732,320,731,301,89548,0
notchParam-68,true,1.00,774,316,773,296,83110,0
notchParam-69,true,1.00,739,308,739,289,77128,0
notchParam-70,true,1.00,741,312,741,293,86504,0
notchParam-71,true,1.00,663,356,659,335,80880,0
notchParam-72,true,1.00,526,337,526,317,64957,0
notchParam-73,true,1.00,514,310,514,291,59290,0
notchParam-74,true,1.00,589,341,586,322,67404,0
notchParam-75,true,1.00,555,338,554,319,70776,0
notchParam-76,true,1.00,1092,347,1091,328,127323,0
notchParam-77,true,1.00,683,333,682,314,80031,0
notchParam-78,true,1.00,1117,320,1117,301,130192,0
notchParam-79,true,1.00,552,319,551,300,65720,0
notchParam-80,true,1.00,187,319,185,300,21735,0
notchParam-81,true,1.00,521,333,520,314,64553,0
notchParam-82,true,1.00,209,305,208,286,23646,0
notchParam-83,true,1.00,208,302,208,283,24567,0
notchParam-84,true,1.00,734,314,732,295,87741,0
notchParam-85,true,1.00,1257,388,1256,369,139972,0
notchParam-86,true,1.00,1152,314,1150,295,134961,0
notchParam-87,true,1.00,187,322,186,303,22862,0
notchParam-88,true,1.00,239,306,235,287,26159,0
notchParam-89,true,1.00,175,304,173,285,18976,0
notchParam-90,true,1.00,210,309,209,290,23894,0
notchParam-91,true,1.00,1183,336,1182,317,131171,0
notchParam-92,true,1.00,1006,308,1005,289,112937,0
notchParam-93,true,1.00,1164,330,1161,311,137442,0
notchParam-94,true,1.00,1096,347,1095,328,126862,0
notchParam-95,true,1.00,1096,357,1095,338,131837,0
notchParam-96,true,1.00,519,328,518,309,64641,0
notchParam-97,true,1.00,588,321,586,302,64368,0
notchParam-98,true,1.00,176,300,174,281,19604,0
notchParam-99,true,1.00,1095,361,1095,342,118620,0
notchParam-100,true,1.00,737,298,734,279,84895,0
