NDW:0.0
TTFW:2.0
DFPT:2.0
DFPAP:3.0
DFPMP:0.0
RIGHT_WINDOW_BORDER_X:95.0
level,win/fail,% travelled,run time,game ticks,planning time,total plannings,nodes evaluated,most backtracked nodes
ge-1,true,1.00,528,244,516,229,22523,0
ge-2,true,1.00,520,233,513,225,24138,0
ge-3,true,1.00,208,233,205,224,9248,0
ge-4,true,1.00,3720,354,3711,345,177924,0
ge-5,true,1.00,38,199,34,191,1342,0
ge-6,true,1.00,491,248,473,239,22346,0
ge-7,true,1.00,101,233,90,225,4413,0
ge-8,true,1.00,187,221,180,213,8961,0
ge-9,true,1.00,687,224,681,216,32864,0
ge-10,true,1.00,65,199,45,191,1260,0
ge-11,true,1.00,232,221,214,213,8671,0
ge-12,true,1.00,33,199,25,191,1141,0
ge-13,true,1.00,354,239,348,231,16857,0
ge-14,true,1.00,199,232,190,222,9050,0
ge-15,true,1.00,957,268,951,260,47183,0
ge-16,true,1.00,261,259,253,251,12478,0
ge-17,true,1.00,298,221,293,213,14305,0
ge-18,true,1.00,719,293,708,285,33000,0
ge-19,true,1.00,925,294,913,285,43991,0
ge-20,true,1.00,357,224,349,216,16768,0
ge-21,true,1.00,226,207,220,199,10036,0
ge-22,true,1.00,397,212,391,204,18121,0
ge-23,true,1.00,1978,256,1971,248,94489,0
ge-24,true,1.00,1065,296,1056,286,50235,0
ge-25,true,1.00,1826,254,1821,246,85248,0
ge-26,true,1.00,282,207,272,199,13040,0
ge-27,true,1.00,52,215,43,207,2059,0
ge-28,true,1.00,1404,254,1395,246,61056,0
ge-29,true,1.00,309,225,301,198,13899,0
ge-30,true,1.00,3335,323,3330,315,154030,0
ge-31,true,1.00,2219,285,2212,277,100330,0
ge-32,true,1.00,177,227,172,219,5761,0
ge-33,true,1.00,145,224,133,202,4818,0
ge-34,true,1.00,885,218,878,210,42126,0
ge-35,false,0.15,975,103,972,103,44085,0
ge-36,true,1.00,2753,312,2747,304,129113,0
ge-37,true,1.00,628,222,620,213,28153,0
ge-38,true,1.00,2879,365,2865,357,133110,0
ge-39,true,1.00,996,248,986,240,47381,0
ge-40,true,1.00,37,199,30,191,1283,0
ge-41,true,1.00,343,215,338,201,15799,0
ge-42,true,1.00,633,238,630,230,28588,0
ge-43,true,1.00,281,236,272,227,12741,0
ge-44,true,1.00,2113,302,2109,268,91190,0
ge-45,true,1.00,717,241,703,233,32645,0
ge-46,true,1.00,998,274,988,266,44808,0
ge-47,true,1.00,2097,316,2092,308,93840,0
ge-48,true,1.00,679,259,666,251,31889,0
ge-49,true,1.00,205,204,201,196,8864,0
ge-50,true,1.00,1243,246,1235,238,53303,0
ge-51,true,1.00,145,224,141,216,6169,0
ge-52,true,1.00,514,280,501,269,23520,0
ge-53,true,1.00,236,221,231,213,10307,0
ge-54,true,1.00,465,238,460,230,22357,0
ge-55,true,1.00,335,225,328,216,15335,0
ge-56,true,1.00,3771,373,3760,347,179879,0
ge-57,true,1.00,2131,289,2125,280,103841,0
ge-58,true,1.00,180,272,169,264,8168,0
ge-59,false,0.49,412,117,408,117,19627,0
ge-60,false,0.45,1694,157,1690,157,80096,0
ge-61,true,1.00,906,225,899,217,42570,0
ge-62,true,1.00,756,234,751,226,35321,0
ge-63,false,0.78,3719,301,3713,301,171183,0
ge-64,true,1.00,565,237,555,228,26267,0
ge-65,false,0.67,2245,227,2240,227,103587,0
ge-66,true,1.00,2072,281,2061,271,103950,0
ge-67,true,1.00,281,302,271,293,12256,0
ge-68,true,1.00,119,223,108,215,5321,0
ge-69,true,1.00,278,221,270,213,13670,0
ge-70,false,0.84,26179,999,26176,999,1140459,0
ge-71,true,1.00,3107,306,3097,298,147360,0
ge-72,true,1.00,163,254,155,245,7285,0
ge-73,true,1.00,525,218,518,208,23916,0
ge-74,true,1.00,4881,396,4874,388,222199,0
ge-75,true,1.00,388,245,382,225,17353,0
ge-76,true,1.00,1653,258,1645,250,76977,0
ge-77,true,1.00,3377,318,3368,310,157705,0
ge-78,false,0.69,398,176,390,176,18959,0
ge-79,true,1.00,186,217,177,207,8301,0
ge-80,true,1.00,59,219,54,210,2278,0
ge-81,true,1.00,55,213,45,205,2094,0
ge-82,true,1.00,66,235,55,207,2536,0
ge-83,false,1.00,474,252,461,232,21728,0
ge-84,false,0.11,210,37,207,37,10002,0
ge-85,true,1.00,322,207,312,199,14329,0
ge-86,true,1.00,1559,249,1553,240,71525,0
ge-87,true,1.00,1316,258,1310,250,61239,0
ge-88,true,1.00,712,240,708,232,33052,0
ge-89,true,1.00,198,273,191,265,8777,0
ge-90,true,1.00,34,199,30,191,1315,0
ge-91,true,1.00,578,233,570,225,26401,0
ge-92,true,1.00,48,205,38,197,1840,0
ge-93,true,1.00,815,225,805,217,37810,0
ge-94,true,1.00,1086,246,1080,238,51170,0
ge-95,true,1.00,98,256,85,248,4291,0
ge-96,true,1.00,2875,321,2869,307,134892,0
ge-97,true,1.00,765,249,755,241,33486,0
ge-98,true,1.00,38,199,32,191,1257,0
ge-99,true,1.00,185,211,178,203,7941,0
ge-100,true,1.00,384,211,378,203,16541,0
