NDW:0.0
TTFW:2.0
DFPT:2.0
DFPAP:3.0
DFPMP:2.0
RIGHT_WINDOW_BORDER_X:235.0
level,win/fail,% travelled,run time,game ticks,planning time,total plannings,nodes evaluated,most backtracked nodes
notchParam-1,true,1.00,985,312,977,291,54646,0
notchParam-2,true,1.00,995,346,983,325,55926,0
notchParam-3,true,1.00,682,309,672,288,38670,0
notchParam-4,true,1.00,701,318,695,297,39563,0
notchParam-5,true,1.00,695,312,687,290,39685,0
notchParam-6,true,1.00,728,320,725,299,41051,0
notchParam-7,true,1.00,974,321,964,300,55590,0
notchParam-8,true,1.00,1168,315,1161,294,67387,0
notchParam-9,true,1.00,687,331,679,310,38846,0
notchParam-10,true,1.00,1150,314,1146,293,65627,0
notchParam-11,true,1.00,643,314,637,293,36240,0
notchParam-12,true,1.00,1148,333,1145,312,66039,0
notchParam-13,true,1.00,352,314,342,293,19744,0
notchParam-14,true,1.00,356,304,351,283,20033,0
notchParam-15,true,1.00,1077,320,1068,299,58552,0
notchParam-16,true,1.00,913,309,908,288,52074,0
notchParam-17,true,1.00,911,306,905,285,51812,0
notchParam-18,true,1.00,410,347,402,326,21958,0
notchParam-19,true,1.00,363,311,355,290,20670,0
notchParam-20,true,1.00,337,308,329,287,18820,0
notchParam-21,true,1.00,368,304,358,283,20254,0
notchParam-22,true,1.00,363,315,356,294,20351,0
notchParam-23,true,1.00,1343,360,1334,339,76821,0
notchParam-24,true,1.00,1182,337,1174,316,67482,0
notchParam-25,true,1.00,1144,320,1135,299,66059,0
notchParam-26,true,1.00,1175,326,1168,305,67313,0
notchParam-27,true,1.00,346,309,338,288,19413,0
notchParam-28,true,1.00,703,319,692,298,39732,0
notchParam-29,true,1.00,689,321,680,300,39139,0
notchParam-30,true,1.00,355,310,346,289,19544,0
notchParam-31,true,1.00,1068,326,1057,305,59028,0
notchParam-32,true,1.00,1000,321,995,300,57502,0
notchParam-33,true,1.00,376,300,362,279,21459,0
notchParam-34,true,1.00,965,320,963,299,54636,0
notchParam-35,true,1.00,1003,313,990,292,55933,0
notchParam-36,true,1.00,914,302,904,281,52023,0
notchParam-37,true,1.00,449,300,440,279,20109,0
notchParam-38,true,1.00,355,304,344,283,20016,0
notchParam-39,true,1.00,893,304,886,283,49667,0
notchParam-40,true,1.00,622,308,612,287,35275,0
notchParam-41,true,1.00,682,322,672,301,37684,0
notchParam-42,true,1.00,368,309,359,288,20947,0
notchParam-43,true,1.00,1160,313,1157,292,66202,0
notchParam-44,true,1.00,1186,340,1173,319,68429,0
notchParam-45,true,1.00,1139,327,1127,297,66100,0
notchParam-46,true,1.00,1166,310,1158,289,66858,0
notchParam-47,true,1.00,351,312,343,291,20054,0
notchParam-48,true,1.00,370,337,359,316,20042,0
notchParam-49,true,1.00,379,324,372,299,21449,0
notchParam-50,true,1.00,409,326,401,305,21572,0
notchParam-51,true,1.00,356,308,345,287,20092,0
notchParam-52,true,1.00,1361,330,1353,309,69402,0
notchParam-53,true,1.00,1211,342,1200,321,66352,0
notchParam-54,true,1.00,1096,324,1089,303,59592,0
notchParam-55,true,1.00,407,321,396,300,22336,0
notchParam-56,true,1.00,355,314,349,293,19720,0
notchParam-57,true,1.00,1289,329,1280,308,74428,0
notchParam-58,true,1.00,663,336,652,315,37403,0
notchParam-59,true,1.00,1241,337,1237,316,70881,0
notchParam-60,true,1.00,687,338,680,317,38792,0
notchParam-61,true,1.00,1221,356,1214,335,70541,0
notchParam-62,true,1.00,877,298,870,277,49806,0
notchParam-63,true,1.00,679,324,673,303,38111,0
notchParam-64,true,1.00,640,324,629,303,35782,0
notchParam-65,true,1.00,683,346,668,325,38070,0
notchParam-66,true,1.00,729,328,721,307,41454,0
notchParam-67,true,1.00,1009,312,1001,291,56821,0
notchParam-68,true,1.00,884,308,878,286,48592,0
notchParam-69,true,1.00,872,308,865,287,50127,0
notchParam-70,true,1.00,932,310,925,289,53051,0
notchParam-71,true,1.00,783,354,773,333,44703,0
notchParam-72,true,1.00,706,340,695,319,40681,0
notchParam-73,true,1.00,657,308,654,287,37298,0
notchParam-74,true,1.00,727,331,717,310,40842,0
notchParam-75,true,1.00,714,330,705,309,41434,0
notchParam-76,true,1.00,1274,357,1266,336,71998,0
notchParam-77,true,1.00,750,337,747,316,42998,0
notchParam-78,true,1.00,1195,330,1190,309,68631,0
notchParam-79,true,1.00,672,317,662,296,38181,0
notchParam-80,true,1.00,416,365,408,344,22691,0
notchParam-81,true,1.00,668,320,662,299,38819,0
notchParam-82,true,1.00,410,305,402,284,23134,0
notchParam-83,true,1.00,359,302,352,281,20267,0
notchParam-84,true,1.00,992,321,984,300,55448,0
notchParam-85,true,1.00,1555,372,1547,351,80648,0
notchParam-86,true,1.00,1167,304,1159,283,66875,0
notchParam-87,true,1.00,390,323,384,302,21919,0
notchParam-88,true,1.00,423,310,414,289,23987,0
notchParam-89,true,1.00,362,306,355,285,20509,0
notchParam-90,true,1.00,369,309,357,288,20215,0
notchParam-91,true,1.00,1234,330,1226,309,69126,0
notchParam-92,true,1.00,1249,329,1236,308,71300,0
notchParam-93,true,1.00,1173,320,1169,299,68193,0
notchParam-94,true,1.00,1190,341,1184,320,67464,0
notchParam-95,true,1.00,1265,361,1252,340,72581,0
notchParam-96,true,1.00,710,321,699,300,41436,0
notchParam-97,true,1.00,697,315,690,294,38959,0
notchParam-98,true,1.00,372,300,362,279,21123,0
notchParam-99,true,1.00,1115,324,1103,303,61283,0
notchParam-100,true,1.00,925,304,914,283,52140,0
