NDW:0.0
TTFW:0.8
DFPT:2.0
DFPAP:3.0
DFPMP:1.0
RIGHT_WINDOW_BORDER_X:35.0
level,win/fail,% travelled,run time,game ticks,planning time,total plannings,nodes evaluated,most backtracked nodes
Krys-1,false,0.38,25334,999,25324,999,945820,0
Krys-2,false,0.62,2246,542,2237,542,126851,0
Krys-3,false,0.11,2061,165,2059,165,109700,0
Krys-4,false,0.67,3497,526,3484,526,168670,0
Krys-5,false,0.62,4659,561,4648,561,247219,0
Krys-6,false,0.72,3246,645,3234,645,179629,0
Krys-7,true,1.00,1488,669,1476,665,81430,0
Krys-8,false,0.60,1444,435,1435,435,78532,0
Krys-9,false,0.29,1272,222,1268,222,63604,0
Krys-10,false,0.09,67,79,66,79,3960,0
Krys-11,false,0.66,124,371,119,371,7599,0
Krys-12,false,0.53,2329,571,2318,571,127169,0
Krys-13,false,0.22,1195,235,1192,235,67173,0
Krys-14,true,1.00,586,602,568,598,32545,0
Krys-15,false,0.53,1634,455,1626,455,93557,0
Krys-16,true,1.00,3463,824,3442,820,187214,0
Krys-17,false,0.61,2209,465,2200,465,116047,0
Krys-18,false,0.61,1589,543,1572,543,88570,0
Krys-19,false,0.11,806,151,803,151,41519,0
Krys-20,false,0.62,1553,518,1540,518,92855,0
Krys-21,false,0.30,1707,234,1700,234,93193,0
Krys-22,false,0.12,414,85,413,85,20610,0
Krys-23,false,0.34,164,180,161,180,9365,0
Krys-24,false,0.32,1294,323,1289,323,71341,0
Krys-25,false,0.44,3568,492,3556,492,186183,0
Krys-26,false,0.12,423,85,421,85,19495,0
Krys-27,false,0.53,1071,382,1063,382,50439,0
Krys-28,false,0.43,2127,428,2121,428,119765,0
Krys-29,false,0.42,2791,395,2781,395,134302,0
Krys-30,false,0.55,474,357,466,357,26059,0
Krys-31,false,0.65,890,424,881,424,47211,0
Krys-32,false,0.51,221,302,210,302,13438,0
Krys-33,true,1.00,1772,624,1758,620,104220,0
Krys-34,false,0.62,395,374,386,374,22460,0
Krys-35,false,0.53,2462,534,2450,534,142506,0
Krys-36,false,0.41,2205,415,2197,415,120528,0
Krys-37,false,0.12,415,85,414,85,20865,0
Krys-38,false,0.32,1301,298,1293,298,75812,0
Krys-39,false,0.19,525,121,523,121,27921,0
Krys-40,false,0.62,4460,622,4448,622,258768,0
Krys-41,false,0.12,415,85,415,85,20940,0
Krys-42,false,0.55,2326,442,2320,442,131926,0
Krys-43,false,0.53,1701,452,1694,452,99673,0
Krys-44,false,0.43,1559,325,1549,325,87098,0
Krys-45,true,1.00,1038,649,1026,645,55952,0
Krys-46,false,0.36,117,223,116,223,7065,0
Krys-47,false,0.45,189,270,162,270,10434,0
Krys-48,false,0.11,805,151,803,151,41968,0
Krys-49,false,0.69,3271,546,3262,546,179441,0
Krys-50,false,0.33,4440,473,4433,473,238852,0
Krys-51,false,0.39,1315,999,1290,999,74796,0
Krys-52,false,0.55,295,359,285,359,18167,0
Krys-53,false,0.81,2956,600,2943,600,136937,0
Krys-54,false,0.43,4181,571,4169,571,224073,0
Krys-55,false,0.46,1243,338,1239,338,66546,0
Krys-56,false,0.30,1422,307,1416,307,76991,0
Krys-57,false,0.73,3208,618,3197,618,155060,0
Krys-58,false,0.68,3373,605,3360,605,167666,0
Krys-59,true,1.00,1101,754,1082,745,59064,0
Krys-60,false,0.51,1819,363,1809,363,97971,0
Krys-61,false,0.30,838,239,834,239,51431,0
Krys-62,false,0.09,66,79,62,79,4007,0
Krys-63,false,0.33,418,264,410,264,23263,0
Krys-64,false,0.25,1229,234,1226,234,62674,0
Krys-65,false,0.50,197,280,190,280,11058,0
Krys-66,false,0.06,14,42,13,42,835,0
Krys-67,false,0.73,2515,596,2497,596,131969,0
Krys-68,false,0.62,2662,481,2650,481,138996,0
Krys-69,false,0.48,22456,999,22448,999,834454,0
Krys-70,false,0.53,3394,685,3376,685,186392,0
Krys-71,false,0.34,2773,395,2759,395,142017,0
Krys-72,false,0.40,887,311,879,311,48988,0
Krys-73,false,0.51,1180,391,1176,391,65417,0
Krys-74,false,0.73,2326,592,2317,592,122012,0
Krys-75,false,0.53,186,332,174,332,10978,0
Krys-76,false,0.30,1708,234,1704,234,93144,0
Krys-77,false,0.12,1618,140,1614,140,86690,0
Krys-78,false,0.20,2869,262,2862,262,156511,0
Krys-79,true,1.00,971,708,953,704,54332,0
Krys-80,false,0.69,431,408,419,408,24520,0
Krys-81,false,0.30,330,237,322,237,19632,0
Krys-82,true,1.00,1253,635,1232,631,69274,0
Krys-83,false,0.53,2681,429,2674,429,152129,0
Krys-84,true,1.00,1343,659,1321,650,69529,0
Krys-85,false,0.62,679,448,661,448,42765,0
Krys-86,true,1.00,4015,649,4004,644,185796,0
Krys-87,true,1.00,581,618,573,613,32611,0
Krys-88,false,0.46,353,308,346,308,20151,0
Krys-89,false,0.34,2564,345,2557,345,129658,0
Krys-90,false,0.12,414,85,413,85,20623,0
Krys-91,false,0.55,2210,376,2199,376,117480,0
Krys-92,false,0.34,2394,372,2386,372,119553,0
Krys-93,false,0.53,2937,511,2925,511,162894,0
Krys-94,false,0.38,1481,999,1455,999,82984,0
Krys-95,false,0.40,1224,325,1215,325,66555,0
Krys-96,false,0.55,2153,474,2143,474,115100,0
Krys-97,false,0.69,16786,999,16771,999,939057,0
Krys-98,false,0.11,1314,144,1312,144,62597,0
Krys-99,false,0.15,27,87,25,87,1692,0
Krys-100,false,0.21,682,137,678,137,34642,0
