NDW:0.0
TTFW:1.2
DFPT:2.0
DFPAP:3.0
DFPMP:1.0
RIGHT_WINDOW_BORDER_X:35.0
level,win/fail,% travelled,run time,game ticks,planning time,total plannings,nodes evaluated,most backtracked nodes
Mario-1,true,1.00,1977,792,1959,782,102083,0
Mario-2,true,1.00,5118,842,5104,838,267198,0
Mario-3,false,0.33,213634,6666,213630,6666,10627810,0
Mario-4,true,1.00,4917,918,4897,913,259735,0
Mario-5,false,0.20,1103,227,1099,227,58399,0
Mario-6,false,0.12,1097,87,1097,87,54742,0
Mario-7,false,0.33,1930,339,1927,339,93578,0
Mario-8,false,0.57,6391,697,6377,697,337035,0
Mario-9,false,0.76,3909,643,3896,643,213470,0
Mario-10,false,0.12,1428,123,1426,123,73269,0
Mario-11,false,0.08,354,79,352,79,19856,0
Mario-12,false,0.57,2504,659,2487,659,127504,0
Mario-13,false,0.31,1557,285,1550,285,86236,0
Mario-14,false,0.33,39,167,34,167,2333,0
Mario-15,false,0.03,6,27,4,27,406,0
