NDW:0.0
TTFW:1.4
DFPT:2.0
DFPAP:3.0
DFPMP:20.0
RIGHT_WINDOW_BORDER_X:75.0
level,win/fail,% travelled,run time,game ticks,planning time,total plannings,nodes evaluated,most backtracked nodes
notchParam-1,false,0.36,1884,194,1882,194,110580,0
notchParam-2,false,0.36,3890,233,3889,233,249261,0
notchParam-3,true,1.00,2647,462,2641,455,164184,0
notchParam-4,true,1.00,1462,423,1456,413,86923,0
notchParam-5,true,1.00,1786,410,1775,403,93480,0
notchParam-6,true,1.00,1275,373,1259,367,43383,0
notchParam-7,false,0.37,3978,246,3972,246,252046,0
notchParam-8,false,0.56,999,271,991,271,64964,0
notchParam-9,false,0.17,48,75,47,75,2994,0
notchParam-10,false,0.70,8063,556,8053,556,421682,0
notchParam-11,true,1.00,3170,464,3158,455,188555,0
notchParam-12,false,0.82,8088,601,8081,601,442045,0
notchParam-13,true,1.00,351,369,343,362,22538,0
notchParam-14,true,1.00,421,350,414,343,26073,0
notchParam-15,false,0.36,3373,261,3370,261,198514,0
notchParam-16,false,0.37,3764,247,3760,247,246318,0
notchParam-17,false,0.37,1522,178,1521,178,93159,0
notchParam-18,true,1.00,1458,416,1451,410,95565,0
notchParam-19,true,1.00,318,345,312,338,20618,0
notchParam-20,true,1.00,1016,367,1010,360,61324,0
notchParam-21,true,1.00,280,326,272,319,16746,0
notchParam-22,true,1.00,634,377,625,371,42229,0
notchParam-23,true,1.00,9365,746,9359,739,595944,0
notchParam-24,false,0.57,8233,474,8226,474,393556,0
notchParam-25,true,1.00,6618,599,6596,592,226952,0
notchParam-26,false,0.44,5044,370,5034,370,286969,0
notchParam-27,true,1.00,322,357,316,350,21560,0
notchParam-28,true,1.00,1597,428,1590,421,97066,0
notchParam-29,true,1.00,2154,445,2147,439,132245,0
notchParam-30,true,1.00,354,336,345,329,22650,0
notchParam-31,false,0.37,1754,183,1751,183,105475,0
notchParam-32,false,0.37,1525,178,1523,178,93402,0
notchParam-33,true,1.00,725,361,720,355,45096,0
notchParam-34,false,0.37,2255,212,2254,212,133857,0
notchParam-35,false,0.37,3335,224,3332,224,206823,0
notchParam-36,false,0.37,1521,178,1516,178,93251,0
notchParam-37,true,1.00,354,336,345,329,21537,0
notchParam-38,true,1.00,297,363,293,357,19293,0
notchParam-39,false,0.37,3435,228,3429,228,221840,0
notchParam-40,true,1.00,2179,414,2166,407,130849,0
notchParam-41,false,0.55,396,209,392,209,24268,0
notchParam-42,true,1.00,323,352,313,346,21763,0
notchParam-43,false,0.31,3612,242,3607,242,215023,0
notchParam-44,true,1.00,8088,644,8075,638,492891,0
notchParam-45,false,0.31,4797,294,4793,294,291065,0
notchParam-46,false,0.70,8513,575,8508,575,450775,0
notchParam-47,true,1.00,1203,380,1185,374,43304,0
notchParam-48,true,1.00,527,368,514,362,24140,0
notchParam-49,true,1.00,937,382,926,374,58898,0
notchParam-50,true,1.00,330,350,321,344,20256,0
notchParam-51,true,1.00,1162,380,1151,374,64266,0
notchParam-52,false,0.37,3136,218,3129,218,150473,0
notchParam-53,false,0.36,1986,193,1982,193,133196,0
notchParam-54,false,0.37,3340,248,3333,248,194564,0
notchParam-55,true,1.00,578,397,571,391,39174,0
notchParam-56,true,1.00,706,378,699,372,44762,0
notchParam-57,false,0.44,4318,335,4312,335,273407,0
notchParam-58,false,0.17,49,81,49,81,3270,0
notchParam-59,true,1.00,5370,601,5360,588,332332,0
notchParam-60,true,1.00,1688,423,1680,416,106168,0
notchParam-61,false,0.31,3309,236,3308,236,208460,0
notchParam-62,false,0.36,2243,188,2241,188,120608,0
notchParam-63,true,1.00,1240,394,1237,388,74286,0
notchParam-64,true,1.00,856,385,850,379,50356,0
notchParam-65,true,1.00,1517,403,1510,396,91576,0
notchParam-66,true,1.00,1551,410,1542,404,92566,0
notchParam-67,false,0.36,4916,274,4913,274,312448,0
notchParam-68,false,0.37,2258,212,2255,212,129231,0
notchParam-69,false,0.36,2771,215,2770,215,118180,0
notchParam-70,false,0.37,3125,217,3120,217,183027,0
notchParam-71,true,1.00,1629,443,1624,437,102390,0
notchParam-72,true,1.00,1814,416,1805,410,112763,0
notchParam-73,false,0.68,1747,288,1744,288,107534,0
notchParam-74,true,1.00,1976,458,1965,452,120695,0
notchParam-75,true,1.00,2465,466,2457,460,155876,0
notchParam-76,false,0.31,2842,229,2841,229,176287,0
notchParam-77,true,1.00,2128,469,2119,459,132215,0
notchParam-78,true,1.00,6856,651,6839,644,371573,0
notchParam-79,false,0.43,2242,231,2237,231,74392,0
notchParam-80,true,1.00,387,380,375,374,14076,0
notchParam-81,true,1.00,1176,378,1160,364,41706,0
notchParam-82,true,1.00,386,341,378,334,17399,0
notchParam-83,true,1.00,360,353,346,347,22254,0
notchParam-84,false,0.36,3149,271,3146,271,190493,0
notchParam-85,false,0.36,3889,233,3886,233,255976,0
notchParam-86,false,0.70,7678,501,7672,501,476257,0
notchParam-87,true,1.00,347,340,342,333,22050,0
notchParam-88,true,1.00,282,352,271,346,18319,0
notchParam-89,true,1.00,940,368,934,362,58801,0
notchParam-90,false,0.66,967,275,964,275,61886,0
notchParam-91,true,1.00,8443,645,8435,639,494452,0
notchParam-92,false,0.82,5380,499,5375,499,317768,0
notchParam-93,true,1.00,7362,616,7355,609,449050,0
notchParam-94,false,0.31,1223,160,1220,160,74847,0
notchParam-95,true,1.00,9041,667,9035,660,575560,0
notchParam-96,true,1.00,1628,425,1624,419,101937,0
notchParam-97,true,1.00,2520,450,2511,444,129596,0
notchParam-98,true,1.00,383,332,374,325,23732,0
notchParam-99,false,0.37,3402,226,3399,226,207080,0
notchParam-100,false,0.36,2221,185,2218,185,77550,0
