NDW:0.0
TTFW:1.6
DFPT:2.0
DFPAP:3.0
DFPMP:20.0
RIGHT_WINDOW_BORDER_X:255.0
level,win/fail,% travelled,run time,game ticks,planning time,total plannings,nodes evaluated,most backtracked nodes
patternCount-1,false,0.90,4929,520,4922,520,563666,0
patternCount-2,true,1.00,1184,473,1181,450,145530,0
patternCount-3,true,1.00,2694,458,2690,441,294802,0
patternCount-4,true,1.00,1079,485,1077,462,127530,0
patternCount-5,true,1.00,1186,489,1185,453,141017,0
patternCount-6,true,1.00,399,387,395,363,45467,0
patternCount-7,true,1.00,1233,423,1230,400,154849,0
patternCount-8,true,1.00,2698,438,2695,404,322485,0
patternCount-9,true,1.00,911,445,910,421,114715,0
patternCount-10,true,1.00,332,397,331,375,41912,0
patternCount-11,true,1.00,4660,567,4659,537,529019,0
patternCount-12,true,1.00,529,414,529,386,63247,0
patternCount-13,true,1.00,611,420,608,396,77251,0
patternCount-14,true,1.00,1007,431,1007,408,122646,0
patternCount-15,true,1.00,883,482,881,459,106274,0
patternCount-16,true,1.00,1168,431,1165,408,144853,0
patternCount-17,true,1.00,1030,511,1025,488,123093,0
patternCount-18,true,1.00,1082,430,1079,407,132783,0
patternCount-19,true,1.00,734,387,730,364,84252,0
patternCount-20,true,1.00,1129,437,1124,403,141304,0
patternCount-21,true,1.00,908,491,906,468,110112,0
patternCount-22,true,1.00,2685,500,2681,459,318619,0
patternCount-23,true,1.00,5922,540,5920,515,614063,0
patternCount-24,true,1.00,5307,463,5304,434,639347,0
patternCount-25,true,1.00,900,443,898,420,111556,0
patternCount-26,true,1.00,505,435,502,412,59666,0
patternCount-27,true,1.00,795,425,793,400,100582,0
patternCount-28,true,1.00,953,458,950,415,114908,0
patternCount-29,true,1.00,844,460,841,437,101579,0
patternCount-30,true,1.00,659,482,656,459,81362,0
patternCount-31,true,1.00,1202,484,1200,461,140849,0
patternCount-32,true,1.00,1408,491,1406,468,164156,0
patternCount-33,true,1.00,3429,516,3426,485,389903,0
patternCount-34,true,1.00,2048,495,2045,453,254472,0
patternCount-35,true,1.00,834,433,832,410,101093,0
patternCount-36,true,1.00,2440,520,2439,469,282050,0
patternCount-37,true,1.00,820,388,818,365,95549,0
patternCount-38,true,1.00,2357,444,2354,420,266823,0
patternCount-39,true,1.00,721,437,716,414,86800,0
patternCount-40,true,1.00,5268,518,5268,476,608911,0
patternCount-41,true,1.00,2026,476,2022,453,266742,0
patternCount-42,true,1.00,618,440,616,409,75142,0
patternCount-43,true,1.00,585,479,584,456,67704,0
patternCount-44,true,1.00,623,438,620,415,78226,0
patternCount-45,true,1.00,815,473,811,440,93732,0
patternCount-46,true,1.00,1235,433,1233,410,157736,0
patternCount-47,true,1.00,1450,473,1446,450,178935,0
patternCount-48,true,1.00,623,463,622,440,80306,0
patternCount-49,true,1.00,1103,440,1101,416,132672,0
patternCount-50,true,1.00,6342,627,6340,597,775590,0
patternCount-51,true,1.00,742,462,733,438,87298,0
patternCount-52,true,1.00,1217,428,1215,405,144003,0
patternCount-53,true,1.00,5473,497,5469,468,582940,0
patternCount-54,true,1.00,1927,512,1927,489,245865,0
patternCount-55,true,1.00,6795,545,6792,514,734162,0
patternCount-56,true,1.00,1127,464,1124,441,137779,0
patternCount-57,true,1.00,708,448,705,414,86427,0
patternCount-58,false,0.80,5854,463,5853,463,602388,0
patternCount-59,true,1.00,965,465,963,442,119278,0
patternCount-60,true,1.00,1188,476,1184,453,142009,0
patternCount-61,true,1.00,1233,462,1232,422,143290,0
patternCount-62,true,1.00,896,427,895,389,115910,0
patternCount-63,true,1.00,663,453,659,430,89333,0
patternCount-64,true,1.00,922,460,918,437,117019,0
patternCount-65,true,1.00,1130,446,1128,414,142403,0
patternCount-66,true,1.00,1334,476,1332,453,167857,0
patternCount-67,true,1.00,1406,470,1405,435,173642,0
patternCount-68,true,1.00,576,436,573,413,70922,0
patternCount-69,true,1.00,823,492,820,459,100739,0
patternCount-70,true,1.00,571,419,567,396,70457,0
patternCount-71,true,1.00,1253,500,1248,477,154086,0
patternCount-72,true,1.00,4867,470,4864,446,551368,0
patternCount-73,true,1.00,1998,516,1998,492,243627,0
patternCount-74,true,1.00,6150,537,6150,482,644711,0
patternCount-75,true,1.00,1085,484,1084,457,127738,0
patternCount-76,true,1.00,1333,496,1329,473,169971,0
patternCount-77,true,1.00,1135,409,1131,380,144741,0
patternCount-78,true,1.00,1377,499,1373,476,169657,0
patternCount-79,true,1.00,4843,513,4842,479,572975,0
patternCount-80,true,1.00,2347,461,2343,424,267723,0
patternCount-81,true,1.00,795,466,790,443,95273,0
patternCount-82,true,1.00,834,416,829,393,104519,0
patternCount-83,true,1.00,505,436,501,413,62058,0
patternCount-84,true,1.00,659,461,656,438,77188,0
patternCount-85,true,1.00,821,444,820,421,101920,0
patternCount-86,true,1.00,648,404,647,381,79234,0
patternCount-87,true,1.00,1008,489,1004,457,126599,0
patternCount-88,true,1.00,980,472,976,437,124333,0
patternCount-89,true,1.00,1154,455,1150,431,142601,0
patternCount-90,true,1.00,422,419,419,396,52736,0
patternCount-91,true,1.00,1612,471,1607,448,192446,0
patternCount-92,true,1.00,890,478,888,455,108008,0
patternCount-93,true,1.00,5946,546,5942,514,673379,0
patternCount-94,true,1.00,1073,465,1070,428,132145,0
patternCount-95,true,1.00,1514,450,1511,427,193694,0
patternCount-96,true,1.00,628,446,625,423,76795,0
patternCount-97,false,0.82,4897,448,4895,448,510584,0
patternCount-98,true,1.00,878,454,874,429,110405,0
patternCount-99,true,1.00,931,479,929,456,117858,0
patternCount-100,true,1.00,494,392,489,369,61624,0
