NDW:0.0
TTFW:1.2
DFPT:2.0
DFPAP:3.0
DFPMP:2.0
RIGHT_WINDOW_BORDER_X:115.0
level,win/fail,% travelled,run time,game ticks,planning time,total plannings,nodes evaluated,most backtracked nodes
Mario-1,true,1.00,611,434,610,420,72892,0
Mario-2,true,1.00,540,343,539,323,55563,0
Mario-3,true,1.00,1548,302,1547,286,180515,0
Mario-4,true,1.00,1086,514,1081,498,124340,0
Mario-5,true,1.00,2424,550,2421,532,264342,0
Mario-6,true,1.00,1070,276,1069,266,125733,0
Mario-7,true,1.00,755,445,753,431,74060,0
Mario-8,true,1.00,3258,544,3255,531,313998,0
Mario-9,true,1.00,514,417,512,405,52274,0
Mario-10,true,1.00,2983,370,2979,355,339171,0
Mario-11,true,1.00,757,414,755,397,78549,0
Mario-12,true,1.00,653,663,649,648,72966,0
Mario-13,true,1.00,2896,413,2895,396,360899,0
Mario-14,true,1.00,148,380,147,364,17105,0
Mario-15,true,1.00,5203,987,5198,971,499022,0
