NDW:0.0
TTFW:0.2
DFPT:2.0
DFPAP:3.0
DFPMP:5.0
RIGHT_WINDOW_BORDER_X:95.0
level,win/fail,% travelled,run time,game ticks,planning time,total plannings,nodes evaluated,most backtracked nodes
hopper-1,true,1.00,4485,559,4483,549,396075,0
hopper-2,true,1.00,4070,530,4069,520,349070,0
hopper-3,false,0.24,2150,159,2150,159,168251,0
hopper-4,false,0.26,2611,186,2609,186,216605,0
hopper-5,true,1.00,4796,568,4796,554,413127,0
hopper-6,true,1.00,2402,475,2399,465,212516,0
hopper-7,false,0.83,6466,532,6464,532,513895,0
hopper-8,false,0.41,2553,237,2553,237,204555,0
hopper-9,true,1.00,6518,618,6515,607,580876,0
hopper-10,true,1.00,4693,569,4691,559,423060,0
hopper-11,true,1.00,2622,484,2620,474,233474,0
hopper-12,true,1.00,1889,447,1887,437,169650,0
hopper-13,true,1.00,4326,571,4323,561,389822,0
hopper-14,true,1.00,4114,529,4108,519,361976,0
hopper-15,true,1.00,2975,506,2971,494,256536,0
hopper-16,false,0.54,3982,350,3980,350,320040,0
hopper-17,true,1.00,3045,514,3040,505,266240,0
hopper-18,true,1.00,2266,465,2265,455,197347,0
hopper-19,true,1.00,2046,473,2041,463,188670,0
hopper-20,true,1.00,4210,538,4205,528,365396,0
hopper-21,false,0.61,4740,394,4738,394,379117,0
hopper-22,false,0.32,2741,209,2741,209,216849,0
hopper-23,true,1.00,3595,525,3593,513,314979,0
hopper-24,true,1.00,1966,469,1961,459,182625,0
hopper-25,true,1.00,2338,475,2333,465,201290,0
hopper-26,true,1.00,2860,460,2858,450,224958,0
hopper-27,true,1.00,2902,480,2896,466,241815,0
hopper-28,false,0.85,5543,497,5542,497,479417,0
hopper-29,false,0.25,3670,213,3670,213,288905,0
hopper-30,true,1.00,3050,515,3049,505,267590,0
hopper-31,false,0.77,3448,399,3444,399,293215,0
hopper-32,true,1.00,6400,580,6394,571,554902,0
hopper-33,false,0.49,2964,280,2963,280,242125,0
hopper-34,false,0.31,3098,209,3096,209,244817,0
hopper-35,true,1.00,6984,624,6980,614,630914,0
hopper-36,true,1.00,2576,487,2575,477,225994,0
hopper-37,false,0.51,2551,287,2550,287,209226,0
hopper-38,false,0.52,4282,340,4282,340,350993,0
hopper-39,false,0.52,3762,334,3761,334,320865,0
hopper-40,true,1.00,2507,480,2506,469,217273,0
hopper-41,false,0.24,2347,166,2346,166,183015,0
hopper-42,true,1.00,3462,519,3459,509,299051,0
hopper-43,false,0.44,3943,306,3943,306,319959,0
hopper-44,true,1.00,6833,599,6828,587,586296,0
hopper-45,false,0.43,5909,362,5907,362,490994,0
hopper-46,false,0.66,5723,441,5720,441,495264,0
hopper-47,true,1.00,4793,541,4790,531,415959,0
hopper-48,true,1.00,4594,577,4593,567,399159,0
hopper-49,true,1.00,8609,675,8606,665,754975,0
hopper-50,false,0.62,3073,339,3073,339,256884,0
hopper-51,false,0.33,3222,225,3222,225,254196,0
hopper-52,true,1.00,4263,560,4261,550,380960,0
hopper-53,false,0.62,7624,517,7623,517,641278,0
hopper-54,true,1.00,2004,477,1999,467,182619,0
hopper-55,true,1.00,3657,544,3655,534,330623,0
hopper-56,true,1.00,4687,565,4681,552,423262,0
hopper-57,true,1.00,2545,485,2542,471,216724,0
hopper-58,false,0.58,4600,373,4598,373,386879,0
hopper-59,true,1.00,3227,506,3224,497,292560,0
hopper-60,true,1.00,3290,501,3289,491,309264,0
hopper-61,true,1.00,4443,567,4438,557,381159,0
hopper-62,true,1.00,4862,544,4859,534,426056,0
hopper-63,false,0.23,1756,146,1756,146,138109,0
hopper-64,true,1.00,4462,571,4457,559,386095,0
hopper-65,true,1.00,6445,608,6442,598,571090,0
hopper-66,true,1.00,1467,461,1464,451,131661,0
hopper-67,true,1.00,4088,524,4086,514,371077,0
hopper-68,true,1.00,1670,477,1670,467,152062,0
hopper-69,false,0.83,6346,535,6342,535,518269,0
hopper-70,true,1.00,3379,507,3378,496,300527,0
hopper-71,true,1.00,4013,538,4009,528,340402,0
hopper-72,true,1.00,5141,560,5136,551,444835,0
hopper-73,true,1.00,4656,561,4653,551,403333,0
hopper-74,true,1.00,2801,505,2796,493,242776,0
hopper-75,true,1.00,3655,514,3653,504,317085,0
hopper-76,true,1.00,3221,532,3215,521,282883,0
hopper-77,true,1.00,1857,471,1856,461,160216,0
hopper-78,true,1.00,4182,561,4181,551,381794,0
hopper-79,true,1.00,2175,495,2172,485,192655,0
hopper-80,true,1.00,3071,520,3070,510,261092,0
hopper-81,false,0.38,3479,266,3479,266,287721,0
hopper-82,false,0.46,4081,323,4081,323,336594,0
hopper-83,true,1.00,4353,556,4349,547,396543,0
hopper-84,true,1.00,4755,522,4751,512,406228,0
hopper-85,true,1.00,4091,534,4086,524,348059,0
hopper-86,true,1.00,9172,704,9169,694,775422,0
hopper-87,true,1.00,3839,541,3838,531,334160,0
hopper-88,true,1.00,3994,516,3986,506,361930,0
hopper-89,true,1.00,3891,535,3888,525,343271,0
hopper-90,true,1.00,4028,516,4024,506,353544,0
hopper-91,true,1.00,4873,562,4871,553,428424,0
hopper-92,true,1.00,4205,561,4205,551,364947,0
hopper-93,true,1.00,1328,446,1323,436,125407,0
hopper-94,true,1.00,4178,556,4171,546,373878,0
hopper-95,true,1.00,5382,558,5377,548,455880,0
hopper-96,false,0.36,26514,999,26512,999,2167753,0
hopper-97,true,1.00,4340,543,4337,533,338228,0
hopper-98,true,1.00,4807,551,4803,541,367039,0
hopper-99,true,1.00,5950,635,5947,624,522208,0
hopper-100,true,1.00,4414,560,4413,551,381331,0
