NDW:0.0
TTFW:0.8
DFPT:2.0
DFPAP:3.0
DFPMP:50.0
RIGHT_WINDOW_BORDER_X:135.0
level,win/fail,% travelled,run time,game ticks,planning time,total plannings,nodes evaluated,most backtracked nodes
patternWeightCount-1,true,1.00,5002,517,4995,500,294202,0
patternWeightCount-2,true,1.00,764,407,756,388,45282,0
patternWeightCount-3,true,1.00,750,391,744,379,44583,0
patternWeightCount-4,true,1.00,710,385,704,373,41717,0
patternWeightCount-5,true,1.00,1980,454,1971,442,117044,0
patternWeightCount-6,true,1.00,1744,431,1732,419,104676,0
patternWeightCount-7,true,1.00,955,402,940,390,56856,0
patternWeightCount-8,true,1.00,608,428,596,416,32466,0
patternWeightCount-9,true,1.00,972,429,958,417,58490,0
patternWeightCount-10,true,1.00,821,399,805,387,48346,0
patternWeightCount-11,true,1.00,763,427,750,415,45853,0
patternWeightCount-12,true,1.00,1214,449,1204,437,72195,0
patternWeightCount-13,true,1.00,863,358,851,346,51736,0
patternWeightCount-14,true,1.00,1143,428,1137,416,68121,0
patternWeightCount-15,true,1.00,1820,425,1817,413,109895,0
patternWeightCount-16,true,1.00,3168,518,3158,502,193150,0
patternWeightCount-17,true,1.00,629,415,617,403,38335,0
patternWeightCount-18,true,1.00,651,404,641,392,38876,0
patternWeightCount-19,true,1.00,615,426,600,414,35535,0
patternWeightCount-20,false,0.61,3069,308,3065,308,173631,0
patternWeightCount-21,true,1.00,502,434,492,422,28519,0
patternWeightCount-22,true,1.00,4292,530,4280,516,263139,0
patternWeightCount-23,true,1.00,1016,461,1001,440,61733,0
patternWeightCount-24,true,1.00,1667,419,1660,407,100918,0
patternWeightCount-25,true,1.00,3335,492,3322,480,197164,0
patternWeightCount-26,true,1.00,1759,446,1753,434,109596,0
patternWeightCount-27,true,1.00,2104,482,2092,468,125774,0
patternWeightCount-28,true,1.00,1742,467,1734,455,102243,0
patternWeightCount-29,true,1.00,1104,388,1092,376,65414,0
patternWeightCount-30,false,0.85,5310,512,5302,512,293130,0
patternWeightCount-31,true,1.00,1467,476,1454,464,84756,0
patternWeightCount-32,true,1.00,557,406,549,394,33101,0
patternWeightCount-33,true,1.00,1336,424,1329,412,79731,0
patternWeightCount-34,true,1.00,3184,444,3177,432,187067,0
patternWeightCount-35,true,1.00,2438,526,2428,514,139411,0
patternWeightCount-36,true,1.00,1397,430,1389,418,83696,0
patternWeightCount-37,true,1.00,809,392,800,380,49032,0
patternWeightCount-38,false,0.95,6548,561,6541,561,374806,0
patternWeightCount-39,true,1.00,1867,472,1859,460,109777,0
patternWeightCount-40,true,1.00,1721,415,1710,403,106192,0
patternWeightCount-41,true,1.00,1812,484,1796,471,110372,0
patternWeightCount-42,false,0.87,4060,441,4055,441,230138,0
patternWeightCount-43,true,1.00,1244,404,1237,392,74266,0
patternWeightCount-44,true,1.00,1447,451,1439,435,88438,0
patternWeightCount-45,true,1.00,7577,612,7570,599,428082,0
patternWeightCount-46,false,0.82,21873,999,21867,999,1284255,0
patternWeightCount-47,true,1.00,959,397,949,385,57363,0
patternWeightCount-48,true,1.00,787,376,775,364,45917,0
patternWeightCount-49,true,1.00,986,366,980,354,58262,0
patternWeightCount-50,true,1.00,730,405,726,393,42076,0
patternWeightCount-51,true,1.00,2674,492,2661,468,161556,0
patternWeightCount-52,true,1.00,3043,502,3034,487,185674,0
patternWeightCount-53,true,1.00,4487,521,4478,509,258590,0
patternWeightCount-54,true,1.00,1278,469,1266,457,77170,0
patternWeightCount-55,true,1.00,1480,429,1467,401,85399,0
patternWeightCount-56,true,1.00,1105,429,1098,417,66495,0
patternWeightCount-57,true,1.00,691,409,681,397,43137,0
patternWeightCount-58,true,1.00,1638,430,1625,418,98273,0
patternWeightCount-59,true,1.00,533,408,523,396,31242,0
patternWeightCount-60,true,1.00,1909,455,1901,441,115565,0
patternWeightCount-61,true,1.00,1468,396,1461,384,90019,0
patternWeightCount-62,true,1.00,3040,484,3031,464,179534,0
patternWeightCount-63,true,1.00,1757,438,1751,426,106487,0
patternWeightCount-64,true,1.00,1799,447,1787,435,107740,0
patternWeightCount-65,true,1.00,1441,438,1430,426,85815,0
patternWeightCount-66,true,1.00,880,402,872,390,51853,0
patternWeightCount-67,true,1.00,1023,452,1017,440,57552,0
patternWeightCount-68,true,1.00,678,373,666,361,39845,0
patternWeightCount-69,true,1.00,3266,491,3258,455,184101,0
patternWeightCount-70,true,1.00,1572,479,1562,466,94141,0
patternWeightCount-71,true,1.00,1179,451,1170,437,69826,0
patternWeightCount-72,true,1.00,6866,561,6858,536,392666,0
patternWeightCount-73,true,1.00,9948,646,9945,610,573886,0
patternWeightCount-74,true,1.00,822,389,814,377,49543,0
patternWeightCount-75,true,1.00,880,406,870,394,52324,0
patternWeightCount-76,true,1.00,1017,415,1006,403,61676,0
patternWeightCount-77,true,1.00,1059,393,1050,381,64571,0
patternWeightCount-78,true,1.00,3242,545,3232,524,190754,0
patternWeightCount-79,true,1.00,1074,386,1060,374,63718,0
patternWeightCount-80,true,1.00,1415,452,1404,440,84548,0
patternWeightCount-81,false,0.91,7176,552,7168,552,404056,0
patternWeightCount-82,true,1.00,372,381,362,368,21942,0
patternWeightCount-83,true,1.00,762,366,755,354,46187,0
patternWeightCount-84,true,1.00,623,417,614,405,37483,0
patternWeightCount-85,true,1.00,1479,439,1473,427,89418,0
patternWeightCount-86,false,0.93,4762,489,4750,489,273465,0
patternWeightCount-87,false,0.72,2299,352,2292,352,129725,0
patternWeightCount-88,true,1.00,1730,443,1722,431,101837,0
patternWeightCount-89,true,1.00,946,376,935,364,54783,0
patternWeightCount-90,false,0.90,7417,575,7399,575,417527,0
patternWeightCount-91,true,1.00,956,430,947,418,57404,0
patternWeightCount-92,true,1.00,6412,560,6398,547,380584,0
patternWeightCount-93,true,1.00,2668,435,2657,418,152702,0
patternWeightCount-94,true,1.00,1002,392,992,380,59841,0
patternWeightCount-95,true,1.00,1665,450,1651,438,98318,0
patternWeightCount-96,true,1.00,1576,434,1563,422,93324,0
patternWeightCount-97,true,1.00,867,350,855,338,51109,0
patternWeightCount-98,true,1.00,11280,671,11278,658,640248,0
patternWeightCount-99,true,1.00,1606,435,1596,423,95938,0
patternWeightCount-100,true,1.00,831,402,828,390,48318,0
