NDW:0.0
TTFW:1.4
DFPT:2.0
DFPAP:3.0
DFPMP:3.0
RIGHT_WINDOW_BORDER_X:176.0
level,win/fail,% travelled,run time,game ticks,planning time,total plannings,nodes evaluated,most backtracked nodes
hopper-1,true,1.00,1338,327,1331,311,74809,0
hopper-2,true,1.00,1164,333,1157,317,65826,0
hopper-3,false,0.25,559,87,556,87,28330,0
hopper-4,false,0.27,596,94,594,94,32601,0
hopper-5,true,1.00,984,324,978,308,55099,0
hopper-6,true,1.00,986,315,973,299,55904,0
hopper-7,false,0.84,1238,269,1234,269,66194,0
hopper-8,false,0.42,843,145,839,145,44151,0
hopper-9,true,1.00,1091,327,1086,311,60079,0
hopper-10,true,1.00,963,323,953,307,55534,0
hopper-11,true,1.00,740,325,734,309,39998,0
hopper-12,true,1.00,1247,334,1240,318,69371,0
hopper-13,false,0.40,959,133,958,133,49759,0
hopper-14,true,1.00,1195,332,1191,314,67651,0
hopper-15,true,1.00,1115,315,1098,299,63017,0
hopper-16,false,0.55,910,178,908,178,47531,0
hopper-17,true,1.00,1058,313,1053,297,59911,0
hopper-18,true,1.00,1223,318,1216,302,67782,0
hopper-19,true,1.00,901,317,896,301,51938,0
hopper-20,true,1.00,1173,332,1163,316,65483,0
hopper-21,false,0.61,2852,258,2845,258,134379,0
hopper-22,false,0.33,694,112,693,112,35976,0
hopper-23,true,1.00,1105,322,1100,306,62548,0
hopper-24,true,1.00,691,331,682,315,38543,0
hopper-25,true,1.00,1209,311,1198,295,70075,0
hopper-26,true,1.00,1096,305,1086,289,61288,0
hopper-27,true,1.00,989,315,980,299,56957,0
hopper-28,false,0.86,1734,287,1731,287,98115,0
hopper-29,false,0.26,559,91,555,91,28471,0
hopper-30,true,1.00,1343,350,1334,328,75023,0
hopper-31,false,0.77,1342,251,1335,251,71889,0
hopper-32,true,1.00,1324,303,1321,287,76152,0
hopper-33,false,0.49,1823,197,1819,197,86045,0
hopper-34,false,0.31,730,108,727,108,37862,0
hopper-35,true,1.00,1293,334,1287,318,75910,0
hopper-36,true,1.00,859,320,853,304,47917,0
hopper-37,false,0.51,700,171,698,171,35730,0
hopper-38,false,0.52,995,176,990,176,52437,0
hopper-39,false,0.52,1532,186,1530,186,75028,0
hopper-40,true,1.00,1105,350,1099,333,59499,0
hopper-41,true,1.00,1764,315,1759,299,97643,0
hopper-42,true,1.00,1039,323,1033,307,56168,0
hopper-43,false,0.45,2661,197,2659,197,126659,0
hopper-44,true,1.00,1524,325,1522,309,86978,0
hopper-45,false,0.43,2262,193,2259,193,106275,0
hopper-46,false,0.67,1281,234,1272,234,69876,0
hopper-47,true,1.00,1371,309,1361,293,76256,0
hopper-48,true,1.00,1212,311,1202,295,68509,0
hopper-49,true,1.00,1164,321,1155,305,64285,0
hopper-50,false,0.62,2378,241,2372,241,114697,0
hopper-51,false,0.34,686,113,684,113,35280,0
hopper-52,true,1.00,759,307,751,291,43904,0
hopper-53,false,0.63,3173,274,3166,274,152655,0
hopper-54,true,1.00,623,300,615,282,35612,0
hopper-55,true,1.00,885,345,876,328,50910,0
hopper-56,true,1.00,714,297,708,281,41506,0
hopper-57,true,1.00,1297,343,1289,327,71023,0
hopper-58,false,0.58,1069,181,1066,181,56287,0
hopper-59,true,1.00,807,301,801,285,45256,0
hopper-60,true,1.00,1091,324,1089,308,62329,0
hopper-61,false,0.83,1551,262,1542,262,84024,0
hopper-62,true,1.00,1262,340,1255,324,70206,0
hopper-63,false,0.23,623,80,622,80,31210,0
hopper-64,true,1.00,1145,323,1128,307,60436,0
hopper-65,true,1.00,1016,335,1006,317,56913,0
hopper-66,false,0.74,2027,282,2021,282,97826,0
hopper-67,true,1.00,991,332,981,316,56814,0
hopper-68,true,1.00,748,328,741,312,43000,0
hopper-69,false,0.84,1253,279,1247,279,67084,0
hopper-70,true,1.00,1205,309,1198,293,68838,0
hopper-71,true,1.00,688,305,677,289,39963,0
hopper-72,true,1.00,1255,305,1248,289,70522,0
hopper-73,true,1.00,1078,319,1065,303,61597,0
hopper-74,true,1.00,797,307,788,291,44426,0
hopper-75,true,1.00,990,323,982,307,55807,0
hopper-76,false,0.48,1075,163,1072,163,56763,0
hopper-77,true,1.00,1236,360,1230,344,68655,0
hopper-78,true,1.00,1081,308,1070,292,64284,0
hopper-79,true,1.00,760,320,752,298,42935,0
hopper-80,true,1.00,869,319,862,303,48616,0
hopper-81,false,0.39,899,134,898,134,46858,0
hopper-82,false,0.45,2487,192,2485,192,115335,0
hopper-83,true,1.00,1390,329,1384,313,81045,0
hopper-84,true,1.00,1143,305,1137,289,65152,0
hopper-85,true,1.00,1757,369,1748,353,98346,0
hopper-86,true,1.00,1056,311,1048,295,60093,0
hopper-87,true,1.00,1225,325,1218,309,67638,0
hopper-88,true,1.00,759,329,753,313,40918,0
hopper-89,true,1.00,900,348,895,332,48137,0
hopper-90,true,1.00,909,325,901,309,48898,0
hopper-91,true,1.00,1067,322,1059,306,57902,0
hopper-92,true,1.00,1288,327,1277,311,70612,0
hopper-93,true,1.00,750,317,744,301,43696,0
hopper-94,false,0.65,1219,223,1214,223,65403,0
hopper-95,true,1.00,1049,315,1041,299,56863,0
hopper-96,true,1.00,1362,308,1356,292,76566,0
hopper-97,true,1.00,1351,318,1344,302,74014,0
hopper-98,true,1.00,1583,325,1572,309,88723,0
hopper-99,false,0.73,2826,279,2824,279,153230,0
hopper-100,true,1.00,1336,352,1327,326,73330,0
