NDW:0.0
TTFW:1.4
DFPT:2.0
DFPAP:3.0
DFPMP:10.0
RIGHT_WINDOW_BORDER_X:155.0
level,win/fail,% travelled,run time,game ticks,planning time,total plannings,nodes evaluated,most backtracked nodes
notchParam-1,true,1.00,819,312,813,298,41559,0
notchParam-2,true,1.00,945,334,939,320,48306,0
notchParam-3,true,1.00,574,313,562,299,29230,0
notchParam-4,true,1.00,588,317,577,303,29338,0
notchParam-5,true,1.00,608,308,600,294,32548,0
notchParam-6,true,1.00,587,322,577,308,32153,0
notchParam-7,false,0.67,1583,254,1575,254,79348,0
notchParam-8,true,1.00,1048,319,1039,305,57132,0
notchParam-9,true,1.00,666,349,660,335,35773,0
notchParam-10,true,1.00,1015,318,1009,304,55248,0
notchParam-11,true,1.00,559,316,549,302,29947,0
notchParam-12,true,1.00,1051,314,1046,300,58071,0
notchParam-13,true,1.00,246,316,236,302,12447,0
notchParam-14,true,1.00,243,306,231,292,11928,0
notchParam-15,true,1.00,1222,327,1215,313,57414,0
notchParam-16,true,1.00,848,313,832,299,43917,0
notchParam-17,true,1.00,836,308,828,294,43005,0
notchParam-18,true,1.00,244,337,235,323,11905,0
notchParam-19,true,1.00,241,309,232,295,12208,0
notchParam-20,true,1.00,311,310,302,296,15777,0
notchParam-21,true,1.00,233,298,228,284,11284,0
notchParam-22,true,1.00,259,312,254,298,13120,0
notchParam-23,true,1.00,1117,332,1112,318,61439,0
notchParam-24,true,1.00,1075,331,1070,317,59239,0
notchParam-25,true,1.00,1163,322,1155,308,62907,0
notchParam-26,true,1.00,1201,350,1195,336,65120,0
notchParam-27,true,1.00,253,311,245,297,12326,0
notchParam-28,true,1.00,612,347,604,333,32625,0
notchParam-29,true,1.00,601,324,594,310,32481,0
notchParam-30,true,1.00,249,310,244,296,12211,0
notchParam-31,true,1.00,1606,350,1591,336,81248,0
notchParam-32,true,1.00,813,308,809,294,43280,0
notchParam-33,true,1.00,304,300,298,286,15264,0
notchParam-34,true,1.00,1385,346,1374,332,67193,0
notchParam-35,true,1.00,1950,372,1936,358,97004,0
notchParam-36,true,1.00,800,302,790,288,41729,0
notchParam-37,true,1.00,230,302,224,288,11120,0
notchParam-38,true,1.00,238,306,231,292,11964,0
notchParam-39,true,1.00,1304,330,1295,316,63976,0
notchParam-40,true,1.00,566,312,560,298,30127,0
notchParam-41,true,1.00,574,316,565,302,30621,0
notchParam-42,true,1.00,252,310,240,296,12689,0
notchParam-43,true,1.00,1038,316,1031,302,56992,0
notchParam-44,true,1.00,1075,330,1067,316,58816,0
notchParam-45,true,1.00,1099,340,1095,321,61337,0
notchParam-46,true,1.00,1083,314,1070,300,58217,0
notchParam-47,true,1.00,233,298,223,284,12151,0
notchParam-48,true,1.00,259,337,252,323,13295,0
notchParam-49,true,1.00,254,326,243,307,13080,0
notchParam-50,true,1.00,322,336,308,322,15491,0
notchParam-51,true,1.00,236,308,230,294,11866,0
notchParam-52,true,1.00,1290,341,1285,327,62523,0
notchParam-53,true,1.00,894,302,884,288,47501,0
notchParam-54,true,1.00,1604,346,1598,332,81110,0
notchParam-55,true,1.00,302,322,292,308,15348,0
notchParam-56,true,1.00,215,310,206,296,10719,0
notchParam-57,true,1.00,1227,356,1219,342,67499,0
notchParam-58,true,1.00,607,338,601,324,32524,0
notchParam-59,true,1.00,1172,371,1167,357,62524,0
notchParam-60,true,1.00,540,332,531,318,28701,0
notchParam-61,true,1.00,1122,344,1114,330,61899,0
notchParam-62,true,1.00,758,304,746,290,39146,0
notchParam-63,true,1.00,740,338,731,324,39449,0
notchParam-64,true,1.00,573,324,570,310,30668,0
notchParam-65,true,1.00,605,328,601,314,32411,0
notchParam-66,true,1.00,546,338,536,324,29338,0
notchParam-67,true,1.00,1516,355,1503,341,75149,0
notchParam-68,true,1.00,1291,326,1283,312,61294,0
notchParam-69,true,1.00,732,308,727,294,37302,0
notchParam-70,true,1.00,1830,348,1823,334,93759,0
notchParam-71,true,1.00,609,341,601,327,34267,0
notchParam-72,true,1.00,616,339,608,325,34077,0
notchParam-73,true,1.00,542,310,534,296,30303,0
notchParam-74,true,1.00,618,331,614,317,34345,0
notchParam-75,true,1.00,625,331,620,317,35624,0
notchParam-76,true,1.00,1045,346,1037,332,56983,0
notchParam-77,true,1.00,607,325,603,311,33257,0
notchParam-78,true,1.00,1097,332,1090,318,58913,0
notchParam-79,true,1.00,558,319,551,305,30563,0
notchParam-80,true,1.00,246,333,237,319,12678,0
notchParam-81,true,1.00,613,345,606,326,35090,0
notchParam-82,true,1.00,241,305,236,291,12116,0
notchParam-83,true,1.00,241,302,230,288,12509,0
notchParam-84,true,1.00,802,306,791,292,42058,0
notchParam-85,true,1.00,3135,438,3121,424,157909,0
notchParam-86,true,1.00,1042,321,1037,307,57232,0
notchParam-87,true,1.00,252,324,241,310,13422,0
notchParam-88,true,1.00,296,314,291,300,15383,0
notchParam-89,true,1.00,240,304,230,290,12084,0
notchParam-90,true,1.00,248,309,240,295,12689,0
notchParam-91,true,1.00,1140,341,1132,327,62076,0
notchParam-92,true,1.00,1074,308,1061,294,58732,0
notchParam-93,true,1.00,1288,343,1279,329,71573,0
notchParam-94,true,1.00,1239,338,1230,324,65143,0
notchParam-95,true,1.00,1109,356,1101,342,60771,0
notchParam-96,true,1.00,568,328,560,314,32310,0
notchParam-97,true,1.00,499,314,495,300,26895,0
notchParam-98,true,1.00,235,302,225,288,12034,0
notchParam-99,true,1.00,1593,346,1583,332,82629,0
notchParam-100,true,1.00,1348,334,1341,320,66030,0
