NDW:0.0
TTFW:1.0
DFPT:2.0
DFPAP:3.0
DFPMP:50.0
RIGHT_WINDOW_BORDER_X:135.0
level,win/fail,% travelled,run time,game ticks,planning time,total plannings,nodes evaluated,most backtracked nodes
notch-1,true,1.00,917,281,908,269,51572,0
notch-2,true,1.00,1111,278,1110,266,64681,0
notch-3,true,1.00,1164,292,1160,280,65160,0
notch-4,true,1.00,1103,278,1098,252,63273,0
notch-5,true,1.00,905,262,900,250,50192,0
notch-6,true,1.00,808,269,801,257,45214,0
notch-7,true,1.00,536,284,528,272,28566,0
notch-8,true,1.00,744,281,740,268,41056,0
notch-9,true,1.00,1045,268,1039,256,55388,0
notch-10,true,1.00,1118,277,1108,265,43468,0
notch-11,true,1.00,1171,282,1168,270,64293,0
notch-12,true,1.00,737,263,730,251,36847,0
notch-13,true,1.00,696,272,691,260,33135,0
notch-14,true,1.00,901,283,894,271,49250,0
notch-15,true,1.00,770,269,766,257,41427,0
notch-16,true,1.00,1225,282,1213,261,61407,0
notch-17,true,1.00,965,287,964,275,54984,0
notch-18,true,1.00,976,311,964,298,47005,0
notch-19,true,1.00,1216,284,1211,271,70417,0
notch-20,true,1.00,948,281,939,269,55085,0
notch-21,true,1.00,1085,301,1079,289,63859,0
notch-22,true,1.00,655,243,648,231,36935,0
notch-23,true,1.00,1195,278,1191,258,67736,0
notch-24,true,1.00,693,263,690,251,39271,0
notch-25,true,1.00,1413,323,1406,310,80401,0
notch-26,true,1.00,875,268,871,256,49169,0
notch-27,true,1.00,1444,287,1437,275,82516,0
notch-28,true,1.00,1423,302,1420,289,81595,0
notch-29,true,1.00,1145,296,1141,275,63576,0
notch-30,true,1.00,897,248,893,236,49253,0
notch-31,true,1.00,765,269,761,257,42063,0
notch-32,true,1.00,873,280,866,265,48338,0
notch-33,true,1.00,883,253,878,241,49117,0
notch-34,true,1.00,897,279,889,267,52265,0
notch-35,true,1.00,709,275,705,263,40778,0
notch-36,true,1.00,913,280,910,268,51638,0
notch-37,true,1.00,1362,287,1361,272,78292,0
notch-38,true,1.00,920,292,915,278,51238,0
notch-39,true,1.00,644,236,639,223,36188,0
notch-40,true,1.00,1042,279,1032,266,60060,0
notch-41,true,1.00,1177,286,1176,274,66294,0
notch-42,true,1.00,1113,260,1104,248,62845,0
notch-43,true,1.00,828,266,823,254,46628,0
notch-44,true,1.00,749,254,741,242,42682,0
notch-45,true,1.00,893,266,885,254,50272,0
notch-46,true,1.00,896,263,890,251,50327,0
notch-47,true,1.00,1156,275,1151,263,66261,0
notch-48,true,1.00,1224,251,1220,239,70334,0
notch-49,true,1.00,1093,295,1089,280,62247,0
notch-50,true,1.00,835,323,829,311,47636,0
notch-51,true,1.00,809,265,802,250,46815,0
notch-52,true,1.00,829,285,820,264,47153,0
notch-53,true,1.00,405,267,396,254,22216,0
notch-54,true,1.00,1011,302,1007,287,57844,0
notch-55,true,1.00,1111,309,1099,297,63775,0
notch-56,true,1.00,756,284,752,272,42983,0
notch-57,true,1.00,867,295,861,283,48254,0
notch-58,true,1.00,1230,343,1225,330,69272,0
notch-59,true,1.00,868,303,865,281,47329,0
notch-60,true,1.00,1050,253,1046,241,59460,0
notch-61,true,1.00,958,249,955,237,53625,0
notch-62,true,1.00,841,282,829,270,47714,0
notch-63,true,1.00,1016,303,1005,290,59925,0
notch-64,true,1.00,1172,282,1166,270,65796,0
notch-65,true,1.00,1297,291,1288,278,76033,0
notch-66,true,1.00,1100,310,1092,298,61909,0
notch-67,true,1.00,949,273,938,260,51241,0
notch-68,true,1.00,555,262,552,250,31619,0
notch-69,true,1.00,1826,320,1821,308,103324,0
notch-70,true,1.00,1386,315,1376,302,80917,0
notch-71,true,1.00,1299,274,1295,262,73527,0
notch-72,true,1.00,831,267,826,254,48185,0
notch-73,true,1.00,849,274,842,262,46381,0
notch-74,true,1.00,642,249,632,237,36646,0
notch-75,true,1.00,1643,305,1642,292,91197,0
notch-76,true,1.00,929,291,924,278,51133,0
notch-77,true,1.00,888,266,879,254,49535,0
notch-78,true,1.00,885,267,878,254,49141,0
notch-79,true,1.00,958,289,954,276,54546,0
notch-80,true,1.00,523,242,519,230,29254,0
notch-81,true,1.00,1255,266,1255,252,70068,0
notch-82,true,1.00,908,274,900,262,51595,0
notch-83,true,1.00,1075,314,1067,299,59691,0
notch-84,true,1.00,667,263,663,251,37410,0
notch-85,true,1.00,786,284,781,271,44517,0
notch-86,true,1.00,925,253,920,241,51961,0
notch-87,true,1.00,1201,271,1196,259,68047,0
notch-88,true,1.00,1686,318,1679,305,98749,0
notch-89,true,1.00,2040,331,2036,319,114000,0
notch-90,true,1.00,1152,284,1143,272,65098,0
notch-91,true,1.00,1275,291,1269,278,73668,0
notch-92,true,1.00,1231,296,1223,284,71950,0
notch-93,true,1.00,933,274,922,262,53372,0
notch-94,true,1.00,1304,295,1299,282,75072,0
notch-95,true,1.00,735,263,730,251,41106,0
notch-96,true,1.00,824,268,817,256,41097,0
notch-97,true,1.00,1654,316,1646,304,78212,0
notch-98,true,1.00,1296,293,1283,280,61469,0
notch-99,true,1.00,1366,331,1357,312,67137,0
notch-100,true,1.00,1134,309,1122,296,54306,0
