NDW:0.0
TTFW:2.0
DFPT:2.0
DFPAP:3.0
DFPMP:2.0
RIGHT_WINDOW_BORDER_X:55.0
level,win/fail,% travelled,run time,game ticks,planning time,total plannings,nodes evaluated,most backtracked nodes
notch-1,true,1.00,2969,491,2958,486,148773,0
notch-2,true,1.00,8100,698,8084,693,434387,0
notch-3,true,1.00,4092,481,4083,476,212866,0
notch-4,true,1.00,3491,432,3482,427,186469,0
notch-5,true,1.00,3418,463,3405,458,181705,0
notch-6,true,1.00,5550,539,5536,534,285755,0
notch-7,true,1.00,2027,425,2019,420,99672,0
notch-8,false,0.79,4958,432,4948,432,265009,0
notch-9,true,1.00,6120,548,6108,543,291836,0
notch-10,false,0.87,4187,453,4178,453,217404,0
notch-11,false,0.45,994,196,988,196,49634,0
notch-12,true,1.00,2222,400,2213,395,110900,0
notch-13,true,1.00,5319,553,5313,548,279120,0
notch-14,true,1.00,2348,389,2337,384,117707,0
notch-15,true,1.00,4390,505,4379,500,216958,0
notch-16,true,1.00,5631,576,5619,570,294449,0
notch-17,true,1.00,5118,555,5109,550,256314,0
notch-18,false,0.61,4648,401,4642,401,240840,0
notch-19,false,0.57,671,184,665,184,32799,0
notch-20,true,1.00,4564,528,4552,523,226250,0
notch-21,true,1.00,5050,546,5039,541,253001,0
notch-22,true,1.00,4227,480,4221,475,203311,0
notch-23,false,0.66,2027,313,2020,313,98285,0
notch-24,true,1.00,3477,453,3471,448,171164,0
notch-25,true,1.00,5318,558,5303,552,263398,0
notch-26,true,1.00,4509,476,4498,471,210406,0
notch-27,false,0.30,3304,213,3300,213,160668,0
notch-28,false,0.92,5256,463,5253,463,265508,0
notch-29,false,0.13,10,37,10,37,344,0
notch-30,true,1.00,1086,319,1079,314,49670,0
notch-31,true,1.00,4434,503,4425,498,211053,0
notch-32,true,1.00,3596,513,3583,508,170500,0
notch-33,false,0.50,3653,273,3644,273,165050,0
notch-34,false,0.62,5231,353,5224,353,259687,0
notch-35,true,1.00,5117,497,5107,492,243322,0
notch-36,false,0.72,3097,375,3090,375,134758,0
notch-37,true,1.00,10224,742,10212,737,479358,0
notch-38,true,1.00,3925,469,3910,464,178090,0
notch-39,true,1.00,6583,568,6573,563,295798,0
notch-40,false,0.21,1038,111,1038,111,47834,0
notch-41,true,1.00,8194,626,8177,621,350381,0
notch-42,true,1.00,4485,477,4477,472,200542,0
notch-43,false,0.70,1076,237,1067,237,48956,0
notch-44,true,1.00,3802,469,3791,464,179632,0
notch-45,true,1.00,4170,475,4158,470,194936,0
notch-46,true,1.00,2621,446,2611,441,122812,0
notch-47,true,1.00,5980,597,5970,592,292428,0
notch-48,false,0.48,1751,255,1746,255,86206,0
notch-49,true,1.00,5553,551,5542,546,273340,0
notch-50,true,1.00,6114,563,6104,558,298787,0
notch-51,true,1.00,3874,471,3863,466,185679,0
notch-52,true,1.00,4590,485,4577,480,212197,0
notch-53,false,0.46,929,182,923,182,40849,0
notch-54,false,0.84,3677,455,3666,455,175357,0
notch-55,true,1.00,5099,587,5085,582,238803,0
notch-56,false,0.11,41,40,41,40,1862,0
notch-57,false,0.62,3124,329,3120,329,149765,0
notch-58,true,1.00,9057,695,9043,689,460059,0
notch-59,true,1.00,4257,508,4248,503,203637,0
notch-60,true,1.00,5489,512,5477,507,265841,0
notch-61,true,1.00,4564,462,4552,457,216592,0
notch-62,true,1.00,4109,446,4102,441,190184,0
notch-63,true,1.00,3284,443,3266,438,148237,0
notch-64,true,1.00,5633,617,5616,612,259919,0
notch-65,true,1.00,9399,657,9383,652,450249,0
notch-66,false,0.61,1969,285,1963,285,92849,0
notch-67,true,1.00,3740,411,3722,406,163183,0
notch-68,true,1.00,2667,429,2655,424,121962,0
notch-69,true,1.00,10971,761,10956,756,516806,0
notch-70,false,0.17,2070,162,2067,162,102895,0
notch-71,false,0.72,4634,381,4624,381,234193,0
notch-72,true,1.00,3316,406,3307,401,164866,0
notch-73,true,1.00,4018,462,4011,457,210030,0
notch-74,true,1.00,3403,410,3396,405,183431,0
notch-75,true,1.00,5019,522,5013,517,253023,0
notch-76,true,1.00,3577,484,3568,479,192948,0
notch-77,false,0.83,1886,343,1882,343,95241,0
notch-78,true,1.00,6395,556,6383,551,340108,0
notch-79,true,1.00,4231,465,4218,460,218199,0
notch-80,true,1.00,1160,323,1153,318,55939,0
notch-81,true,1.00,5313,492,5306,487,268532,0
notch-82,false,0.41,1493,179,1489,179,75586,0
notch-83,false,0.29,194,110,192,110,9611,0
notch-84,false,0.35,818,147,816,147,40043,0
notch-85,false,0.08,6,32,6,32,362,0
notch-86,true,1.00,8272,608,8264,603,422293,0
notch-87,true,1.00,7192,558,7186,553,358400,0
notch-88,true,1.00,4174,539,4163,534,213840,0
notch-89,true,1.00,7472,648,7460,643,382469,0
notch-90,false,0.29,4535,251,4533,251,234129,0
notch-91,false,0.22,1609,141,1608,141,76335,0
notch-92,true,1.00,3232,438,3220,433,152237,0
notch-93,false,0.75,6572,515,6560,515,299470,0
notch-94,false,0.58,5624,408,5612,408,272085,0
notch-95,true,1.00,2700,413,2688,408,118129,0
notch-96,true,1.00,3191,450,3179,445,156085,0
notch-97,true,1.00,5810,569,5795,564,271179,0
notch-98,false,0.28,4369,244,4365,244,209427,0
notch-99,false,0.12,115,44,115,44,5373,0
notch-100,true,1.00,3769,451,3760,446,175274,0
