NDW:0.0
TTFW:0.8
DFPT:2.0
DFPAP:3.0
DFPMP:20.0
RIGHT_WINDOW_BORDER_X:255.0
level,win/fail,% travelled,run time,game ticks,planning time,total plannings,nodes evaluated,most backtracked nodes
notchParamRand-1,true,1.00,920,314,915,291,84448,0
notchParamRand-2,true,1.00,125,308,119,285,10290,0
notchParamRand-3,true,1.00,902,312,902,289,90754,0
notchParamRand-4,true,1.00,1348,332,1347,309,135742,0
notchParamRand-5,true,1.00,239,306,237,283,21021,0
notchParamRand-6,true,1.00,434,308,429,285,41706,0
notchParamRand-7,true,1.00,222,296,222,273,19856,0
notchParamRand-8,true,1.00,500,304,496,281,43209,0
notchParamRand-9,true,1.00,566,310,566,287,55911,0
notchParamRand-10,true,1.00,711,302,711,279,68918,0
notchParamRand-11,true,1.00,120,296,119,273,9593,0
notchParamRand-12,true,1.00,331,312,329,289,29383,0
notchParamRand-13,true,1.00,1698,327,1696,304,162368,0
notchParamRand-14,true,1.00,962,314,962,291,91798,0
notchParamRand-15,true,1.00,566,316,565,293,54551,0
notchParamRand-16,true,1.00,393,300,391,277,40127,0
notchParamRand-17,true,1.00,53,294,52,271,3208,0
notchParamRand-18,true,1.00,1674,339,1672,316,167167,0
notchParamRand-19,true,1.00,204,327,203,304,18412,0
notchParamRand-20,true,1.00,1350,327,1350,304,140616,0
notchParamRand-21,true,1.00,53,296,50,273,3160,0
notchParamRand-22,true,1.00,864,326,859,303,86886,0
notchParamRand-23,true,1.00,903,320,902,297,89922,0
notchParamRand-24,true,1.00,221,318,219,295,19563,0
notchParamRand-25,true,1.00,54,308,51,283,3795,0
notchParamRand-26,true,1.00,422,359,417,336,38859,0
notchParamRand-27,true,1.00,218,300,217,277,21811,0
notchParamRand-28,true,1.00,434,312,432,289,39607,0
notchParamRand-29,true,1.00,54,298,52,275,3229,0
notchParamRand-30,true,1.00,1885,338,1884,315,184880,0
notchParamRand-31,true,1.00,373,318,371,295,36933,0
notchParamRand-32,true,1.00,117,294,116,271,10002,0
notchParamRand-33,true,1.00,1985,328,1985,305,200269,0
notchParamRand-34,true,1.00,954,322,952,299,91495,0
notchParamRand-35,true,1.00,452,312,452,289,45582,0
notchParamRand-36,true,1.00,51,298,47,274,3072,0
notchParamRand-37,true,1.00,425,310,423,287,41279,0
notchParamRand-38,true,1.00,1603,325,1602,302,155274,0
notchParamRand-39,true,1.00,1447,356,1447,333,143255,0
notchParamRand-40,true,1.00,2007,324,2006,301,201532,0
notchParamRand-41,true,1.00,50,294,48,271,2666,0
notchParamRand-42,true,1.00,383,322,382,299,38616,0
notchParamRand-43,true,1.00,221,300,219,277,20651,0
notchParamRand-44,true,1.00,356,306,355,283,34809,0
notchParamRand-45,true,1.00,983,310,983,287,91181,0
notchParamRand-46,true,1.00,522,302,520,279,50611,0
notchParamRand-47,true,1.00,667,322,664,299,63976,0
notchParamRand-48,true,1.00,1367,312,1365,289,130880,0
notchParamRand-49,true,1.00,655,308,653,285,61747,0
notchParamRand-50,true,1.00,1247,330,1244,307,122149,0
notchParamRand-51,true,1.00,195,308,192,285,17136,0
notchParamRand-52,true,1.00,799,312,797,289,75400,0
notchParamRand-53,true,1.00,874,320,872,297,81810,0
notchParamRand-54,true,1.00,2636,363,2632,340,262063,0
notchParamRand-55,true,1.00,1561,308,1560,285,145526,0
notchParamRand-56,true,1.00,643,308,642,285,59540,0
notchParamRand-57,true,1.00,869,314,868,291,86418,0
notchParamRand-58,true,1.00,676,320,674,297,67660,0
notchParamRand-59,true,1.00,433,308,431,285,42313,0
notchParamRand-60,true,1.00,561,306,559,283,54260,0
notchParamRand-61,true,1.00,474,310,474,287,44668,0
notchParamRand-62,true,1.00,377,318,374,295,34802,0
notchParamRand-63,true,1.00,1294,316,1292,293,125516,0
notchParamRand-64,true,1.00,285,300,283,277,26946,0
notchParamRand-65,true,1.00,2010,336,2009,313,191860,0
notchParamRand-66,true,1.00,358,312,356,289,29620,0
notchParamRand-67,true,1.00,287,300,284,277,24233,0
notchParamRand-68,true,1.00,1331,316,1329,293,129041,0
notchParamRand-69,true,1.00,222,300,220,277,21264,0
notchParamRand-70,true,1.00,604,328,603,305,59612,0
notchParamRand-71,true,1.00,269,312,266,289,24198,0
notchParamRand-72,true,1.00,120,294,119,271,9979,0
notchParamRand-73,true,1.00,427,308,420,285,38492,0
notchParamRand-74,true,1.00,52,294,51,271,2965,0
notchParamRand-75,true,1.00,52,294,50,271,2793,0
notchParamRand-76,true,1.00,1025,320,1023,297,98449,0
notchParamRand-77,true,1.00,1433,350,1431,327,138457,0
notchParamRand-78,true,1.00,966,314,964,291,93454,0
notchParamRand-79,true,1.00,256,300,254,277,23303,0
notchParamRand-80,true,1.00,291,306,289,283,25189,0
notchParamRand-81,true,1.00,288,298,285,275,27601,0
notchParamRand-82,true,1.00,675,316,673,293,65186,0
notchParamRand-83,true,1.00,1487,344,1485,321,150668,0
notchParamRand-84,true,1.00,265,304,263,281,25083,0
notchParamRand-85,true,1.00,51,294,50,271,2684,0
notchParamRand-86,true,1.00,607,333,604,310,56460,0
notchParamRand-87,true,1.00,1647,322,1646,299,165236,0
notchParamRand-88,true,1.00,296,313,295,290,28601,0
notchParamRand-89,true,1.00,358,304,357,281,35283,0
notchParamRand-90,true,1.00,645,324,645,301,59887,0
notchParamRand-91,true,1.00,53,294,52,271,3004,0
notchParamRand-92,true,1.00,844,330,841,307,82988,0
notchParamRand-93,true,1.00,326,318,322,285,30518,0
notchParamRand-94,true,1.00,1631,328,1631,305,155231,0
notchParamRand-95,true,1.00,645,318,642,295,60097,0
notchParamRand-96,true,1.00,417,316,414,293,39128,0
notchParamRand-97,true,1.00,1306,334,1304,311,122725,0
notchParamRand-98,true,1.00,221,304,219,281,21770,0
notchParamRand-99,true,1.00,257,312,255,289,24024,0
notchParamRand-100,true,1.00,1396,316,1394,293,134551,0
