NDW:0.0
TTFW:0.2
DFPT:2.0
DFPAP:3.0
DFPMP:7.0
RIGHT_WINDOW_BORDER_X:255.0
level,win/fail,% travelled,run time,game ticks,planning time,total plannings,nodes evaluated,most backtracked nodes
hopper-1,true,1.00,2642,317,2640,294,174594,0
hopper-2,true,1.00,2175,303,2172,280,148782,0
hopper-3,false,0.24,1470,90,1469,90,98212,0
hopper-4,false,0.27,1283,96,1281,96,90873,0
hopper-5,true,1.00,2108,301,2107,278,137508,0
hopper-6,true,1.00,2426,315,2425,292,152642,0
hopper-7,false,0.83,2657,265,2656,265,175539,0
hopper-8,false,0.42,1988,144,1986,144,134492,0
hopper-9,true,1.00,2084,301,2081,278,136158,0
hopper-10,true,1.00,2089,303,2087,280,135381,0
hopper-11,true,1.00,1912,303,1908,280,121324,0
hopper-12,true,1.00,2122,309,2118,286,133036,0
hopper-13,false,0.40,1837,132,1836,132,125197,0
hopper-14,true,1.00,2137,303,2136,280,141431,0
hopper-15,true,1.00,2372,313,2370,290,155337,0
hopper-16,false,0.55,1973,177,1972,177,132702,0
hopper-17,true,1.00,2077,305,2073,282,133079,0
hopper-18,true,1.00,2366,315,2361,292,154507,0
hopper-19,true,1.00,2513,325,2512,302,156424,0
hopper-20,true,1.00,2850,325,2847,302,187473,0
hopper-21,false,0.62,2284,199,2283,199,151068,0
hopper-22,false,0.33,1547,113,1547,113,105260,0
hopper-23,true,1.00,2131,303,2130,280,144269,0
hopper-24,true,1.00,1944,309,1942,286,125498,0
hopper-25,true,1.00,2116,303,2112,280,137086,0
hopper-26,true,1.00,2454,309,2447,285,163263,0
hopper-27,true,1.00,2235,305,2233,282,146065,0
hopper-28,false,0.86,3391,282,3387,282,237813,0
hopper-29,false,0.26,1427,92,1427,92,96866,0
hopper-30,true,1.00,1980,301,1979,278,127838,0
hopper-31,false,0.77,2781,249,2777,249,188531,0
hopper-32,true,1.00,2580,307,2578,284,174819,0
hopper-33,true,1.00,1821,315,1819,280,113409,0
hopper-34,false,0.31,2646,141,2645,141,176195,0
hopper-35,true,1.00,2845,320,2842,297,189632,0
hopper-36,true,1.00,1976,303,1972,280,125772,0
hopper-37,false,0.51,2042,181,2042,181,128028,0
hopper-38,true,1.00,3944,347,3942,324,267014,0
hopper-39,false,0.53,3220,209,3220,209,212263,0
hopper-40,true,1.00,2293,313,2293,290,152246,0
hopper-41,true,1.00,2616,309,2614,286,183266,0
hopper-42,true,1.00,2380,319,2379,296,148811,0
hopper-43,false,0.45,2538,171,2538,171,172882,0
hopper-44,true,1.00,2391,305,2390,282,159057,0
hopper-45,false,0.43,2080,146,2079,146,142973,0
hopper-46,false,0.67,2406,216,2403,216,167062,0
hopper-47,true,1.00,3358,337,3357,314,226365,0
hopper-48,true,1.00,2618,315,2617,292,171310,0
hopper-49,true,1.00,2291,301,2287,278,152918,0
hopper-50,false,0.63,2243,202,2243,202,149238,0
hopper-51,true,1.00,2046,305,2044,282,129468,0
hopper-52,true,1.00,2070,307,2068,284,135578,0
hopper-53,false,0.63,3163,218,3162,218,218282,0
hopper-54,true,1.00,2151,311,2150,288,134400,0
hopper-55,true,1.00,2238,313,2237,290,141421,0
hopper-56,true,1.00,1985,303,1983,280,125990,0
hopper-57,true,1.00,2495,315,2489,292,158860,0
hopper-58,false,0.58,2122,185,2122,185,141923,0
hopper-59,true,1.00,2222,305,2222,282,149251,0
hopper-60,true,1.00,2214,307,2213,284,142457,0
hopper-61,false,0.82,2810,258,2808,258,191300,0
hopper-62,true,1.00,2096,299,2094,276,143027,0
hopper-63,false,0.23,1819,97,1819,97,120660,0
hopper-64,true,1.00,2474,313,2473,290,157386,0
hopper-65,true,1.00,2255,303,2253,280,147901,0
hopper-66,false,0.74,2308,237,2307,237,149624,0
hopper-67,true,1.00,2183,315,2182,292,140571,0
hopper-68,true,1.00,2006,313,2002,290,126581,0
hopper-69,false,0.84,2707,267,2706,267,177568,0
hopper-70,true,1.00,2481,309,2475,286,167422,0
hopper-71,true,1.00,2116,317,2109,294,125056,0
hopper-72,true,1.00,2739,313,2735,290,186225,0
hopper-73,true,1.00,2232,301,2230,278,147896,0
hopper-74,true,1.00,1826,299,1824,276,117950,0
hopper-75,true,1.00,2415,309,2413,286,157519,0
hopper-76,false,0.48,1923,154,1921,154,130571,0
hopper-77,true,1.00,2221,311,2217,288,137313,0
hopper-78,true,1.00,2565,307,2563,284,168770,0
hopper-79,true,1.00,2078,305,2075,282,135374,0
hopper-80,true,1.00,2029,309,2027,286,127732,0
hopper-81,false,0.39,1895,132,1893,132,131817,0
hopper-82,false,0.46,3350,196,3349,196,223001,0
hopper-83,true,1.00,2807,321,2807,298,190426,0
hopper-84,true,1.00,2551,311,2549,288,168146,0
hopper-85,true,1.00,2305,307,2304,284,146202,0
hopper-86,true,1.00,2191,303,2190,280,144087,0
hopper-87,true,1.00,2254,307,2254,284,146814,0
hopper-88,true,1.00,1716,297,1712,274,109304,0
hopper-89,true,1.00,1736,301,1733,278,114536,0
hopper-90,true,1.00,1939,301,1937,278,123433,0
hopper-91,true,1.00,2349,305,2348,282,156641,0
hopper-92,true,1.00,2145,301,2144,278,141181,0
hopper-93,true,1.00,2475,321,2475,298,150311,0
hopper-94,false,0.65,2298,210,2297,210,155504,0
hopper-95,true,1.00,2299,307,2296,284,154014,0
hopper-96,true,1.00,2409,307,2407,284,166329,0
hopper-97,true,1.00,2847,317,2845,291,184633,0
hopper-98,true,1.00,2817,319,2813,296,184280,0
hopper-99,true,1.00,2767,313,2766,290,192788,0
hopper-100,true,1.00,2763,321,2760,298,186371,0
