NDW:0.0
TTFW:1.2
DFPT:2.0
DFPAP:3.0
DFPMP:7.0
RIGHT_WINDOW_BORDER_X:35.0
level,win/fail,% travelled,run time,game ticks,planning time,total plannings,nodes evaluated,most backtracked nodes
notchParam-1,false,0.36,1505,264,1499,264,80212,0
notchParam-2,false,0.36,1796,276,1794,276,104828,0
notchParam-3,false,0.19,1886,198,1880,198,102663,0
notchParam-4,false,0.44,5094,517,5077,517,267154,0
notchParam-5,false,0.18,1786,194,1783,194,97238,0
notchParam-6,false,0.31,2631,298,2627,298,143441,0
notchParam-7,false,0.36,1796,278,1791,278,105169,0
notchParam-8,false,0.18,828,164,827,164,47475,0
notchParam-9,false,0.18,1685,194,1681,194,92510,0
notchParam-10,false,0.18,1199,199,1194,199,63439,0
notchParam-11,false,0.58,4371,541,4365,541,228766,0
notchParam-12,false,0.18,1494,199,1488,199,82400,0
notchParam-13,false,0.36,1403,278,1400,278,77330,0
notchParam-14,false,0.37,436,225,428,225,23669,0
notchParam-15,false,0.36,371,221,370,221,20273,0
notchParam-16,false,0.37,1454,319,1445,319,86133,0
notchParam-17,false,0.36,2091,272,2088,272,115270,0
notchParam-18,false,0.32,43,195,35,195,2808,0
notchParam-19,false,0.37,2635,301,2631,301,148762,0
notchParam-20,false,0.67,909,414,901,414,48359,0
notchParam-21,false,0.36,2280,250,2275,250,112907,0
notchParam-22,false,0.37,453,250,449,250,25398,0
notchParam-23,false,0.18,28155,999,28152,999,1623241,0
notchParam-24,false,0.19,2270,180,2268,180,131122,0
notchParam-25,false,0.18,796,166,791,166,43016,0
notchParam-26,false,0.18,28141,999,28136,999,1631656,0
notchParam-27,false,0.67,2775,473,2764,473,159335,0
notchParam-28,false,0.31,1517,269,1511,269,81362,0
notchParam-29,false,0.18,1754,199,1752,199,96310,0
notchParam-30,false,0.67,1913,495,1900,495,104591,0
notchParam-31,false,0.36,1813,326,1806,326,99219,0
notchParam-32,false,0.35,25835,999,25826,999,1426347,0
notchParam-33,false,0.35,412,214,407,214,22410,0
notchParam-34,false,0.36,1548,293,1542,293,82220,0
notchParam-35,false,0.36,1496,255,1493,255,84668,0
notchParam-36,false,0.37,408,223,402,223,22815,0
notchParam-37,false,0.67,2063,465,2058,465,109081,0
notchParam-38,false,0.36,982,263,973,263,57505,0
notchParam-39,false,0.36,878,253,874,253,51327,0
notchParam-40,false,0.32,3833,368,3829,368,202402,0
notchParam-41,false,0.31,1449,253,1446,253,75606,0
notchParam-42,false,0.36,981,261,976,261,57363,0
notchParam-43,false,0.17,27725,999,27720,999,1413396,0
notchParam-44,false,0.19,428,152,424,152,23675,0
notchParam-45,false,0.18,1972,174,1970,174,107495,0
notchParam-46,false,0.31,3290,320,3286,320,175680,0
notchParam-47,false,0.67,1718,529,1710,529,96082,0
notchParam-48,false,0.36,2002,309,1995,309,116963,0
notchParam-49,false,0.36,1621,310,1613,310,88941,0
notchParam-50,true,1.00,2875,664,2859,660,150510,0
notchParam-51,true,1.00,2606,604,2597,600,143041,0
notchParam-52,false,0.36,878,255,869,255,51154,0
notchParam-53,false,0.36,1584,289,1580,289,89008,0
notchParam-54,false,0.36,1469,264,1467,264,82838,0
notchParam-55,false,0.36,2025,334,2021,334,118792,0
notchParam-56,false,0.36,1435,276,1423,276,81177,0
notchParam-57,false,0.31,1730,296,1728,296,92377,0
notchParam-58,false,0.18,1784,197,1779,197,104395,0
notchParam-59,false,0.19,1434,231,1431,231,83649,0
notchParam-60,false,0.44,3973,451,3965,451,205025,0
notchParam-61,false,0.18,1592,207,1588,207,88106,0
notchParam-62,false,0.36,1861,271,1855,271,92025,0
notchParam-63,false,0.18,1224,174,1224,174,65777,0
notchParam-64,false,0.71,6149,739,6130,739,335974,0
notchParam-65,false,0.19,387,132,384,132,21337,0
notchParam-66,false,0.31,2794,284,2793,284,151581,0
notchParam-67,false,0.36,1802,285,1795,285,105765,0
notchParam-68,false,0.36,1339,273,1333,273,71462,0
notchParam-69,false,0.36,1364,252,1358,252,67834,0
notchParam-70,false,0.36,1201,253,1194,253,68325,0
notchParam-71,false,0.31,402,202,400,202,22164,0
notchParam-72,false,0.31,2199,269,2196,269,118957,0
notchParam-73,false,0.31,3145,294,3142,294,169249,0
notchParam-74,false,0.44,3052,414,3045,414,167760,0
notchParam-75,false,0.19,2237,239,2233,239,123089,0
notchParam-76,false,0.08,8,44,8,44,552,0
notchParam-77,false,0.44,2924,393,2913,393,168272,0
notchParam-78,false,0.18,1788,198,1783,198,92748,0
notchParam-79,false,0.30,24703,999,24697,999,1420733,0
notchParam-80,false,0.66,17476,999,17463,999,1005043,0
notchParam-81,false,0.44,2147,338,2141,338,117828,0
notchParam-82,false,0.68,1028,432,1016,432,58685,0
notchParam-83,false,0.36,311,237,300,237,18307,0
notchParam-84,false,0.36,952,284,948,284,53030,0
notchParam-85,false,0.36,1802,293,1796,293,105309,0
notchParam-86,false,0.18,458,142,457,142,26539,0
notchParam-87,false,0.36,1042,254,1040,254,56700,0
notchParam-88,false,0.67,2946,451,2935,451,164131,0
notchParam-89,false,0.36,800,234,794,234,44044,0
notchParam-90,false,0.36,1017,284,1015,284,56936,0
notchParam-91,false,0.18,3293,198,3289,198,160758,0
notchParam-92,false,0.30,25917,999,25907,999,1293892,0
notchParam-93,false,0.19,389,136,385,136,21110,0
notchParam-94,false,0.18,430,140,421,140,23002,0
notchParam-95,false,0.19,2754,269,2748,269,161926,0
notchParam-96,false,0.44,4352,517,4344,517,241827,0
notchParam-97,false,0.18,1756,201,1754,201,95872,0
notchParam-98,false,0.36,1772,288,1769,288,95008,0
notchParam-99,false,0.36,1202,253,1195,253,67938,0
notchParam-100,false,0.36,373,226,367,226,20526,0
