NDW:0.0
TTFW:0.4
DFPT:2.0
DFPAP:3.0
DFPMP:1.0
RIGHT_WINDOW_BORDER_X:215.0
level,win/fail,% travelled,run time,game ticks,planning time,total plannings,nodes evaluated,most backtracked nodes
notchParamRand-1,true,1.00,800,296,800,277,65288,0
notchParamRand-2,true,1.00,120,302,119,283,9596,0
notchParamRand-3,true,1.00,914,298,911,279,79939,0
notchParamRand-4,true,1.00,1459,302,1456,283,128467,0
notchParamRand-5,true,1.00,169,296,169,277,13933,0
notchParamRand-6,true,1.00,370,296,369,277,31861,0
notchParamRand-7,true,1.00,195,294,193,275,16352,0
notchParamRand-8,true,1.00,495,302,494,283,38989,0
notchParamRand-9,true,1.00,479,296,477,277,42642,0
notchParamRand-10,true,1.00,840,314,837,295,69656,0
notchParamRand-11,true,1.00,128,298,123,279,10464,0
notchParamRand-12,true,1.00,301,298,299,279,24629,0
notchParamRand-13,true,1.00,1560,304,1558,285,133635,0
notchParamRand-14,true,1.00,919,302,917,283,77222,0
notchParamRand-15,true,1.00,559,312,557,293,47905,0
notchParamRand-16,true,1.00,333,294,331,275,29111,0
notchParamRand-17,true,1.00,64,294,60,275,5049,0
notchParamRand-18,true,1.00,1802,310,1800,291,157725,0
notchParamRand-19,true,1.00,255,311,252,292,20718,0
notchParamRand-20,true,1.00,1538,330,1534,311,128765,0
notchParamRand-21,true,1.00,79,300,76,281,6225,0
notchParamRand-22,true,1.00,851,310,850,291,75413,0
notchParamRand-23,true,1.00,1394,344,1392,325,109685,0
notchParamRand-24,true,1.00,277,308,274,289,22577,0
notchParamRand-25,true,1.00,63,294,60,275,4962,0
notchParamRand-26,true,1.00,513,324,509,305,42424,0
notchParamRand-27,true,1.00,200,296,198,277,18122,0
notchParamRand-28,true,1.00,403,294,402,275,33388,0
notchParamRand-29,true,1.00,71,294,68,275,5000,0
notchParamRand-30,true,1.00,1605,306,1604,287,138049,0
notchParamRand-31,true,1.00,281,296,280,277,24507,0
notchParamRand-32,true,1.00,130,294,129,275,10776,0
notchParamRand-33,true,1.00,1773,324,1771,305,156454,0
notchParamRand-34,true,1.00,828,294,827,275,71327,0
notchParamRand-35,true,1.00,552,315,552,296,47774,0
notchParamRand-36,true,1.00,74,294,73,275,4624,0
notchParamRand-37,true,1.00,377,308,375,289,33733,0
notchParamRand-38,true,1.00,1649,300,1646,281,139617,0
notchParamRand-39,true,1.00,1722,343,1720,323,143665,0
notchParamRand-40,true,1.00,2481,344,2478,325,211904,0
notchParamRand-41,true,1.00,69,294,68,275,5017,0
notchParamRand-42,true,1.00,436,314,435,295,38136,0
notchParamRand-43,true,1.00,195,294,194,275,16293,0
notchParamRand-44,true,1.00,285,302,285,283,24246,0
notchParamRand-45,true,1.00,1023,310,1020,291,84024,0
notchParamRand-46,true,1.00,480,300,478,281,43398,0
notchParamRand-47,true,1.00,752,318,751,299,61440,0
notchParamRand-48,true,1.00,1449,320,1444,301,122262,0
notchParamRand-49,true,1.00,801,308,800,289,67683,0
notchParamRand-50,true,1.00,1855,331,1852,312,159259,0
notchParamRand-51,true,1.00,163,294,160,275,13799,0
notchParamRand-52,true,1.00,658,296,657,277,56510,0
notchParamRand-53,true,1.00,790,300,789,281,66379,0
notchParamRand-54,true,1.00,2686,347,2681,328,226893,0
notchParamRand-55,true,1.00,1565,298,1564,279,128847,0
notchParamRand-56,true,1.00,565,294,562,275,48675,0
notchParamRand-57,true,1.00,820,294,818,275,71277,0
notchParamRand-58,true,1.00,753,307,751,288,64443,0
notchParamRand-59,true,1.00,356,294,355,275,31413,0
notchParamRand-60,true,1.00,504,302,501,283,44496,0
notchParamRand-61,true,1.00,433,300,429,281,37233,0
notchParamRand-62,true,1.00,464,316,461,297,38355,0
notchParamRand-63,true,1.00,1322,300,1321,281,113023,0
notchParamRand-64,true,1.00,271,298,267,279,23560,0
notchParamRand-65,true,1.00,2164,335,2162,316,178985,0
notchParamRand-66,true,1.00,377,302,376,283,29973,0
notchParamRand-67,true,1.00,260,294,258,275,20717,0
notchParamRand-68,true,1.00,1312,300,1311,281,112509,0
notchParamRand-69,true,1.00,196,294,193,275,17328,0
notchParamRand-70,true,1.00,563,298,558,279,49579,0
notchParamRand-71,true,1.00,308,304,304,285,26491,0
notchParamRand-72,true,1.00,125,302,123,283,10139,0
notchParamRand-73,true,1.00,543,304,542,285,41333,0
notchParamRand-74,true,1.00,64,294,63,275,4677,0
notchParamRand-75,true,1.00,64,294,61,275,4486,0
notchParamRand-76,true,1.00,1071,308,1069,289,89043,0
notchParamRand-77,true,1.00,1676,320,1675,301,137573,0
notchParamRand-78,true,1.00,904,304,901,285,77125,0
notchParamRand-79,true,1.00,184,294,182,275,15531,0
notchParamRand-80,true,1.00,270,298,268,279,21833,0
notchParamRand-81,true,1.00,260,294,258,275,22382,0
notchParamRand-82,true,1.00,754,311,751,291,63053,0
notchParamRand-83,true,1.00,1183,304,1181,285,101703,0
notchParamRand-84,true,1.00,271,294,270,275,23278,0
notchParamRand-85,true,1.00,70,294,67,275,4798,0
notchParamRand-86,true,1.00,678,324,676,305,52016,0
notchParamRand-87,true,1.00,1612,316,1608,297,139891,0
notchParamRand-88,true,1.00,384,320,379,301,32349,0
notchParamRand-89,true,1.00,326,298,321,279,28853,0
notchParamRand-90,true,1.00,597,298,597,279,50619,0
notchParamRand-91,true,1.00,64,299,62,275,4786,0
notchParamRand-92,true,1.00,1124,328,1123,309,94100,0
notchParamRand-93,true,1.00,266,294,264,275,22358,0
notchParamRand-94,true,1.00,1731,322,1730,303,143297,0
notchParamRand-95,true,1.00,846,314,845,295,70726,0
notchParamRand-96,true,1.00,446,304,445,285,37341,0
notchParamRand-97,true,1.00,1408,324,1405,305,115951,0
notchParamRand-98,true,1.00,255,302,253,283,20746,0
notchParamRand-99,true,1.00,209,298,205,279,17286,0
notchParamRand-100,true,1.00,1358,300,1355,281,115968,0
