NDW:0.0
TTFW:1.0
DFPT:2.0
DFPAP:3.0
DFPMP:2.0
RIGHT_WINDOW_BORDER_X:75.0
level,win/fail,% travelled,run time,game ticks,planning time,total plannings,nodes evaluated,most backtracked nodes
ore-1,true,1.00,5139,713,5137,704,551560,0
ore-2,false,0.70,5923,603,5920,603,587405,0
ore-3,true,1.00,4896,649,4892,642,508990,0
ore-4,true,1.00,5223,628,5220,620,567782,0
ore-5,true,1.00,5226,625,5224,618,543193,0
ore-6,true,1.00,7756,879,7752,871,775407,0
ore-7,true,1.00,3372,678,3370,671,354497,0
ore-8,false,0.59,3177,457,3171,457,302952,0
ore-9,true,1.00,4998,630,4995,623,481130,0
ore-10,false,0.47,2371,383,2371,383,264712,0
ore-11,false,0.16,953,115,953,115,93270,0
ore-12,true,1.00,4477,662,4474,655,482288,0
ore-13,true,1.00,3978,723,3973,714,421641,0
ore-14,false,0.52,3590,431,3586,431,389384,0
ore-15,true,1.00,7152,781,7147,774,682977,0
ore-16,false,0.94,4064,626,4063,626,455511,0
ore-17,true,1.00,4285,676,4284,668,464390,0
ore-18,true,1.00,4361,648,4361,639,444232,0
ore-19,true,1.00,5293,675,5291,668,540267,0
ore-20,false,0.34,3468,417,3467,417,382374,0
ore-21,true,1.00,4773,590,4771,582,524407,0
ore-22,false,0.58,2896,397,2895,397,266436,0
ore-23,false,0.77,1313,417,1309,417,142150,0
ore-24,false,0.40,2140,292,2140,292,221388,0
ore-25,true,1.00,4627,632,4610,625,506089,0
ore-26,true,1.00,3381,641,3378,634,350643,0
ore-27,false,0.24,783,248,779,248,82517,0
ore-28,true,1.00,2954,657,2950,649,310554,0
ore-29,false,0.48,2001,452,1997,452,198874,0
ore-30,true,1.00,3810,666,3806,658,363177,0
ore-31,true,1.00,3639,595,3633,585,392810,0
ore-32,true,1.00,3605,702,3603,695,374866,0
ore-33,true,1.00,5620,858,5617,850,611865,0
ore-34,false,0.91,6365,813,6363,813,628477,0
ore-35,false,0.34,1152,245,1146,245,123969,0
ore-36,true,1.00,5084,698,5080,688,538073,0
ore-37,false,0.34,1894,272,1891,272,171954,0
ore-38,true,1.00,4197,721,4193,714,421545,0
ore-39,true,1.00,6227,763,6220,756,720018,0
ore-40,false,0.89,4622,644,4621,644,497965,0
ore-41,true,1.00,5433,770,5424,763,545060,0
ore-42,true,1.00,4601,682,4597,675,475260,0
ore-43,false,0.49,1265,324,1264,324,144974,0
ore-44,false,0.43,23062,999,23062,999,2801148,0
ore-45,false,0.74,18036,999,18031,999,1184960,0
ore-46,false,0.11,2458,166,2458,166,234047,0
ore-47,true,1.00,4036,763,4030,756,433829,0
ore-48,true,1.00,4022,619,4020,611,425886,0
ore-49,true,1.00,7898,795,7895,786,790851,0
ore-50,true,1.00,3106,630,3104,617,305360,0
ore-51,true,1.00,3777,601,3773,594,404961,0
ore-52,true,1.00,6057,695,6055,688,675539,0
ore-53,true,1.00,3174,576,3172,568,339045,0
ore-54,true,1.00,5570,715,5565,707,598010,0
ore-55,true,1.00,5324,732,5317,725,573360,0
ore-56,true,1.00,3127,563,3125,556,328567,0
ore-57,true,1.00,1617,556,1613,549,182678,0
ore-58,false,0.95,9449,805,9446,805,938846,0
ore-59,true,1.00,5561,805,5556,797,634602,0
ore-60,true,1.00,5139,782,5137,775,543623,0
ore-61,true,1.00,4029,674,4023,664,408514,0
ore-62,false,0.86,3418,592,3412,592,343981,0
ore-63,false,0.07,744,114,744,114,76261,0
ore-64,true,1.00,3352,558,3351,551,348516,0
ore-65,true,1.00,5973,810,5970,802,623493,0
ore-66,true,1.00,6085,800,6082,789,659472,0
ore-67,false,0.13,215,66,213,66,22403,0
ore-68,true,1.00,4685,603,4682,595,485959,0
ore-69,false,0.30,1464,240,1463,240,160188,0
ore-70,false,0.08,4,43,3,43,721,0
ore-71,true,1.00,6628,762,6625,755,652089,0
ore-72,false,0.51,2904,390,2902,390,296840,0
ore-73,true,1.00,8108,871,8100,862,799689,0
ore-74,true,1.00,4105,716,4100,706,430986,0
ore-75,false,0.90,3451,643,3447,643,335346,0
ore-76,true,1.00,5982,767,5981,759,656017,0
ore-77,true,1.00,4863,627,4861,620,512870,0
ore-78,true,1.00,8234,809,8230,802,864831,0
ore-79,true,1.00,5804,734,5801,727,609743,0
ore-80,true,1.00,2915,593,2909,577,290044,0
ore-81,false,0.36,995,223,993,223,104254,0
ore-82,true,1.00,4762,657,4758,650,508885,0
ore-83,false,0.92,5265,631,5263,631,538579,0
ore-84,false,0.13,3970,189,3970,189,297428,0
ore-85,true,1.00,4631,696,4626,685,469707,0
ore-86,false,0.61,3631,534,3627,534,394574,0
ore-87,true,1.00,2480,601,2474,592,250037,0
ore-88,true,1.00,5518,669,5514,661,570327,0
ore-89,true,1.00,5304,703,5300,696,576268,0
ore-90,false,0.20,1327,204,1326,204,156321,0
ore-91,true,1.00,5740,780,5739,773,621640,0
ore-92,true,1.00,5521,650,5517,640,574598,0
ore-93,true,1.00,5085,846,5078,836,545574,0
ore-94,true,1.00,3968,673,3965,666,430302,0
ore-95,false,0.65,4555,545,4553,545,489979,0
ore-96,false,0.83,4230,688,4226,688,440080,0
ore-97,false,0.53,3068,412,3067,412,293031,0
ore-98,true,1.00,4354,659,4350,651,454994,0
ore-99,false,0.58,3388,524,3383,524,373537,0
ore-100,true,1.00,2310,544,2307,536,261252,0
