NDW:0.0
TTFW:1.8
DFPT:2.0
DFPAP:3.0
DFPMP:20.0
RIGHT_WINDOW_BORDER_X:55.0
level,win/fail,% travelled,run time,game ticks,planning time,total plannings,nodes evaluated,most backtracked nodes
hopper-1,false,0.49,3428,325,3427,325,310673,0
hopper-2,false,0.22,1463,129,1462,129,123595,0
hopper-3,false,0.30,4161,278,4161,278,381598,0
hopper-4,false,0.34,3423,277,3422,277,336472,0
hopper-5,false,0.13,1555,111,1554,111,128806,0
hopper-6,false,0.53,6751,396,6747,396,594704,0
hopper-7,false,0.13,1555,111,1554,111,129189,0
hopper-8,true,1.00,1555,424,1555,419,136171,0
hopper-9,false,0.13,1555,111,1555,111,129192,0
hopper-10,false,0.68,5707,435,5704,435,513785,0
hopper-11,false,0.22,632,101,632,101,54407,0
hopper-12,false,0.40,2384,200,2383,200,203507,0
hopper-13,false,0.13,1555,111,1555,111,128421,0
hopper-14,false,0.30,3937,238,3937,238,333465,0
hopper-15,false,0.13,1555,111,1555,111,128994,0
hopper-16,false,0.13,1555,111,1555,111,128855,0
hopper-17,false,0.31,2188,198,2188,198,193678,0
hopper-18,false,0.27,29108,999,29107,999,2467352,0
hopper-19,false,0.58,2028,309,2028,309,185044,0
hopper-20,false,0.48,5927,365,5925,365,502174,0
hopper-21,false,0.13,1554,111,1554,111,129083,0
hopper-22,false,0.39,4426,349,4426,349,401036,0
hopper-23,false,0.13,1554,111,1554,111,129037,0
hopper-24,false,0.33,2292,219,2292,219,213851,0
hopper-25,false,0.31,3105,204,3105,204,263821,0
hopper-26,false,0.51,25681,999,25680,999,2193837,0
hopper-27,false,0.35,3387,246,3386,246,295576,0
hopper-28,false,0.19,1789,138,1789,138,165162,0
hopper-29,false,0.26,1746,158,1746,158,143803,0
hopper-30,false,0.13,1554,111,1552,111,128725,0
hopper-31,false,0.62,3265,344,3265,344,294526,0
hopper-32,false,0.33,3536,224,3534,224,306834,0
hopper-33,false,0.49,4098,293,4096,293,346186,0
hopper-34,false,0.47,4090,360,4086,360,369535,0
hopper-35,false,0.22,1463,129,1462,129,124516,0
hopper-36,false,0.13,1555,111,1555,111,128723,0
hopper-37,false,0.50,26562,999,26562,999,2176601,0
hopper-38,false,0.65,9524,633,9522,633,875310,0
hopper-39,false,0.38,2454,216,2453,216,209979,0
hopper-40,false,0.71,5229,440,5227,440,438062,0
hopper-41,false,0.73,2804,408,2803,408,263597,0
hopper-42,false,0.13,1556,111,1556,111,128558,0
hopper-43,false,0.13,1554,111,1554,111,128835,0
hopper-44,false,0.31,766,154,766,154,65214,0
hopper-45,false,0.42,5892,333,5891,333,502337,0
hopper-46,false,0.39,3286,274,3285,274,295588,0
hopper-47,false,0.32,3963,228,3963,228,331000,0
hopper-48,false,0.13,1554,111,1554,111,128681,0
hopper-49,false,0.21,2915,168,2915,168,253852,0
hopper-50,false,0.20,633,93,632,93,53143,0
hopper-51,false,0.39,4050,322,4049,322,378677,0
hopper-52,false,0.41,2163,237,2161,237,207464,0
hopper-53,false,0.13,1554,111,1553,111,128826,0
hopper-54,false,0.31,2446,187,2446,187,206173,0
hopper-55,false,0.85,4414,537,4414,537,417887,0
hopper-56,false,0.57,2261,268,2260,268,192603,0
hopper-57,false,0.67,23562,999,23561,999,1914041,0
hopper-58,false,0.39,5064,350,5063,350,451768,0
hopper-59,false,0.20,2812,174,2812,174,274240,0
hopper-60,false,0.36,4332,281,4331,281,459381,0
hopper-61,false,0.13,1554,111,1553,111,128963,0
hopper-62,false,0.13,1555,111,1555,111,129027,0
hopper-63,false,0.37,5076,338,5074,338,482339,0
hopper-64,false,0.13,1555,111,1555,111,126347,0
hopper-65,false,0.13,1554,111,1554,111,128650,0
hopper-66,true,1.00,3708,529,3707,524,359944,0
hopper-67,false,0.31,3112,204,3112,204,265741,0
hopper-68,false,0.66,8965,551,8964,551,812229,0
hopper-69,false,0.31,1755,163,1755,163,148398,0
hopper-70,false,0.37,1526,183,1525,183,129451,0
hopper-71,false,0.29,4558,241,4558,241,404128,0
hopper-72,false,0.22,5550,263,5550,263,461465,0
hopper-73,false,0.13,1554,111,1554,111,128828,0
hopper-74,false,0.50,6507,387,6507,387,540101,0
hopper-75,false,0.23,1463,132,1463,132,121330,0
hopper-76,false,0.13,1554,111,1554,111,129091,0
hopper-77,true,1.00,3248,479,3242,474,279315,0
hopper-78,false,0.29,28912,999,28911,999,2433514,0
hopper-79,false,0.20,1896,151,1896,151,163508,0
hopper-80,false,0.13,1554,111,1554,111,117707,0
hopper-81,false,0.66,2623,372,2619,372,204375,0
hopper-82,false,0.58,5367,495,5364,495,485468,0
hopper-83,false,0.43,3413,331,3412,331,326530,0
hopper-84,false,0.21,3219,251,3219,251,302800,0
hopper-85,false,0.29,28910,999,28908,999,2440108,0
hopper-86,false,0.22,2091,164,2090,164,179761,0
hopper-87,false,0.13,1554,111,1554,111,128555,0
hopper-88,false,0.22,2256,164,2256,164,205334,0
hopper-89,false,0.13,1555,111,1555,111,128919,0
hopper-90,false,0.75,4015,419,4012,419,359730,0
hopper-91,false,0.40,1725,210,1723,210,145239,0
hopper-92,false,0.19,2287,142,2287,142,196063,0
hopper-93,true,1.00,3600,470,3599,465,330663,0
hopper-94,false,0.43,736,189,732,189,62384,0
hopper-95,false,0.33,27217,999,27217,999,2410902,0
hopper-96,false,0.13,1554,111,1554,111,128974,0
hopper-97,false,0.20,3938,197,3938,197,341894,0
hopper-98,false,0.13,1554,111,1553,111,128991,0
hopper-99,false,0.21,29171,999,29170,999,2360184,0
hopper-100,false,0.21,1754,131,1754,131,147946,0
