NDW:0.0
TTFW:2.0
DFPT:2.0
DFPAP:3.0
DFPMP:20.0
RIGHT_WINDOW_BORDER_X:95.0
level,win/fail,% travelled,run time,game ticks,planning time,total plannings,nodes evaluated,most backtracked nodes
notchParam-1,false,0.35,28722,999,28719,999,1448964,0
notchParam-2,false,0.37,2507,214,2501,214,157429,0
notchParam-3,true,1.00,633,333,625,325,38435,0
notchParam-4,true,1.00,671,345,662,337,40302,0
notchParam-5,true,1.00,772,352,762,344,44774,0
notchParam-6,true,1.00,719,324,714,316,41754,0
notchParam-7,false,0.36,4412,249,4409,249,272095,0
notchParam-8,true,1.00,4101,461,4091,453,242600,0
notchParam-9,true,1.00,711,350,699,342,41724,0
notchParam-10,true,1.00,1448,368,1441,360,81872,0
notchParam-11,true,1.00,664,326,653,318,38143,0
notchParam-12,true,1.00,1317,385,1307,377,77229,0
notchParam-13,true,1.00,247,312,240,304,13863,0
notchParam-14,true,1.00,213,302,204,294,11909,0
notchParam-15,false,0.36,2896,204,2894,204,151696,0
notchParam-16,false,0.36,2462,187,2461,187,151142,0
notchParam-17,false,0.36,2854,196,2851,196,162976,0
notchParam-18,true,1.00,306,363,301,355,17663,0
notchParam-19,true,1.00,221,319,218,311,12902,0
notchParam-20,true,1.00,846,324,838,316,50139,0
notchParam-21,true,1.00,225,306,218,298,11875,0
notchParam-22,true,1.00,262,321,254,313,15497,0
notchParam-23,true,1.00,3172,452,3163,444,196192,0
notchParam-24,true,1.00,4276,491,4269,483,249883,0
notchParam-25,true,1.00,5003,463,4995,455,293813,0
notchParam-26,true,1.00,3862,453,3850,445,230081,0
notchParam-27,true,1.00,183,307,172,299,10687,0
notchParam-28,true,1.00,747,354,740,346,44696,0
notchParam-29,true,1.00,712,333,705,325,41426,0
notchParam-30,true,1.00,243,306,234,298,13563,0
notchParam-31,false,0.36,2887,195,2881,195,159473,0
notchParam-32,false,0.36,2855,196,2853,196,162237,0
notchParam-33,true,1.00,215,304,204,296,12302,0
notchParam-34,false,0.36,2227,176,2224,176,118609,0
notchParam-35,false,0.36,3713,222,3711,222,211639,0
notchParam-36,false,0.36,2626,190,2622,190,143044,0
notchParam-37,true,1.00,244,306,234,298,13216,0
notchParam-38,true,1.00,220,316,212,308,12462,0
notchParam-39,false,0.35,28938,999,28935,999,1649730,0
notchParam-40,true,1.00,599,324,592,316,34340,0
notchParam-41,true,1.00,761,349,754,341,44386,0
notchParam-42,true,1.00,234,330,229,317,13858,0
notchParam-43,true,1.00,4752,496,4748,488,273531,0
notchParam-44,true,1.00,2621,428,2614,420,151963,0
notchParam-45,true,1.00,1940,388,1935,373,110666,0
notchParam-46,true,1.00,1405,343,1394,335,79587,0
notchParam-47,true,1.00,327,312,318,304,20719,0
notchParam-48,true,1.00,274,331,268,323,16666,0
notchParam-49,true,1.00,345,323,338,309,20374,0
notchParam-50,true,1.00,275,340,268,332,15153,0
notchParam-51,true,1.00,229,313,222,305,12987,0
notchParam-52,false,0.35,28936,999,28935,999,1653521,0
notchParam-53,false,0.36,2528,185,2527,185,153011,0
notchParam-54,false,0.36,3350,210,3349,210,190364,0
notchParam-55,true,1.00,259,348,252,340,15264,0
notchParam-56,true,1.00,223,322,216,314,12937,0
notchParam-57,true,1.00,2706,449,2697,441,154782,0
notchParam-58,true,1.00,715,359,710,351,42112,0
notchParam-59,true,1.00,1380,413,1366,405,57819,0
notchParam-60,true,1.00,590,358,583,350,34844,0
notchParam-61,true,1.00,1755,376,1749,368,106278,0
notchParam-62,false,0.36,2127,172,2126,172,108110,0
notchParam-63,true,1.00,735,334,726,326,42615,0
notchParam-64,true,1.00,578,350,573,342,34269,0
notchParam-65,true,1.00,774,353,767,345,45700,0
notchParam-66,true,1.00,809,358,801,350,48160,0
notchParam-67,false,0.37,2065,177,2061,177,129875,0
notchParam-68,false,0.36,2228,176,2222,176,117425,0
notchParam-69,false,0.36,2589,196,2583,196,118231,0
notchParam-70,false,0.36,2161,177,2158,177,130209,0
notchParam-71,true,1.00,734,366,722,358,45600,0
notchParam-72,true,1.00,756,360,747,352,47082,0
notchParam-73,true,1.00,672,318,664,310,40470,0
notchParam-74,true,1.00,715,341,707,333,43513,0
notchParam-75,true,1.00,2194,405,2187,397,142494,0
notchParam-76,true,1.00,2531,413,2525,405,147902,0
notchParam-77,true,1.00,674,339,662,331,40999,0
notchParam-78,true,1.00,4023,444,4017,436,242300,0
notchParam-79,true,1.00,1174,351,1163,343,72290,0
notchParam-80,true,1.00,293,341,284,333,18186,0
notchParam-81,true,1.00,711,347,706,331,43923,0
notchParam-82,true,1.00,277,309,268,301,16483,0
notchParam-83,true,1.00,218,322,208,314,13256,0
notchParam-84,false,0.36,3547,213,3545,213,203883,0
notchParam-85,false,0.36,4810,266,4808,266,306127,0
notchParam-86,true,1.00,4067,439,4061,431,247313,0
notchParam-87,true,1.00,234,312,227,304,14112,0
notchParam-88,true,1.00,235,324,230,316,14484,0
notchParam-89,true,1.00,274,304,268,296,16134,0
notchParam-90,true,1.00,241,312,233,304,14342,0
notchParam-91,true,1.00,3392,429,3382,421,196480,0
notchParam-92,true,1.00,1477,375,1466,367,83569,0
notchParam-93,true,1.00,2954,414,2952,406,177408,0
notchParam-94,true,1.00,3022,435,3016,427,187142,0
notchParam-95,true,1.00,2835,438,2832,430,179711,0
notchParam-96,true,1.00,673,344,670,336,41665,0
notchParam-97,true,1.00,588,320,577,312,34693,0
notchParam-98,true,1.00,238,300,234,292,13455,0
notchParam-99,false,0.36,2162,177,2158,177,130387,0
notchParam-100,false,0.36,2885,195,2882,195,165058,0
