NDW:0.0
TTFW:0.6
DFPT:2.0
DFPAP:3.0
DFPMP:1.0
RIGHT_WINDOW_BORDER_X:35.0
level,win/fail,% travelled,run time,game ticks,planning time,total plannings,nodes evaluated,most backtracked nodes
patternCount-1,false,0.46,2754,606,2751,606,276069,0
patternCount-2,false,0.15,1198,396,1196,396,124705,0
patternCount-3,false,0.40,6056,694,6053,694,541433,0
patternCount-4,false,0.62,6125,999,6119,999,583122,0
patternCount-5,false,0.16,991,252,988,252,91010,0
patternCount-6,false,0.28,2374,444,2372,444,210495,0
patternCount-7,false,0.05,195,131,195,131,28714,0
patternCount-8,false,0.08,728,262,724,262,74939,0
patternCount-9,false,0.08,1218,257,1216,257,145219,0
patternCount-10,false,0.78,2184,999,2179,999,225878,0
patternCount-11,false,0.13,1076,274,1073,274,109280,0
patternCount-12,false,0.04,522,117,521,117,93872,0
patternCount-13,false,0.06,146,111,145,111,21384,0
patternCount-14,false,0.12,1747,295,1744,295,201850,0
patternCount-15,false,0.25,2059,383,2057,383,209265,0
patternCount-16,false,0.55,3495,874,3490,874,329751,0
patternCount-17,false,0.72,4816,999,4807,999,444933,0
patternCount-18,false,0.29,1294,444,1290,444,131498,0
patternCount-19,false,0.30,2574,445,2570,445,224884,0
patternCount-20,false,0.10,1517,172,1517,172,146433,0
patternCount-21,false,0.21,1856,354,1853,354,193676,0
patternCount-22,false,0.05,136,94,135,94,18058,0
patternCount-23,false,0.13,423,172,421,172,48984,0
patternCount-24,false,0.21,3511,650,3507,650,331946,0
patternCount-25,false,0.20,2469,271,2469,271,228631,0
patternCount-26,false,0.91,2337,999,2331,999,223130,0
patternCount-27,false,0.26,1248,409,1245,409,129909,0
patternCount-28,false,0.09,502,197,499,197,51112,0
patternCount-29,false,0.17,1598,383,1596,383,178117,0
patternCount-30,false,0.26,1736,457,1733,457,195406,0
patternCount-31,false,0.05,912,123,911,123,96244,0
patternCount-32,false,0.17,25008,999,25005,999,2015871,0
patternCount-33,false,0.19,1465,314,1463,314,136018,0
patternCount-34,false,0.07,321,115,319,115,34179,0
patternCount-35,false,0.53,4801,999,4793,999,443758,0
patternCount-36,false,0.21,1126,360,1121,360,109414,0
patternCount-37,false,0.31,3779,623,3774,623,342237,0
patternCount-38,false,0.24,1675,382,1672,382,148294,0
patternCount-39,false,0.10,582,154,567,154,57865,0
patternCount-40,false,0.66,5551,994,5546,994,527791,0
patternCount-41,false,0.61,3352,999,3345,999,334477,0
patternCount-42,false,0.04,1194,227,1192,227,176156,0
patternCount-43,true,1.00,2450,997,2443,993,251224,0
patternCount-44,false,0.17,985,276,983,276,94714,0
patternCount-45,false,0.08,448,233,447,233,51908,0
patternCount-46,false,0.28,1993,437,1990,437,183969,0
patternCount-47,false,0.35,13462,999,13459,999,1190833,0
patternCount-48,false,0.14,1502,295,1499,295,149702,0
patternCount-49,false,0.31,4362,999,4355,999,425260,0
patternCount-50,false,0.59,2630,999,2620,999,272325,0
patternCount-51,false,0.05,350,149,348,149,53884,0
patternCount-52,false,0.31,2708,598,2703,598,283248,0
patternCount-53,false,0.06,966,167,966,167,108857,0
patternCount-54,false,0.18,861,232,860,232,81856,0
patternCount-55,false,0.15,1719,311,1717,311,157247,0
patternCount-56,false,0.30,4171,551,4169,551,416127,0
patternCount-57,false,0.45,3384,772,3380,772,316144,0
patternCount-58,false,0.68,2435,999,2429,999,268864,0
patternCount-59,false,0.53,5441,990,5428,990,538681,0
patternCount-60,false,0.13,723,315,722,315,75062,0
patternCount-61,false,0.22,1468,379,1465,379,142887,0
patternCount-62,false,0.13,1530,271,1529,271,147488,0
patternCount-63,false,0.05,158,89,157,89,18536,0
patternCount-64,false,0.49,5447,999,5443,999,553908,0
patternCount-65,false,0.23,2861,406,2858,406,265488,0
patternCount-66,false,0.14,2420,245,2417,245,227517,0
patternCount-67,false,0.22,1190,413,1189,413,126451,0
patternCount-68,false,0.12,483,175,482,175,55895,0
patternCount-69,false,0.79,3219,999,3216,999,327198,0
patternCount-70,false,0.68,4293,999,4288,999,487779,0
patternCount-71,false,0.05,147,70,147,70,20521,0
patternCount-72,false,0.17,1866,294,1863,294,184918,0
patternCount-73,false,0.60,4388,929,4385,929,414914,0
patternCount-74,false,0.05,252,109,252,109,32123,0
patternCount-75,false,0.36,1624,505,1621,505,154623,0
patternCount-76,false,0.31,3848,608,3846,608,388748,0
patternCount-77,false,0.08,1063,163,1062,163,103255,0
patternCount-78,false,0.13,3499,317,3494,317,361736,0
patternCount-79,false,0.15,1305,300,1300,300,144317,0
patternCount-80,false,0.28,1443,322,1440,322,134114,0
patternCount-81,false,0.71,4656,999,4648,999,427071,0
patternCount-82,false,0.62,5532,994,5527,994,557873,0
patternCount-83,false,0.09,26305,999,26304,999,2207736,0
patternCount-84,false,0.48,2645,787,2638,787,256543,0
patternCount-85,false,0.11,2839,242,2837,242,265834,0
patternCount-86,false,0.16,2491,307,2487,307,257755,0
patternCount-87,false,0.22,2696,397,2696,397,252488,0
patternCount-88,false,0.16,906,286,904,286,84684,0
patternCount-89,false,0.09,2853,334,2851,334,277918,0
patternCount-90,true,1.00,2209,934,2204,929,235725,0
patternCount-91,false,0.07,426,186,424,186,54921,0
patternCount-92,false,0.77,4049,999,4045,999,389848,0
patternCount-93,false,0.17,1174,316,1174,316,118180,0
patternCount-94,false,0.12,1197,234,1197,234,117486,0
patternCount-95,false,0.19,1798,333,1797,333,189272,0
patternCount-96,false,0.11,511,248,509,248,55908,0
patternCount-97,false,0.25,2113,379,2109,379,208176,0
patternCount-98,false,0.26,1681,411,1677,411,179979,0
patternCount-99,false,0.25,934,374,934,374,108219,0
patternCount-100,false,0.49,3337,977,3332,977,336149,0
