NDW:0.0
TTFW:1.8
DFPT:2.0
DFPAP:3.0
DFPMP:1.0
RIGHT_WINDOW_BORDER_X:95.0
level,win/fail,% travelled,run time,game ticks,planning time,total plannings,nodes evaluated,most backtracked nodes
notchParamRand-1,false,0.31,1937,160,1935,160,172167,0
notchParamRand-2,true,1.00,53,308,51,300,5480,0
notchParamRand-3,false,0.80,4206,415,4204,415,392924,0
notchParamRand-4,true,1.00,3286,438,3285,430,300097,0
notchParamRand-5,true,1.00,154,312,152,304,14292,0
notchParamRand-6,true,1.00,395,316,394,308,37447,0
notchParamRand-7,true,1.00,780,346,777,338,72408,0
notchParamRand-8,true,1.00,1730,383,1727,375,138559,0
notchParamRand-9,true,1.00,4060,511,4059,503,395047,0
notchParamRand-10,true,1.00,3636,457,3635,449,374555,0
notchParamRand-11,true,1.00,51,296,48,288,4903,0
notchParamRand-12,true,1.00,228,324,227,316,22691,0
notchParamRand-13,true,1.00,5336,506,5335,498,471248,0
notchParamRand-14,false,0.80,3663,388,3662,388,328427,0
notchParamRand-15,true,1.00,1509,352,1503,344,139172,0
notchParamRand-16,true,1.00,3279,403,3276,395,328854,0
notchParamRand-17,true,1.00,19,303,15,295,2220,0
notchParamRand-18,false,0.19,4814,252,4812,252,463298,0
notchParamRand-19,true,1.00,156,332,153,324,15262,0
notchParamRand-20,true,1.00,7141,573,7140,565,687551,0
notchParamRand-21,true,1.00,17,296,14,288,1877,0
notchParamRand-22,true,1.00,2408,396,2405,388,232923,0
notchParamRand-23,true,1.00,7117,594,7116,586,642763,0
notchParamRand-24,true,1.00,125,328,120,320,12777,0
notchParamRand-25,true,1.00,18,308,15,300,2427,0
notchParamRand-26,true,1.00,485,356,483,348,46589,0
notchParamRand-27,true,1.00,1181,339,1180,331,137606,0
notchParamRand-28,true,1.00,427,346,426,338,40076,0
notchParamRand-29,true,1.00,19,298,19,290,2177,0
notchParamRand-30,true,1.00,16131,869,16129,861,1389388,0
notchParamRand-31,true,1.00,290,316,290,308,28216,0
notchParamRand-32,true,1.00,50,296,50,288,5066,0
notchParamRand-33,false,0.19,2839,155,2839,155,259949,0
notchParamRand-34,true,1.00,4013,451,4012,443,358520,0
notchParamRand-35,true,1.00,552,330,549,322,50392,0
notchParamRand-36,true,1.00,18,300,18,292,2034,0
notchParamRand-37,true,1.00,789,332,787,324,77456,0
notchParamRand-38,false,0.70,8961,593,8959,593,796946,0
notchParamRand-39,true,1.00,7137,581,7134,573,671115,0
notchParamRand-40,false,0.30,4969,269,4968,269,441070,0
notchParamRand-41,true,1.00,16,294,15,286,1553,0
notchParamRand-42,true,1.00,391,330,390,322,37809,0
notchParamRand-43,true,1.00,1039,338,1035,330,96753,0
notchParamRand-44,true,1.00,287,310,286,302,30449,0
notchParamRand-45,false,0.29,3496,202,3496,202,317934,0
notchParamRand-46,true,1.00,2211,390,2209,382,211465,0
notchParamRand-47,true,1.00,1920,382,1917,374,180786,0
notchParamRand-48,true,1.00,5260,513,5259,505,471190,0
notchParamRand-49,true,1.00,1691,367,1689,359,158963,0
notchParamRand-50,true,1.00,3463,475,3463,467,349288,0
notchParamRand-51,true,1.00,155,319,151,311,14988,0
notchParamRand-52,false,0.75,1772,278,1771,278,157773,0
notchParamRand-53,true,1.00,2043,374,2042,366,181349,0
notchParamRand-54,true,1.00,11323,736,11322,728,1064710,0
notchParamRand-55,false,0.70,12367,621,12365,621,1113372,0
notchParamRand-56,true,1.00,3936,473,3932,465,339497,0
notchParamRand-57,true,1.00,5781,544,5775,536,534508,0
notchParamRand-58,true,1.00,2861,454,2860,446,277974,0
notchParamRand-59,true,1.00,421,317,418,309,40137,0
notchParamRand-60,true,1.00,2046,392,2043,384,195102,0
notchParamRand-61,true,1.00,491,328,490,320,47508,0
notchParamRand-62,true,1.00,394,334,394,326,37173,0
notchParamRand-63,true,1.00,3823,439,3822,431,342735,0
notchParamRand-64,true,1.00,1418,345,1414,337,138682,0
notchParamRand-65,true,1.00,10093,683,10093,675,862105,0
notchParamRand-66,true,1.00,222,327,218,319,20385,0
notchParamRand-67,true,1.00,283,308,281,300,24276,0
notchParamRand-68,true,1.00,5651,524,5645,516,508795,0
notchParamRand-69,true,1.00,230,311,227,303,22849,0
notchParamRand-70,true,1.00,724,336,723,328,68923,0
notchParamRand-71,true,1.00,291,324,287,316,27708,0
notchParamRand-72,true,1.00,49,296,48,288,5229,0
notchParamRand-73,true,1.00,1707,362,1704,354,157010,0
notchParamRand-74,true,1.00,16,296,16,288,1813,0
notchParamRand-75,true,1.00,15,294,15,286,1564,0
notchParamRand-76,true,1.00,3964,494,3961,486,363077,0
notchParamRand-77,true,1.00,8653,646,8650,638,745048,0
notchParamRand-78,true,1.00,4644,477,4640,469,429027,0
notchParamRand-79,true,1.00,185,308,184,300,17769,0
notchParamRand-80,true,1.00,279,304,277,296,21952,0
notchParamRand-81,true,1.00,291,314,287,306,30971,0
notchParamRand-82,true,1.00,978,346,974,338,91062,0
notchParamRand-83,true,1.00,2897,432,2896,424,267480,0
notchParamRand-84,true,1.00,292,308,290,300,29518,0
notchParamRand-85,true,1.00,15,294,13,286,1515,0
notchParamRand-86,true,1.00,557,347,555,339,53642,0
notchParamRand-87,false,0.51,4733,350,4730,350,447437,0
notchParamRand-88,true,1.00,646,318,643,310,71746,0
notchParamRand-89,true,1.00,4321,443,4321,435,402774,0
notchParamRand-90,true,1.00,4025,477,4022,469,344110,0
notchParamRand-91,true,1.00,16,296,14,287,1729,0
notchParamRand-92,true,1.00,1994,376,1992,368,188223,0
notchParamRand-93,true,1.00,260,308,260,300,24861,0
notchParamRand-94,true,1.00,7504,567,7500,559,672633,0
notchParamRand-95,true,1.00,722,336,721,328,64074,0
notchParamRand-96,true,1.00,2402,415,2399,407,223584,0
notchParamRand-97,true,1.00,2178,389,2176,381,196381,0
notchParamRand-98,true,1.00,1013,344,1012,336,117018,0
notchParamRand-99,true,1.00,218,308,216,300,20201,0
notchParamRand-100,false,0.21,1259,106,1259,106,115906,0
