NDW:0.0
TTFW:1.2
DFPT:2.0
DFPAP:3.0
DFPMP:5.0
RIGHT_WINDOW_BORDER_X:115.0
level,win/fail,% travelled,run time,game ticks,planning time,total plannings,nodes evaluated,most backtracked nodes
ore-1,true,1.00,2641,517,2637,504,322291,0
ore-2,false,0.69,7605,570,7603,570,765925,0
ore-3,true,1.00,2090,517,2089,505,231635,0
ore-4,true,1.00,3267,588,3263,575,389546,0
ore-5,true,1.00,3953,523,3948,513,478744,0
ore-6,true,1.00,3370,524,3368,512,398382,0
ore-7,true,1.00,2194,467,2191,456,266281,0
ore-8,false,0.13,3011,146,3011,146,269320,0
ore-9,true,1.00,2685,441,2681,431,306445,0
ore-10,true,1.00,4519,587,4516,576,569088,0
ore-11,true,1.00,4743,626,4739,615,588976,0
ore-12,true,1.00,3298,544,3295,532,396749,0
ore-13,true,1.00,3803,590,3797,577,452501,0
ore-14,true,1.00,2064,517,2059,507,253227,0
ore-15,true,1.00,2468,465,2465,455,276583,0
ore-16,true,1.00,4221,527,4217,516,540001,0
ore-17,true,1.00,2559,561,2558,543,329041,0
ore-18,true,1.00,2794,500,2787,487,339080,0
ore-19,true,1.00,2338,496,2335,485,281733,0
ore-20,true,1.00,4199,549,4196,538,513680,0
ore-21,true,1.00,3188,516,3184,506,413854,0
ore-22,false,0.58,1892,330,1890,330,209088,0
ore-23,true,1.00,4578,560,4573,550,483476,0
ore-24,true,1.00,4029,562,4028,550,449627,0
ore-25,true,1.00,2996,500,2988,488,328515,0
ore-26,true,1.00,2076,454,2071,444,234788,0
ore-27,true,1.00,3039,543,3032,533,361240,0
ore-28,true,1.00,1983,522,1981,507,244378,0
ore-29,false,0.47,886,263,885,263,103546,0
ore-30,true,1.00,1443,421,1442,408,156483,0
ore-31,true,1.00,7927,711,7926,693,974783,0
ore-32,true,1.00,2629,515,2629,504,324374,0
ore-33,true,1.00,2200,507,2195,497,291638,0
ore-34,true,1.00,3960,615,3958,603,463547,0
ore-35,true,1.00,4398,545,4394,534,549986,0
ore-36,true,1.00,2070,438,2067,428,241268,0
ore-37,false,0.33,2086,173,2086,173,186740,0
ore-38,true,1.00,5934,611,5934,600,749117,0
ore-39,true,1.00,3951,547,3946,536,475000,0
ore-40,true,1.00,3694,546,3693,535,434192,0
ore-41,true,1.00,2666,493,2663,483,323757,0
ore-42,true,1.00,3525,541,3521,530,428102,0
ore-43,true,1.00,2642,551,2641,541,308086,0
ore-44,true,1.00,4974,558,4973,546,681646,0
ore-45,false,0.74,21669,999,21666,999,1571370,0
ore-46,false,0.12,1534,101,1534,101,159111,0
ore-47,true,1.00,4447,603,4442,592,582002,0
ore-48,true,1.00,2611,521,2606,511,316232,0
ore-49,true,1.00,2171,493,2165,480,258294,0
ore-50,true,1.00,3195,474,3193,462,380378,0
ore-51,true,1.00,2753,509,2750,492,342796,0
ore-52,true,1.00,4677,551,4677,541,611135,0
ore-53,true,1.00,3018,519,3016,508,368389,0
ore-54,true,1.00,2613,541,2611,529,330800,0
ore-55,true,1.00,2281,450,2280,439,304761,0
ore-56,true,1.00,1712,436,1711,424,201855,0
ore-57,true,1.00,4441,591,4436,579,554718,0
ore-58,true,1.00,5018,657,5016,647,602408,0
ore-59,true,1.00,5720,602,5718,592,727425,0
ore-60,true,1.00,3742,549,3736,538,460972,0
ore-61,true,1.00,3792,523,3789,511,408147,0
ore-62,true,1.00,2278,476,2275,466,277519,0
ore-63,true,1.00,3157,493,3150,475,395169,0
ore-64,true,1.00,1436,483,1432,473,172330,0
ore-65,true,1.00,4185,549,4184,538,514190,0
ore-66,true,1.00,3742,573,3741,561,474516,0
ore-67,true,1.00,3100,522,3096,509,393724,0
ore-68,true,1.00,3244,565,3240,555,384953,0
ore-69,true,1.00,3388,559,3385,548,438418,0
ore-70,true,1.00,7216,750,7213,739,913137,0
ore-71,true,1.00,2887,519,2883,509,334120,0
ore-72,true,1.00,3336,544,3333,533,421310,0
ore-73,true,1.00,4727,565,4722,552,612006,0
ore-74,true,1.00,4308,589,4307,578,531284,0
ore-75,true,1.00,2955,567,2953,557,342057,0
ore-76,true,1.00,3812,478,3810,467,488708,0
ore-77,true,1.00,3200,521,3196,510,408707,0
ore-78,true,1.00,3400,526,3397,516,432486,0
ore-79,true,1.00,2387,510,2385,500,283647,0
ore-80,true,1.00,2921,511,2919,501,334567,0
ore-81,false,0.60,3382,394,3381,394,411147,0
ore-82,true,1.00,4080,538,4078,525,524507,0
ore-83,true,1.00,1575,417,1572,407,186544,0
ore-84,false,0.13,2515,128,2514,128,196512,0
ore-85,true,1.00,2096,509,2092,497,248336,0
ore-86,true,1.00,3916,615,3912,603,486185,0
ore-87,true,1.00,2677,495,2675,477,309438,0
ore-88,false,0.31,4505,296,4503,296,468718,0
ore-89,true,1.00,3589,555,3586,543,460981,0
ore-90,true,1.00,2337,493,2334,481,319942,0
ore-91,true,1.00,2225,480,2221,469,270235,0
ore-92,true,1.00,4408,576,4402,564,528630,0
ore-93,true,1.00,3376,484,3374,469,426044,0
ore-94,true,1.00,4062,571,4061,559,493105,0
ore-95,true,1.00,2250,500,2243,490,275265,0
ore-96,false,0.55,4195,421,4193,421,552554,0
ore-97,true,1.00,2026,507,2023,495,243564,0
ore-98,true,1.00,2546,504,2541,494,311537,0
ore-99,false,0.58,1320,355,1317,355,173057,0
ore-100,true,1.00,2992,554,2987,543,385714,0
