NDW:0.0
TTFW:1.8
DFPT:2.0
DFPAP:3.0
DFPMP:20.0
RIGHT_WINDOW_BORDER_X:35.0
level,win/fail,% travelled,run time,game ticks,planning time,total plannings,nodes evaluated,most backtracked nodes
notchParam-1,false,0.36,1793,298,1793,298,164462,0
notchParam-2,false,0.37,2387,321,2386,321,258928,0
notchParam-3,false,0.18,1496,210,1496,210,145698,0
notchParam-4,false,0.30,3071,999,3064,999,284886,0
notchParam-5,false,0.19,799,177,799,177,78279,0
notchParam-6,false,0.18,1654,154,1654,154,157509,0
notchParam-7,false,0.37,3213,362,3212,362,347660,0
notchParam-8,false,0.18,337,140,336,140,34679,0
notchParam-9,false,0.19,435,150,434,150,42441,0
notchParam-10,false,0.18,1030,171,1029,171,94598,0
notchParam-11,false,0.57,1518,389,1517,389,135811,0
notchParam-12,false,0.17,27512,999,27510,999,2627720,0
notchParam-13,false,0.36,903,281,902,281,87540,0
notchParam-14,false,0.67,1305,446,1304,446,126227,0
notchParam-15,false,0.36,2058,313,2057,313,196796,0
notchParam-16,false,0.37,2919,369,2916,369,303718,0
notchParam-17,false,0.36,1079,270,1077,270,105418,0
notchParam-18,false,0.67,1552,483,1551,483,160170,0
notchParam-19,false,0.48,2372,360,2370,360,232839,0
notchParam-20,false,0.67,1171,447,1171,447,109636,0
notchParam-21,false,0.36,1824,277,1824,277,153620,0
notchParam-22,false,0.66,17769,999,17766,999,1845898,0
notchParam-23,false,0.18,830,138,830,138,87378,0
notchParam-24,false,0.18,830,138,830,138,87602,0
notchParam-25,false,0.18,1429,214,1428,214,132623,0
notchParam-26,false,0.19,1102,191,1102,191,117179,0
notchParam-27,true,1.00,2047,627,2043,623,212014,0
notchParam-28,false,0.31,1608,325,1608,325,151473,0
notchParam-29,false,0.18,1097,184,1095,184,105432,0
notchParam-30,false,0.37,407,245,407,245,40226,0
notchParam-31,false,0.36,1065,271,1064,271,101377,0
notchParam-32,false,0.37,372,221,369,221,36858,0
notchParam-33,false,0.36,339,219,339,219,32302,0
notchParam-34,false,0.37,935,249,931,249,86568,0
notchParam-35,false,0.36,3248,356,3245,356,315940,0
notchParam-36,false,0.36,935,276,931,276,90822,0
notchParam-37,false,0.67,924,420,923,420,84324,0
notchParam-38,false,0.36,1165,274,1165,274,122818,0
notchParam-39,false,0.37,2814,323,2813,323,295798,0
notchParam-40,false,0.30,24283,999,24282,999,2275324,0
notchParam-41,false,0.31,438,218,438,218,41292,0
notchParam-42,false,0.36,1000,272,1000,272,106080,0
notchParam-43,false,0.18,1691,198,1691,198,153242,0
notchParam-44,false,0.19,468,136,468,136,45406,0
notchParam-45,false,0.18,1655,154,1655,154,156812,0
notchParam-46,false,0.19,368,136,367,136,34316,0
notchParam-47,false,0.67,2990,512,2990,512,303570,0
notchParam-48,false,0.37,2720,354,2718,354,294320,0
notchParam-49,false,0.36,1064,269,1063,269,101057,0
notchParam-50,true,1.00,1811,641,1810,632,168764,0
notchParam-51,true,1.00,2280,625,2278,621,216784,0
notchParam-52,false,0.36,1001,276,1000,276,106241,0
notchParam-53,false,0.36,837,260,836,260,88738,0
notchParam-54,false,0.36,999,248,998,248,97842,0
notchParam-55,false,0.37,2724,362,2723,362,295405,0
notchParam-56,false,0.36,2648,297,2648,297,269524,0
notchParam-57,false,0.31,2560,327,2560,327,248697,0
notchParam-58,false,0.18,963,174,962,174,104005,0
notchParam-59,false,0.18,1267,238,1266,238,135573,0
notchParam-60,false,0.43,22466,999,22465,999,2331993,0
notchParam-61,false,0.18,1396,209,1395,209,137204,0
notchParam-62,false,0.36,1462,250,1462,250,124255,0
notchParam-63,false,0.19,1032,193,1030,193,96977,0
notchParam-64,false,0.19,914,180,914,180,87831,0
notchParam-65,false,0.19,370,138,369,138,36294,0
notchParam-66,false,0.18,568,147,568,147,53187,0
notchParam-67,false,0.14,4,81,4,81,839,0
notchParam-68,false,0.36,3211,334,3209,334,299279,0
notchParam-69,false,0.36,2058,300,2058,300,174391,0
notchParam-70,false,0.27,6,142,5,142,1330,0
notchParam-71,false,0.31,373,216,371,216,36428,0
notchParam-72,false,0.19,1033,193,1031,193,97256,0
notchParam-73,false,0.19,368,140,368,140,36171,0
notchParam-74,false,0.18,768,187,768,187,74073,0
notchParam-75,false,0.19,1625,194,1624,194,156752,0
notchParam-76,false,0.19,2364,225,2363,225,253681,0
notchParam-77,false,0.31,240,206,238,206,24276,0
notchParam-78,false,0.18,870,201,869,201,79925,0
notchParam-79,false,0.19,368,136,367,136,34495,0
notchParam-80,false,0.66,14517,999,14510,999,1541966,0
notchParam-81,false,0.18,1654,154,1653,154,157596,0
notchParam-82,true,1.00,2679,689,2679,685,267554,0
notchParam-83,false,0.36,1002,298,1001,298,107167,0
notchParam-84,false,0.36,903,294,903,294,89221,0
notchParam-85,false,0.37,1728,289,1727,289,188310,0
notchParam-86,false,0.18,1590,170,1589,170,159805,0
notchParam-87,false,0.36,372,220,371,220,36046,0
notchParam-88,true,1.00,3173,694,3169,689,315802,0
notchParam-89,false,0.67,1868,462,1866,462,184292,0
notchParam-90,false,0.36,1000,266,1000,266,103467,0
notchParam-91,false,0.17,28098,999,28097,999,2430628,0
notchParam-92,false,0.18,401,138,399,138,38708,0
notchParam-93,false,0.18,568,147,567,147,53239,0
notchParam-94,false,0.32,638,229,638,229,62370,0
notchParam-95,false,0.18,2584,234,2583,234,278549,0
notchParam-96,false,0.18,1395,218,1395,218,147466,0
notchParam-97,false,0.18,965,184,965,184,92566,0
notchParam-98,false,0.36,1531,299,1528,299,142477,0
notchParam-99,false,0.36,3246,356,3246,356,317363,0
notchParam-100,false,0.36,1627,307,1626,307,155498,0
