NDW:0.0
TTFW:1.2
DFPT:2.0
DFPAP:3.0
DFPMP:50.0
RIGHT_WINDOW_BORDER_X:35.0
level,win/fail,% travelled,run time,game ticks,planning time,total plannings,nodes evaluated,most backtracked nodes
patternCount-1,false,0.67,4291,999,4277,999,263510,0
patternCount-2,false,0.10,647,215,639,215,41871,0
patternCount-3,false,0.03,166,81,165,81,11567,0
patternCount-4,false,0.08,469,154,467,154,29532,0
patternCount-5,false,0.16,25970,999,25963,999,1362446,0
patternCount-6,false,0.51,3065,631,3055,631,179043,0
patternCount-7,false,0.05,412,130,410,130,27146,0
patternCount-8,false,0.39,3041,559,3033,559,179275,0
patternCount-9,false,0.06,553,137,549,137,34801,0
patternCount-10,false,0.51,2609,753,2590,753,157197,0
patternCount-11,false,0.36,2798,577,2786,577,164606,0
patternCount-12,false,0.14,2747,371,2745,371,189353,0
patternCount-13,false,0.47,2327,719,2312,719,133450,0
patternCount-14,false,0.13,2776,313,2766,313,177969,0
patternCount-15,false,0.41,3397,597,3386,597,201972,0
patternCount-16,false,0.13,754,230,749,230,45124,0
patternCount-17,false,0.47,4334,619,4320,619,248899,0
patternCount-18,false,0.50,3455,751,3443,751,213212,0
patternCount-19,false,0.04,546,150,544,150,35336,0
patternCount-20,false,0.13,1981,264,1973,264,117017,0
patternCount-21,false,0.67,4899,940,4883,940,290511,0
patternCount-22,false,0.03,209,74,208,74,14470,0
patternCount-23,false,0.12,829,181,825,181,51859,0
patternCount-24,false,0.04,541,150,536,150,35273,0
patternCount-25,false,0.33,5707,558,5695,558,335145,0
patternCount-26,false,0.04,545,150,538,150,35309,0
patternCount-27,false,0.24,1473,372,1469,372,89134,0
patternCount-28,false,0.09,510,165,506,165,30847,0
patternCount-29,false,0.16,2310,382,2297,382,145815,0
patternCount-30,false,0.57,2566,689,2548,689,161426,0
patternCount-31,false,0.05,1422,138,1421,138,84422,0
patternCount-32,false,0.04,544,150,539,150,35359,0
patternCount-33,false,0.04,542,150,542,150,35377,0
patternCount-34,false,0.10,742,177,737,177,42726,0
patternCount-35,false,0.52,4937,848,4917,848,287228,0
patternCount-36,false,0.33,2231,467,2219,467,131755,0
patternCount-37,false,0.10,530,136,529,136,30517,0
patternCount-38,false,0.04,546,150,539,150,35403,0
patternCount-39,false,0.18,1038,277,1029,277,62506,0
patternCount-40,false,0.31,1963,368,1954,368,115689,0
patternCount-41,false,0.28,1418,389,1415,389,83759,0
patternCount-42,false,0.04,1893,120,1892,120,124154,0
patternCount-43,true,1.00,3016,963,2987,959,182470,0
patternCount-44,false,0.22,3257,420,3252,420,188598,0
patternCount-45,false,0.21,23727,999,23719,999,1390685,0
patternCount-46,false,0.29,2329,499,2320,499,135024,0
patternCount-47,false,0.08,1079,210,1076,210,69120,0
patternCount-48,false,0.14,2360,304,2347,304,140345,0
patternCount-49,false,0.29,2591,456,2581,456,151499,0
patternCount-50,false,0.51,2026,673,2014,673,123677,0
patternCount-51,false,0.05,436,130,433,130,30202,0
patternCount-52,false,0.18,24962,999,24953,999,1371710,0
patternCount-53,false,0.06,1851,155,1847,155,106744,0
patternCount-54,false,0.18,1462,314,1455,314,92379,0
patternCount-55,false,0.38,17575,999,17567,999,944006,0
patternCount-56,false,0.18,3843,397,3838,397,221245,0
patternCount-57,false,0.10,27244,999,27236,999,1450961,0
patternCount-58,false,0.40,1918,522,1901,522,115259,0
patternCount-59,false,0.07,463,115,461,115,28658,0
patternCount-60,false,0.11,744,234,740,234,44221,0
patternCount-61,false,0.09,1054,161,1050,161,60089,0
patternCount-62,false,0.23,2776,370,2767,370,160725,0
patternCount-63,false,0.61,2236,698,2219,698,138142,0
patternCount-64,false,0.22,1941,370,1933,370,126002,0
patternCount-65,false,0.23,4216,397,4206,397,242648,0
patternCount-66,false,0.59,7572,946,7554,946,446537,0
patternCount-67,false,0.15,4642,999,4619,999,316324,0
patternCount-68,false,0.11,1056,237,1050,237,64439,0
patternCount-69,false,0.78,4360,999,4336,999,266940,0
patternCount-70,false,0.03,503,78,502,78,34769,0
patternCount-71,false,0.12,729,164,725,164,44974,0
patternCount-72,false,0.32,3124,477,3118,477,181970,0
patternCount-73,false,0.59,6107,978,6092,978,354406,0
patternCount-74,false,0.54,4730,846,4721,846,276758,0
patternCount-75,false,0.13,684,176,676,176,40157,0
patternCount-76,false,0.30,3921,461,3915,461,234730,0
patternCount-77,false,0.38,5002,558,4993,558,282963,0
patternCount-78,false,0.13,4083,316,4077,316,254100,0
patternCount-79,false,0.36,3454,586,3445,586,212638,0
patternCount-80,false,0.17,1682,234,1680,234,95127,0
patternCount-81,false,0.06,384,101,379,101,23517,0
patternCount-82,false,0.18,2044,274,2039,274,125068,0
patternCount-83,false,0.09,28837,999,28834,999,1568371,0
patternCount-84,false,0.27,16191,999,16176,999,897147,0
patternCount-85,false,0.10,1330,265,1320,265,81590,0
patternCount-86,false,0.57,5270,999,5249,999,317728,0
patternCount-87,false,0.80,5921,999,5900,999,357919,0
patternCount-88,false,0.18,751,295,746,295,44211,0
patternCount-89,false,0.09,4810,315,4806,315,284388,0
patternCount-90,false,0.72,4678,999,4660,999,276351,0
patternCount-91,false,0.16,873,292,872,292,53092,0
patternCount-92,false,0.73,5828,999,5813,999,339422,0
patternCount-93,false,0.33,2054,394,2045,394,118621,0
patternCount-94,false,0.12,1974,229,1971,229,114856,0
patternCount-95,false,0.19,2120,311,2114,311,128759,0
patternCount-96,false,0.26,19809,999,19802,999,1060903,0
patternCount-97,false,0.51,2850,561,2838,561,164800,0
patternCount-98,false,0.59,6146,997,6129,997,362485,0
patternCount-99,false,0.08,582,180,572,180,37050,0
patternCount-100,false,0.81,3580,999,3556,999,212894,0
