NDW:0.0
TTFW:0.2
DFPT:2.0
DFPAP:3.0
DFPMP:1.0
RIGHT_WINDOW_BORDER_X:350.0
level,win/fail,% travelled,run time,game ticks,planning time,total plannings,nodes evaluated,most backtracked nodes
ge-1,true,1.00,3105,216,3104,184,173440,0
ge-2,true,1.00,3120,209,3116,177,171035,0
ge-3,true,1.00,2914,199,2910,167,160418,0
ge-4,true,1.00,3894,211,3893,179,215699,0
ge-5,true,1.00,2625,199,2625,167,139004,0
ge-6,true,1.00,4876,234,4874,202,262767,0
ge-7,true,1.00,2780,199,2779,167,146415,0
ge-8,true,1.00,2841,201,2840,169,161489,0
ge-9,true,1.00,2555,199,2554,167,143644,0
ge-10,true,1.00,2763,199,2763,167,140083,0
ge-11,true,1.00,2925,201,2924,169,164488,0
ge-12,true,1.00,2670,199,2668,167,138894,0
ge-13,true,1.00,4412,231,4408,199,242887,0
ge-14,true,1.00,3166,205,3164,173,171993,0
ge-15,true,1.00,2644,199,2644,167,154022,0
ge-16,true,1.00,5363,241,5361,209,298004,0
ge-17,true,1.00,3163,213,3161,181,174893,0
ge-18,true,1.00,4591,234,4591,202,247282,0
ge-19,true,1.00,4285,227,4283,195,241098,0
ge-20,true,1.00,3011,203,3010,171,166670,0
ge-21,true,1.00,2646,201,2646,169,145571,0
ge-22,true,1.00,2904,199,2902,167,148942,0
ge-23,true,1.00,3119,199,3116,167,183134,0
ge-24,true,1.00,3113,203,3112,171,174240,0
ge-25,true,1.00,3023,199,3022,167,172082,0
ge-26,true,1.00,2744,199,2744,167,156023,0
ge-27,true,1.00,3253,203,3252,171,178003,0
ge-28,true,1.00,2725,199,2721,167,160570,0
ge-29,true,1.00,2862,203,2860,168,162601,0
ge-30,true,1.00,4239,222,4239,190,248952,0
ge-31,true,1.00,4384,218,4383,186,250707,0
ge-32,true,1.00,3500,215,3496,183,186832,0
ge-33,true,1.00,2910,206,2910,168,158520,0
ge-34,true,1.00,2917,210,2916,173,167271,0
ge-35,true,1.00,4246,227,4245,195,228439,0
ge-36,true,1.00,2466,203,2465,168,141008,0
ge-37,true,1.00,2455,199,2451,167,141850,0
ge-38,true,1.00,4537,244,4535,212,259158,0
ge-39,true,1.00,3746,218,3746,183,218551,0
ge-40,true,1.00,2774,199,2773,167,159262,0
ge-41,true,1.00,2531,199,2528,167,129938,0
ge-42,true,1.00,3990,219,3990,187,226487,0
ge-43,true,1.00,4083,216,4080,184,228350,0
ge-44,true,1.00,2955,203,2954,171,167079,0
ge-45,true,1.00,4068,224,4066,192,222066,0
ge-46,true,1.00,3966,223,3966,191,215421,0
ge-47,true,1.00,2840,203,2839,171,157278,0
ge-48,true,1.00,3464,209,3462,177,189248,0
ge-49,true,1.00,2992,201,2990,167,167548,0
ge-50,true,1.00,2803,199,2801,167,156616,0
ge-51,true,1.00,2993,203,2992,171,170608,0
ge-52,true,1.00,3639,218,3637,186,201335,0
ge-53,true,1.00,3267,207,3266,175,184771,0
ge-54,true,1.00,3301,203,3300,171,182536,0
ge-55,true,1.00,4497,229,4496,197,254085,0
ge-56,true,1.00,2640,203,2639,171,147887,0
ge-57,true,1.00,2765,199,2765,167,154301,0
ge-58,true,1.00,3531,226,3530,183,192851,0
ge-59,true,1.00,2693,201,2689,169,153276,0
ge-60,true,1.00,2916,199,2915,167,161494,0
ge-61,true,1.00,2643,199,2642,167,145290,0
ge-62,true,1.00,3655,207,3654,175,205704,0
ge-63,true,1.00,2816,201,2814,169,154679,0
ge-64,false,1.00,2980,205,2979,173,153520,0
ge-65,true,1.00,2966,201,2964,169,165993,0
ge-66,true,1.00,3490,206,3489,169,203885,0
ge-67,true,1.00,2940,201,2940,169,155565,0
ge-68,true,1.00,2713,205,2711,173,148297,0
ge-69,true,1.00,2562,201,2559,169,144049,0
ge-70,true,1.00,2924,201,2923,169,166323,0
ge-71,true,1.00,3786,217,3782,185,224966,0
ge-72,true,1.00,4327,228,4324,196,238588,0
ge-73,true,1.00,2861,199,2858,167,162361,0
ge-74,true,1.00,3106,201,3104,169,179507,0
ge-75,true,1.00,3312,208,3312,172,181993,0
ge-76,true,1.00,2902,203,2902,171,169807,0
ge-77,true,1.00,3276,207,3275,175,187779,0
ge-78,true,1.00,4478,224,4478,192,251060,0
ge-79,false,1.00,2867,200,2867,169,159069,0
ge-80,true,1.00,3332,214,3330,171,173453,0
ge-81,true,1.00,3023,199,3023,167,153471,0
ge-82,true,1.00,3428,215,3428,179,183235,0
ge-83,true,1.00,4304,236,4304,203,235371,0
ge-84,true,1.00,2775,199,2775,167,159575,0
ge-85,true,1.00,2979,201,2976,169,169372,0
ge-86,true,1.00,2959,199,2957,169,168105,0
ge-87,true,1.00,3835,221,3833,189,214171,0
ge-88,true,1.00,3249,213,3248,175,175459,0
ge-89,true,1.00,4271,225,4271,193,235155,0
ge-90,true,1.00,2751,199,2746,167,152761,0
ge-91,true,1.00,2856,199,2856,167,151858,0
ge-92,true,1.00,3036,203,3035,171,162423,0
ge-93,true,1.00,3359,199,3358,169,189796,0
ge-94,true,1.00,2815,199,2813,167,145859,0
ge-95,true,1.00,4896,249,4894,200,261116,0
ge-96,true,1.00,3687,216,3685,179,205810,0
ge-97,true,1.00,3899,216,3897,183,219411,0
ge-98,true,1.00,2670,199,2667,167,151987,0
ge-99,true,1.00,2828,199,2827,167,161337,0
ge-100,true,1.00,2809,199,2805,167,154095,0
