NDW:0.0
TTFW:1.8
DFPT:2.0
DFPAP:3.0
DFPMP:0.0
RIGHT_WINDOW_BORDER_X:195.0
level,win/fail,% travelled,run time,game ticks,planning time,total plannings,nodes evaluated,most backtracked nodes
patternOccur-1,true,1.00,776,506,774,489,96277,0
patternOccur-2,true,1.00,787,449,783,432,99013,0
patternOccur-3,true,1.00,1576,495,1570,478,202838,0
patternOccur-4,true,1.00,1294,513,1291,496,160611,0
patternOccur-5,true,1.00,954,473,952,455,123423,0
patternOccur-6,true,1.00,1318,542,1314,525,154458,0
patternOccur-7,true,1.00,1454,550,1450,531,183434,0
patternOccur-8,true,1.00,2169,489,2166,472,280947,0
patternOccur-9,true,1.00,1852,513,1846,495,230433,0
patternOccur-10,true,1.00,868,537,864,506,113353,0
patternOccur-11,true,1.00,3899,559,3892,541,430827,0
patternOccur-12,true,1.00,1512,525,1512,503,206716,0
patternOccur-13,true,1.00,1187,448,1184,431,157104,0
patternOccur-14,true,1.00,4065,582,4058,563,452414,0
patternOccur-15,true,1.00,1399,460,1395,443,173517,0
patternOccur-16,true,1.00,4185,535,4184,507,450911,0
patternOccur-17,true,1.00,1264,497,1261,480,168033,0
patternOccur-18,true,1.00,778,510,773,493,97362,0
patternOccur-19,false,0.82,5086,571,5084,571,587741,0
patternOccur-20,true,1.00,947,533,944,516,120425,0
patternOccur-21,true,1.00,808,501,802,483,110345,0
patternOccur-22,false,0.84,3280,512,3277,512,401490,0
patternOccur-23,true,1.00,1216,518,1213,494,149123,0
patternOccur-24,true,1.00,934,506,929,488,122133,0
patternOccur-25,true,1.00,1337,505,1337,488,173527,0
patternOccur-26,true,1.00,731,442,729,425,89656,0
patternOccur-27,true,1.00,4043,551,4041,508,432609,0
patternOccur-28,true,1.00,1239,506,1238,488,160050,0
patternOccur-29,true,1.00,755,414,753,387,96876,0
patternOccur-30,true,1.00,1476,503,1475,486,181957,0
patternOccur-31,true,1.00,5762,559,5759,537,642851,0
patternOccur-32,true,1.00,5722,637,5719,590,628283,0
patternOccur-33,true,1.00,1378,516,1376,498,177745,0
patternOccur-34,true,1.00,1676,509,1673,481,220547,0
patternOccur-35,true,1.00,822,440,821,422,100836,0
patternOccur-36,true,1.00,2965,540,2961,518,350788,0
patternOccur-37,true,1.00,3040,560,3037,538,335243,0
patternOccur-38,true,1.00,901,506,900,489,122727,0
patternOccur-39,true,1.00,3890,521,3889,503,418980,0
patternOccur-40,true,1.00,1682,541,1679,523,219320,0
patternOccur-41,true,1.00,1110,495,1106,469,147612,0
patternOccur-42,false,0.89,4441,531,4438,531,470698,0
patternOccur-43,true,1.00,1127,511,1124,494,145218,0
patternOccur-44,true,1.00,1069,540,1065,522,133670,0
patternOccur-45,true,1.00,2585,484,2583,456,289983,0
patternOccur-46,true,1.00,821,501,814,483,103845,0
patternOccur-47,true,1.00,2755,473,2751,447,319295,0
patternOccur-48,true,1.00,1572,494,1568,477,215546,0
patternOccur-49,true,1.00,1289,522,1287,505,171341,0
patternOccur-50,true,1.00,1645,503,1643,485,203270,0
patternOccur-51,true,1.00,1162,566,1159,545,155951,0
patternOccur-52,true,1.00,1338,519,1335,501,173099,0
patternOccur-53,true,1.00,1411,475,1405,458,179918,0
patternOccur-54,true,1.00,2647,520,2644,502,349701,0
patternOccur-55,true,1.00,1268,456,1264,439,165127,0
patternOccur-56,true,1.00,1264,564,1261,547,158652,0
patternOccur-57,true,1.00,1637,501,1634,482,214602,0
patternOccur-58,true,1.00,4520,524,4518,501,488472,0
patternOccur-59,true,1.00,1333,507,1331,489,171438,0
patternOccur-60,true,1.00,2795,517,2793,482,309329,0
patternOccur-61,true,1.00,1488,541,1487,522,193916,0
patternOccur-62,true,1.00,977,470,972,453,125868,0
patternOccur-63,true,1.00,1049,508,1047,477,137226,0
patternOccur-64,true,1.00,2085,587,2079,564,279867,0
patternOccur-65,true,1.00,654,492,654,475,88622,0
patternOccur-66,true,1.00,1356,498,1354,480,181832,0
patternOccur-67,true,1.00,2939,542,2933,524,355339,0
patternOccur-68,true,1.00,916,543,916,526,114635,0
patternOccur-69,true,1.00,5177,612,5176,582,541302,0
patternOccur-70,false,0.86,7729,634,7728,634,796904,0
patternOccur-71,true,1.00,1801,512,1798,495,247831,0
patternOccur-72,false,0.86,2735,499,2733,499,290635,0
patternOccur-73,true,1.00,3587,549,3584,518,389783,0
patternOccur-74,true,1.00,2512,484,2509,458,287835,0
patternOccur-75,true,1.00,2215,480,2212,459,259487,0
patternOccur-76,true,1.00,1450,474,1442,457,190917,0
patternOccur-77,true,1.00,884,530,880,513,113269,0
patternOccur-78,true,1.00,823,482,822,465,107256,0
patternOccur-79,true,1.00,1202,486,1200,469,162230,0
patternOccur-80,true,1.00,3750,538,3749,513,437254,0
patternOccur-81,true,1.00,2715,524,2714,489,313337,0
patternOccur-82,true,1.00,1892,547,1890,517,215766,0
patternOccur-83,true,1.00,1395,500,1392,483,184750,0
patternOccur-84,true,1.00,1160,532,1158,515,142357,0
patternOccur-85,true,1.00,2347,541,2344,511,278229,0
patternOccur-86,true,1.00,3778,524,3776,495,424071,0
patternOccur-87,true,1.00,771,503,767,486,101461,0
patternOccur-88,true,1.00,1324,448,1319,430,169091,0
patternOccur-89,true,1.00,1224,538,1220,520,160378,0
patternOccur-90,true,1.00,1517,554,1515,535,207133,0
patternOccur-91,true,1.00,1125,492,1123,470,146746,0
patternOccur-92,true,1.00,612,433,612,416,78682,0
patternOccur-93,true,1.00,1235,508,1230,490,157091,0
patternOccur-94,false,0.92,6127,595,6123,595,666145,0
patternOccur-95,true,1.00,1272,492,1268,475,177220,0
patternOccur-96,false,0.87,3706,520,3704,520,353973,0
patternOccur-97,true,1.00,1465,438,1464,421,196617,0
patternOccur-98,false,0.90,4166,528,4165,528,449392,0
patternOccur-99,true,1.00,653,473,651,454,81854,0
patternOccur-100,true,1.00,1624,513,1620,496,196622,0
