NDW:0.0
TTFW:1.0
DFPT:2.0
DFPAP:3.0
DFPMP:3.0
RIGHT_WINDOW_BORDER_X:295.0
level,win/fail,% travelled,run time,game ticks,planning time,total plannings,nodes evaluated,most backtracked nodes
patternWeightCount-1,true,1.00,3112,459,3106,421,166484,0
patternWeightCount-2,true,1.00,819,412,805,371,41789,0
patternWeightCount-3,true,1.00,874,390,858,363,43222,0
patternWeightCount-4,true,1.00,676,372,671,345,32825,0
patternWeightCount-5,true,1.00,1476,462,1459,435,75797,0
patternWeightCount-6,true,1.00,1877,433,1868,405,99520,0
patternWeightCount-7,true,1.00,1068,445,1052,418,54011,0
patternWeightCount-8,true,1.00,573,391,565,364,26620,0
patternWeightCount-9,true,1.00,1321,444,1308,416,68693,0
patternWeightCount-10,true,1.00,1269,495,1253,468,64006,0
patternWeightCount-11,true,1.00,570,384,557,357,27505,0
patternWeightCount-12,true,1.00,1396,428,1385,401,70763,0
patternWeightCount-13,true,1.00,1069,426,1060,399,56127,0
patternWeightCount-14,true,1.00,982,425,973,387,49556,0
patternWeightCount-15,true,1.00,1356,397,1346,370,72419,0
patternWeightCount-16,true,1.00,2825,490,2814,448,153180,0
patternWeightCount-17,true,1.00,1115,473,1105,446,53636,0
patternWeightCount-18,true,1.00,1032,401,1020,375,52647,0
patternWeightCount-19,true,1.00,973,419,963,392,47789,0
patternWeightCount-20,true,1.00,4919,416,4909,388,248859,0
patternWeightCount-21,true,1.00,901,489,889,461,39371,0
patternWeightCount-22,true,1.00,2491,479,2483,438,132889,0
patternWeightCount-23,true,1.00,1034,451,1021,417,50590,0
patternWeightCount-24,true,1.00,1290,430,1278,402,66808,0
patternWeightCount-25,true,1.00,1936,460,1919,433,100925,0
patternWeightCount-26,true,1.00,1697,487,1680,452,88779,0
patternWeightCount-27,true,1.00,2197,454,2185,410,115726,0
patternWeightCount-28,true,1.00,1348,439,1333,412,68399,0
patternWeightCount-29,true,1.00,1488,457,1475,430,74958,0
patternWeightCount-30,true,1.00,3235,469,3219,423,162251,0
patternWeightCount-31,true,1.00,2007,453,1992,426,96100,0
patternWeightCount-32,true,1.00,760,408,753,381,36260,0
patternWeightCount-33,true,1.00,975,424,966,397,49414,0
patternWeightCount-34,true,1.00,1233,406,1227,379,62225,0
patternWeightCount-35,true,1.00,2312,443,2299,416,112691,0
patternWeightCount-36,true,1.00,1434,426,1417,399,72858,0
patternWeightCount-37,true,1.00,801,405,785,379,37741,0
patternWeightCount-38,true,1.00,2250,461,2245,426,112522,0
patternWeightCount-39,true,1.00,919,390,914,352,44710,0
patternWeightCount-40,true,1.00,1262,436,1247,409,64002,0
patternWeightCount-41,true,1.00,1684,460,1668,419,86451,0
patternWeightCount-42,false,0.87,3013,374,2998,374,148050,0
patternWeightCount-43,true,1.00,1203,389,1194,362,61676,0
patternWeightCount-44,true,1.00,1547,462,1537,413,81901,0
patternWeightCount-45,true,1.00,2948,519,2935,470,151616,0
patternWeightCount-46,true,1.00,3939,506,3926,463,191276,0
patternWeightCount-47,true,1.00,798,411,792,384,37985,0
patternWeightCount-48,true,1.00,898,413,882,387,44509,0
patternWeightCount-49,true,1.00,1064,410,1052,383,54251,0
patternWeightCount-50,true,1.00,1141,415,1131,388,57349,0
patternWeightCount-51,true,1.00,1092,440,1083,395,55778,0
patternWeightCount-52,true,1.00,1715,460,1705,420,87305,0
patternWeightCount-53,true,1.00,3112,492,3099,457,159866,0
patternWeightCount-54,true,1.00,1252,465,1239,438,59574,0
patternWeightCount-55,true,1.00,1298,410,1285,383,67800,0
patternWeightCount-56,true,1.00,1367,417,1359,390,69876,0
patternWeightCount-57,true,1.00,528,386,522,360,25379,0
patternWeightCount-58,true,1.00,1476,441,1469,406,74563,0
patternWeightCount-59,true,1.00,598,381,584,354,28916,0
patternWeightCount-60,true,1.00,1557,486,1548,448,78426,0
patternWeightCount-61,true,1.00,1144,420,1134,374,58639,0
patternWeightCount-62,true,1.00,2214,457,2206,418,112632,0
patternWeightCount-63,true,1.00,1133,452,1114,425,57247,0
patternWeightCount-64,true,1.00,1469,434,1457,408,75605,0
patternWeightCount-65,true,1.00,1455,453,1449,426,74264,0
patternWeightCount-66,true,1.00,1180,415,1175,388,58094,0
patternWeightCount-67,true,1.00,1369,424,1354,397,49944,0
patternWeightCount-68,false,0.85,21677,999,21661,999,746760,0
patternWeightCount-69,true,1.00,1976,433,1964,392,107282,0
patternWeightCount-70,true,1.00,1241,475,1227,435,65822,0
patternWeightCount-71,true,1.00,1204,416,1198,383,65558,0
patternWeightCount-72,true,1.00,4532,485,4524,458,229200,0
patternWeightCount-73,true,1.00,4857,462,4843,414,263836,0
patternWeightCount-74,true,1.00,1102,402,1089,375,59591,0
patternWeightCount-75,true,1.00,1306,418,1297,392,69906,0
patternWeightCount-76,true,1.00,1504,482,1483,455,81304,0
patternWeightCount-77,true,1.00,1157,402,1149,376,62093,0
patternWeightCount-78,true,1.00,2722,483,2708,454,139958,0
patternWeightCount-79,true,1.00,826,399,823,373,43829,0
patternWeightCount-80,true,1.00,1694,457,1683,430,90874,0
patternWeightCount-81,true,1.00,3162,448,3154,409,167547,0
patternWeightCount-82,true,1.00,410,423,403,373,18871,0
patternWeightCount-83,true,1.00,868,382,859,354,46551,0
patternWeightCount-84,true,1.00,989,422,977,395,52372,0
patternWeightCount-85,true,1.00,1403,412,1396,385,76969,0
patternWeightCount-86,false,0.94,3589,445,3578,445,173521,0
patternWeightCount-87,true,1.00,4539,461,4531,418,225858,0
patternWeightCount-88,true,1.00,1633,444,1624,409,84750,0
patternWeightCount-89,true,1.00,1577,402,1570,376,84206,0
patternWeightCount-90,true,1.00,4630,483,4624,445,234108,0
patternWeightCount-91,true,1.00,1409,432,1402,403,72882,0
patternWeightCount-92,true,1.00,3929,481,3917,440,209418,0
patternWeightCount-93,true,1.00,2822,450,2808,413,145661,0
patternWeightCount-94,true,1.00,1396,458,1386,431,68633,0
patternWeightCount-95,true,1.00,1513,434,1499,408,75932,0
patternWeightCount-96,true,1.00,1187,465,1173,438,58752,0
patternWeightCount-97,true,1.00,1080,359,1068,330,55450,0
patternWeightCount-98,true,1.00,4773,492,4767,446,249025,0
patternWeightCount-99,true,1.00,1641,452,1627,424,85593,0
patternWeightCount-100,true,1.00,1408,426,1396,399,71632,0
