NDW:0.0
TTFW:0.8
DFPT:2.0
DFPAP:3.0
DFPMP:10.0
RIGHT_WINDOW_BORDER_X:215.0
level,win/fail,% travelled,run time,game ticks,planning time,total plannings,nodes evaluated,most backtracked nodes
Krys-1,true,1.00,8803,649,8798,619,654431,0
Krys-2,true,1.00,1434,414,1430,391,102949,0
Krys-3,true,1.00,7583,549,7580,512,594286,0
Krys-4,true,1.00,2704,488,2702,433,202341,0
Krys-5,true,1.00,1715,346,1713,309,166067,0
Krys-6,true,1.00,967,344,964,312,90001,0
Krys-7,true,1.00,331,344,330,309,30193,0
Krys-8,true,1.00,2397,499,2391,452,194904,0
Krys-9,true,1.00,1857,304,1856,273,186331,0
Krys-10,true,1.00,1880,361,1872,339,181171,0
Krys-11,true,1.00,345,377,341,344,25150,0
Krys-12,false,0.70,26162,999,26161,999,1534760,0
Krys-13,true,1.00,4187,414,4186,373,376852,0
Krys-14,true,1.00,1170,356,1170,324,76422,0
Krys-15,true,1.00,6526,500,6520,458,618778,0
Krys-16,false,0.39,25514,999,25509,999,1442911,0
Krys-17,true,1.00,2767,455,2766,421,207474,0
Krys-18,true,1.00,1174,394,1174,353,94589,0
Krys-19,true,1.00,3102,411,3098,380,282839,0
Krys-20,true,1.00,3732,563,3726,532,320557,0
Krys-21,true,1.00,1479,337,1474,312,153260,0
Krys-22,true,1.00,2764,341,2763,295,276536,0
Krys-23,true,1.00,1649,437,1648,398,125938,0
Krys-24,true,1.00,4342,399,4339,353,331541,0
Krys-25,true,1.00,2859,411,2858,375,213815,0
Krys-26,true,1.00,3631,332,3630,293,361312,0
Krys-27,true,1.00,2018,388,2015,355,163108,0
Krys-28,true,1.00,4312,491,4307,460,351145,0
Krys-29,true,1.00,2141,458,2135,434,152272,0
Krys-30,true,1.00,2602,530,2598,488,178584,0
Krys-31,true,1.00,1665,457,1664,422,137335,0
Krys-32,true,1.00,519,342,516,322,39326,0
Krys-33,true,1.00,310,331,308,296,26362,0
Krys-34,true,1.00,3215,431,3213,395,231102,0
Krys-35,true,1.00,2005,371,2002,337,182060,0
Krys-36,false,0.91,24379,999,24378,999,1496434,0
Krys-37,true,1.00,6766,500,6764,472,567137,0
Krys-38,true,1.00,4290,428,4288,395,410635,0
Krys-39,true,1.00,5282,430,5279,379,443400,0
Krys-40,true,1.00,3244,432,3240,404,307603,0
Krys-41,true,1.00,3870,381,3867,355,315501,0
Krys-42,true,1.00,2112,392,2110,357,202170,0
Krys-43,true,1.00,1773,328,1772,303,171743,0
Krys-44,true,1.00,5263,507,5261,472,461334,0
Krys-45,true,1.00,1658,446,1655,419,105309,0
Krys-46,true,1.00,2773,531,2771,494,190642,0
Krys-47,true,1.00,1360,467,1356,422,109718,0
Krys-48,true,1.00,1997,316,1997,289,200162,0
Krys-49,true,1.00,1490,402,1488,365,104515,0
Krys-50,true,1.00,7596,545,7594,524,600054,0
Krys-51,true,1.00,3764,417,3760,385,383548,0
Krys-52,true,1.00,2725,544,2724,508,211464,0
Krys-53,true,1.00,2072,386,2069,356,136368,0
Krys-54,true,1.00,4539,484,4535,452,384296,0
Krys-55,true,1.00,2818,444,2817,407,206092,0
Krys-56,true,1.00,766,354,761,321,60503,0
Krys-57,true,1.00,2927,367,2926,333,253096,0
Krys-58,true,1.00,2043,424,2038,391,141688,0
Krys-59,true,1.00,1981,488,1974,445,126009,0
Krys-60,true,1.00,3234,387,3232,336,250407,0
Krys-61,true,1.00,2305,402,2301,380,159938,0
Krys-62,true,1.00,1624,419,1621,386,99635,0
Krys-63,true,1.00,5671,636,5663,602,391218,0
Krys-64,true,1.00,4029,524,4022,490,289643,0
Krys-65,true,1.00,2802,471,2797,446,176359,0
Krys-66,true,1.00,1914,413,1913,388,128950,0
Krys-67,true,1.00,2674,441,2668,404,202650,0
Krys-68,true,1.00,3243,339,3239,304,288832,0
Krys-69,true,1.00,6240,595,6237,558,385325,0
Krys-70,true,1.00,4944,478,4942,437,378952,0
Krys-71,true,1.00,4753,434,4751,388,493083,0
Krys-72,true,1.00,1548,450,1545,408,133772,0
Krys-73,false,0.80,24330,999,24329,999,1414589,0
Krys-74,true,1.00,1840,365,1835,339,140375,0
Krys-75,true,1.00,905,390,898,353,56680,0
Krys-76,true,1.00,2904,343,2903,315,251022,0
Krys-77,true,1.00,1222,320,1221,283,124779,0
Krys-78,true,1.00,4617,458,4613,428,371865,0
Krys-79,true,1.00,1083,378,1081,319,71226,0
Krys-80,true,1.00,425,395,422,368,33064,0
Krys-81,true,1.00,937,401,932,366,79087,0
Krys-82,true,1.00,1049,377,1045,342,70297,0
Krys-83,true,1.00,3227,424,3223,353,264628,0
Krys-84,true,1.00,258,354,255,319,20811,0
Krys-85,true,1.00,2872,470,2866,429,206372,0
Krys-86,true,1.00,1770,376,1768,339,127669,0
Krys-87,true,1.00,1043,359,1039,339,65690,0
Krys-88,true,1.00,2752,434,2749,393,196832,0
Krys-89,true,1.00,1995,403,1994,377,146136,0
Krys-90,true,1.00,3921,386,3919,330,345123,0
Krys-91,true,1.00,346,357,341,323,28831,0
Krys-92,false,0.91,22814,999,22812,999,1254576,0
Krys-93,true,1.00,1855,334,1852,300,193194,0
Krys-94,true,1.00,1295,370,1291,325,127686,0
Krys-95,true,1.00,1486,400,1483,363,98712,0
Krys-96,true,1.00,4014,409,4012,363,370214,0
Krys-97,true,1.00,3086,433,3081,406,238114,0
Krys-98,true,1.00,4570,534,4568,508,316470,0
Krys-99,true,1.00,1385,429,1385,400,91219,0
Krys-100,true,1.00,2056,312,2055,282,209394,0
