NDW:0.0
TTFW:1.4
DFPT:2.0
DFPAP:3.0
DFPMP:0.0
RIGHT_WINDOW_BORDER_X:135.0
level,win/fail,% travelled,run time,game ticks,planning time,total plannings,nodes evaluated,most backtracked nodes
Krys-1,false,0.38,28712,999,28704,999,997113,0
Krys-2,false,0.79,22078,999,22046,999,760628,0
Krys-3,true,1.00,6990,573,6947,551,333562,0
Krys-4,true,1.00,3186,506,3082,490,133596,0
Krys-5,true,1.00,3056,410,3053,388,164375,0
Krys-6,true,1.00,1269,389,1260,374,65058,0
Krys-7,true,1.00,281,352,263,331,14684,0
Krys-8,true,1.00,1815,456,1784,434,92852,0
Krys-9,true,1.00,3038,436,3025,414,171902,0
Krys-10,true,1.00,1977,412,1961,391,106674,0
Krys-11,true,1.00,177,376,164,354,8324,0
Krys-12,false,0.70,23389,999,23330,999,864531,0
Krys-13,false,0.75,3146,371,3142,371,165256,0
Krys-14,false,0.79,23837,999,23805,999,838550,0
Krys-15,true,1.00,4118,449,4113,433,228249,0
Krys-16,false,0.69,23596,999,23589,999,839582,0
Krys-17,true,1.00,3268,445,3238,423,150072,0
Krys-18,true,1.00,1072,483,1033,467,50483,0
Krys-19,true,1.00,3886,415,3883,393,207780,0
Krys-20,true,1.00,3003,548,2992,521,156402,0
Krys-21,true,1.00,2273,387,2264,366,136612,0
Krys-22,true,1.00,3897,431,3892,409,231390,0
Krys-23,true,1.00,1842,474,1830,452,75476,0
Krys-24,false,0.70,25938,999,25935,999,951218,0
Krys-25,true,1.00,2380,407,2370,379,118217,0
Krys-26,false,0.62,3550,333,3544,333,205614,0
Krys-27,true,1.00,2779,463,2762,450,138214,0
Krys-28,true,1.00,5003,582,4987,560,238096,0
Krys-29,true,1.00,2579,525,2567,513,114017,0
Krys-30,true,1.00,2835,614,2816,587,125154,0
Krys-31,true,1.00,1050,467,1022,447,52085,0
Krys-32,true,1.00,364,386,352,374,17059,0
Krys-33,true,1.00,422,381,414,359,22425,0
Krys-34,true,1.00,1834,405,1820,379,88879,0
Krys-35,true,1.00,2794,340,2785,327,159775,0
Krys-36,false,0.91,21301,999,21290,999,827614,0
Krys-37,true,1.00,6149,528,6136,515,321297,0
Krys-38,true,1.00,6548,509,6544,489,356935,0
Krys-39,true,1.00,6349,497,6337,481,337646,0
Krys-40,true,1.00,4699,493,4691,478,262072,0
Krys-41,false,0.70,25648,999,25640,999,979778,0
Krys-42,true,1.00,5479,541,5441,519,301328,0
Krys-43,true,1.00,2942,408,2930,395,170509,0
Krys-44,true,1.00,5339,517,5326,495,255621,0
Krys-45,true,1.00,1178,437,1164,416,40410,0
Krys-46,true,1.00,2550,519,2537,497,101011,0
Krys-47,true,1.00,1050,467,1036,451,43610,0
Krys-48,true,1.00,2514,382,2502,361,124086,0
Krys-49,true,1.00,1181,417,1176,386,50882,0
Krys-50,true,1.00,4809,488,4794,475,206174,0
Krys-51,true,1.00,3668,443,3656,421,195266,0
Krys-52,true,1.00,1560,527,1538,511,71694,0
Krys-53,true,1.00,1546,445,1537,424,68696,0
Krys-54,false,0.28,29490,999,29488,999,1080423,0
Krys-55,true,1.00,2979,467,2972,445,142358,0
Krys-56,false,0.59,26139,999,26125,999,912828,0
Krys-57,true,1.00,4234,422,4224,397,221266,0
Krys-58,true,1.00,2895,493,2885,481,138334,0
Krys-59,false,0.89,21424,999,21397,999,765850,0
Krys-60,true,1.00,3501,423,3494,403,181511,0
Krys-61,false,0.48,26515,999,26513,999,924056,0
Krys-62,true,1.00,1110,457,1095,435,44305,0
Krys-63,true,1.00,4999,584,4985,565,220495,0
Krys-64,true,1.00,2293,518,2276,496,112148,0
Krys-65,true,1.00,3366,470,3356,457,149682,0
Krys-66,true,1.00,1478,446,1466,424,63227,0
Krys-67,true,1.00,2758,557,2745,535,135408,0
Krys-68,true,1.00,6149,510,6142,494,318142,0
Krys-69,true,1.00,7736,698,7720,676,308096,0
Krys-70,false,0.80,24070,999,24062,999,902604,0
Krys-71,true,1.00,3559,382,3552,360,199059,0
Krys-72,true,1.00,1194,514,1180,493,60947,0
Krys-73,false,0.80,21728,999,21717,999,796999,0
Krys-74,true,1.00,2235,472,2223,441,106696,0
Krys-75,true,1.00,526,390,509,364,22020,0
Krys-76,true,1.00,4674,457,4669,444,257377,0
Krys-77,true,1.00,1772,361,1763,335,101979,0
Krys-78,false,0.91,21608,999,21594,999,912476,0
Krys-79,true,1.00,719,392,710,367,29561,0
Krys-80,true,1.00,481,444,470,428,22342,0
Krys-81,true,1.00,1173,402,1168,380,63615,0
Krys-82,true,1.00,994,384,988,362,44511,0
Krys-83,true,1.00,3880,475,3867,452,193847,0
Krys-84,true,1.00,339,386,331,355,17073,0
Krys-85,true,1.00,3068,482,3053,456,157156,0
Krys-86,true,1.00,2581,438,2573,418,116372,0
Krys-87,true,1.00,605,382,590,370,25274,0
Krys-88,true,1.00,2008,454,1993,433,96349,0
Krys-89,true,1.00,1727,410,1715,385,92213,0
Krys-90,true,1.00,5895,507,5887,481,305927,0
Krys-91,true,1.00,455,413,440,387,23337,0
Krys-92,false,0.62,2260,327,2248,327,113014,0
Krys-93,true,1.00,3301,418,3293,388,189655,0
Krys-94,true,1.00,1847,385,1836,369,108763,0
Krys-95,true,1.00,1039,446,1030,422,47304,0
Krys-96,true,1.00,3561,461,3551,445,192648,0
Krys-97,true,1.00,1603,406,1581,384,80112,0
Krys-98,true,1.00,3396,570,3376,549,152785,0
Krys-99,true,1.00,1244,458,1229,430,56081,0
Krys-100,true,1.00,4526,411,4516,395,261270,0
