NDW:0.0
TTFW:1.6
DFPT:2.0
DFPAP:3.0
DFPMP:1.0
RIGHT_WINDOW_BORDER_X:95.0
level,win/fail,% travelled,run time,game ticks,planning time,total plannings,nodes evaluated,most backtracked nodes
notchParamRand-1,false,0.28,28843,999,28842,999,1485872,0
notchParamRand-2,true,1.00,85,306,76,298,4258,0
notchParamRand-3,true,1.00,2499,408,2490,400,138142,0
notchParamRand-4,true,1.00,6358,535,6345,527,349694,0
notchParamRand-5,true,1.00,163,304,156,296,8458,0
notchParamRand-6,true,1.00,449,316,442,308,24266,0
notchParamRand-7,true,1.00,252,306,248,298,13365,0
notchParamRand-8,true,1.00,837,334,830,326,41608,0
notchParamRand-9,true,1.00,1449,380,1439,372,81926,0
notchParamRand-10,true,1.00,1367,367,1359,359,76644,0
notchParamRand-11,true,1.00,80,296,72,288,3871,0
notchParamRand-12,true,1.00,313,304,305,296,16806,0
notchParamRand-13,true,1.00,4248,438,4238,430,227256,0
notchParamRand-14,true,1.00,1853,381,1849,373,96498,0
notchParamRand-15,true,1.00,1598,362,1591,354,88003,0
notchParamRand-16,true,1.00,1279,342,1268,334,71381,0
notchParamRand-17,true,1.00,50,303,45,295,2287,0
notchParamRand-18,true,1.00,17713,929,17703,921,955824,0
notchParamRand-19,true,1.00,202,332,197,324,10745,0
notchParamRand-20,true,1.00,4712,540,4703,532,258466,0
notchParamRand-21,true,1.00,45,296,41,288,1973,0
notchParamRand-22,true,1.00,1296,362,1295,354,69831,0
notchParamRand-23,false,0.44,645,184,638,184,35384,0
notchParamRand-24,true,1.00,167,328,160,320,9404,0
notchParamRand-25,true,1.00,51,308,40,300,2586,0
notchParamRand-26,true,1.00,553,362,547,354,31204,0
notchParamRand-27,true,1.00,586,323,582,315,36847,0
notchParamRand-28,true,1.00,582,362,579,354,33761,0
notchParamRand-29,true,1.00,45,298,39,290,2281,0
notchParamRand-30,false,0.69,8877,509,8874,509,482087,0
notchParamRand-31,true,1.00,415,328,407,320,24012,0
notchParamRand-32,true,1.00,76,296,71,288,4086,0
notchParamRand-33,false,0.44,7131,378,7121,378,403465,0
notchParamRand-34,true,1.00,3583,422,3579,414,199514,0
notchParamRand-35,true,1.00,701,334,696,326,39395,0
notchParamRand-36,true,1.00,45,300,40,292,2173,0
notchParamRand-37,true,1.00,442,310,434,302,25327,0
notchParamRand-38,true,1.00,9067,611,9063,603,490496,0
notchParamRand-39,true,1.00,6261,535,6252,527,357445,0
notchParamRand-40,true,1.00,12354,702,12344,694,670075,0
notchParamRand-41,true,1.00,38,294,34,286,1620,0
notchParamRand-42,true,1.00,458,320,455,312,26576,0
notchParamRand-43,true,1.00,1095,338,1084,330,62225,0
notchParamRand-44,true,1.00,288,318,280,310,17067,0
notchParamRand-45,false,0.29,1278,132,1275,132,72784,0
notchParamRand-46,true,1.00,859,337,852,329,48557,0
notchParamRand-47,true,1.00,2247,375,2241,367,126639,0
notchParamRand-48,true,1.00,5085,498,5078,490,282677,0
notchParamRand-49,true,1.00,1595,350,1588,342,91809,0
notchParamRand-50,true,1.00,3282,433,3276,425,190919,0
notchParamRand-51,true,1.00,194,319,188,311,10842,0
notchParamRand-52,true,1.00,3053,426,3042,418,172812,0
notchParamRand-53,true,1.00,5039,468,5029,460,286033,0
notchParamRand-54,true,1.00,10712,681,10700,673,607754,0
notchParamRand-55,false,0.56,8946,508,8940,508,481792,0
notchParamRand-56,true,1.00,3374,432,3366,424,178460,0
notchParamRand-57,true,1.00,3884,441,3873,433,215346,0
notchParamRand-58,true,1.00,1768,372,1758,364,103008,0
notchParamRand-59,true,1.00,470,317,464,309,26460,0
notchParamRand-60,true,1.00,1772,361,1765,353,100529,0
notchParamRand-61,true,1.00,539,320,536,312,30515,0
notchParamRand-62,true,1.00,480,330,469,322,26793,0
notchParamRand-63,true,1.00,3425,443,3417,435,187172,0
notchParamRand-64,true,1.00,417,310,408,302,23511,0
notchParamRand-65,false,0.17,15856,999,15837,999,901074,0
notchParamRand-66,true,1.00,270,335,263,327,13566,0
notchParamRand-67,true,1.00,318,312,313,304,16134,0
notchParamRand-68,true,1.00,7519,569,7514,561,422510,0
notchParamRand-69,true,1.00,315,311,312,303,17725,0
notchParamRand-70,true,1.00,700,336,692,328,40376,0
notchParamRand-71,true,1.00,724,350,717,342,40600,0
notchParamRand-72,true,1.00,106,296,98,288,5703,0
notchParamRand-73,true,1.00,997,332,992,324,54729,0
notchParamRand-74,true,1.00,42,296,32,288,1932,0
notchParamRand-75,true,1.00,55,298,48,290,2034,0
notchParamRand-76,true,1.00,2661,404,2649,396,145467,0
notchParamRand-77,false,0.68,7722,477,7712,477,408723,0
notchParamRand-78,true,1.00,2372,378,2365,370,124526,0
notchParamRand-79,true,1.00,243,300,231,292,13173,0
notchParamRand-80,true,1.00,311,304,302,296,14854,0
notchParamRand-81,true,1.00,314,314,308,306,18431,0
notchParamRand-82,true,1.00,902,322,894,314,50377,0
notchParamRand-83,true,1.00,1992,376,1984,368,110194,0
notchParamRand-84,true,1.00,342,312,330,304,19501,0
notchParamRand-85,true,1.00,45,294,33,286,1543,0
notchParamRand-86,true,1.00,560,338,552,330,31228,0
notchParamRand-87,true,1.00,9923,613,9915,605,559698,0
notchParamRand-88,true,1.00,696,318,684,310,35234,0
notchParamRand-89,true,1.00,2675,378,2671,370,138015,0
notchParamRand-90,true,1.00,3780,426,3769,418,201078,0
notchParamRand-91,true,1.00,41,296,35,287,1853,0
notchParamRand-92,true,1.00,2475,398,2470,390,139793,0
notchParamRand-93,true,1.00,302,313,295,305,15813,0
notchParamRand-94,true,1.00,6043,558,6033,550,339836,0
notchParamRand-95,true,1.00,844,332,836,324,46948,0
notchParamRand-96,true,1.00,2177,393,2169,385,125777,0
notchParamRand-97,true,1.00,3243,423,3234,415,183187,0
notchParamRand-98,true,1.00,804,318,797,310,51477,0
notchParamRand-99,true,1.00,286,310,278,302,15761,0
notchParamRand-100,true,1.00,8228,563,8222,555,448326,0
