NDW:0.0
TTFW:0.6
DFPT:2.0
DFPAP:3.0
DFPMP:50.0
RIGHT_WINDOW_BORDER_X:235.0
level,win/fail,% travelled,run time,game ticks,planning time,total plannings,nodes evaluated,most backtracked nodes
notchParamRand-1,true,1.00,1134,312,1133,291,62593,0
notchParamRand-2,true,1.00,365,304,361,283,22059,0
notchParamRand-3,true,1.00,1176,316,1169,295,67423,0
notchParamRand-4,true,1.00,1461,316,1456,295,84864,0
notchParamRand-5,true,1.00,399,306,390,285,23526,0
notchParamRand-6,true,1.00,546,304,537,283,31255,0
notchParamRand-7,true,1.00,472,296,462,275,28700,0
notchParamRand-8,true,1.00,776,302,766,281,44585,0
notchParamRand-9,true,1.00,742,312,735,291,43177,0
notchParamRand-10,true,1.00,1112,318,1104,297,61874,0
notchParamRand-11,true,1.00,344,294,338,273,20121,0
notchParamRand-12,true,1.00,505,302,496,281,29352,0
notchParamRand-13,true,1.00,1846,318,1838,297,103872,0
notchParamRand-14,true,1.00,1189,310,1181,289,66881,0
notchParamRand-15,true,1.00,704,308,696,287,40302,0
notchParamRand-16,true,1.00,616,300,601,279,37240,0
notchParamRand-17,true,1.00,313,294,307,273,18927,0
notchParamRand-18,true,1.00,1874,314,1870,293,106500,0
notchParamRand-19,true,1.00,413,324,408,303,24071,0
notchParamRand-20,true,1.00,1578,323,1571,302,87628,0
notchParamRand-21,true,1.00,341,296,333,275,20159,0
notchParamRand-22,true,1.00,982,312,978,291,56035,0
notchParamRand-23,true,1.00,1306,326,1299,305,74727,0
notchParamRand-24,true,1.00,471,310,459,289,27481,0
notchParamRand-25,true,1.00,278,311,271,285,17019,0
notchParamRand-26,true,1.00,678,351,670,330,35255,0
notchParamRand-27,true,1.00,466,294,458,273,28393,0
notchParamRand-28,true,1.00,581,310,571,289,32507,0
notchParamRand-29,true,1.00,354,298,349,277,22191,0
notchParamRand-30,true,1.00,1948,310,1944,289,109895,0
notchParamRand-31,true,1.00,431,322,427,301,23512,0
notchParamRand-32,true,1.00,398,294,391,273,24828,0
notchParamRand-33,true,1.00,1818,312,1808,291,103786,0
notchParamRand-34,true,1.00,1110,316,1108,295,63349,0
notchParamRand-35,true,1.00,747,308,741,287,43038,0
notchParamRand-36,true,1.00,277,300,272,277,16585,0
notchParamRand-37,true,1.00,581,302,575,281,34228,0
notchParamRand-38,true,1.00,1834,306,1828,285,104967,0
notchParamRand-39,true,1.00,1688,338,1685,317,95873,0
notchParamRand-40,true,1.00,2537,327,2531,306,144014,0
notchParamRand-41,true,1.00,359,294,349,273,22700,0
notchParamRand-42,true,1.00,493,316,484,295,27714,0
notchParamRand-43,true,1.00,467,300,460,279,28502,0
notchParamRand-44,true,1.00,492,302,483,281,28557,0
notchParamRand-45,true,1.00,1103,320,1098,299,61707,0
notchParamRand-46,true,1.00,682,300,676,279,40016,0
notchParamRand-47,true,1.00,899,314,888,293,49465,0
notchParamRand-48,true,1.00,1536,314,1530,293,86207,0
notchParamRand-49,true,1.00,898,308,887,287,50547,0
notchParamRand-50,true,1.00,1455,320,1448,299,82003,0
notchParamRand-51,true,1.00,391,300,384,279,22790,0
notchParamRand-52,true,1.00,933,304,928,283,52580,0
notchParamRand-53,true,1.00,1006,320,998,299,55883,0
notchParamRand-54,true,1.00,2606,338,2599,317,148099,0
notchParamRand-55,true,1.00,2036,322,2028,301,110887,0
notchParamRand-56,true,1.00,820,302,809,281,47830,0
notchParamRand-57,true,1.00,1204,318,1201,297,69161,0
notchParamRand-58,true,1.00,897,312,894,291,50482,0
notchParamRand-59,true,1.00,574,304,569,283,33219,0
notchParamRand-60,true,1.00,766,312,757,291,43213,0
notchParamRand-61,true,1.00,649,302,642,281,36517,0
notchParamRand-62,true,1.00,555,318,547,297,30029,0
notchParamRand-63,true,1.00,1485,312,1479,291,83771,0
notchParamRand-64,true,1.00,516,298,508,277,30561,0
notchParamRand-65,true,1.00,2119,340,2112,314,116606,0
notchParamRand-66,true,1.00,717,322,705,301,39317,0
notchParamRand-67,true,1.00,503,300,496,279,29246,0
notchParamRand-68,true,1.00,1483,324,1472,303,83763,0
notchParamRand-69,true,1.00,461,300,452,279,28056,0
notchParamRand-70,true,1.00,724,318,715,297,42199,0
notchParamRand-71,true,1.00,572,314,566,293,31999,0
notchParamRand-72,true,1.00,340,294,333,273,19897,0
notchParamRand-73,true,1.00,691,304,684,283,38941,0
notchParamRand-74,true,1.00,364,294,354,273,23403,0
notchParamRand-75,true,1.00,356,294,351,273,22163,0
notchParamRand-76,true,1.00,1248,314,1237,293,69575,0
notchParamRand-77,true,1.00,2024,343,2017,317,111449,0
notchParamRand-78,true,1.00,1395,304,1383,283,42443,0
notchParamRand-79,true,1.00,492,298,482,277,21488,0
notchParamRand-80,true,1.00,541,310,534,289,29085,0
notchParamRand-81,true,1.00,508,298,501,277,28427,0
notchParamRand-82,true,1.00,884,312,881,291,48043,0
notchParamRand-83,true,1.00,1374,310,1370,289,72693,0
notchParamRand-84,true,1.00,533,304,528,283,29383,0
notchParamRand-85,true,1.00,379,294,374,273,22862,0
notchParamRand-86,true,1.00,802,333,790,312,38237,0
notchParamRand-87,true,1.00,1821,308,1810,287,68712,0
notchParamRand-88,true,1.00,510,316,500,290,27336,0
notchParamRand-89,true,1.00,553,302,543,281,31015,0
notchParamRand-90,true,1.00,845,322,844,296,46854,0
notchParamRand-91,true,1.00,330,294,324,273,19054,0
notchParamRand-92,true,1.00,965,312,962,291,53053,0
notchParamRand-93,true,1.00,471,309,460,283,26030,0
notchParamRand-94,true,1.00,1801,320,1795,299,95980,0
notchParamRand-95,true,1.00,1162,312,1149,291,36175,0
notchParamRand-96,true,1.00,840,308,825,287,26824,0
notchParamRand-97,true,1.00,1598,328,1590,307,83406,0
notchParamRand-98,true,1.00,469,298,462,277,27860,0
notchParamRand-99,true,1.00,389,308,380,287,22543,0
notchParamRand-100,true,1.00,1583,318,1579,297,89889,0
