NDW:0.0
TTFW:1.2
DFPT:2.0
DFPAP:3.0
DFPMP:3.0
RIGHT_WINDOW_BORDER_X:275.0
level,win/fail,% travelled,run time,game ticks,planning time,total plannings,nodes evaluated,most backtracked nodes
ge-1,true,1.00,500,242,497,202,52118,0
ge-2,true,1.00,536,227,536,202,61935,0
ge-3,true,1.00,195,216,192,191,20148,0
ge-4,true,1.00,920,244,919,214,103750,0
ge-5,true,1.00,68,199,67,174,8675,0
ge-6,true,1.00,392,237,389,212,39583,0
ge-7,true,1.00,147,224,147,197,15190,0
ge-8,true,1.00,216,219,215,194,22799,0
ge-9,true,1.00,436,220,435,194,51752,0
ge-10,true,1.00,64,199,63,174,7931,0
ge-11,true,1.00,184,220,183,195,20781,0
ge-12,true,1.00,71,199,71,174,9480,0
ge-13,true,1.00,325,233,323,205,33125,0
ge-14,true,1.00,180,227,178,188,18902,0
ge-15,true,1.00,606,216,606,191,62703,0
ge-16,true,1.00,169,261,167,236,14308,0
ge-17,true,1.00,269,215,268,182,30227,0
ge-18,true,1.00,235,276,234,245,21416,0
ge-19,true,1.00,587,261,585,236,66926,0
ge-20,true,1.00,409,222,409,197,42794,0
ge-21,true,1.00,228,201,227,176,24709,0
ge-22,true,1.00,299,208,298,177,32736,0
ge-23,true,1.00,550,205,550,180,60076,0
ge-24,true,1.00,372,240,371,204,36726,0
ge-25,true,1.00,335,201,334,176,37686,0
ge-26,true,1.00,230,205,228,180,26790,0
ge-27,true,1.00,74,222,74,197,8279,0
ge-28,true,1.00,499,205,498,180,53672,0
ge-29,true,1.00,233,221,233,174,25802,0
ge-30,true,1.00,543,245,542,201,57697,0
ge-31,true,1.00,619,251,617,224,66040,0
ge-32,true,1.00,168,220,167,195,16621,0
ge-33,true,1.00,145,223,143,186,15265,0
ge-34,true,1.00,496,212,496,181,56390,0
ge-35,true,1.00,314,242,313,217,32163,0
ge-36,false,1.00,618,251,616,219,64624,0
ge-37,true,1.00,258,199,257,174,31334,0
ge-38,true,1.00,534,246,533,221,62768,0
ge-39,true,1.00,315,217,313,191,35280,0
ge-40,true,1.00,69,199,66,174,9646,0
ge-41,true,1.00,230,210,229,180,27268,0
ge-42,true,1.00,646,271,644,246,65160,0
ge-43,true,1.00,292,236,291,192,30737,0
ge-44,true,1.00,465,209,464,184,52527,0
ge-45,true,1.00,453,216,449,191,45423,0
ge-46,true,1.00,840,250,835,225,89633,0
ge-47,true,1.00,726,232,725,207,79224,0
ge-48,true,1.00,314,217,313,192,32595,0
ge-49,true,1.00,165,199,165,174,20630,0
ge-50,true,1.00,494,212,492,187,53344,0
ge-51,true,1.00,150,222,148,196,15511,0
ge-52,true,1.00,430,246,428,220,43004,0
ge-53,true,1.00,251,227,247,202,28396,0
ge-54,true,1.00,292,233,288,206,35235,0
ge-55,true,1.00,302,216,298,191,31825,0
ge-56,true,1.00,367,244,367,205,39317,0
ge-57,true,1.00,472,223,471,187,52066,0
ge-58,true,1.00,161,228,159,203,15277,0
ge-59,true,1.00,796,217,796,192,91855,0
ge-60,true,1.00,527,201,526,176,58003,0
ge-61,true,1.00,264,203,262,178,32375,0
ge-62,true,1.00,510,209,509,184,58444,0
ge-63,true,1.00,742,219,742,194,88223,0
ge-64,false,1.00,253,244,253,206,27416,0
ge-65,true,1.00,591,230,589,205,65802,0
ge-66,true,1.00,517,226,516,190,57283,0
ge-67,true,1.00,231,238,229,213,22197,0
ge-68,true,1.00,169,233,166,208,15661,0
ge-69,true,1.00,166,199,166,174,18966,0
ge-70,true,1.00,304,204,302,179,33295,0
ge-71,true,1.00,702,237,701,212,83945,0
ge-72,true,1.00,180,256,176,226,16797,0
ge-73,true,1.00,399,211,399,186,49124,0
ge-74,true,1.00,718,227,717,202,73513,0
ge-75,true,1.00,242,246,241,201,27337,0
ge-76,true,1.00,598,217,597,192,68000,0
ge-77,true,1.00,674,228,673,203,73573,0
ge-78,true,1.00,604,240,604,204,64416,0
ge-79,true,1.00,176,216,175,191,19806,0
ge-80,true,1.00,108,212,107,175,11489,0
ge-81,true,1.00,98,213,98,188,10123,0
ge-82,true,1.00,107,238,106,189,10282,0
ge-83,false,1.00,167,244,165,194,16613,0
ge-84,true,1.00,564,209,564,184,63063,0
ge-85,true,1.00,276,209,274,184,32436,0
ge-86,true,1.00,658,212,658,176,73355,0
ge-87,true,1.00,521,227,520,202,57970,0
ge-88,true,1.00,489,242,486,213,57560,0
ge-89,true,1.00,185,244,184,218,16611,0
ge-90,true,1.00,66,199,65,174,8829,0
ge-91,true,1.00,265,199,264,174,30040,0
ge-92,true,1.00,63,205,59,180,7490,0
ge-93,true,1.00,566,215,565,190,64588,0
ge-94,true,1.00,399,208,395,181,45224,0
ge-95,true,1.00,118,236,116,209,9562,0
ge-96,true,1.00,589,236,587,204,62602,0
ge-97,true,1.00,401,213,400,188,46072,0
ge-98,true,1.00,66,199,65,174,8993,0
ge-99,true,1.00,168,199,167,174,18985,0
ge-100,true,1.00,73,205,69,180,9640,0
