NDW:0.0
TTFW:0.8
DFPT:2.0
DFPAP:3.0
DFPMP:3.0
RIGHT_WINDOW_BORDER_X:95.0
level,win/fail,% travelled,run time,game ticks,planning time,total plannings,nodes evaluated,most backtracked nodes
Krys-1,false,0.38,28480,999,28474,999,1020932,0
Krys-2,false,0.79,20862,999,20830,999,787892,0
Krys-3,false,0.11,1490,107,1489,107,80203,0
Krys-4,true,1.00,3081,551,3066,538,144052,0
Krys-5,false,0.63,3228,313,3226,313,173491,0
Krys-6,true,1.00,2708,549,2693,539,143094,0
Krys-7,true,1.00,359,336,349,326,19804,0
Krys-8,true,1.00,2717,533,2704,524,141046,0
Krys-9,false,0.32,1187,156,1184,156,65234,0
Krys-10,true,1.00,1924,430,1909,420,106754,0
Krys-11,true,1.00,207,371,196,361,10847,0
Krys-12,true,1.00,7509,670,7491,660,383566,0
Krys-13,false,0.72,5358,408,5349,408,277062,0
Krys-14,false,0.79,22292,999,22272,999,824438,0
Krys-15,false,0.53,1447,255,1446,255,79514,0
Krys-16,false,0.69,22497,999,22466,999,841618,0
Krys-17,true,1.00,2558,494,2530,479,124890,0
Krys-18,true,1.00,1544,528,1532,518,77956,0
Krys-19,false,0.63,8498,492,8495,492,439166,0
Krys-20,false,0.75,6094,588,6081,588,326454,0
Krys-21,false,0.33,2042,185,2039,185,116685,0
Krys-22,false,0.83,6311,495,6299,495,356784,0
Krys-23,true,1.00,2043,476,2031,460,107375,0
Krys-24,false,0.83,4716,513,4705,513,242736,0
Krys-25,true,1.00,2909,456,2901,446,145499,0
Krys-26,false,0.32,1551,160,1547,160,89024,0
Krys-27,false,0.51,260,204,251,204,12610,0
Krys-28,false,0.81,6146,610,6135,610,308839,0
Krys-29,true,1.00,1919,500,1909,491,89348,0
Krys-30,true,1.00,2109,503,2095,493,94671,0
Krys-31,true,1.00,1315,445,1306,435,67486,0
Krys-32,true,1.00,434,394,425,385,21963,0
Krys-33,true,1.00,596,351,583,341,32867,0
Krys-34,true,1.00,3936,587,3919,571,198537,0
Krys-35,false,0.55,1707,260,1701,260,95246,0
Krys-36,false,0.41,4167,345,4163,345,227533,0
Krys-37,false,0.32,3096,232,3093,232,151102,0
Krys-38,false,0.72,10346,609,10340,609,579902,0
Krys-39,false,0.20,2200,132,2199,132,118010,0
Krys-40,false,0.62,4036,343,4026,343,222381,0
Krys-41,false,0.53,3983,301,3976,301,224996,0
Krys-42,false,0.62,5055,411,5048,411,281973,0
Krys-43,false,0.53,1999,245,1995,245,111035,0
Krys-44,true,1.00,10794,750,10789,740,539761,0
Krys-45,true,1.00,1006,454,990,437,45122,0
Krys-46,true,1.00,1991,507,1981,497,91522,0
Krys-47,true,1.00,2236,517,2221,507,117290,0
Krys-48,false,0.53,8781,457,8777,457,446716,0
Krys-49,true,1.00,986,444,969,428,48077,0
Krys-50,false,0.32,1977,999,1951,999,103121,0
Krys-51,true,1.00,8724,656,8710,646,486850,0
Krys-52,true,1.00,1973,527,1960,517,90973,0
Krys-53,true,1.00,1256,455,1246,445,59491,0
Krys-54,true,1.00,4681,618,4671,608,248482,0
Krys-55,true,1.00,3310,527,3297,516,157999,0
Krys-56,true,1.00,1305,412,1292,402,61905,0
Krys-57,true,1.00,4941,468,4935,458,249267,0
Krys-58,true,1.00,1878,484,1864,473,83618,0
Krys-59,false,0.30,402,130,401,130,15140,0
Krys-60,false,0.53,2266,268,2259,268,105461,0
Krys-61,true,1.00,1674,437,1666,428,73122,0
Krys-62,true,1.00,973,427,961,418,41764,0
Krys-63,true,1.00,2688,585,2669,575,119645,0
Krys-64,true,1.00,3614,580,3601,570,172133,0
Krys-65,true,1.00,1943,521,1935,511,88399,0
Krys-66,true,1.00,3238,596,3217,585,141321,0
Krys-67,true,1.00,1112,525,1100,507,55855,0
Krys-68,false,0.83,6606,438,6595,438,340697,0
Krys-69,false,0.48,25441,999,25436,999,885968,0
Krys-70,true,1.00,5046,572,5025,556,248909,0
Krys-71,false,0.34,703,151,697,151,36735,0
Krys-72,true,1.00,1847,542,1835,532,91304,0
Krys-73,false,0.80,23114,999,23104,999,912619,0
Krys-74,true,1.00,4642,518,4634,502,218142,0
Krys-75,true,1.00,623,384,614,374,28273,0
Krys-76,false,0.33,2047,185,2044,185,113810,0
Krys-77,true,1.00,2288,414,2269,404,121213,0
Krys-78,false,0.20,4401,205,4398,205,237731,0
Krys-79,true,1.00,655,408,642,390,29730,0
Krys-80,true,1.00,348,421,336,406,17318,0
Krys-81,true,1.00,1275,389,1265,379,65012,0
Krys-82,true,1.00,769,389,757,379,35357,0
Krys-83,false,0.91,21406,999,21396,999,873274,0
Krys-84,true,1.00,324,368,317,352,16639,0
Krys-85,true,1.00,3531,546,3511,536,163374,0
Krys-86,true,1.00,1885,458,1866,449,85927,0
Krys-87,true,1.00,805,417,789,404,34540,0
Krys-88,true,1.00,2615,518,2592,508,125067,0
Krys-89,false,0.32,1985,999,1960,999,106407,0
Krys-90,false,0.32,1556,160,1554,160,86639,0
Krys-91,true,1.00,359,347,349,333,18332,0
Krys-92,false,0.41,1391,319,1380,319,65955,0
Krys-93,true,1.00,4009,489,4002,469,219861,0
Krys-94,false,0.42,3405,261,3403,261,186350,0
Krys-95,false,0.28,29458,999,29456,999,1113635,0
Krys-96,false,0.53,1977,999,1965,999,106491,0
Krys-97,true,1.00,2474,451,2463,435,131589,0
Krys-98,true,1.00,3252,590,3240,581,147768,0
Krys-99,true,1.00,966,420,959,409,44441,0
Krys-100,true,1.00,9311,595,9307,585,510232,0
