NDW:0.0
TTFW:0.2
DFPT:2.0
DFPAP:3.0
DFPMP:0.0
RIGHT_WINDOW_BORDER_X:215.0
level,win/fail,% travelled,run time,game ticks,planning time,total plannings,nodes evaluated,most backtracked nodes
Mario-1,true,1.00,1465,328,1411,296,100673,0
Mario-2,true,1.00,2940,280,2866,260,130348,0
Mario-3,true,1.00,2440,268,2432,233,188427,0
Mario-4,true,1.00,2951,375,2928,350,241288,0
Mario-5,true,1.00,4039,403,4027,381,309068,0
Mario-6,true,1.00,2209,263,2167,243,193988,0
Mario-7,true,1.00,3171,416,3125,372,269184,0
Mario-8,true,1.00,3799,419,3785,386,314935,0
Mario-9,true,1.00,2728,370,2624,344,156469,0
Mario-10,false,0.26,467,78,463,78,33682,0
Mario-11,true,1.00,4192,376,4167,355,241377,0
Mario-12,true,1.00,7832,538,7818,504,454434,0
Mario-13,true,1.00,1875,261,1872,241,128730,0
Mario-14,true,1.00,2384,324,2368,301,137332,0
Mario-15,true,1.00,9676,771,9584,747,546904,0
