NDW:0.0
TTFW:1.2
DFPT:2.0
DFPAP:3.0
DFPMP:20.0
RIGHT_WINDOW_BORDER_X:75.0
level,win/fail,% travelled,run time,game ticks,planning time,total plannings,nodes evaluated,most backtracked nodes
notch-1,true,1.00,1821,389,1818,382,179075,0
notch-2,true,1.00,2192,420,2191,413,243543,0
notch-3,true,1.00,1035,361,1032,354,103765,0
notch-4,false,0.29,802,121,802,121,75291,0
notch-5,true,1.00,1167,329,1165,322,119070,0
notch-6,false,0.10,35,37,35,37,3465,0
notch-7,true,1.00,1160,396,1157,388,124371,0
notch-8,true,1.00,2176,410,2174,404,229750,0
notch-9,true,1.00,2978,473,2973,466,296818,0
notch-10,true,1.00,3028,415,3028,408,303100,0
notch-11,true,1.00,2138,396,2136,389,208852,0
notch-12,true,1.00,1235,342,1232,335,123629,0
notch-13,true,1.00,2040,409,2035,401,204468,0
notch-14,true,1.00,1930,341,1927,334,183349,0
notch-15,true,1.00,1896,355,1893,348,194478,0
notch-16,true,1.00,2478,372,2477,365,245994,0
notch-17,false,0.34,4156,236,4155,236,427686,0
notch-18,true,1.00,2633,464,2631,457,294222,0
notch-19,true,1.00,3672,496,3671,489,375436,0
notch-20,true,1.00,3466,444,3466,436,349611,0
notch-21,true,1.00,3339,486,3339,479,344411,0
notch-22,true,1.00,2818,438,2814,431,269141,0
notch-23,true,1.00,2039,396,2035,387,206294,0
notch-24,true,1.00,1378,371,1376,364,139957,0
notch-25,true,1.00,2505,383,2502,375,250917,0
notch-26,true,1.00,2567,377,2565,370,259118,0
notch-27,true,1.00,4370,459,4369,452,476231,0
notch-28,true,1.00,2099,376,2097,369,209772,0
notch-29,false,0.37,601,185,601,185,65162,0
notch-30,true,1.00,2649,419,2648,412,256091,0
notch-31,true,1.00,2509,394,2505,387,258632,0
notch-32,true,1.00,1913,391,1911,384,192627,0
notch-33,true,1.00,1098,347,1095,340,112184,0
notch-34,true,1.00,1254,376,1252,369,128316,0
notch-35,true,1.00,1318,355,1316,348,136971,0
notch-36,true,1.00,1765,388,1765,381,175451,0
notch-37,true,1.00,3090,478,3086,471,318811,0
notch-38,true,1.00,2857,451,2855,444,269019,0
notch-39,true,1.00,1751,385,1749,378,171003,0
notch-40,true,1.00,3308,451,3306,444,339565,0
notch-41,true,1.00,2310,389,2307,380,235114,0
notch-42,true,1.00,3716,477,3712,469,376326,0
notch-43,true,1.00,1889,432,1886,425,197540,0
notch-44,true,1.00,1611,353,1609,346,162935,0
notch-45,true,1.00,1380,354,1377,347,138640,0
notch-46,true,1.00,2041,457,2036,450,218708,0
notch-47,true,1.00,3886,477,3884,469,379153,0
notch-48,true,1.00,3460,437,3459,430,355862,0
notch-49,true,1.00,1460,380,1459,373,150381,0
notch-50,true,1.00,2177,384,2174,377,226086,0
notch-51,true,1.00,2087,402,2085,394,205896,0
notch-52,true,1.00,1885,434,1881,427,190099,0
notch-53,true,1.00,457,372,454,365,45214,0
notch-54,true,1.00,2472,463,2470,456,252621,0
notch-55,true,1.00,2557,467,2557,460,255834,0
notch-56,true,1.00,2021,345,2019,338,193668,0
notch-57,true,1.00,1577,352,1576,343,155462,0
notch-58,true,1.00,3090,451,3088,444,331323,0
notch-59,true,1.00,1778,375,1777,368,168726,0
notch-60,true,1.00,1625,374,1624,367,160892,0
notch-61,true,1.00,2764,392,2762,385,284968,0
notch-62,true,1.00,2136,400,2132,393,218719,0
notch-63,true,1.00,2138,433,2138,426,230023,0
notch-64,true,1.00,2413,381,2410,374,236822,0
notch-65,true,1.00,4145,461,4141,454,442261,0
notch-66,true,1.00,2797,490,2795,483,291676,0
notch-67,true,1.00,2101,349,2098,342,195132,0
notch-68,true,1.00,1196,359,1194,351,117723,0
notch-69,true,1.00,2780,478,2777,471,288279,0
notch-70,true,1.00,2657,467,2656,460,274459,0
notch-71,true,1.00,1582,331,1581,324,156154,0
notch-72,true,1.00,2779,443,2774,436,285351,0
notch-73,true,1.00,1587,371,1586,364,165236,0
notch-74,true,1.00,1762,383,1760,376,188040,0
notch-75,true,1.00,1920,404,1919,397,195244,0
notch-76,true,1.00,1897,434,1894,427,182790,0
notch-77,true,1.00,1224,360,1223,353,127505,0
notch-78,true,1.00,1963,361,1960,354,197696,0
notch-79,false,0.10,35,36,34,36,3514,0
notch-80,true,1.00,1204,340,1203,333,117720,0
notch-81,true,1.00,2367,423,2365,416,235070,0
notch-82,true,1.00,1219,362,1219,355,121698,0
notch-83,true,1.00,2373,442,2373,433,245802,0
notch-84,true,1.00,2049,376,2049,368,198661,0
notch-85,true,1.00,1403,378,1401,371,147616,0
notch-86,true,1.00,2702,385,2701,378,285010,0
notch-87,true,1.00,4240,496,4239,489,416751,0
notch-88,true,1.00,2403,458,2401,451,249605,0
notch-89,true,1.00,3506,482,3502,475,373719,0
notch-90,true,1.00,4044,516,4043,509,409151,0
notch-91,true,1.00,2645,402,2642,394,269887,0
notch-92,true,1.00,2292,433,2289,426,234707,0
notch-93,true,1.00,1799,436,1795,429,183072,0
notch-94,true,1.00,3994,432,3991,424,407542,0
notch-95,true,1.00,980,314,980,307,98581,0
notch-96,true,1.00,2168,379,2168,371,225908,0
notch-97,true,1.00,2191,387,2191,380,225748,0
notch-98,true,1.00,3235,443,3232,436,339824,0
notch-99,true,1.00,2516,429,2516,420,265526,0
notch-100,true,1.00,1431,368,1428,361,144703,0
