NDW:0.0
TTFW:1.4
DFPT:2.0
DFPAP:3.0
DFPMP:2.0
RIGHT_WINDOW_BORDER_X:350.0
level,win/fail,% travelled,run time,game ticks,planning time,total plannings,nodes evaluated,most backtracked nodes
Mario-1,true,1.00,573,386,560,331,26220,0
Mario-2,true,1.00,1100,343,1093,303,56598,0
Mario-3,true,1.00,1587,282,1582,212,87255,0
Mario-4,true,1.00,3898,477,3878,431,114322,0
Mario-5,true,1.00,1247,438,1229,383,52045,0
Mario-6,true,1.00,2379,274,2375,239,118271,0
Mario-7,true,1.00,911,430,906,358,42309,0
Mario-8,true,1.00,1444,448,1428,380,70522,0
Mario-9,true,1.00,650,407,640,350,32082,0
Mario-10,true,1.00,2214,339,2209,269,121523,0
Mario-11,true,1.00,1180,432,1168,359,57578,0
Mario-12,true,1.00,2015,636,1988,579,84150,0
Mario-13,true,1.00,3086,368,3076,316,165376,0
Mario-14,true,1.00,371,388,359,330,15682,0
Mario-15,true,1.00,2598,843,2576,788,128919,0
