NDW:0.0
TTFW:1.2
DFPT:2.0
DFPAP:3.0
DFPMP:7.0
RIGHT_WINDOW_BORDER_X:135.0
level,win/fail,% travelled,run time,game ticks,planning time,total plannings,nodes evaluated,most backtracked nodes
notchParam-1,false,0.36,1791,203,1790,203,160373,0
notchParam-2,true,1.00,1748,382,1747,370,175597,0
notchParam-3,true,1.00,654,345,653,333,74864,0
notchParam-4,true,1.00,558,330,553,318,60047,0
notchParam-5,true,1.00,615,331,611,319,63887,0
notchParam-6,true,1.00,669,326,668,314,71054,0
notchParam-7,true,1.00,2673,406,2673,394,277078,0
notchParam-8,true,1.00,1506,356,1503,344,158972,0
notchParam-9,true,1.00,583,332,581,320,63809,0
notchParam-10,true,1.00,2219,379,2217,367,230988,0
notchParam-11,true,1.00,575,314,569,302,60047,0
notchParam-12,true,1.00,1518,361,1514,349,163530,0
notchParam-13,true,1.00,241,320,238,308,26702,0
notchParam-14,true,1.00,240,302,239,290,26057,0
notchParam-15,true,1.00,2207,391,2207,379,198363,0
notchParam-16,false,0.69,3791,316,3789,316,402537,0
notchParam-17,false,0.36,1083,144,1083,144,103403,0
notchParam-18,true,1.00,184,328,184,316,22338,0
notchParam-19,true,1.00,237,323,234,311,26643,0
notchParam-20,true,1.00,239,306,237,294,25988,0
notchParam-21,true,1.00,268,310,267,298,27544,0
notchParam-22,true,1.00,473,322,472,310,55351,0
notchParam-23,true,1.00,1337,362,1337,350,142663,0
notchParam-24,true,1.00,1739,355,1735,343,178641,0
notchParam-25,true,1.00,1516,354,1514,342,152281,0
notchParam-26,true,1.00,1413,358,1411,346,147358,0
notchParam-27,true,1.00,239,308,236,296,27123,0
notchParam-28,true,1.00,615,350,615,338,68472,0
notchParam-29,true,1.00,579,329,578,317,63025,0
notchParam-30,true,1.00,272,308,271,296,29458,0
notchParam-31,true,1.00,4370,429,4369,417,433400,0
notchParam-32,false,0.36,1082,144,1082,144,103601,0
notchParam-33,true,1.00,238,302,237,290,26624,0
notchParam-34,true,1.00,2687,382,2685,370,258387,0
notchParam-35,true,1.00,4342,436,4341,424,434923,0
notchParam-36,false,0.67,3353,305,3352,305,325524,0
notchParam-37,true,1.00,271,306,271,294,28554,0
notchParam-38,true,1.00,212,311,210,299,25720,0
notchParam-39,false,0.36,2120,186,2120,186,208135,0
notchParam-40,true,1.00,573,314,572,302,60616,0
notchParam-41,true,1.00,578,341,575,329,64192,0
notchParam-42,true,1.00,250,331,246,315,30005,0
notchParam-43,true,1.00,1187,341,1184,329,122608,0
notchParam-44,true,1.00,2364,366,2362,354,242866,0
notchParam-45,true,1.00,1182,338,1181,325,121956,0
notchParam-46,true,1.00,1207,318,1205,306,122502,0
notchParam-47,true,1.00,281,320,280,308,34783,0
notchParam-48,true,1.00,219,341,217,329,27590,0
notchParam-49,true,1.00,307,332,305,315,34558,0
notchParam-50,true,1.00,251,323,249,311,27719,0
notchParam-51,true,1.00,208,311,206,299,24242,0
notchParam-52,true,1.00,2416,391,2415,379,225205,0
notchParam-53,true,1.00,3708,434,3707,422,399456,0
notchParam-54,true,1.00,3450,418,3447,406,339970,0
notchParam-55,true,1.00,226,336,225,324,27402,0
notchParam-56,true,1.00,239,315,238,303,27107,0
notchParam-57,true,1.00,3025,411,3023,399,316281,0
notchParam-58,true,1.00,679,346,678,334,72017,0
notchParam-59,true,1.00,1439,360,1436,348,147799,0
notchParam-60,true,1.00,665,356,662,344,71491,0
notchParam-61,true,1.00,1337,384,1333,372,145209,0
notchParam-62,true,1.00,2794,399,2794,387,250912,0
notchParam-63,true,1.00,608,324,607,312,63293,0
notchParam-64,true,1.00,610,338,608,326,65284,0
notchParam-65,true,1.00,580,336,578,324,63707,0
notchParam-66,true,1.00,648,334,645,322,70222,0
notchParam-67,true,1.00,2255,386,2254,374,216566,0
notchParam-68,true,1.00,2545,401,2544,389,236221,0
notchParam-69,true,1.00,3716,421,3714,409,331796,0
notchParam-70,true,1.00,3403,432,3400,420,328259,0
notchParam-71,true,1.00,627,357,625,345,71883,0
notchParam-72,true,1.00,585,330,584,318,67117,0
notchParam-73,true,1.00,588,338,586,326,63290,0
notchParam-74,true,1.00,642,337,640,325,67395,0
notchParam-75,true,1.00,613,331,612,319,70810,0
notchParam-76,true,1.00,2131,394,2130,382,221977,0
notchParam-77,true,1.00,674,323,670,311,72536,0
notchParam-78,true,1.00,1503,353,1503,341,156007,0
notchParam-79,true,1.00,674,321,673,309,73259,0
notchParam-80,true,1.00,254,331,254,319,30398,0
notchParam-81,true,1.00,545,325,544,309,62148,0
notchParam-82,true,1.00,205,308,205,296,23448,0
notchParam-83,true,1.00,216,317,216,305,26674,0
notchParam-84,true,1.00,3735,425,3732,413,374680,0
notchParam-85,false,0.36,1863,188,1863,188,177087,0
notchParam-86,true,1.00,1627,348,1625,336,157311,0
notchParam-87,true,1.00,366,334,365,322,31097,0
notchParam-88,true,1.00,309,318,306,306,33588,0
notchParam-89,true,1.00,258,304,257,292,24149,0
notchParam-90,true,1.00,263,313,259,301,28948,0
notchParam-91,true,1.00,1496,350,1490,338,142389,0
notchParam-92,true,1.00,1359,344,1357,332,96584,0
notchParam-93,true,1.00,2317,380,2314,368,228805,0
notchParam-94,true,1.00,1709,350,1707,338,173328,0
notchParam-95,true,1.00,1419,372,1418,360,153008,0
notchParam-96,true,1.00,686,346,683,334,76075,0
notchParam-97,true,1.00,607,316,605,304,62436,0
notchParam-98,true,1.00,304,306,302,294,33034,0
notchParam-99,true,1.00,3453,418,3453,406,342786,0
notchParam-100,true,1.00,4193,428,4192,416,404718,0
