NDW:0.0
TTFW:1.2
DFPT:2.0
DFPAP:3.0
DFPMP:1.0
RIGHT_WINDOW_BORDER_X:15.0
level,win/fail,% travelled,run time,game ticks,planning time,total plannings,nodes evaluated,most backtracked nodes
notch-1,false,0.12,8,60,8,60,381,0
notch-2,false,0.10,6,52,4,52,351,0
notch-3,false,0.14,8,67,6,67,403,0
notch-4,false,0.11,689,158,686,158,34322,0
notch-5,false,0.24,159,157,156,157,8267,0
notch-6,false,0.10,6,53,4,53,360,0
notch-7,false,0.11,9,66,8,66,567,0
notch-8,false,0.11,752,147,751,147,35885,0
notch-9,false,0.19,1288,178,1284,178,65884,0
notch-10,false,0.11,618,142,616,142,32435,0
notch-11,false,0.18,316,122,312,122,15687,0
notch-12,false,0.31,214,214,209,214,10591,0
notch-13,false,0.11,656,140,654,140,33233,0
notch-14,false,0.11,7,57,7,57,377,0
notch-15,false,0.18,1022,213,1018,213,55582,0
notch-16,false,0.11,184,94,182,94,9562,0
notch-17,false,0.12,622,142,620,142,32599,0
notch-18,false,0.10,7,53,5,53,360,0
notch-19,false,0.12,216,97,214,97,10758,0
notch-20,false,0.11,8,57,5,57,377,0
notch-21,false,0.10,7,57,7,57,386,0
notch-22,false,0.23,12,108,8,108,538,0
notch-23,false,0.18,657,177,652,177,34267,0
notch-24,false,0.17,14,88,11,88,724,0
notch-25,false,0.18,21,124,18,124,1119,0
notch-26,false,0.18,245,108,244,108,11474,0
notch-27,false,0.12,284,109,280,109,15229,0
notch-28,false,0.09,315,96,312,96,16707,0
notch-29,false,0.11,6,53,5,53,359,0
notch-30,false,0.12,545,103,543,103,25390,0
notch-31,false,0.12,7,55,5,55,366,0
notch-32,false,0.15,12,80,8,80,606,0
notch-33,false,0.12,219,112,218,112,11396,0
notch-34,false,0.10,7,56,5,56,378,0
notch-35,false,0.24,259,168,254,168,13680,0
notch-36,false,0.13,187,99,184,99,9596,0
notch-37,false,0.13,217,96,213,96,11131,0
notch-38,false,0.11,416,113,411,113,22291,0
notch-39,false,0.13,7,61,7,61,382,0
notch-40,false,0.19,1630,244,1626,244,83661,0
notch-41,false,0.12,508,135,504,135,25679,0
notch-42,false,0.10,7,55,6,55,387,0
notch-43,false,0.11,221,116,217,116,11778,0
notch-44,false,0.15,517,132,516,132,27103,0
notch-45,false,0.11,254,114,250,114,12913,0
notch-46,false,0.19,92,146,90,146,4688,0
notch-47,false,0.12,462,140,457,140,24485,0
notch-48,false,0.28,501,196,500,196,27415,0
notch-49,false,0.30,324,176,321,176,16449,0
notch-50,false,0.24,265,174,263,174,14316,0
notch-51,false,0.11,7,57,7,57,386,0
notch-52,false,0.21,184,138,182,138,9528,0
notch-53,false,0.09,277,79,276,79,14602,0
notch-54,false,0.13,215,98,213,98,11286,0
notch-55,false,0.13,184,101,182,101,9397,0
notch-56,false,0.12,456,144,452,144,24166,0
notch-57,false,0.14,748,138,746,138,34991,0
notch-58,false,0.14,15,96,13,96,776,0
notch-59,false,0.13,470,152,464,152,25628,0
notch-60,false,0.12,546,103,543,103,25307,0
notch-61,false,0.14,250,111,247,111,13230,0
notch-62,false,0.11,259,117,254,117,13796,0
notch-63,false,0.09,7,55,6,55,387,0
notch-64,false,0.13,1018,161,1016,161,54242,0
notch-65,false,0.10,7,57,6,57,382,0
notch-66,false,0.16,281,114,277,114,15054,0
notch-67,false,0.12,190,115,189,115,9594,0
notch-68,false,0.13,184,102,181,102,9394,0
notch-69,false,0.13,281,101,279,101,13959,0
notch-70,false,0.17,487,149,484,149,25839,0
notch-71,false,0.11,250,110,250,110,12967,0
notch-72,false,0.07,7,40,5,40,321,0
notch-73,false,0.11,461,138,457,138,25069,0
notch-74,false,0.13,217,100,215,100,10209,0
notch-75,false,0.10,284,108,281,108,14679,0
notch-76,false,0.13,184,104,181,104,9183,0
notch-77,false,0.14,322,140,320,140,17036,0
notch-78,false,0.14,260,134,253,134,13850,0
notch-79,false,0.10,7,52,4,52,351,0
notch-80,false,0.17,10,85,6,85,491,0
notch-81,false,0.12,217,99,215,99,11075,0
notch-82,false,0.11,8,57,8,57,377,0
notch-83,false,0.40,2444,434,2434,434,129380,0
notch-84,false,0.13,491,136,490,136,26782,0
notch-85,false,0.16,588,149,582,149,29490,0
notch-86,false,0.17,244,103,242,103,11504,0
notch-87,false,0.10,276,80,276,80,14688,0
notch-88,false,0.16,520,162,515,162,27145,0
notch-89,false,0.17,891,173,887,173,47194,0
notch-90,false,0.15,779,160,775,160,41127,0
notch-91,false,0.15,1038,135,1038,135,48703,0
notch-92,false,0.11,7,57,6,57,386,0
notch-93,false,0.09,256,81,252,81,13729,0
notch-94,false,0.12,780,127,778,127,38622,0
notch-95,false,0.18,285,132,285,132,15004,0
notch-96,false,0.15,8,74,7,74,428,0
notch-97,false,0.09,886,136,884,136,47836,0
notch-98,false,0.11,250,112,246,112,12895,0
notch-99,false,0.11,215,90,213,90,11524,0
notch-100,false,0.12,514,117,512,117,26171,0
