NDW:0.0
TTFW:2.0
DFPT:2.0
DFPAP:3.0
DFPMP:10.0
RIGHT_WINDOW_BORDER_X:55.0
level,win/fail,% travelled,run time,game ticks,planning time,total plannings,nodes evaluated,most backtracked nodes
ore-1,true,1.00,6050,669,6036,662,337371,0
ore-2,false,0.69,18631,999,18619,999,1046141,0
ore-3,true,1.00,6529,790,6513,785,413203,0
ore-4,true,1.00,7981,870,7965,864,513578,0
ore-5,true,1.00,9906,846,9891,841,625157,0
ore-6,true,1.00,9485,924,9466,918,553197,0
ore-7,true,1.00,4776,692,4757,687,299120,0
ore-8,false,0.12,29075,999,29071,999,1463485,0
ore-9,false,0.52,4341,437,4337,437,271368,0
ore-10,true,1.00,4872,671,4855,666,314692,0
ore-11,false,0.16,982,999,951,999,60816,0
ore-12,false,0.95,6771,805,6763,805,421783,0
ore-13,true,1.00,9396,981,9382,972,582568,0
ore-14,true,1.00,6985,821,6969,815,449322,0
ore-15,false,0.52,8166,521,8162,521,470209,0
ore-16,false,0.65,3537,439,3530,439,226532,0
ore-17,false,0.16,2498,999,2472,999,166857,0
ore-18,false,0.45,2235,365,2229,365,147888,0
ore-19,true,1.00,7482,828,7462,822,465964,0
ore-20,false,0.64,7076,641,7064,641,455524,0
ore-21,true,1.00,5761,819,5745,813,371263,0
ore-22,false,0.60,9323,666,9313,666,526526,0
ore-23,false,0.44,2554,338,2543,338,159749,0
ore-24,false,0.44,7686,612,7682,612,481940,0
ore-25,false,0.55,5704,516,5696,516,378037,0
ore-26,false,0.40,24290,999,24288,999,1135518,0
ore-27,false,0.62,7235,999,7218,999,460881,0
ore-28,false,0.09,3746,172,3743,172,207803,0
ore-29,false,0.52,2147,430,2139,430,125993,0
ore-30,true,1.00,9699,970,9690,965,582873,0
ore-31,true,1.00,6206,716,6193,711,401624,0
ore-32,true,1.00,8799,819,8786,814,517819,0
ore-33,false,0.77,10160,805,10148,805,644691,0
ore-34,false,0.56,794,349,786,349,49778,0
ore-35,false,0.72,5376,632,5361,632,337528,0
ore-36,false,0.41,1053,312,1045,312,68705,0
ore-37,false,0.34,3620,353,3615,353,211774,0
ore-38,true,1.00,6480,799,6468,794,399118,0
ore-39,false,0.50,5148,510,5134,510,328240,0
ore-40,false,0.27,2512,266,2510,266,154595,0
ore-41,false,0.57,4521,490,4510,490,279449,0
ore-42,false,0.54,2540,407,2533,407,136943,0
ore-43,true,1.00,8881,876,8866,871,559076,0
ore-44,false,0.10,3265,210,3264,210,229157,0
ore-45,false,0.35,4606,354,4596,354,278361,0
ore-46,false,0.12,773,103,771,103,46198,0
ore-47,true,1.00,6421,793,6408,788,407767,0
ore-48,false,0.91,6646,696,6636,696,436119,0
ore-49,true,1.00,7923,807,7911,800,470176,0
ore-50,false,1.00,11453,999,11435,999,702866,0
ore-51,false,0.43,1202,240,1199,240,79327,0
ore-52,false,0.37,5297,424,5291,424,338404,0
ore-53,false,0.31,2669,301,2664,301,169669,0
ore-54,false,0.71,20131,999,20123,999,1042706,0
ore-55,true,1.00,7258,738,7243,733,474076,0
ore-56,true,1.00,8113,796,8103,790,478261,0
ore-57,false,0.13,3686,999,3656,999,266293,0
ore-58,false,0.40,3346,376,3343,376,204390,0
ore-59,false,0.89,11628,999,11612,999,745524,0
ore-60,true,1.00,6544,824,6523,819,407296,0
ore-61,true,1.00,6528,807,6509,801,410871,0
ore-62,false,0.39,3575,364,3570,364,222126,0
ore-63,true,1.00,9196,859,9181,854,585108,0
ore-64,true,1.00,5593,741,5575,735,343670,0
ore-65,true,1.00,7760,764,7747,759,490818,0
ore-66,true,1.00,9380,976,9364,970,611856,0
ore-67,false,0.29,1948,280,1945,280,124936,0
ore-68,false,0.60,4176,467,4167,467,270453,0
ore-69,false,0.50,5757,473,5747,473,391273,0
ore-70,false,0.41,5045,467,5037,467,312893,0
ore-71,false,0.58,3838,420,3830,420,246141,0
ore-72,true,1.00,8177,861,8165,856,519567,0
ore-73,false,0.34,3311,999,3287,999,225520,0
ore-74,true,1.00,5706,834,5688,826,369188,0
ore-75,true,1.00,9107,823,9094,818,561919,0
ore-76,false,0.88,12656,999,12641,999,826417,0
ore-77,true,1.00,9910,858,9897,853,634870,0
ore-78,true,1.00,8893,813,8872,808,527030,0
ore-79,true,1.00,8181,838,8166,833,542910,0
ore-80,false,0.95,8613,920,8600,920,552894,0
ore-81,false,0.36,3282,335,3278,335,224008,0
ore-82,false,0.45,10001,602,9990,602,639394,0
ore-83,false,0.17,1283,185,1279,185,80366,0
ore-84,false,0.13,2106,137,2103,137,110731,0
ore-85,false,0.99,10075,999,10051,999,646575,0
ore-86,false,0.54,2600,430,2590,430,173440,0
ore-87,false,0.45,5568,432,5563,432,345514,0
ore-88,false,0.74,9120,999,9102,999,546840,0
ore-89,false,0.93,5638,785,5622,785,359606,0
ore-90,true,1.00,10188,844,10171,839,668293,0
ore-91,true,1.00,11090,931,11076,926,659248,0
ore-92,false,0.45,727,283,719,283,45335,0
ore-93,false,0.13,3973,212,3971,212,232075,0
ore-94,false,0.47,3309,398,3302,398,212248,0
ore-95,false,0.39,5000,416,4996,416,316541,0
ore-96,false,0.40,4219,393,4212,393,224392,0
ore-97,false,0.76,8699,692,8682,692,507160,0
ore-98,true,1.00,10501,863,10491,858,643657,0
ore-99,false,0.58,19862,999,19852,999,1264445,0
ore-100,true,1.00,8487,860,8475,855,549171,0
