NDW:0.0
TTFW:1.4
DFPT:2.0
DFPAP:3.0
DFPMP:5.0
RIGHT_WINDOW_BORDER_X:95.0
level,win/fail,% travelled,run time,game ticks,planning time,total plannings,nodes evaluated,most backtracked nodes
Mario-1,true,1.00,371,405,361,394,21283,0
Mario-2,true,1.00,1192,358,1187,345,67576,0
Mario-3,true,1.00,2964,352,2961,339,174850,0
Mario-4,true,1.00,1578,511,1566,494,87834,0
Mario-5,true,1.00,2481,533,2468,524,146300,0
Mario-6,false,0.58,1265,218,1261,218,76610,0
Mario-7,true,1.00,1624,475,1613,462,94162,0
Mario-8,true,1.00,2617,577,2603,559,151315,0
Mario-9,true,1.00,783,383,769,373,44117,0
Mario-10,false,0.24,641,139,636,139,38394,0
Mario-11,true,1.00,940,464,926,451,53983,0
Mario-12,true,1.00,2429,676,2414,663,128832,0
Mario-13,true,1.00,3360,473,3352,455,204918,0
Mario-14,true,1.00,257,399,247,386,15079,0
Mario-15,true,1.00,7398,1105,7381,1092,390771,0
