NDW:0.0
TTFW:2.0
DFPT:2.0
DFPAP:3.0
DFPMP:7.0
RIGHT_WINDOW_BORDER_X:15.0
level,win/fail,% travelled,run time,game ticks,planning time,total plannings,nodes evaluated,most backtracked nodes
hopper-1,false,0.13,218,121,218,121,9618,0
hopper-2,false,0.13,217,121,215,121,9518,0
hopper-3,false,0.24,804,200,800,200,33659,0
hopper-4,false,0.26,958,252,951,252,41422,0
hopper-5,false,0.13,218,121,215,121,9551,0
hopper-6,false,0.14,15,105,12,105,645,0
hopper-7,false,0.13,218,121,214,121,9539,0
hopper-8,false,0.13,217,121,214,121,9763,0
hopper-9,false,0.13,218,121,216,121,9580,0
hopper-10,false,0.24,18,150,16,150,726,0
hopper-11,false,0.13,220,121,217,121,9402,0
hopper-12,false,0.17,16,118,10,118,685,0
hopper-13,false,0.13,218,121,215,121,9619,0
hopper-14,false,0.13,217,121,214,121,9171,0
hopper-15,false,0.13,219,121,216,121,9526,0
hopper-16,false,0.13,218,121,214,121,9685,0
hopper-17,false,0.17,16,120,14,120,689,0
hopper-18,false,0.15,10,91,8,91,409,0
hopper-19,false,0.15,10,90,6,90,400,0
hopper-20,false,0.13,220,121,217,121,9612,0
hopper-21,false,0.13,216,121,215,121,9579,0
hopper-22,false,0.12,8,74,7,74,351,0
hopper-23,false,0.13,219,121,218,121,9671,0
hopper-24,false,0.13,218,121,217,121,9689,0
hopper-25,false,0.15,10,90,7,90,400,0
hopper-26,false,0.13,218,121,215,121,9215,0
hopper-27,false,0.13,217,121,217,121,9487,0
hopper-28,false,0.13,218,121,214,121,9638,0
hopper-29,false,0.26,282,170,279,170,12047,0
hopper-30,false,0.13,216,121,215,121,9515,0
hopper-31,false,0.13,219,121,216,121,9649,0
hopper-32,false,0.15,10,90,9,90,400,0
hopper-33,false,0.15,9,91,6,91,408,0
hopper-34,false,0.13,216,121,215,121,9617,0
hopper-35,false,0.13,217,121,211,121,9103,0
hopper-36,false,0.13,220,121,219,121,9544,0
hopper-37,false,0.17,17,118,16,118,685,0
hopper-38,false,0.13,318,140,314,140,13597,0
hopper-39,false,0.24,26,154,17,154,758,0
hopper-40,false,0.13,216,121,213,121,9677,0
hopper-41,false,0.24,792,200,788,200,34288,0
hopper-42,false,0.13,215,121,211,121,9610,0
hopper-43,false,0.13,218,121,216,121,9569,0
hopper-44,false,0.24,18,154,13,154,758,0
hopper-45,false,0.13,220,121,218,121,9549,0
hopper-46,false,0.13,216,121,214,121,9447,0
hopper-47,false,0.16,11,93,6,93,414,0
hopper-48,false,0.13,221,121,216,121,9312,0
hopper-49,false,0.13,220,121,213,121,8981,0
hopper-50,false,0.13,219,121,215,121,9262,0
hopper-51,false,0.13,221,121,216,121,8981,0
hopper-52,false,0.22,13,126,7,126,513,0
hopper-53,false,0.13,218,121,212,121,9353,0
hopper-54,false,0.26,16,151,10,151,588,0
hopper-55,false,0.13,221,121,216,121,9221,0
hopper-56,false,0.29,297,185,293,185,12043,0
hopper-57,false,0.18,14,104,11,104,453,0
hopper-58,false,0.13,220,121,214,121,8837,0
hopper-59,false,0.13,223,121,220,121,8952,0
hopper-60,false,0.18,17,126,13,126,715,0
hopper-61,false,0.13,221,121,217,121,8833,0
hopper-62,false,0.13,219,121,216,121,8786,0
hopper-63,false,0.22,653,182,648,182,26001,0
hopper-64,false,0.13,220,121,217,121,8771,0
hopper-65,false,0.13,220,121,215,121,8810,0
hopper-66,false,0.15,12,91,11,91,409,0
hopper-67,false,0.21,22,142,17,142,754,0
hopper-68,false,0.15,16,108,15,108,650,0
hopper-69,false,0.13,222,121,216,121,8881,0
hopper-70,false,0.13,220,121,217,121,8866,0
hopper-71,false,0.15,13,90,12,90,400,0
hopper-72,false,0.13,220,121,217,121,8907,0
hopper-73,false,0.13,220,121,219,121,8958,0
hopper-74,false,0.13,222,121,218,121,8889,0
hopper-75,false,0.13,222,121,218,121,9084,0
hopper-76,false,0.13,221,121,217,121,8797,0
hopper-77,false,0.13,221,121,214,121,9104,0
hopper-78,false,0.25,17,148,13,148,576,0
hopper-79,false,0.13,220,121,217,121,8903,0
hopper-80,false,0.13,220,121,219,121,9422,0
hopper-81,false,0.13,220,121,217,121,8828,0
hopper-82,false,0.13,221,121,217,121,9058,0
hopper-83,false,0.13,221,121,217,121,8973,0
hopper-84,false,0.13,219,121,215,121,8866,0
hopper-85,false,0.16,13,93,12,93,413,0
hopper-86,false,0.13,230,121,219,121,8808,0
hopper-87,false,0.13,225,121,219,121,7630,0
hopper-88,false,0.13,219,121,215,121,8855,0
hopper-89,false,0.13,220,121,215,121,8884,0
hopper-90,false,0.13,219,121,216,121,8809,0
hopper-91,false,0.13,222,121,217,121,8819,0
hopper-92,false,0.13,220,121,215,121,8822,0
hopper-93,false,0.14,17,105,14,105,645,0
hopper-94,false,0.13,219,121,215,121,8840,0
hopper-95,false,0.28,749,207,746,207,30589,0
hopper-96,false,0.13,219,121,214,121,9245,0
hopper-97,false,0.13,222,121,216,121,9199,0
hopper-98,false,0.13,219,121,217,121,9193,0
hopper-99,false,0.13,222,121,219,121,9128,0
hopper-100,false,0.13,225,121,218,121,9178,0
