NDW:0.0
TTFW:1.2
DFPT:2.0
DFPAP:3.0
DFPMP:5.0
RIGHT_WINDOW_BORDER_X:55.0
level,win/fail,% travelled,run time,game ticks,planning time,total plannings,nodes evaluated,most backtracked nodes
ge-1,false,0.21,1362,161,1362,161,124631,0
ge-2,false,0.78,3843,533,3842,533,363101,0
ge-3,true,1.00,1797,473,1794,466,169071,0
ge-4,false,0.37,3436,316,3436,316,335977,0
ge-5,true,1.00,35,368,33,360,7597,0
ge-6,false,0.54,2439,325,2436,325,225274,0
ge-7,true,1.00,1002,449,999,439,99174,0
ge-8,true,1.00,1488,435,1487,428,138703,0
ge-9,true,1.00,3070,529,3068,522,310317,0
ge-10,true,1.00,33,365,30,359,7027,0
ge-11,true,1.00,1451,437,1450,431,142964,0
ge-12,true,1.00,35,376,33,369,7433,0
ge-13,true,1.00,2002,519,1998,512,185268,0
ge-14,false,0.22,1067,134,1067,134,94995,0
ge-15,false,0.37,1422,201,1420,201,141139,0
ge-16,false,0.07,169,70,169,70,19637,0
ge-17,true,1.00,2556,559,2555,553,265926,0
ge-18,false,0.08,30462,999,30457,999,2987131,0
ge-19,false,0.46,2511,379,2509,379,237151,0
ge-20,false,0.50,2567,344,2566,344,231857,0
ge-21,true,1.00,4393,434,4391,429,389815,0
ge-22,false,0.70,650,272,650,272,60149,0
ge-23,false,0.76,3240,441,3240,441,316381,0
ge-24,false,0.70,3133,402,3133,402,294094,0
ge-25,false,0.63,2533,346,2532,346,239840,0
ge-26,false,0.49,1275,251,1274,251,128115,0
ge-27,true,1.00,33,370,30,365,7264,0
ge-28,false,0.36,1995,238,1993,238,184768,0
ge-29,false,0.38,3072,260,3071,260,283345,0
ge-30,false,0.36,5520,377,5519,377,557993,0
ge-31,false,0.24,2058,187,2058,187,196128,0
ge-32,true,1.00,344,423,343,417,35734,0
ge-33,true,1.00,639,442,637,430,65237,0
ge-34,false,0.13,1147,134,1146,134,112666,0
ge-35,true,1.00,2446,592,2443,585,225163,0
ge-36,false,0.43,3589,380,3588,380,355010,0
ge-37,false,0.90,1748,433,1744,433,160021,0
ge-38,false,0.54,2405,355,2404,355,255492,0
ge-39,false,0.20,2295,177,2294,177,225123,0
ge-40,true,1.00,35,363,35,357,8232,0
ge-41,true,1.00,1379,440,1376,432,135129,0
ge-42,false,0.19,1297,141,1296,141,124517,0
ge-43,true,1.00,1851,557,1847,547,181395,0
ge-44,false,0.70,3923,437,3920,437,361760,0
ge-45,false,0.55,5157,410,5154,410,479011,0
ge-46,false,0.31,1663,222,1663,222,149326,0
ge-47,false,0.51,3821,382,3820,382,380279,0
ge-48,false,0.62,2146,370,2146,370,207144,0
ge-49,true,1.00,740,388,738,383,71474,0
ge-50,false,0.34,2390,236,2388,236,219744,0
ge-51,true,1.00,798,428,796,420,75997,0
ge-52,false,0.27,2162,235,2161,235,206591,0
ge-53,false,0.21,1724,161,1724,161,155813,0
ge-54,false,0.90,2477,499,2475,499,249779,0
ge-55,true,1.00,1231,426,1228,421,118037,0
ge-56,false,0.73,1934,273,1933,273,186818,0
ge-57,false,0.53,2699,369,2696,369,248465,0
ge-58,true,1.00,464,524,461,514,49122,0
ge-59,false,0.39,3541,294,3538,294,345536,0
ge-60,false,0.22,1261,135,1260,135,114636,0
ge-61,false,0.80,1021,362,1020,362,96829,0
ge-62,false,0.28,1634,179,1633,179,160277,0
ge-63,false,0.21,1890,171,1890,171,187003,0
ge-64,false,0.71,1862,372,1858,372,179487,0
ge-65,false,0.66,3181,408,3178,408,304058,0
ge-66,false,0.25,2620,217,2619,217,250256,0
ge-67,true,1.00,1449,483,1446,476,135845,0
ge-68,true,1.00,1420,363,1419,358,122776,0
ge-69,true,1.00,2451,482,2448,475,228671,0
ge-70,false,0.85,3928,507,3927,507,374028,0
ge-71,false,0.29,2006,261,2005,261,205116,0
ge-72,true,1.00,330,463,326,456,36324,0
ge-73,false,0.97,2957,464,2954,464,281631,0
ge-74,false,0.45,2265,301,2264,301,221327,0
ge-75,true,1.00,2761,468,2758,461,262315,0
ge-76,false,0.59,4907,395,4906,395,468681,0
ge-77,false,0.11,1552,159,1551,159,155629,0
ge-78,false,0.55,2077,317,2077,317,186880,0
ge-79,true,1.00,1368,450,1361,425,98378,0
ge-80,true,1.00,66,395,63,388,9358,0
ge-81,true,1.00,49,402,48,395,9080,0
ge-82,true,1.00,62,433,61,426,11166,0
ge-83,false,0.09,1166,113,1165,113,132298,0
ge-84,false,0.10,475,72,475,72,39363,0
ge-85,false,0.41,4120,299,4118,299,375081,0
ge-86,false,0.80,2505,418,2501,418,232069,0
ge-87,false,0.61,1811,352,1810,352,176860,0
ge-88,false,0.18,2132,165,2131,165,211231,0
ge-89,true,1.00,146,426,146,419,18168,0
ge-90,true,1.00,36,365,35,358,8049,0
ge-91,false,0.87,1933,338,1932,338,175211,0
ge-92,true,1.00,34,371,31,364,7616,0
ge-93,false,0.39,1233,191,1231,191,110953,0
ge-94,false,0.75,1842,390,1841,390,173980,0
ge-95,true,1.00,51,428,48,422,9730,0
ge-96,false,0.32,1337,200,1336,200,129424,0
ge-97,false,0.61,1425,356,1423,356,142606,0
ge-98,true,1.00,34,363,34,357,7645,0
ge-99,true,1.00,1630,433,1628,427,143054,0
ge-100,false,0.12,1967,152,1966,152,188738,0
