NDW:0.0
TTFW:1.6
DFPT:2.0
DFPAP:3.0
DFPMP:10.0
RIGHT_WINDOW_BORDER_X:215.0
level,win/fail,% travelled,run time,game ticks,planning time,total plannings,nodes evaluated,most backtracked nodes
ge-1,true,1.00,452,247,451,213,51625,0
ge-2,true,1.00,338,224,338,205,41716,0
ge-3,true,1.00,161,226,159,207,15886,0
ge-4,true,1.00,868,264,866,240,102516,0
ge-5,true,1.00,27,199,27,180,2175,0
ge-6,true,1.00,306,255,304,224,34892,0
ge-7,true,1.00,81,224,79,204,8637,0
ge-8,true,1.00,204,223,203,204,22159,0
ge-9,true,1.00,428,226,426,206,52189,0
ge-10,true,1.00,27,199,26,180,2160,0
ge-11,true,1.00,133,210,130,191,14549,0
ge-12,true,1.00,26,199,25,180,1974,0
ge-13,true,1.00,265,248,264,223,31568,0
ge-14,true,1.00,141,230,140,194,14667,0
ge-15,true,1.00,477,218,474,199,52467,0
ge-16,true,1.00,85,258,85,239,8804,0
ge-17,true,1.00,231,207,231,188,27874,0
ge-18,true,1.00,275,265,274,245,32263,0
ge-19,true,1.00,495,265,491,246,62623,0
ge-20,true,1.00,406,226,403,207,47473,0
ge-21,true,1.00,161,201,158,182,16924,0
ge-22,true,1.00,295,206,294,185,33145,0
ge-23,true,1.00,481,208,479,185,56337,0
ge-24,true,1.00,442,230,441,210,49162,0
ge-25,true,1.00,269,201,267,182,31157,0
ge-26,true,1.00,192,205,190,186,23155,0
ge-27,true,1.00,36,215,33,196,3245,0
ge-28,true,1.00,523,209,523,190,56040,0
ge-29,true,1.00,192,218,192,179,20912,0
ge-30,true,1.00,497,246,493,208,59268,0
ge-31,true,1.00,521,224,519,204,61926,0
ge-32,true,1.00,114,224,110,205,12047,0
ge-33,true,1.00,76,240,75,206,7693,0
ge-34,true,1.00,763,214,762,192,88773,0
ge-35,true,1.00,331,243,329,224,38750,0
ge-36,true,1.00,548,264,544,231,63556,0
ge-37,true,1.00,232,200,231,180,28750,0
ge-38,true,1.00,706,232,706,213,91523,0
ge-39,true,1.00,183,220,182,200,21571,0
ge-40,true,1.00,25,199,24,180,2067,0
ge-41,true,1.00,161,211,158,186,19102,0
ge-42,true,1.00,512,224,512,205,57424,0
ge-43,true,1.00,276,230,275,208,32245,0
ge-44,true,1.00,471,213,468,194,56208,0
ge-45,true,1.00,358,230,357,211,39715,0
ge-46,true,1.00,710,228,709,209,80281,0
ge-47,true,1.00,617,230,617,211,69928,0
ge-48,true,1.00,276,231,276,212,31291,0
ge-49,true,1.00,126,200,125,180,14652,0
ge-50,true,1.00,480,220,477,201,55753,0
ge-51,true,1.00,77,224,75,204,8650,0
ge-52,true,1.00,369,248,365,228,40033,0
ge-53,true,1.00,199,211,197,192,23737,0
ge-54,true,1.00,255,249,254,229,32452,0
ge-55,true,1.00,252,217,251,198,29553,0
ge-56,true,1.00,511,274,510,240,58229,0
ge-57,true,1.00,643,217,642,192,77161,0
ge-58,true,1.00,124,232,124,213,13222,0
ge-59,true,1.00,691,213,690,194,81625,0
ge-60,true,1.00,496,201,494,182,56037,0
ge-61,true,1.00,234,204,234,183,29213,0
ge-62,true,1.00,448,213,446,194,54581,0
ge-63,true,1.00,645,224,643,199,82314,0
ge-64,false,1.00,604,233,604,201,62926,0
ge-65,true,1.00,524,231,524,212,64196,0
ge-66,true,1.00,544,226,542,189,64361,0
ge-67,true,1.00,162,236,158,217,17104,0
ge-68,true,1.00,77,221,76,202,6961,0
ge-69,true,1.00,230,206,226,187,25702,0
ge-70,true,1.00,311,214,311,194,36865,0
ge-71,true,1.00,1105,230,1105,211,135447,0
ge-72,true,1.00,142,255,141,231,16107,0
ge-73,true,1.00,304,229,302,189,38232,0
ge-74,true,1.00,755,259,754,240,83231,0
ge-75,true,1.00,203,236,203,197,24385,0
ge-76,true,1.00,873,224,873,203,102492,0
ge-77,true,1.00,1051,238,1051,219,125019,0
ge-78,true,1.00,498,238,496,213,59763,0
ge-79,true,1.00,137,221,136,194,16059,0
ge-80,true,1.00,45,218,42,196,3454,0
ge-81,true,1.00,45,213,44,194,4223,0
ge-82,true,1.00,48,241,46,196,4359,0
ge-83,false,1.00,231,261,229,226,27161,0
ge-84,true,1.00,635,209,635,190,73140,0
ge-85,true,1.00,268,209,267,190,31308,0
ge-86,true,1.00,642,206,640,181,76826,0
ge-87,true,1.00,425,227,424,208,50293,0
ge-88,true,1.00,446,236,446,216,55946,0
ge-89,true,1.00,181,242,180,222,19229,0
ge-90,true,1.00,27,199,27,180,2147,0
ge-91,true,1.00,226,199,225,180,25480,0
ge-92,true,1.00,29,205,28,186,2552,0
ge-93,true,1.00,466,213,466,194,56717,0
ge-94,true,1.00,318,208,318,188,38849,0
ge-95,true,1.00,66,246,66,226,6712,0
ge-96,true,1.00,582,245,581,211,67406,0
ge-97,true,1.00,370,223,367,204,43537,0
ge-98,true,1.00,26,199,26,180,1995,0
ge-99,true,1.00,126,199,124,180,12308,0
ge-100,true,1.00,295,205,294,186,34829,0
