NDW:0.0
TTFW:0.6
DFPT:2.0
DFPAP:3.0
DFPMP:7.0
RIGHT_WINDOW_BORDER_X:115.0
level,win/fail,% travelled,run time,game ticks,planning time,total plannings,nodes evaluated,most backtracked nodes
Mario-1,true,1.00,625,412,611,401,33347,0
Mario-2,true,1.00,1057,327,1047,316,55021,0
Mario-3,true,1.00,1990,305,1983,289,110327,0
Mario-4,true,1.00,948,439,937,422,50031,0
Mario-5,true,1.00,2914,500,2906,486,149951,0
Mario-6,true,1.00,1657,303,1650,293,92666,0
Mario-7,true,1.00,1039,458,1027,443,52264,0
Mario-8,true,1.00,2558,462,2549,438,126757,0
Mario-9,true,1.00,500,350,491,336,27213,0
Mario-10,true,1.00,2398,337,2393,322,133641,0
Mario-11,true,1.00,1192,393,1182,377,62831,0
Mario-12,true,1.00,2606,686,2587,672,129916,0
Mario-13,true,1.00,2442,374,2432,358,136914,0
Mario-14,true,1.00,288,355,282,341,14257,0
Mario-15,true,1.00,4300,928,4277,912,210351,0
