NDW:0.0
TTFW:1.0
DFPT:2.0
DFPAP:3.0
DFPMP:5.0
RIGHT_WINDOW_BORDER_X:350.0
level,win/fail,% travelled,run time,game ticks,planning time,total plannings,nodes evaluated,most backtracked nodes
Mario-1,true,1.00,598,385,585,324,28375,0
Mario-2,true,1.00,1180,328,1176,296,59596,0
Mario-3,true,1.00,1670,302,1664,242,94484,0
Mario-4,true,1.00,1645,412,1632,352,78137,0
Mario-5,true,1.00,1295,417,1283,378,57838,0
Mario-6,true,1.00,1617,254,1613,215,86767,0
Mario-7,true,1.00,1085,421,1077,357,49842,0
Mario-8,true,1.00,1335,453,1320,398,60855,0
Mario-9,true,1.00,697,398,689,343,33648,0
Mario-10,true,1.00,1767,292,1762,222,97353,0
Mario-11,true,1.00,1287,382,1279,330,60457,0
Mario-12,true,1.00,2358,680,2341,625,94967,0
Mario-13,true,1.00,4214,403,4202,351,170660,0
Mario-14,true,1.00,486,352,475,292,14081,0
Mario-15,true,1.00,2983,798,2953,743,113841,0
