NDW:0.0
TTFW:1.8
DFPT:2.0
DFPAP:3.0
DFPMP:5.0
RIGHT_WINDOW_BORDER_X:195.0
level,win/fail,% travelled,run time,game ticks,planning time,total plannings,nodes evaluated,most backtracked nodes
notchParamRand-1,true,1.00,902,334,897,317,97613,0
notchParamRand-2,true,1.00,75,308,74,291,7848,0
notchParamRand-3,true,1.00,907,310,906,293,109726,0
notchParamRand-4,true,1.00,1302,335,1299,318,158115,0
notchParamRand-5,true,1.00,148,306,146,289,16279,0
notchParamRand-6,true,1.00,308,312,307,295,36526,0
notchParamRand-7,true,1.00,168,298,166,281,18986,0
notchParamRand-8,true,1.00,436,314,433,297,45188,0
notchParamRand-9,true,1.00,520,338,518,321,62397,0
notchParamRand-10,true,1.00,661,321,660,304,80996,0
notchParamRand-11,true,1.00,71,310,71,293,7092,0
notchParamRand-12,true,1.00,297,340,296,323,33192,0
notchParamRand-13,true,1.00,1552,330,1550,313,171661,0
notchParamRand-14,true,1.00,933,316,932,299,102732,0
notchParamRand-15,true,1.00,470,308,468,291,58299,0
notchParamRand-16,true,1.00,303,300,301,283,41106,0
notchParamRand-17,true,1.00,37,303,31,286,2945,0
notchParamRand-18,true,1.00,2447,356,2446,339,287949,0
notchParamRand-19,true,1.00,131,328,131,311,14960,0
notchParamRand-20,true,1.00,1579,334,1578,317,188379,0
notchParamRand-21,true,1.00,36,296,35,279,2643,0
notchParamRand-22,true,1.00,865,339,862,322,99312,0
notchParamRand-23,true,1.00,917,350,914,333,109734,0
notchParamRand-24,true,1.00,154,339,151,322,17496,0
notchParamRand-25,true,1.00,37,308,35,290,3537,0
notchParamRand-26,true,1.00,320,340,319,323,37306,0
notchParamRand-27,true,1.00,167,300,167,283,22031,0
notchParamRand-28,true,1.00,324,317,322,300,37211,0
notchParamRand-29,true,1.00,36,298,32,281,2804,0
notchParamRand-30,true,1.00,1600,312,1600,295,185789,0
notchParamRand-31,true,1.00,218,319,218,302,26504,0
notchParamRand-32,true,1.00,65,294,63,277,6865,0
notchParamRand-33,true,1.00,1637,326,1636,309,188738,0
notchParamRand-34,true,1.00,879,318,878,301,103163,0
notchParamRand-35,true,1.00,476,314,471,297,56385,0
notchParamRand-36,true,1.00,34,302,34,283,2691,0
notchParamRand-37,true,1.00,295,310,293,293,36926,0
notchParamRand-38,true,1.00,1743,347,1743,330,196544,0
notchParamRand-39,true,1.00,1445,326,1440,309,167183,0
notchParamRand-40,true,1.00,1951,333,1949,316,226222,0
notchParamRand-41,true,1.00,33,294,30,277,2199,0
notchParamRand-42,true,1.00,361,316,359,299,44796,0
notchParamRand-43,true,1.00,167,300,166,283,20225,0
notchParamRand-44,true,1.00,247,302,245,285,30288,0
notchParamRand-45,true,1.00,806,322,804,305,88254,0
notchParamRand-46,true,1.00,448,311,447,294,54346,0
notchParamRand-47,true,1.00,715,320,713,303,83689,0
notchParamRand-48,true,1.00,1289,326,1287,309,150030,0
notchParamRand-49,true,1.00,676,312,675,295,79264,0
notchParamRand-50,true,1.00,1335,341,1335,324,159991,0
notchParamRand-51,true,1.00,141,315,137,298,15513,0
notchParamRand-52,true,1.00,718,322,716,305,83777,0
notchParamRand-53,true,1.00,940,328,939,311,106203,0
notchParamRand-54,true,1.00,2011,357,2011,340,226920,0
notchParamRand-55,true,1.00,1587,320,1585,303,173808,0
notchParamRand-56,true,1.00,638,323,637,306,72817,0
notchParamRand-57,true,1.00,918,314,918,297,112432,0
notchParamRand-58,true,1.00,755,347,750,330,90187,0
notchParamRand-59,true,1.00,440,311,440,294,50400,0
notchParamRand-60,true,1.00,572,323,570,306,68651,0
notchParamRand-61,true,1.00,398,310,396,293,47232,0
notchParamRand-62,true,1.00,375,322,373,305,43832,0
notchParamRand-63,true,1.00,1266,310,1265,293,146027,0
notchParamRand-64,true,1.00,229,294,225,277,27249,0
notchParamRand-65,true,1.00,1861,348,1859,331,212522,0
notchParamRand-66,true,1.00,217,327,216,310,22572,0
notchParamRand-67,true,1.00,234,300,234,283,24901,0
notchParamRand-68,true,1.00,1360,340,1360,323,158427,0
notchParamRand-69,true,1.00,172,309,168,292,21297,0
notchParamRand-70,true,1.00,713,326,710,309,88137,0
notchParamRand-71,true,1.00,249,336,248,319,27431,0
notchParamRand-72,true,1.00,66,294,66,277,6831,0
notchParamRand-73,true,1.00,467,308,464,291,50847,0
notchParamRand-74,true,1.00,37,296,37,279,2929,0
notchParamRand-75,true,1.00,34,294,30,277,2274,0
notchParamRand-76,true,1.00,1066,344,1065,327,120618,0
notchParamRand-77,true,1.00,1620,372,1615,355,175204,0
notchParamRand-78,true,1.00,1013,320,1012,303,120255,0
notchParamRand-79,true,1.00,141,306,138,289,15689,0
notchParamRand-80,true,1.00,229,296,228,279,23789,0
notchParamRand-81,true,1.00,215,298,213,281,27335,0
notchParamRand-82,true,1.00,699,330,698,313,83212,0
notchParamRand-83,true,1.00,1287,330,1285,313,143717,0
notchParamRand-84,true,1.00,255,300,253,283,30016,0
notchParamRand-85,true,1.00,33,294,31,277,2212,0
notchParamRand-86,true,1.00,441,354,440,337,51786,0
notchParamRand-87,true,1.00,1505,312,1503,295,180730,0
notchParamRand-88,true,1.00,214,300,213,283,27654,0
notchParamRand-89,true,1.00,273,296,271,279,32755,0
notchParamRand-90,true,1.00,640,329,639,312,71520,0
notchParamRand-91,true,1.00,33,294,32,277,2355,0
notchParamRand-92,true,1.00,792,324,791,307,95523,0
notchParamRand-93,true,1.00,241,319,237,292,28876,0
notchParamRand-94,true,1.00,1539,314,1538,297,173866,0
notchParamRand-95,true,1.00,651,316,650,299,76043,0
notchParamRand-96,true,1.00,415,329,411,312,47468,0
notchParamRand-97,true,1.00,1402,351,1400,334,158380,0
notchParamRand-98,true,1.00,163,294,162,277,20591,0
notchParamRand-99,true,1.00,141,310,139,293,16131,0
notchParamRand-100,true,1.00,1293,308,1292,291,151487,0
