NDW:0.0
TTFW:0.8
DFPT:2.0
DFPAP:3.0
DFPMP:2.0
RIGHT_WINDOW_BORDER_X:95.0
level,win/fail,% travelled,run time,game ticks,planning time,total plannings,nodes evaluated,most backtracked nodes
hopper-1,true,1.00,3292,473,3283,463,164511,0
hopper-2,true,1.00,3161,437,3153,429,156793,0
hopper-3,false,0.24,3278,186,3276,186,150244,0
hopper-4,false,0.26,2720,185,2718,185,133503,0
hopper-5,true,1.00,4999,576,4990,566,246118,0
hopper-6,true,1.00,2277,434,2270,425,112440,0
hopper-7,false,0.83,3868,411,3862,411,179522,0
hopper-8,false,0.41,2290,215,2285,215,106035,0
hopper-9,true,1.00,1906,432,1896,422,94434,0
hopper-10,true,1.00,1452,384,1445,375,75632,0
hopper-11,true,1.00,4698,549,4684,539,242543,0
hopper-12,true,1.00,3059,480,3051,470,155027,0
hopper-13,true,1.00,4183,547,4169,538,219606,0
hopper-14,true,1.00,4319,515,4312,505,228740,0
hopper-15,true,1.00,2894,464,2882,454,145781,0
hopper-16,false,0.54,4720,335,4717,335,219927,0
hopper-17,true,1.00,2139,453,2123,443,106811,0
hopper-18,true,1.00,1743,410,1730,400,84218,0
hopper-19,true,1.00,2172,475,2157,465,116303,0
hopper-20,true,1.00,3462,492,3446,483,171006,0
hopper-21,false,0.61,3473,312,3468,312,160944,0
hopper-22,false,0.32,1902,178,1900,178,89717,0
hopper-23,true,1.00,2181,456,2167,447,109723,0
hopper-24,true,1.00,2131,455,2122,446,107332,0
hopper-25,true,1.00,3386,481,3380,472,180854,0
hopper-26,true,1.00,3836,487,3830,478,190177,0
hopper-27,true,1.00,3795,507,3787,498,196389,0
hopper-28,false,0.85,6294,541,6285,541,316072,0
hopper-29,false,0.25,3398,189,3397,189,157219,0
hopper-30,true,1.00,4065,507,4056,494,208096,0
hopper-31,false,0.77,4319,404,4317,404,211842,0
hopper-32,false,0.44,2749,273,2744,273,142132,0
hopper-33,false,0.49,3392,291,3389,291,160735,0
hopper-34,false,0.30,28987,999,28982,999,1235802,0
hopper-35,true,1.00,7860,637,7848,627,415110,0
hopper-36,true,1.00,1476,412,1468,402,72358,0
hopper-37,false,0.51,3352,288,3350,288,156637,0
hopper-38,false,0.52,3798,312,3793,312,179325,0
hopper-39,false,0.52,5750,380,5745,380,272515,0
hopper-40,true,1.00,2101,458,2093,449,100915,0
hopper-41,false,0.24,1879,138,1877,138,85453,0
hopper-42,true,1.00,1921,436,1914,426,94859,0
hopper-43,false,0.45,4008,312,4004,312,187347,0
hopper-44,true,1.00,3467,439,3457,430,174671,0
hopper-45,false,0.42,4269,291,4265,291,205999,0
hopper-46,false,0.66,5632,439,5628,439,280343,0
hopper-47,true,1.00,9779,673,9766,664,498882,0
hopper-48,true,1.00,3422,472,3413,463,174987,0
hopper-49,true,1.00,4742,559,4730,549,242184,0
hopper-50,false,0.62,4576,378,4568,378,216831,0
hopper-51,false,0.34,2833,214,2829,214,129653,0
hopper-52,true,1.00,3127,481,3114,473,165808,0
hopper-53,false,0.63,3548,348,3543,348,167432,0
hopper-54,true,1.00,2323,482,2308,472,115935,0
hopper-55,true,1.00,2122,445,2110,431,110793,0
hopper-56,true,1.00,2451,437,2443,427,127301,0
hopper-57,true,1.00,3478,498,3466,489,166376,0
hopper-58,false,0.58,5557,382,5550,382,270459,0
hopper-59,true,1.00,2947,473,2941,464,155573,0
hopper-60,true,1.00,4799,544,4788,535,261198,0
hopper-61,true,1.00,3118,510,3102,500,156767,0
hopper-62,true,1.00,3297,484,3292,473,161515,0
hopper-63,false,0.22,3830,198,3829,198,175237,0
hopper-64,true,1.00,5324,567,5308,557,252492,0
hopper-65,true,1.00,4377,518,4366,509,215346,0
hopper-66,false,0.74,3786,389,3777,389,169268,0
hopper-67,true,1.00,4096,480,4087,467,208419,0
hopper-68,true,1.00,1554,429,1541,421,79621,0
hopper-69,false,0.83,4771,474,4759,474,235743,0
hopper-70,true,1.00,3822,499,3814,491,191965,0
hopper-71,true,1.00,1941,439,1936,430,98099,0
hopper-72,true,1.00,4570,523,4563,513,234190,0
hopper-73,true,1.00,4598,530,4586,521,228006,0
hopper-74,true,1.00,2776,442,2757,432,118013,0
hopper-75,true,1.00,3050,444,3040,432,151995,0
hopper-76,true,1.00,2705,485,2696,475,134628,0
hopper-77,true,1.00,1606,434,1594,424,77944,0
hopper-78,true,1.00,7115,620,7101,611,369581,0
hopper-79,true,1.00,3025,493,3018,479,152166,0
hopper-80,true,1.00,2152,474,2145,465,104818,0
hopper-81,false,0.38,4295,264,4290,264,196024,0
hopper-82,false,0.46,2987,259,2980,259,139468,0
hopper-83,true,1.00,2778,466,2768,456,139175,0
hopper-84,true,1.00,4475,516,4467,507,224830,0
hopper-85,true,1.00,2526,441,2518,427,124577,0
hopper-86,true,1.00,6141,602,6125,593,310027,0
hopper-87,true,1.00,3392,518,3384,508,165906,0
hopper-88,true,1.00,3402,468,3384,458,177851,0
hopper-89,true,1.00,2089,446,2079,438,103124,0
hopper-90,true,1.00,4433,510,4423,500,227696,0
hopper-91,true,1.00,5545,552,5532,538,289375,0
hopper-92,true,1.00,3271,492,3263,483,156341,0
hopper-93,true,1.00,2465,455,2458,446,123277,0
hopper-94,true,1.00,5696,589,5691,579,288613,0
hopper-95,true,1.00,2930,458,2924,448,136243,0
hopper-96,false,0.37,3095,245,3090,245,146172,0
hopper-97,true,1.00,2643,467,2632,457,124761,0
hopper-98,true,1.00,3677,493,3667,484,170552,0
hopper-99,true,1.00,5273,572,5262,563,261327,0
hopper-100,true,1.00,3867,524,3855,515,190713,0
