NDW:0.0
TTFW:0.6
DFPT:2.0
DFPAP:3.0
DFPMP:5.0
RIGHT_WINDOW_BORDER_X:15.0
level,win/fail,% travelled,run time,game ticks,planning time,total plannings,nodes evaluated,most backtracked nodes
ge-1,false,0.21,207,130,206,130,18263,0
ge-2,false,0.14,4,71,4,71,788,0
ge-3,false,0.40,7,168,6,168,1337,0
ge-4,false,0.11,672,134,672,134,63969,0
ge-5,false,0.43,7,166,7,166,1152,0
ge-6,false,0.17,4,85,4,85,788,0
ge-7,false,0.43,245,223,243,223,21479,0
ge-8,false,0.69,211,323,210,323,18907,0
ge-9,false,0.12,1,54,1,54,409,0
ge-10,false,0.41,9,199,8,199,1762,0
ge-11,false,0.14,3,80,3,80,727,0
ge-12,false,0.25,2,104,2,104,598,0
ge-13,false,0.38,210,224,209,224,18729,0
ge-14,false,0.22,238,144,236,144,19889,0
ge-15,false,0.37,242,187,239,187,22201,0
ge-16,false,0.08,2,44,1,44,386,0
ge-17,false,0.24,172,128,171,128,15531,0
ge-18,false,0.09,125,92,125,92,14574,0
ge-19,false,0.18,139,116,137,116,12537,0
ge-20,false,0.51,407,266,405,266,34807,0
ge-21,false,0.32,4,139,3,139,1005,0
ge-22,false,0.67,17,258,16,258,2316,0
ge-23,false,0.31,305,173,304,173,26201,0
ge-24,false,0.71,182,364,180,364,17552,0
ge-25,false,0.12,1,56,1,56,421,0
ge-26,false,0.49,251,252,250,252,24136,0
ge-27,true,1.00,14,433,12,431,2930,0
ge-28,false,0.36,407,211,405,211,35318,0
ge-29,false,0.37,146,206,144,206,13609,0
ge-30,false,0.09,135,95,135,95,15776,0
ge-31,false,0.21,406,133,404,133,35991,0
ge-32,false,0.78,15,325,12,325,2861,0
ge-33,false,0.62,150,276,147,276,14091,0
ge-34,false,0.12,197,91,196,91,18361,0
ge-35,false,0.17,774,188,773,188,61777,0
ge-36,false,0.08,3,50,3,50,557,0
ge-37,false,0.90,120,412,116,412,12224,0
ge-38,false,0.49,7,208,7,208,1571,0
ge-39,false,0.17,2,73,2,73,558,0
ge-40,true,1.00,8,373,7,371,1815,0
ge-41,false,0.50,340,238,339,238,30200,0
ge-42,false,0.17,2,72,1,72,475,0
ge-43,false,0.08,2,44,1,44,386,0
ge-44,false,0.33,480,210,480,210,40909,0
ge-45,false,0.20,207,149,206,149,19145,0
ge-46,false,0.13,1,57,1,57,420,0
ge-47,false,0.17,208,127,207,127,20695,0
ge-48,false,0.63,336,401,331,401,32573,0
ge-49,false,0.61,5,229,5,229,1066,0
ge-50,false,0.34,411,178,409,178,35782,0
ge-51,false,0.36,4,158,3,158,1177,0
ge-52,false,0.12,1,54,0,54,409,0
ge-53,false,0.22,1004,179,1002,179,83649,0
ge-54,false,0.52,11,228,11,228,2174,0
ge-55,false,0.58,15,269,13,269,2978,0
ge-56,false,0.12,129,105,127,105,12399,0
ge-57,false,0.06,1,30,1,30,322,0
ge-58,false,0.44,22,270,22,270,3815,0
ge-59,false,0.37,209,208,208,208,19722,0
ge-60,false,0.20,5,100,4,100,903,0
ge-61,false,0.20,3,94,3,94,773,0
ge-62,false,0.27,2,109,2,109,626,0
ge-63,false,0.20,2,83,2,83,511,0
ge-64,false,0.08,2,38,1,38,357,0
ge-65,false,0.38,846,262,846,262,77051,0
ge-66,false,0.24,2,95,1,95,565,0
ge-67,false,0.49,9,223,9,223,1647,0
ge-68,false,0.12,2,53,2,53,401,0
ge-69,false,0.06,2,30,2,30,333,0
ge-70,false,0.66,10,288,9,288,2154,0
ge-71,false,0.06,1,31,1,31,334,0
ge-72,false,0.56,7,230,3,230,1504,0
ge-73,false,0.14,237,94,236,94,20774,0
ge-74,false,0.23,10,110,10,110,1475,0
ge-75,false,0.17,2,74,2,74,483,0
ge-76,false,0.12,1,54,1,54,409,0
ge-77,false,0.11,199,90,199,90,19950,0
ge-78,false,0.56,409,291,408,291,36080,0
ge-79,false,0.30,3,117,3,117,636,0
ge-80,false,0.93,26,417,24,417,4713,0
ge-81,true,1.00,13,415,13,413,2886,0
ge-82,false,0.41,4,156,3,156,777,0
ge-83,false,0.08,2,50,2,50,557,0
ge-84,false,0.12,1,54,1,54,409,0
ge-85,false,0.40,5,166,5,166,966,0
ge-86,false,0.36,241,176,240,176,21203,0
ge-87,false,0.12,2,56,0,56,421,0
ge-88,false,0.17,435,127,434,127,38904,0
ge-89,false,0.21,5,105,5,105,1198,0
ge-90,false,0.80,9,302,8,302,1759,0
ge-91,false,0.87,349,422,346,422,31130,0
ge-92,false,0.79,15,351,12,351,3061,0
ge-93,false,0.40,143,203,140,203,12487,0
ge-94,false,0.27,312,204,312,204,28147,0
ge-95,true,1.00,27,451,24,449,4997,0
ge-96,false,0.25,253,234,253,234,25251,0
ge-97,false,0.51,4,192,3,192,928,0
ge-98,true,1.00,10,373,8,371,1942,0
ge-99,false,0.31,341,184,340,184,26648,0
ge-100,false,0.12,223,86,222,86,20698,0
