NDW:0.0
TTFW:1.0
DFPT:2.0
DFPAP:3.0
DFPMP:20.0
RIGHT_WINDOW_BORDER_X:75.0
level,win/fail,% travelled,run time,game ticks,planning time,total plannings,nodes evaluated,most backtracked nodes
patternCount-1,false,0.67,4087,647,4082,647,375053,0
patternCount-2,true,1.00,3172,849,3167,842,328035,0
patternCount-3,false,0.92,5016,831,5011,831,457486,0
patternCount-4,false,0.98,5319,731,5314,731,479363,0
patternCount-5,true,1.00,1989,670,1987,662,195139,0
patternCount-6,true,1.00,1722,618,1718,611,170086,0
patternCount-7,true,1.00,2537,716,2533,701,252546,0
patternCount-8,false,0.86,4858,720,4857,720,468631,0
patternCount-9,false,0.08,1437,151,1437,151,152449,0
patternCount-10,true,1.00,694,543,690,536,79324,0
patternCount-11,false,0.77,6969,735,6964,735,761355,0
patternCount-12,true,1.00,1613,724,1611,716,194823,0
patternCount-13,true,1.00,1328,647,1327,640,132299,0
patternCount-14,true,1.00,4124,805,4119,748,385639,0
patternCount-15,true,1.00,1849,612,1846,605,189793,0
patternCount-16,true,1.00,2174,658,2171,651,213070,0
patternCount-17,true,1.00,1866,549,1865,542,180323,0
patternCount-18,false,0.98,3730,640,3728,640,350712,0
patternCount-19,true,1.00,1275,620,1271,613,126785,0
patternCount-20,true,1.00,2802,667,2798,660,269521,0
patternCount-21,true,1.00,2677,712,2675,705,265863,0
patternCount-22,false,0.80,5495,759,5492,759,533883,0
patternCount-23,false,0.67,3316,456,3315,456,289395,0
patternCount-24,false,0.63,9099,816,9093,816,892214,0
patternCount-25,true,1.00,1530,562,1527,554,146446,0
patternCount-26,true,1.00,1135,589,1131,581,112340,0
patternCount-27,true,1.00,1925,631,1922,624,195251,0
patternCount-28,true,1.00,2870,748,2866,741,280199,0
patternCount-29,true,1.00,2136,707,2132,699,215340,0
patternCount-30,true,1.00,1594,653,1589,646,165226,0
patternCount-31,true,1.00,3516,748,3511,740,333616,0
patternCount-32,false,0.64,3620,999,3617,999,331969,0
patternCount-33,false,0.64,16612,999,16609,999,1447860,0
patternCount-34,true,1.00,6557,984,6552,976,619074,0
patternCount-35,true,1.00,1504,601,1500,593,150655,0
patternCount-36,true,1.00,5327,859,5319,815,470916,0
patternCount-37,true,1.00,2454,717,2449,710,231719,0
patternCount-38,true,1.00,7623,969,7620,962,717803,0
patternCount-39,true,1.00,1496,662,1493,653,151447,0
patternCount-40,false,0.65,4223,614,4221,614,432752,0
patternCount-41,false,0.61,2335,999,2329,999,240414,0
patternCount-42,true,1.00,1186,593,1177,585,124702,0
patternCount-43,true,1.00,2333,656,2326,648,235787,0
patternCount-44,true,1.00,1665,691,1662,684,172278,0
patternCount-45,true,1.00,3532,881,3524,874,337108,0
patternCount-46,true,1.00,3540,780,3534,773,349278,0
patternCount-47,true,1.00,5762,802,5756,794,555410,0
patternCount-48,true,1.00,2610,640,2609,633,292746,0
patternCount-49,true,1.00,3860,835,3856,827,360455,0
patternCount-50,false,0.89,8224,895,8216,895,825729,0
patternCount-51,true,1.00,2550,673,2545,665,264807,0
patternCount-52,true,1.00,1621,590,1617,582,159711,0
patternCount-53,false,0.77,7201,728,7195,728,660599,0
patternCount-54,true,1.00,4672,681,4671,674,483636,0
patternCount-55,false,0.55,3444,485,3439,485,338581,0
patternCount-56,true,1.00,3409,740,3406,733,346265,0
patternCount-57,true,1.00,1434,651,1430,644,142347,0
patternCount-58,false,0.80,3716,690,3713,690,384418,0
patternCount-59,true,1.00,2057,587,2054,580,203675,0
patternCount-60,true,1.00,2670,664,2668,657,248430,0
patternCount-61,true,1.00,2703,716,2695,709,253251,0
patternCount-62,true,1.00,3282,680,3280,669,321645,0
patternCount-63,true,1.00,1502,685,1499,677,168558,0
patternCount-64,true,1.00,1483,661,1479,653,171005,0
patternCount-65,true,1.00,1432,568,1428,561,145176,0
patternCount-66,true,1.00,3388,614,3381,607,334901,0
patternCount-67,true,1.00,7607,841,7603,816,669328,0
patternCount-68,true,1.00,1301,660,1298,653,136152,0
patternCount-69,true,1.00,1442,623,1435,616,154334,0
patternCount-70,true,1.00,1937,659,1935,652,228129,0
patternCount-71,true,1.00,3157,750,3150,737,338909,0
patternCount-72,false,0.66,6217,662,6216,662,616663,0
patternCount-73,true,1.00,4707,847,4704,840,434233,0
patternCount-74,false,0.57,4286,432,4285,432,404101,0
patternCount-75,true,1.00,3233,768,3231,750,315447,0
patternCount-76,true,1.00,1973,553,1973,546,197587,0
patternCount-77,true,1.00,2206,648,2202,641,214049,0
patternCount-78,true,1.00,2119,691,2117,684,238611,0
patternCount-79,false,0.75,4892,668,4889,668,489255,0
patternCount-80,false,0.64,3264,514,3259,514,325686,0
patternCount-81,true,1.00,1948,727,1942,720,198476,0
patternCount-82,true,1.00,2521,631,2521,624,267464,0
patternCount-83,true,1.00,1766,671,1763,663,172138,0
patternCount-84,true,1.00,1774,662,1769,654,181315,0
patternCount-85,true,1.00,2428,799,2423,792,253079,0
patternCount-86,true,1.00,1790,623,1788,616,187421,0
patternCount-87,true,1.00,2720,678,2717,671,277921,0
patternCount-88,true,1.00,4544,837,4537,830,505112,0
patternCount-89,true,1.00,2834,677,2829,670,276623,0
patternCount-90,true,1.00,1247,527,1245,520,132766,0
patternCount-91,true,1.00,4492,859,4482,852,423769,0
patternCount-92,true,1.00,1187,604,1183,596,122915,0
patternCount-93,false,0.57,3450,470,3446,470,343884,0
patternCount-94,true,1.00,3639,806,3637,799,367897,0
patternCount-95,true,1.00,6205,756,6197,749,585786,0
patternCount-96,true,1.00,3642,808,3636,801,336221,0
patternCount-97,true,1.00,2535,623,2531,616,239797,0
patternCount-98,true,1.00,2225,687,2220,680,230976,0
patternCount-99,true,1.00,2457,776,2453,769,260813,0
patternCount-100,true,1.00,2251,643,2242,636,218503,0
