NDW:0.0
TTFW:0.4
DFPT:2.0
DFPAP:3.0
DFPMP:20.0
RIGHT_WINDOW_BORDER_X:295.0
level,win/fail,% travelled,run time,game ticks,planning time,total plannings,nodes evaluated,most backtracked nodes
notch-1,true,1.00,840,255,838,228,69144,0
notch-2,true,1.00,1226,258,1223,231,94644,0
notch-3,true,1.00,872,243,870,216,71858,0
notch-4,true,1.00,806,235,801,206,66689,0
notch-5,true,1.00,690,234,690,208,57410,0
notch-6,true,1.00,640,247,639,219,51990,0
notch-7,true,1.00,570,249,569,222,45514,0
notch-8,true,1.00,908,275,908,247,70527,0
notch-9,true,1.00,971,250,971,223,79704,0
notch-10,true,1.00,824,247,824,220,68005,0
notch-11,true,1.00,1052,267,1052,240,86117,0
notch-12,true,1.00,695,239,693,212,53938,0
notch-13,true,1.00,651,241,648,207,51695,0
notch-14,true,1.00,768,237,767,208,63758,0
notch-15,true,1.00,627,227,625,200,50285,0
notch-16,true,1.00,959,245,958,218,78290,0
notch-17,true,1.00,796,245,794,218,62937,0
notch-18,true,1.00,1891,270,1890,238,127483,0
notch-19,true,1.00,860,229,859,202,72647,0
notch-20,true,1.00,906,252,905,226,69636,0
notch-21,true,1.00,685,246,684,220,57608,0
notch-22,true,1.00,593,233,589,206,48224,0
notch-23,true,1.00,1051,253,1048,221,86462,0
notch-24,true,1.00,664,251,660,224,53894,0
notch-25,true,1.00,915,253,914,227,74625,0
notch-26,true,1.00,815,236,814,209,63201,0
notch-27,true,1.00,1410,245,1409,218,102521,0
notch-28,true,1.00,1029,251,1028,220,78948,0
notch-29,true,1.00,1136,253,1134,226,86937,0
notch-30,true,1.00,791,243,790,209,64391,0
notch-31,true,1.00,753,243,752,214,58829,0
notch-32,true,1.00,897,258,896,229,69300,0
notch-33,true,1.00,620,227,620,200,50655,0
notch-34,true,1.00,745,251,741,224,59753,0
notch-35,true,1.00,739,244,739,217,58149,0
notch-36,true,1.00,973,257,970,230,78337,0
notch-37,true,1.00,1513,297,1510,258,120465,0
notch-38,true,1.00,933,249,931,216,75351,0
notch-39,true,1.00,783,238,782,211,63939,0
notch-40,true,1.00,867,239,865,211,71812,0
notch-41,true,1.00,989,240,988,213,80223,0
notch-42,true,1.00,943,244,941,218,74267,0
notch-43,true,1.00,707,232,705,205,56718,0
notch-44,true,1.00,691,233,687,206,55925,0
notch-45,true,1.00,678,240,678,213,55584,0
notch-46,true,1.00,1011,271,1009,244,79818,0
notch-47,true,1.00,962,261,960,234,78061,0
notch-48,true,1.00,1046,243,1046,216,87613,0
notch-49,true,1.00,1198,261,1197,225,83985,0
notch-50,true,1.00,1430,279,1427,250,99176,0
notch-51,true,1.00,827,240,825,213,63275,0
notch-52,true,1.00,657,234,654,207,53521,0
notch-53,true,1.00,418,257,414,220,29074,0
notch-54,true,1.00,1024,258,1023,230,82584,0
notch-55,true,1.00,1637,300,1636,273,123987,0
notch-56,true,1.00,625,254,625,225,51765,0
notch-57,true,1.00,846,244,846,216,65524,0
notch-58,true,1.00,1744,292,1742,265,126855,0
notch-59,true,1.00,758,247,755,221,60993,0
notch-60,true,1.00,860,245,860,219,70152,0
notch-61,true,1.00,1047,241,1044,212,84178,0
notch-62,true,1.00,735,242,735,215,56360,0
notch-63,true,1.00,915,250,912,223,70986,0
notch-64,true,1.00,822,234,820,206,67862,0
notch-65,true,1.00,1729,272,1728,236,132003,0
notch-66,true,1.00,1052,243,1051,216,82275,0
notch-67,true,1.00,726,229,725,203,58806,0
notch-68,true,1.00,611,234,608,208,49991,0
notch-69,true,1.00,1795,269,1793,240,135158,0
notch-70,true,1.00,898,249,896,223,72879,0
notch-71,true,1.00,950,226,948,199,78186,0
notch-72,true,1.00,676,245,675,216,55979,0
notch-73,true,1.00,786,243,783,216,59995,0
notch-74,true,1.00,539,231,537,204,42193,0
notch-75,true,1.00,1177,247,1177,218,93822,0
notch-76,true,1.00,1073,249,1072,223,85060,0
notch-77,true,1.00,812,235,812,208,63053,0
notch-78,true,1.00,1442,245,1442,219,114007,0
notch-79,true,1.00,1074,259,1074,231,82213,0
notch-80,true,1.00,416,222,414,195,33876,0
notch-81,true,1.00,961,234,961,207,79656,0
notch-82,true,1.00,971,252,970,225,74745,0
notch-83,true,1.00,1042,264,1041,233,82023,0
notch-84,true,1.00,491,233,489,204,38929,0
notch-85,true,1.00,613,241,610,209,47681,0
notch-86,true,1.00,827,237,825,210,66868,0
notch-87,true,1.00,908,245,907,213,75954,0
notch-88,true,1.00,1229,258,1228,229,96301,0
notch-89,true,1.00,1024,247,1022,221,81253,0
notch-90,true,1.00,1048,247,1046,220,83647,0
notch-91,true,1.00,1251,260,1250,233,98542,0
notch-92,true,1.00,790,249,789,220,65722,0
notch-93,true,1.00,778,250,777,223,61384,0
notch-94,true,1.00,1665,263,1664,234,130605,0
notch-95,true,1.00,571,230,569,202,45891,0
notch-96,true,1.00,654,236,653,209,55333,0
notch-97,true,1.00,872,243,871,216,68434,0
notch-98,true,1.00,1173,259,1171,227,90628,0
notch-99,true,1.00,1026,247,1026,219,81843,0
notch-100,true,1.00,710,243,709,216,58810,0
