NDW:0.0
TTFW:0.6
DFPT:2.0
DFPAP:3.0
DFPMP:3.0
RIGHT_WINDOW_BORDER_X:15.0
level,win/fail,% travelled,run time,game ticks,planning time,total plannings,nodes evaluated,most backtracked nodes
patternWeightCount-1,false,0.04,454,138,454,138,76973,0
patternWeightCount-2,false,0.54,2181,1005,2178,1005,233123,0
patternWeightCount-3,false,0.04,138,95,138,95,24791,0
patternWeightCount-4,false,0.44,5862,999,5855,999,576834,0
patternWeightCount-5,false,0.05,96,112,96,112,14157,0
patternWeightCount-6,false,0.31,1602,649,1597,649,160088,0
patternWeightCount-7,false,0.44,3661,984,3653,984,343805,0
patternWeightCount-8,false,0.30,645,481,641,481,70415,0
patternWeightCount-9,false,0.08,365,279,362,279,46107,0
patternWeightCount-10,false,0.00,566,999,557,999,195299,0
patternWeightCount-11,false,0.43,2130,754,2125,754,253663,0
patternWeightCount-12,false,0.06,149,122,149,122,18881,0
patternWeightCount-13,false,0.00,1,21,0,21,342,0
patternWeightCount-14,false,0.11,1071,325,1069,325,108721,0
patternWeightCount-15,false,0.13,20636,999,20635,999,2005645,0
patternWeightCount-16,false,0.11,1113,187,1112,187,96542,0
patternWeightCount-17,false,0.06,309,136,309,136,45612,0
patternWeightCount-18,false,0.00,1,21,1,21,342,0
patternWeightCount-19,false,0.33,1712,563,1710,563,164964,0
patternWeightCount-20,false,0.01,3152,999,3149,999,730367,0
patternWeightCount-21,false,0.58,1586,1008,1578,1008,162332,0
patternWeightCount-22,false,0.31,3165,827,3162,827,347237,0
patternWeightCount-23,false,0.07,404,128,403,128,41817,0
patternWeightCount-24,false,0.08,537,167,535,167,61944,0
patternWeightCount-25,false,0.06,294,99,293,99,34063,0
patternWeightCount-26,false,0.19,1145,367,1142,367,118482,0
patternWeightCount-27,false,0.07,268,131,268,131,34374,0
patternWeightCount-28,false,0.05,255,155,255,155,35808,0
patternWeightCount-29,false,0.00,1,21,1,21,342,0
patternWeightCount-30,false,0.02,72,149,72,149,13926,0
patternWeightCount-31,false,0.03,70,96,70,96,13840,0
patternWeightCount-32,false,0.27,874,508,870,508,86200,0
patternWeightCount-33,false,0.06,706,287,704,287,118504,0
patternWeightCount-34,false,0.02,79,80,79,80,18555,0
patternWeightCount-35,false,0.04,22,95,22,95,4538,0
patternWeightCount-36,false,0.01,24,56,23,56,7813,0
patternWeightCount-37,false,0.52,2975,999,2965,999,298751,0
patternWeightCount-38,false,0.10,728,224,727,224,76896,0
patternWeightCount-39,false,0.03,64,63,64,63,12059,0
patternWeightCount-40,false,0.56,1642,999,1641,999,186626,0
patternWeightCount-41,false,0.02,5736,999,5731,999,1144136,0
patternWeightCount-42,false,0.25,1249,548,1245,548,133014,0
patternWeightCount-43,false,0.05,177,125,176,125,25926,0
patternWeightCount-44,false,0.00,1,21,0,21,342,0
patternWeightCount-45,false,0.18,538,365,535,365,53672,0
patternWeightCount-46,false,0.26,3443,600,3443,600,321910,0
patternWeightCount-47,false,0.18,148,193,148,193,14805,0
patternWeightCount-48,false,0.08,278,168,278,168,26495,0
patternWeightCount-49,false,0.14,523,250,521,250,48593,0
patternWeightCount-50,false,0.00,1,21,1,21,342,0
patternWeightCount-51,false,0.17,1724,299,1723,299,168088,0
patternWeightCount-52,false,0.03,48,72,48,72,9963,0
patternWeightCount-53,false,0.01,24,56,23,56,7813,0
patternWeightCount-54,false,0.02,85,86,85,86,17441,0
patternWeightCount-55,false,0.12,554,177,553,177,49060,0
patternWeightCount-56,false,0.04,483,168,483,168,73349,0
patternWeightCount-57,false,0.00,1,21,1,21,342,0
patternWeightCount-58,false,0.36,2017,663,2015,663,193484,0
patternWeightCount-59,false,0.36,1892,725,1886,725,214847,0
patternWeightCount-60,false,0.02,48,91,45,91,13247,0
patternWeightCount-61,false,0.01,24,56,23,56,7813,0
patternWeightCount-62,false,0.04,263,120,263,120,37554,0
patternWeightCount-63,false,0.03,335,138,334,138,58486,0
patternWeightCount-64,false,0.03,83,91,82,91,18173,0
patternWeightCount-65,false,0.24,2186,502,2180,502,207168,0
patternWeightCount-66,false,0.03,167,112,166,112,28127,0
patternWeightCount-67,false,0.18,721,279,721,279,72450,0
patternWeightCount-68,false,0.11,1544,359,1541,359,169362,0
patternWeightCount-69,false,0.62,2447,1008,2442,1008,245362,0
patternWeightCount-70,false,0.04,65,92,64,92,11701,0
patternWeightCount-71,false,0.23,805,353,804,353,85452,0
patternWeightCount-72,false,0.07,359,204,359,204,45733,0
patternWeightCount-73,false,0.08,1117,195,1117,195,134598,0
patternWeightCount-74,false,0.04,173,130,169,130,30133,0
patternWeightCount-75,false,0.20,723,449,720,449,79502,0
patternWeightCount-76,false,0.07,335,128,335,128,34886,0
patternWeightCount-77,false,0.07,177,110,177,110,19742,0
patternWeightCount-78,false,0.02,32,76,32,76,7222,0
patternWeightCount-79,false,0.09,3249,266,3247,266,315823,0
patternWeightCount-80,false,0.20,1558,449,1556,449,165813,0
patternWeightCount-81,false,0.04,108,113,108,113,18351,0
patternWeightCount-82,false,0.63,1066,970,1058,970,120245,0
patternWeightCount-83,false,0.04,81,74,81,74,13492,0
patternWeightCount-84,false,0.40,1801,787,1798,787,190607,0
patternWeightCount-85,false,0.24,902,373,899,373,95091,0
patternWeightCount-86,false,0.23,204,377,202,377,31860,0
patternWeightCount-87,false,0.15,810,276,808,276,76965,0
patternWeightCount-88,false,0.08,332,166,332,166,38885,0
patternWeightCount-89,false,0.45,3570,855,3565,855,350867,0
patternWeightCount-90,false,0.22,1283,468,1281,468,142235,0
patternWeightCount-91,false,0.00,1,21,1,21,342,0
patternWeightCount-92,false,0.21,813,347,810,347,90497,0
patternWeightCount-93,false,0.03,309,132,308,132,53325,0
patternWeightCount-94,false,0.03,52,93,52,93,11570,0
patternWeightCount-95,false,0.03,204,118,204,118,38131,0
patternWeightCount-96,false,0.39,2654,866,2649,866,296696,0
patternWeightCount-97,false,0.14,835,277,833,277,91384,0
patternWeightCount-98,false,0.16,329,258,327,258,38029,0
patternWeightCount-99,false,0.08,276,151,276,151,31391,0
patternWeightCount-100,false,0.05,199,114,199,114,28798,0
