NDW:0.0
TTFW:1.0
DFPT:2.0
DFPAP:3.0
DFPMP:5.0
RIGHT_WINDOW_BORDER_X:255.0
level,win/fail,% travelled,run time,game ticks,planning time,total plannings,nodes evaluated,most backtracked nodes
ore-1,true,1.00,1490,391,1482,366,85366,0
ore-2,false,0.70,1966,285,1963,285,106157,0
ore-3,true,1.00,1843,432,1831,405,111536,0
ore-4,true,1.00,2080,433,2070,410,116402,0
ore-5,true,1.00,1686,399,1675,370,99756,0
ore-6,true,1.00,1777,483,1768,445,102222,0
ore-7,true,1.00,1747,413,1736,382,101120,0
ore-8,true,1.00,2777,364,2769,329,159009,0
ore-9,true,1.00,1303,384,1295,353,77041,0
ore-10,true,1.00,2007,453,2002,418,118454,0
ore-11,true,1.00,1405,449,1398,412,79675,0
ore-12,false,0.46,1501,221,1498,221,79753,0
ore-13,true,1.00,1897,462,1884,420,109281,0
ore-14,true,1.00,1936,493,1928,451,112126,0
ore-15,true,1.00,1965,400,1957,377,113572,0
ore-16,true,1.00,1595,410,1583,383,93460,0
ore-17,true,1.00,1769,512,1756,467,101990,0
ore-18,true,1.00,1438,444,1429,409,82997,0
ore-19,true,1.00,1323,399,1317,376,77611,0
ore-20,true,1.00,2272,459,2266,427,133500,0
ore-21,true,1.00,2212,453,2197,430,126124,0
ore-22,false,0.62,1976,279,1969,279,104083,0
ore-23,true,1.00,1442,380,1436,356,83813,0
ore-24,true,1.00,1558,429,1553,394,90802,0
ore-25,true,1.00,1591,441,1576,409,94413,0
ore-26,true,1.00,1940,403,1931,375,108737,0
ore-27,false,0.24,1911,116,1909,116,91009,0
ore-28,true,1.00,1801,474,1790,445,94417,0
ore-29,false,0.48,2042,224,2035,224,97750,0
ore-30,true,1.00,1399,429,1385,393,78012,0
ore-31,true,1.00,1724,461,1706,422,99445,0
ore-32,true,1.00,1788,419,1779,386,97894,0
ore-33,true,1.00,1617,406,1605,373,87534,0
ore-34,true,1.00,1863,460,1852,435,103666,0
ore-35,true,1.00,2054,384,2052,359,122021,0
ore-36,true,1.00,1400,427,1389,387,83205,0
ore-37,false,0.34,1327,142,1326,142,66701,0
ore-38,true,1.00,1355,433,1342,396,76549,0
ore-39,true,1.00,2086,410,2077,385,123069,0
ore-40,true,1.00,1845,412,1834,387,104114,0
ore-41,true,1.00,1713,413,1700,375,101766,0
ore-42,true,1.00,2157,478,2142,447,124867,0
ore-43,true,1.00,2650,436,2640,413,147518,0
ore-44,true,1.00,2195,403,2184,366,129203,0
ore-45,false,0.74,24249,999,24242,999,888759,0
ore-46,false,0.12,828,53,828,53,41632,0
ore-47,false,0.85,2258,404,2253,404,118837,0
ore-48,true,1.00,2265,455,2253,432,123770,0
ore-49,true,1.00,1551,406,1541,377,88024,0
ore-50,true,1.00,1926,382,1914,357,106493,0
ore-51,true,1.00,2358,411,2346,377,126896,0
ore-52,true,1.00,1847,426,1837,389,102973,0
ore-53,true,1.00,1866,412,1845,384,100333,0
ore-54,false,0.72,2438,324,2432,324,122393,0
ore-55,true,1.00,1946,419,1932,385,69788,0
ore-56,true,1.00,1534,386,1524,363,87522,0
ore-57,true,1.00,1710,399,1699,368,98637,0
ore-58,true,1.00,1578,366,1566,343,88367,0
ore-59,true,1.00,1904,443,1897,416,105569,0
ore-60,true,1.00,2241,363,2226,334,123649,0
ore-61,true,1.00,1411,389,1401,359,78642,0
ore-62,true,1.00,1677,423,1661,399,95952,0
ore-63,true,1.00,2274,421,2263,398,126635,0
ore-64,true,1.00,1472,407,1460,383,82139,0
ore-65,true,1.00,1962,426,1950,395,112276,0
ore-66,true,1.00,1882,455,1872,418,107769,0
ore-67,true,1.00,2152,418,2144,395,119010,0
ore-68,true,1.00,1162,398,1145,374,62548,0
ore-69,true,1.00,2863,489,2855,463,147176,0
ore-70,false,0.95,3305,441,3289,441,178472,0
ore-71,true,1.00,1402,397,1397,373,79072,0
ore-72,true,1.00,1367,409,1358,372,77477,0
ore-73,true,1.00,1822,435,1811,403,103044,0
ore-74,true,1.00,2360,425,2353,400,120400,0
ore-75,true,1.00,1680,455,1671,431,94246,0
ore-76,true,1.00,1361,354,1353,331,79002,0
ore-77,true,1.00,1380,417,1369,387,77919,0
ore-78,true,1.00,1685,409,1674,386,94530,0
ore-79,true,1.00,1551,394,1546,371,88044,0
ore-80,true,1.00,1868,392,1859,368,106481,0
ore-81,true,1.00,1959,417,1949,391,109096,0
ore-82,true,1.00,1618,391,1608,361,92348,0
ore-83,true,1.00,1472,409,1461,386,84174,0
ore-84,true,1.00,3592,448,3581,424,179231,0
ore-85,true,1.00,1423,404,1415,372,80412,0
ore-86,true,1.00,2045,457,2035,428,117000,0
ore-87,true,1.00,1295,417,1289,394,71698,0
ore-88,true,1.00,2240,426,2231,401,131211,0
ore-89,true,1.00,2284,413,2274,390,127272,0
ore-90,true,1.00,2338,451,2329,428,134227,0
ore-91,true,1.00,1831,443,1820,418,105379,0
ore-92,true,1.00,2086,424,2078,398,119118,0
ore-93,false,0.14,1456,76,1454,76,68623,0
ore-94,true,1.00,1846,430,1839,394,105413,0
ore-95,true,1.00,1973,447,1956,407,105049,0
ore-96,true,1.00,2495,474,2488,450,138414,0
ore-97,true,1.00,2304,452,2291,419,126062,0
ore-98,true,1.00,2233,460,2224,435,126475,0
ore-99,true,1.00,2012,468,2001,437,110050,0
ore-100,true,1.00,1518,437,1508,402,85347,0
