NDW:0.0
TTFW:1.4
DFPT:2.0
DFPAP:3.0
DFPMP:0.0
RIGHT_WINDOW_BORDER_X:350.0
level,win/fail,% travelled,run time,game ticks,planning time,total plannings,nodes evaluated,most backtracked nodes
ge-1,true,1.00,655,256,650,204,33213,0
ge-2,true,1.00,446,231,440,199,23235,0
ge-3,true,1.00,250,219,247,187,11419,0
ge-4,true,1.00,1397,262,1388,228,76674,0
ge-5,true,1.00,83,199,74,167,2818,0
ge-6,true,1.00,508,239,505,207,25084,0
ge-7,true,1.00,200,228,195,177,8798,0
ge-8,true,1.00,234,217,225,185,11068,0
ge-9,true,1.00,447,226,444,185,24356,0
ge-10,true,1.00,117,199,111,167,2653,0
ge-11,true,1.00,251,217,245,185,10156,0
ge-12,true,1.00,81,199,79,167,2611,0
ge-13,true,1.00,800,238,793,206,42660,0
ge-14,true,1.00,273,234,263,191,12854,0
ge-15,true,1.00,1002,219,995,187,56552,0
ge-16,true,1.00,304,261,295,229,12051,0
ge-17,true,1.00,323,207,319,175,17033,0
ge-18,true,1.00,352,267,345,235,15647,0
ge-19,true,1.00,1096,267,1086,235,61845,0
ge-20,true,1.00,447,223,441,191,23989,0
ge-21,true,1.00,255,201,248,169,12555,0
ge-22,true,1.00,334,203,327,171,17151,0
ge-23,true,1.00,632,208,628,172,34348,0
ge-24,true,1.00,505,227,497,190,27441,0
ge-25,true,1.00,382,201,378,169,20379,0
ge-26,true,1.00,221,203,218,171,11253,0
ge-27,true,1.00,107,213,101,181,3923,0
ge-28,true,1.00,533,205,525,173,28645,0
ge-29,true,1.00,222,220,214,167,10999,0
ge-30,true,1.00,782,250,776,200,42607,0
ge-31,true,1.00,671,220,662,188,36775,0
ge-32,true,1.00,293,225,282,192,10480,0
ge-33,true,1.00,220,246,212,202,8123,0
ge-34,true,1.00,645,207,636,175,35449,0
ge-35,true,1.00,580,264,573,231,26467,0
ge-36,true,1.00,783,240,772,200,42536,0
ge-37,true,1.00,246,199,238,167,12931,0
ge-38,true,1.00,635,245,627,213,31589,0
ge-39,true,1.00,433,226,424,191,22012,0
ge-40,true,1.00,80,199,74,167,2710,0
ge-41,true,1.00,219,208,213,173,11259,0
ge-42,true,1.00,888,268,884,235,46957,0
ge-43,true,1.00,357,240,349,188,17890,0
ge-44,true,1.00,525,212,521,181,28860,0
ge-45,true,1.00,1005,220,1001,188,54759,0
ge-46,true,1.00,961,236,954,204,52232,0
ge-47,true,1.00,736,228,733,196,40482,0
ge-48,true,1.00,405,221,400,189,20149,0
ge-49,true,1.00,184,199,180,167,9048,0
ge-50,true,1.00,534,212,530,180,29353,0
ge-51,true,1.00,201,231,195,199,8887,0
ge-52,true,1.00,420,267,412,232,18431,0
ge-53,true,1.00,334,226,331,194,17050,0
ge-54,true,1.00,364,249,360,214,17894,0
ge-55,true,1.00,412,243,407,211,20356,0
ge-56,true,1.00,393,249,389,179,20193,0
ge-57,true,1.00,539,217,535,180,29881,0
ge-58,true,1.00,337,277,332,218,14733,0
ge-59,true,1.00,795,217,791,185,45736,0
ge-60,true,1.00,552,201,546,169,30319,0
ge-61,true,1.00,256,203,250,171,13457,0
ge-62,true,1.00,516,213,512,181,28179,0
ge-63,true,1.00,805,226,798,188,45518,0
ge-64,false,1.00,284,244,281,191,13351,0
ge-65,true,1.00,639,239,633,207,35369,0
ge-66,true,1.00,695,224,690,181,38945,0
ge-67,true,1.00,331,249,326,217,15381,0
ge-68,true,1.00,257,225,256,193,11079,0
ge-69,true,1.00,190,199,184,167,9035,0
ge-70,true,1.00,385,204,378,171,20504,0
ge-71,true,1.00,874,241,870,209,48063,0
ge-72,true,1.00,330,253,325,221,13998,0
ge-73,true,1.00,293,209,289,177,15512,0
ge-74,true,1.00,770,235,766,203,41531,0
ge-75,true,1.00,269,245,266,189,13890,0
ge-76,true,1.00,777,219,770,186,43472,0
ge-77,true,1.00,818,228,812,196,45881,0
ge-78,true,1.00,708,236,705,204,38216,0
ge-79,true,1.00,228,222,223,190,10864,0
ge-80,true,1.00,132,224,128,167,4556,0
ge-81,true,1.00,152,216,146,184,5583,0
ge-82,true,1.00,154,242,147,187,5734,0
ge-83,false,1.00,228,254,225,192,10139,0
ge-84,true,1.00,380,209,374,177,19735,0
ge-85,true,1.00,328,209,324,177,17022,0
ge-86,true,1.00,697,206,694,169,39594,0
ge-87,true,1.00,606,221,598,189,33029,0
ge-88,true,1.00,570,260,562,182,29714,0
ge-89,true,1.00,338,261,326,224,13783,0
ge-90,true,1.00,82,199,77,167,2848,0
ge-91,true,1.00,281,199,276,167,14630,0
ge-92,true,1.00,91,205,79,173,3282,0
ge-93,true,1.00,580,227,576,181,32284,0
ge-94,true,1.00,442,206,435,168,23186,0
ge-95,true,1.00,252,261,244,212,9943,0
ge-96,true,1.00,1048,238,1040,195,58200,0
ge-97,true,1.00,395,217,386,184,20141,0
ge-98,true,1.00,78,199,73,167,2577,0
ge-99,true,1.00,178,199,175,167,8131,0
ge-100,true,1.00,96,205,93,173,3390,0
