NDW:0.0
TTFW:0.8
DFPT:2.0
DFPAP:3.0
DFPMP:7.0
RIGHT_WINDOW_BORDER_X:75.0
level,win/fail,% travelled,run time,game ticks,planning time,total plannings,nodes evaluated,most backtracked nodes
ore-1,false,0.78,4175,554,4162,554,243031,0
ore-2,false,0.69,7483,597,7476,597,413325,0
ore-3,true,1.00,3269,591,3259,584,190000,0
ore-4,true,1.00,4663,596,4649,588,270120,0
ore-5,true,1.00,6925,719,6912,711,399139,0
ore-6,true,1.00,7351,707,7332,699,425803,0
ore-7,true,1.00,3135,541,3120,534,180531,0
ore-8,false,0.59,4501,478,4490,478,245068,0
ore-9,false,0.57,4610,463,4597,463,269897,0
ore-10,false,0.66,1984,385,1974,385,122384,0
ore-11,true,1.00,5482,765,5467,758,318596,0
ore-12,true,1.00,5776,748,5761,741,339312,0
ore-13,true,1.00,8210,868,8196,858,455505,0
ore-14,true,1.00,7688,822,7672,814,459602,0
ore-15,true,1.00,7596,704,7585,697,417344,0
ore-16,true,1.00,2747,509,2731,502,161614,0
ore-17,false,0.45,3697,379,3687,379,217207,0
ore-18,true,1.00,4678,654,4661,645,278100,0
ore-19,true,1.00,6229,743,6216,734,369837,0
ore-20,false,0.38,1722,260,1715,260,102756,0
ore-21,true,1.00,5935,682,5916,674,362003,0
ore-22,false,0.58,4813,445,4805,445,275500,0
ore-23,true,1.00,4450,619,4426,611,268853,0
ore-24,true,1.00,6530,739,6515,732,385931,0
ore-25,true,1.00,8482,809,8471,801,504228,0
ore-26,true,1.00,5727,705,5718,698,332444,0
ore-27,false,0.62,2955,518,2951,518,175313,0
ore-28,true,1.00,3221,580,3203,572,185348,0
ore-29,true,1.00,3526,595,3514,588,200414,0
ore-30,true,1.00,5487,612,5474,605,309695,0
ore-31,true,1.00,6621,735,6604,727,393939,0
ore-32,true,1.00,5754,689,5737,682,343080,0
ore-33,true,1.00,3611,601,3599,594,214921,0
ore-34,true,1.00,5580,733,5566,726,326935,0
ore-35,true,1.00,4950,641,4936,634,298167,0
ore-36,true,1.00,3548,594,3531,579,205319,0
ore-37,false,0.34,3818,353,3814,353,200325,0
ore-38,true,1.00,7172,754,7154,745,422081,0
ore-39,true,1.00,9131,859,9118,851,545731,0
ore-40,false,0.89,4106,596,4102,596,247203,0
ore-41,true,1.00,7038,776,7027,769,411447,0
ore-42,false,0.28,1442,199,1437,199,80379,0
ore-43,true,1.00,4358,627,4348,620,258243,0
ore-44,false,0.33,26311,999,26305,999,1450704,0
ore-45,false,0.74,19665,999,19658,999,837038,0
ore-46,false,0.12,3056,160,3055,160,170396,0
ore-47,true,1.00,5214,797,5190,790,310170,0
ore-48,true,1.00,4635,630,4626,622,276878,0
ore-49,false,0.14,1759,181,1758,181,103218,0
ore-50,false,0.67,4128,486,4121,486,248840,0
ore-51,true,1.00,4239,682,4223,675,259401,0
ore-52,true,1.00,6279,745,6264,738,370986,0
ore-53,true,1.00,5904,686,5888,679,328770,0
ore-54,false,0.71,7068,608,7058,608,380859,0
ore-55,true,1.00,3456,553,3448,546,199427,0
ore-56,true,1.00,4295,644,4281,637,245905,0
ore-57,true,1.00,5141,651,5128,644,305023,0
ore-58,false,0.75,5982,562,5973,562,340894,0
ore-59,true,1.00,4796,649,4780,642,281772,0
ore-60,true,1.00,4962,684,4949,677,283103,0
ore-61,true,1.00,4471,626,4462,618,256180,0
ore-62,true,1.00,5155,614,5141,607,297447,0
ore-63,true,1.00,7168,782,7153,774,399979,0
ore-64,true,1.00,4735,650,4719,642,272185,0
ore-65,true,1.00,6822,742,6808,734,391197,0
ore-66,true,1.00,6668,806,6654,796,386768,0
ore-67,true,1.00,3971,621,3961,613,220307,0
ore-68,true,1.00,2459,523,2451,516,142426,0
ore-69,true,1.00,5789,695,5775,688,335863,0
ore-70,false,0.92,7542,802,7526,802,426284,0
ore-71,true,1.00,5682,698,5671,691,280572,0
ore-72,false,0.40,2316,321,2313,321,111609,0
ore-73,true,1.00,4757,612,4746,604,286054,0
ore-74,true,1.00,4428,706,4412,692,252233,0
ore-75,true,1.00,3062,586,3047,579,165019,0
ore-76,true,1.00,5715,731,5703,723,325100,0
ore-77,true,1.00,5267,621,5252,614,300053,0
ore-78,true,1.00,7758,843,7745,836,438776,0
ore-79,true,1.00,7735,755,7720,748,446046,0
ore-80,true,1.00,6980,724,6963,715,409413,0
ore-81,false,0.36,1310,220,1303,220,81849,0
ore-82,true,1.00,5017,666,4998,659,295892,0
ore-83,false,0.53,1940,315,1932,315,115490,0
ore-84,false,0.12,3195,147,3193,147,156293,0
ore-85,true,1.00,5592,705,5581,698,326370,0
ore-86,true,1.00,4757,615,4749,607,292746,0
ore-87,true,1.00,4802,620,4793,613,283060,0
ore-88,true,1.00,4576,662,4564,654,277068,0
ore-89,true,1.00,5056,635,5045,628,297410,0
ore-90,true,1.00,3907,656,3891,649,236345,0
ore-91,true,1.00,4727,617,4714,610,285460,0
ore-92,true,1.00,5289,623,5280,616,309991,0
ore-93,false,0.13,3005,178,3004,178,156781,0
ore-94,true,1.00,2731,546,2714,539,158775,0
ore-95,false,0.71,7304,656,7294,656,430210,0
ore-96,true,1.00,4498,690,4480,682,275076,0
ore-97,true,1.00,7342,845,7318,838,437359,0
ore-98,true,1.00,4122,618,4105,611,247945,0
ore-99,true,1.00,7387,820,7376,810,430520,0
ore-100,true,1.00,4759,632,4750,625,287844,0
