NDW:0.0
TTFW:1.8
DFPT:2.0
DFPAP:3.0
DFPMP:20.0
RIGHT_WINDOW_BORDER_X:235.0
level,win/fail,% travelled,run time,game ticks,planning time,total plannings,nodes evaluated,most backtracked nodes
notch-1,true,1.00,800,283,800,261,93248,0
notch-2,true,1.00,902,273,899,252,114644,0
notch-3,true,1.00,807,263,806,242,93841,0
notch-4,true,1.00,1038,263,1035,242,119704,0
notch-5,true,1.00,618,258,617,231,72264,0
notch-6,true,1.00,737,299,733,277,88100,0
notch-7,true,1.00,491,294,489,272,62667,0
notch-8,true,1.00,550,286,550,249,66538,0
notch-9,true,1.00,1028,274,1025,253,121976,0
notch-10,true,1.00,874,287,870,266,106330,0
notch-11,true,1.00,1102,270,1101,249,130330,0
notch-12,true,1.00,541,264,540,243,62647,0
notch-13,true,1.00,620,261,620,240,77655,0
notch-14,true,1.00,883,264,883,241,101158,0
notch-15,true,1.00,789,265,787,244,89807,0
notch-16,true,1.00,1006,278,1005,238,126701,0
notch-17,true,1.00,822,267,822,243,97059,0
notch-18,true,1.00,1139,334,1137,309,143043,0
notch-19,true,1.00,944,257,941,229,113597,0
notch-20,true,1.00,803,274,801,253,96997,0
notch-21,true,1.00,777,306,777,285,95398,0
notch-22,true,1.00,581,254,580,233,65298,0
notch-23,true,1.00,977,262,976,237,115635,0
notch-24,true,1.00,615,282,614,261,73076,0
notch-25,true,1.00,919,296,918,275,110313,0
notch-26,true,1.00,795,266,792,245,91354,0
notch-27,true,1.00,1673,287,1670,265,209170,0
notch-28,true,1.00,619,251,618,227,75522,0
notch-29,true,1.00,1011,262,1010,241,119018,0
notch-30,true,1.00,855,248,854,217,97788,0
notch-31,true,1.00,654,271,654,249,76355,0
notch-32,true,1.00,576,268,573,246,69118,0
notch-33,true,1.00,775,246,774,217,90300,0
notch-34,true,1.00,824,259,822,238,102601,0
notch-35,true,1.00,600,280,599,259,71237,0
notch-36,true,1.00,1176,284,1171,263,138514,0
notch-37,true,1.00,1499,278,1496,248,183402,0
notch-38,true,1.00,932,292,931,263,109309,0
notch-39,true,1.00,619,230,618,208,71510,0
notch-40,true,1.00,997,275,997,245,121563,0
notch-41,true,1.00,925,268,922,247,110334,0
notch-42,true,1.00,859,250,857,228,101792,0
notch-43,true,1.00,704,252,704,231,83347,0
notch-44,true,1.00,912,258,911,222,106930,0
notch-45,true,1.00,764,244,762,223,90311,0
notch-46,true,1.00,696,259,694,238,82702,0
notch-47,true,1.00,1255,283,1254,261,152878,0
notch-48,true,1.00,988,259,987,237,120542,0
notch-49,true,1.00,915,280,914,252,112534,0
notch-50,true,1.00,936,298,933,273,110477,0
notch-51,true,1.00,692,261,691,240,83536,0
notch-52,true,1.00,650,270,648,248,77498,0
notch-53,true,1.00,299,278,298,244,32036,0
notch-54,true,1.00,1180,312,1177,284,146214,0
notch-55,true,1.00,1163,290,1162,268,140571,0
notch-56,true,1.00,717,279,714,258,84475,0
notch-57,true,1.00,794,289,793,267,89967,0
notch-58,true,1.00,1192,306,1189,279,145825,0
notch-59,true,1.00,1014,287,1013,266,118283,0
notch-60,true,1.00,937,275,936,254,108142,0
notch-61,true,1.00,757,250,755,229,89693,0
notch-62,true,1.00,986,285,986,264,119698,0
notch-63,true,1.00,814,292,814,271,92449,0
notch-64,true,1.00,992,268,991,246,114982,0
notch-65,true,1.00,1275,315,1274,291,160775,0
notch-66,true,1.00,1551,301,1550,277,183184,0
notch-67,true,1.00,848,253,846,232,94389,0
notch-68,true,1.00,487,254,487,233,57132,0
notch-69,true,1.00,1268,296,1265,275,155742,0
notch-70,true,1.00,992,302,989,269,122197,0
notch-71,true,1.00,1101,249,1097,228,130064,0
notch-72,true,1.00,660,247,656,226,79340,0
notch-73,true,1.00,792,294,791,272,95884,0
notch-74,true,1.00,583,273,583,251,71662,0
notch-75,true,1.00,1218,294,1218,264,148507,0
notch-76,true,1.00,805,290,803,260,98373,0
notch-77,true,1.00,573,251,571,230,68603,0
notch-78,true,1.00,787,268,785,247,94376,0
notch-79,true,1.00,1151,282,1148,256,135854,0
notch-80,true,1.00,445,235,444,210,51619,0
notch-81,true,1.00,1019,243,1017,222,121284,0
notch-82,true,1.00,787,276,786,255,92262,0
notch-83,true,1.00,1042,306,1042,267,122573,0
notch-84,true,1.00,615,248,613,227,69867,0
notch-85,true,1.00,580,272,578,242,69878,0
notch-86,true,1.00,681,247,681,226,80826,0
notch-87,true,1.00,753,253,752,232,88646,0
notch-88,true,1.00,1123,298,1122,276,139666,0
notch-89,true,1.00,937,297,935,275,113376,0
notch-90,true,1.00,1257,274,1254,253,151841,0
notch-91,true,1.00,1276,274,1276,253,149914,0
notch-92,true,1.00,1042,258,1041,237,124515,0
notch-93,true,1.00,652,280,650,257,75831,0
notch-94,true,1.00,1451,299,1448,273,169054,0
notch-95,true,1.00,602,261,602,239,69760,0
notch-96,true,1.00,584,268,584,246,69294,0
notch-97,true,1.00,880,294,877,272,105507,0
notch-98,true,1.00,1730,283,1730,260,202694,0
notch-99,true,1.00,1016,292,1014,253,127747,0
notch-100,true,1.00,660,280,659,250,81486,0
