NDW:0.0
TTFW:1.0
DFPT:2.0
DFPAP:3.0
DFPMP:0.0
RIGHT_WINDOW_BORDER_X:400.0
level,win/fail,% travelled,run time,game ticks,planning time,total plannings,nodes evaluated,most backtracked nodes
patternCount-1,false,0.88,5356,412,5343,412,257710,0
patternCount-2,true,1.00,1475,411,1464,375,74516,0
patternCount-3,true,1.00,3533,462,3526,410,168474,0
patternCount-4,true,1.00,1218,402,1209,358,62395,0
patternCount-5,true,1.00,1213,438,1205,388,61822,0
patternCount-6,true,1.00,658,389,649,352,31430,0
patternCount-7,true,1.00,1600,428,1592,384,81680,0
patternCount-8,true,1.00,3371,495,3363,441,180356,0
patternCount-9,true,1.00,1012,396,999,359,49955,0
patternCount-10,true,1.00,673,375,665,332,32473,0
patternCount-11,true,1.00,5272,506,5262,452,276675,0
patternCount-12,true,1.00,1087,427,1079,380,51500,0
patternCount-13,true,1.00,822,397,813,346,39611,0
patternCount-14,true,1.00,1261,384,1251,338,65006,0
patternCount-15,true,1.00,1154,419,1144,383,56982,0
patternCount-16,true,1.00,1361,393,1345,357,65012,0
patternCount-17,true,1.00,1218,449,1197,413,59818,0
patternCount-18,true,1.00,1508,428,1494,386,78573,0
patternCount-19,true,1.00,1077,405,1067,369,53097,0
patternCount-20,true,1.00,1211,423,1197,377,59904,0
patternCount-21,true,1.00,1271,420,1258,384,58959,0
patternCount-22,true,1.00,3123,487,3116,421,169941,0
patternCount-23,true,1.00,7739,539,7732,480,396864,0
patternCount-24,true,1.00,5192,455,5181,409,278807,0
patternCount-25,true,1.00,1344,416,1319,380,66736,0
patternCount-26,true,1.00,1068,429,1053,393,52657,0
patternCount-27,true,1.00,1345,427,1335,391,67995,0
patternCount-28,true,1.00,1351,461,1335,424,66934,0
patternCount-29,true,1.00,1319,395,1313,359,68085,0
patternCount-30,true,1.00,1270,430,1258,385,63174,0
patternCount-31,true,1.00,1695,459,1681,423,85913,0
patternCount-32,true,1.00,1792,480,1779,439,91411,0
patternCount-33,true,1.00,3050,459,3037,400,158636,0
patternCount-34,true,1.00,2454,491,2439,436,128384,0
patternCount-35,true,1.00,1316,419,1301,383,66036,0
patternCount-36,true,1.00,2606,475,2593,415,136591,0
patternCount-37,true,1.00,1044,382,1036,346,52492,0
patternCount-38,true,1.00,3178,518,3172,468,163395,0
patternCount-39,true,1.00,1104,427,1091,391,55354,0
patternCount-40,true,1.00,4762,468,4752,402,251082,0
patternCount-41,true,1.00,2153,416,2143,380,115219,0
patternCount-42,true,1.00,1197,394,1185,357,58022,0
patternCount-43,true,1.00,1091,427,1079,390,50858,0
patternCount-44,true,1.00,1061,434,1054,389,53295,0
patternCount-45,true,1.00,1708,479,1699,432,78674,0
patternCount-46,true,1.00,1815,435,1808,390,95113,0
patternCount-47,true,1.00,1905,440,1894,404,99186,0
patternCount-48,true,1.00,1100,432,1087,395,54553,0
patternCount-49,true,1.00,1654,425,1645,387,84059,0
patternCount-50,true,1.00,5547,538,5534,485,263619,0
patternCount-51,true,1.00,1264,403,1256,356,55764,0
patternCount-52,true,1.00,1030,446,1015,410,50631,0
patternCount-53,true,1.00,3483,414,3472,356,181564,0
patternCount-54,true,1.00,1770,462,1761,416,88312,0
patternCount-55,true,1.00,6203,473,6194,412,317517,0
patternCount-56,true,1.00,1600,433,1585,397,82303,0
patternCount-57,true,1.00,948,399,934,350,45647,0
patternCount-58,false,0.81,5101,388,5095,388,235097,0
patternCount-59,true,1.00,1253,428,1240,392,62412,0
patternCount-60,true,1.00,1401,425,1392,386,70580,0
patternCount-61,true,1.00,1143,456,1127,398,54670,0
patternCount-62,true,1.00,1301,398,1290,351,65969,0
patternCount-63,true,1.00,1205,439,1187,402,60343,0
patternCount-64,true,1.00,800,385,785,349,38812,0
patternCount-65,true,1.00,959,437,949,385,46550,0
patternCount-66,true,1.00,1480,435,1468,390,76411,0
patternCount-67,true,1.00,1553,450,1540,401,79985,0
patternCount-68,true,1.00,1036,401,1022,360,51248,0
patternCount-69,true,1.00,1280,433,1271,396,64246,0
patternCount-70,true,1.00,1030,419,1023,383,48887,0
patternCount-71,true,1.00,1492,444,1483,408,76984,0
patternCount-72,true,1.00,5103,455,5091,407,259568,0
patternCount-73,true,1.00,2222,487,2211,441,110881,0
patternCount-74,true,1.00,5164,470,5157,388,260657,0
patternCount-75,true,1.00,1620,445,1602,389,77063,0
patternCount-76,true,1.00,1539,443,1530,407,78554,0
patternCount-77,true,1.00,1535,439,1526,382,74738,0
patternCount-78,true,1.00,1952,446,1942,409,99774,0
patternCount-79,true,1.00,4759,461,4748,418,248468,0
patternCount-80,true,1.00,2988,451,2972,395,153216,0
patternCount-81,true,1.00,1187,442,1175,400,57301,0
patternCount-82,true,1.00,1372,425,1362,389,67133,0
patternCount-83,true,1.00,1171,429,1155,393,56380,0
patternCount-84,true,1.00,1106,393,1091,357,53536,0
patternCount-85,true,1.00,886,400,880,364,41190,0
patternCount-86,true,1.00,1194,422,1179,386,58024,0
patternCount-87,true,1.00,1585,419,1575,375,79092,0
patternCount-88,true,1.00,1776,434,1762,387,90267,0
patternCount-89,true,1.00,1221,432,1210,386,60064,0
patternCount-90,true,1.00,920,412,912,376,42334,0
patternCount-91,true,1.00,1973,467,1968,430,97516,0
patternCount-92,true,1.00,1275,437,1263,401,62331,0
patternCount-93,true,1.00,5953,448,5947,399,304169,0
patternCount-94,true,1.00,1230,428,1220,382,59883,0
patternCount-95,true,1.00,1646,430,1639,394,83385,0
patternCount-96,true,1.00,1391,529,1378,481,68155,0
patternCount-97,false,0.88,4627,401,4619,401,224074,0
patternCount-98,true,1.00,1247,446,1239,397,61033,0
patternCount-99,true,1.00,1068,432,1056,396,52080,0
patternCount-100,true,1.00,834,385,827,349,39017,0
