NDW:0.0
TTFW:1.4
DFPT:2.0
DFPAP:3.0
DFPMP:0.0
RIGHT_WINDOW_BORDER_X:400.0
level,win/fail,% travelled,run time,game ticks,planning time,total plannings,nodes evaluated,most backtracked nodes
notchParamRand-1,true,1.00,1050,312,1044,276,56511,0
notchParamRand-2,true,1.00,236,306,232,270,9976,0
notchParamRand-3,true,1.00,1095,306,1088,270,61388,0
notchParamRand-4,true,1.00,1737,333,1726,297,97915,0
notchParamRand-5,true,1.00,307,306,296,270,14658,0
notchParamRand-6,true,1.00,516,322,508,276,26406,0
notchParamRand-7,true,1.00,320,294,312,258,15084,0
notchParamRand-8,true,1.00,602,304,598,268,30315,0
notchParamRand-9,true,1.00,831,350,817,314,44476,0
notchParamRand-10,true,1.00,1509,319,1506,283,88528,0
notchParamRand-11,true,1.00,224,294,216,258,9605,0
notchParamRand-12,true,1.00,411,308,403,272,20106,0
notchParamRand-13,true,1.00,2032,312,2029,275,114166,0
notchParamRand-14,true,1.00,1051,314,1043,278,57243,0
notchParamRand-15,true,1.00,666,308,657,272,36311,0
notchParamRand-16,true,1.00,496,300,491,264,26535,0
notchParamRand-17,true,1.00,187,303,177,267,7246,0
notchParamRand-18,true,1.00,2182,326,2175,289,125232,0
notchParamRand-19,true,1.00,337,337,326,301,15681,0
notchParamRand-20,true,1.00,1927,328,1920,284,110357,0
notchParamRand-21,true,1.00,182,296,179,260,7211,0
notchParamRand-22,true,1.00,1064,314,1060,277,58695,0
notchParamRand-23,true,1.00,1822,337,1817,301,105231,0
notchParamRand-24,true,1.00,344,322,336,286,15353,0
notchParamRand-25,true,1.00,183,312,170,264,7205,0
notchParamRand-26,true,1.00,649,352,644,311,32817,0
notchParamRand-27,true,1.00,319,300,313,264,16104,0
notchParamRand-28,true,1.00,537,312,527,275,27280,0
notchParamRand-29,true,1.00,180,298,171,262,7126,0
notchParamRand-30,true,1.00,2122,332,2114,295,118135,0
notchParamRand-31,true,1.00,502,316,493,279,25399,0
notchParamRand-32,true,1.00,220,294,210,258,9667,0
notchParamRand-33,true,1.00,1845,310,1835,273,103551,0
notchParamRand-34,true,1.00,1138,318,1132,282,61414,0
notchParamRand-35,true,1.00,676,310,670,274,35925,0
notchParamRand-36,true,1.00,165,294,159,258,6326,0
notchParamRand-37,true,1.00,504,310,500,274,26201,0
notchParamRand-38,true,1.00,2164,315,2159,279,121730,0
notchParamRand-39,true,1.00,1711,339,1698,303,94851,0
notchParamRand-40,true,1.00,2472,314,2466,278,139434,0
notchParamRand-41,true,1.00,171,294,165,258,6557,0
notchParamRand-42,true,1.00,645,316,641,279,33957,0
notchParamRand-43,true,1.00,333,300,326,264,16301,0
notchParamRand-44,true,1.00,444,302,436,266,22402,0
notchParamRand-45,true,1.00,1006,318,995,282,52504,0
notchParamRand-46,true,1.00,716,311,714,275,38155,0
notchParamRand-47,true,1.00,983,314,980,278,52236,0
notchParamRand-48,true,1.00,1619,328,1612,292,90258,0
notchParamRand-49,true,1.00,894,306,885,269,49261,0
notchParamRand-50,true,1.00,1548,334,1538,290,86701,0
notchParamRand-51,true,1.00,325,315,316,279,15062,0
notchParamRand-52,true,1.00,980,308,973,272,53310,0
notchParamRand-53,true,1.00,1080,326,1072,290,60488,0
notchParamRand-54,true,1.00,1928,342,1925,305,106203,0
notchParamRand-55,true,1.00,1966,314,1959,278,107844,0
notchParamRand-56,true,1.00,822,323,811,287,43811,0
notchParamRand-57,true,1.00,1030,312,1024,276,58851,0
notchParamRand-58,true,1.00,1049,351,1043,314,56517,0
notchParamRand-59,true,1.00,573,311,565,275,30119,0
notchParamRand-60,true,1.00,716,311,712,275,38005,0
notchParamRand-61,true,1.00,579,306,574,269,30723,0
notchParamRand-62,true,1.00,658,320,648,283,33224,0
notchParamRand-63,true,1.00,1682,312,1678,276,92724,0
notchParamRand-64,true,1.00,387,296,380,260,19649,0
notchParamRand-65,true,1.00,2134,325,2126,289,117101,0
notchParamRand-66,true,1.00,457,322,450,286,20865,0
notchParamRand-67,true,1.00,389,300,381,264,19120,0
notchParamRand-68,true,1.00,1582,312,1573,275,89448,0
notchParamRand-69,true,1.00,360,309,350,273,17666,0
notchParamRand-70,true,1.00,793,328,787,291,42404,0
notchParamRand-71,true,1.00,508,322,501,286,25779,0
notchParamRand-72,true,1.00,211,294,204,258,8912,0
notchParamRand-73,true,1.00,452,308,444,272,21843,0
notchParamRand-74,true,1.00,183,296,179,260,7138,0
notchParamRand-75,true,1.00,174,294,169,258,6708,0
notchParamRand-76,true,1.00,1384,346,1374,310,75606,0
notchParamRand-77,true,1.00,1711,362,1702,318,92719,0
notchParamRand-78,true,1.00,1042,310,1036,274,58377,0
notchParamRand-79,true,1.00,321,298,307,262,15265,0
notchParamRand-80,true,1.00,385,308,377,272,18944,0
notchParamRand-81,true,1.00,385,298,381,262,19664,0
notchParamRand-82,true,1.00,897,312,892,275,48515,0
notchParamRand-83,true,1.00,1672,332,1666,295,93202,0
notchParamRand-84,true,1.00,454,300,450,264,23488,0
notchParamRand-85,true,1.00,172,294,162,258,6605,0
notchParamRand-86,true,1.00,727,342,717,305,36487,0
notchParamRand-87,true,1.00,2082,320,2076,284,119022,0
notchParamRand-88,true,1.00,396,300,386,264,20056,0
notchParamRand-89,true,1.00,486,334,478,298,24141,0
notchParamRand-90,true,1.00,767,310,759,274,39608,0
notchParamRand-91,true,1.00,171,294,166,258,6687,0
notchParamRand-92,true,1.00,1149,326,1138,289,62653,0
notchParamRand-93,true,1.00,418,316,412,271,21306,0
notchParamRand-94,true,1.00,1867,310,1862,273,102864,0
notchParamRand-95,true,1.00,900,316,893,279,50035,0
notchParamRand-96,true,1.00,606,329,599,293,30499,0
notchParamRand-97,true,1.00,1651,341,1645,304,89646,0
notchParamRand-98,true,1.00,302,294,295,258,15346,0
notchParamRand-99,true,1.00,344,310,336,274,16149,0
notchParamRand-100,true,1.00,1645,314,1638,277,91384,0
