NDW:0.0
TTFW:1.4
DFPT:2.0
DFPAP:3.0
DFPMP:1.0
RIGHT_WINDOW_BORDER_X:95.0
level,win/fail,% travelled,run time,game ticks,planning time,total plannings,nodes evaluated,most backtracked nodes
patternWeightCount-1,false,0.85,5660,594,5648,594,342235,0
patternWeightCount-2,true,1.00,964,491,956,479,56996,0
patternWeightCount-3,true,1.00,1030,448,1019,440,64466,0
patternWeightCount-4,true,1.00,1027,456,1015,444,62099,0
patternWeightCount-5,true,1.00,3877,614,3868,606,243205,0
patternWeightCount-6,true,1.00,1922,527,1911,519,119933,0
patternWeightCount-7,true,1.00,987,467,976,459,61171,0
patternWeightCount-8,true,1.00,1181,502,1172,494,68269,0
patternWeightCount-9,true,1.00,1034,446,1023,438,63924,0
patternWeightCount-10,true,1.00,1559,543,1538,535,96412,0
patternWeightCount-11,true,1.00,852,477,838,469,53373,0
patternWeightCount-12,true,1.00,1373,579,1356,571,85899,0
patternWeightCount-13,true,1.00,1188,495,1184,487,72895,0
patternWeightCount-14,true,1.00,1390,519,1382,510,85479,0
patternWeightCount-15,true,1.00,3191,536,3179,528,199870,0
patternWeightCount-16,true,1.00,4619,617,4609,591,293447,0
patternWeightCount-17,true,1.00,1117,494,1099,486,69001,0
patternWeightCount-18,true,1.00,1102,474,1090,466,69760,0
patternWeightCount-19,true,1.00,871,460,860,452,52078,0
patternWeightCount-20,false,0.62,5380,429,5376,429,326716,0
patternWeightCount-21,true,1.00,578,474,569,466,36910,0
patternWeightCount-22,true,1.00,4445,630,4431,612,276960,0
patternWeightCount-23,true,1.00,1563,547,1553,525,95843,0
patternWeightCount-24,true,1.00,2656,574,2647,558,160933,0
patternWeightCount-25,true,1.00,3035,559,3022,551,189464,0
patternWeightCount-26,true,1.00,1763,517,1751,508,112058,0
patternWeightCount-27,true,1.00,2610,571,2599,555,161890,0
patternWeightCount-28,true,1.00,1533,492,1523,484,96416,0
patternWeightCount-29,true,1.00,1079,453,1068,444,66097,0
patternWeightCount-30,false,0.82,4520,621,4510,621,276210,0
patternWeightCount-31,true,1.00,2179,516,2161,508,137788,0
patternWeightCount-32,true,1.00,660,499,649,491,40786,0
patternWeightCount-33,true,1.00,1149,509,1138,501,71182,0
patternWeightCount-34,true,1.00,3586,546,3576,538,218873,0
patternWeightCount-35,false,0.64,2900,344,2890,344,167887,0
patternWeightCount-36,false,0.80,3542,508,3538,508,214760,0
patternWeightCount-37,true,1.00,934,452,928,444,56820,0
patternWeightCount-38,false,0.94,6961,608,6953,608,434892,0
patternWeightCount-39,true,1.00,3542,519,3532,511,216760,0
patternWeightCount-40,true,1.00,4302,613,4291,605,272405,0
patternWeightCount-41,true,1.00,2081,544,2069,535,131484,0
patternWeightCount-42,false,0.87,5601,587,5588,587,346502,0
patternWeightCount-43,true,1.00,1151,434,1141,426,72191,0
patternWeightCount-44,true,1.00,2598,618,2585,598,173629,0
patternWeightCount-45,false,0.84,2753,529,2740,529,167558,0
patternWeightCount-46,false,0.86,3675,530,3661,530,224161,0
patternWeightCount-47,true,1.00,1247,473,1239,465,77395,0
patternWeightCount-48,true,1.00,889,443,877,435,56159,0
patternWeightCount-49,true,1.00,1297,451,1288,436,80296,0
patternWeightCount-50,true,1.00,1223,428,1213,420,74099,0
patternWeightCount-51,true,1.00,1225,490,1215,472,76372,0
patternWeightCount-52,true,1.00,2602,560,2585,542,164439,0
patternWeightCount-53,false,0.84,7721,999,7698,999,451434,0
patternWeightCount-54,true,1.00,951,508,942,500,59824,0
patternWeightCount-55,false,0.97,2329,524,2321,524,133578,0
patternWeightCount-56,true,1.00,1385,492,1374,484,81331,0
patternWeightCount-57,true,1.00,620,458,608,450,37797,0
patternWeightCount-58,true,1.00,1497,503,1484,494,91785,0
patternWeightCount-59,true,1.00,698,409,691,401,43342,0
patternWeightCount-60,true,1.00,1520,538,1510,528,92493,0
patternWeightCount-61,true,1.00,1499,520,1487,507,91081,0
patternWeightCount-62,false,0.96,5439,601,5428,601,331269,0
patternWeightCount-63,true,1.00,2723,564,2714,556,166977,0
patternWeightCount-64,true,1.00,2181,524,2171,516,130511,0
patternWeightCount-65,true,1.00,1930,537,1923,529,116274,0
patternWeightCount-66,true,1.00,1479,481,1472,473,88940,0
patternWeightCount-67,true,1.00,896,483,884,475,50326,0
patternWeightCount-68,false,0.85,20395,999,20380,999,765594,0
patternWeightCount-69,false,0.96,8359,686,8340,686,495331,0
patternWeightCount-70,true,1.00,1622,522,1607,513,100666,0
patternWeightCount-71,true,1.00,829,456,824,447,50649,0
patternWeightCount-72,false,0.75,3406,474,3394,474,213107,0
patternWeightCount-73,false,0.78,9177,620,9166,620,541857,0
patternWeightCount-74,true,1.00,1022,435,1006,427,62119,0
patternWeightCount-75,true,1.00,1190,476,1175,468,71390,0
patternWeightCount-76,true,1.00,1560,520,1550,512,98931,0
patternWeightCount-77,true,1.00,1311,444,1298,436,82168,0
patternWeightCount-78,true,1.00,5540,654,5530,646,342250,0
patternWeightCount-79,true,1.00,1507,436,1497,428,93285,0
patternWeightCount-80,true,1.00,2016,560,2007,552,123367,0
patternWeightCount-81,false,0.81,6326,595,6315,595,383896,0
patternWeightCount-82,true,1.00,199,448,184,439,12156,0
patternWeightCount-83,true,1.00,1949,491,1946,483,123102,0
patternWeightCount-84,true,1.00,1051,484,1042,476,65254,0
patternWeightCount-85,true,1.00,2109,557,2101,548,131910,0
patternWeightCount-86,false,0.90,3143,564,3131,564,169639,0
patternWeightCount-87,false,0.71,4470,407,4463,407,260273,0
patternWeightCount-88,true,1.00,2650,495,2638,487,169315,0
patternWeightCount-89,true,1.00,850,499,841,491,53287,0
patternWeightCount-90,false,0.74,5061,524,5053,524,319570,0
patternWeightCount-91,true,1.00,3098,572,3081,564,189809,0
patternWeightCount-92,false,0.83,19026,999,19016,999,1157465,0
patternWeightCount-93,false,0.90,4685,531,4678,531,271384,0
patternWeightCount-94,true,1.00,2344,528,2334,520,142917,0
patternWeightCount-95,true,1.00,1106,469,1097,461,66209,0
patternWeightCount-96,true,1.00,1827,563,1807,555,106785,0
patternWeightCount-97,true,1.00,1969,426,1960,418,116745,0
patternWeightCount-98,false,0.93,10926,750,10915,750,604099,0
patternWeightCount-99,true,1.00,2607,521,2588,513,159620,0
patternWeightCount-100,true,1.00,1060,467,1051,459,64095,0
