NDW:0.0
TTFW:1.4
DFPT:2.0
DFPAP:3.0
DFPMP:5.0
RIGHT_WINDOW_BORDER_X:15.0
level,win/fail,% travelled,run time,game ticks,planning time,total plannings,nodes evaluated,most backtracked nodes
Krys-1,false,0.04,2,33,2,33,272,0
Krys-2,false,0.04,2,33,2,33,272,0
Krys-3,false,0.04,1,33,1,33,305,0
Krys-4,false,0.04,1,33,1,33,272,0
Krys-5,false,0.04,2,33,2,33,272,0
Krys-6,false,0.15,72,103,71,103,7783,0
Krys-7,false,0.04,1,33,1,33,305,0
Krys-8,false,0.04,1,33,1,33,305,0
Krys-9,false,0.04,2,33,2,33,305,0
Krys-10,false,0.13,33,85,31,85,3606,0
Krys-11,false,0.04,1,33,1,33,305,0
Krys-12,false,0.12,140,111,139,111,13920,0
Krys-13,false,0.30,1233,451,1232,451,127165,0
Krys-14,false,0.15,70,103,70,103,7755,0
Krys-15,false,0.12,339,173,338,173,42216,0
Krys-16,false,0.04,1,33,0,33,272,0
Krys-17,false,0.04,1,33,1,33,272,0
Krys-18,false,0.14,4,91,4,91,746,0
Krys-19,false,0.04,2,33,2,33,305,0
Krys-20,false,0.04,1,33,1,33,272,0
Krys-21,false,0.04,1,33,0,33,272,0
Krys-22,false,0.12,202,100,201,100,18201,0
Krys-23,false,0.36,479,999,467,999,100121,0
Krys-24,false,0.04,2,33,2,33,272,0
Krys-25,false,0.04,1,33,1,33,272,0
Krys-26,false,0.12,201,100,199,100,17587,0
Krys-27,false,0.04,2,33,2,33,305,0
Krys-28,false,0.04,1,33,1,33,305,0
Krys-29,false,0.04,1,33,1,33,272,0
Krys-30,false,0.04,2,33,2,33,272,0
Krys-31,false,0.10,1,47,1,47,284,0
Krys-32,false,0.37,16,287,14,287,3437,0
Krys-33,false,0.13,3,58,1,58,480,0
Krys-34,false,0.42,15,304,13,304,3297,0
Krys-35,false,0.23,372,197,371,197,38139,0
Krys-36,false,0.12,2,64,1,64,522,0
Krys-37,false,0.12,202,100,201,100,18286,0
Krys-38,false,0.04,2,33,2,33,305,0
Krys-39,false,0.21,437,176,437,176,42307,0
Krys-40,false,0.09,94,63,93,63,9647,0
Krys-41,false,0.12,202,100,200,100,18288,0
Krys-42,false,0.04,2,33,2,33,305,0
Krys-43,false,0.12,2,62,2,62,476,0
Krys-44,false,0.15,533,999,529,999,111432,0
Krys-45,false,0.08,2,39,1,39,294,0
Krys-46,false,0.35,46,256,44,256,6224,0
Krys-47,false,0.45,37,364,34,364,8740,0
Krys-48,false,0.04,1,33,1,33,305,0
Krys-49,false,0.21,9,162,9,162,1981,0
Krys-50,false,0.13,234,108,233,108,23169,0
Krys-51,false,0.04,1,33,1,33,272,0
Krys-52,false,0.04,1,33,1,33,305,0
Krys-53,false,0.13,2,58,2,58,480,0
Krys-54,false,0.36,1270,538,1266,538,136845,0
Krys-55,false,0.13,235,108,234,108,23100,0
Krys-56,false,0.13,234,108,232,108,23037,0
Krys-57,false,0.26,913,314,911,314,101476,0
Krys-58,false,0.13,234,108,234,108,23155,0
Krys-59,false,0.15,71,103,71,103,7813,0
Krys-60,false,0.08,1,39,1,39,294,0
Krys-61,false,0.04,1,33,1,33,272,0
Krys-62,false,0.13,32,85,30,85,3606,0
Krys-63,false,0.33,152,293,152,293,17562,0
Krys-64,false,0.04,2,33,2,33,272,0
Krys-65,false,0.12,3,64,2,64,522,0
Krys-66,false,0.04,1,33,1,33,305,0
Krys-67,false,0.37,15,287,13,287,3437,0
Krys-68,false,0.04,1,33,1,33,305,0
Krys-69,false,0.04,1,33,0,33,272,0
Krys-70,false,0.46,1794,999,1785,999,218260,0
Krys-71,false,0.04,1,33,1,33,305,0
Krys-72,false,0.04,2,33,2,33,272,0
Krys-73,false,0.04,1,33,1,33,272,0
Krys-74,false,0.04,1,33,1,33,305,0
Krys-75,false,0.04,1,33,1,33,305,0
Krys-76,false,0.04,2,33,1,33,272,0
Krys-77,false,0.12,667,137,666,137,65072,0
Krys-78,false,0.04,2,33,2,33,272,0
Krys-79,false,0.04,1,33,0,33,305,0
Krys-80,false,0.22,5,140,4,140,1100,0
Krys-81,false,0.04,2,33,2,33,305,0
Krys-82,false,0.04,2,33,2,33,305,0
Krys-83,false,0.04,1,33,0,33,272,0
Krys-84,false,0.04,1,33,1,33,272,0
Krys-85,false,0.21,194,228,193,228,22626,0
Krys-86,false,0.21,9,162,8,162,1981,0
Krys-87,false,0.13,2,58,1,58,480,0
Krys-88,false,0.04,1,33,0,33,272,0
Krys-89,false,0.04,1,33,1,33,305,0
Krys-90,false,0.12,201,100,201,100,18384,0
Krys-91,false,0.04,1,33,1,33,272,0
Krys-92,false,0.04,1,33,0,33,305,0
Krys-93,false,0.08,1,39,1,39,294,0
Krys-94,false,0.04,1,33,1,33,305,0
Krys-95,false,0.04,1,33,1,33,272,0
Krys-96,false,0.12,2,62,1,62,476,0
Krys-97,false,0.10,2,47,2,47,284,0
Krys-98,false,0.04,1,33,1,33,305,0
Krys-99,false,0.04,1,33,1,33,305,0
Krys-100,false,0.04,1,33,1,33,272,0
