NDW:0.0
TTFW:0.6
DFPT:2.0
DFPAP:3.0
DFPMP:10.0
RIGHT_WINDOW_BORDER_X:235.0
level,win/fail,% travelled,run time,game ticks,planning time,total plannings,nodes evaluated,most backtracked nodes
patternWeightCount-1,true,1.00,2971,418,2966,390,157454,0
patternWeightCount-2,true,1.00,670,387,659,359,35452,0
patternWeightCount-3,true,1.00,753,359,743,337,38947,0
patternWeightCount-4,true,1.00,742,330,736,309,39084,0
patternWeightCount-5,true,1.00,1527,406,1516,385,76909,0
patternWeightCount-6,true,1.00,1640,399,1626,378,85397,0
patternWeightCount-7,true,1.00,1022,368,1013,347,52609,0
patternWeightCount-8,true,1.00,913,393,904,372,44845,0
patternWeightCount-9,true,1.00,1415,420,1406,391,73501,0
patternWeightCount-10,true,1.00,1011,372,1003,350,52075,0
patternWeightCount-11,true,1.00,542,344,537,323,27810,0
patternWeightCount-12,true,1.00,1273,408,1267,387,63890,0
patternWeightCount-13,true,1.00,1023,354,1014,333,55740,0
patternWeightCount-14,true,1.00,987,384,981,359,50434,0
patternWeightCount-15,true,1.00,1639,374,1632,353,86940,0
patternWeightCount-16,true,1.00,2706,398,2696,375,145042,0
patternWeightCount-17,true,1.00,885,392,878,371,44563,0
patternWeightCount-18,true,1.00,920,369,912,348,47214,0
patternWeightCount-19,true,1.00,743,383,739,357,37277,0
patternWeightCount-20,false,0.62,3401,281,3395,281,163948,0
patternWeightCount-21,true,1.00,607,369,599,348,29833,0
patternWeightCount-22,true,1.00,2543,400,2529,372,92078,0
patternWeightCount-23,true,1.00,855,385,844,362,43174,0
patternWeightCount-24,true,1.00,1219,368,1212,346,63947,0
patternWeightCount-25,true,1.00,1639,392,1633,366,82909,0
patternWeightCount-26,true,1.00,1458,401,1448,375,73350,0
patternWeightCount-27,true,1.00,1992,404,1980,379,95623,0
patternWeightCount-28,true,1.00,1497,385,1484,364,73401,0
patternWeightCount-29,true,1.00,1187,358,1181,337,57802,0
patternWeightCount-30,true,1.00,4205,445,4200,404,205246,0
patternWeightCount-31,true,1.00,1693,427,1687,401,78780,0
patternWeightCount-32,true,1.00,901,386,890,360,44736,0
patternWeightCount-33,true,1.00,1183,395,1172,374,59602,0
patternWeightCount-34,true,1.00,1849,410,1839,389,93893,0
patternWeightCount-35,true,1.00,2126,429,2113,408,104218,0
patternWeightCount-36,true,1.00,1505,376,1496,355,75077,0
patternWeightCount-37,true,1.00,797,350,788,329,38470,0
patternWeightCount-38,true,1.00,1816,378,1812,355,87285,0
patternWeightCount-39,true,1.00,1378,373,1370,347,69832,0
patternWeightCount-40,true,1.00,1375,389,1368,363,69141,0
patternWeightCount-41,true,1.00,1425,384,1416,362,71627,0
patternWeightCount-42,false,0.87,2559,337,2549,337,123197,0
patternWeightCount-43,true,1.00,1093,344,1082,323,56148,0
patternWeightCount-44,true,1.00,1609,413,1593,385,79531,0
patternWeightCount-45,true,1.00,4723,484,4712,449,231108,0
patternWeightCount-46,true,1.00,4899,482,4888,445,224971,0
patternWeightCount-47,true,1.00,760,366,751,345,38231,0
patternWeightCount-48,true,1.00,893,357,883,336,44380,0
patternWeightCount-49,true,1.00,1093,379,1080,358,53042,0
patternWeightCount-50,true,1.00,1084,389,1073,368,53728,0
patternWeightCount-51,true,1.00,1040,366,1030,338,52320,0
patternWeightCount-52,true,1.00,1330,364,1322,332,66563,0
patternWeightCount-53,true,1.00,4577,485,4573,462,225869,0
patternWeightCount-54,true,1.00,773,378,762,357,38028,0
patternWeightCount-55,true,1.00,1284,383,1274,360,64112,0
patternWeightCount-56,true,1.00,1156,364,1147,343,58558,0
patternWeightCount-57,true,1.00,760,353,741,332,38409,0
patternWeightCount-58,true,1.00,1469,379,1462,358,72517,0
patternWeightCount-59,true,1.00,671,375,663,354,32816,0
patternWeightCount-60,true,1.00,1723,406,1715,385,84829,0
patternWeightCount-61,true,1.00,1241,427,1234,393,60754,0
patternWeightCount-62,true,1.00,2452,401,2444,374,126654,0
patternWeightCount-63,true,1.00,1510,390,1496,369,75637,0
patternWeightCount-64,true,1.00,1413,362,1401,341,72794,0
patternWeightCount-65,true,1.00,1455,394,1445,372,69798,0
patternWeightCount-66,true,1.00,1218,395,1204,374,58121,0
patternWeightCount-67,true,1.00,938,380,934,359,46440,0
patternWeightCount-68,false,0.85,22775,999,22764,999,800026,0
patternWeightCount-69,true,1.00,2310,399,2307,356,118319,0
patternWeightCount-70,true,1.00,1182,386,1173,362,61044,0
patternWeightCount-71,true,1.00,955,375,949,347,48865,0
patternWeightCount-72,true,1.00,5555,483,5544,439,240946,0
patternWeightCount-73,true,1.00,5859,466,5852,427,287866,0
patternWeightCount-74,true,1.00,1454,376,1442,355,41471,0
patternWeightCount-75,true,1.00,1410,393,1397,372,69948,0
patternWeightCount-76,true,1.00,1123,381,1114,355,59844,0
patternWeightCount-77,true,1.00,1110,390,1108,369,59006,0
patternWeightCount-78,true,1.00,2538,454,2530,432,121090,0
patternWeightCount-79,true,1.00,850,355,840,334,44827,0
patternWeightCount-80,true,1.00,1093,381,1084,352,57167,0
patternWeightCount-81,true,1.00,4479,456,4472,429,229252,0
patternWeightCount-82,true,1.00,602,347,592,324,19461,0
patternWeightCount-83,true,1.00,875,358,867,337,43432,0
patternWeightCount-84,true,1.00,976,392,968,371,48735,0
patternWeightCount-85,true,1.00,1436,373,1424,343,76026,0
patternWeightCount-86,false,0.94,2271,348,2266,348,116481,0
patternWeightCount-87,true,1.00,5959,469,5954,447,299780,0
patternWeightCount-88,true,1.00,1538,404,1527,382,79196,0
patternWeightCount-89,true,1.00,816,356,806,335,42730,0
patternWeightCount-90,true,1.00,3477,399,3463,376,182702,0
patternWeightCount-91,true,1.00,1182,379,1169,357,60554,0
patternWeightCount-92,true,1.00,3313,425,3302,394,173610,0
patternWeightCount-93,true,1.00,2737,382,2729,360,140872,0
patternWeightCount-94,true,1.00,1433,397,1428,371,75405,0
patternWeightCount-95,true,1.00,1231,370,1220,349,64087,0
patternWeightCount-96,true,1.00,911,397,898,371,45883,0
patternWeightCount-97,true,1.00,1045,359,1039,337,53964,0
patternWeightCount-98,true,1.00,5155,467,5142,439,265865,0
patternWeightCount-99,true,1.00,1616,392,1606,369,83311,0
patternWeightCount-100,true,1.00,1189,391,1185,370,60903,0
