NDW:0.0
TTFW:0.6
DFPT:2.0
DFPAP:3.0
DFPMP:10.0
RIGHT_WINDOW_BORDER_X:295.0
level,win/fail,% travelled,run time,game ticks,planning time,total plannings,nodes evaluated,most backtracked nodes
patternOccur-1,true,1.00,1461,381,1456,354,71868,0
patternOccur-2,true,1.00,1047,387,1038,360,51637,0
patternOccur-3,true,1.00,1651,398,1644,371,85800,0
patternOccur-4,true,1.00,1658,386,1651,360,85683,0
patternOccur-5,true,1.00,876,369,866,342,44652,0
patternOccur-6,true,1.00,1553,406,1545,379,80043,0
patternOccur-7,true,1.00,1632,395,1625,367,84818,0
patternOccur-8,true,1.00,1779,396,1771,369,92264,0
patternOccur-9,true,1.00,1670,372,1665,343,86026,0
patternOccur-10,true,1.00,1164,378,1156,351,60595,0
patternOccur-11,true,1.00,4949,454,4943,420,246379,0
patternOccur-12,true,1.00,1786,400,1778,373,90406,0
patternOccur-13,true,1.00,1071,402,1064,375,54213,0
patternOccur-14,true,1.00,3955,418,3947,377,201672,0
patternOccur-15,true,1.00,1422,364,1415,337,74275,0
patternOccur-16,true,1.00,4491,423,4486,390,229600,0
patternOccur-17,true,1.00,1313,376,1305,349,67572,0
patternOccur-18,true,1.00,1029,360,1023,334,52387,0
patternOccur-19,true,1.00,3823,435,3817,389,193351,0
patternOccur-20,true,1.00,1156,376,1146,350,61662,0
patternOccur-21,true,1.00,1184,388,1174,354,61223,0
patternOccur-22,true,1.00,3679,444,3675,398,189560,0
patternOccur-23,true,1.00,1493,380,1491,353,74218,0
patternOccur-24,true,1.00,1299,397,1290,370,64362,0
patternOccur-25,true,1.00,1477,397,1467,370,78185,0
patternOccur-26,true,1.00,862,356,854,329,44099,0
patternOccur-27,true,1.00,2968,407,2964,374,151173,0
patternOccur-28,true,1.00,1745,415,1737,388,89286,0
patternOccur-29,true,1.00,1056,371,1046,340,55237,0
patternOccur-30,true,1.00,919,378,909,351,46385,0
patternOccur-31,true,1.00,3825,414,3819,383,204251,0
patternOccur-32,true,1.00,2565,391,2560,334,133440,0
patternOccur-33,true,1.00,1151,388,1143,361,60216,0
patternOccur-34,true,1.00,1270,384,1260,352,68970,0
patternOccur-35,true,1.00,1221,374,1212,347,65088,0
patternOccur-36,true,1.00,2438,390,2431,363,133493,0
patternOccur-37,true,1.00,3434,424,3426,383,173577,0
patternOccur-38,true,1.00,1242,381,1233,354,65277,0
patternOccur-39,true,1.00,2985,459,2969,432,148886,0
patternOccur-40,true,1.00,1615,377,1608,350,85738,0
patternOccur-41,true,1.00,1399,396,1392,359,72801,0
patternOccur-42,false,0.89,3032,395,3024,395,152535,0
patternOccur-43,true,1.00,1056,362,1049,335,56880,0
patternOccur-44,true,1.00,1267,354,1258,327,70598,0
patternOccur-45,true,1.00,2243,385,2237,350,113613,0
patternOccur-46,true,1.00,987,339,981,312,52737,0
patternOccur-47,true,1.00,2791,409,2782,369,150297,0
patternOccur-48,true,1.00,1528,379,1520,352,80264,0
patternOccur-49,true,1.00,1009,361,1003,334,53665,0
patternOccur-50,true,1.00,1609,376,1600,348,83204,0
patternOccur-51,true,1.00,1852,398,1844,371,98966,0
patternOccur-52,true,1.00,1570,376,1562,349,82647,0
patternOccur-53,true,1.00,1467,382,1460,355,76545,0
patternOccur-54,true,1.00,1812,378,1803,349,97859,0
patternOccur-55,true,1.00,1900,412,1890,385,100134,0
patternOccur-56,true,1.00,1365,381,1353,354,72169,0
patternOccur-57,true,1.00,1661,447,1656,419,87951,0
patternOccur-58,true,1.00,6644,516,6639,484,353733,0
patternOccur-59,true,1.00,1655,374,1650,347,88847,0
patternOccur-60,true,1.00,2761,403,2744,362,146419,0
patternOccur-61,true,1.00,1188,367,1182,334,65034,0
patternOccur-62,true,1.00,1479,393,1473,366,78008,0
patternOccur-63,true,1.00,1308,401,1300,368,69148,0
patternOccur-64,true,1.00,1934,390,1929,357,102937,0
patternOccur-65,true,1.00,1291,417,1281,390,66567,0
patternOccur-66,true,1.00,1430,408,1426,381,75686,0
patternOccur-67,false,0.88,3443,373,3436,373,175137,0
patternOccur-68,true,1.00,1103,387,1095,360,55733,0
patternOccur-69,true,1.00,4405,442,4396,404,223396,0
patternOccur-70,true,1.00,3788,423,3781,379,186586,0
patternOccur-71,true,1.00,1707,365,1700,338,92296,0
patternOccur-72,true,1.00,4538,468,4530,436,226806,0
patternOccur-73,true,1.00,5269,489,5264,449,274316,0
patternOccur-74,true,1.00,3037,408,3029,367,159062,0
patternOccur-75,true,1.00,1974,384,1964,354,107897,0
patternOccur-76,true,1.00,1319,350,1313,324,71483,0
patternOccur-77,true,1.00,917,374,906,347,47966,0
patternOccur-78,true,1.00,889,352,883,325,45286,0
patternOccur-79,true,1.00,1144,370,1135,344,61493,0
patternOccur-80,true,1.00,3290,434,3284,390,167839,0
patternOccur-81,true,1.00,1799,381,1788,355,99529,0
patternOccur-82,true,1.00,1842,382,1837,355,98029,0
patternOccur-83,true,1.00,1046,382,1037,356,55982,0
patternOccur-84,true,1.00,1225,388,1219,361,63899,0
patternOccur-85,true,1.00,2330,384,2324,356,130253,0
patternOccur-86,true,1.00,4519,459,4510,398,221401,0
patternOccur-87,true,1.00,946,386,935,359,49579,0
patternOccur-88,true,1.00,1475,409,1463,381,77792,0
patternOccur-89,true,1.00,1539,398,1524,371,80741,0
patternOccur-90,true,1.00,1528,397,1520,369,81597,0
patternOccur-91,true,1.00,1055,365,1051,338,55645,0
patternOccur-92,true,1.00,997,378,995,351,50443,0
patternOccur-93,true,1.00,1242,375,1231,347,64680,0
patternOccur-94,true,1.00,4887,468,4879,434,244617,0
patternOccur-95,true,1.00,982,378,974,346,50317,0
patternOccur-96,false,0.87,2321,343,2314,343,117880,0
patternOccur-97,true,1.00,1684,387,1675,360,90345,0
patternOccur-98,false,0.90,2752,352,2747,352,138179,0
patternOccur-99,true,1.00,706,356,701,329,38173,0
patternOccur-100,true,1.00,1751,441,1743,414,87102,0
