NDW:0.0
TTFW:1.4
DFPT:2.0
DFPAP:3.0
DFPMP:1.0
RIGHT_WINDOW_BORDER_X:195.0
level,win/fail,% travelled,run time,game ticks,planning time,total plannings,nodes evaluated,most backtracked nodes
patternCount-1,false,0.67,1796,364,1784,364,93633,0
patternCount-2,true,1.00,1220,460,1201,443,66901,0
patternCount-3,true,1.00,3936,546,3923,523,193642,0
patternCount-4,true,1.00,1282,462,1274,442,71740,0
patternCount-5,true,1.00,1010,430,997,409,53950,0
patternCount-6,true,1.00,653,394,640,376,35467,0
patternCount-7,true,1.00,1387,413,1378,396,79123,0
patternCount-8,true,1.00,3662,462,3651,430,206333,0
patternCount-9,true,1.00,1166,423,1152,405,65606,0
patternCount-10,true,1.00,607,417,597,392,34239,0
patternCount-11,true,1.00,5324,578,5315,553,289246,0
patternCount-12,true,1.00,743,424,728,402,40193,0
patternCount-13,true,1.00,728,397,721,379,40906,0
patternCount-14,true,1.00,1109,405,1095,368,65041,0
patternCount-15,true,1.00,1013,449,1001,432,57572,0
patternCount-16,true,1.00,805,429,795,412,44779,0
patternCount-17,true,1.00,1214,493,1199,476,68819,0
patternCount-18,true,1.00,1570,458,1555,439,91094,0
patternCount-19,true,1.00,682,407,672,390,37765,0
patternCount-20,true,1.00,1042,460,1030,438,59683,0
patternCount-21,true,1.00,1137,465,1123,448,62026,0
patternCount-22,true,1.00,3163,503,3155,477,175247,0
patternCount-23,true,1.00,8016,582,8004,564,420922,0
patternCount-24,true,1.00,5751,491,5738,468,289411,0
patternCount-25,true,1.00,1320,465,1299,437,75242,0
patternCount-26,true,1.00,798,442,787,425,41797,0
patternCount-27,true,1.00,1088,412,1075,394,59626,0
patternCount-28,true,1.00,1165,458,1151,421,62926,0
patternCount-29,true,1.00,1280,377,1272,360,69662,0
patternCount-30,true,1.00,1015,462,1011,445,54461,0
patternCount-31,true,1.00,1651,466,1637,449,90160,0
patternCount-32,true,1.00,1686,496,1671,478,91367,0
patternCount-33,true,1.00,3706,510,3696,485,202625,0
patternCount-34,true,1.00,2690,549,2682,523,144942,0
patternCount-35,true,1.00,1562,518,1544,501,83979,0
patternCount-36,true,1.00,2970,536,2962,486,157710,0
patternCount-37,true,1.00,1045,424,1037,407,56141,0
patternCount-38,true,1.00,3298,515,3284,497,176820,0
patternCount-39,true,1.00,1022,464,1007,442,55006,0
patternCount-40,true,1.00,5307,519,5293,477,260260,0
patternCount-41,true,1.00,2087,480,2075,463,124154,0
patternCount-42,true,1.00,1280,440,1257,423,52298,0
patternCount-43,true,1.00,781,457,769,440,35195,0
patternCount-44,true,1.00,811,393,792,375,47148,0
patternCount-45,true,1.00,1264,448,1249,420,64013,0
patternCount-46,true,1.00,2064,452,2052,435,117565,0
patternCount-47,true,1.00,1934,461,1921,444,107178,0
patternCount-48,false,0.38,481,136,476,136,26947,0
patternCount-49,true,1.00,1431,460,1416,440,76825,0
patternCount-50,true,1.00,4899,538,4885,513,275821,0
patternCount-51,true,1.00,1144,425,1135,406,60649,0
patternCount-52,true,1.00,1048,417,1038,400,56825,0
patternCount-53,true,1.00,4414,450,4404,428,237391,0
patternCount-54,true,1.00,1721,519,1710,501,94938,0
patternCount-55,false,0.84,7078,522,7073,522,341209,0
patternCount-56,true,1.00,1306,406,1298,389,70160,0
patternCount-57,true,1.00,904,453,890,434,48010,0
patternCount-58,false,0.80,5734,522,5725,522,274739,0
patternCount-59,true,1.00,1603,424,1589,407,86954,0
patternCount-60,true,1.00,1857,480,1841,462,101618,0
patternCount-61,true,1.00,1345,478,1337,448,72144,0
patternCount-62,true,1.00,1157,409,1144,389,66635,0
patternCount-63,true,1.00,1045,450,1036,433,56395,0
patternCount-64,true,1.00,1434,445,1427,428,79451,0
patternCount-65,true,1.00,1335,460,1321,440,72415,0
patternCount-66,true,1.00,1510,481,1495,464,83064,0
patternCount-67,true,1.00,1634,472,1621,455,88020,0
patternCount-68,true,1.00,853,438,840,421,45183,0
patternCount-69,true,1.00,1047,476,1037,459,56489,0
patternCount-70,true,1.00,695,411,687,394,33971,0
patternCount-71,true,1.00,1441,506,1422,488,78566,0
patternCount-72,true,1.00,5675,511,5663,493,300033,0
patternCount-73,true,1.00,2247,515,2230,497,123257,0
patternCount-74,true,1.00,5601,463,5589,439,293649,0
patternCount-75,true,1.00,1414,462,1401,444,76080,0
patternCount-76,true,1.00,1121,422,1112,405,59725,0
patternCount-77,true,1.00,1329,424,1321,394,71885,0
patternCount-78,true,1.00,1278,473,1267,456,70825,0
patternCount-79,true,1.00,4362,502,4350,476,234682,0
patternCount-80,true,1.00,4108,503,4095,479,220074,0
patternCount-81,true,1.00,1110,457,1096,440,60349,0
patternCount-82,true,1.00,1237,449,1227,432,67971,0
patternCount-83,true,1.00,1093,416,1078,399,59678,0
patternCount-84,true,1.00,931,440,916,423,51035,0
patternCount-85,true,1.00,1313,454,1301,437,73894,0
patternCount-86,true,1.00,1086,448,1078,431,59943,0
patternCount-87,true,1.00,1533,496,1520,470,85374,0
patternCount-88,true,1.00,1577,435,1566,406,89969,0
patternCount-89,true,1.00,1432,442,1417,425,79622,0
patternCount-90,true,1.00,706,423,696,406,37613,0
patternCount-91,true,1.00,1594,496,1588,478,86723,0
patternCount-92,true,1.00,957,418,947,401,50818,0
patternCount-93,true,1.00,6064,491,6052,472,321540,0
patternCount-94,true,1.00,1196,410,1186,391,65743,0
patternCount-95,true,1.00,1565,448,1556,431,85001,0
patternCount-96,true,1.00,1291,446,1275,429,69494,0
patternCount-97,false,0.82,3507,407,3498,407,185138,0
patternCount-98,true,1.00,1050,457,1033,439,55447,0
patternCount-99,true,1.00,1140,508,1124,491,61841,0
patternCount-100,true,1.00,674,395,663,378,35453,0
