NDW:0.0
TTFW:1.4
DFPT:2.0
DFPAP:3.0
DFPMP:3.0
RIGHT_WINDOW_BORDER_X:75.0
level,win/fail,% travelled,run time,game ticks,planning time,total plannings,nodes evaluated,most backtracked nodes
patternCount-1,false,0.67,4308,494,4297,494,265168,0
patternCount-2,true,1.00,3727,732,3712,724,240720,0
patternCount-3,false,0.92,7879,860,7863,860,470483,0
patternCount-4,false,0.97,3444,603,3424,603,215968,0
patternCount-5,true,1.00,1954,610,1934,603,124348,0
patternCount-6,true,1.00,866,440,853,433,54846,0
patternCount-7,true,1.00,3181,619,3165,605,140110,0
patternCount-8,false,0.89,10983,829,10977,829,696762,0
patternCount-9,true,1.00,3290,673,3270,666,199406,0
patternCount-10,true,1.00,1115,489,1090,483,38912,0
patternCount-11,false,0.76,8210,680,8198,680,404909,0
patternCount-12,true,1.00,2398,651,2385,644,162662,0
patternCount-13,true,1.00,1528,533,1519,526,95588,0
patternCount-14,false,0.96,4121,675,4112,675,261176,0
patternCount-15,true,1.00,1450,558,1428,552,79077,0
patternCount-16,true,1.00,1524,561,1489,554,49340,0
patternCount-17,true,1.00,1534,505,1515,498,72029,0
patternCount-18,false,0.97,5286,720,5271,720,311745,0
patternCount-19,true,1.00,1627,524,1612,517,102442,0
patternCount-20,true,1.00,3595,639,3582,632,226576,0
patternCount-21,true,1.00,1633,549,1620,543,75140,0
patternCount-22,false,0.80,7527,644,7490,644,401041,0
patternCount-23,false,0.67,3356,521,3344,521,201214,0
patternCount-24,false,0.63,10911,710,10897,710,491621,0
patternCount-25,true,1.00,2927,649,2901,642,131511,0
patternCount-26,true,1.00,1706,570,1693,563,65296,0
patternCount-27,true,1.00,2020,664,2003,657,126348,0
patternCount-28,true,1.00,2952,577,2938,570,111167,0
patternCount-29,true,1.00,2214,575,2193,568,90360,0
patternCount-30,true,1.00,2774,655,2751,646,179705,0
patternCount-31,true,1.00,2780,612,2760,606,107944,0
patternCount-32,true,1.00,3230,729,3215,722,190833,0
patternCount-33,false,0.82,6253,650,6238,650,321061,0
patternCount-34,true,1.00,7476,855,7460,847,433515,0
patternCount-35,true,1.00,2608,623,2594,616,144200,0
patternCount-36,false,0.98,5109,724,5103,724,304721,0
patternCount-37,true,1.00,2872,628,2866,621,176311,0
patternCount-38,true,1.00,10952,973,10936,967,615775,0
patternCount-39,true,1.00,1736,615,1725,608,104395,0
patternCount-40,false,0.74,6734,676,6719,676,420483,0
patternCount-41,true,1.00,5927,698,5910,691,361847,0
patternCount-42,true,1.00,1926,608,1901,601,84079,0
patternCount-43,true,1.00,2202,689,2187,682,141837,0
patternCount-44,true,1.00,1328,531,1318,524,87683,0
patternCount-45,true,1.00,1355,601,1339,594,83117,0
patternCount-46,true,1.00,3375,612,3362,606,145051,0
patternCount-47,true,1.00,4353,692,4340,685,269338,0
patternCount-48,true,1.00,2796,554,2788,547,178615,0
patternCount-49,true,1.00,2554,616,2540,606,145970,0
patternCount-50,false,0.89,10680,831,10664,831,489799,0
patternCount-51,true,1.00,1755,634,1742,627,110572,0
patternCount-52,true,1.00,1430,528,1412,521,90967,0
patternCount-53,false,0.78,5945,598,5936,598,359977,0
patternCount-54,true,1.00,5081,692,5073,685,330843,0
patternCount-55,false,0.54,21357,999,21349,999,1362802,0
patternCount-56,true,1.00,3392,643,3366,637,113960,0
patternCount-57,true,1.00,1585,545,1566,539,81714,0
patternCount-58,false,0.78,5533,640,5527,640,363054,0
patternCount-59,true,1.00,2317,608,2302,602,147852,0
patternCount-60,true,1.00,2371,570,2363,561,149017,0
patternCount-61,true,1.00,3295,585,3276,578,169842,0
patternCount-62,true,1.00,1876,566,1860,559,80024,0
patternCount-63,true,1.00,958,514,948,507,65032,0
patternCount-64,true,1.00,2014,577,1995,570,119164,0
patternCount-65,true,1.00,1724,523,1704,515,58595,0
patternCount-66,true,1.00,3151,611,3139,605,177233,0
patternCount-67,false,0.94,4822,781,4816,781,298268,0
patternCount-68,true,1.00,1219,523,1207,516,79123,0
patternCount-69,true,1.00,1745,546,1734,538,114294,0
patternCount-70,true,1.00,1857,593,1849,585,122908,0
patternCount-71,true,1.00,3566,665,3559,659,234124,0
patternCount-72,false,0.66,5586,522,5576,522,363387,0
patternCount-73,true,1.00,4204,766,4182,759,263339,0
patternCount-74,false,0.79,15885,961,15874,961,847094,0
patternCount-75,true,1.00,2009,645,1995,627,122172,0
patternCount-76,true,1.00,1711,489,1694,482,74061,0
patternCount-77,true,1.00,2755,601,2723,594,94344,0
patternCount-78,true,1.00,6125,719,6113,712,389640,0
patternCount-79,false,0.75,4549,526,4540,526,285686,0
patternCount-80,false,0.93,11032,999,11018,999,592080,0
patternCount-81,true,1.00,1835,589,1815,582,90859,0
patternCount-82,true,1.00,2141,513,2127,507,111920,0
patternCount-83,true,1.00,2031,594,2017,587,127015,0
patternCount-84,true,1.00,1334,574,1319,567,86508,0
patternCount-85,true,1.00,2199,586,2184,578,130762,0
patternCount-86,true,1.00,2358,563,2337,556,108603,0
patternCount-87,true,1.00,2231,584,2215,576,145755,0
patternCount-88,true,1.00,5115,699,5100,692,275750,0
patternCount-89,true,1.00,3296,594,3280,588,212406,0
patternCount-90,true,1.00,1558,517,1545,510,89195,0
patternCount-91,true,1.00,3020,651,3007,644,187476,0
patternCount-92,true,1.00,1835,580,1813,573,106452,0
patternCount-93,false,0.57,7356,539,7343,539,377532,0
patternCount-94,true,1.00,3922,588,3912,580,239783,0
patternCount-95,true,1.00,3404,598,3384,591,151103,0
patternCount-96,true,1.00,3399,750,3383,743,206363,0
patternCount-97,false,0.75,8026,659,8020,659,498639,0
patternCount-98,true,1.00,2453,538,2440,532,107729,0
patternCount-99,true,1.00,2523,662,2507,655,164758,0
patternCount-100,true,1.00,2025,600,2013,593,121645,0
