NDW:0.0
TTFW:1.6
DFPT:2.0
DFPAP:3.0
DFPMP:7.0
RIGHT_WINDOW_BORDER_X:295.0
level,win/fail,% travelled,run time,game ticks,planning time,total plannings,nodes evaluated,most backtracked nodes
notchParamRand-1,true,1.00,782,312,780,285,85685,0
notchParamRand-2,true,1.00,129,306,128,280,12276,0
notchParamRand-3,true,1.00,885,306,883,280,107966,0
notchParamRand-4,true,1.00,1382,334,1381,307,168087,0
notchParamRand-5,true,1.00,260,306,259,280,26447,0
notchParamRand-6,true,1.00,399,312,397,286,45372,0
notchParamRand-7,true,1.00,220,294,220,268,23281,0
notchParamRand-8,true,1.00,399,306,394,280,40866,0
notchParamRand-9,true,1.00,548,335,546,308,63913,0
notchParamRand-10,true,1.00,713,332,712,306,85300,0
notchParamRand-11,true,1.00,121,294,120,268,11246,0
notchParamRand-12,true,1.00,303,308,302,282,32597,0
notchParamRand-13,true,1.00,1550,312,1549,285,173032,0
notchParamRand-14,true,1.00,910,312,908,286,100176,0
notchParamRand-15,true,1.00,567,308,563,282,65343,0
notchParamRand-16,true,1.00,389,300,388,274,47856,0
notchParamRand-17,true,1.00,61,303,58,277,4160,0
notchParamRand-18,true,1.00,1649,326,1647,299,196395,0
notchParamRand-19,true,1.00,182,330,179,304,19923,0
notchParamRand-20,true,1.00,1366,333,1365,307,166878,0
notchParamRand-21,true,1.00,57,296,55,270,3910,0
notchParamRand-22,true,1.00,863,314,861,287,103664,0
notchParamRand-23,true,1.00,1101,335,1098,308,135850,0
notchParamRand-24,true,1.00,173,316,171,289,17976,0
notchParamRand-25,true,1.00,56,308,54,277,4336,0
notchParamRand-26,true,1.00,359,332,359,306,39886,0
notchParamRand-27,true,1.00,219,298,214,272,26434,0
notchParamRand-28,true,1.00,456,315,453,288,51395,0
notchParamRand-29,true,1.00,58,298,57,272,4028,0
notchParamRand-30,true,1.00,1675,326,1673,299,197158,0
notchParamRand-31,true,1.00,372,316,371,289,43519,0
notchParamRand-32,true,1.00,119,294,115,268,11838,0
notchParamRand-33,true,1.00,1700,310,1699,283,195331,0
notchParamRand-34,true,1.00,847,316,842,289,98576,0
notchParamRand-35,true,1.00,478,318,477,291,55865,0
notchParamRand-36,true,1.00,53,300,51,269,3720,0
notchParamRand-37,true,1.00,396,310,396,284,46448,0
notchParamRand-38,true,1.00,1582,315,1578,288,177800,0
notchParamRand-39,true,1.00,1432,316,1431,289,167827,0
notchParamRand-40,true,1.00,1925,314,1924,288,218819,0
notchParamRand-41,true,1.00,58,294,50,268,3606,0
notchParamRand-42,true,1.00,414,316,414,289,48566,0
notchParamRand-43,true,1.00,223,300,222,274,24896,0
notchParamRand-44,true,1.00,288,302,285,276,33311,0
notchParamRand-45,true,1.00,866,318,864,292,91609,0
notchParamRand-46,true,1.00,502,311,499,285,58753,0
notchParamRand-47,true,1.00,701,314,698,288,79831,0
notchParamRand-48,true,1.00,1256,324,1255,297,144196,0
notchParamRand-49,true,1.00,696,306,694,279,79118,0
notchParamRand-50,true,1.00,1221,335,1218,308,144210,0
notchParamRand-51,true,1.00,169,315,165,288,16966,0
notchParamRand-52,true,1.00,705,304,704,278,78519,0
notchParamRand-53,true,1.00,899,328,899,302,101353,0
notchParamRand-54,true,1.00,1616,342,1613,315,181701,0
notchParamRand-55,true,1.00,1589,312,1586,286,171941,0
notchParamRand-56,true,1.00,603,333,601,307,68443,0
notchParamRand-57,true,1.00,878,312,876,286,106893,0
notchParamRand-58,true,1.00,872,323,868,296,101834,0
notchParamRand-59,true,1.00,385,311,385,284,44926,0
notchParamRand-60,true,1.00,703,311,700,285,82969,0
notchParamRand-61,true,1.00,470,306,470,279,53774,0
notchParamRand-62,true,1.00,393,320,391,293,43946,0
notchParamRand-63,true,1.00,1280,312,1278,286,147017,0
notchParamRand-64,true,1.00,309,296,309,270,35590,0
notchParamRand-65,true,1.00,2534,348,2533,321,286980,0
notchParamRand-66,true,1.00,245,311,245,285,24320,0
notchParamRand-67,true,1.00,295,300,294,274,30019,0
notchParamRand-68,true,1.00,1274,312,1272,285,149156,0
notchParamRand-69,true,1.00,229,309,228,283,26323,0
notchParamRand-70,true,1.00,581,326,578,299,70847,0
notchParamRand-71,true,1.00,287,324,286,297,31646,0
notchParamRand-72,true,1.00,121,294,120,268,11829,0
notchParamRand-73,true,1.00,397,320,396,294,40363,0
notchParamRand-74,true,1.00,58,296,57,270,3999,0
notchParamRand-75,true,1.00,55,294,54,268,3567,0
notchParamRand-76,true,1.00,1231,347,1226,321,139777,0
notchParamRand-77,true,1.00,1421,364,1421,337,154428,0
notchParamRand-78,true,1.00,841,310,840,284,96814,0
notchParamRand-79,true,1.00,260,298,259,272,27256,0
notchParamRand-80,true,1.00,258,302,257,276,25870,0
notchParamRand-81,true,1.00,284,298,283,272,33437,0
notchParamRand-82,true,1.00,705,312,703,286,80873,0
notchParamRand-83,true,1.00,1352,336,1351,309,151690,0
notchParamRand-84,true,1.00,261,300,259,274,30241,0
notchParamRand-85,true,1.00,54,294,53,268,3597,0
notchParamRand-86,true,1.00,929,338,928,311,104220,0
notchParamRand-87,true,1.00,1590,318,1589,292,186204,0
notchParamRand-88,true,1.00,286,300,282,274,33314,0
notchParamRand-89,true,1.00,330,300,330,274,37397,0
notchParamRand-90,true,1.00,538,312,537,286,57430,0
notchParamRand-91,true,1.00,55,294,53,268,3806,0
notchParamRand-92,true,1.00,851,324,849,297,100255,0
notchParamRand-93,true,1.00,298,317,295,281,34275,0
notchParamRand-94,true,1.00,1508,308,1508,281,172915,0
notchParamRand-95,true,1.00,695,316,693,289,78918,0
notchParamRand-96,true,1.00,411,320,409,294,46075,0
notchParamRand-97,true,1.00,1304,343,1296,316,144814,0
notchParamRand-98,true,1.00,219,294,218,268,26905,0
notchParamRand-99,true,1.00,268,310,267,284,28491,0
notchParamRand-100,true,1.00,1424,314,1424,287,162664,0
