NDW:0.0
TTFW:0.6
DFPT:2.0
DFPAP:3.0
DFPMP:7.0
RIGHT_WINDOW_BORDER_X:235.0
level,win/fail,% travelled,run time,game ticks,planning time,total plannings,nodes evaluated,most backtracked nodes
notchParam-1,true,1.00,1069,318,1059,297,57840,0
notchParam-2,true,1.00,1139,304,1136,283,59725,0
notchParam-3,true,1.00,758,308,754,287,41091,0
notchParam-4,true,1.00,715,321,707,300,37947,0
notchParam-5,true,1.00,796,304,789,283,43630,0
notchParam-6,true,1.00,853,322,841,301,45350,0
notchParam-7,true,1.00,1089,317,1086,296,53990,0
notchParam-8,true,1.00,1215,306,1207,285,67849,0
notchParam-9,true,1.00,777,326,768,305,41824,0
notchParam-10,true,1.00,1249,318,1242,297,68961,0
notchParam-11,true,1.00,727,314,718,293,40753,0
notchParam-12,true,1.00,1299,334,1290,313,70800,0
notchParam-13,true,1.00,459,310,447,289,27225,0
notchParam-14,true,1.00,448,304,443,283,26943,0
notchParam-15,true,1.00,1107,304,1104,283,62480,0
notchParam-16,true,1.00,1172,314,1166,293,66648,0
notchParam-17,true,1.00,1099,308,1091,287,62036,0
notchParam-18,true,1.00,627,325,623,299,33919,0
notchParam-19,true,1.00,417,306,412,285,23954,0
notchParam-20,true,1.00,436,308,428,287,25192,0
notchParam-21,true,1.00,462,298,454,277,27228,0
notchParam-22,true,1.00,500,313,492,292,28183,0
notchParam-23,true,1.00,1481,340,1473,319,78692,0
notchParam-24,true,1.00,1232,316,1224,295,57485,0
notchParam-25,true,1.00,1283,314,1277,293,63723,0
notchParam-26,true,1.00,1308,334,1299,313,67537,0
notchParam-27,true,1.00,449,316,439,295,24483,0
notchParam-28,true,1.00,813,306,809,285,42647,0
notchParam-29,true,1.00,792,318,784,297,43898,0
notchParam-30,true,1.00,450,304,446,283,26695,0
notchParam-31,true,1.00,1173,329,1165,303,65265,0
notchParam-32,true,1.00,1323,304,1312,283,60777,0
notchParam-33,true,1.00,813,300,799,279,25079,0
notchParam-34,true,1.00,1180,316,1168,295,57351,0
notchParam-35,true,1.00,1324,316,1315,295,55112,0
notchParam-36,true,1.00,1240,298,1224,277,40996,0
notchParam-37,true,1.00,527,300,519,279,28407,0
notchParam-38,true,1.00,471,306,459,285,26943,0
notchParam-39,true,1.00,1465,335,1455,314,75641,0
notchParam-40,true,1.00,693,310,681,289,35969,0
notchParam-41,true,1.00,742,314,737,293,40163,0
notchParam-42,true,1.00,480,304,471,283,25953,0
notchParam-43,true,1.00,1370,328,1361,307,73115,0
notchParam-44,true,1.00,1593,322,1577,301,49142,0
notchParam-45,true,1.00,1199,327,1189,297,62141,0
notchParam-46,true,1.00,1328,320,1319,299,73167,0
notchParam-47,true,1.00,456,302,451,281,26657,0
notchParam-48,true,1.00,465,312,454,291,25653,0
notchParam-49,true,1.00,495,320,486,294,27683,0
notchParam-50,true,1.00,754,328,747,307,38301,0
notchParam-51,true,1.00,440,306,433,285,26126,0
notchParam-52,true,1.00,1186,310,1178,289,57628,0
notchParam-53,true,1.00,2150,373,2135,352,70449,0
notchParam-54,true,1.00,1366,329,1357,303,55194,0
notchParam-55,true,1.00,561,312,550,291,30432,0
notchParam-56,true,1.00,443,306,436,285,25860,0
notchParam-57,true,1.00,1336,320,1329,299,74045,0
notchParam-58,true,1.00,725,320,718,299,40649,0
notchParam-59,true,1.00,1326,323,1320,302,71778,0
notchParam-60,true,1.00,828,325,824,304,43260,0
notchParam-61,true,1.00,1322,320,1314,299,72560,0
notchParam-62,true,1.00,995,306,990,285,55596,0
notchParam-63,true,1.00,715,330,708,309,38423,0
notchParam-64,true,1.00,845,310,832,289,38085,0
notchParam-65,true,1.00,955,316,943,295,25991,0
notchParam-66,true,1.00,818,331,809,310,34735,0
notchParam-67,true,1.00,1158,316,1151,295,61303,0
notchParam-68,true,1.00,1167,314,1162,292,53131,0
notchParam-69,true,1.00,1269,298,1258,277,45155,0
notchParam-70,true,1.00,1129,308,1120,287,62128,0
notchParam-71,true,1.00,900,331,895,310,47583,0
notchParam-72,true,1.00,751,322,741,301,40862,0
notchParam-73,true,1.00,743,308,739,287,41078,0
notchParam-74,true,1.00,752,328,749,307,41147,0
notchParam-75,true,1.00,784,320,776,299,42725,0
notchParam-76,true,1.00,1316,328,1312,307,72140,0
notchParam-77,true,1.00,849,320,840,299,46897,0
notchParam-78,true,1.00,1366,320,1361,299,75480,0
notchParam-79,true,1.00,716,314,708,293,40315,0
notchParam-80,true,1.00,589,312,584,291,32153,0
notchParam-81,true,1.00,769,328,765,307,42716,0
notchParam-82,true,1.00,454,304,448,283,26331,0
notchParam-83,true,1.00,455,306,452,285,26954,0
notchParam-84,true,1.00,1189,315,1184,294,60845,0
notchParam-85,true,1.00,1369,348,1360,327,70471,0
notchParam-86,true,1.00,1221,308,1214,287,64986,0
notchParam-87,true,1.00,433,314,431,293,24698,0
notchParam-88,true,1.00,541,306,539,285,29779,0
notchParam-89,true,1.00,474,300,471,279,26784,0
notchParam-90,true,1.00,464,300,451,279,26400,0
notchParam-91,true,1.00,1290,312,1280,291,67859,0
notchParam-92,true,1.00,1363,308,1349,287,63701,0
notchParam-93,true,1.00,1377,320,1366,299,48068,0
notchParam-94,true,1.00,1238,322,1231,301,69185,0
notchParam-95,true,1.00,1519,335,1509,314,78341,0
notchParam-96,true,1.00,743,312,734,291,41979,0
notchParam-97,true,1.00,755,306,750,285,41797,0
notchParam-98,true,1.00,474,300,466,279,28588,0
notchParam-99,true,1.00,1318,306,1305,285,58781,0
notchParam-100,true,1.00,1266,304,1255,283,41726,0
