NDW:0.0
TTFW:1.6
DFPT:2.0
DFPAP:3.0
DFPMP:5.0
RIGHT_WINDOW_BORDER_X:176.0
level,win/fail,% travelled,run time,game ticks,planning time,total plannings,nodes evaluated,most backtracked nodes
notchParam-1,true,1.00,1042,322,1042,306,98437,0
notchParam-2,true,1.00,785,345,784,329,78598,0
notchParam-3,true,1.00,523,325,521,309,59045,0
notchParam-4,true,1.00,551,321,550,305,58788,0
notchParam-5,true,1.00,582,316,581,300,61728,0
notchParam-6,true,1.00,604,327,602,311,65466,0
notchParam-7,true,1.00,815,325,814,309,87095,0
notchParam-8,true,1.00,1087,335,1085,319,113042,0
notchParam-9,true,1.00,601,345,599,329,64451,0
notchParam-10,true,1.00,1260,359,1257,343,128890,0
notchParam-11,true,1.00,630,324,628,308,67582,0
notchParam-12,true,1.00,1161,352,1159,336,124684,0
notchParam-13,true,1.00,191,312,190,296,20777,0
notchParam-14,true,1.00,221,304,217,288,23461,0
notchParam-15,true,1.00,788,302,783,286,74508,0
notchParam-16,true,1.00,1515,342,1513,326,150606,0
notchParam-17,true,1.00,851,304,846,288,82963,0
notchParam-18,true,1.00,213,341,210,325,23984,0
notchParam-19,true,1.00,227,315,225,299,24991,0
notchParam-20,true,1.00,220,308,218,292,23830,0
notchParam-21,true,1.00,217,306,215,290,21201,0
notchParam-22,true,1.00,228,315,224,299,26773,0
notchParam-23,true,1.00,1321,363,1318,347,141444,0
notchParam-24,true,1.00,1155,360,1153,344,123030,0
notchParam-25,true,1.00,1230,336,1230,320,123233,0
notchParam-26,true,1.00,1164,348,1163,332,126060,0
notchParam-27,true,1.00,219,309,218,293,23212,0
notchParam-28,true,1.00,590,326,590,310,66173,0
notchParam-29,true,1.00,610,328,607,312,65925,0
notchParam-30,true,1.00,228,308,226,292,24338,0
notchParam-31,true,1.00,1095,336,1093,320,113884,0
notchParam-32,true,1.00,844,323,844,307,89033,0
notchParam-33,true,1.00,234,302,230,286,25779,0
notchParam-34,true,1.00,878,323,878,307,86282,0
notchParam-35,true,1.00,971,316,970,300,98998,0
notchParam-36,true,1.00,838,302,836,286,80560,0
notchParam-37,true,1.00,214,300,212,284,20912,0
notchParam-38,true,1.00,219,304,218,288,24417,0
notchParam-39,true,1.00,1109,339,1107,323,105061,0
notchParam-40,true,1.00,616,324,612,308,63928,0
notchParam-41,true,1.00,564,326,564,310,61990,0
notchParam-42,true,1.00,222,309,220,293,25048,0
notchParam-43,true,1.00,1191,330,1191,314,124346,0
notchParam-44,true,1.00,1081,352,1078,336,119077,0
notchParam-45,true,1.00,1312,344,1310,322,139295,0
notchParam-46,true,1.00,1123,324,1122,308,112024,0
notchParam-47,true,1.00,260,316,256,300,31848,0
notchParam-48,true,1.00,209,339,209,323,24864,0
notchParam-49,true,1.00,225,320,224,304,25429,0
notchParam-50,true,1.00,215,328,214,312,22980,0
notchParam-51,true,1.00,251,310,250,294,26691,0
notchParam-52,true,1.00,1020,340,1018,324,99931,0
notchParam-53,true,1.00,1445,385,1442,369,155780,0
notchParam-54,true,1.00,1157,334,1154,318,116780,0
notchParam-55,true,1.00,256,325,252,309,29789,0
notchParam-56,true,1.00,229,318,226,302,25274,0
notchParam-57,true,1.00,1102,354,1100,338,120944,0
notchParam-58,true,1.00,611,348,607,332,65639,0
notchParam-59,true,1.00,1217,363,1216,347,126361,0
notchParam-60,true,1.00,593,336,593,320,61292,0
notchParam-61,true,1.00,1118,346,1116,330,123327,0
notchParam-62,true,1.00,758,316,756,300,73109,0
notchParam-63,true,1.00,567,338,563,322,59078,0
notchParam-64,true,1.00,589,326,587,310,65617,0
notchParam-65,true,1.00,564,334,562,318,59995,0
notchParam-66,true,1.00,593,341,591,325,63503,0
notchParam-67,true,1.00,1014,326,1009,310,107846,0
notchParam-68,true,1.00,793,308,791,292,73727,0
notchParam-69,true,1.00,870,312,865,296,80664,0
notchParam-70,true,1.00,1261,342,1257,326,118783,0
notchParam-71,true,1.00,700,362,697,346,77576,0
notchParam-72,true,1.00,631,342,630,326,71358,0
notchParam-73,true,1.00,625,342,624,326,67015,0
notchParam-74,true,1.00,544,337,543,321,58066,0
notchParam-75,true,1.00,599,337,596,321,70412,0
notchParam-76,true,1.00,1035,362,1032,346,107228,0
notchParam-77,true,1.00,594,327,591,311,64799,0
notchParam-78,true,1.00,1199,331,1199,315,126089,0
notchParam-79,true,1.00,571,325,568,309,63060,0
notchParam-80,true,1.00,217,356,213,340,25505,0
notchParam-81,true,1.00,537,328,535,312,63312,0
notchParam-82,true,1.00,220,313,220,297,23311,0
notchParam-83,true,1.00,218,302,215,286,24902,0
notchParam-84,true,1.00,1663,375,1660,359,164729,0
notchParam-85,true,1.00,1280,375,1279,359,125898,0
notchParam-86,true,1.00,1126,337,1121,321,118264,0
notchParam-87,true,1.00,229,324,226,308,27083,0
notchParam-88,true,1.00,248,310,245,294,25632,0
notchParam-89,true,1.00,221,304,220,288,23480,0
notchParam-90,true,1.00,222,312,220,296,23942,0
notchParam-91,true,1.00,1159,334,1157,318,112842,0
notchParam-92,true,1.00,1148,314,1147,298,113416,0
notchParam-93,true,1.00,1157,332,1156,316,122121,0
notchParam-94,true,1.00,1167,347,1165,331,121030,0
notchParam-95,true,1.00,1199,380,1197,364,132409,0
notchParam-96,true,1.00,602,343,600,327,69897,0
notchParam-97,true,1.00,582,322,580,306,56378,0
notchParam-98,true,1.00,233,304,232,288,25330,0
notchParam-99,true,1.00,1161,334,1158,318,117307,0
notchParam-100,true,1.00,761,304,760,288,76151,0
