NDW:0.0
TTFW:2.0
DFPT:2.0
DFPAP:3.0
DFPMP:0.0
RIGHT_WINDOW_BORDER_X:400.0
level,win/fail,% travelled,run time,game ticks,planning time,total plannings,nodes evaluated,most backtracked nodes
patternWeightCount-1,true,1.00,3423,550,3411,494,196322,0
patternWeightCount-2,true,1.00,1062,458,1048,417,57600,0
patternWeightCount-3,true,1.00,782,443,769,403,40918,0
patternWeightCount-4,true,1.00,953,469,941,422,49102,0
patternWeightCount-5,true,1.00,2044,514,2035,455,115601,0
patternWeightCount-6,true,1.00,2751,580,2736,533,154459,0
patternWeightCount-7,true,1.00,1243,454,1229,418,67142,0
patternWeightCount-8,true,1.00,1488,435,1474,399,60651,0
patternWeightCount-9,true,1.00,1435,537,1417,492,73533,0
patternWeightCount-10,true,1.00,1154,526,1147,487,58281,0
patternWeightCount-11,true,1.00,791,507,777,471,37894,0
patternWeightCount-12,true,1.00,1645,551,1628,497,85610,0
patternWeightCount-13,true,1.00,1401,443,1395,407,78313,0
patternWeightCount-14,true,1.00,1395,526,1384,476,72588,0
patternWeightCount-15,true,1.00,1701,442,1688,397,96093,0
patternWeightCount-16,true,1.00,3236,533,3229,479,193519,0
patternWeightCount-17,true,1.00,1207,521,1194,484,59941,0
patternWeightCount-18,true,1.00,1142,487,1131,441,60305,0
patternWeightCount-19,true,1.00,809,504,794,468,38569,0
patternWeightCount-20,false,0.65,3867,341,3864,341,208838,0
patternWeightCount-21,true,1.00,1194,558,1180,510,55764,0
patternWeightCount-22,true,1.00,2989,546,2975,496,170204,0
patternWeightCount-23,true,1.00,1621,504,1614,443,87251,0
patternWeightCount-24,true,1.00,1317,478,1306,442,70100,0
patternWeightCount-25,true,1.00,1847,487,1835,450,105077,0
patternWeightCount-26,true,1.00,1486,513,1471,466,82264,0
patternWeightCount-27,true,1.00,2608,504,2594,443,151417,0
patternWeightCount-28,true,1.00,1766,539,1749,503,98205,0
patternWeightCount-29,true,1.00,1405,423,1396,387,80080,0
patternWeightCount-30,true,1.00,3707,537,3692,470,200405,0
patternWeightCount-31,true,1.00,1389,470,1378,434,67361,0
patternWeightCount-32,true,1.00,872,451,861,405,44948,0
patternWeightCount-33,true,1.00,1088,536,1078,492,57236,0
patternWeightCount-34,true,1.00,1290,430,1282,394,70128,0
patternWeightCount-35,true,1.00,4130,492,4120,456,179075,0
patternWeightCount-36,true,1.00,2152,517,2138,480,121046,0
patternWeightCount-37,true,1.00,898,461,883,425,46615,0
patternWeightCount-38,true,1.00,1951,502,1942,449,108064,0
patternWeightCount-39,true,1.00,1668,432,1652,396,94298,0
patternWeightCount-40,true,1.00,1484,507,1475,471,83646,0
patternWeightCount-41,true,1.00,1514,507,1484,445,81113,0
patternWeightCount-42,false,0.88,3409,444,3393,444,181520,0
patternWeightCount-43,true,1.00,1238,444,1233,400,68160,0
patternWeightCount-44,true,1.00,2023,550,2010,480,116364,0
patternWeightCount-45,true,1.00,3750,553,3740,510,213326,0
patternWeightCount-46,true,1.00,3584,544,3568,490,184792,0
patternWeightCount-47,true,1.00,1084,450,1066,414,55957,0
patternWeightCount-48,true,1.00,1036,451,1030,415,52411,0
patternWeightCount-49,true,1.00,868,448,860,412,46420,0
patternWeightCount-50,true,1.00,1131,451,1121,405,60838,0
patternWeightCount-51,true,1.00,1830,489,1823,429,103930,0
patternWeightCount-52,true,1.00,1800,523,1782,474,96810,0
patternWeightCount-53,true,1.00,2803,485,2792,430,157193,0
patternWeightCount-54,true,1.00,1514,486,1506,449,77015,0
patternWeightCount-55,true,1.00,1976,516,1967,477,110563,0
patternWeightCount-56,true,1.00,1396,528,1391,483,73970,0
patternWeightCount-57,true,1.00,697,409,686,373,33968,0
patternWeightCount-58,true,1.00,1603,489,1594,440,89135,0
patternWeightCount-59,true,1.00,749,473,735,435,34394,0
patternWeightCount-60,true,1.00,2177,575,2168,513,120963,0
patternWeightCount-61,true,1.00,1409,408,1404,371,78764,0
patternWeightCount-62,true,1.00,3067,539,3049,462,169595,0
patternWeightCount-63,true,1.00,1613,493,1598,457,93252,0
patternWeightCount-64,true,1.00,1849,480,1842,444,101962,0
patternWeightCount-65,true,1.00,1651,546,1640,489,91099,0
patternWeightCount-66,true,1.00,1340,489,1327,453,71174,0
patternWeightCount-67,true,1.00,2391,487,2375,451,118154,0
patternWeightCount-68,false,0.85,20453,999,20438,999,732646,0
patternWeightCount-69,true,1.00,2261,476,2252,411,129491,0
patternWeightCount-70,true,1.00,1368,477,1357,416,72022,0
patternWeightCount-71,true,1.00,1406,432,1392,382,79503,0
patternWeightCount-72,true,1.00,3639,456,3631,413,187072,0
patternWeightCount-73,true,1.00,6064,534,6055,466,349294,0
patternWeightCount-74,true,1.00,1327,473,1317,437,73264,0
patternWeightCount-75,true,1.00,1295,467,1281,431,68135,0
patternWeightCount-76,true,1.00,1360,520,1340,483,71303,0
patternWeightCount-77,true,1.00,1579,484,1561,448,84900,0
patternWeightCount-78,true,1.00,3177,530,3163,480,161928,0
patternWeightCount-79,true,1.00,887,445,879,409,43441,0
patternWeightCount-80,true,1.00,1590,558,1574,520,84931,0
patternWeightCount-81,true,1.00,3578,490,3565,444,194409,0
patternWeightCount-82,true,1.00,414,418,403,357,18161,0
patternWeightCount-83,true,1.00,1147,467,1130,424,61878,0
patternWeightCount-84,true,1.00,1358,546,1343,509,70450,0
patternWeightCount-85,true,1.00,1521,459,1512,422,84440,0
patternWeightCount-86,false,0.94,3322,440,3316,440,172633,0
patternWeightCount-87,true,1.00,5227,515,5218,460,291212,0
patternWeightCount-88,true,1.00,1577,486,1566,431,87197,0
patternWeightCount-89,true,1.00,1290,465,1277,429,68175,0
patternWeightCount-90,true,1.00,4889,540,4875,479,263978,0
patternWeightCount-91,true,1.00,1540,517,1526,469,78563,0
patternWeightCount-92,true,1.00,4094,569,4078,496,246521,0
patternWeightCount-93,true,1.00,4219,508,4209,471,226546,0
patternWeightCount-94,true,1.00,2080,534,2059,497,95206,0
patternWeightCount-95,true,1.00,1523,496,1515,460,68133,0
patternWeightCount-96,true,1.00,1153,533,1136,494,53429,0
patternWeightCount-97,true,1.00,1583,431,1572,381,86785,0
patternWeightCount-98,true,1.00,4568,500,4557,446,274131,0
patternWeightCount-99,true,1.00,1667,554,1642,504,90158,0
patternWeightCount-100,true,1.00,1341,457,1331,420,75186,0
