NDW:0.0
TTFW:0.4
DFPT:2.0
DFPAP:3.0
DFPMP:7.0
RIGHT_WINDOW_BORDER_X:176.0
level,win/fail,% travelled,run time,game ticks,planning time,total plannings,nodes evaluated,most backtracked nodes
notchParam-1,true,1.00,1627,349,1626,333,143462,0
notchParam-2,true,1.00,1316,338,1316,322,116302,0
notchParam-3,true,1.00,664,314,659,298,64007,0
notchParam-4,true,1.00,658,321,657,305,62563,0
notchParam-5,true,1.00,702,326,701,310,68117,0
notchParam-6,true,1.00,743,332,742,316,71333,0
notchParam-7,true,1.00,986,320,984,304,94971,0
notchParam-8,true,1.00,1460,345,1459,329,136920,0
notchParam-9,true,1.00,625,320,622,304,60051,0
notchParam-10,true,1.00,1554,356,1553,340,140183,0
notchParam-11,true,1.00,638,306,637,290,60530,0
notchParam-12,true,1.00,1445,360,1443,344,133526,0
notchParam-13,true,1.00,383,306,381,290,38657,0
notchParam-14,true,1.00,364,300,362,284,36974,0
notchParam-15,true,1.00,982,300,980,284,89422,0
notchParam-16,true,1.00,1237,339,1237,323,117748,0
notchParam-17,true,1.00,1341,343,1339,327,122392,0
notchParam-18,true,1.00,424,318,421,302,41963,0
notchParam-19,true,1.00,351,312,351,296,35556,0
notchParam-20,true,1.00,369,308,369,292,36915,0
notchParam-21,true,1.00,376,308,375,292,36476,0
notchParam-22,true,1.00,353,312,350,296,36482,0
notchParam-23,true,1.00,1997,373,1996,357,180565,0
notchParam-24,true,1.00,1520,336,1518,320,140657,0
notchParam-25,true,1.00,1309,331,1307,315,119381,0
notchParam-26,true,1.00,1505,355,1502,338,137719,0
notchParam-27,true,1.00,381,309,378,293,39169,0
notchParam-28,true,1.00,655,308,652,292,63487,0
notchParam-29,true,1.00,779,312,778,296,75635,0
notchParam-30,true,1.00,365,306,365,290,37395,0
notchParam-31,true,1.00,1333,336,1332,320,126357,0
notchParam-32,true,1.00,1231,324,1229,308,117323,0
notchParam-33,true,1.00,436,316,433,300,44635,0
notchParam-34,true,1.00,1434,346,1430,330,131475,0
notchParam-35,true,1.00,1330,332,1328,316,124855,0
notchParam-36,true,1.00,1289,322,1284,306,121378,0
notchParam-37,true,1.00,357,296,354,280,37458,0
notchParam-38,true,1.00,344,298,341,282,36354,0
notchParam-39,true,1.00,1251,323,1247,307,114977,0
notchParam-40,true,1.00,620,300,618,284,58976,0
notchParam-41,true,1.00,733,316,732,300,69709,0
notchParam-42,true,1.00,368,314,368,298,37657,0
notchParam-43,true,1.00,1332,338,1330,322,122761,0
notchParam-44,true,1.00,1284,328,1282,312,121263,0
notchParam-45,true,1.00,1388,329,1386,313,130575,0
notchParam-46,true,1.00,1261,324,1258,308,116715,0
notchParam-47,true,1.00,368,302,367,286,38510,0
notchParam-48,true,1.00,406,310,401,294,38695,0
notchParam-49,true,1.00,387,323,386,303,38441,0
notchParam-50,true,1.00,743,358,741,342,65486,0
notchParam-51,true,1.00,345,308,343,292,35522,0
notchParam-52,true,1.00,1287,335,1284,319,120106,0
notchParam-53,true,1.00,1652,359,1652,343,151905,0
notchParam-54,true,1.00,1524,368,1523,352,139380,0
notchParam-55,true,1.00,698,351,697,335,64033,0
notchParam-56,true,1.00,340,296,340,280,35293,0
notchParam-57,true,1.00,1581,366,1580,350,149934,0
notchParam-58,true,1.00,731,324,728,308,69815,0
notchParam-59,true,1.00,1399,375,1395,359,127692,0
notchParam-60,true,1.00,925,350,919,334,83642,0
notchParam-61,true,1.00,1814,372,1811,356,168830,0
notchParam-62,true,1.00,1039,325,1037,309,94494,0
notchParam-63,true,1.00,649,324,648,308,60886,0
notchParam-64,true,1.00,651,326,650,310,62024,0
notchParam-65,true,1.00,630,324,630,308,61438,0
notchParam-66,true,1.00,601,330,600,314,59353,0
notchParam-67,true,1.00,1118,310,1113,294,104108,0
notchParam-68,true,1.00,1518,335,1516,319,136858,0
notchParam-69,true,1.00,955,302,954,286,85900,0
notchParam-70,true,1.00,1113,329,1110,313,103074,0
notchParam-71,true,1.00,771,344,769,326,74777,0
notchParam-72,true,1.00,672,338,667,322,65594,0
notchParam-73,true,1.00,621,314,618,298,58679,0
notchParam-74,true,1.00,578,304,575,288,54559,0
notchParam-75,true,1.00,718,326,717,310,70595,0
notchParam-76,true,1.00,1659,341,1656,325,153314,0
notchParam-77,true,1.00,710,334,707,318,68763,0
notchParam-78,true,1.00,1314,322,1312,306,123773,0
notchParam-79,true,1.00,616,330,615,314,59570,0
notchParam-80,true,1.00,452,326,450,310,44650,0
notchParam-81,true,1.00,661,308,660,292,63797,0
notchParam-82,true,1.00,375,306,374,290,37727,0
notchParam-83,true,1.00,418,320,416,304,41370,0
notchParam-84,true,1.00,1859,370,1850,354,154951,0
notchParam-85,false,0.35,28436,999,28434,999,2210433,0
notchParam-86,true,1.00,1110,336,1110,320,105310,0
notchParam-87,true,1.00,332,294,329,278,34864,0
notchParam-88,true,1.00,349,304,348,288,35308,0
notchParam-89,true,1.00,361,298,361,282,36629,0
notchParam-90,true,1.00,344,302,343,286,35498,0
notchParam-91,true,1.00,1279,330,1275,314,113698,0
notchParam-92,true,1.00,1109,300,1107,284,100323,0
notchParam-93,true,1.00,1564,359,1562,340,148897,0
notchParam-94,true,1.00,1570,340,1569,324,148638,0
notchParam-95,true,1.00,1547,370,1546,354,142790,0
notchParam-96,true,1.00,624,310,623,294,62305,0
notchParam-97,true,1.00,664,306,662,290,61361,0
notchParam-98,true,1.00,403,318,401,302,40923,0
notchParam-99,true,1.00,1541,368,1538,352,143999,0
notchParam-100,true,1.00,1347,332,1345,316,121949,0
