NDW:0.0
TTFW:0.8
DFPT:2.0
DFPAP:3.0
DFPMP:7.0
RIGHT_WINDOW_BORDER_X:275.0
level,win/fail,% travelled,run time,game ticks,planning time,total plannings,nodes evaluated,most backtracked nodes
notchParamRand-1,true,1.00,885,312,883,287,83820,0
notchParamRand-2,true,1.00,167,308,163,283,17230,0
notchParamRand-3,true,1.00,892,306,892,281,91069,0
notchParamRand-4,true,1.00,1668,338,1668,313,166230,0
notchParamRand-5,true,1.00,289,306,289,281,27625,0
notchParamRand-6,true,1.00,384,304,382,279,38183,0
notchParamRand-7,true,1.00,263,294,262,269,27358,0
notchParamRand-8,true,1.00,500,302,496,277,47467,0
notchParamRand-9,true,1.00,588,308,588,283,60206,0
notchParamRand-10,true,1.00,864,313,862,288,87469,0
notchParamRand-11,true,1.00,155,294,153,269,15920,0
notchParamRand-12,true,1.00,299,306,298,281,29634,0
notchParamRand-13,true,1.00,1589,306,1587,281,152474,0
notchParamRand-14,true,1.00,952,312,947,287,91709,0
notchParamRand-15,true,1.00,585,308,584,283,58867,0
notchParamRand-16,true,1.00,430,300,429,275,47230,0
notchParamRand-17,true,1.00,97,294,96,269,11193,0
notchParamRand-18,true,1.00,1759,316,1757,291,177281,0
notchParamRand-19,true,1.00,201,325,199,300,20610,0
notchParamRand-20,true,1.00,1386,327,1382,302,145658,0
notchParamRand-21,true,1.00,96,296,96,271,11043,0
notchParamRand-22,true,1.00,866,318,866,293,88253,0
notchParamRand-23,true,1.00,1001,326,998,301,100335,0
notchParamRand-24,true,1.00,238,320,236,295,24339,0
notchParamRand-25,true,1.00,91,308,88,280,10661,0
notchParamRand-26,true,1.00,443,326,442,301,41745,0
notchParamRand-27,true,1.00,260,300,260,275,29744,0
notchParamRand-28,true,1.00,459,310,456,285,42850,0
notchParamRand-29,true,1.00,101,298,99,273,12541,0
notchParamRand-30,true,1.00,1979,341,1978,316,196982,0
notchParamRand-31,true,1.00,415,316,412,291,41357,0
notchParamRand-32,true,1.00,163,294,161,269,19043,0
notchParamRand-33,true,1.00,1838,320,1836,295,185229,0
notchParamRand-34,true,1.00,937,318,934,293,93030,0
notchParamRand-35,true,1.00,488,310,487,285,50409,0
notchParamRand-36,true,1.00,88,300,86,272,10103,0
notchParamRand-37,true,1.00,391,310,388,285,40343,0
notchParamRand-38,true,1.00,1637,313,1637,288,160204,0
notchParamRand-39,true,1.00,1551,319,1549,294,154766,0
notchParamRand-40,true,1.00,1967,314,1963,289,199621,0
notchParamRand-41,true,1.00,96,294,96,269,12008,0
notchParamRand-42,true,1.00,447,316,446,291,44313,0
notchParamRand-43,true,1.00,263,300,263,275,28432,0
notchParamRand-44,true,1.00,329,304,329,279,34353,0
notchParamRand-45,true,1.00,909,308,907,283,87158,0
notchParamRand-46,true,1.00,498,302,496,277,50709,0
notchParamRand-47,true,1.00,723,314,720,289,71164,0
notchParamRand-48,true,1.00,1266,310,1266,285,125070,0
notchParamRand-49,true,1.00,681,306,678,281,65485,0
notchParamRand-50,true,1.00,1226,324,1223,299,123449,0
notchParamRand-51,true,1.00,194,308,191,283,19773,0
notchParamRand-52,true,1.00,767,308,765,283,74730,0
notchParamRand-53,true,1.00,856,312,852,287,81295,0
notchParamRand-54,true,1.00,1609,338,1605,313,159093,0
notchParamRand-55,true,1.00,1647,312,1645,287,155420,0
notchParamRand-56,true,1.00,654,304,652,279,66304,0
notchParamRand-57,true,1.00,887,312,885,287,91111,0
notchParamRand-58,true,1.00,720,312,720,287,72929,0
notchParamRand-59,true,1.00,391,304,388,279,41219,0
notchParamRand-60,true,1.00,592,302,589,277,59397,0
notchParamRand-61,true,1.00,480,312,480,287,47535,0
notchParamRand-62,true,1.00,426,316,424,291,41335,0
notchParamRand-63,true,1.00,1363,314,1360,289,133971,0
notchParamRand-64,true,1.00,291,296,290,271,31851,0
notchParamRand-65,true,1.00,1999,322,1996,297,194790,0
notchParamRand-66,true,1.00,387,306,387,281,36300,0
notchParamRand-67,true,1.00,293,300,292,275,28858,0
notchParamRand-68,true,1.00,1309,312,1306,287,130245,0
notchParamRand-69,true,1.00,262,300,261,275,28960,0
notchParamRand-70,true,1.00,628,328,627,303,63535,0
notchParamRand-71,true,1.00,266,310,266,285,26446,0
notchParamRand-72,true,1.00,159,294,156,269,17094,0
notchParamRand-73,true,1.00,416,306,415,281,39612,0
notchParamRand-74,true,1.00,102,294,100,269,12752,0
notchParamRand-75,true,1.00,99,294,98,269,12114,0
notchParamRand-76,true,1.00,1054,328,1053,303,101192,0
notchParamRand-77,true,1.00,1375,326,1374,301,134392,0
notchParamRand-78,true,1.00,891,302,890,277,88430,0
notchParamRand-79,true,1.00,289,298,284,273,28320,0
notchParamRand-80,true,1.00,293,304,292,279,29041,0
notchParamRand-81,true,1.00,299,298,296,273,32271,0
notchParamRand-82,true,1.00,720,308,720,283,71215,0
notchParamRand-83,true,1.00,1210,327,1208,302,122110,0
notchParamRand-84,true,1.00,290,300,290,275,29658,0
notchParamRand-85,true,1.00,101,294,98,269,12482,0
notchParamRand-86,true,1.00,579,331,577,306,54616,0
notchParamRand-87,true,1.00,1628,314,1627,289,163128,0
notchParamRand-88,true,1.00,304,298,304,273,32321,0
notchParamRand-89,true,1.00,368,304,367,279,39608,0
notchParamRand-90,true,1.00,573,313,572,288,56271,0
notchParamRand-91,true,1.00,95,294,94,269,11025,0
notchParamRand-92,true,1.00,880,314,877,289,87680,0
notchParamRand-93,true,1.00,292,313,291,283,29488,0
notchParamRand-94,true,1.00,1533,324,1532,299,146233,0
notchParamRand-95,true,1.00,688,316,687,291,65043,0
notchParamRand-96,true,1.00,463,316,462,291,44745,0
notchParamRand-97,true,1.00,1250,316,1249,291,117408,0
notchParamRand-98,true,1.00,255,294,251,269,28786,0
notchParamRand-99,true,1.00,292,310,292,285,28953,0
notchParamRand-100,true,1.00,1437,312,1434,287,141767,0
