NDW:0.0
TTFW:0.6
DFPT:2.0
DFPAP:3.0
DFPMP:2.0
RIGHT_WINDOW_BORDER_X:295.0
level,win/fail,% travelled,run time,game ticks,planning time,total plannings,nodes evaluated,most backtracked nodes
patternOccur-1,true,1.00,1462,381,1452,354,71578,0
patternOccur-2,true,1.00,1038,387,1026,360,51705,0
patternOccur-3,true,1.00,1643,398,1638,371,86602,0
patternOccur-4,true,1.00,1639,386,1633,360,87045,0
patternOccur-5,true,1.00,890,369,881,342,44508,0
patternOccur-6,true,1.00,1549,406,1540,379,80765,0
patternOccur-7,true,1.00,1608,395,1598,367,86572,0
patternOccur-8,true,1.00,1751,396,1746,369,93281,0
patternOccur-9,true,1.00,1662,372,1657,343,87522,0
patternOccur-10,true,1.00,1156,378,1150,351,61001,0
patternOccur-11,true,1.00,4933,454,4921,420,250377,0
patternOccur-12,true,1.00,1765,400,1759,373,91594,0
patternOccur-13,true,1.00,1061,402,1049,375,54744,0
patternOccur-14,true,1.00,3945,418,3939,377,205172,0
patternOccur-15,true,1.00,1255,364,1243,337,67107,0
patternOccur-16,true,1.00,4486,423,4479,390,233249,0
patternOccur-17,true,1.00,1519,396,1511,369,80520,0
patternOccur-18,true,1.00,1029,360,1022,334,52257,0
patternOccur-19,true,1.00,3809,435,3800,389,195978,0
patternOccur-20,true,1.00,1163,378,1159,352,63509,0
patternOccur-21,true,1.00,1166,388,1158,354,61912,0
patternOccur-22,true,1.00,3663,444,3659,398,191984,0
patternOccur-23,true,1.00,1481,380,1474,353,75005,0
patternOccur-24,true,1.00,1274,397,1268,370,65011,0
patternOccur-25,true,1.00,1471,397,1460,370,78312,0
patternOccur-26,true,1.00,848,356,844,329,44375,0
patternOccur-27,true,1.00,2959,407,2955,374,152828,0
patternOccur-28,true,1.00,1737,415,1731,388,89537,0
patternOccur-29,true,1.00,1047,371,1034,340,55560,0
patternOccur-30,true,1.00,912,378,902,351,46584,0
patternOccur-31,true,1.00,3813,414,3806,383,205583,0
patternOccur-32,true,1.00,3038,414,3032,363,157720,0
patternOccur-33,true,1.00,1149,388,1139,361,60907,0
patternOccur-34,true,1.00,1279,384,1272,352,68663,0
patternOccur-35,true,1.00,1223,374,1215,347,64941,0
patternOccur-36,true,1.00,2436,390,2429,363,133023,0
patternOccur-37,true,1.00,3424,424,3413,383,177052,0
patternOccur-38,true,1.00,1234,381,1228,354,65822,0
patternOccur-39,true,1.00,2951,461,2941,434,149940,0
patternOccur-40,true,1.00,1615,377,1608,350,86798,0
patternOccur-41,true,1.00,1392,396,1383,359,73198,0
patternOccur-42,false,0.89,3024,395,3020,395,153410,0
patternOccur-43,true,1.00,1062,362,1050,335,57103,0
patternOccur-44,true,1.00,1270,354,1262,327,70211,0
patternOccur-45,true,1.00,2249,385,2240,350,113248,0
patternOccur-46,true,1.00,989,339,982,312,52556,0
patternOccur-47,true,1.00,2794,409,2781,369,149595,0
patternOccur-48,true,1.00,1529,379,1526,352,80073,0
patternOccur-49,true,1.00,1011,361,1003,334,53760,0
patternOccur-50,true,1.00,1613,376,1606,348,83394,0
patternOccur-51,true,1.00,1854,398,1847,371,98836,0
patternOccur-52,true,1.00,1571,376,1561,349,82796,0
patternOccur-53,true,1.00,1462,382,1456,355,76716,0
patternOccur-54,true,1.00,1817,378,1809,349,97618,0
patternOccur-55,true,1.00,1902,412,1892,385,100247,0
patternOccur-56,true,1.00,1361,381,1357,354,72316,0
patternOccur-57,true,1.00,1659,447,1650,419,87980,0
patternOccur-58,true,1.00,6650,516,6638,484,351955,0
patternOccur-59,true,1.00,1654,374,1641,347,88715,0
patternOccur-60,true,1.00,2763,403,2751,362,145877,0
patternOccur-61,true,1.00,1187,367,1182,334,64818,0
patternOccur-62,true,1.00,1479,393,1474,366,77612,0
patternOccur-63,true,1.00,1304,401,1302,368,68601,0
patternOccur-64,true,1.00,1936,390,1929,357,103030,0
patternOccur-65,true,1.00,1293,417,1288,390,66319,0
patternOccur-66,true,1.00,1432,408,1420,381,76122,0
patternOccur-67,false,0.88,3443,373,3436,373,175210,0
patternOccur-68,true,1.00,1103,387,1096,360,56288,0
patternOccur-69,true,1.00,4396,442,4393,404,223306,0
patternOccur-70,true,1.00,3785,423,3778,379,186126,0
patternOccur-71,true,1.00,1707,365,1703,338,92184,0
patternOccur-72,true,1.00,4534,468,4527,436,226485,0
patternOccur-73,true,1.00,5269,489,5260,449,274011,0
patternOccur-74,true,1.00,3043,408,3036,367,156698,0
patternOccur-75,true,1.00,1990,384,1988,354,106164,0
patternOccur-76,true,1.00,1329,350,1323,324,70004,0
patternOccur-77,true,1.00,1097,388,1086,361,55225,0
patternOccur-78,true,1.00,901,352,892,325,44743,0
patternOccur-79,true,1.00,1157,370,1152,344,60229,0
patternOccur-80,true,1.00,3306,434,3299,390,163724,0
patternOccur-81,true,1.00,1814,381,1804,355,97466,0
patternOccur-82,true,1.00,1860,382,1854,355,96558,0
patternOccur-83,true,1.00,1065,382,1057,356,55235,0
patternOccur-84,true,1.00,1241,388,1230,361,63094,0
patternOccur-85,true,1.00,2350,384,2340,356,127511,0
patternOccur-86,true,1.00,4534,459,4523,398,215617,0
patternOccur-87,true,1.00,957,386,947,359,48875,0
patternOccur-88,true,1.00,1496,409,1489,381,76334,0
patternOccur-89,true,1.00,1563,398,1554,371,79732,0
patternOccur-90,true,1.00,1553,397,1544,369,80325,0
patternOccur-91,true,1.00,1066,365,1055,338,54692,0
patternOccur-92,true,1.00,1019,378,1009,351,49715,0
patternOccur-93,true,1.00,1256,375,1246,347,64101,0
patternOccur-94,true,1.00,4889,468,4882,434,243368,0
patternOccur-95,true,1.00,979,378,971,346,50197,0
patternOccur-96,false,0.87,2328,335,2324,335,117962,0
patternOccur-97,true,1.00,1681,387,1675,360,90173,0
patternOccur-98,false,0.90,2750,352,2746,352,137665,0
patternOccur-99,true,1.00,709,356,698,329,38021,0
patternOccur-100,true,1.00,1753,441,1746,414,86207,0
