NDW:0.0
TTFW:1.0
DFPT:2.0
DFPAP:3.0
DFPMP:20.0
RIGHT_WINDOW_BORDER_X:400.0
level,win/fail,% travelled,run time,game ticks,planning time,total plannings,nodes evaluated,most backtracked nodes
Mario-1,true,1.00,697,362,687,304,33333,0
Mario-2,true,1.00,1009,333,1001,297,48042,0
Mario-3,true,1.00,1404,276,1397,212,77638,0
Mario-4,true,1.00,1462,379,1451,316,63667,0
Mario-5,true,1.00,1631,442,1617,388,76128,0
Mario-6,true,1.00,1773,254,1766,205,95402,0
Mario-7,true,1.00,1143,434,1130,369,50774,0
Mario-8,true,1.00,1628,444,1622,396,76106,0
Mario-9,true,1.00,725,383,711,325,35707,0
Mario-10,true,1.00,1643,280,1638,219,91474,0
Mario-11,true,1.00,1062,389,1053,331,49690,0
Mario-12,true,1.00,2309,674,2283,615,92387,0
Mario-13,true,1.00,1855,337,1850,282,101249,0
Mario-14,true,1.00,475,352,467,285,20905,0
Mario-15,true,1.00,2469,816,2451,755,112661,0
