NDW:0.0
TTFW:2.0
DFPT:2.0
DFPAP:3.0
DFPMP:20.0
RIGHT_WINDOW_BORDER_X:135.0
level,win/fail,% travelled,run time,game ticks,planning time,total plannings,nodes evaluated,most backtracked nodes
patternWeightCount-1,true,1.00,4849,604,4838,584,292339,0
patternWeightCount-2,true,1.00,925,493,913,481,57704,0
patternWeightCount-3,true,1.00,834,398,818,386,51854,0
patternWeightCount-4,true,1.00,723,454,713,442,43400,0
patternWeightCount-5,true,1.00,2482,547,2469,535,151670,0
patternWeightCount-6,true,1.00,1805,500,1799,488,114510,0
patternWeightCount-7,true,1.00,1406,478,1393,466,87545,0
patternWeightCount-8,true,1.00,781,438,773,426,39775,0
patternWeightCount-9,true,1.00,1155,540,1145,528,70432,0
patternWeightCount-10,true,1.00,1516,513,1497,501,76534,0
patternWeightCount-11,true,1.00,1018,472,990,460,29124,0
patternWeightCount-12,true,1.00,1801,551,1775,539,88443,0
patternWeightCount-13,true,1.00,1058,436,1045,424,63625,0
patternWeightCount-14,true,1.00,1079,474,1071,462,61714,0
patternWeightCount-15,true,1.00,2037,456,2022,444,77461,0
patternWeightCount-16,true,1.00,2897,543,2885,530,181448,0
patternWeightCount-17,true,1.00,893,544,885,532,54438,0
patternWeightCount-18,true,1.00,810,464,793,452,48169,0
patternWeightCount-19,true,1.00,802,501,787,489,47683,0
patternWeightCount-20,false,0.62,2483,326,2477,326,142499,0
patternWeightCount-21,true,1.00,685,572,667,560,40047,0
patternWeightCount-22,true,1.00,2836,549,2823,527,173568,0
patternWeightCount-23,true,1.00,999,496,987,475,60917,0
patternWeightCount-24,true,1.00,1192,458,1184,439,72323,0
patternWeightCount-25,true,1.00,2221,507,2207,495,133988,0
patternWeightCount-26,true,1.00,2011,500,1998,481,126916,0
patternWeightCount-27,true,1.00,2302,562,2287,536,142363,0
patternWeightCount-28,true,1.00,1453,524,1442,512,88935,0
patternWeightCount-29,true,1.00,905,437,889,425,54250,0
patternWeightCount-30,false,0.84,3414,545,3397,545,194495,0
patternWeightCount-31,true,1.00,888,485,871,473,53295,0
patternWeightCount-32,true,1.00,695,465,680,453,41828,0
patternWeightCount-33,true,1.00,1103,515,1093,503,66718,0
patternWeightCount-34,true,1.00,2020,459,2008,447,122101,0
patternWeightCount-35,true,1.00,2774,507,2765,495,161973,0
patternWeightCount-36,true,1.00,1500,510,1486,498,93787,0
patternWeightCount-37,true,1.00,652,476,640,464,39230,0
patternWeightCount-38,false,0.95,7567,658,7550,658,424957,0
patternWeightCount-39,true,1.00,1231,443,1222,431,73019,0
patternWeightCount-40,true,1.00,1275,486,1269,474,77687,0
patternWeightCount-41,true,1.00,1540,508,1535,495,96597,0
patternWeightCount-42,false,0.87,6237,544,6228,544,340955,0
patternWeightCount-43,true,1.00,1397,466,1386,454,85844,0
patternWeightCount-44,true,1.00,1825,563,1811,549,114443,0
patternWeightCount-45,false,0.87,2213,485,2205,485,132853,0
patternWeightCount-46,false,0.85,5506,565,5492,565,310024,0
patternWeightCount-47,true,1.00,660,465,646,453,39345,0
patternWeightCount-48,true,1.00,1153,461,1142,449,70102,0
patternWeightCount-49,true,1.00,1175,443,1166,431,72222,0
patternWeightCount-50,true,1.00,1370,458,1366,445,83883,0
patternWeightCount-51,true,1.00,1223,512,1202,488,74555,0
patternWeightCount-52,true,1.00,1888,513,1878,499,115818,0
patternWeightCount-53,true,1.00,3541,555,3530,543,201590,0
patternWeightCount-54,true,1.00,990,515,974,503,60823,0
patternWeightCount-55,true,1.00,1245,511,1234,496,74414,0
patternWeightCount-56,true,1.00,1217,464,1194,452,52900,0
patternWeightCount-57,true,1.00,726,436,707,424,21343,0
patternWeightCount-58,true,1.00,1878,484,1857,470,63853,0
patternWeightCount-59,true,1.00,488,494,477,482,26297,0
patternWeightCount-60,true,1.00,1502,608,1490,593,91587,0
patternWeightCount-61,true,1.00,1261,420,1254,408,78820,0
patternWeightCount-62,true,1.00,4326,626,4315,601,261280,0
patternWeightCount-63,true,1.00,2024,488,2014,476,126984,0
patternWeightCount-64,true,1.00,1761,485,1751,473,107626,0
patternWeightCount-65,true,1.00,1616,554,1601,542,99460,0
patternWeightCount-66,true,1.00,822,480,803,468,49490,0
patternWeightCount-67,true,1.00,1033,504,1022,492,57397,0
patternWeightCount-68,false,0.85,20408,999,20400,999,732798,0
patternWeightCount-69,true,1.00,3129,594,3113,545,181327,0
patternWeightCount-70,true,1.00,1369,481,1355,468,83144,0
patternWeightCount-71,true,1.00,868,458,854,444,50320,0
patternWeightCount-72,true,1.00,8923,669,8911,649,480037,0
patternWeightCount-73,false,0.79,4868,499,4853,499,286717,0
patternWeightCount-74,true,1.00,974,481,963,469,60620,0
patternWeightCount-75,true,1.00,1108,479,1095,467,68318,0
patternWeightCount-76,true,1.00,1370,508,1352,496,57303,0
patternWeightCount-77,true,1.00,1202,476,1192,464,53869,0
patternWeightCount-78,true,1.00,2743,543,2721,531,134104,0
patternWeightCount-79,true,1.00,1452,440,1440,428,72150,0
patternWeightCount-80,true,1.00,1485,527,1468,515,92861,0
patternWeightCount-81,false,0.81,2403,465,2388,465,93232,0
patternWeightCount-82,true,1.00,474,483,448,469,18097,0
patternWeightCount-83,true,1.00,907,444,895,432,54469,0
patternWeightCount-84,true,1.00,705,478,691,466,43149,0
patternWeightCount-85,true,1.00,1560,470,1547,458,96100,0
patternWeightCount-86,false,0.93,3264,521,3260,521,186134,0
patternWeightCount-87,true,1.00,7940,612,7935,593,444936,0
patternWeightCount-88,true,1.00,1649,481,1638,469,100888,0
patternWeightCount-89,true,1.00,1046,452,1034,440,62098,0
patternWeightCount-90,true,1.00,5041,590,5029,568,299221,0
patternWeightCount-91,true,1.00,1143,495,1132,483,69373,0
patternWeightCount-92,true,1.00,5233,556,5225,533,317438,0
patternWeightCount-93,false,0.91,3825,550,3817,550,211615,0
patternWeightCount-94,true,1.00,1376,547,1358,535,82364,0
patternWeightCount-95,true,1.00,1278,499,1261,487,76053,0
patternWeightCount-96,true,1.00,1186,515,1175,503,69113,0
patternWeightCount-97,true,1.00,1035,391,1030,379,63242,0
patternWeightCount-98,true,1.00,7623,584,7611,571,438312,0
patternWeightCount-99,true,1.00,1594,522,1578,510,99336,0
patternWeightCount-100,true,1.00,851,475,838,463,50518,0
