NDW:0.0
TTFW:1.4
DFPT:2.0
DFPAP:3.0
DFPMP:5.0
RIGHT_WINDOW_BORDER_X:115.0
level,win/fail,% travelled,run time,game ticks,planning time,total plannings,nodes evaluated,most backtracked nodes
ore-1,true,1.00,2363,465,2342,453,108438,0
ore-2,false,0.70,3823,387,3813,387,148375,0
ore-3,true,1.00,2318,523,2304,512,126426,0
ore-4,true,1.00,3506,503,3488,492,193609,0
ore-5,true,1.00,3406,505,3389,494,189121,0
ore-6,true,1.00,2671,486,2661,474,150639,0
ore-7,true,1.00,2447,462,2435,451,141295,0
ore-8,false,0.25,2253,155,2249,155,85940,0
ore-9,true,1.00,2405,456,2397,445,126732,0
ore-10,true,1.00,3461,515,3436,504,185955,0
ore-11,true,1.00,3213,534,3191,521,149966,0
ore-12,false,0.45,3810,281,3802,281,144440,0
ore-13,true,1.00,1487,420,1477,402,78624,0
ore-14,true,1.00,2729,540,2705,522,140085,0
ore-15,true,1.00,1894,465,1874,455,80326,0
ore-16,true,1.00,2093,468,2077,457,124882,0
ore-17,true,1.00,2962,548,2950,530,170601,0
ore-18,true,1.00,2228,467,2217,456,131343,0
ore-19,true,1.00,1726,459,1716,448,90335,0
ore-20,true,1.00,1983,464,1967,453,108337,0
ore-21,true,1.00,3351,554,3339,538,183552,0
ore-22,false,0.58,2399,323,2391,323,122476,0
ore-23,true,1.00,5241,563,5227,553,307241,0
ore-24,true,1.00,3084,557,3067,545,179048,0
ore-25,true,1.00,1866,433,1857,422,109069,0
ore-26,false,0.37,26049,999,26041,999,1281686,0
ore-27,false,0.24,4000,216,3998,216,198869,0
ore-28,true,1.00,1961,520,1948,506,104290,0
ore-29,true,1.00,1827,465,1815,452,106864,0
ore-30,true,1.00,3249,486,3242,475,188430,0
ore-31,true,1.00,2765,502,2754,484,162599,0
ore-32,true,1.00,2353,466,2342,456,139549,0
ore-33,true,1.00,2182,517,2168,496,134088,0
ore-34,true,1.00,2456,498,2447,488,148175,0
ore-35,true,1.00,3971,479,3952,469,192235,0
ore-36,true,1.00,2195,469,2187,457,118849,0
ore-37,false,0.34,664,134,658,134,20568,0
ore-38,true,1.00,2585,453,2573,440,133152,0
ore-39,true,1.00,2855,478,2843,467,157384,0
ore-40,true,1.00,2470,460,2461,449,136965,0
ore-41,true,1.00,2537,480,2523,468,139715,0
ore-42,true,1.00,2577,468,2566,457,144066,0
ore-43,true,1.00,2592,486,2578,476,144817,0
ore-44,true,1.00,3544,495,3527,483,189422,0
ore-45,false,0.74,22397,999,22385,999,799801,0
ore-46,false,0.12,2285,107,2284,107,119498,0
ore-47,false,0.83,4491,536,4482,536,233508,0
ore-48,true,1.00,3681,499,3671,488,181040,0
ore-49,true,1.00,2181,470,2175,458,124881,0
ore-50,true,1.00,2441,455,2433,444,135111,0
ore-51,true,1.00,3101,518,3091,506,175670,0
ore-52,true,1.00,4229,518,4219,505,239556,0
ore-53,true,1.00,4286,547,4281,536,228291,0
ore-54,false,0.72,4389,484,4379,484,221450,0
ore-55,true,1.00,2475,448,2465,437,146696,0
ore-56,true,1.00,1683,413,1673,401,93455,0
ore-57,true,1.00,2695,537,2676,525,147821,0
ore-58,true,1.00,2830,540,2824,530,157430,0
ore-59,true,1.00,3585,493,3570,483,202402,0
ore-60,true,1.00,2389,429,2377,417,128937,0
ore-61,true,1.00,2791,489,2776,477,140285,0
ore-62,false,0.88,2066,409,2057,409,113756,0
ore-63,true,1.00,2576,467,2565,449,146633,0
ore-64,true,1.00,1210,431,1202,421,68167,0
ore-65,true,1.00,2933,522,2922,510,166665,0
ore-66,true,1.00,3550,539,3536,529,206676,0
ore-67,true,1.00,2341,487,2332,476,132475,0
ore-68,true,1.00,1629,435,1620,425,83507,0
ore-69,true,1.00,4813,560,4802,550,265710,0
ore-70,false,0.92,4771,558,4752,558,246223,0
ore-71,true,1.00,2321,474,2310,464,127720,0
ore-72,true,1.00,1609,440,1600,429,85057,0
ore-73,true,1.00,2525,476,2512,459,134283,0
ore-74,true,1.00,4062,599,4041,581,222869,0
ore-75,true,1.00,3226,541,3213,531,181005,0
ore-76,true,1.00,3084,439,3073,428,183433,0
ore-77,true,1.00,2092,449,2075,438,119420,0
ore-78,true,1.00,1850,470,1835,460,106128,0
ore-79,true,1.00,1535,436,1526,426,86872,0
ore-80,true,1.00,2345,459,2332,447,135169,0
ore-81,true,1.00,2878,505,2862,495,166260,0
ore-82,true,1.00,2905,503,2890,489,165348,0
ore-83,true,1.00,3018,470,3004,460,171370,0
ore-84,true,1.00,5971,583,5959,572,272136,0
ore-85,true,1.00,2513,514,2482,502,143298,0
ore-86,false,0.62,3204,373,3193,373,177086,0
ore-87,true,1.00,2369,523,2352,511,137131,0
ore-88,false,0.31,29275,999,29272,999,1226065,0
ore-89,true,1.00,4549,613,4532,603,260909,0
ore-90,true,1.00,3071,529,3054,517,177524,0
ore-91,true,1.00,1715,448,1707,437,96283,0
ore-92,true,1.00,2564,506,2557,495,141682,0
ore-93,false,0.13,3261,154,3258,154,114073,0
ore-94,true,1.00,3746,558,3726,546,162326,0
ore-95,true,1.00,1894,478,1877,468,105578,0
ore-96,false,0.50,1949,317,1942,317,109674,0
ore-97,false,0.77,3901,424,3894,424,199392,0
ore-98,true,1.00,3043,453,3029,442,171156,0
ore-99,false,0.57,2138,367,2130,367,119166,0
ore-100,true,1.00,2800,495,2793,485,157033,0
