NDW:0.0
TTFW:1.6
DFPT:2.0
DFPAP:3.0
DFPMP:0.0
RIGHT_WINDOW_BORDER_X:155.0
level,win/fail,% travelled,run time,game ticks,planning time,total plannings,nodes evaluated,most backtracked nodes
notchParamRand-1,true,1.00,822,322,821,308,81707,0
notchParamRand-2,true,1.00,97,308,94,294,9451,0
notchParamRand-3,true,1.00,892,316,891,302,98956,0
notchParamRand-4,true,1.00,1707,351,1704,337,185909,0
notchParamRand-5,true,1.00,260,312,259,298,25723,0
notchParamRand-6,true,1.00,331,316,331,302,34605,0
notchParamRand-7,true,1.00,192,294,188,280,19170,0
notchParamRand-8,true,1.00,430,306,430,292,40856,0
notchParamRand-9,true,1.00,469,326,469,312,53071,0
notchParamRand-10,true,1.00,780,332,778,318,91061,0
notchParamRand-11,true,1.00,92,294,92,280,9092,0
notchParamRand-12,true,1.00,231,310,230,296,24341,0
notchParamRand-13,true,1.00,1562,316,1561,302,161221,0
notchParamRand-14,true,1.00,933,314,932,300,92713,0
notchParamRand-15,true,1.00,528,318,525,304,57913,0
notchParamRand-16,true,1.00,358,302,357,288,43961,0
notchParamRand-17,true,1.00,30,303,28,289,2669,0
notchParamRand-18,true,1.00,2147,334,2145,320,223144,0
notchParamRand-19,true,1.00,135,330,133,316,15011,0
notchParamRand-20,true,1.00,1293,323,1289,309,142840,0
notchParamRand-21,true,1.00,28,296,27,282,2321,0
notchParamRand-22,true,1.00,808,322,804,308,89391,0
notchParamRand-23,true,1.00,1004,343,1001,329,110875,0
notchParamRand-24,true,1.00,134,315,132,301,14129,0
notchParamRand-25,true,1.00,28,306,27,292,2813,0
notchParamRand-26,true,1.00,252,330,252,316,28421,0
notchParamRand-27,true,1.00,193,304,189,290,24845,0
notchParamRand-28,true,1.00,409,325,408,311,43583,0
notchParamRand-29,true,1.00,28,298,26,284,2442,0
notchParamRand-30,true,1.00,1784,362,1783,348,186995,0
notchParamRand-31,true,1.00,361,322,359,308,39004,0
notchParamRand-32,true,1.00,91,294,90,280,9269,0
notchParamRand-33,true,1.00,1779,310,1777,296,189364,0
notchParamRand-34,true,1.00,792,316,789,302,84466,0
notchParamRand-35,true,1.00,567,314,567,300,62504,0
notchParamRand-36,true,1.00,27,300,25,286,2387,0
notchParamRand-37,true,1.00,327,314,326,300,36109,0
notchParamRand-38,true,1.00,2914,373,2912,359,310690,0
notchParamRand-39,true,1.00,1928,357,1928,343,203709,0
notchParamRand-40,true,1.00,2385,340,2383,326,250975,0
notchParamRand-41,true,1.00,27,294,22,280,1904,0
notchParamRand-42,true,1.00,365,318,362,304,39328,0
notchParamRand-43,true,1.00,194,302,192,288,21240,0
notchParamRand-44,true,1.00,230,302,225,288,26662,0
notchParamRand-45,true,1.00,2247,351,2246,337,234093,0
notchParamRand-46,true,1.00,532,317,531,303,58846,0
notchParamRand-47,true,1.00,626,316,625,302,64659,0
notchParamRand-48,true,1.00,1238,335,1232,321,130337,0
notchParamRand-49,true,1.00,621,306,619,292,65631,0
notchParamRand-50,true,1.00,1308,331,1306,317,144333,0
notchParamRand-51,true,1.00,101,315,97,301,10496,0
notchParamRand-52,true,1.00,629,302,628,288,66118,0
notchParamRand-53,true,1.00,857,318,857,304,86501,0
notchParamRand-54,true,1.00,1733,351,1732,337,175823,0
notchParamRand-55,true,1.00,1597,314,1592,300,160397,0
notchParamRand-56,true,1.00,569,323,568,309,58937,0
notchParamRand-57,true,1.00,824,312,820,298,92215,0
notchParamRand-58,true,1.00,704,332,702,318,78179,0
notchParamRand-59,true,1.00,365,309,365,295,40148,0
notchParamRand-60,true,1.00,475,317,473,303,51902,0
notchParamRand-61,true,1.00,339,302,337,288,38880,0
notchParamRand-62,true,1.00,333,322,332,308,35557,0
notchParamRand-63,true,1.00,1389,316,1388,302,144806,0
notchParamRand-64,true,1.00,224,296,221,282,24639,0
notchParamRand-65,true,1.00,1767,334,1767,320,182034,0
notchParamRand-66,true,1.00,201,311,200,297,20245,0
notchParamRand-67,true,1.00,226,302,226,288,21897,0
notchParamRand-68,true,1.00,1614,326,1613,312,169201,0
notchParamRand-69,true,1.00,235,321,233,307,25785,0
notchParamRand-70,true,1.00,579,332,574,318,65592,0
notchParamRand-71,true,1.00,198,316,197,302,21169,0
notchParamRand-72,true,1.00,92,294,92,280,9250,0
notchParamRand-73,true,1.00,558,318,558,304,54991,0
notchParamRand-74,true,1.00,27,296,26,282,2376,0
notchParamRand-75,true,1.00,27,294,27,280,2123,0
notchParamRand-76,true,1.00,1091,340,1089,326,115396,0
notchParamRand-77,true,1.00,1969,375,1968,361,195969,0
notchParamRand-78,true,1.00,1555,333,1553,319,169389,0
notchParamRand-79,true,1.00,226,298,224,284,23229,0
notchParamRand-80,true,1.00,256,296,254,282,23856,0
notchParamRand-81,true,1.00,225,298,224,284,26609,0
notchParamRand-82,true,1.00,621,318,619,304,69221,0
notchParamRand-83,true,1.00,1128,333,1123,319,118746,0
notchParamRand-84,true,1.00,248,308,243,294,27461,0
notchParamRand-85,true,1.00,25,294,24,280,1990,0
notchParamRand-86,true,1.00,448,356,446,342,49080,0
notchParamRand-87,true,1.00,1591,314,1589,300,167765,0
notchParamRand-88,true,1.00,225,296,223,282,25883,0
notchParamRand-89,true,1.00,271,302,270,288,30616,0
notchParamRand-90,true,1.00,491,310,490,296,48716,0
notchParamRand-91,true,1.00,26,294,24,280,2015,0
notchParamRand-92,true,1.00,867,330,864,316,93184,0
notchParamRand-93,true,1.00,237,320,237,306,26462,0
notchParamRand-94,true,1.00,1696,324,1696,310,173853,0
notchParamRand-95,true,1.00,625,316,625,302,64939,0
notchParamRand-96,true,1.00,409,331,407,317,46166,0
notchParamRand-97,true,1.00,1262,351,1260,337,128155,0
notchParamRand-98,true,1.00,189,294,187,280,22477,0
notchParamRand-99,true,1.00,231,312,230,298,23518,0
notchParamRand-100,true,1.00,1297,310,1296,296,136033,0
