NDW:0.0
TTFW:1.4
DFPT:2.0
DFPAP:3.0
DFPMP:7.0
RIGHT_WINDOW_BORDER_X:195.0
level,win/fail,% travelled,run time,game ticks,planning time,total plannings,nodes evaluated,most backtracked nodes
notchParamRand-1,true,1.00,880,312,869,295,49971,0
notchParamRand-2,true,1.00,121,308,112,291,5712,0
notchParamRand-3,true,1.00,922,306,918,289,55337,0
notchParamRand-4,true,1.00,1393,333,1382,316,81837,0
notchParamRand-5,true,1.00,194,306,189,289,9620,0
notchParamRand-6,true,1.00,401,314,397,297,22844,0
notchParamRand-7,true,1.00,206,294,200,277,10749,0
notchParamRand-8,true,1.00,460,302,452,285,24370,0
notchParamRand-9,true,1.00,563,338,555,321,33155,0
notchParamRand-10,true,1.00,791,351,782,334,45509,0
notchParamRand-11,true,1.00,104,294,95,277,4465,0
notchParamRand-12,true,1.00,292,306,287,289,15887,0
notchParamRand-13,true,1.00,1596,312,1590,295,94301,0
notchParamRand-14,true,1.00,946,320,936,303,54526,0
notchParamRand-15,true,1.00,537,308,527,291,31584,0
notchParamRand-16,true,1.00,358,300,349,283,21175,0
notchParamRand-17,true,1.00,80,303,79,286,3021,0
notchParamRand-18,true,1.00,1629,316,1625,299,95328,0
notchParamRand-19,true,1.00,393,337,369,320,9485,0
notchParamRand-20,true,1.00,1496,323,1488,306,50203,0
notchParamRand-21,true,1.00,87,296,82,279,2633,0
notchParamRand-22,true,1.00,856,314,848,297,47936,0
notchParamRand-23,true,1.00,992,340,984,323,55269,0
notchParamRand-24,true,1.00,212,326,202,309,10369,0
notchParamRand-25,true,1.00,92,308,85,290,3701,0
notchParamRand-26,true,1.00,491,344,485,327,25880,0
notchParamRand-27,true,1.00,215,300,211,283,11374,0
notchParamRand-28,true,1.00,371,312,357,295,19994,0
notchParamRand-29,true,1.00,79,298,75,281,2810,0
notchParamRand-30,true,1.00,1668,328,1653,311,94152,0
notchParamRand-31,true,1.00,390,316,383,299,21132,0
notchParamRand-32,true,1.00,107,294,99,277,4463,0
notchParamRand-33,true,1.00,1573,310,1566,293,88969,0
notchParamRand-34,true,1.00,921,316,912,299,50799,0
notchParamRand-35,true,1.00,516,317,510,300,28983,0
notchParamRand-36,true,1.00,77,302,72,283,2761,0
notchParamRand-37,true,1.00,398,310,392,293,21845,0
notchParamRand-38,true,1.00,1664,311,1654,294,93715,0
notchParamRand-39,true,1.00,1412,338,1402,321,79080,0
notchParamRand-40,true,1.00,1974,312,1964,295,111255,0
notchParamRand-41,true,1.00,72,294,60,277,2209,0
notchParamRand-42,true,1.00,460,316,450,299,25374,0
notchParamRand-43,true,1.00,213,300,205,283,11062,0
notchParamRand-44,true,1.00,314,302,301,285,17100,0
notchParamRand-45,true,1.00,840,316,831,299,45321,0
notchParamRand-46,true,1.00,514,311,505,294,28635,0
notchParamRand-47,true,1.00,782,318,776,301,42851,0
notchParamRand-48,true,1.00,1366,337,1359,320,77296,0
notchParamRand-49,true,1.00,740,306,732,289,41407,0
notchParamRand-50,true,1.00,1473,321,1464,304,83238,0
notchParamRand-51,true,1.00,197,315,187,298,9671,0
notchParamRand-52,true,1.00,711,308,707,291,39023,0
notchParamRand-53,true,1.00,923,324,917,307,51332,0
notchParamRand-54,true,1.00,1934,344,1927,327,103574,0
notchParamRand-55,true,1.00,1743,312,1735,295,80913,0
notchParamRand-56,true,1.00,688,319,682,302,31920,0
notchParamRand-57,true,1.00,974,312,967,295,46644,0
notchParamRand-58,true,1.00,790,323,780,306,38761,0
notchParamRand-59,true,1.00,511,311,501,294,26065,0
notchParamRand-60,true,1.00,651,311,645,294,33945,0
notchParamRand-61,true,1.00,499,306,492,289,25630,0
notchParamRand-62,true,1.00,483,320,472,303,25129,0
notchParamRand-63,true,1.00,1350,312,1341,295,74445,0
notchParamRand-64,true,1.00,275,296,267,279,14380,0
notchParamRand-65,true,1.00,1706,331,1700,314,94752,0
notchParamRand-66,true,1.00,298,324,288,307,14147,0
notchParamRand-67,true,1.00,287,300,275,283,14529,0
notchParamRand-68,true,1.00,1375,312,1370,295,76957,0
notchParamRand-69,true,1.00,231,309,216,292,11739,0
notchParamRand-70,true,1.00,764,326,757,309,42441,0
notchParamRand-71,true,1.00,386,324,377,307,19684,0
notchParamRand-72,true,1.00,109,294,101,277,4556,0
notchParamRand-73,true,1.00,525,308,516,291,27556,0
notchParamRand-74,true,1.00,82,296,71,279,3012,0
notchParamRand-75,true,1.00,73,294,64,277,2333,0
notchParamRand-76,true,1.00,1092,342,1086,325,59062,0
notchParamRand-77,true,1.00,1491,360,1486,343,79212,0
notchParamRand-78,true,1.00,976,310,972,293,54055,0
notchParamRand-79,true,1.00,193,298,184,281,9201,0
notchParamRand-80,true,1.00,269,296,261,279,13051,0
notchParamRand-81,true,1.00,291,298,286,281,15169,0
notchParamRand-82,true,1.00,760,312,752,295,41904,0
notchParamRand-83,true,1.00,1200,316,1191,299,66412,0
notchParamRand-84,true,1.00,323,300,314,283,16618,0
notchParamRand-85,true,1.00,71,294,65,277,2266,0
notchParamRand-86,true,1.00,572,345,562,328,30271,0
notchParamRand-87,true,1.00,1550,320,1539,303,87830,0
notchParamRand-88,true,1.00,279,300,271,283,14174,0
notchParamRand-89,true,1.00,354,317,342,300,18802,0
notchParamRand-90,true,1.00,637,312,624,295,33270,0
notchParamRand-91,true,1.00,72,294,64,277,2361,0
notchParamRand-92,true,1.00,877,330,869,313,48207,0
notchParamRand-93,true,1.00,299,317,285,290,15184,0
notchParamRand-94,true,1.00,1485,312,1481,295,81759,0
notchParamRand-95,true,1.00,782,316,774,299,42638,0
notchParamRand-96,true,1.00,465,336,459,319,23603,0
notchParamRand-97,true,1.00,1349,343,1338,326,73215,0
notchParamRand-98,true,1.00,203,294,197,277,10180,0
notchParamRand-99,true,1.00,213,310,204,293,10349,0
notchParamRand-100,true,1.00,1430,316,1424,299,79816,0
