NDW:0.0
TTFW:0.4
DFPT:2.0
DFPAP:3.0
DFPMP:3.0
RIGHT_WINDOW_BORDER_X:255.0
level,win/fail,% travelled,run time,game ticks,planning time,total plannings,nodes evaluated,most backtracked nodes
notchParam-1,true,1.00,1014,314,1009,291,82092,0
notchParam-2,true,1.00,1227,322,1227,299,92370,0
notchParam-3,true,1.00,580,308,577,285,47595,0
notchParam-4,true,1.00,681,310,679,287,54333,0
notchParam-5,true,1.00,670,310,667,287,55140,0
notchParam-6,true,1.00,651,306,648,283,54110,0
notchParam-7,true,1.00,1024,314,1023,291,80841,0
notchParam-8,true,1.00,1316,326,1312,303,110574,0
notchParam-9,true,1.00,842,330,839,307,68312,0
notchParam-10,true,1.00,1078,312,1075,289,88594,0
notchParam-11,true,1.00,594,310,593,287,49016,0
notchParam-12,true,1.00,1176,325,1173,302,97225,0
notchParam-13,true,1.00,298,300,298,277,23531,0
notchParam-14,true,1.00,258,304,254,281,20806,0
notchParam-15,true,1.00,948,304,947,281,74048,0
notchParam-16,true,1.00,1090,336,1085,313,87172,0
notchParam-17,true,1.00,971,328,967,305,79494,0
notchParam-18,true,1.00,585,324,583,301,40005,0
notchParam-19,true,1.00,313,309,308,286,24874,0
notchParam-20,true,1.00,298,306,298,283,22447,0
notchParam-21,true,1.00,312,298,310,275,23829,0
notchParam-22,true,1.00,398,315,395,292,29729,0
notchParam-23,true,1.00,1579,357,1577,334,119637,0
notchParam-24,true,1.00,1193,306,1190,283,99286,0
notchParam-25,true,1.00,1195,330,1193,307,98430,0
notchParam-26,true,1.00,1364,320,1363,297,110365,0
notchParam-27,true,1.00,367,318,365,295,28645,0
notchParam-28,true,1.00,835,316,834,293,64903,0
notchParam-29,true,1.00,712,315,709,292,58624,0
notchParam-30,true,1.00,288,302,288,279,23070,0
notchParam-31,true,1.00,1030,327,1030,304,81806,0
notchParam-32,true,1.00,1029,314,1027,291,83714,0
notchParam-33,true,1.00,301,302,298,279,24579,0
notchParam-34,true,1.00,1059,318,1059,295,83010,0
notchParam-35,true,1.00,1286,342,1284,319,95601,0
notchParam-36,true,1.00,953,308,951,285,80902,0
notchParam-37,true,1.00,246,296,245,273,18804,0
notchParam-38,true,1.00,240,304,239,281,19234,0
notchParam-39,true,1.00,946,320,944,297,75511,0
notchParam-40,true,1.00,596,312,595,289,49718,0
notchParam-41,true,1.00,671,311,670,288,52850,0
notchParam-42,true,1.00,392,314,390,291,30836,0
notchParam-43,true,1.00,1231,310,1229,287,100729,0
notchParam-44,true,1.00,1208,314,1208,291,101977,0
notchParam-45,true,1.00,1105,302,1104,279,94021,0
notchParam-46,true,1.00,1123,312,1120,289,93083,0
notchParam-47,true,1.00,241,294,238,271,18975,0
notchParam-48,true,1.00,416,308,415,285,30776,0
notchParam-49,true,1.00,479,327,471,299,33362,0
notchParam-50,true,1.00,730,348,729,325,47361,0
notchParam-51,true,1.00,261,300,259,277,20710,0
notchParam-52,true,1.00,909,310,907,287,75320,0
notchParam-53,true,1.00,1151,338,1150,315,92041,0
notchParam-54,true,1.00,1225,366,1220,343,93603,0
notchParam-55,true,1.00,450,317,446,294,30505,0
notchParam-56,true,1.00,290,298,290,275,22899,0
notchParam-57,true,1.00,1068,312,1068,289,91236,0
notchParam-58,true,1.00,789,337,789,314,63290,0
notchParam-59,true,1.00,1379,322,1374,299,110014,0
notchParam-60,true,1.00,999,351,998,328,74994,0
notchParam-61,true,1.00,1235,338,1233,315,101350,0
notchParam-62,true,1.00,823,304,823,281,65721,0
notchParam-63,true,1.00,724,312,720,289,56465,0
notchParam-64,true,1.00,666,310,663,287,54303,0
notchParam-65,true,1.00,581,302,577,279,48686,0
notchParam-66,true,1.00,595,310,593,287,48360,0
notchParam-67,true,1.00,1063,314,1062,291,82588,0
notchParam-68,true,1.00,897,308,895,285,72889,0
notchParam-69,true,1.00,937,307,935,284,72664,0
notchParam-70,true,1.00,914,306,913,283,74109,0
notchParam-71,true,1.00,981,341,978,318,77738,0
notchParam-72,true,1.00,716,318,716,295,59348,0
notchParam-73,true,1.00,622,312,619,289,51708,0
notchParam-74,true,1.00,731,314,729,291,58344,0
notchParam-75,true,1.00,718,317,717,294,58662,0
notchParam-76,true,1.00,1234,326,1232,303,101797,0
notchParam-77,true,1.00,711,310,709,287,56985,0
notchParam-78,true,1.00,1078,318,1077,295,91078,0
notchParam-79,true,1.00,618,310,615,287,52048,0
notchParam-80,true,1.00,529,314,526,291,37557,0
notchParam-81,true,1.00,743,318,741,295,60323,0
notchParam-82,true,1.00,305,308,303,285,24373,0
notchParam-83,true,1.00,263,298,261,275,21082,0
notchParam-84,true,1.00,987,319,981,296,78938,0
notchParam-85,true,1.00,1391,350,1388,327,104007,0
notchParam-86,true,1.00,1169,306,1169,283,95310,0
notchParam-87,true,1.00,263,300,261,277,21616,0
notchParam-88,true,1.00,284,298,282,275,21326,0
notchParam-89,true,1.00,265,300,265,277,20988,0
notchParam-90,true,1.00,364,310,363,287,27590,0
notchParam-91,true,1.00,1167,308,1166,285,93136,0
notchParam-92,true,1.00,1269,314,1267,291,102254,0
notchParam-93,true,1.00,1174,316,1174,293,99030,0
notchParam-94,true,1.00,1383,328,1382,305,113904,0
notchParam-95,true,1.00,1928,368,1924,345,142707,0
notchParam-96,true,1.00,570,302,567,279,47964,0
notchParam-97,true,1.00,582,304,580,281,46756,0
notchParam-98,true,1.00,321,317,319,294,25194,0
notchParam-99,true,1.00,1085,347,1081,324,85779,0
notchParam-100,true,1.00,918,304,917,281,74637,0
