NDW:0.0
TTFW:0.6
DFPT:2.0
DFPAP:3.0
DFPMP:0.0
RIGHT_WINDOW_BORDER_X:275.0
level,win/fail,% travelled,run time,game ticks,planning time,total plannings,nodes evaluated,most backtracked nodes
hopper-1,true,1.00,1283,319,1280,294,76976,0
hopper-2,true,1.00,1129,307,1121,282,68866,0
hopper-3,false,0.25,981,85,979,85,53801,0
hopper-4,false,0.27,1062,99,1052,99,60510,0
hopper-5,true,1.00,973,307,937,282,50298,0
hopper-6,true,1.00,1030,315,1024,287,61089,0
hopper-7,false,0.84,1605,260,1598,260,88911,0
hopper-8,false,0.42,1153,139,1149,139,64433,0
hopper-9,true,1.00,948,299,940,274,57478,0
hopper-10,true,1.00,926,303,920,278,57247,0
hopper-11,true,1.00,774,303,766,278,45985,0
hopper-12,true,1.00,996,307,992,282,60077,0
hopper-13,true,1.00,1210,314,1186,289,72025,0
hopper-14,true,1.00,1018,307,1011,276,60984,0
hopper-15,true,1.00,1071,303,1065,278,63926,0
hopper-16,false,0.55,1362,173,1361,173,75293,0
hopper-17,true,1.00,915,305,909,280,54762,0
hopper-18,true,1.00,1051,303,1044,278,61135,0
hopper-19,true,1.00,860,301,858,276,53618,0
hopper-20,true,1.00,1182,319,1178,292,70065,0
hopper-21,false,0.62,1640,203,1633,203,90908,0
hopper-22,false,0.33,1028,110,1026,110,56395,0
hopper-23,true,1.00,1078,305,1073,280,65804,0
hopper-24,true,1.00,654,299,646,274,39348,0
hopper-25,true,1.00,988,297,982,272,61144,0
hopper-26,true,1.00,1103,299,1101,274,66405,0
hopper-27,true,1.00,1104,309,1097,284,65888,0
hopper-28,false,0.86,2143,283,2136,283,126699,0
hopper-29,false,0.26,820,85,818,85,45180,0
hopper-30,true,1.00,977,312,973,282,58467,0
hopper-31,true,1.00,956,311,947,286,58212,0
hopper-32,true,1.00,1278,299,1277,274,79044,0
hopper-33,false,0.50,1224,166,1220,166,66635,0
hopper-34,false,0.31,1426,114,1424,114,80849,0
hopper-35,true,1.00,1246,305,1241,279,75850,0
hopper-36,true,1.00,854,303,849,278,50244,0
hopper-37,false,0.51,1035,166,1035,166,56500,0
hopper-38,true,1.00,1252,303,1249,278,78576,0
hopper-39,true,1.00,1087,309,1083,284,66568,0
hopper-40,true,1.00,1184,315,1174,290,69553,0
hopper-41,true,1.00,1648,297,1642,272,99991,0
hopper-42,true,1.00,875,303,868,278,51122,0
hopper-43,false,0.45,1416,144,1415,144,79583,0
hopper-44,true,1.00,1310,301,1296,276,81198,0
hopper-45,false,0.43,1285,146,1284,146,71088,0
hopper-46,false,0.67,2349,245,2346,245,131640,0
hopper-47,true,1.00,1501,311,1497,286,91337,0
hopper-48,true,1.00,1147,305,1141,280,67230,0
hopper-49,true,1.00,1274,313,1240,288,72387,0
hopper-50,false,0.63,1474,207,1468,207,80110,0
hopper-51,false,0.34,933,107,932,107,50693,0
hopper-52,true,1.00,795,309,789,284,48380,0
hopper-53,true,1.00,1497,323,1491,298,89037,0
hopper-54,true,1.00,733,299,726,274,43562,0
hopper-55,true,1.00,858,311,850,285,51991,0
hopper-56,true,1.00,799,297,792,272,48806,0
hopper-57,true,1.00,1047,311,1040,286,60763,0
hopper-58,false,0.58,1659,188,1659,188,92339,0
hopper-59,true,1.00,814,297,806,272,50753,0
hopper-60,true,1.00,1167,319,1160,294,70823,0
hopper-61,false,0.83,1800,250,1795,250,104271,0
hopper-62,true,1.00,1228,317,1222,291,73416,0
hopper-63,true,1.00,936,313,931,288,58071,0
hopper-64,true,1.00,1149,315,1148,290,68102,0
hopper-65,true,1.00,1052,305,1042,273,64963,0
hopper-66,true,1.00,827,313,820,288,51369,0
hopper-67,true,1.00,839,303,832,278,49794,0
hopper-68,true,1.00,838,307,834,282,49183,0
hopper-69,false,0.84,1830,266,1826,266,102928,0
hopper-70,true,1.00,1138,303,1133,278,70148,0
hopper-71,true,1.00,724,311,718,286,42665,0
hopper-72,true,1.00,1265,303,1259,278,75739,0
hopper-73,true,1.00,1071,301,1065,276,63396,0
hopper-74,true,1.00,841,305,837,280,49093,0
hopper-75,true,1.00,1034,301,1024,276,61611,0
hopper-76,true,1.00,1122,316,1117,291,68689,0
hopper-77,true,1.00,868,305,860,280,51121,0
hopper-78,true,1.00,1119,297,1115,272,69372,0
hopper-79,true,1.00,808,310,802,275,48411,0
hopper-80,true,1.00,756,305,753,280,44781,0
hopper-81,false,0.39,1800,143,1795,143,97497,0
hopper-82,false,0.45,3873,225,3871,225,204631,0
hopper-83,true,1.00,1371,301,1362,276,73673,0
hopper-84,true,1.00,1435,303,1427,278,45759,0
hopper-85,true,1.00,1164,303,1156,278,58663,0
hopper-86,true,1.00,1106,321,1098,296,64940,0
hopper-87,true,1.00,1079,313,1069,288,62787,0
hopper-88,true,1.00,843,315,833,290,49848,0
hopper-89,true,1.00,888,301,884,276,50362,0
hopper-90,true,1.00,965,312,961,283,55972,0
hopper-91,true,1.00,1103,299,1099,274,64554,0
hopper-92,true,1.00,1141,303,1137,278,64431,0
hopper-93,true,1.00,851,315,841,290,49598,0
hopper-94,true,1.00,1125,307,1120,282,67032,0
hopper-95,true,1.00,1036,301,1034,276,59161,0
hopper-96,true,1.00,1293,299,1288,274,75947,0
hopper-97,true,1.00,1356,309,1351,284,76541,0
hopper-98,true,1.00,1298,311,1296,286,74821,0
hopper-99,true,1.00,1626,317,1621,292,93608,0
hopper-100,true,1.00,1154,331,1150,290,66456,0
