NDW:0.0
TTFW:0.2
DFPT:2.0
DFPAP:3.0
DFPMP:5.0
RIGHT_WINDOW_BORDER_X:235.0
level,win/fail,% travelled,run time,game ticks,planning time,total plannings,nodes evaluated,most backtracked nodes
patternCount-1,false,0.68,3625,262,3625,262,246549,0
patternCount-2,true,1.00,4224,378,4223,357,272657,0
patternCount-3,true,1.00,5262,375,5259,353,355132,0
patternCount-4,true,1.00,4994,385,4989,364,323992,0
patternCount-5,true,1.00,4946,400,4940,379,323097,0
patternCount-6,true,1.00,3778,376,3774,355,240800,0
patternCount-7,true,1.00,5264,411,5261,385,340591,0
patternCount-8,true,1.00,5825,433,5823,398,399695,0
patternCount-9,true,1.00,5388,420,5386,399,355848,0
patternCount-10,true,1.00,3560,355,3557,334,226709,0
patternCount-11,true,1.00,7652,444,7651,413,518059,0
patternCount-12,true,1.00,4211,395,4209,369,269892,0
patternCount-13,true,1.00,3338,359,3335,338,223851,0
patternCount-14,true,1.00,5510,406,5503,377,366636,0
patternCount-15,true,1.00,4816,370,4814,349,308415,0
patternCount-16,true,1.00,5426,426,5424,405,349037,0
patternCount-17,true,1.00,4038,354,4031,331,259067,0
patternCount-18,true,1.00,4293,361,4290,335,288145,0
patternCount-19,true,1.00,2835,324,2835,303,193845,0
patternCount-20,true,1.00,5585,420,5580,399,352809,0
patternCount-21,true,1.00,4190,360,4188,339,272186,0
patternCount-22,true,1.00,7792,463,7790,428,529408,0
patternCount-23,true,1.00,7500,425,7496,402,533564,0
patternCount-24,true,1.00,9966,505,9965,479,702736,0
patternCount-25,true,1.00,3855,373,3849,352,246894,0
patternCount-26,true,1.00,3625,362,3623,336,243536,0
patternCount-27,true,1.00,3883,367,3880,345,253958,0
patternCount-28,true,1.00,4191,375,4189,354,271185,0
patternCount-29,true,1.00,5872,411,5868,390,379927,0
patternCount-30,true,1.00,4102,378,4096,357,264368,0
patternCount-31,true,1.00,4812,387,4810,366,324375,0
patternCount-32,true,1.00,5543,435,5539,414,369369,0
patternCount-33,true,1.00,7700,484,7696,454,528784,0
patternCount-34,true,1.00,6823,472,6821,449,455859,0
patternCount-35,true,1.00,5221,388,5219,367,333331,0
patternCount-36,true,1.00,6108,442,6107,406,409378,0
patternCount-37,true,1.00,5291,419,5287,398,349504,0
patternCount-38,true,1.00,7414,478,7409,456,501168,0
patternCount-39,true,1.00,4322,390,4319,369,286863,0
patternCount-40,true,1.00,8333,452,8331,429,570250,0
patternCount-41,true,1.00,5263,396,5260,375,343527,0
patternCount-42,true,1.00,5508,426,5505,405,352252,0
patternCount-43,true,1.00,3761,358,3758,337,244651,0
patternCount-44,true,1.00,3450,356,3447,335,229225,0
patternCount-45,true,1.00,4246,382,4242,361,266778,0
patternCount-46,true,1.00,5347,392,5344,371,351817,0
patternCount-47,true,1.00,5821,430,5819,409,390180,0
patternCount-48,true,1.00,4186,390,4182,369,266654,0
patternCount-49,true,1.00,4199,388,4196,364,277400,0
patternCount-50,true,1.00,10770,553,10764,522,717307,0
patternCount-51,true,1.00,4434,412,4430,389,285787,0
patternCount-52,true,1.00,3947,366,3943,345,262174,0
patternCount-53,true,1.00,6106,389,6102,356,436947,0
patternCount-54,true,1.00,5017,378,5014,357,320117,0
patternCount-55,true,1.00,8029,444,8027,411,580446,0
patternCount-56,true,1.00,5225,398,5220,377,349465,0
patternCount-57,true,1.00,4319,402,4314,380,281846,0
patternCount-58,false,0.80,7227,357,7223,357,470457,0
patternCount-59,true,1.00,5313,396,5309,374,341651,0
patternCount-60,true,1.00,3569,370,3566,349,235173,0
patternCount-61,true,1.00,3758,374,3756,345,250266,0
patternCount-62,true,1.00,3948,365,3945,344,256405,0
patternCount-63,true,1.00,5666,394,5663,373,350220,0
patternCount-64,true,1.00,4832,402,4827,381,311050,0
patternCount-65,true,1.00,3939,360,3936,333,257778,0
patternCount-66,true,1.00,5803,402,5797,381,372530,0
patternCount-67,true,1.00,5450,394,5447,368,353405,0
patternCount-68,true,1.00,3299,364,3298,343,212381,0
patternCount-69,true,1.00,4407,370,4405,349,281718,0
patternCount-70,true,1.00,4170,358,4168,337,264226,0
patternCount-71,true,1.00,5028,406,5026,385,329782,0
patternCount-72,true,1.00,9108,479,9104,445,636943,0
patternCount-73,true,1.00,6769,448,6767,427,441815,0
patternCount-74,true,1.00,9318,470,9316,442,653068,0
patternCount-75,true,1.00,5088,436,5085,414,322597,0
patternCount-76,true,1.00,4154,364,4151,338,269409,0
patternCount-77,true,1.00,5621,432,5617,402,357792,0
patternCount-78,true,1.00,5147,400,5139,378,327551,0
patternCount-79,false,0.76,4397,307,4396,307,286731,0
patternCount-80,true,1.00,7018,479,7016,437,467744,0
patternCount-81,true,1.00,6295,421,6293,400,393530,0
patternCount-82,true,1.00,4550,371,4549,350,290003,0
patternCount-83,true,1.00,5825,480,5821,458,366526,0
patternCount-84,true,1.00,4394,364,4389,343,291530,0
patternCount-85,true,1.00,4139,367,4135,346,261967,0
patternCount-86,true,1.00,3883,372,3880,351,252237,0
patternCount-87,true,1.00,5332,396,5330,373,337785,0
patternCount-88,true,1.00,4153,384,4149,363,270926,0
patternCount-89,true,1.00,4799,394,4798,373,312401,0
patternCount-90,true,1.00,4762,379,4759,358,300369,0
patternCount-91,true,1.00,6217,447,6214,426,406560,0
patternCount-92,true,1.00,4773,400,4773,379,300386,0
patternCount-93,true,1.00,10672,535,10671,500,718525,0
patternCount-94,true,1.00,5082,387,5080,366,326565,0
patternCount-95,true,1.00,6374,446,6373,425,410972,0
patternCount-96,true,1.00,3960,397,3958,376,267864,0
patternCount-97,false,0.82,5112,325,5109,325,349581,0
patternCount-98,true,1.00,4531,388,4526,367,298276,0
patternCount-99,true,1.00,4531,378,4529,357,295277,0
patternCount-100,true,1.00,3714,368,3712,342,241478,0
