NDW:0.0
TTFW:1.2
DFPT:2.0
DFPAP:3.0
DFPMP:10.0
RIGHT_WINDOW_BORDER_X:115.0
level,win/fail,% travelled,run time,game ticks,planning time,total plannings,nodes evaluated,most backtracked nodes
Krys-1,false,0.38,18609,999,18606,999,1303513,0
Krys-2,false,0.79,13246,999,13239,999,913178,0
Krys-3,true,1.00,8463,700,8460,686,829850,0
Krys-4,true,1.00,2223,478,2219,461,210732,0
Krys-5,true,1.00,9014,617,9010,604,992139,0
Krys-6,true,1.00,1692,465,1690,451,186328,0
Krys-7,true,1.00,143,355,143,343,17840,0
Krys-8,true,1.00,1961,573,1960,560,223540,0
Krys-9,true,1.00,6681,519,6679,500,820445,0
Krys-10,true,1.00,3158,535,3155,522,366691,0
Krys-11,true,1.00,100,406,96,395,11565,0
Krys-12,true,1.00,5719,546,5714,533,610055,0
Krys-13,true,1.00,3635,446,3632,427,395434,0
Krys-14,false,0.79,13785,999,13776,999,909216,0
Krys-15,true,1.00,9418,739,9413,726,1131203,0
Krys-16,false,0.69,12233,999,12231,999,833351,0
Krys-17,true,1.00,2159,472,2158,458,197808,0
Krys-18,true,1.00,1371,461,1367,447,150239,0
Krys-19,true,1.00,8402,631,8399,618,935112,0
Krys-20,true,1.00,4301,696,4296,674,493184,0
Krys-21,true,1.00,5892,514,5892,497,704094,0
Krys-22,true,1.00,6096,530,6095,516,766510,0
Krys-23,true,1.00,1025,459,1025,446,101210,0
Krys-24,true,1.00,4480,501,4477,488,480761,0
Krys-25,false,0.44,1763,221,1763,221,172844,0
Krys-26,true,1.00,7270,518,7268,506,821149,0
Krys-27,true,1.00,3818,500,3812,489,365538,0
Krys-28,false,0.44,995,222,994,222,112065,0
Krys-29,true,1.00,1892,479,1891,466,162156,0
Krys-30,true,1.00,2010,568,2005,549,168407,0
Krys-31,true,1.00,935,487,927,473,113179,0
Krys-32,true,1.00,168,396,162,386,18366,0
Krys-33,true,1.00,630,354,627,333,69285,0
Krys-34,true,1.00,3041,489,3040,470,269654,0
Krys-35,false,0.82,6861,506,6858,506,871091,0
Krys-36,true,1.00,9280,666,9278,648,978017,0
Krys-37,false,0.44,5082,342,5082,342,559233,0
Krys-38,false,0.44,2432,225,2431,225,286738,0
Krys-39,false,0.62,8637,494,8636,494,963166,0
Krys-40,true,1.00,6326,616,6324,603,782664,0
Krys-41,true,1.00,13072,725,13069,714,1382986,0
Krys-42,true,1.00,5998,526,5997,513,683597,0
Krys-43,true,1.00,5626,500,5623,489,616889,0
Krys-44,false,0.42,4120,338,4118,338,501722,0
Krys-45,true,1.00,481,481,479,462,39416,0
Krys-46,true,1.00,2032,466,2028,452,168619,0
Krys-47,true,1.00,671,485,665,472,72709,0
Krys-48,true,1.00,11005,662,11003,643,1305532,0
Krys-49,true,1.00,720,410,718,391,74615,0
Krys-50,true,1.00,7063,641,7059,630,747202,0
Krys-51,true,1.00,6979,625,6973,612,838697,0
Krys-52,true,1.00,1073,482,1072,466,108381,0
Krys-53,true,1.00,2289,474,2288,462,186689,0
Krys-54,true,1.00,4548,670,4546,649,509873,0
Krys-55,true,1.00,4039,511,4039,497,359170,0
Krys-56,true,1.00,793,413,790,402,68417,0
Krys-57,false,0.72,1566,259,1566,259,139022,0
Krys-58,true,1.00,2896,504,2892,493,256659,0
Krys-59,false,0.89,12163,999,12157,999,821446,0
Krys-60,true,1.00,7169,579,7164,567,811564,0
Krys-61,false,0.48,16808,999,16803,999,1181044,0
Krys-62,true,1.00,527,475,525,456,43849,0
Krys-63,true,1.00,3823,611,3821,598,316285,0
Krys-64,true,1.00,2994,522,2993,509,286481,0
Krys-65,true,1.00,1845,403,1843,392,143765,0
Krys-66,true,1.00,783,432,779,409,69304,0
Krys-67,true,1.00,1706,544,1699,531,171080,0
Krys-68,true,1.00,8553,557,8552,544,838734,0
Krys-69,false,0.48,18603,999,18599,999,1143325,0
Krys-70,true,1.00,4102,567,4098,545,410944,0
Krys-71,true,1.00,5301,512,5299,499,602065,0
Krys-72,true,1.00,337,444,337,431,40748,0
Krys-73,true,1.00,5051,621,5045,600,548108,0
Krys-74,true,1.00,4646,522,4642,504,421303,0
Krys-75,true,1.00,213,392,211,373,19257,0
Krys-76,false,0.41,3607,288,3604,288,436621,0
Krys-77,true,1.00,2956,449,2952,430,352806,0
Krys-78,true,1.00,9116,698,9111,684,989943,0
Krys-79,true,1.00,409,424,405,409,36667,0
Krys-80,true,1.00,227,395,223,383,24473,0
Krys-81,true,1.00,1380,426,1378,408,142064,0
Krys-82,true,1.00,600,406,596,393,54511,0
Krys-83,true,1.00,8153,622,8148,609,893281,0
Krys-84,true,1.00,164,382,159,363,19222,0
Krys-85,true,1.00,3550,570,3549,551,351129,0
Krys-86,true,1.00,2115,468,2112,449,178702,0
Krys-87,true,1.00,518,382,515,372,40544,0
Krys-88,true,1.00,2539,479,2537,467,224276,0
Krys-89,true,1.00,3159,538,3155,527,330641,0
Krys-90,true,1.00,7317,538,7316,524,771045,0
Krys-91,true,1.00,193,355,193,344,23313,0
Krys-92,true,1.00,8678,691,8675,669,869168,0
Krys-93,true,1.00,4454,471,4451,453,577838,0
Krys-94,false,0.55,3515,304,3515,304,444719,0
Krys-95,true,1.00,654,431,648,409,55877,0
Krys-96,true,1.00,7390,560,7390,547,750840,0
Krys-97,true,1.00,1654,403,1651,391,174128,0
Krys-98,true,1.00,3332,603,3324,585,289218,0
Krys-99,true,1.00,883,494,880,475,80309,0
Krys-100,true,1.00,6110,476,6106,464,744069,0
