NDW:0.0
TTFW:0.6
DFPT:2.0
DFPAP:3.0
DFPMP:3.0
RIGHT_WINDOW_BORDER_X:55.0
level,win/fail,% travelled,run time,game ticks,planning time,total plannings,nodes evaluated,most backtracked nodes
patternWeightCount-1,false,0.74,4589,999,4579,999,490117,0
patternWeightCount-2,false,0.91,3926,999,3919,999,414216,0
patternWeightCount-3,true,1.00,2869,792,2866,785,295854,0
patternWeightCount-4,true,1.00,2316,914,2309,907,237274,0
patternWeightCount-5,false,0.78,6779,999,6771,999,687447,0
patternWeightCount-6,false,0.83,7031,999,7023,999,716163,0
patternWeightCount-7,true,1.00,3431,880,3426,868,344964,0
patternWeightCount-8,true,1.00,1357,856,1351,848,144117,0
patternWeightCount-9,false,1.00,4780,999,4773,999,498203,0
patternWeightCount-10,false,0.99,4762,999,4760,999,447556,0
patternWeightCount-11,true,1.00,2074,887,2070,880,233546,0
patternWeightCount-12,false,0.84,4919,999,4912,999,495793,0
patternWeightCount-13,true,1.00,3586,886,3582,879,356703,0
patternWeightCount-14,false,0.97,3712,999,3705,999,387338,0
patternWeightCount-15,false,0.99,4060,999,4056,999,414456,0
patternWeightCount-16,false,0.81,6131,999,6126,999,643114,0
patternWeightCount-17,true,1.00,2866,977,2859,970,311538,0
patternWeightCount-18,true,1.00,2934,998,2927,992,304478,0
patternWeightCount-19,true,1.00,1718,953,1712,945,176268,0
patternWeightCount-20,false,0.58,5577,757,5573,757,558247,0
patternWeightCount-21,false,0.97,1909,999,1901,999,204508,0
patternWeightCount-22,false,0.82,6104,999,6101,999,625286,0
patternWeightCount-23,false,0.07,3021,176,3021,176,305249,0
patternWeightCount-24,false,0.13,1198,202,1198,202,128622,0
patternWeightCount-25,false,0.06,1484,153,1484,153,170896,0
patternWeightCount-26,false,0.82,4563,999,4560,999,486169,0
patternWeightCount-27,false,0.85,4907,999,4900,999,534416,0
patternWeightCount-28,false,0.77,6737,999,6732,999,717362,0
patternWeightCount-29,true,1.00,4591,994,4585,987,471213,0
patternWeightCount-30,false,0.82,5211,997,5207,997,533155,0
patternWeightCount-31,false,0.19,1631,281,1626,281,196556,0
patternWeightCount-32,false,0.79,1856,846,1849,846,207309,0
patternWeightCount-33,false,0.62,2501,740,2494,740,313390,0
patternWeightCount-34,false,0.19,2613,291,2612,291,293446,0
patternWeightCount-35,false,0.53,2393,750,2388,750,245855,0
patternWeightCount-36,false,0.82,5545,999,5538,999,566913,0
patternWeightCount-37,true,1.00,3192,912,3186,905,322187,0
patternWeightCount-38,false,0.89,4179,999,4170,999,413784,0
patternWeightCount-39,false,0.25,3107,447,3105,447,356574,0
patternWeightCount-40,false,0.56,3455,595,3453,595,355762,0
patternWeightCount-41,false,0.82,4908,998,4905,998,519546,0
patternWeightCount-42,false,0.78,6884,999,6879,999,713087,0
patternWeightCount-43,false,0.73,6508,999,6501,999,633854,0
patternWeightCount-44,false,0.98,4300,999,4299,999,487783,0
patternWeightCount-45,false,0.18,3655,276,3653,276,329838,0
patternWeightCount-46,false,0.80,6445,999,6438,999,669177,0
patternWeightCount-47,false,0.50,4384,550,4381,550,400639,0
patternWeightCount-48,true,1.00,2282,865,2278,858,231278,0
patternWeightCount-49,false,0.99,3782,999,3779,999,385668,0
patternWeightCount-50,true,1.00,3805,920,3798,913,369292,0
patternWeightCount-51,true,1.00,5126,995,5123,988,516199,0
patternWeightCount-52,false,0.86,4870,991,4863,991,515028,0
patternWeightCount-53,false,0.73,4390,847,4386,847,429896,0
patternWeightCount-54,true,1.00,2623,995,2616,988,320672,0
patternWeightCount-55,false,0.96,3096,999,3094,999,313979,0
patternWeightCount-56,true,1.00,4994,940,4988,933,500357,0
patternWeightCount-57,true,1.00,1736,894,1731,887,198856,0
patternWeightCount-58,false,0.82,5448,999,5443,999,581434,0
patternWeightCount-59,true,1.00,1196,863,1194,856,152299,0
patternWeightCount-60,false,0.02,15,25,15,25,2974,0
patternWeightCount-61,false,0.14,3300,262,3300,262,333976,0
patternWeightCount-62,false,0.94,4882,999,4879,999,501580,0
patternWeightCount-63,false,0.73,4352,999,4346,999,527170,0
patternWeightCount-64,false,0.90,6996,999,6992,999,668460,0
patternWeightCount-65,true,1.00,4825,980,4819,973,475153,0
patternWeightCount-66,false,0.92,3043,999,3040,999,350287,0
patternWeightCount-67,true,1.00,2054,845,2052,838,203364,0
patternWeightCount-68,true,1.00,1424,779,1419,772,143233,0
patternWeightCount-69,false,0.81,4069,812,4064,812,394117,0
patternWeightCount-70,false,0.90,3681,997,3675,997,391662,0
patternWeightCount-71,true,1.00,2923,956,2919,943,288383,0
patternWeightCount-72,false,0.75,8503,996,8500,996,927129,0
patternWeightCount-73,false,0.66,6963,886,6959,886,714846,0
patternWeightCount-74,true,1.00,3924,947,3918,942,419215,0
patternWeightCount-75,false,0.90,5868,999,5860,999,575375,0
patternWeightCount-76,true,1.00,3456,973,3451,965,357369,0
patternWeightCount-77,true,1.00,3765,972,3758,964,379175,0
patternWeightCount-78,false,0.57,5645,776,5643,776,588625,0
patternWeightCount-79,true,1.00,4139,985,4134,977,418502,0
patternWeightCount-80,false,0.11,923,201,922,201,99973,0
patternWeightCount-81,false,0.75,5067,997,5061,997,515725,0
patternWeightCount-82,true,1.00,351,737,346,730,45865,0
patternWeightCount-83,false,0.19,1658,319,1656,319,196799,0
patternWeightCount-84,false,0.92,3691,999,3687,999,371791,0
patternWeightCount-85,false,0.87,5746,999,5742,999,588652,0
patternWeightCount-86,false,0.91,5157,972,5151,972,508205,0
patternWeightCount-87,false,0.71,8801,885,8797,885,820164,0
patternWeightCount-88,false,0.21,2338,333,2337,333,239640,0
patternWeightCount-89,false,0.96,3646,999,3640,999,377014,0
patternWeightCount-90,false,0.75,6291,998,6285,998,631531,0
patternWeightCount-91,false,0.95,4859,999,4854,999,490055,0
patternWeightCount-92,false,0.60,2775,666,2768,666,286691,0
patternWeightCount-93,false,0.85,4541,999,4535,999,455799,0
patternWeightCount-94,false,0.80,7327,999,7320,999,759722,0
patternWeightCount-95,false,0.98,6203,999,6197,999,634811,0
patternWeightCount-96,true,1.00,3457,935,3455,922,366775,0
patternWeightCount-97,false,0.24,1618,283,1617,283,168372,0
patternWeightCount-98,false,0.64,5575,918,5567,918,536870,0
patternWeightCount-99,false,0.73,6214,999,6207,999,655419,0
patternWeightCount-100,true,1.00,3970,946,3966,938,388072,0
