NDW:0.0
TTFW:1.6
DFPT:2.0
DFPAP:3.0
DFPMP:3.0
RIGHT_WINDOW_BORDER_X:35.0
level,win/fail,% travelled,run time,game ticks,planning time,total plannings,nodes evaluated,most backtracked nodes
ge-1,false,0.22,381,114,378,114,19965,0
ge-2,false,0.41,2061,283,2054,283,115666,0
ge-3,true,1.00,1908,444,1897,440,99785,0
ge-4,false,0.36,2614,319,2609,319,144797,0
ge-5,true,1.00,59,351,46,347,3440,0
ge-6,false,0.55,1168,264,1167,264,63174,0
ge-7,false,0.43,191,156,187,156,10553,0
ge-8,true,1.00,2025,534,2015,530,92527,0
ge-9,false,0.87,4826,605,4814,605,275465,0
ge-10,true,1.00,61,359,48,351,3691,0
ge-11,false,0.93,1726,437,1714,437,98842,0
ge-12,true,1.00,60,353,49,349,3699,0
ge-13,false,0.38,407,210,400,210,22182,0
ge-14,false,0.22,1381,172,1375,172,45124,0
ge-15,false,0.51,2769,323,2765,323,109356,0
ge-16,false,0.10,1009,106,1005,106,56036,0
ge-17,false,0.24,1558,184,1555,184,85729,0
ge-18,false,0.09,410,68,410,68,22556,0
ge-19,false,0.18,852,134,851,134,44635,0
ge-20,false,0.50,1400,271,1396,271,75527,0
ge-21,false,0.34,293,158,293,158,15704,0
ge-22,false,0.69,2990,412,2985,412,160221,0
ge-23,false,0.30,1351,164,1348,164,45952,0
ge-24,false,0.71,1615,403,1605,403,79210,0
ge-25,false,0.62,2665,326,2660,326,112306,0
ge-26,false,0.48,2629,338,2624,338,150140,0
ge-27,true,1.00,58,352,47,348,3381,0
ge-28,false,0.36,420,157,417,157,22800,0
ge-29,false,0.37,3124,287,3120,287,163892,0
ge-30,false,0.10,410,71,408,71,21449,0
ge-31,false,0.24,1049,151,1046,151,58455,0
ge-32,true,1.00,387,423,380,419,20849,0
ge-33,true,1.00,441,427,430,421,24367,0
ge-34,false,0.13,447,89,441,89,23950,0
ge-35,false,0.16,28698,1008,28694,1008,1372016,0
ge-36,false,0.43,2047,313,2041,313,111965,0
ge-37,false,0.90,1013,419,1001,419,52917,0
ge-38,false,0.50,1091,302,1090,302,57908,0
ge-39,false,0.19,1782,178,1778,178,97050,0
ge-40,true,1.00,54,335,44,331,3199,0
ge-41,false,0.50,1535,274,1531,274,84151,0
ge-42,false,0.18,3261,223,3258,223,172596,0
ge-43,false,0.38,367,177,364,177,19411,0
ge-44,false,0.33,1291,205,1285,205,67150,0
ge-45,false,0.21,417,113,415,113,22477,0
ge-46,false,0.31,1032,202,1027,202,53822,0
ge-47,false,0.15,314,88,311,88,18195,0
ge-48,false,0.62,2173,322,2167,322,117432,0
ge-49,true,1.00,2505,454,2499,450,128394,0
ge-50,false,0.34,1857,291,1855,291,102154,0
ge-51,true,1.00,499,396,487,392,27094,0
ge-52,true,1.00,4224,601,4203,597,220023,0
ge-53,false,0.22,403,109,399,109,11681,0
ge-54,false,0.90,1875,505,1860,505,77634,0
ge-55,false,0.91,2576,492,2562,492,139668,0
ge-56,false,0.12,950,115,949,115,50272,0
ge-57,false,0.08,5,28,4,28,317,0
ge-58,true,1.00,559,458,547,448,30644,0
ge-59,false,0.36,568,219,558,219,31121,0
ge-60,false,0.22,2797,184,2795,184,145359,0
ge-61,false,0.80,1085,356,1080,356,58319,0
ge-62,false,0.28,1876,189,1872,189,101984,0
ge-63,false,0.22,1612,189,1609,189,94829,0
ge-64,false,0.70,1981,355,1972,355,106159,0
ge-65,false,0.40,1741,254,1735,254,100686,0
ge-66,false,0.25,905,180,900,180,52229,0
ge-67,false,0.95,573,400,562,400,31445,0
ge-68,false,0.18,1023,111,1021,111,54063,0
ge-69,true,1.00,1896,467,1886,463,103795,0
ge-70,false,0.86,991,366,983,366,52389,0
ge-71,false,0.30,2107,240,2103,240,114209,0
ge-72,true,1.00,549,416,536,412,29879,0
ge-73,false,0.95,1600,461,1591,461,89300,0
ge-74,false,0.45,1101,245,1098,245,62481,0
ge-75,false,0.84,1357,407,1353,407,76773,0
ge-76,false,0.30,3014,262,3008,262,162233,0
ge-77,false,0.10,2491,132,2489,132,121266,0
ge-78,false,0.55,1868,274,1853,274,75237,0
ge-79,false,0.99,431,392,420,392,22898,0
ge-80,true,1.00,78,373,69,369,4617,0
ge-81,true,1.00,66,354,54,349,3589,0
ge-82,true,1.00,94,397,84,393,5625,0
ge-83,false,0.09,4513,214,4512,214,234998,0
ge-84,false,0.12,2432,162,2431,162,137690,0
ge-85,false,0.41,897,218,894,218,51138,0
ge-86,false,0.80,2153,421,2140,421,121586,0
ge-87,false,0.23,648,153,646,153,37475,0
ge-88,false,0.16,1119,156,1118,156,65397,0
ge-89,true,1.00,753,497,732,493,41012,0
ge-90,true,1.00,52,337,45,333,3148,0
ge-91,false,0.86,1613,397,1605,397,89109,0
ge-92,true,1.00,60,355,53,351,3669,0
ge-93,false,0.38,27279,999,27273,999,1378533,0
ge-94,false,0.27,514,129,512,129,30941,0
ge-95,true,1.00,99,407,91,402,6188,0
ge-96,false,0.33,2298,279,2290,279,104688,0
ge-97,false,0.55,741,251,739,251,41038,0
ge-98,true,1.00,55,349,49,345,3484,0
ge-99,true,1.00,3178,463,3168,458,161336,0
ge-100,false,0.11,2305,177,2304,177,126332,0
