NDW:0.0
TTFW:0.4
DFPT:2.0
DFPAP:3.0
DFPMP:1.0
RIGHT_WINDOW_BORDER_X:15.0
level,win/fail,% travelled,run time,game ticks,planning time,total plannings,nodes evaluated,most backtracked nodes
patternCount-1,false,0.03,164,96,164,96,28065,0
patternCount-2,false,0.09,1239,363,1235,363,144388,0
patternCount-3,false,0.02,70,123,70,123,15592,0
patternCount-4,false,0.03,123,137,123,137,20824,0
patternCount-5,false,0.10,699,339,697,339,82171,0
patternCount-6,false,0.03,46,65,46,65,10155,0
patternCount-7,false,0.03,104,119,103,119,28380,0
patternCount-8,false,0.07,430,163,429,163,48663,0
patternCount-9,false,0.08,553,190,553,190,69110,0
patternCount-10,false,0.06,522,276,518,276,78162,0
patternCount-11,false,0.04,103,89,101,89,18879,0
patternCount-12,false,0.03,165,85,165,85,31516,0
patternCount-13,false,0.20,2033,685,2029,685,228213,0
patternCount-14,false,0.04,93,132,93,132,18791,0
patternCount-15,false,0.23,1382,575,1377,575,155388,0
patternCount-16,false,0.06,348,242,346,242,47643,0
patternCount-17,false,0.15,1698,375,1695,375,161556,0
patternCount-18,false,0.12,1190,380,1187,380,126364,0
patternCount-19,false,0.05,269,203,268,203,42138,0
patternCount-20,false,0.06,201,122,200,122,21798,0
patternCount-21,false,0.13,1021,378,1019,378,107135,0
patternCount-22,false,0.08,567,230,565,230,69504,0
patternCount-23,false,0.01,16,39,16,39,5151,0
patternCount-24,false,0.22,1880,621,1876,621,196977,0
patternCount-25,false,0.17,1447,394,1446,394,143337,0
patternCount-26,false,0.05,269,203,267,203,42138,0
patternCount-27,false,0.07,366,253,363,253,63682,0
patternCount-28,false,0.06,142,214,139,214,26992,0
patternCount-29,false,0.07,735,257,734,257,85256,0
patternCount-30,false,0.02,186,118,184,118,40107,0
patternCount-31,false,0.14,1995,450,1994,450,211942,0
patternCount-32,false,0.05,269,203,268,203,42138,0
patternCount-33,false,0.05,269,203,268,203,42138,0
patternCount-34,false,0.07,453,244,448,244,54881,0
patternCount-35,false,0.11,444,336,442,336,58142,0
patternCount-36,false,0.18,1822,584,1819,584,183617,0
patternCount-37,false,0.07,295,162,294,162,36605,0
patternCount-38,false,0.05,270,203,268,203,42138,0
patternCount-39,false,0.17,769,414,766,414,77722,0
patternCount-40,false,0.00,1,21,1,21,342,0
patternCount-41,false,0.13,532,296,530,296,62964,0
patternCount-42,false,0.04,147,131,147,131,25958,0
patternCount-43,false,0.06,215,190,212,190,36242,0
patternCount-44,false,0.12,397,291,396,291,51648,0
patternCount-45,false,0.11,1205,329,1204,329,121188,0
patternCount-46,false,0.01,16,41,16,41,5355,0
patternCount-47,false,0.02,4799,999,4795,999,857285,0
patternCount-48,false,0.14,955,324,954,324,110173,0
patternCount-49,false,0.07,816,316,813,316,107952,0
patternCount-50,false,0.11,809,333,807,333,87367,0
patternCount-51,false,0.01,65,92,65,92,15190,0
patternCount-52,false,0.06,372,149,372,149,54314,0
patternCount-53,false,0.06,182,155,182,155,29929,0
patternCount-54,false,0.00,1,21,1,21,342,0
patternCount-55,false,0.03,15,55,14,55,3062,0
patternCount-56,false,0.05,686,218,681,218,92539,0
patternCount-57,false,0.06,84,110,82,110,12143,0
patternCount-58,false,0.08,182,143,182,143,34322,0
patternCount-59,false,0.07,353,135,351,135,44432,0
patternCount-60,false,0.05,279,128,279,128,44391,0
patternCount-61,false,0.09,972,235,969,235,98606,0
patternCount-62,false,0.14,1124,430,1122,430,121849,0
patternCount-63,false,0.11,408,244,405,244,51738,0
patternCount-64,false,0.02,50,88,50,88,11863,0
patternCount-65,false,0.11,624,230,623,230,61737,0
patternCount-66,false,0.12,835,349,831,349,93612,0
patternCount-67,false,0.16,873,293,871,293,94332,0
patternCount-68,false,0.08,284,180,284,180,33838,0
patternCount-69,false,0.05,72,153,72,153,11860,0
patternCount-70,false,0.03,153,109,153,109,24127,0
patternCount-71,false,0.05,235,90,233,90,39117,0
patternCount-72,false,0.15,325,273,324,273,34532,0
patternCount-73,false,0.15,690,372,688,372,75141,0
patternCount-74,false,0.09,830,306,827,306,89117,0
patternCount-75,false,0.07,188,208,188,208,28023,0
patternCount-76,false,0.00,1,21,1,21,342,0
patternCount-77,false,0.07,357,166,357,166,40370,0
patternCount-78,false,0.04,173,106,172,106,26549,0
patternCount-79,false,0.02,84,121,84,121,21276,0
patternCount-80,false,0.08,221,157,220,157,22592,0
patternCount-81,false,0.06,123,119,122,119,17257,0
patternCount-82,false,0.08,564,242,562,242,62280,0
patternCount-83,false,0.04,65,119,65,119,13285,0
patternCount-84,false,0.03,119,137,116,137,20824,0
patternCount-85,false,0.02,90,75,90,75,18525,0
patternCount-86,false,0.05,443,178,442,178,63005,0
patternCount-87,false,0.01,158,181,157,181,43648,0
patternCount-88,false,0.08,326,190,323,190,42684,0
patternCount-89,false,0.09,1064,265,1063,265,121864,0
patternCount-90,false,0.06,411,172,395,172,41747,0
patternCount-91,false,0.04,89,95,89,95,16870,0
patternCount-92,false,0.27,2751,726,2749,726,273465,0
patternCount-93,false,0.09,311,269,311,269,41036,0
patternCount-94,false,0.12,784,302,783,302,88221,0
patternCount-95,false,0.05,736,207,734,207,95094,0
patternCount-96,false,0.02,68,121,67,121,15778,0
patternCount-97,false,0.06,818,219,815,219,86138,0
patternCount-98,false,0.11,1436,451,1434,451,166514,0
patternCount-99,false,0.05,191,145,190,145,29241,0
patternCount-100,false,0.23,3482,798,3477,798,359200,0
