NDW:0.0
TTFW:2.0
DFPT:2.0
DFPAP:3.0
DFPMP:2.0
RIGHT_WINDOW_BORDER_X:295.0
level,win/fail,% travelled,run time,game ticks,planning time,total plannings,nodes evaluated,most backtracked nodes
Krys-1,true,1.00,7287,556,7277,507,329775,0
Krys-2,false,0.79,24053,999,24041,999,900006,0
Krys-3,true,1.00,8784,563,8779,493,418950,0
Krys-4,true,1.00,3608,519,3589,453,155091,0
Krys-5,true,1.00,1795,388,1788,320,104640,0
Krys-6,true,1.00,1724,357,1715,314,80566,0
Krys-7,true,1.00,554,382,544,328,26728,0
Krys-8,true,1.00,2742,511,2737,422,127450,0
Krys-9,true,1.00,2394,374,2386,320,143596,0
Krys-10,true,1.00,4735,445,4726,382,211234,0
Krys-11,true,1.00,403,434,386,359,15728,0
Krys-12,true,1.00,5597,470,5589,403,242816,0
Krys-13,true,1.00,4183,445,4176,381,240567,0
Krys-14,true,1.00,2662,405,2650,349,101561,0
Krys-15,true,1.00,4483,423,4474,368,222280,0
Krys-16,true,1.00,2814,459,2801,385,105906,0
Krys-17,true,1.00,2265,518,2250,448,105651,0
Krys-18,true,1.00,2205,420,2195,362,92128,0
Krys-19,true,1.00,4582,405,4571,350,231475,0
Krys-20,true,1.00,4917,549,4906,467,198771,0
Krys-21,true,1.00,2212,405,2201,358,118459,0
Krys-22,true,1.00,2290,360,2276,308,132583,0
Krys-23,true,1.00,2808,575,2787,511,119982,0
Krys-24,true,1.00,5034,462,5022,407,245249,0
Krys-25,true,1.00,2833,460,2826,385,126402,0
Krys-26,true,1.00,3140,350,3130,298,176604,0
Krys-27,true,1.00,2860,431,2853,354,130241,0
Krys-28,true,1.00,3902,398,3889,358,189208,0
Krys-29,true,1.00,2520,483,2508,445,104408,0
Krys-30,true,1.00,3850,574,3832,499,144676,0
Krys-31,true,1.00,1783,424,1775,358,80200,0
Krys-32,true,1.00,828,421,822,366,33934,0
Krys-33,true,1.00,648,388,639,324,32211,0
Krys-34,true,1.00,2895,452,2887,368,133864,0
Krys-35,true,1.00,2368,408,2353,352,119387,0
Krys-36,true,1.00,4431,404,4424,329,216433,0
Krys-37,true,1.00,5703,495,5692,457,286078,0
Krys-38,true,1.00,4229,427,4222,351,232223,0
Krys-39,true,1.00,3553,403,3546,330,184494,0
Krys-40,true,1.00,3973,425,3955,369,198725,0
Krys-41,true,1.00,4756,416,4751,370,226586,0
Krys-42,true,1.00,2972,439,2961,375,167925,0
Krys-43,true,1.00,1809,408,1802,341,100328,0
Krys-44,true,1.00,6048,518,6042,463,322312,0
Krys-45,true,1.00,1882,421,1867,368,69076,0
Krys-46,true,1.00,2081,497,2066,454,87366,0
Krys-47,true,1.00,2256,493,2240,431,103015,0
Krys-48,true,1.00,1932,389,1924,333,108627,0
Krys-49,true,1.00,1001,404,988,358,45483,0
Krys-50,true,1.00,7806,550,7793,507,325078,0
Krys-51,true,1.00,4233,428,4225,356,215782,0
Krys-52,true,1.00,3252,509,3239,426,128305,0
Krys-53,true,1.00,2967,473,2955,420,122097,0
Krys-54,true,1.00,6191,504,6185,462,283599,0
Krys-55,true,1.00,4084,520,4066,444,175045,0
Krys-56,false,0.59,26527,999,26521,999,950941,0
Krys-57,true,1.00,1165,334,1155,287,59338,0
Krys-58,true,1.00,2766,515,2758,457,119214,0
Krys-59,false,0.38,29553,999,29550,999,1052801,0
Krys-60,true,1.00,3326,428,3316,355,159740,0
Krys-61,true,1.00,3068,493,3056,424,126123,0
Krys-62,true,1.00,1898,463,1880,417,68641,0
Krys-63,true,1.00,4482,621,4472,557,187823,0
Krys-64,true,1.00,2851,512,2840,450,121735,0
Krys-65,true,1.00,2237,551,2218,493,90615,0
Krys-66,true,1.00,3791,429,3782,386,153772,0
Krys-67,true,1.00,3198,546,3185,485,134593,0
Krys-68,true,1.00,2816,369,2809,308,152956,0
Krys-69,true,1.00,9919,779,9899,718,384643,0
Krys-70,true,1.00,5917,519,5895,450,256005,0
Krys-71,true,1.00,3309,382,3306,330,186820,0
Krys-72,true,1.00,1943,500,1925,440,76487,0
Krys-73,true,1.00,4458,516,4449,458,190921,0
Krys-74,true,1.00,2435,492,2423,431,123189,0
Krys-75,true,1.00,1133,500,1119,428,42318,0
Krys-76,true,1.00,3788,343,3783,303,181970,0
Krys-77,true,1.00,1454,418,1443,343,79113,0
Krys-78,false,0.91,24864,999,24857,999,987340,0
Krys-79,true,1.00,1472,443,1454,370,58564,0
Krys-80,true,1.00,755,444,741,390,32765,0
Krys-81,true,1.00,1169,418,1158,357,56802,0
Krys-82,true,1.00,1406,382,1396,330,53802,0
Krys-83,true,1.00,3006,448,2997,366,135065,0
Krys-84,true,1.00,443,385,432,333,18992,0
Krys-85,true,1.00,3713,591,3701,509,162314,0
Krys-86,true,1.00,1417,416,1408,366,61558,0
Krys-87,true,1.00,1465,378,1454,323,54557,0
Krys-88,true,1.00,1678,445,1671,391,79482,0
Krys-89,true,1.00,1591,482,1579,432,72781,0
Krys-90,true,1.00,3565,358,3559,300,182626,0
Krys-91,true,1.00,509,426,496,376,19954,0
Krys-92,true,1.00,5053,436,5042,346,228745,0
Krys-93,true,1.00,3770,409,3758,352,182845,0
Krys-94,true,1.00,1333,388,1326,329,74734,0
Krys-95,true,1.00,2118,406,2109,331,97369,0
Krys-96,true,1.00,4327,422,4318,367,240368,0
Krys-97,true,1.00,1658,418,1650,353,80369,0
Krys-98,true,1.00,5709,526,5696,483,250234,0
Krys-99,true,1.00,2553,464,2544,394,94746,0
Krys-100,true,1.00,2647,385,2634,336,153773,0
