NDW:0.0
TTFW:0.4
DFPT:2.0
DFPAP:3.0
DFPMP:5.0
RIGHT_WINDOW_BORDER_X:215.0
level,win/fail,% travelled,run time,game ticks,planning time,total plannings,nodes evaluated,most backtracked nodes
hopper-1,true,1.00,1083,301,1080,282,88442,0
hopper-2,true,1.00,1243,313,1243,294,99445,0
hopper-3,true,1.00,1055,323,1053,304,89751,0
hopper-4,true,1.00,1031,343,1031,324,87157,0
hopper-5,true,1.00,844,303,840,284,67847,0
hopper-6,true,1.00,1902,340,1899,321,156835,0
hopper-7,true,1.00,706,319,706,300,55446,0
hopper-8,true,1.00,853,331,851,312,70140,0
hopper-9,true,1.00,926,301,925,282,75413,0
hopper-10,true,1.00,876,303,875,284,72985,0
hopper-11,true,1.00,692,309,688,290,55189,0
hopper-12,true,1.00,2677,373,2675,353,222920,0
hopper-13,true,1.00,1692,347,1692,328,139441,0
hopper-14,true,1.00,834,306,834,283,67134,0
hopper-15,true,1.00,1047,310,1044,287,81989,0
hopper-16,true,1.00,1369,331,1368,312,112871,0
hopper-17,true,1.00,940,319,937,300,73537,0
hopper-18,true,1.00,1032,307,1029,288,79420,0
hopper-19,true,1.00,1158,324,1155,304,100550,0
hopper-20,true,1.00,1246,309,1243,290,98422,0
hopper-21,true,1.00,660,316,657,297,52369,0
hopper-22,true,1.00,1500,336,1493,316,121870,0
hopper-23,true,1.00,1284,315,1283,296,105858,0
hopper-24,true,1.00,590,297,589,278,46623,0
hopper-25,true,1.00,825,299,824,280,68650,0
hopper-26,true,1.00,1059,297,1059,278,84030,0
hopper-27,true,1.00,858,297,857,278,70344,0
hopper-28,true,1.00,1654,348,1650,329,143375,0
hopper-29,false,0.26,1668,117,1668,117,116912,0
hopper-30,true,1.00,1041,331,1041,300,84802,0
hopper-31,true,1.00,956,319,953,300,80454,0
hopper-32,true,1.00,1399,305,1398,286,114735,0
hopper-33,false,0.50,808,161,807,161,59408,0
hopper-34,true,1.00,967,325,966,306,79424,0
hopper-35,true,1.00,1317,329,1313,306,111199,0
hopper-36,true,1.00,656,297,654,278,50826,0
hopper-37,false,0.51,839,164,839,164,60821,0
hopper-38,true,1.00,1225,327,1225,307,104916,0
hopper-39,true,1.00,1016,321,1014,302,86233,0
hopper-40,true,1.00,865,297,863,278,66462,0
hopper-41,true,1.00,2636,347,2635,328,206511,0
hopper-42,true,1.00,798,299,794,280,61731,0
hopper-43,false,0.45,1609,162,1608,162,116452,0
hopper-44,true,1.00,1220,314,1218,291,100467,0
hopper-45,false,0.43,1150,145,1148,145,85175,0
hopper-46,true,1.00,1049,323,1046,304,88738,0
hopper-47,true,1.00,1381,307,1379,288,113761,0
hopper-48,true,1.00,1074,303,1073,284,86171,0
hopper-49,true,1.00,1228,317,1226,298,100764,0
hopper-50,true,1.00,1286,332,1283,313,104547,0
hopper-51,true,1.00,1151,331,1148,312,92324,0
hopper-52,true,1.00,772,301,770,282,64430,0
hopper-53,false,0.63,2593,237,2591,237,187338,0
hopper-54,true,1.00,621,297,619,278,48443,0
hopper-55,true,1.00,799,309,798,290,65803,0
hopper-56,true,1.00,700,301,698,282,58193,0
hopper-57,true,1.00,920,299,916,280,70420,0
hopper-58,true,1.00,1612,339,1610,319,136866,0
hopper-59,true,1.00,723,297,720,278,60887,0
hopper-60,true,1.00,1024,321,1022,302,84899,0
hopper-61,true,1.00,1268,326,1265,307,103994,0
hopper-62,true,1.00,1175,312,1172,289,94180,0
hopper-63,true,1.00,1200,331,1196,312,101194,0
hopper-64,true,1.00,1003,305,1002,286,77180,0
hopper-65,true,1.00,1005,301,1002,281,82328,0
hopper-66,true,1.00,1142,334,1139,315,93399,0
hopper-67,true,1.00,655,297,653,278,52216,0
hopper-68,true,1.00,743,315,743,296,57095,0
hopper-69,true,1.00,821,325,818,306,65374,0
hopper-70,true,1.00,1083,303,1081,284,88812,0
hopper-71,true,1.00,601,297,601,278,45370,0
hopper-72,true,1.00,1312,319,1312,299,105588,0
hopper-73,true,1.00,892,299,891,280,70892,0
hopper-74,true,1.00,734,297,731,278,56569,0
hopper-75,true,1.00,1072,307,1067,288,84487,0
hopper-76,true,1.00,1557,346,1552,326,129838,0
hopper-77,true,1.00,789,305,789,286,59593,0
hopper-78,true,1.00,1098,303,1091,284,91532,0
hopper-79,true,1.00,785,304,782,281,62966,0
hopper-80,true,1.00,705,301,701,282,55892,0
hopper-81,false,0.39,2109,155,2108,155,151304,0
hopper-82,true,1.00,1209,350,1208,331,103908,0
hopper-83,true,1.00,1200,297,1199,278,97947,0
hopper-84,true,1.00,1147,305,1146,286,91057,0
hopper-85,true,1.00,914,305,910,286,69442,0
hopper-86,true,1.00,1000,317,995,298,82438,0
hopper-87,true,1.00,899,299,894,280,71901,0
hopper-88,true,1.00,714,299,712,280,61094,0
hopper-89,true,1.00,717,301,712,281,58986,0
hopper-90,true,1.00,867,297,864,278,70890,0
hopper-91,true,1.00,1068,303,1067,284,86488,0
hopper-92,true,1.00,1030,311,1028,292,79463,0
hopper-93,true,1.00,748,317,748,298,58629,0
hopper-94,true,1.00,1320,331,1319,312,111021,0
hopper-95,true,1.00,940,297,938,278,78002,0
hopper-96,true,1.00,943,319,942,300,79505,0
hopper-97,true,1.00,1391,319,1389,300,109668,0
hopper-98,true,1.00,1313,307,1309,288,101725,0
hopper-99,true,1.00,2113,354,2112,335,172183,0
hopper-100,true,1.00,1119,310,1116,287,91312,0
