NDW:0.0
TTFW:0.6
DFPT:2.0
DFPAP:3.0
DFPMP:20.0
RIGHT_WINDOW_BORDER_X:115.0
level,win/fail,% travelled,run time,game ticks,planning time,total plannings,nodes evaluated,most backtracked nodes
ge-1,true,1.00,671,256,665,233,38069,0
ge-2,true,1.00,1111,249,1109,239,63631,0
ge-3,true,1.00,237,210,234,199,13038,0
ge-4,true,1.00,4696,365,4690,353,267470,0
ge-5,true,1.00,31,199,29,189,1515,0
ge-6,true,1.00,1728,287,1723,275,97253,0
ge-7,true,1.00,90,208,87,198,5043,0
ge-8,true,1.00,679,229,674,219,38636,0
ge-9,true,1.00,476,218,472,208,27122,0
ge-10,true,1.00,30,199,27,189,1470,0
ge-11,true,1.00,233,216,232,205,13757,0
ge-12,true,1.00,42,207,32,197,2169,0
ge-13,true,1.00,447,234,443,224,24756,0
ge-14,true,1.00,297,220,292,208,16100,0
ge-15,true,1.00,586,227,579,217,33305,0
ge-16,true,1.00,438,272,429,262,25604,0
ge-17,true,1.00,386,218,383,208,22720,0
ge-18,true,1.00,1605,297,1600,286,90967,0
ge-19,true,1.00,580,259,573,245,32745,0
ge-20,true,1.00,419,221,412,211,23492,0
ge-21,true,1.00,200,203,196,193,10590,0
ge-22,true,1.00,760,222,754,208,42678,0
ge-23,true,1.00,2929,293,2925,282,172208,0
ge-24,true,1.00,1134,293,1129,283,63314,0
ge-25,true,1.00,2556,289,2549,279,147429,0
ge-26,true,1.00,660,219,652,209,39217,0
ge-27,true,1.00,58,213,48,203,2964,0
ge-28,true,1.00,1660,246,1653,236,87028,0
ge-29,true,1.00,275,222,269,196,15293,0
ge-30,true,1.00,2242,295,2240,285,130037,0
ge-31,true,1.00,3471,361,3464,347,200991,0
ge-32,true,1.00,156,231,153,221,8442,0
ge-33,true,1.00,126,223,123,212,6826,0
ge-34,true,1.00,1221,250,1213,240,70900,0
ge-35,true,1.00,466,258,457,248,24854,0
ge-36,true,1.00,1658,273,1655,263,96446,0
ge-37,true,1.00,330,204,324,194,17841,0
ge-38,true,1.00,4063,386,4057,376,229084,0
ge-39,true,1.00,992,255,987,245,59681,0
ge-40,true,1.00,30,199,26,189,1460,0
ge-41,true,1.00,1075,243,1070,233,61545,0
ge-42,true,1.00,821,275,813,265,44361,0
ge-43,true,1.00,315,223,311,213,18081,0
ge-44,true,1.00,1141,264,1134,254,62972,0
ge-45,true,1.00,493,245,489,235,27779,0
ge-46,true,1.00,2929,306,2925,296,163835,0
ge-47,true,1.00,1617,261,1617,251,89989,0
ge-48,true,1.00,442,247,438,237,24900,0
ge-49,true,1.00,138,202,131,192,7615,0
ge-50,true,1.00,1692,247,1689,237,92553,0
ge-51,true,1.00,172,218,166,208,9039,0
ge-52,true,1.00,417,251,411,241,22925,0
ge-53,true,1.00,382,229,379,219,20682,0
ge-54,true,1.00,763,284,759,273,44066,0
ge-55,true,1.00,482,258,476,248,27350,0
ge-56,true,1.00,1001,276,995,258,56357,0
ge-57,true,1.00,1904,259,1900,248,108752,0
ge-58,true,1.00,338,280,331,266,17703,0
ge-59,true,1.00,2952,313,2949,303,168461,0
ge-60,true,1.00,2488,276,2483,266,135816,0
ge-61,true,1.00,411,217,407,207,22741,0
ge-62,true,1.00,1498,248,1497,238,86207,0
ge-63,true,1.00,3132,330,3127,319,177288,0
ge-64,false,1.00,783,251,778,232,43065,0
ge-65,true,1.00,1437,264,1433,254,81902,0
ge-66,true,1.00,2748,300,2744,289,161224,0
ge-67,true,1.00,512,235,509,224,28805,0
ge-68,true,1.00,121,217,116,207,6357,0
ge-69,true,1.00,184,219,177,209,10124,0
ge-70,true,1.00,2441,282,2437,272,140033,0
ge-71,true,1.00,2160,297,2154,287,125524,0
ge-72,true,1.00,212,246,207,234,12076,0
ge-73,true,1.00,402,214,396,203,23097,0
ge-74,true,1.00,4338,356,4334,346,241285,0
ge-75,true,1.00,457,242,453,216,26159,0
ge-76,true,1.00,1459,254,1454,244,83084,0
ge-77,true,1.00,3468,319,3467,309,199664,0
ge-78,true,1.00,2737,335,2731,324,153506,0
ge-79,true,1.00,179,235,172,224,9447,0
ge-80,true,1.00,78,219,72,208,3911,0
ge-81,true,1.00,83,209,77,199,4482,0
ge-82,true,1.00,127,237,122,213,6593,0
ge-83,true,1.00,1399,297,1394,287,80829,0
ge-84,true,1.00,2984,296,2983,286,172140,0
ge-85,true,1.00,1451,240,1445,230,84248,0
ge-86,true,1.00,2452,267,2449,256,138306,0
ge-87,true,1.00,1393,252,1387,242,79282,0
ge-88,true,1.00,958,250,950,240,54070,0
ge-89,true,1.00,196,252,187,242,11028,0
ge-90,true,1.00,31,199,25,189,1496,0
ge-91,true,1.00,330,206,328,196,18505,0
ge-92,true,1.00,36,205,32,195,1860,0
ge-93,true,1.00,2230,278,2227,268,125682,0
ge-94,true,1.00,1726,251,1719,241,97950,0
ge-95,true,1.00,143,244,133,234,7893,0
ge-96,true,1.00,1384,275,1380,264,77785,0
ge-97,true,1.00,1963,288,1958,278,109462,0
ge-98,true,1.00,30,199,26,189,1430,0
ge-99,true,1.00,264,209,259,199,14102,0
ge-100,true,1.00,834,241,825,231,48048,0
