NDW:0.0
TTFW:2.0
DFPT:2.0
DFPAP:3.0
DFPMP:1.0
RIGHT_WINDOW_BORDER_X:135.0
level,win/fail,% travelled,run time,game ticks,planning time,total plannings,nodes evaluated,most backtracked nodes
patternCount-1,false,0.67,3042,417,3033,417,125124,0
patternCount-2,true,1.00,1225,458,1207,446,56146,0
patternCount-3,false,0.91,3557,546,3546,546,150873,0
patternCount-4,true,1.00,1269,453,1254,436,57698,0
patternCount-5,true,1.00,1382,509,1362,496,60057,0
patternCount-6,true,1.00,806,427,784,415,34646,0
patternCount-7,true,1.00,1522,479,1506,467,66880,0
patternCount-8,true,1.00,3575,477,3564,459,155463,0
patternCount-9,true,1.00,1561,496,1542,484,69411,0
patternCount-10,true,1.00,716,399,707,380,33583,0
patternCount-11,false,0.81,3828,540,3811,540,178144,0
patternCount-12,true,1.00,1003,437,989,416,44149,0
patternCount-13,true,1.00,999,471,981,459,42518,0
patternCount-14,true,1.00,1663,470,1651,452,74879,0
patternCount-15,true,1.00,1348,531,1330,519,61954,0
patternCount-16,true,1.00,1295,469,1276,457,56789,0
patternCount-17,true,1.00,1352,543,1332,531,61870,0
patternCount-18,true,1.00,1662,482,1641,462,74929,0
patternCount-19,true,1.00,984,424,976,412,44448,0
patternCount-20,true,1.00,1313,438,1297,425,59479,0
patternCount-21,true,1.00,1286,481,1273,469,59022,0
patternCount-22,true,1.00,4057,549,4045,530,183469,0
patternCount-23,false,0.69,3427,404,3417,404,144275,0
patternCount-24,true,1.00,6951,603,6939,589,317649,0
patternCount-25,true,1.00,1532,510,1516,497,62269,0
patternCount-26,true,1.00,974,439,954,427,38415,0
patternCount-27,true,1.00,1487,457,1449,445,50155,0
patternCount-28,true,1.00,1592,506,1560,484,44647,0
patternCount-29,true,1.00,1204,434,1178,422,49943,0
patternCount-30,true,1.00,1236,453,1220,441,50295,0
patternCount-31,true,1.00,2018,500,1996,488,80475,0
patternCount-32,true,1.00,1725,457,1715,445,70647,0
patternCount-33,true,1.00,4660,496,4647,472,188388,0
patternCount-34,true,1.00,2563,547,2542,525,105206,0
patternCount-35,true,1.00,1308,481,1289,469,54748,0
patternCount-36,true,1.00,3331,500,3311,480,152782,0
patternCount-37,true,1.00,1391,430,1375,418,67567,0
patternCount-38,true,1.00,3219,501,3204,489,122624,0
patternCount-39,true,1.00,1537,470,1504,453,39501,0
patternCount-40,true,1.00,9160,600,9145,580,413370,0
patternCount-41,true,1.00,2321,505,2305,493,113428,0
patternCount-42,true,1.00,1208,489,1193,469,55997,0
patternCount-43,true,1.00,871,467,855,455,41125,0
patternCount-44,true,1.00,899,468,882,456,42480,0
patternCount-45,true,1.00,1787,563,1770,549,73913,0
patternCount-46,true,1.00,1867,445,1851,433,87002,0
patternCount-47,true,1.00,1867,503,1846,491,89039,0
patternCount-48,true,1.00,1034,493,1007,481,48597,0
patternCount-49,true,1.00,1652,485,1636,471,76393,0
patternCount-50,true,1.00,5529,610,5513,573,253762,0
patternCount-51,true,1.00,1142,444,1129,432,52933,0
patternCount-52,true,1.00,1334,474,1315,462,63694,0
patternCount-53,true,1.00,5595,559,5585,545,263937,0
patternCount-54,true,1.00,1944,522,1933,510,99527,0
patternCount-55,false,0.55,2369,318,2364,318,117382,0
patternCount-56,true,1.00,1814,515,1800,503,94310,0
patternCount-57,true,1.00,1130,500,1120,488,57705,0
patternCount-58,false,0.69,6930,544,6910,544,323235,0
patternCount-59,true,1.00,1522,479,1503,467,53951,0
patternCount-60,true,1.00,1843,503,1831,491,96959,0
patternCount-61,true,1.00,1291,489,1276,474,67112,0
patternCount-62,true,1.00,1494,478,1479,461,75683,0
patternCount-63,true,1.00,1224,450,1205,438,36236,0
patternCount-64,true,1.00,1071,445,1056,433,53052,0
patternCount-65,true,1.00,986,441,972,428,52969,0
patternCount-66,true,1.00,1703,508,1684,496,91409,0
patternCount-67,true,1.00,2938,532,2922,519,154394,0
patternCount-68,true,1.00,531,407,522,395,27090,0
patternCount-69,true,1.00,955,473,939,461,47318,0
patternCount-70,true,1.00,827,408,813,396,43285,0
patternCount-71,true,1.00,1709,570,1688,541,90691,0
patternCount-72,true,1.00,9779,700,9765,686,474332,0
patternCount-73,true,1.00,1893,523,1882,511,99503,0
patternCount-74,false,0.78,22161,999,22148,999,1080951,0
patternCount-75,true,1.00,1238,492,1220,475,56830,0
patternCount-76,true,1.00,1639,499,1634,487,76411,0
patternCount-77,true,1.00,1532,421,1517,406,72404,0
patternCount-78,true,1.00,1926,500,1909,488,93788,0
patternCount-79,true,1.00,5973,586,5959,569,292242,0
patternCount-80,true,1.00,3537,533,3522,515,180988,0
patternCount-81,true,1.00,986,470,970,458,50292,0
patternCount-82,true,1.00,1190,471,1179,459,60166,0
patternCount-83,true,1.00,1023,452,1014,440,49391,0
patternCount-84,true,1.00,754,454,736,442,38144,0
patternCount-85,true,1.00,1029,474,1012,462,51580,0
patternCount-86,true,1.00,1186,463,1172,451,60065,0
patternCount-87,true,1.00,1597,487,1582,467,80527,0
patternCount-88,true,1.00,1572,475,1561,460,80525,0
patternCount-89,true,1.00,1439,427,1427,415,71037,0
patternCount-90,true,1.00,993,429,981,417,50503,0
patternCount-91,true,1.00,2158,509,2142,497,108384,0
patternCount-92,true,1.00,1481,491,1464,479,72326,0
patternCount-93,false,0.91,8350,621,8341,621,354719,0
patternCount-94,true,1.00,1726,495,1688,482,54306,0
patternCount-95,true,1.00,1633,452,1619,440,58460,0
patternCount-96,true,1.00,1238,470,1218,458,58365,0
patternCount-97,false,0.81,6123,523,6116,523,273640,0
patternCount-98,true,1.00,1627,495,1618,483,79688,0
patternCount-99,true,1.00,1082,489,1061,477,51816,0
patternCount-100,true,1.00,899,447,877,435,40662,0
