NDW:0.0
TTFW:0.6
DFPT:2.0
DFPAP:3.0
DFPMP:3.0
RIGHT_WINDOW_BORDER_X:155.0
level,win/fail,% travelled,run time,game ticks,planning time,total plannings,nodes evaluated,most backtracked nodes
Krys-1,true,1.00,5708,534,5694,500,239793,0
Krys-2,true,1.00,2430,458,2419,433,100452,0
Krys-3,true,1.00,7117,479,7110,455,315185,0
Krys-4,true,1.00,3773,491,3764,477,157827,0
Krys-5,true,1.00,7131,488,7124,467,359263,0
Krys-6,true,1.00,1859,401,1850,379,85392,0
Krys-7,true,1.00,487,299,475,278,23423,0
Krys-8,true,1.00,2673,388,2659,366,116949,0
Krys-9,false,0.72,2841,289,2835,289,145832,0
Krys-10,true,1.00,2729,412,2719,397,126278,0
Krys-11,true,1.00,587,357,574,333,23702,0
Krys-12,false,0.70,25278,999,25269,999,943233,0
Krys-13,false,0.72,4264,332,4257,332,212355,0
Krys-14,false,0.79,23599,999,23571,999,866663,0
Krys-15,true,1.00,5243,474,5234,453,270474,0
Krys-16,true,1.00,2322,418,2315,398,97076,0
Krys-17,true,1.00,3359,465,3350,440,153255,0
Krys-18,true,1.00,2368,467,2360,443,108726,0
Krys-19,true,1.00,4146,366,4137,344,219723,0
Krys-20,false,0.72,5976,497,5968,497,299802,0
Krys-21,true,1.00,2039,301,2032,282,114594,0
Krys-22,false,0.82,3585,334,3577,334,188942,0
Krys-23,true,1.00,1426,399,1420,377,67689,0
Krys-24,true,1.00,5581,414,5576,393,270251,0
Krys-25,true,1.00,3355,416,3344,395,152564,0
Krys-26,true,1.00,4694,377,4687,343,245615,0
Krys-27,true,1.00,4011,443,4002,427,192273,0
Krys-28,true,1.00,4810,478,4798,456,217195,0
Krys-29,true,1.00,2510,471,2501,456,101094,0
Krys-30,true,1.00,2749,483,2733,458,113179,0
Krys-31,true,1.00,2246,404,2234,382,105618,0
Krys-32,true,1.00,1127,411,1117,397,44793,0
Krys-33,true,1.00,776,342,768,319,33221,0
Krys-34,true,1.00,4152,444,4144,419,178098,0
Krys-35,true,1.00,3608,372,3599,356,185905,0
Krys-36,true,1.00,5678,441,5672,426,257403,0
Krys-37,false,0.73,6006,400,6000,400,278873,0
Krys-38,false,0.73,3872,280,3866,280,205983,0
Krys-39,false,0.91,7175,457,7167,457,332691,0
Krys-40,true,1.00,5012,477,5007,450,244595,0
Krys-41,false,0.70,25946,999,25939,999,959712,0
Krys-42,true,1.00,2885,387,2877,364,145945,0
Krys-43,false,0.82,3181,335,3172,335,160773,0
Krys-44,false,0.62,4378,370,4369,370,215703,0
Krys-45,false,0.39,28425,999,28417,999,988194,0
Krys-46,true,1.00,2426,446,2412,414,98902,0
Krys-47,true,1.00,2001,445,1984,424,87026,0
Krys-48,true,1.00,3088,360,3079,345,159124,0
Krys-49,true,1.00,2336,416,2328,382,98078,0
Krys-50,true,1.00,5299,491,5287,471,229658,0
Krys-51,true,1.00,4206,420,4199,405,208958,0
Krys-52,true,1.00,3241,514,3227,489,129783,0
Krys-53,true,1.00,3044,443,3037,419,126365,0
Krys-54,true,1.00,4343,467,4331,449,175805,0
Krys-55,true,1.00,4173,457,4164,436,176927,0
Krys-56,true,1.00,1816,355,1804,339,74863,0
Krys-57,false,0.82,2351,303,2347,303,115489,0
Krys-58,true,1.00,3868,460,3857,445,171433,0
Krys-59,true,1.00,2544,484,2531,454,97822,0
Krys-60,true,1.00,4405,444,4394,429,208936,0
Krys-61,false,0.48,26176,999,26173,999,979744,0
Krys-62,true,1.00,2405,459,2391,434,92175,0
Krys-63,true,1.00,6338,613,6326,585,270374,0
Krys-64,true,1.00,3653,511,3641,480,160826,0
Krys-65,true,1.00,3489,471,3479,457,144159,0
Krys-66,true,1.00,4745,539,4733,517,198566,0
Krys-67,true,1.00,4338,569,4324,537,190252,0
Krys-68,true,1.00,6550,448,6547,427,307837,0
Krys-69,true,1.00,7875,615,7865,590,295233,0
Krys-70,false,0.80,24686,999,24680,999,935582,0
Krys-71,true,1.00,4445,381,4441,359,225463,0
Krys-72,true,1.00,2403,486,2386,472,100879,0
Krys-73,true,1.00,3755,413,3744,385,163466,0
Krys-74,true,1.00,1911,390,1904,355,84933,0
Krys-75,true,1.00,1321,365,1316,344,48948,0
Krys-76,false,0.52,2926,264,2924,264,136749,0
Krys-77,true,1.00,2020,369,2009,344,101366,0
Krys-78,false,0.20,2184,136,2182,136,111235,0
Krys-79,true,1.00,1429,350,1422,335,57681,0
Krys-80,true,1.00,755,363,748,343,32710,0
Krys-81,true,1.00,2207,364,2199,343,95570,0
Krys-82,true,1.00,1138,356,1133,335,45794,0
Krys-83,false,0.91,23851,999,23848,999,910790,0
Krys-84,true,1.00,419,325,410,303,19275,0
Krys-85,true,1.00,3540,466,3524,445,155494,0
Krys-86,true,1.00,1915,362,1902,346,81998,0
Krys-87,true,1.00,1026,340,1020,326,40846,0
Krys-88,true,1.00,2655,457,2642,426,115375,0
Krys-89,true,1.00,3895,419,3889,393,166032,0
Krys-90,true,1.00,5104,393,5097,373,259038,0
Krys-91,true,1.00,667,329,658,309,32688,0
Krys-92,false,0.91,22898,999,22890,999,858670,0
Krys-93,true,1.00,3512,370,3510,355,179483,0
Krys-94,true,1.00,1735,364,1726,341,90020,0
Krys-95,true,1.00,1722,360,1712,344,71432,0
Krys-96,true,1.00,5229,463,5220,442,268219,0
Krys-97,true,1.00,3237,388,3229,368,145452,0
Krys-98,true,1.00,5244,533,5230,515,219882,0
Krys-99,true,1.00,1969,420,1958,399,80300,0
Krys-100,true,1.00,4531,398,4521,378,244552,0
