NDW:0.0
TTFW:0.2
DFPT:2.0
DFPAP:3.0
DFPMP:7.0
RIGHT_WINDOW_BORDER_X:295.0
level,win/fail,% travelled,run time,game ticks,planning time,total plannings,nodes evaluated,most backtracked nodes
notch-1,true,1.00,2964,240,2962,213,186347,0
notch-2,true,1.00,4252,260,4250,233,260461,0
notch-3,true,1.00,3001,239,3000,212,189224,0
notch-4,true,1.00,2561,227,2560,200,162984,0
notch-5,true,1.00,2776,238,2774,212,178775,0
notch-6,true,1.00,3257,257,3255,230,199543,0
notch-7,true,1.00,2618,237,2618,210,154653,0
notch-8,true,1.00,4464,283,4463,257,264976,0
notch-9,true,1.00,2843,236,2843,209,181577,0
notch-10,true,1.00,2791,247,2787,220,179080,0
notch-11,true,1.00,2681,238,2678,211,167240,0
notch-12,true,1.00,3351,237,3350,210,196435,0
notch-13,true,1.00,2828,237,2824,211,172202,0
notch-14,true,1.00,2397,233,2395,204,151453,0
notch-15,true,1.00,2616,227,2615,200,161812,0
notch-16,true,1.00,2628,239,2628,213,166175,0
notch-17,true,1.00,3205,238,3205,211,194771,0
notch-18,true,1.00,4942,272,4941,243,291715,0
notch-19,true,1.00,2549,227,2547,200,161161,0
notch-20,true,1.00,2877,248,2877,221,175862,0
notch-21,true,1.00,3633,268,3631,242,224040,0
notch-22,true,1.00,2257,225,2253,198,135757,0
notch-23,true,1.00,2808,232,2808,205,177518,0
notch-24,true,1.00,2526,241,2523,214,151840,0
notch-25,true,1.00,2959,251,2959,225,190161,0
notch-26,true,1.00,3384,241,3381,214,215643,0
notch-27,true,1.00,4539,270,4538,241,278217,0
notch-28,true,1.00,2722,235,2721,204,160537,0
notch-29,true,1.00,3792,253,3792,226,230272,0
notch-30,true,1.00,2571,231,2567,199,160522,0
notch-31,true,1.00,3042,239,3041,212,185014,0
notch-32,true,1.00,3122,245,3117,218,189801,0
notch-33,true,1.00,2294,223,2291,196,145441,0
notch-34,true,1.00,2564,239,2562,213,153221,0
notch-35,true,1.00,3522,260,3521,233,209453,0
notch-36,true,1.00,3905,257,3903,230,242349,0
notch-37,true,1.00,3816,261,3816,229,244402,0
notch-38,true,1.00,2988,247,2985,221,192386,0
notch-39,true,1.00,2226,222,2225,195,136500,0
notch-40,true,1.00,2472,229,2471,201,155624,0
notch-41,true,1.00,3135,236,3134,209,192484,0
notch-42,true,1.00,2928,236,2927,210,181556,0
notch-43,true,1.00,3067,234,3067,207,184598,0
notch-44,true,1.00,2608,229,2604,202,161898,0
notch-45,true,1.00,2976,240,2973,213,183261,0
notch-46,true,1.00,2926,237,2925,211,179775,0
notch-47,true,1.00,3023,243,3017,216,191316,0
notch-48,true,1.00,2590,225,2587,198,169916,0
notch-49,true,1.00,3540,248,3539,221,215307,0
notch-50,true,1.00,4916,271,4914,243,286719,0
notch-51,true,1.00,3788,264,3788,236,229331,0
notch-52,true,1.00,3375,238,3375,211,210359,0
notch-53,true,1.00,2750,257,2749,213,157169,0
notch-54,true,1.00,3401,261,3399,226,209526,0
notch-55,true,1.00,5026,308,5025,281,311838,0
notch-56,true,1.00,2473,242,2470,213,155014,0
notch-57,true,1.00,3689,256,3687,228,225540,0
notch-58,true,1.00,4924,270,4924,243,295554,0
notch-59,true,1.00,3333,250,3332,224,205084,0
notch-60,true,1.00,3076,247,3073,221,195387,0
notch-61,true,1.00,3438,247,3435,220,213596,0
notch-62,true,1.00,3949,261,3946,235,230529,0
notch-63,true,1.00,2840,234,2839,207,166228,0
notch-64,true,1.00,2399,224,2398,197,151468,0
notch-65,true,1.00,4540,258,4539,224,284203,0
notch-66,true,1.00,5192,292,5191,251,315477,0
notch-67,true,1.00,2822,231,2822,205,180957,0
notch-68,true,1.00,3035,242,3029,216,183138,0
notch-69,true,1.00,3992,251,3990,224,254161,0
notch-70,true,1.00,2686,237,2683,211,168712,0
notch-71,true,1.00,2224,222,2219,195,147970,0
notch-72,true,1.00,2927,243,2924,214,182224,0
notch-73,true,1.00,3545,257,3545,231,214849,0
notch-74,true,1.00,3004,242,3003,214,171397,0
notch-75,true,1.00,3807,249,3806,222,237670,0
notch-76,true,1.00,3033,248,3029,222,191246,0
notch-77,true,1.00,3828,260,3827,231,224886,0
notch-78,true,1.00,2983,233,2982,206,190046,0
notch-79,true,1.00,3861,262,3861,233,238413,0
notch-80,true,1.00,2092,222,2088,195,124257,0
notch-81,true,1.00,3524,246,3523,219,228535,0
notch-82,true,1.00,3955,268,3954,241,242388,0
notch-83,true,1.00,2968,242,2967,216,184883,0
notch-84,true,1.00,2469,233,2467,204,152366,0
notch-85,true,1.00,2585,234,2584,201,154082,0
notch-86,true,1.00,2499,231,2496,204,156584,0
notch-87,true,1.00,2795,243,2792,213,184020,0
notch-88,true,1.00,3287,238,3287,209,212543,0
notch-89,true,1.00,3385,251,3381,225,215338,0
notch-90,true,1.00,3664,251,3663,224,228498,0
notch-91,true,1.00,4633,278,4633,251,285583,0
notch-92,true,1.00,2793,235,2789,208,175695,0
notch-93,true,1.00,3588,254,3586,227,218327,0
notch-94,true,1.00,3903,250,3900,221,250556,0
notch-95,true,1.00,2407,232,2404,206,147774,0
notch-96,true,1.00,2494,240,2493,213,154949,0
notch-97,true,1.00,3071,243,3071,216,190154,0
notch-98,true,1.00,3695,249,3695,222,231061,0
notch-99,true,1.00,3549,243,3547,216,222797,0
notch-100,true,1.00,2563,237,2563,211,158380,0
