NDW:0.0
TTFW:1.8
DFPT:2.0
DFPAP:3.0
DFPMP:7.0
RIGHT_WINDOW_BORDER_X:75.0
level,win/fail,% travelled,run time,game ticks,planning time,total plannings,nodes evaluated,most backtracked nodes
Mario-1,true,1.00,605,463,602,453,71535,0
Mario-2,true,1.00,559,360,559,352,60461,0
Mario-3,false,0.24,1702,6666,1663,6666,358962,0
Mario-4,true,1.00,2790,642,2785,629,294912,0
Mario-5,true,1.00,2399,636,2395,629,257250,0
Mario-6,true,1.00,6670,558,6668,552,840287,0
Mario-7,true,1.00,743,520,742,508,73349,0
Mario-8,true,1.00,2504,678,2501,665,264136,0
Mario-9,true,1.00,534,409,531,399,57631,0
Mario-10,false,0.33,1552,196,1551,196,163875,0
Mario-11,true,1.00,1765,455,1763,443,192348,0
Mario-12,true,1.00,1247,741,1238,728,133069,0
Mario-13,false,0.31,1721,239,1719,239,216271,0
Mario-14,true,1.00,177,425,172,415,22268,0
Mario-15,false,0.58,2559,574,2554,574,225108,0
