NDW:0.0
TTFW:1.4
DFPT:2.0
DFPAP:3.0
DFPMP:2.0
RIGHT_WINDOW_BORDER_X:155.0
level,win/fail,% travelled,run time,game ticks,planning time,total plannings,nodes evaluated,most backtracked nodes
notchParamRand-1,true,1.00,810,320,806,306,43428,0
notchParamRand-2,true,1.00,139,308,133,294,6474,0
notchParamRand-3,true,1.00,861,308,854,294,49585,0
notchParamRand-4,true,1.00,1338,333,1329,319,75300,0
notchParamRand-5,true,1.00,271,310,262,296,13557,0
notchParamRand-6,true,1.00,382,316,375,302,20500,0
notchParamRand-7,true,1.00,229,294,222,280,11592,0
notchParamRand-8,true,1.00,499,302,491,288,25563,0
notchParamRand-9,true,1.00,536,326,530,312,30308,0
notchParamRand-10,true,1.00,765,334,758,320,42707,0
notchParamRand-11,true,1.00,128,294,121,280,5924,0
notchParamRand-12,true,1.00,281,310,274,296,14858,0
notchParamRand-13,true,1.00,1554,312,1547,298,86315,0
notchParamRand-14,true,1.00,993,312,986,298,53920,0
notchParamRand-15,true,1.00,584,318,574,304,31302,0
notchParamRand-16,true,1.00,404,302,401,288,22618,0
notchParamRand-17,true,1.00,73,303,67,289,2751,0
notchParamRand-18,true,1.00,1728,326,1717,312,92978,0
notchParamRand-19,true,1.00,211,339,205,325,10412,0
notchParamRand-20,true,1.00,1366,325,1362,311,74870,0
notchParamRand-21,true,1.00,67,296,56,282,2350,0
notchParamRand-22,true,1.00,854,318,847,304,46021,0
notchParamRand-23,true,1.00,1016,333,1007,319,55998,0
notchParamRand-24,true,1.00,190,315,183,301,9089,0
notchParamRand-25,true,1.00,74,306,64,292,2873,0
notchParamRand-26,true,1.00,313,332,304,318,15738,0
notchParamRand-27,true,1.00,233,304,229,290,11917,0
notchParamRand-28,true,1.00,431,314,422,300,22039,0
notchParamRand-29,true,1.00,71,298,62,284,2513,0
notchParamRand-30,true,1.00,1875,354,1865,340,102289,0
notchParamRand-31,true,1.00,417,322,408,308,22033,0
notchParamRand-32,true,1.00,124,294,116,280,5788,0
notchParamRand-33,true,1.00,1700,304,1690,290,77653,0
notchParamRand-34,true,1.00,874,316,869,302,37855,0
notchParamRand-35,true,1.00,559,308,552,294,24251,0
notchParamRand-36,true,1.00,83,300,70,286,2377,0
notchParamRand-37,true,1.00,401,314,388,300,17268,0
notchParamRand-38,true,1.00,1665,323,1663,309,87821,0
notchParamRand-39,true,1.00,2176,362,2165,348,119477,0
notchParamRand-40,true,1.00,2115,328,2110,314,117792,0
notchParamRand-41,true,1.00,57,294,49,280,1940,0
notchParamRand-42,true,1.00,422,318,415,304,22959,0
notchParamRand-43,true,1.00,230,302,221,288,12390,0
notchParamRand-44,true,1.00,276,302,267,288,14820,0
notchParamRand-45,true,1.00,901,304,895,290,47675,0
notchParamRand-46,true,1.00,500,307,495,293,27743,0
notchParamRand-47,true,1.00,686,316,676,302,36951,0
notchParamRand-48,true,1.00,1356,341,1353,327,75457,0
notchParamRand-49,true,1.00,671,306,664,292,36966,0
notchParamRand-50,true,1.00,1275,327,1265,313,72044,0
notchParamRand-51,true,1.00,155,315,149,301,7497,0
notchParamRand-52,true,1.00,719,308,712,294,39587,0
notchParamRand-53,true,1.00,908,318,895,304,49944,0
notchParamRand-54,true,1.00,1855,353,1847,339,102712,0
notchParamRand-55,true,1.00,1741,322,1735,308,93793,0
notchParamRand-56,true,1.00,631,323,622,309,34274,0
notchParamRand-57,true,1.00,883,318,875,304,50519,0
notchParamRand-58,true,1.00,781,332,770,318,43679,0
notchParamRand-59,true,1.00,417,311,412,297,22657,0
notchParamRand-60,true,1.00,518,313,514,299,28814,0
notchParamRand-61,true,1.00,409,302,406,288,22695,0
notchParamRand-62,true,1.00,367,322,357,308,19203,0
notchParamRand-63,true,1.00,1477,318,1472,304,81708,0
notchParamRand-64,true,1.00,268,296,262,282,14219,0
notchParamRand-65,true,1.00,1870,334,1858,320,103322,0
notchParamRand-66,true,1.00,261,311,253,297,13063,0
notchParamRand-67,true,1.00,265,302,257,288,13347,0
notchParamRand-68,true,1.00,1443,320,1439,306,80009,0
notchParamRand-69,true,1.00,241,309,233,295,12714,0
notchParamRand-70,true,1.00,604,330,599,316,33921,0
notchParamRand-71,true,1.00,257,316,248,302,13077,0
notchParamRand-72,true,1.00,125,294,118,280,5783,0
notchParamRand-73,true,1.00,460,306,452,292,23690,0
notchParamRand-74,true,1.00,64,296,54,282,2377,0
notchParamRand-75,true,1.00,61,294,57,280,2143,0
notchParamRand-76,true,1.00,1128,342,1121,328,61948,0
notchParamRand-77,true,1.00,1962,348,1958,334,105090,0
notchParamRand-78,true,1.00,1033,314,1025,300,57532,0
notchParamRand-79,true,1.00,267,298,254,284,13721,0
notchParamRand-80,true,1.00,290,296,284,282,14403,0
notchParamRand-81,true,1.00,264,298,252,284,14159,0
notchParamRand-82,true,1.00,692,318,685,304,38940,0
notchParamRand-83,true,1.00,1217,333,1209,319,68172,0
notchParamRand-84,true,1.00,275,300,269,286,14491,0
notchParamRand-85,true,1.00,59,294,55,280,2026,0
notchParamRand-86,true,1.00,541,342,534,328,29135,0
notchParamRand-87,true,1.00,1516,312,1512,298,85106,0
notchParamRand-88,true,1.00,266,296,255,282,14264,0
notchParamRand-89,true,1.00,337,333,330,319,17997,0
notchParamRand-90,true,1.00,533,310,524,296,28040,0
notchParamRand-91,true,1.00,60,294,56,280,2064,0
notchParamRand-92,true,1.00,859,318,854,304,48371,0
notchParamRand-93,true,1.00,275,308,263,294,14646,0
notchParamRand-94,true,1.00,1699,314,1693,300,93708,0
notchParamRand-95,true,1.00,679,316,668,302,37465,0
notchParamRand-96,true,1.00,368,330,358,316,19729,0
notchParamRand-97,true,1.00,1296,339,1285,325,70275,0
notchParamRand-98,true,1.00,222,294,215,280,12026,0
notchParamRand-99,true,1.00,281,312,272,298,14398,0
notchParamRand-100,true,1.00,1367,310,1363,296,76555,0
