NDW:0.0
TTFW:1.6
DFPT:2.0
DFPAP:3.0
DFPMP:3.0
RIGHT_WINDOW_BORDER_X:155.0
level,win/fail,% travelled,run time,game ticks,planning time,total plannings,nodes evaluated,most backtracked nodes
ge-1,true,1.00,411,244,410,216,46577,0
ge-2,true,1.00,357,220,355,206,41196,0
ge-3,true,1.00,153,248,152,234,14362,0
ge-4,true,1.00,897,237,895,223,94573,0
ge-5,true,1.00,19,199,17,185,1692,0
ge-6,true,1.00,272,236,270,221,29808,0
ge-7,true,1.00,97,222,97,208,9523,0
ge-8,true,1.00,195,227,195,213,21193,0
ge-9,true,1.00,463,236,463,222,51709,0
ge-10,true,1.00,18,199,16,185,1585,0
ge-11,true,1.00,127,222,125,208,12916,0
ge-12,true,1.00,19,199,17,185,1504,0
ge-13,true,1.00,238,241,238,226,26679,0
ge-14,true,1.00,128,226,127,199,13154,0
ge-15,true,1.00,492,221,491,207,51708,0
ge-16,true,1.00,240,251,240,237,26809,0
ge-17,true,1.00,225,207,224,193,26692,0
ge-18,true,1.00,605,257,604,243,71466,0
ge-19,true,1.00,444,267,443,245,49302,0
ge-20,true,1.00,261,224,261,210,28278,0
ge-21,true,1.00,183,201,180,187,18366,0
ge-22,true,1.00,252,206,250,192,27740,0
ge-23,true,1.00,492,204,490,189,54106,0
ge-24,true,1.00,328,224,326,210,35254,0
ge-25,true,1.00,285,201,283,187,30489,0
ge-26,true,1.00,184,205,184,191,20424,0
ge-27,true,1.00,25,215,22,201,2466,0
ge-28,true,1.00,419,201,417,187,43408,0
ge-29,true,1.00,183,220,183,185,18624,0
ge-30,true,1.00,957,249,953,235,106972,0
ge-31,true,1.00,493,222,493,208,53219,0
ge-32,true,1.00,96,216,94,202,9962,0
ge-33,true,1.00,98,244,95,219,9292,0
ge-34,true,1.00,624,214,623,199,67064,0
ge-35,true,1.00,280,259,280,245,27758,0
ge-36,false,1.00,577,260,576,238,62809,0
ge-37,true,1.00,189,204,189,189,20581,0
ge-38,true,1.00,1085,236,1083,222,110446,0
ge-39,true,1.00,199,220,199,206,21565,0
ge-40,true,1.00,19,199,18,185,1603,0
ge-41,true,1.00,185,211,185,191,20645,0
ge-42,true,1.00,460,222,458,208,49551,0
ge-43,true,1.00,230,228,229,214,26340,0
ge-44,true,1.00,419,219,418,195,43649,0
ge-45,true,1.00,471,232,471,218,49448,0
ge-46,true,1.00,533,236,531,222,55297,0
ge-47,true,1.00,591,235,590,221,60709,0
ge-48,true,1.00,227,221,225,207,23889,0
ge-49,true,1.00,117,200,117,186,12876,0
ge-50,true,1.00,488,218,487,204,50154,0
ge-51,true,1.00,97,222,95,208,9886,0
ge-52,true,1.00,326,278,323,262,35007,0
ge-53,true,1.00,156,209,153,195,17262,0
ge-54,true,1.00,200,235,196,221,26296,0
ge-55,true,1.00,229,217,228,203,24073,0
ge-56,true,1.00,408,243,405,217,43759,0
ge-57,true,1.00,524,213,523,198,59065,0
ge-58,true,1.00,103,234,99,220,10304,0
ge-59,true,1.00,789,225,789,211,87079,0
ge-60,true,1.00,586,213,586,199,61331,0
ge-61,true,1.00,184,203,184,189,20810,0
ge-62,true,1.00,715,219,715,205,79207,0
ge-63,true,1.00,616,210,615,196,72776,0
ge-64,true,1.00,395,247,394,214,40866,0
ge-65,true,1.00,466,217,464,203,53049,0
ge-66,true,1.00,460,221,457,204,49398,0
ge-67,true,1.00,213,259,211,245,21733,0
ge-68,true,1.00,96,221,96,207,8971,0
ge-69,true,1.00,187,199,186,185,19577,0
ge-70,true,1.00,260,215,259,201,27341,0
ge-71,true,1.00,765,230,762,216,82458,0
ge-72,true,1.00,113,250,109,236,12351,0
ge-73,true,1.00,260,222,259,200,28423,0
ge-74,true,1.00,565,234,565,220,57723,0
ge-75,true,1.00,164,232,163,197,19715,0
ge-76,true,1.00,716,221,716,207,78908,0
ge-77,true,1.00,979,236,978,222,109141,0
ge-78,true,1.00,518,280,517,253,55360,0
ge-79,true,1.00,125,212,123,198,13922,0
ge-80,true,1.00,31,217,30,202,2716,0
ge-81,true,1.00,30,213,29,199,2793,0
ge-82,true,1.00,38,233,37,202,3888,0
ge-83,false,1.00,434,250,433,224,50085,0
ge-84,true,1.00,618,213,617,199,66236,0
ge-85,true,1.00,224,209,223,195,24693,0
ge-86,true,1.00,617,204,617,189,67101,0
ge-87,true,1.00,501,224,501,210,57803,0
ge-88,true,1.00,385,228,385,214,44199,0
ge-89,true,1.00,110,242,107,228,11332,0
ge-90,true,1.00,19,199,18,185,1663,0
ge-91,true,1.00,216,199,215,185,22650,0
ge-92,true,1.00,21,205,20,191,2052,0
ge-93,true,1.00,660,217,658,203,71681,0
ge-94,true,1.00,351,206,351,192,39703,0
ge-95,true,1.00,68,271,64,257,6442,0
ge-96,true,1.00,571,256,568,236,61236,0
ge-97,true,1.00,648,263,646,249,72703,0
ge-98,true,1.00,18,199,17,185,1551,0
ge-99,true,1.00,116,199,115,185,11106,0
ge-100,true,1.00,256,217,256,203,27201,0
