NDW:0.0
TTFW:0.6
DFPT:2.0
DFPAP:3.0
DFPMP:3.0
RIGHT_WINDOW_BORDER_X:235.0
level,win/fail,% travelled,run time,game ticks,planning time,total plannings,nodes evaluated,most backtracked nodes
notchParam-1,true,1.00,1062,318,1051,297,58760,0
notchParam-2,true,1.00,1131,304,1121,283,60053,0
notchParam-3,true,1.00,752,308,748,287,41502,0
notchParam-4,true,1.00,916,321,898,300,32414,0
notchParam-5,true,1.00,959,306,954,285,31726,0
notchParam-6,true,1.00,854,322,845,301,45022,0
notchParam-7,true,1.00,1041,317,1032,296,56401,0
notchParam-8,true,1.00,1218,306,1208,285,66939,0
notchParam-9,true,1.00,778,326,772,305,41802,0
notchParam-10,true,1.00,1255,318,1250,297,68110,0
notchParam-11,true,1.00,730,314,719,293,40572,0
notchParam-12,true,1.00,1299,334,1293,313,70129,0
notchParam-13,true,1.00,470,310,457,289,27204,0
notchParam-14,true,1.00,456,304,448,283,26728,0
notchParam-15,true,1.00,1109,304,1105,283,62101,0
notchParam-16,true,1.00,1181,314,1171,293,66228,0
notchParam-17,true,1.00,1268,334,1262,308,69678,0
notchParam-18,true,1.00,631,325,622,299,34087,0
notchParam-19,true,1.00,421,306,413,285,23872,0
notchParam-20,true,1.00,436,308,425,287,25187,0
notchParam-21,true,1.00,470,298,458,277,27179,0
notchParam-22,true,1.00,509,313,502,292,28170,0
notchParam-23,true,1.00,1490,340,1478,319,78116,0
notchParam-24,true,1.00,1163,316,1152,295,64866,0
notchParam-25,true,1.00,1250,314,1243,293,69731,0
notchParam-26,true,1.00,1289,334,1279,313,71246,0
notchParam-27,true,1.00,423,316,417,295,25121,0
notchParam-28,true,1.00,777,306,771,285,43982,0
notchParam-29,true,1.00,780,318,770,297,45383,0
notchParam-30,true,1.00,441,304,438,283,26973,0
notchParam-31,true,1.00,1160,329,1150,303,67074,0
notchParam-32,true,1.00,1124,304,1119,283,64368,0
notchParam-33,true,1.00,468,296,466,275,29219,0
notchParam-34,true,1.00,1102,316,1093,295,63201,0
notchParam-35,true,1.00,1131,316,1122,295,63327,0
notchParam-36,true,1.00,1101,300,1097,279,65447,0
notchParam-37,true,1.00,470,300,464,279,28972,0
notchParam-38,true,1.00,447,306,441,285,27365,0
notchParam-39,true,1.00,1427,335,1417,314,78753,0
notchParam-40,true,1.00,676,310,671,289,38848,0
notchParam-41,true,1.00,722,314,718,293,41491,0
notchParam-42,true,1.00,455,304,450,283,26501,0
notchParam-43,true,1.00,1343,328,1335,307,76679,0
notchParam-44,true,1.00,1397,338,1391,317,80017,0
notchParam-45,true,1.00,1171,327,1167,297,68751,0
notchParam-46,true,1.00,1315,320,1311,299,74895,0
notchParam-47,true,1.00,451,302,448,281,26696,0
notchParam-48,true,1.00,453,312,443,291,25851,0
notchParam-49,true,1.00,475,320,468,294,27945,0
notchParam-50,true,1.00,729,328,726,307,38922,0
notchParam-51,true,1.00,432,306,422,285,26407,0
notchParam-52,true,1.00,1033,310,1026,289,61070,0
notchParam-53,true,1.00,1650,357,1645,336,90373,0
notchParam-54,true,1.00,1187,329,1179,303,67435,0
notchParam-55,true,1.00,548,312,538,291,30760,0
notchParam-56,true,1.00,434,306,429,285,26089,0
notchParam-57,true,1.00,1329,320,1322,299,76674,0
notchParam-58,true,1.00,720,320,710,299,40844,0
notchParam-59,true,1.00,1311,323,1300,302,73925,0
notchParam-60,true,1.00,812,325,804,304,44184,0
notchParam-61,true,1.00,1315,320,1309,299,74368,0
notchParam-62,true,1.00,986,306,976,285,55747,0
notchParam-63,true,1.00,707,330,701,309,39214,0
notchParam-64,true,1.00,709,310,703,289,41890,0
notchParam-65,true,1.00,700,318,694,297,40298,0
notchParam-66,true,1.00,1023,331,1008,310,27803,0
notchParam-67,true,1.00,1219,308,1206,287,50606,0
notchParam-68,true,1.00,1058,314,1052,292,57707,0
notchParam-69,true,1.00,1069,302,1061,281,59758,0
notchParam-70,true,1.00,1367,308,1353,287,48786,0
notchParam-71,true,1.00,1026,331,1012,310,40105,0
notchParam-72,true,1.00,742,322,737,301,41768,0
notchParam-73,true,1.00,729,308,723,287,42156,0
notchParam-74,true,1.00,740,328,730,307,42419,0
notchParam-75,true,1.00,776,320,768,299,43542,0
notchParam-76,true,1.00,1339,328,1330,307,76015,0
notchParam-77,true,1.00,833,320,825,299,47757,0
notchParam-78,true,1.00,1357,320,1351,299,78127,0
notchParam-79,true,1.00,710,314,705,293,41021,0
notchParam-80,true,1.00,575,312,568,291,32292,0
notchParam-81,true,1.00,770,328,765,307,42667,0
notchParam-82,true,1.00,452,304,447,283,26301,0
notchParam-83,true,1.00,456,306,450,285,26788,0
notchParam-84,true,1.00,1168,315,1165,294,64579,0
notchParam-85,true,1.00,1350,348,1341,327,71888,0
notchParam-86,true,1.00,1202,308,1197,287,68625,0
notchParam-87,true,1.00,420,314,411,293,24908,0
notchParam-88,true,1.00,518,306,505,285,30320,0
notchParam-89,true,1.00,456,300,444,279,27042,0
notchParam-90,true,1.00,442,300,433,279,26748,0
notchParam-91,true,1.00,1269,312,1265,291,71803,0
notchParam-92,true,1.00,1261,308,1259,287,71312,0
notchParam-93,true,1.00,1211,320,1203,299,68423,0
notchParam-94,true,1.00,1231,322,1223,301,70156,0
notchParam-95,true,1.00,1505,335,1495,314,80605,0
notchParam-96,true,1.00,732,312,721,291,42725,0
notchParam-97,true,1.00,748,306,742,285,42595,0
notchParam-98,true,1.00,467,300,462,279,28711,0
notchParam-99,true,1.00,1199,329,1194,303,67991,0
notchParam-100,true,1.00,1019,304,1016,283,59967,0
