NDW:0.0
TTFW:2.0
DFPT:2.0
DFPAP:3.0
DFPMP:10.0
RIGHT_WINDOW_BORDER_X:75.0
level,win/fail,% travelled,run time,game ticks,planning time,total plannings,nodes evaluated,most backtracked nodes
Krys-1,false,0.38,28485,999,28479,999,1081090,0
Krys-2,false,0.79,21670,999,21662,999,822734,0
Krys-3,true,1.00,8674,707,8652,700,447734,0
Krys-4,true,1.00,1767,506,1754,494,96381,0
Krys-5,false,0.62,4736,385,4730,385,290294,0
Krys-6,true,1.00,1764,487,1756,477,105072,0
Krys-7,true,1.00,278,372,271,364,17524,0
Krys-8,false,0.81,8532,999,8509,999,478585,0
Krys-9,false,0.72,8148,505,8141,505,531619,0
Krys-10,true,1.00,2754,544,2746,534,167985,0
Krys-11,true,1.00,109,422,95,413,6565,0
Krys-12,false,0.41,295,188,287,188,16364,0
Krys-13,false,0.72,4616,441,4605,441,266935,0
Krys-14,false,0.79,22354,999,22342,999,909654,0
Krys-15,false,0.83,11039,725,11031,725,719257,0
Krys-16,false,0.69,20418,999,20404,999,833604,0
Krys-17,true,1.00,1956,514,1947,507,106290,0
Krys-18,true,1.00,1505,484,1493,474,91841,0
Krys-19,false,0.11,3058,178,3057,178,174981,0
Krys-20,false,0.72,5480,592,5472,592,282105,0
Krys-21,true,1.00,6761,563,6754,553,432370,0
Krys-22,false,0.82,15113,999,15095,999,908050,0
Krys-23,true,1.00,1199,483,1191,473,73598,0
Krys-24,false,0.83,5834,613,5824,613,350197,0
Krys-25,true,1.00,4142,561,4137,551,233139,0
Krys-26,false,0.61,26457,999,26453,999,1610199,0
Krys-27,false,0.52,280,231,273,231,14237,0
Krys-28,false,0.83,5800,603,5781,603,217547,0
Krys-29,true,1.00,907,472,891,465,48024,0
Krys-30,false,0.52,449,299,441,299,23243,0
Krys-31,true,1.00,2095,520,2083,510,134953,0
Krys-32,true,1.00,294,416,285,409,17005,0
Krys-33,true,1.00,342,398,334,388,21179,0
Krys-34,true,1.00,3750,489,3742,482,221061,0
Krys-35,false,0.67,4528,392,4522,392,244654,0
Krys-36,false,0.41,4394,279,4391,279,287818,0
Krys-37,false,0.73,8443,549,8427,549,452975,0
Krys-38,false,0.74,8258,506,8253,506,523289,0
Krys-39,false,0.21,6215,246,6215,246,359065,0
Krys-40,false,0.62,3094,349,3085,349,176255,0
Krys-41,false,0.83,8500,595,8493,595,495773,0
Krys-42,false,0.61,11293,999,11258,999,650181,0
Krys-43,false,0.82,4249,406,4245,406,266259,0
Krys-44,false,0.62,4503,474,4490,474,285125,0
Krys-45,true,1.00,609,473,598,458,32051,0
Krys-46,true,1.00,2397,550,2380,542,112937,0
Krys-47,true,1.00,3950,571,3937,561,232295,0
Krys-48,false,0.10,2851,119,2850,119,107475,0
Krys-49,true,1.00,1352,430,1335,422,47525,0
Krys-50,false,0.83,7550,618,7536,618,445033,0
Krys-51,false,0.62,8447,474,8442,474,557893,0
Krys-52,true,1.00,2391,493,2369,483,91617,0
Krys-53,true,1.00,965,470,953,457,51428,0
Krys-54,true,1.00,4744,642,4732,632,234870,0
Krys-55,true,1.00,2478,532,2464,522,136516,0
Krys-56,false,0.59,25318,999,25315,999,923099,0
Krys-57,false,0.84,4261,382,4254,382,229901,0
Krys-58,true,1.00,3003,539,2987,532,164421,0
Krys-59,false,0.89,17790,999,17779,999,647847,0
Krys-60,true,1.00,8452,694,8442,684,530983,0
Krys-61,false,0.48,25479,999,25474,999,845226,0
Krys-62,true,1.00,636,495,621,486,33372,0
Krys-63,true,1.00,4040,666,4025,658,162315,0
Krys-64,true,1.00,4689,594,4674,586,280098,0
Krys-65,true,1.00,1708,491,1695,484,87060,0
Krys-66,true,1.00,2505,580,2490,572,130174,0
Krys-67,false,0.73,1981,463,1967,463,104654,0
Krys-68,false,0.61,3441,303,3432,303,158683,0
Krys-69,false,0.48,25676,999,25670,999,896423,0
Krys-70,true,1.00,9219,749,9210,739,537977,0
Krys-71,false,0.73,10513,664,10505,664,524257,0
Krys-72,true,1.00,1196,528,1175,518,42023,0
Krys-73,true,1.00,5014,648,5007,638,233078,0
Krys-74,false,0.74,4354,414,4349,414,215877,0
Krys-75,true,1.00,253,480,243,470,14986,0
Krys-76,false,0.51,5918,370,5915,370,356571,0
Krys-77,true,1.00,3341,483,3328,473,189950,0
Krys-78,false,0.20,2695,158,2689,158,113877,0
Krys-79,true,1.00,729,454,710,446,29614,0
Krys-80,true,1.00,258,430,244,420,14156,0
Krys-81,true,1.00,2236,470,2225,460,133591,0
Krys-82,true,1.00,1936,434,1923,426,83059,0
Krys-83,true,1.00,5073,548,5053,538,191141,0
Krys-84,true,1.00,284,364,257,354,8396,0
Krys-85,false,0.61,1327,358,1304,358,48266,0
Krys-86,true,1.00,1915,445,1904,430,96052,0
Krys-87,true,1.00,302,400,294,393,17360,0
Krys-88,true,1.00,1701,477,1691,467,97356,0
Krys-89,true,1.00,2711,490,2699,481,161362,0
Krys-90,false,0.62,6160,362,6155,362,335456,0
Krys-91,true,1.00,341,421,336,412,21414,0
Krys-92,false,0.43,948,222,939,222,52773,0
Krys-93,false,0.83,5691,464,5682,464,345665,0
Krys-94,false,0.91,5468,516,5462,516,317631,0
Krys-95,true,1.00,2081,542,2067,533,109595,0
Krys-96,false,0.83,7417,538,7410,538,263639,0
Krys-97,true,1.00,2998,451,2981,443,118557,0
Krys-98,true,1.00,3322,574,3308,567,187309,0
Krys-99,true,1.00,671,485,660,475,36115,0
Krys-100,false,0.61,25516,999,25509,999,1183328,0
