NDW:0.0
TTFW:1.2
DFPT:2.0
DFPAP:3.0
DFPMP:50.0
RIGHT_WINDOW_BORDER_X:255.0
level,win/fail,% travelled,run time,game ticks,planning time,total plannings,nodes evaluated,most backtracked nodes
ore-1,true,1.00,1281,399,1278,374,151799,0
ore-2,false,0.70,2790,319,2790,319,248570,0
ore-3,true,1.00,1611,427,1606,386,174817,0
ore-4,true,1.00,1996,436,1993,413,232182,0
ore-5,true,1.00,1655,415,1653,386,197658,0
ore-6,true,1.00,1177,433,1175,400,130179,0
ore-7,true,1.00,1814,435,1813,404,205678,0
ore-8,true,1.00,2314,405,2314,368,257661,0
ore-9,true,1.00,1093,398,1091,367,125604,0
ore-10,true,1.00,1319,436,1316,401,159947,0
ore-11,true,1.00,1295,453,1292,428,148981,0
ore-12,true,1.00,2578,435,2577,411,232456,0
ore-13,true,1.00,1809,476,1806,434,205320,0
ore-14,true,1.00,1621,428,1620,405,197226,0
ore-15,true,1.00,1643,416,1642,393,197213,0
ore-16,true,1.00,1472,449,1470,418,177907,0
ore-17,true,1.00,1426,458,1424,413,173950,0
ore-18,true,1.00,1245,448,1242,411,157636,0
ore-19,true,1.00,1268,409,1264,384,151743,0
ore-20,true,1.00,1886,423,1886,391,219780,0
ore-21,true,1.00,1865,465,1861,440,229287,0
ore-22,false,0.62,1783,321,1780,321,170319,0
ore-23,true,1.00,1275,392,1271,368,151662,0
ore-24,true,1.00,1568,461,1565,426,191376,0
ore-25,true,1.00,1436,448,1432,415,177642,0
ore-26,true,1.00,1696,429,1695,400,186736,0
ore-27,true,1.00,2188,462,2183,438,250111,0
ore-28,true,1.00,1304,419,1302,390,138359,0
ore-29,true,1.00,1803,415,1800,392,201908,0
ore-30,true,1.00,1111,404,1108,371,120834,0
ore-31,true,1.00,1374,463,1372,439,160778,0
ore-32,true,1.00,1634,442,1628,407,188924,0
ore-33,true,1.00,1447,466,1446,423,170484,0
ore-34,true,1.00,1558,420,1555,395,186155,0
ore-35,true,1.00,1516,407,1513,374,183148,0
ore-36,true,1.00,1163,411,1160,379,135012,0
ore-37,false,0.34,1209,140,1209,140,109585,0
ore-38,true,1.00,1141,438,1138,398,130776,0
ore-39,true,1.00,2061,473,2059,448,254318,0
ore-40,true,1.00,1602,422,1600,396,184559,0
ore-41,true,1.00,1519,410,1515,371,180274,0
ore-42,true,1.00,1411,465,1410,430,164516,0
ore-43,true,1.00,1790,421,1788,398,205338,0
ore-44,true,1.00,1922,408,1920,374,230171,0
ore-45,true,1.00,2318,461,2310,423,259851,0
ore-46,false,0.13,773,52,773,52,66105,0
ore-47,true,1.00,1702,481,1698,452,192265,0
ore-48,true,1.00,1975,450,1973,427,228796,0
ore-49,true,1.00,1716,466,1716,420,199768,0
ore-50,true,1.00,2189,447,2188,424,248534,0
ore-51,true,1.00,1428,402,1424,367,165306,0
ore-52,true,1.00,1343,425,1341,388,156101,0
ore-53,true,1.00,1511,429,1508,402,174211,0
ore-54,false,0.72,2292,352,2291,352,219285,0
ore-55,true,1.00,1433,425,1431,391,179428,0
ore-56,true,1.00,1274,386,1271,353,152924,0
ore-57,true,1.00,1363,422,1362,380,162549,0
ore-58,true,1.00,1616,496,1612,468,196280,0
ore-59,true,1.00,1599,418,1597,395,196073,0
ore-60,true,1.00,1834,373,1833,344,209856,0
ore-61,true,1.00,1427,399,1424,368,155383,0
ore-62,true,1.00,1590,411,1588,387,192394,0
ore-63,true,1.00,1932,432,1930,394,225601,0
ore-64,true,1.00,1488,431,1487,407,174500,0
ore-65,true,1.00,2010,453,2008,419,241892,0
ore-66,true,1.00,1750,452,1748,408,211965,0
ore-67,true,1.00,1876,413,1871,390,209538,0
ore-68,true,1.00,1223,408,1221,384,144092,0
ore-69,true,1.00,2018,502,2016,476,220685,0
ore-70,false,0.95,2805,448,2802,448,300742,0
ore-71,true,1.00,1374,420,1370,396,161218,0
ore-72,true,1.00,1140,444,1136,409,141312,0
ore-73,true,1.00,1363,428,1362,392,172034,0
ore-74,true,1.00,1938,438,1932,413,199048,0
ore-75,true,1.00,1432,451,1430,427,166262,0
ore-76,true,1.00,1269,404,1269,369,153510,0
ore-77,true,1.00,1265,437,1263,409,153057,0
ore-78,true,1.00,2008,433,2004,410,250110,0
ore-79,true,1.00,1387,385,1383,362,166376,0
ore-80,true,1.00,1448,398,1443,369,168326,0
ore-81,true,1.00,2320,446,2315,421,282255,0
ore-82,true,1.00,1592,397,1591,365,192489,0
ore-83,true,1.00,1484,434,1480,411,173813,0
ore-84,true,1.00,1966,415,1961,391,198670,0
ore-85,true,1.00,1368,462,1367,430,157248,0
ore-86,true,1.00,2330,484,2328,455,285121,0
ore-87,true,1.00,1129,415,1124,387,126557,0
ore-88,true,1.00,2011,427,2010,402,240610,0
ore-89,true,1.00,1888,440,1883,417,219592,0
ore-90,true,1.00,2422,451,2418,428,300661,0
ore-91,true,1.00,1426,381,1422,354,169955,0
ore-92,true,1.00,1870,428,1866,402,218996,0
ore-93,false,0.14,1418,76,1418,76,117855,0
ore-94,true,1.00,1531,455,1529,425,181076,0
ore-95,true,1.00,1485,444,1481,405,168454,0
ore-96,true,1.00,1846,485,1844,461,224978,0
ore-97,true,1.00,2277,469,2275,438,261131,0
ore-98,true,1.00,1932,441,1929,416,230370,0
ore-99,true,1.00,1574,454,1569,422,191955,0
ore-100,true,1.00,1717,452,1713,417,208592,0
