NDW:0.0
TTFW:0.4
DFPT:2.0
DFPAP:3.0
DFPMP:5.0
RIGHT_WINDOW_BORDER_X:295.0
level,win/fail,% travelled,run time,game ticks,planning time,total plannings,nodes evaluated,most backtracked nodes
hopper-1,true,1.00,1030,299,1026,272,81849,0
hopper-2,true,1.00,1158,303,1155,276,93945,0
hopper-3,true,1.00,914,311,913,284,77936,0
hopper-4,false,0.28,927,94,927,94,70994,0
hopper-5,true,1.00,935,301,935,274,75104,0
hopper-6,true,1.00,1028,307,1026,280,80334,0
hopper-7,false,0.84,1659,257,1659,257,120387,0
hopper-8,true,1.00,732,314,731,288,60308,0
hopper-9,true,1.00,972,299,970,272,79434,0
hopper-10,true,1.00,883,301,883,272,71493,0
hopper-11,true,1.00,685,303,682,274,54195,0
hopper-12,true,1.00,1065,309,1063,282,86239,0
hopper-13,true,1.00,1092,307,1091,280,89832,0
hopper-14,true,1.00,980,299,979,272,78924,0
hopper-15,true,1.00,1175,307,1174,280,92670,0
hopper-16,false,0.55,1592,180,1592,180,114017,0
hopper-17,true,1.00,875,309,872,282,69585,0
hopper-18,true,1.00,1098,305,1095,276,86373,0
hopper-19,true,1.00,793,301,792,274,64673,0
hopper-20,true,1.00,1224,309,1221,280,95091,0
hopper-21,true,1.00,686,310,686,283,50502,0
hopper-22,false,0.33,1265,113,1264,113,89197,0
hopper-23,true,1.00,1100,303,1100,276,89806,0
hopper-24,true,1.00,582,299,581,272,46635,0
hopper-25,true,1.00,969,301,967,274,78662,0
hopper-26,true,1.00,1093,301,1092,274,86121,0
hopper-27,true,1.00,907,301,907,272,73142,0
hopper-28,true,1.00,1290,317,1287,288,106578,0
hopper-29,false,0.26,1070,91,1070,91,75084,0
hopper-30,true,1.00,937,303,936,276,74051,0
hopper-31,true,1.00,840,301,836,274,68386,0
hopper-32,true,1.00,1413,305,1412,278,114815,0
hopper-33,false,0.50,1387,168,1386,168,97095,0
hopper-34,true,1.00,1039,321,1036,294,84962,0
hopper-35,true,1.00,1439,315,1438,288,116188,0
hopper-36,true,1.00,738,301,736,274,57809,0
hopper-37,true,1.00,1031,312,1029,285,86678,0
hopper-38,true,1.00,1181,305,1179,278,98535,0
hopper-39,true,1.00,784,299,782,270,63034,0
hopper-40,true,1.00,900,299,900,272,70012,0
hopper-41,true,1.00,1512,320,1511,293,124397,0
hopper-42,true,1.00,980,305,978,278,74770,0
hopper-43,true,1.00,1155,321,1153,294,93978,0
hopper-44,true,1.00,1131,297,1129,270,91424,0
hopper-45,false,0.43,1280,139,1280,139,93615,0
hopper-46,true,1.00,979,307,978,278,78862,0
hopper-47,true,1.00,1497,307,1495,280,120914,0
hopper-48,true,1.00,1179,303,1179,276,93650,0
hopper-49,true,1.00,1236,309,1234,282,101484,0
hopper-50,true,1.00,1042,323,1042,294,83513,0
hopper-51,false,0.34,1262,118,1262,118,89076,0
hopper-52,true,1.00,729,297,728,270,61097,0
hopper-53,true,1.00,1503,319,1501,292,119616,0
hopper-54,true,1.00,616,297,613,270,48171,0
hopper-55,true,1.00,752,301,747,274,60037,0
hopper-56,true,1.00,744,299,742,272,59965,0
hopper-57,true,1.00,981,303,980,274,74306,0
hopper-58,true,1.00,1028,313,1025,286,88173,0
hopper-59,true,1.00,806,303,803,276,67131,0
hopper-60,true,1.00,950,301,949,272,76273,0
hopper-61,true,1.00,1243,315,1241,289,99264,0
hopper-62,true,1.00,1169,307,1168,279,91718,0
hopper-63,true,1.00,755,299,755,272,62146,0
hopper-64,true,1.00,952,299,950,272,73636,0
hopper-65,true,1.00,1097,301,1091,274,88574,0
hopper-66,true,1.00,679,303,678,274,54896,0
hopper-67,true,1.00,791,301,789,274,62800,0
hopper-68,true,1.00,800,309,798,282,60461,0
hopper-69,true,1.00,1173,322,1173,295,91627,0
hopper-70,true,1.00,1242,307,1239,280,100176,0
hopper-71,true,1.00,669,297,667,270,49631,0
hopper-72,true,1.00,1451,321,1449,292,114669,0
hopper-73,true,1.00,1070,301,1067,274,84158,0
hopper-74,true,1.00,737,299,734,272,56808,0
hopper-75,true,1.00,999,301,995,274,78923,0
hopper-76,true,1.00,1005,309,1004,282,81881,0
hopper-77,true,1.00,1021,315,1019,288,77220,0
hopper-78,true,1.00,1102,301,1101,272,89750,0
hopper-79,true,1.00,954,313,951,286,74719,0
hopper-80,true,1.00,800,301,800,274,62573,0
hopper-81,true,1.00,730,311,730,282,58643,0
hopper-82,false,0.47,1361,160,1359,160,102769,0
hopper-83,true,1.00,1330,309,1328,282,107521,0
hopper-84,true,1.00,1189,303,1186,276,93597,0
hopper-85,true,1.00,1064,305,1062,278,80704,0
hopper-86,true,1.00,1089,311,1087,282,89731,0
hopper-87,true,1.00,1274,313,1272,286,101772,0
hopper-88,true,1.00,774,303,772,276,64482,0
hopper-89,true,1.00,924,303,924,275,72594,0
hopper-90,true,1.00,888,299,887,272,70820,0
hopper-91,true,1.00,978,301,975,272,79220,0
hopper-92,true,1.00,1049,301,1048,272,81719,0
hopper-93,true,1.00,706,305,706,278,54731,0
hopper-94,true,1.00,1012,305,1010,278,82985,0
hopper-95,true,1.00,901,299,900,270,70046,0
hopper-96,true,1.00,1298,301,1297,274,105573,0
hopper-97,true,1.00,1255,305,1252,278,99105,0
hopper-98,true,1.00,1498,311,1498,284,116892,0
hopper-99,true,1.00,1466,311,1464,284,120051,0
hopper-100,true,1.00,1023,299,1023,272,82393,0
