NDW:0.0
TTFW:1.6
DFPT:2.0
DFPAP:3.0
DFPMP:7.0
RIGHT_WINDOW_BORDER_X:235.0
level,win/fail,% travelled,run time,game ticks,planning time,total plannings,nodes evaluated,most backtracked nodes
notch-1,true,1.00,798,283,793,261,92177,0
notch-2,true,1.00,844,281,843,260,104105,0
notch-3,true,1.00,804,257,804,236,95110,0
notch-4,true,1.00,1054,271,1051,249,122810,0
notch-5,true,1.00,625,254,622,227,73392,0
notch-6,true,1.00,692,287,691,265,83017,0
notch-7,true,1.00,437,280,437,259,55289,0
notch-8,true,1.00,553,284,550,249,66499,0
notch-9,true,1.00,1031,276,1031,255,122374,0
notch-10,true,1.00,835,271,834,250,101189,0
notch-11,true,1.00,1122,268,1120,247,131789,0
notch-12,true,1.00,629,262,629,241,70653,0
notch-13,true,1.00,622,261,621,240,76820,0
notch-14,true,1.00,943,268,942,245,106712,0
notch-15,true,1.00,725,263,724,242,83966,0
notch-16,true,1.00,1396,307,1393,274,181574,0
notch-17,true,1.00,838,291,833,267,99851,0
notch-18,true,1.00,1188,330,1185,304,146353,0
notch-19,true,1.00,941,243,938,220,112823,0
notch-20,true,1.00,800,274,798,253,97151,0
notch-21,true,1.00,772,299,772,278,93894,0
notch-22,true,1.00,578,241,577,220,65886,0
notch-23,true,1.00,937,255,936,230,109594,0
notch-24,true,1.00,618,265,617,244,74302,0
notch-25,true,1.00,887,293,886,272,105252,0
notch-26,true,1.00,828,268,826,247,94615,0
notch-27,true,1.00,1740,290,1737,268,210713,0
notch-28,true,1.00,659,272,658,248,82127,0
notch-29,true,1.00,1292,294,1291,273,148767,0
notch-30,true,1.00,861,248,860,217,96806,0
notch-31,true,1.00,650,271,649,249,75744,0
notch-32,true,1.00,716,258,715,236,83334,0
notch-33,true,1.00,805,258,804,229,94063,0
notch-34,true,1.00,756,255,756,234,92494,0
notch-35,true,1.00,595,280,594,259,69581,0
notch-36,true,1.00,1035,292,1035,271,122688,0
notch-37,true,1.00,1494,278,1493,248,180837,0
notch-38,true,1.00,933,292,932,263,107849,0
notch-39,true,1.00,656,249,652,217,77107,0
notch-40,true,1.00,924,271,923,241,114374,0
notch-41,true,1.00,924,268,924,247,110642,0
notch-42,true,1.00,855,250,852,228,100727,0
notch-43,true,1.00,671,242,670,221,79683,0
notch-44,true,1.00,917,258,916,222,109697,0
notch-45,true,1.00,776,244,774,223,92100,0
notch-46,true,1.00,665,263,664,242,78904,0
notch-47,true,1.00,1335,283,1333,261,160714,0
notch-48,true,1.00,998,259,995,237,120732,0
notch-49,true,1.00,934,282,931,254,110495,0
notch-50,true,1.00,939,302,936,277,109692,0
notch-51,true,1.00,715,253,711,231,85440,0
notch-52,true,1.00,641,268,640,246,76309,0
notch-53,true,1.00,296,268,293,234,31958,0
notch-54,true,1.00,1147,310,1144,282,140881,0
notch-55,true,1.00,1191,298,1189,276,140259,0
notch-56,true,1.00,709,281,707,260,84433,0
notch-57,true,1.00,773,284,772,262,87382,0
notch-58,true,1.00,1149,312,1148,288,141612,0
notch-59,true,1.00,1012,285,1009,264,118664,0
notch-60,true,1.00,938,304,937,283,107264,0
notch-61,true,1.00,759,250,759,229,90706,0
notch-62,true,1.00,952,282,951,261,115397,0
notch-63,true,1.00,715,292,715,271,94978,0
notch-64,true,1.00,970,281,967,259,113387,0
notch-65,true,1.00,1279,320,1277,296,159560,0
notch-66,true,1.00,1447,294,1445,270,173100,0
notch-67,true,1.00,847,253,847,232,94307,0
notch-68,true,1.00,488,254,485,233,56540,0
notch-69,true,1.00,1277,281,1275,260,155092,0
notch-70,true,1.00,1024,329,1023,298,127098,0
notch-71,true,1.00,1070,247,1069,226,127499,0
notch-72,true,1.00,657,249,656,228,78577,0
notch-73,true,1.00,688,283,687,261,84467,0
notch-74,true,1.00,538,272,537,243,65623,0
notch-75,true,1.00,1250,299,1249,269,153297,0
notch-76,true,1.00,820,267,818,246,95315,0
notch-77,true,1.00,598,251,595,230,71149,0
notch-78,true,1.00,812,268,811,247,96494,0
notch-79,true,1.00,1165,281,1164,255,136751,0
notch-80,true,1.00,443,235,443,210,51510,0
notch-81,true,1.00,1043,245,1042,224,123168,0
notch-82,true,1.00,790,276,788,255,92814,0
notch-83,true,1.00,1078,304,1077,265,127260,0
notch-84,true,1.00,619,250,619,229,70014,0
notch-85,true,1.00,575,272,574,242,68949,0
notch-86,true,1.00,680,247,679,226,80547,0
notch-87,true,1.00,753,253,753,232,88602,0
notch-88,true,1.00,1134,295,1133,273,138247,0
notch-89,true,1.00,934,294,932,272,113334,0
notch-90,true,1.00,1245,274,1242,253,149370,0
notch-91,true,1.00,1310,279,1307,258,155157,0
notch-92,true,1.00,1028,258,1027,237,123529,0
notch-93,true,1.00,649,280,647,257,75864,0
notch-94,true,1.00,1539,300,1537,275,181480,0
notch-95,true,1.00,602,261,601,239,69042,0
notch-96,true,1.00,585,268,583,246,69085,0
notch-97,true,1.00,846,288,845,266,103415,0
notch-98,true,1.00,1655,278,1654,253,195227,0
notch-99,true,1.00,959,285,958,246,121527,0
notch-100,true,1.00,672,278,671,248,82713,0
