NDW:0.0
TTFW:2.0
DFPT:2.0
DFPAP:3.0
DFPMP:1.0
RIGHT_WINDOW_BORDER_X:275.0
level,win/fail,% travelled,run time,game ticks,planning time,total plannings,nodes evaluated,most backtracked nodes
ge-1,true,1.00,588,249,581,209,32137,0
ge-2,true,1.00,605,231,599,206,33243,0
ge-3,true,1.00,299,229,294,204,15087,0
ge-4,true,1.00,1342,240,1328,215,74583,0
ge-5,true,1.00,134,199,128,174,6839,0
ge-6,true,1.00,445,234,442,209,23988,0
ge-7,true,1.00,225,225,222,199,11376,0
ge-8,true,1.00,308,219,304,194,16748,0
ge-9,true,1.00,615,224,608,198,34858,0
ge-10,true,1.00,132,199,128,174,6498,0
ge-11,true,1.00,260,212,257,187,14089,0
ge-12,true,1.00,145,199,143,174,7536,0
ge-13,true,1.00,389,237,380,209,20575,0
ge-14,true,1.00,247,227,242,188,12507,0
ge-15,true,1.00,737,217,732,192,41469,0
ge-16,true,1.00,287,301,281,276,12450,0
ge-17,true,1.00,339,223,333,190,18553,0
ge-18,true,1.00,286,254,280,224,14054,0
ge-19,true,1.00,679,279,672,254,37640,0
ge-20,true,1.00,489,220,488,195,27208,0
ge-21,true,1.00,303,201,298,176,16399,0
ge-22,true,1.00,376,208,372,177,20656,0
ge-23,true,1.00,655,205,651,180,36928,0
ge-24,true,1.00,429,240,423,204,23203,0
ge-25,true,1.00,434,201,430,176,24111,0
ge-26,true,1.00,313,205,307,180,17857,0
ge-27,true,1.00,136,213,133,188,6632,0
ge-28,true,1.00,571,205,566,180,32053,0
ge-29,true,1.00,304,221,297,174,16798,0
ge-30,true,1.00,624,246,619,202,35004,0
ge-31,true,1.00,745,247,738,220,41175,0
ge-32,true,1.00,219,221,210,196,10697,0
ge-33,true,1.00,223,223,217,186,11424,0
ge-34,true,1.00,595,212,592,181,33979,0
ge-35,true,1.00,398,242,392,217,20424,0
ge-36,false,1.00,692,248,688,216,38200,0
ge-37,true,1.00,327,199,322,174,18288,0
ge-38,true,1.00,584,219,581,194,32220,0
ge-39,true,1.00,383,222,375,196,21139,0
ge-40,true,1.00,146,199,141,174,7696,0
ge-41,true,1.00,309,210,303,180,17335,0
ge-42,true,1.00,591,220,587,195,32513,0
ge-43,true,1.00,358,236,351,192,19446,0
ge-44,true,1.00,543,215,536,190,30530,0
ge-45,true,1.00,505,220,501,195,27540,0
ge-46,true,1.00,815,267,809,242,45273,0
ge-47,true,1.00,794,232,790,207,45230,0
ge-48,true,1.00,397,231,392,206,20941,0
ge-49,true,1.00,240,199,234,174,13318,0
ge-50,true,1.00,568,212,566,187,31545,0
ge-51,true,1.00,185,225,176,199,8904,0
ge-52,true,1.00,533,256,524,230,28243,0
ge-53,true,1.00,312,211,307,186,17140,0
ge-54,true,1.00,1045,247,1041,220,60278,0
ge-55,true,1.00,420,245,415,220,22078,0
ge-56,true,1.00,483,249,471,208,25440,0
ge-57,true,1.00,577,223,573,187,32874,0
ge-58,true,1.00,253,241,245,216,11656,0
ge-59,true,1.00,902,217,896,192,51352,0
ge-60,true,1.00,605,201,599,176,33758,0
ge-61,true,1.00,339,203,335,178,18820,0
ge-62,true,1.00,635,213,629,188,36100,0
ge-63,true,1.00,871,219,868,194,48847,0
ge-64,false,1.00,304,235,298,197,14884,0
ge-65,true,1.00,699,230,691,205,39027,0
ge-66,true,1.00,620,230,615,184,35486,0
ge-67,true,1.00,326,253,318,228,15740,0
ge-68,true,1.00,241,223,230,198,11122,0
ge-69,true,1.00,250,199,240,174,13259,0
ge-70,true,1.00,397,216,389,191,21913,0
ge-71,true,1.00,879,238,873,213,48320,0
ge-72,true,1.00,258,255,251,231,11962,0
ge-73,true,1.00,495,211,490,186,27719,0
ge-74,true,1.00,809,245,802,220,43835,0
ge-75,true,1.00,305,240,300,193,16461,0
ge-76,true,1.00,716,217,709,192,40381,0
ge-77,true,1.00,904,232,898,207,50447,0
ge-78,true,1.00,668,249,660,207,36058,0
ge-79,true,1.00,239,213,234,188,12291,0
ge-80,true,1.00,171,220,162,174,8356,0
ge-81,true,1.00,166,213,160,188,7889,0
ge-82,true,1.00,171,241,167,193,7867,0
ge-83,false,1.00,239,252,233,196,11735,0
ge-84,true,1.00,691,209,687,184,39386,0
ge-85,true,1.00,373,209,365,184,20620,0
ge-86,true,1.00,748,212,742,176,42284,0
ge-87,true,1.00,584,234,580,209,32208,0
ge-88,true,1.00,575,232,571,204,31814,0
ge-89,true,1.00,270,244,264,218,12665,0
ge-90,true,1.00,142,199,135,174,7373,0
ge-91,true,1.00,344,199,337,174,19335,0
ge-92,true,1.00,134,205,126,180,6536,0
ge-93,true,1.00,663,215,656,190,37997,0
ge-94,true,1.00,480,208,478,181,26132,0
ge-95,true,1.00,181,246,171,219,7481,0
ge-96,true,1.00,680,239,671,196,36555,0
ge-97,true,1.00,465,213,457,188,25133,0
ge-98,true,1.00,145,199,139,174,7392,0
ge-99,true,1.00,252,199,247,174,13706,0
ge-100,true,1.00,156,205,152,180,7971,0
