NDW:0.0
TTFW:0.2
DFPT:2.0
DFPAP:3.0
DFPMP:3.0
RIGHT_WINDOW_BORDER_X:135.0
level,win/fail,% travelled,run time,game ticks,planning time,total plannings,nodes evaluated,most backtracked nodes
patternOccur-1,true,1.00,2278,479,2276,467,216181,0
patternOccur-2,true,1.00,2230,462,2229,449,212087,0
patternOccur-3,true,1.00,3064,494,3058,482,293258,0
patternOccur-4,true,1.00,2624,494,2623,482,264375,0
patternOccur-5,true,1.00,2326,482,2325,470,221890,0
patternOccur-6,true,1.00,3432,545,3428,533,328072,0
patternOccur-7,true,1.00,2587,504,2584,487,248252,0
patternOccur-8,true,1.00,2443,481,2440,467,234302,0
patternOccur-9,true,1.00,4128,548,4126,535,387730,0
patternOccur-10,true,1.00,1694,450,1692,438,165956,0
patternOccur-11,false,0.86,5347,512,5344,512,485940,0
patternOccur-12,true,1.00,3001,536,2996,524,292474,0
patternOccur-13,true,1.00,2216,484,2215,472,219163,0
patternOccur-14,true,1.00,3685,436,3682,415,362479,0
patternOccur-15,true,1.00,2152,449,2151,437,210414,0
patternOccur-16,false,0.92,6777,595,6776,595,624902,0
patternOccur-17,true,1.00,3359,466,3355,454,322015,0
patternOccur-18,true,1.00,2326,489,2325,470,220686,0
patternOccur-19,false,0.83,7872,566,7868,566,762494,0
patternOccur-20,true,1.00,1940,447,1939,435,192129,0
patternOccur-21,true,1.00,2429,504,2423,492,236886,0
patternOccur-22,false,0.84,5538,512,5537,512,514814,0
patternOccur-23,true,1.00,3832,564,3826,552,383526,0
patternOccur-24,true,1.00,2341,502,2338,489,221642,0
patternOccur-25,true,1.00,3432,510,3429,498,324704,0
patternOccur-26,true,1.00,1025,375,1023,363,102262,0
patternOccur-27,false,0.94,4089,487,4089,487,390863,0
patternOccur-28,true,1.00,2316,481,2314,469,224854,0
patternOccur-29,true,1.00,1636,398,1633,385,159057,0
patternOccur-30,true,1.00,3052,520,3049,503,284878,0
patternOccur-31,false,0.96,10053,658,10049,658,951497,0
patternOccur-32,false,0.91,20062,999,20060,999,1729887,0
patternOccur-33,true,1.00,1920,447,1920,430,177917,0
patternOccur-34,true,1.00,2345,465,2343,453,229913,0
patternOccur-35,true,1.00,1608,421,1607,409,157944,0
patternOccur-36,true,1.00,4915,558,4910,541,471332,0
patternOccur-37,true,1.00,8599,652,8592,638,787791,0
patternOccur-38,true,1.00,2130,443,2125,431,207641,0
patternOccur-39,false,0.79,5095,450,5093,450,466695,0
patternOccur-40,true,1.00,3183,507,3178,495,307726,0
patternOccur-41,true,1.00,3506,540,3500,519,344165,0
patternOccur-42,false,0.88,5279,491,5277,491,487954,0
patternOccur-43,true,1.00,2715,528,2712,515,255004,0
patternOccur-44,true,1.00,2188,440,2186,428,210423,0
patternOccur-45,true,1.00,4386,471,4384,455,411307,0
patternOccur-46,true,1.00,1957,486,1955,474,185948,0
patternOccur-47,false,0.91,3741,464,3737,464,361225,0
patternOccur-48,true,1.00,3168,477,3165,465,297347,0
patternOccur-49,true,1.00,2518,483,2515,471,241943,0
patternOccur-50,true,1.00,2277,435,2272,423,217059,0
patternOccur-51,true,1.00,3554,541,3553,528,344202,0
patternOccur-52,true,1.00,2820,506,2814,494,270022,0
patternOccur-53,true,1.00,2074,429,2070,417,204330,0
patternOccur-54,true,1.00,3943,490,3941,477,386649,0
patternOccur-55,true,1.00,2878,514,2875,502,278587,0
patternOccur-56,true,1.00,2356,485,2352,473,228325,0
patternOccur-57,true,1.00,2686,481,2682,469,257297,0
patternOccur-58,false,0.80,6423,572,6421,572,596048,0
patternOccur-59,true,1.00,2782,479,2779,467,272236,0
patternOccur-60,true,1.00,5449,555,5444,535,511697,0
patternOccur-61,true,1.00,2413,483,2409,471,236145,0
patternOccur-62,true,1.00,2482,433,2481,421,240141,0
patternOccur-63,true,1.00,1808,426,1804,414,178361,0
patternOccur-64,true,1.00,3035,495,3034,482,293307,0
patternOccur-65,true,1.00,2395,508,2394,496,223545,0
patternOccur-66,true,1.00,2447,502,2444,490,241679,0
patternOccur-67,false,0.88,4183,455,4180,455,386932,0
patternOccur-68,true,1.00,2351,490,2349,473,223965,0
patternOccur-69,false,0.85,3769,428,3765,428,349497,0
patternOccur-70,false,0.86,4975,477,4972,477,497459,0
patternOccur-71,true,1.00,3002,497,2999,485,298654,0
patternOccur-72,false,0.86,5171,518,5166,518,479029,0
patternOccur-73,false,0.90,19653,999,19649,999,1798897,0
patternOccur-74,false,0.96,6760,591,6757,591,622511,0
patternOccur-75,true,1.00,3921,537,3917,488,364765,0
patternOccur-76,true,1.00,2011,434,2008,422,197851,0
patternOccur-77,true,1.00,1661,451,1658,439,160855,0
patternOccur-78,true,1.00,1810,466,1804,452,173277,0
patternOccur-79,true,1.00,2679,511,2677,499,261655,0
patternOccur-80,true,1.00,6919,634,6916,621,637643,0
patternOccur-81,true,1.00,5161,532,5155,507,494727,0
patternOccur-82,false,0.95,4716,541,4711,541,415004,0
patternOccur-83,true,1.00,1432,402,1426,390,143001,0
patternOccur-84,true,1.00,1796,437,1792,425,176558,0
patternOccur-85,true,1.00,5507,521,5502,503,480827,0
patternOccur-86,false,0.91,7727,595,7725,595,702223,0
patternOccur-87,true,1.00,1549,427,1545,415,153282,0
patternOccur-88,true,1.00,3589,542,3584,530,350026,0
patternOccur-89,true,1.00,3511,518,3507,506,335078,0
patternOccur-90,true,1.00,1972,452,1972,439,197285,0
patternOccur-91,true,1.00,1731,426,1726,409,172618,0
patternOccur-92,true,1.00,1580,420,1580,408,153093,0
patternOccur-93,true,1.00,2153,449,2151,437,205669,0
patternOccur-94,false,0.81,3911,466,3909,466,367395,0
patternOccur-95,true,1.00,2146,501,2136,488,207892,0
patternOccur-96,false,0.86,5020,485,5015,485,424174,0
patternOccur-97,true,1.00,2965,487,2963,475,295108,0
patternOccur-98,false,0.90,6481,577,6479,577,589574,0
patternOccur-99,true,1.00,1072,412,1071,400,104627,0
patternOccur-100,true,1.00,3175,528,3174,516,295309,0
