NDW:0.0
TTFW:0.6
DFPT:2.0
DFPAP:3.0
DFPMP:0.0
RIGHT_WINDOW_BORDER_X:95.0
level,win/fail,% travelled,run time,game ticks,planning time,total plannings,nodes evaluated,most backtracked nodes
hopper-1,true,1.00,4321,548,4317,534,367094,0
hopper-2,true,1.00,2636,506,2633,497,215552,0
hopper-3,true,1.00,4680,606,4676,596,406687,0
hopper-4,true,1.00,2482,500,2476,490,218549,0
hopper-5,true,1.00,3418,528,3413,518,279814,0
hopper-6,true,1.00,2478,474,2476,464,203205,0
hopper-7,true,1.00,2571,487,2567,479,202136,0
hopper-8,true,1.00,1479,472,1477,463,122298,0
hopper-9,true,1.00,5243,582,5238,572,454230,0
hopper-10,false,0.68,2551,358,2548,358,217622,0
hopper-11,true,1.00,2718,500,2712,490,232997,0
hopper-12,true,1.00,1970,488,1956,478,166559,0
hopper-13,true,1.00,4289,565,4286,555,384107,0
hopper-14,true,1.00,3077,495,3074,485,252519,0
hopper-15,true,1.00,4221,519,4220,509,340430,0
hopper-16,true,1.00,5222,595,5221,585,456121,0
hopper-17,true,1.00,2561,465,2558,451,207232,0
hopper-18,true,1.00,1944,448,1941,438,157766,0
hopper-19,true,1.00,2124,468,2124,459,195689,0
hopper-20,true,1.00,6022,607,6018,597,495605,0
hopper-21,true,1.00,1555,462,1551,453,125767,0
hopper-22,true,1.00,2595,515,2593,505,224557,0
hopper-23,true,1.00,3608,508,3607,499,291818,0
hopper-24,true,1.00,2431,497,2430,487,220448,0
hopper-25,true,1.00,4631,595,4626,585,400650,0
hopper-26,true,1.00,6306,588,6302,578,527506,0
hopper-27,true,1.00,3592,506,3589,496,310155,0
hopper-28,true,1.00,5277,654,5273,644,487716,0
hopper-29,true,1.00,5376,614,5373,604,493650,0
hopper-30,true,1.00,2468,477,2464,467,203345,0
hopper-31,true,1.00,2431,509,2430,499,215359,0
hopper-32,true,1.00,7008,618,7004,609,593525,0
hopper-33,false,0.48,26076,999,26072,999,1886520,0
hopper-34,true,1.00,2276,528,2275,518,192210,0
hopper-35,true,1.00,6172,607,6169,597,554185,0
hopper-36,true,1.00,2467,461,2464,451,206853,0
hopper-37,true,1.00,4189,590,4185,580,370913,0
hopper-38,true,1.00,5719,598,5716,588,520792,0
hopper-39,true,1.00,3358,531,3356,521,314076,0
hopper-40,true,1.00,3798,521,3797,512,294114,0
hopper-41,true,1.00,5576,599,5571,589,466021,0
hopper-42,true,1.00,2617,502,2613,492,211434,0
hopper-43,false,0.44,4132,300,4129,300,309576,0
hopper-44,true,1.00,5734,590,5729,580,468416,0
hopper-45,false,0.42,2607,248,2605,248,197821,0
hopper-46,false,0.66,5973,471,5970,471,491241,0
hopper-47,true,1.00,4580,523,4578,514,381519,0
hopper-48,true,1.00,4799,560,4798,546,391035,0
hopper-49,true,1.00,9055,741,9050,729,769086,0
hopper-50,true,1.00,2661,509,2657,500,222450,0
hopper-51,true,1.00,3613,557,3609,547,313193,0
hopper-52,true,1.00,3015,518,3013,508,264348,0
hopper-53,true,1.00,3821,547,3820,537,331451,0
hopper-54,true,1.00,2248,475,2243,465,184020,0
hopper-55,true,1.00,3984,551,3980,540,347704,0
hopper-56,true,1.00,3384,524,3379,515,302644,0
hopper-57,true,1.00,2079,459,2077,450,164944,0
hopper-58,true,1.00,6764,658,6758,648,601011,0
hopper-59,true,1.00,4169,567,4169,556,358907,0
hopper-60,true,1.00,6233,592,6228,582,587947,0
hopper-61,true,1.00,4400,579,4397,569,361490,0
hopper-62,true,1.00,4486,525,4485,516,374908,0
hopper-63,true,1.00,2350,509,2348,499,201512,0
hopper-64,true,1.00,7864,657,7856,647,650658,0
hopper-65,true,1.00,4136,573,4131,563,347539,0
hopper-66,true,1.00,2194,502,2189,488,188976,0
hopper-67,true,1.00,2580,494,2574,484,224541,0
hopper-68,true,1.00,2012,489,2010,479,163875,0
hopper-69,true,1.00,2980,526,2980,518,245329,0
hopper-70,true,1.00,3512,526,3507,516,292453,0
hopper-71,true,1.00,1082,434,1074,424,88157,0
hopper-72,true,1.00,5276,580,5271,570,436301,0
hopper-73,true,1.00,3339,507,3338,497,276933,0
hopper-74,true,1.00,1612,456,1610,446,128754,0
hopper-75,true,1.00,5008,577,5004,564,405289,0
hopper-76,true,1.00,2491,517,2488,507,204494,0
hopper-77,true,1.00,2062,464,2058,454,163781,0
hopper-78,true,1.00,8157,663,8151,653,728449,0
hopper-79,true,1.00,1627,471,1621,461,134718,0
hopper-80,true,1.00,3247,526,3246,516,259968,0
hopper-81,true,1.00,3681,564,3676,550,310448,0
hopper-82,false,0.46,4315,308,4313,308,329155,0
hopper-83,true,1.00,2676,492,2674,482,224168,0
hopper-84,true,1.00,5321,607,5318,598,450321,0
hopper-85,true,1.00,3709,540,3702,530,301339,0
hopper-86,true,1.00,6730,655,6729,646,553024,0
hopper-87,true,1.00,4650,563,4650,553,391684,0
hopper-88,true,1.00,4748,599,4746,588,420161,0
hopper-89,true,1.00,2837,526,2832,516,236195,0
hopper-90,true,1.00,3423,505,3422,496,292901,0
hopper-91,true,1.00,6688,669,6685,659,570981,0
hopper-92,true,1.00,2675,491,2673,481,212646,0
hopper-93,true,1.00,1572,436,1567,426,136072,0
hopper-94,true,1.00,3739,553,3735,544,321689,0
hopper-95,true,1.00,4762,560,4757,546,405752,0
hopper-96,true,1.00,3407,540,3406,530,286560,0
hopper-97,true,1.00,4967,572,4961,563,399312,0
hopper-98,true,1.00,5601,577,5597,565,449398,0
hopper-99,true,1.00,5643,595,5638,585,494778,0
hopper-100,true,1.00,4155,527,4151,515,339786,0
