NDW:0.0
TTFW:2.0
DFPT:2.0
DFPAP:3.0
DFPMP:1.0
RIGHT_WINDOW_BORDER_X:195.0
level,win/fail,% travelled,run time,game ticks,planning time,total plannings,nodes evaluated,most backtracked nodes
patternCount-1,false,0.88,4518,469,4511,469,242490,0
patternCount-2,true,1.00,1105,477,1093,460,64727,0
patternCount-3,true,1.00,3852,487,3834,470,182460,0
patternCount-4,true,1.00,1700,463,1688,443,71977,0
patternCount-5,true,1.00,1268,472,1251,451,73648,0
patternCount-6,true,1.00,801,419,785,401,41967,0
patternCount-7,true,1.00,1402,436,1396,419,82598,0
patternCount-8,true,1.00,3169,449,3161,424,188002,0
patternCount-9,true,1.00,1151,459,1141,441,68221,0
patternCount-10,true,1.00,645,409,631,384,37861,0
patternCount-11,true,1.00,4645,551,4627,527,178919,0
patternCount-12,true,1.00,855,433,848,410,49059,0
patternCount-13,true,1.00,986,418,968,400,36625,0
patternCount-14,true,1.00,1267,378,1258,356,45646,0
patternCount-15,true,1.00,1811,500,1788,483,98491,0
patternCount-16,true,1.00,1375,421,1355,404,39370,0
patternCount-17,true,1.00,1802,551,1772,534,54975,0
patternCount-18,true,1.00,1610,459,1598,430,77666,0
patternCount-19,true,1.00,826,433,821,416,46797,0
patternCount-20,true,1.00,1243,474,1229,452,73668,0
patternCount-21,true,1.00,1056,445,1045,428,61887,0
patternCount-22,true,1.00,3374,521,3364,495,200763,0
patternCount-23,false,0.92,6815,544,6805,544,361581,0
patternCount-24,true,1.00,5329,510,5323,487,312902,0
patternCount-25,true,1.00,1218,475,1209,447,72996,0
patternCount-26,true,1.00,780,452,768,435,44298,0
patternCount-27,true,1.00,1027,397,1021,379,61031,0
patternCount-28,true,1.00,1246,463,1230,426,73662,0
patternCount-29,true,1.00,1680,446,1668,429,98778,0
patternCount-30,true,1.00,1081,503,1069,486,60393,0
patternCount-31,true,1.00,1516,455,1511,438,90405,0
patternCount-32,true,1.00,1932,510,1913,492,115044,0
patternCount-33,true,1.00,3880,530,3868,507,227449,0
patternCount-34,true,1.00,2346,534,2331,502,140160,0
patternCount-35,true,1.00,1537,480,1530,463,91800,0
patternCount-36,true,1.00,3424,579,3409,521,201542,0
patternCount-37,true,1.00,854,389,843,372,50082,0
patternCount-38,true,1.00,2927,487,2913,469,173023,0
patternCount-39,true,1.00,898,455,888,421,52711,0
patternCount-40,true,1.00,4920,513,4911,488,287262,0
patternCount-41,true,1.00,2369,505,2354,488,135595,0
patternCount-42,true,1.00,1224,483,1215,458,72396,0
patternCount-43,true,1.00,680,468,670,451,39919,0
patternCount-44,true,1.00,1055,447,1048,429,60846,0
patternCount-45,true,1.00,1385,477,1369,449,74459,0
patternCount-46,true,1.00,2053,447,2042,430,124665,0
patternCount-47,true,1.00,1987,504,1976,487,117351,0
patternCount-48,true,1.00,938,473,928,456,55188,0
patternCount-49,true,1.00,1340,443,1331,423,79422,0
patternCount-50,true,1.00,5291,573,5278,542,317175,0
patternCount-51,true,1.00,1051,413,1042,395,60859,0
patternCount-52,true,1.00,1047,463,1040,446,60839,0
patternCount-53,true,1.00,5270,534,5253,512,301027,0
patternCount-54,true,1.00,1400,519,1391,501,84261,0
patternCount-55,true,1.00,6822,591,6805,544,370927,0
patternCount-56,true,1.00,1346,458,1341,441,79104,0
patternCount-57,true,1.00,906,474,893,454,51652,0
patternCount-58,false,0.69,3492,470,3480,470,187930,0
patternCount-59,true,1.00,1361,465,1349,448,81816,0
patternCount-60,true,1.00,1407,472,1394,454,84064,0
patternCount-61,true,1.00,1171,418,1162,388,68444,0
patternCount-62,true,1.00,1168,485,1158,459,69297,0
patternCount-63,true,1.00,911,481,895,464,54033,0
patternCount-64,true,1.00,1224,443,1215,426,74466,0
patternCount-65,true,1.00,1218,455,1208,435,73202,0
patternCount-66,true,1.00,1488,472,1475,455,90446,0
patternCount-67,true,1.00,1652,471,1646,449,98873,0
patternCount-68,true,1.00,966,430,958,413,55387,0
patternCount-69,true,1.00,1485,489,1478,471,88349,0
patternCount-70,true,1.00,753,421,740,404,43267,0
patternCount-71,true,1.00,1486,502,1472,484,88964,0
patternCount-72,true,1.00,4961,476,4952,458,282372,0
patternCount-73,true,1.00,2014,523,2003,505,119900,0
patternCount-74,false,0.82,3994,383,3985,383,230779,0
patternCount-75,true,1.00,1300,467,1291,449,74790,0
patternCount-76,true,1.00,1165,475,1146,458,69469,0
patternCount-77,true,1.00,1558,419,1548,389,88897,0
patternCount-78,true,1.00,1507,506,1494,489,89322,0
patternCount-79,true,1.00,4254,543,4250,524,249582,0
patternCount-80,true,1.00,3694,559,3685,534,219600,0
patternCount-81,true,1.00,1242,458,1231,441,71838,0
patternCount-82,true,1.00,1582,478,1572,461,92919,0
patternCount-83,true,1.00,1002,445,993,428,58126,0
patternCount-84,true,1.00,949,449,938,432,56462,0
patternCount-85,true,1.00,1323,467,1314,450,79724,0
patternCount-86,true,1.00,1185,449,1173,432,70745,0
patternCount-87,true,1.00,1457,488,1450,462,87770,0
patternCount-88,true,1.00,1555,435,1545,406,95049,0
patternCount-89,true,1.00,1472,452,1462,434,88657,0
patternCount-90,true,1.00,665,423,658,406,37956,0
patternCount-91,true,1.00,1436,469,1426,451,83350,0
patternCount-92,true,1.00,1025,470,1011,453,59686,0
patternCount-93,true,1.00,5279,505,5269,485,309809,0
patternCount-94,true,1.00,1541,477,1534,458,92538,0
patternCount-95,true,1.00,1647,466,1631,449,98636,0
patternCount-96,true,1.00,1213,454,1199,436,72545,0
patternCount-97,false,0.82,2976,395,2969,395,176297,0
patternCount-98,true,1.00,1351,523,1341,505,80504,0
patternCount-99,true,1.00,1133,491,1120,474,67371,0
patternCount-100,true,1.00,681,394,666,377,38733,0
