NDW:0.0
TTFW:1.0
DFPT:2.0
DFPAP:3.0
DFPMP:3.0
RIGHT_WINDOW_BORDER_X:176.0
level,win/fail,% travelled,run time,game ticks,planning time,total plannings,nodes evaluated,most backtracked nodes
notchParamRand-1,true,1.00,1016,318,1010,302,47070,0
notchParamRand-2,true,1.00,213,308,202,292,8860,0
notchParamRand-3,true,1.00,1092,328,1083,312,53514,0
notchParamRand-4,true,1.00,1550,342,1542,326,74531,0
notchParamRand-5,true,1.00,352,306,344,290,14948,0
notchParamRand-6,true,1.00,565,314,545,298,18200,0
notchParamRand-7,true,1.00,369,294,355,278,8443,0
notchParamRand-8,true,1.00,667,302,654,286,16489,0
notchParamRand-9,true,1.00,823,333,810,317,24031,0
notchParamRand-10,true,1.00,714,302,701,286,31636,0
notchParamRand-11,true,1.00,170,294,153,278,6860,0
notchParamRand-12,true,1.00,409,308,395,292,18920,0
notchParamRand-13,true,1.00,1919,332,1914,316,92660,0
notchParamRand-14,true,1.00,1119,318,1110,302,54005,0
notchParamRand-15,true,1.00,722,314,710,298,34673,0
notchParamRand-16,true,1.00,458,300,447,284,22373,0
notchParamRand-17,true,1.00,103,294,98,278,3802,0
notchParamRand-18,true,1.00,2100,328,2095,312,96500,0
notchParamRand-19,true,1.00,247,324,232,308,10426,0
notchParamRand-20,true,1.00,1452,331,1443,315,69031,0
notchParamRand-21,true,1.00,111,296,102,280,4004,0
notchParamRand-22,true,1.00,937,314,930,298,44521,0
notchParamRand-23,true,1.00,1002,329,990,313,48392,0
notchParamRand-24,true,1.00,258,328,253,312,11566,0
notchParamRand-25,true,1.00,127,312,115,296,5080,0
notchParamRand-26,true,1.00,494,350,485,334,22716,0
notchParamRand-27,true,1.00,273,300,262,284,12339,0
notchParamRand-28,true,1.00,512,312,505,296,23450,0
notchParamRand-29,true,1.00,107,300,96,284,4080,0
notchParamRand-30,true,1.00,1923,328,1919,312,92762,0
notchParamRand-31,true,1.00,517,321,503,305,23209,0
notchParamRand-32,true,1.00,193,308,184,292,8104,0
notchParamRand-33,true,1.00,1748,314,1737,298,81823,0
notchParamRand-34,true,1.00,963,320,956,304,44490,0
notchParamRand-35,true,1.00,627,312,616,296,29646,0
notchParamRand-36,true,1.00,114,303,102,283,3964,0
notchParamRand-37,true,1.00,631,310,611,294,16010,0
notchParamRand-38,true,1.00,1808,313,1794,297,48805,0
notchParamRand-39,true,1.00,1919,359,1908,343,86457,0
notchParamRand-40,true,1.00,2165,330,2158,314,111581,0
notchParamRand-41,true,1.00,100,294,91,278,3902,0
notchParamRand-42,true,1.00,549,318,536,302,28064,0
notchParamRand-43,true,1.00,273,300,265,284,13693,0
notchParamRand-44,true,1.00,360,304,351,288,17741,0
notchParamRand-45,true,1.00,1009,318,1002,302,50223,0
notchParamRand-46,true,1.00,661,327,652,311,29857,0
notchParamRand-47,true,1.00,905,316,889,300,23727,0
notchParamRand-48,true,1.00,1445,312,1431,296,48190,0
notchParamRand-49,true,1.00,820,308,811,292,31420,0
notchParamRand-50,true,1.00,1426,344,1415,328,71927,0
notchParamRand-51,true,1.00,298,312,292,296,13951,0
notchParamRand-52,true,1.00,831,314,826,298,42207,0
notchParamRand-53,true,1.00,1053,330,1046,314,53550,0
notchParamRand-54,true,1.00,2034,351,2027,335,105339,0
notchParamRand-55,true,1.00,1764,324,1760,308,88575,0
notchParamRand-56,true,1.00,652,313,645,297,32698,0
notchParamRand-57,true,1.00,1072,318,1063,302,54628,0
notchParamRand-58,true,1.00,817,353,813,337,40929,0
notchParamRand-59,true,1.00,526,313,518,297,25780,0
notchParamRand-60,true,1.00,684,314,677,298,33823,0
notchParamRand-61,true,1.00,477,306,464,290,23271,0
notchParamRand-62,true,1.00,527,326,519,310,25571,0
notchParamRand-63,true,1.00,1553,328,1544,312,73879,0
notchParamRand-64,true,1.00,432,296,411,280,10666,0
notchParamRand-65,true,1.00,2007,338,1993,322,76019,0
notchParamRand-66,true,1.00,364,318,351,302,16878,0
notchParamRand-67,true,1.00,326,300,317,284,13935,0
notchParamRand-68,true,1.00,1565,337,1556,321,79517,0
notchParamRand-69,true,1.00,307,318,293,302,14933,0
notchParamRand-70,true,1.00,730,334,724,318,35974,0
notchParamRand-71,true,1.00,406,314,395,298,19911,0
notchParamRand-72,true,1.00,163,294,150,278,7049,0
notchParamRand-73,true,1.00,547,306,537,290,25561,0
notchParamRand-74,true,1.00,108,296,94,280,4183,0
notchParamRand-75,true,1.00,96,294,88,278,3556,0
notchParamRand-76,true,1.00,1184,333,1171,317,58466,0
notchParamRand-77,true,1.00,1669,331,1659,315,83167,0
notchParamRand-78,true,1.00,1161,318,1155,302,58256,0
notchParamRand-79,true,1.00,362,314,348,298,17399,0
notchParamRand-80,true,1.00,312,304,303,288,14733,0
notchParamRand-81,true,1.00,367,298,357,282,17896,0
notchParamRand-82,true,1.00,931,340,926,324,47176,0
notchParamRand-83,true,1.00,1388,338,1379,322,69598,0
notchParamRand-84,true,1.00,366,302,354,286,17856,0
notchParamRand-85,true,1.00,91,294,85,278,3669,0
notchParamRand-86,true,1.00,629,334,615,318,30700,0
notchParamRand-87,true,1.00,1727,338,1721,322,87689,0
notchParamRand-88,true,1.00,356,302,348,286,17621,0
notchParamRand-89,true,1.00,420,323,411,307,20108,0
notchParamRand-90,true,1.00,1015,328,1008,312,49821,0
notchParamRand-91,true,1.00,98,299,91,278,3661,0
notchParamRand-92,true,1.00,912,328,899,312,44894,0
notchParamRand-93,true,1.00,356,316,349,292,16509,0
notchParamRand-94,true,1.00,1749,314,1739,298,84546,0
notchParamRand-95,true,1.00,907,324,897,308,44590,0
notchParamRand-96,true,1.00,544,322,534,306,25670,0
notchParamRand-97,true,1.00,1506,374,1499,358,72374,0
notchParamRand-98,true,1.00,346,304,335,288,16009,0
notchParamRand-99,true,1.00,358,310,348,294,16614,0
notchParamRand-100,true,1.00,1645,318,1639,302,82727,0
