NDW:0.0
TTFW:1.2
DFPT:2.0
DFPAP:3.0
DFPMP:10.0
RIGHT_WINDOW_BORDER_X:155.0
level,win/fail,% travelled,run time,game ticks,planning time,total plannings,nodes evaluated,most backtracked nodes
patternCount-1,false,0.90,8429,637,8427,637,933598,0
patternCount-2,true,1.00,1076,464,1073,450,131857,0
patternCount-3,false,0.92,4069,510,4068,510,381742,0
patternCount-4,true,1.00,1180,449,1179,435,138606,0
patternCount-5,true,1.00,959,477,958,462,108712,0
patternCount-6,true,1.00,504,410,504,396,60203,0
patternCount-7,true,1.00,1168,430,1167,416,134071,0
patternCount-8,true,1.00,4135,483,4131,457,451631,0
patternCount-9,true,1.00,971,449,967,435,112523,0
patternCount-10,true,1.00,423,403,422,390,52555,0
patternCount-11,false,0.87,7131,588,7128,588,785702,0
patternCount-12,true,1.00,451,427,447,413,55348,0
patternCount-13,true,1.00,564,478,561,464,68669,0
patternCount-14,true,1.00,1322,411,1320,394,144719,0
patternCount-15,true,1.00,1673,449,1670,435,203960,0
patternCount-16,true,1.00,606,411,605,397,71111,0
patternCount-17,true,1.00,1002,438,998,424,112717,0
patternCount-18,true,1.00,1262,398,1259,384,145912,0
patternCount-19,true,1.00,771,412,769,398,83023,0
patternCount-20,true,1.00,2432,459,2428,443,289267,0
patternCount-21,true,1.00,867,471,864,457,103236,0
patternCount-22,true,1.00,4890,522,4888,501,536146,0
patternCount-23,false,0.84,8180,637,8177,637,821338,0
patternCount-24,true,1.00,7849,627,7848,602,879734,0
patternCount-25,true,1.00,865,467,864,451,101919,0
patternCount-26,true,1.00,403,453,402,439,51606,0
patternCount-27,true,1.00,759,424,757,410,91239,0
patternCount-28,true,1.00,1030,478,1027,453,115963,0
patternCount-29,true,1.00,699,383,699,369,77749,0
patternCount-30,true,1.00,890,466,888,452,108983,0
patternCount-31,true,1.00,1535,499,1532,485,176760,0
patternCount-32,true,1.00,1331,456,1328,442,141555,0
patternCount-33,true,1.00,4935,588,4931,573,516317,0
patternCount-34,true,1.00,2452,548,2450,526,268666,0
patternCount-35,true,1.00,892,449,888,435,105596,0
patternCount-36,true,1.00,2856,589,2848,561,304647,0
patternCount-37,true,1.00,1143,412,1142,398,127405,0
patternCount-38,true,1.00,3353,534,3348,520,354741,0
patternCount-39,true,1.00,890,447,887,433,96303,0
patternCount-40,true,1.00,6733,544,6732,529,675613,0
patternCount-41,true,1.00,1976,462,1971,448,228383,0
patternCount-42,true,1.00,608,445,604,431,73048,0
patternCount-43,true,1.00,667,508,664,494,82382,0
patternCount-44,true,1.00,702,415,701,401,67004,0
patternCount-45,true,1.00,1228,532,1226,513,132768,0
patternCount-46,true,1.00,1507,440,1505,426,159936,0
patternCount-47,true,1.00,1838,504,1833,490,202507,0
patternCount-48,true,1.00,935,419,933,405,109510,0
patternCount-49,true,1.00,1058,436,1054,422,115834,0
patternCount-50,true,1.00,6227,594,6223,557,695691,0
patternCount-51,true,1.00,698,419,697,405,80985,0
patternCount-52,true,1.00,756,452,756,438,89390,0
patternCount-53,false,0.80,2825,387,2824,387,294116,0
patternCount-54,true,1.00,2122,521,2120,507,251756,0
patternCount-55,false,0.87,10639,631,10635,631,1076374,0
patternCount-56,true,1.00,1355,436,1352,422,157155,0
patternCount-57,true,1.00,521,424,518,410,59864,0
patternCount-58,true,1.00,733,468,730,454,93080,0
patternCount-59,true,1.00,1069,441,1064,427,123212,0
patternCount-60,true,1.00,1416,462,1412,448,152220,0
patternCount-61,true,1.00,1238,496,1234,479,135552,0
patternCount-62,true,1.00,903,422,901,404,103127,0
patternCount-63,true,1.00,498,398,496,384,63867,0
patternCount-64,true,1.00,769,419,768,405,90310,0
patternCount-65,true,1.00,505,386,502,371,59833,0
patternCount-66,true,1.00,1435,479,1429,465,169907,0
patternCount-67,true,1.00,1373,400,1371,386,159879,0
patternCount-68,true,1.00,862,439,860,425,99610,0
patternCount-69,true,1.00,819,463,817,449,102465,0
patternCount-70,true,1.00,582,437,578,423,71460,0
patternCount-71,true,1.00,1028,492,1026,466,120450,0
patternCount-72,true,1.00,5960,554,5956,535,636766,0
patternCount-73,true,1.00,1651,566,1649,552,189265,0
patternCount-74,false,0.82,7580,553,7578,553,797930,0
patternCount-75,true,1.00,1057,448,1053,433,120638,0
patternCount-76,true,1.00,1014,432,1012,418,123534,0
patternCount-77,true,1.00,1093,429,1091,415,123401,0
patternCount-78,true,1.00,2453,549,2451,535,311806,0
patternCount-79,true,1.00,6552,597,6547,582,713727,0
patternCount-80,true,1.00,2541,481,2535,461,279973,0
patternCount-81,true,1.00,1312,465,1308,451,143477,0
patternCount-82,true,1.00,2092,451,2089,437,241022,0
patternCount-83,true,1.00,874,473,870,459,101055,0
patternCount-84,true,1.00,511,437,511,423,62399,0
patternCount-85,true,1.00,997,426,994,412,115097,0
patternCount-86,true,1.00,1160,452,1157,438,135471,0
patternCount-87,true,1.00,913,486,911,473,109279,0
patternCount-88,true,1.00,1417,444,1414,425,164983,0
patternCount-89,true,1.00,827,436,824,422,96409,0
patternCount-90,true,1.00,601,446,597,432,70271,0
patternCount-91,true,1.00,1034,468,1029,454,116440,0
patternCount-92,true,1.00,1097,464,1096,450,122209,0
patternCount-93,false,0.87,5955,514,5952,514,649942,0
patternCount-94,true,1.00,1383,475,1380,460,166184,0
patternCount-95,true,1.00,2145,517,2141,503,255072,0
patternCount-96,true,1.00,730,487,727,473,86679,0
patternCount-97,false,0.75,3869,431,3868,431,424391,0
patternCount-98,true,1.00,931,481,928,467,116770,0
patternCount-99,true,1.00,837,458,830,444,99297,0
patternCount-100,true,1.00,242,389,239,375,31180,0
