NDW:0.0
TTFW:0.2
DFPT:2.0
DFPAP:3.0
DFPMP:50.0
RIGHT_WINDOW_BORDER_X:215.0
level,win/fail,% travelled,run time,game ticks,planning time,total plannings,nodes evaluated,most backtracked nodes
notchParam-1,true,1.00,1488,299,1485,280,108127,0
notchParam-2,true,1.00,1931,313,1928,294,133656,0
notchParam-3,true,1.00,1599,313,1596,294,111891,0
notchParam-4,true,1.00,1732,319,1727,300,118918,0
notchParam-5,true,1.00,1701,322,1701,301,118803,0
notchParam-6,true,1.00,1631,313,1629,294,116263,0
notchParam-7,true,1.00,1800,313,1800,294,128050,0
notchParam-8,true,1.00,2093,313,2090,294,154251,0
notchParam-9,true,1.00,1817,317,1815,298,129701,0
notchParam-10,true,1.00,1692,299,1691,280,125505,0
notchParam-11,true,1.00,1471,303,1468,284,105661,0
notchParam-12,true,1.00,2368,334,2367,315,166767,0
notchParam-13,true,1.00,1316,313,1313,294,88440,0
notchParam-14,true,1.00,1250,301,1244,282,85036,0
notchParam-15,true,1.00,1596,301,1592,282,113468,0
notchParam-16,true,1.00,2137,324,2136,305,148473,0
notchParam-17,true,1.00,2000,315,1999,296,143335,0
notchParam-18,true,1.00,1571,308,1568,288,101480,0
notchParam-19,true,1.00,1321,308,1317,289,89176,0
notchParam-20,true,1.00,1149,299,1148,280,78182,0
notchParam-21,true,1.00,1217,303,1214,284,81448,0
notchParam-22,true,1.00,1401,313,1398,294,93765,0
notchParam-23,true,1.00,2598,325,2593,306,182380,0
notchParam-24,true,1.00,2120,323,2120,304,155295,0
notchParam-25,true,1.00,2312,323,2312,304,169421,0
notchParam-26,true,1.00,2255,320,2250,301,163693,0
notchParam-27,true,1.00,1374,309,1371,290,92085,0
notchParam-28,true,1.00,1725,309,1721,290,122978,0
notchParam-29,true,1.00,1847,326,1846,307,131432,0
notchParam-30,true,1.00,1180,299,1180,280,81234,0
notchParam-31,true,1.00,2272,330,2266,310,160351,0
notchParam-32,true,1.00,1949,313,1947,294,139174,0
notchParam-33,true,1.00,1191,299,1189,280,81803,0
notchParam-34,true,1.00,2014,313,2012,294,139515,0
notchParam-35,true,1.00,2251,323,2250,304,153655,0
notchParam-36,true,1.00,1579,299,1578,280,117308,0
notchParam-37,true,1.00,1252,299,1247,280,85151,0
notchParam-38,true,1.00,1459,315,1458,296,97714,0
notchParam-39,true,1.00,3409,388,3407,368,230136,0
notchParam-40,true,1.00,1675,317,1670,298,118807,0
notchParam-41,true,1.00,1508,303,1507,284,107111,0
notchParam-42,true,1.00,1697,321,1695,302,111015,0
notchParam-43,true,1.00,2217,314,2217,295,161642,0
notchParam-44,true,1.00,2058,321,2057,302,152493,0
notchParam-45,true,1.00,1671,302,1669,281,127977,0
notchParam-46,true,1.00,1858,301,1854,282,140320,0
notchParam-47,true,1.00,1376,313,1375,294,91293,0
notchParam-48,true,1.00,1336,311,1334,292,89573,0
notchParam-49,true,1.00,1460,307,1457,288,97756,0
notchParam-50,true,1.00,1879,327,1876,307,117350,0
notchParam-51,true,1.00,1222,303,1219,284,83218,0
notchParam-52,true,1.00,2081,325,2079,306,147299,0
notchParam-53,true,1.00,2634,339,2629,320,180044,0
notchParam-54,true,1.00,2613,341,2611,322,178709,0
notchParam-55,true,1.00,2062,325,2058,305,129409,0
notchParam-56,true,1.00,1184,309,1183,290,79112,0
notchParam-57,true,1.00,2008,317,2006,298,145102,0
notchParam-58,true,1.00,1449,303,1448,284,103874,0
notchParam-59,true,1.00,2503,329,2502,309,175219,0
notchParam-60,true,1.00,2357,338,2354,318,159202,0
notchParam-61,true,1.00,2512,336,2512,317,179546,0
notchParam-62,true,1.00,2077,327,2075,307,144194,0
notchParam-63,true,1.00,1565,315,1563,296,108794,0
notchParam-64,true,1.00,1673,311,1670,292,119778,0
notchParam-65,true,1.00,1762,333,1760,314,124502,0
notchParam-66,true,1.00,1491,301,1490,282,105853,0
notchParam-67,true,1.00,2007,315,2007,296,138902,0
notchParam-68,true,1.00,1636,305,1635,286,116932,0
notchParam-69,true,1.00,2302,343,2299,324,158438,0
notchParam-70,true,1.00,2281,331,2280,312,160344,0
notchParam-71,true,1.00,2075,331,2074,312,145998,0
notchParam-72,true,1.00,1674,317,1670,298,118068,0
notchParam-73,true,1.00,1280,299,1279,280,92002,0
notchParam-74,true,1.00,1472,306,1470,285,102345,0
notchParam-75,true,1.00,1631,313,1630,294,114743,0
notchParam-76,true,1.00,2121,311,2121,292,155164,0
notchParam-77,true,1.00,1659,311,1657,292,117768,0
notchParam-78,true,1.00,1962,315,1961,296,144723,0
notchParam-79,true,1.00,1584,309,1581,290,115076,0
notchParam-80,true,1.00,1487,300,1486,281,99930,0
notchParam-81,true,1.00,1604,307,1600,288,115539,0
notchParam-82,true,1.00,1307,305,1303,286,89076,0
notchParam-83,true,1.00,1722,329,1722,310,114853,0
notchParam-84,true,1.00,2179,323,2176,304,152083,0
notchParam-85,true,1.00,2110,322,2109,302,145654,0
notchParam-86,true,1.00,1899,309,1896,290,137650,0
notchParam-87,true,1.00,1116,299,1113,280,75941,0
notchParam-88,true,1.00,1394,314,1391,295,92907,0
notchParam-89,true,1.00,1232,301,1230,282,83823,0
notchParam-90,true,1.00,1406,307,1403,288,93801,0
notchParam-91,true,1.00,2196,319,2192,300,156242,0
notchParam-92,true,1.00,1819,305,1819,286,135222,0
notchParam-93,true,1.00,2203,321,2202,302,161321,0
notchParam-94,true,1.00,2117,311,2116,292,151751,0
notchParam-95,true,1.00,3631,358,3625,338,245090,0
notchParam-96,true,1.00,1384,305,1381,286,101264,0
notchParam-97,true,1.00,1406,301,1402,282,100119,0
notchParam-98,true,1.00,1161,299,1160,280,79371,0
notchParam-99,true,1.00,2677,341,2672,322,185563,0
notchParam-100,true,1.00,1638,303,1638,284,118900,0
