NDW:0.0
TTFW:1.8
DFPT:2.0
DFPAP:3.0
DFPMP:1.0
RIGHT_WINDOW_BORDER_X:75.0
level,win/fail,% travelled,run time,game ticks,planning time,total plannings,nodes evaluated,most backtracked nodes
Krys-1,false,0.38,18278,999,18269,999,1302089,0
Krys-2,false,0.79,11385,999,11375,999,864108,0
Krys-3,true,1.00,8338,768,8334,761,909586,0
Krys-4,true,1.00,1686,570,1680,558,176381,0
Krys-5,false,0.62,3539,353,3538,353,370333,0
Krys-6,true,1.00,1942,522,1940,512,222809,0
Krys-7,true,1.00,170,373,168,365,21753,0
Krys-8,false,0.76,466,376,460,376,54008,0
Krys-9,false,0.73,8602,514,8601,514,1094497,0
Krys-10,true,1.00,2577,582,2574,574,306991,0
Krys-11,true,1.00,36,422,31,413,6539,0
Krys-12,false,0.42,209,153,207,153,22863,0
Krys-13,false,0.72,4850,470,4848,470,508060,0
Krys-14,false,0.79,12571,999,12558,999,920874,0
Krys-15,false,0.82,8690,999,8686,999,1151652,0
Krys-16,false,0.69,11359,999,11349,999,851299,0
Krys-17,true,1.00,2537,497,2536,487,230901,0
Krys-18,true,1.00,780,448,777,441,88692,0
Krys-19,false,0.09,30575,999,30574,999,2743754,0
Krys-20,false,0.73,2033,497,2028,497,256460,0
Krys-21,false,0.89,6057,603,6054,603,709641,0
Krys-22,false,0.83,8104,618,8104,618,988817,0
Krys-23,true,1.00,1591,527,1589,517,168005,0
Krys-24,false,0.83,3837,425,3835,425,403743,0
Krys-25,true,1.00,1713,482,1711,472,182851,0
Krys-26,false,0.62,6962,420,6959,420,816142,0
Krys-27,false,0.52,196,244,196,244,19777,0
Krys-28,false,0.82,7072,705,7069,705,727446,0
Krys-29,true,1.00,947,479,945,472,92161,0
Krys-30,false,0.53,146,286,143,286,16983,0
Krys-31,false,0.72,402,362,398,362,54383,0
Krys-32,true,1.00,168,408,165,402,20800,0
Krys-33,true,1.00,205,408,202,398,24882,0
Krys-34,true,1.00,3845,529,3843,519,394957,0
Krys-35,false,0.82,14664,806,14664,806,1900264,0
Krys-36,false,0.37,1061,173,1060,173,135570,0
Krys-37,false,0.72,7664,599,7663,599,764250,0
Krys-38,false,0.73,8523,600,8520,600,1024968,0
Krys-39,false,0.21,4392,191,4391,191,456760,0
Krys-40,false,0.62,3124,361,3122,361,470600,0
Krys-41,false,0.83,11259,737,11256,737,1244463,0
Krys-42,false,0.61,4842,999,4836,999,726586,0
Krys-43,false,0.82,6072,448,6070,448,683626,0
Krys-44,false,0.62,3241,368,3240,368,369742,0
Krys-45,true,1.00,375,437,372,430,37057,0
Krys-46,true,1.00,2041,551,2039,541,188814,0
Krys-47,true,1.00,3308,556,3299,546,370265,0
Krys-48,false,0.09,30576,999,30575,999,2741484,0
Krys-49,true,1.00,1284,458,1280,448,133718,0
Krys-50,false,0.83,8329,745,8326,745,928955,0
Krys-51,false,0.61,22130,999,22128,999,2820772,0
Krys-52,true,1.00,566,477,560,470,65240,0
Krys-53,true,1.00,1448,485,1444,475,128386,0
Krys-54,true,1.00,3266,596,3261,587,392523,0
Krys-55,true,1.00,2297,532,2289,522,221035,0
Krys-56,false,0.52,377,255,375,255,34771,0
Krys-57,false,0.83,6707,512,6707,512,644007,0
Krys-58,true,1.00,1896,500,1894,493,175888,0
Krys-59,false,0.89,9266,999,9253,999,703137,0
Krys-60,true,1.00,8199,687,8194,673,944170,0
Krys-61,false,0.48,16471,999,16462,999,1173583,0
Krys-62,true,1.00,327,539,323,530,35619,0
Krys-63,true,1.00,2238,572,2234,564,200533,0
Krys-64,true,1.00,1800,579,1797,566,180785,0
Krys-65,true,1.00,1392,522,1389,515,119707,0
Krys-66,true,1.00,2286,564,2283,556,214240,0
Krys-67,true,1.00,1779,593,1777,585,199463,0
Krys-68,false,0.63,2063,304,2060,304,212366,0
Krys-69,false,0.48,17405,999,17399,999,1154401,0
Krys-70,true,1.00,4651,696,4647,689,535919,0
Krys-71,false,0.73,4487,482,4486,482,537264,0
Krys-72,true,1.00,390,479,387,472,50223,0
Krys-73,true,1.00,6082,678,6076,669,689652,0
Krys-74,false,0.72,5131,440,5131,440,477923,0
Krys-75,true,1.00,146,509,143,499,19137,0
Krys-76,false,0.53,4611,363,4610,363,456370,0
Krys-77,true,1.00,4848,562,4842,552,521696,0
Krys-78,false,0.20,3624,243,3624,243,421242,0
Krys-79,true,1.00,570,471,568,463,58061,0
Krys-80,true,1.00,192,423,192,413,20557,0
Krys-81,true,1.00,1790,480,1786,470,194742,0
Krys-82,true,1.00,1163,398,1162,391,124839,0
Krys-83,true,1.00,3815,571,3813,561,404596,0
Krys-84,true,1.00,204,387,203,377,23853,0
Krys-85,true,1.00,2556,582,2551,572,275524,0
Krys-86,true,1.00,1727,441,1723,426,146512,0
Krys-87,true,1.00,228,386,226,380,24700,0
Krys-88,true,1.00,864,467,861,459,93977,0
Krys-89,true,1.00,2244,577,2239,568,241786,0
Krys-90,false,0.63,7782,460,7782,460,849673,0
Krys-91,true,1.00,232,442,229,433,29595,0
Krys-92,false,0.45,831,269,830,269,85030,0
Krys-93,false,0.83,4284,440,4283,440,595700,0
Krys-94,true,1.00,3788,502,3785,489,425506,0
Krys-95,false,0.78,1317,346,1315,346,118793,0
Krys-96,false,0.83,8614,634,8612,634,898643,0
Krys-97,false,0.34,7,107,7,107,1347,0
Krys-98,true,1.00,2971,653,2965,639,326373,0
Krys-99,true,1.00,327,452,324,442,36151,0
Krys-100,false,0.32,3964,259,3963,259,449389,0
