NDW:0.0
TTFW:1.2
DFPT:2.0
DFPAP:3.0
DFPMP:0.0
RIGHT_WINDOW_BORDER_X:135.0
level,win/fail,% travelled,run time,game ticks,planning time,total plannings,nodes evaluated,most backtracked nodes
notch-1,true,1.00,868,287,865,275,92772,0
notch-2,true,1.00,1065,297,1063,285,120677,0
notch-3,true,1.00,1125,281,1122,269,119332,0
notch-4,true,1.00,1037,303,1036,283,109334,0
notch-5,true,1.00,819,264,817,251,86630,0
notch-6,true,1.00,697,290,697,278,76495,0
notch-7,true,1.00,506,298,505,286,55761,0
notch-8,true,1.00,641,295,639,281,71745,0
notch-9,true,1.00,1257,286,1256,274,133223,0
notch-10,true,1.00,993,284,989,272,104094,0
notch-11,true,1.00,950,264,950,252,97963,0
notch-12,true,1.00,673,264,671,252,70604,0
notch-13,true,1.00,600,272,597,260,63784,0
notch-14,true,1.00,828,271,827,259,86639,0
notch-15,true,1.00,696,271,693,259,72490,0
notch-16,true,1.00,964,276,963,255,104563,0
notch-17,true,1.00,828,282,828,270,86502,0
notch-18,true,1.00,1689,366,1687,353,192860,0
notch-19,true,1.00,1298,271,1298,259,137481,0
notch-20,true,1.00,1078,322,1073,310,118781,0
notch-21,true,1.00,1096,301,1096,289,119272,0
notch-22,true,1.00,595,243,593,231,61955,0
notch-23,true,1.00,1252,282,1252,262,131772,0
notch-24,true,1.00,636,275,633,263,69549,0
notch-25,true,1.00,1413,331,1410,318,150795,0
notch-26,true,1.00,837,271,837,259,89884,0
notch-27,true,1.00,1073,305,1071,293,119579,0
notch-28,true,1.00,1589,351,1586,338,173182,0
notch-29,true,1.00,974,295,973,274,105501,0
notch-30,true,1.00,890,262,888,250,89319,0
notch-31,true,1.00,707,264,703,252,75518,0
notch-32,true,1.00,1095,294,1094,279,117951,0
notch-33,true,1.00,662,253,661,241,69349,0
notch-34,true,1.00,795,273,791,261,86744,0
notch-35,true,1.00,598,274,597,262,65241,0
notch-36,true,1.00,1102,304,1100,292,118973,0
notch-37,true,1.00,1175,290,1174,275,131763,0
notch-38,true,1.00,842,293,839,279,89389,0
notch-39,true,1.00,590,236,590,223,63007,0
notch-40,true,1.00,997,277,996,264,96345,0
notch-41,true,1.00,1119,306,1115,291,105716,0
notch-42,true,1.00,995,266,992,253,107916,0
notch-43,true,1.00,914,278,910,266,99947,0
notch-44,true,1.00,957,285,956,271,103000,0
notch-45,true,1.00,823,256,821,244,86750,0
notch-46,true,1.00,833,259,832,247,89597,0
notch-47,true,1.00,1062,293,1059,281,112084,0
notch-48,true,1.00,1197,270,1196,258,128263,0
notch-49,true,1.00,2135,340,2130,325,235811,0
notch-50,true,1.00,720,327,716,315,78462,0
notch-51,true,1.00,774,260,774,245,84001,0
notch-52,true,1.00,772,285,772,264,82290,0
notch-53,true,1.00,333,265,331,252,34905,0
notch-54,true,1.00,973,308,972,295,106941,0
notch-55,true,1.00,1134,320,1134,308,120132,0
notch-56,true,1.00,636,278,630,266,66994,0
notch-57,true,1.00,667,283,666,271,68622,0
notch-58,true,1.00,1058,345,1058,332,116621,0
notch-59,true,1.00,806,311,805,289,82952,0
notch-60,true,1.00,1232,312,1231,300,130197,0
notch-61,true,1.00,894,255,893,243,97119,0
notch-62,true,1.00,678,273,677,261,75499,0
notch-63,true,1.00,1115,320,1113,307,127595,0
notch-64,true,1.00,1022,282,1020,270,107090,0
notch-65,true,1.00,1145,314,1142,301,128824,0
notch-66,true,1.00,947,301,946,289,104305,0
notch-67,true,1.00,964,273,963,260,97983,0
notch-68,true,1.00,441,269,439,257,48106,0
notch-69,true,1.00,1371,315,1371,303,145139,0
notch-70,true,1.00,1261,311,1258,298,139674,0
notch-71,true,1.00,1231,274,1230,262,127555,0
notch-72,true,1.00,767,265,765,252,83577,0
notch-73,true,1.00,994,291,992,279,104947,0
notch-74,true,1.00,534,242,533,230,59593,0
notch-75,true,1.00,1530,321,1529,308,164863,0
notch-76,true,1.00,1809,346,1808,330,189100,0
notch-77,true,1.00,702,274,700,262,76149,0
notch-78,true,1.00,832,259,831,246,90602,0
notch-79,true,1.00,805,295,802,282,86553,0
notch-80,true,1.00,463,242,461,230,48731,0
notch-81,true,1.00,1457,283,1456,269,153133,0
notch-82,true,1.00,727,266,727,254,75789,0
notch-83,true,1.00,933,293,931,281,100189,0
notch-84,true,1.00,601,258,601,246,63446,0
notch-85,true,1.00,692,270,692,257,75383,0
notch-86,true,1.00,1894,297,1893,285,205366,0
notch-87,true,1.00,1050,263,1047,251,113064,0
notch-88,true,1.00,1034,309,1033,296,113636,0
notch-89,true,1.00,1206,308,1203,296,132345,0
notch-90,true,1.00,1029,283,1028,271,112077,0
notch-91,true,1.00,1100,304,1098,292,118359,0
notch-92,true,1.00,1031,293,1029,281,109965,0
notch-93,true,1.00,810,270,807,258,87020,0
notch-94,true,1.00,1261,290,1261,277,133918,0
notch-95,true,1.00,629,256,627,244,67579,0
notch-96,true,1.00,999,296,997,284,111132,0
notch-97,true,1.00,1376,323,1374,311,147996,0
notch-98,true,1.00,945,277,943,264,103831,0
notch-99,true,1.00,1141,310,1139,294,125241,0
notch-100,true,1.00,889,295,883,282,89819,0
