NDW:0.0
TTFW:1.0
DFPT:2.0
DFPAP:3.0
DFPMP:7.0
RIGHT_WINDOW_BORDER_X:95.0
level,win/fail,% travelled,run time,game ticks,planning time,total plannings,nodes evaluated,most backtracked nodes
patternWeightCount-1,false,0.85,5013,531,5007,531,297464,0
patternWeightCount-2,true,1.00,1191,418,1181,407,71745,0
patternWeightCount-3,true,1.00,1116,499,1108,491,67616,0
patternWeightCount-4,true,1.00,778,414,771,402,46350,0
patternWeightCount-5,true,1.00,3281,565,3270,557,200935,0
patternWeightCount-6,true,1.00,2119,508,2105,500,129137,0
patternWeightCount-7,true,1.00,894,422,884,414,53734,0
patternWeightCount-8,true,1.00,774,443,758,435,42994,0
patternWeightCount-9,true,1.00,1333,495,1324,487,82610,0
patternWeightCount-10,true,1.00,1650,504,1641,496,98503,0
patternWeightCount-11,true,1.00,653,465,641,457,40366,0
patternWeightCount-12,true,1.00,1615,489,1599,481,99007,0
patternWeightCount-13,true,1.00,2444,504,2431,496,148351,0
patternWeightCount-14,true,1.00,1710,489,1700,481,102808,0
patternWeightCount-15,true,1.00,2979,508,2967,500,184700,0
patternWeightCount-16,false,0.84,4448,999,4434,999,273203,0
patternWeightCount-17,true,1.00,2348,558,2339,550,148203,0
patternWeightCount-18,true,1.00,1674,468,1666,460,101998,0
patternWeightCount-19,true,1.00,795,457,789,449,46438,0
patternWeightCount-20,false,0.62,3710,357,3704,357,221431,0
patternWeightCount-21,true,1.00,570,455,556,447,35279,0
patternWeightCount-22,false,0.82,3711,562,3697,562,225886,0
patternWeightCount-23,true,1.00,1051,460,1041,451,64358,0
patternWeightCount-24,true,1.00,2848,567,2830,557,173553,0
patternWeightCount-25,true,1.00,3369,566,3352,558,206703,0
patternWeightCount-26,true,1.00,3554,572,3541,564,220578,0
patternWeightCount-27,true,1.00,3090,589,3076,572,189810,0
patternWeightCount-28,true,1.00,1615,505,1605,497,101213,0
patternWeightCount-29,true,1.00,2016,475,2005,466,122588,0
patternWeightCount-30,false,0.82,5038,543,5025,543,280494,0
patternWeightCount-31,true,1.00,1951,494,1943,486,112222,0
patternWeightCount-32,true,1.00,762,468,753,460,43358,0
patternWeightCount-33,true,1.00,1201,484,1185,476,69245,0
patternWeightCount-34,true,1.00,4146,515,4140,507,247025,0
patternWeightCount-35,false,0.63,5515,518,5510,518,330793,0
patternWeightCount-36,true,1.00,2321,579,2304,571,141966,0
patternWeightCount-37,true,1.00,1721,490,1711,482,106011,0
patternWeightCount-38,false,0.94,7091,672,7080,672,432855,0
patternWeightCount-39,true,1.00,3744,551,3734,543,224019,0
patternWeightCount-40,true,1.00,3192,535,3174,527,202910,0
patternWeightCount-41,true,1.00,2561,526,2547,517,156230,0
patternWeightCount-42,false,0.87,6901,665,6892,665,418846,0
patternWeightCount-43,true,1.00,2295,498,2286,490,139440,0
patternWeightCount-44,true,1.00,2713,559,2703,548,177270,0
patternWeightCount-45,false,0.85,17843,999,17832,999,994530,0
patternWeightCount-46,false,0.85,8350,643,8337,643,506414,0
patternWeightCount-47,true,1.00,1408,476,1397,468,83803,0
patternWeightCount-48,true,1.00,1124,416,1114,408,65455,0
patternWeightCount-49,true,1.00,2242,470,2233,461,131954,0
patternWeightCount-50,true,1.00,1427,478,1415,470,79175,0
patternWeightCount-51,true,1.00,1494,504,1479,487,90445,0
patternWeightCount-52,true,1.00,2276,478,2269,465,142287,0
patternWeightCount-53,false,0.74,3622,486,3618,486,218355,0
patternWeightCount-54,true,1.00,1018,493,1009,485,65475,0
patternWeightCount-55,false,0.97,4251,560,4236,560,245607,0
patternWeightCount-56,true,1.00,1713,467,1706,459,109098,0
patternWeightCount-57,true,1.00,477,403,473,395,30387,0
patternWeightCount-58,true,1.00,2550,550,2540,540,157863,0
patternWeightCount-59,true,1.00,923,417,908,409,60452,0
patternWeightCount-60,true,1.00,2002,555,1991,545,127387,0
patternWeightCount-61,true,1.00,1791,496,1780,487,111768,0
patternWeightCount-62,true,1.00,5112,632,5096,620,320723,0
patternWeightCount-63,true,1.00,2530,516,2523,508,160481,0
patternWeightCount-64,true,1.00,2454,497,2445,489,149487,0
patternWeightCount-65,true,1.00,1897,502,1884,494,117796,0
patternWeightCount-66,true,1.00,1786,501,1774,493,111306,0
patternWeightCount-67,true,1.00,1302,484,1292,476,77779,0
patternWeightCount-68,false,0.85,21144,999,21132,999,834326,0
patternWeightCount-69,false,0.96,7319,657,7312,657,447693,0
patternWeightCount-70,true,1.00,1184,512,1174,502,75292,0
patternWeightCount-71,true,1.00,1010,465,999,457,61981,0
patternWeightCount-72,false,0.74,5892,539,5887,539,370835,0
patternWeightCount-73,false,0.66,6066,544,6056,544,381711,0
patternWeightCount-74,true,1.00,1148,435,1143,427,72859,0
patternWeightCount-75,true,1.00,1313,484,1303,476,82543,0
patternWeightCount-76,true,1.00,1866,512,1857,504,118034,0
patternWeightCount-77,true,1.00,2178,556,2165,545,138670,0
patternWeightCount-78,true,1.00,6769,681,6758,673,419633,0
patternWeightCount-79,true,1.00,1447,431,1438,423,88042,0
patternWeightCount-80,true,1.00,2288,538,2278,530,140060,0
patternWeightCount-81,false,0.82,5155,544,5139,544,318114,0
patternWeightCount-82,true,1.00,296,404,285,395,18698,0
patternWeightCount-83,true,1.00,1771,472,1765,464,112485,0
patternWeightCount-84,true,1.00,1470,493,1458,485,95569,0
patternWeightCount-85,true,1.00,3496,562,3486,553,223167,0
patternWeightCount-86,false,0.93,5491,588,5480,588,344582,0
patternWeightCount-87,false,0.72,4184,447,4176,447,250707,0
patternWeightCount-88,true,1.00,2534,536,2524,526,162233,0
patternWeightCount-89,true,1.00,1192,443,1183,435,76120,0
patternWeightCount-90,false,0.74,5750,589,5737,589,366937,0
patternWeightCount-91,true,1.00,1434,489,1423,481,91248,0
patternWeightCount-92,false,0.97,8768,706,8757,706,544075,0
patternWeightCount-93,false,0.89,3462,537,3446,537,213793,0
patternWeightCount-94,true,1.00,2197,533,2184,525,141091,0
patternWeightCount-95,true,1.00,2137,498,2122,490,132563,0
patternWeightCount-96,true,1.00,1283,496,1271,488,80697,0
patternWeightCount-97,true,1.00,1771,431,1762,423,110006,0
patternWeightCount-98,false,0.77,5535,571,5522,571,344732,0
patternWeightCount-99,true,1.00,1484,534,1477,526,94586,0
patternWeightCount-100,true,1.00,975,471,964,463,60221,0
