NDW:0.0
TTFW:1.6
DFPT:2.0
DFPAP:3.0
DFPMP:3.0
RIGHT_WINDOW_BORDER_X:275.0
level,win/fail,% travelled,run time,game ticks,planning time,total plannings,nodes evaluated,most backtracked nodes
patternWeightCount-1,true,1.00,2902,563,2901,511,370290,0
patternWeightCount-2,true,1.00,585,451,582,423,76218,0
patternWeightCount-3,true,1.00,623,425,622,400,79671,0
patternWeightCount-4,true,1.00,658,454,656,429,81030,0
patternWeightCount-5,true,1.00,1380,512,1379,474,184375,0
patternWeightCount-6,true,1.00,2209,513,2206,487,290412,0
patternWeightCount-7,true,1.00,1029,445,1027,414,131166,0
patternWeightCount-8,true,1.00,666,419,663,394,67461,0
patternWeightCount-9,true,1.00,1029,516,1025,489,135161,0
patternWeightCount-10,true,1.00,1096,488,1090,463,136633,0
patternWeightCount-11,true,1.00,451,480,449,455,55378,0
patternWeightCount-12,true,1.00,1541,545,1536,519,202005,0
patternWeightCount-13,true,1.00,1176,462,1174,437,157170,0
patternWeightCount-14,true,1.00,879,470,875,439,112719,0
patternWeightCount-15,true,1.00,1429,440,1427,415,187731,0
patternWeightCount-16,true,1.00,2649,524,2644,487,363103,0
patternWeightCount-17,true,1.00,671,493,668,468,83798,0
patternWeightCount-18,true,1.00,896,422,895,397,113743,0
patternWeightCount-19,true,1.00,622,474,620,449,69666,0
patternWeightCount-20,false,0.74,3437,363,3433,363,397896,0
patternWeightCount-21,true,1.00,558,545,549,519,64665,0
patternWeightCount-22,true,1.00,2355,547,2351,509,321186,0
patternWeightCount-23,true,1.00,571,478,569,453,69572,0
patternWeightCount-24,true,1.00,1207,465,1205,439,152206,0
patternWeightCount-25,true,1.00,1453,502,1447,477,189021,0
patternWeightCount-26,true,1.00,1228,506,1220,474,169489,0
patternWeightCount-27,true,1.00,1816,536,1812,495,249255,0
patternWeightCount-28,true,1.00,1097,527,1096,502,144958,0
patternWeightCount-29,true,1.00,1283,452,1280,427,170161,0
patternWeightCount-30,true,1.00,4399,554,4397,512,499717,0
patternWeightCount-31,true,1.00,835,446,832,421,103666,0
patternWeightCount-32,true,1.00,708,566,707,532,87136,0
patternWeightCount-33,true,1.00,636,490,631,465,81142,0
patternWeightCount-34,true,1.00,1195,437,1191,412,152803,0
patternWeightCount-35,true,1.00,1869,449,1869,424,226798,0
patternWeightCount-36,true,1.00,1245,476,1235,451,166081,0
patternWeightCount-37,true,1.00,637,446,636,421,80380,0
patternWeightCount-38,true,1.00,2016,478,2014,426,236532,0
patternWeightCount-39,true,1.00,717,429,713,399,83857,0
patternWeightCount-40,true,1.00,992,482,986,457,123720,0
patternWeightCount-41,true,1.00,1661,517,1657,479,212604,0
patternWeightCount-42,false,0.87,2245,431,2238,431,259596,0
patternWeightCount-43,true,1.00,848,437,845,412,109142,0
patternWeightCount-44,true,1.00,1102,523,1096,468,160240,0
patternWeightCount-45,true,1.00,2711,538,2710,492,332273,0
patternWeightCount-46,true,1.00,3762,512,3757,475,420602,0
patternWeightCount-47,true,1.00,572,437,569,412,73302,0
patternWeightCount-48,true,1.00,670,440,665,415,87270,0
patternWeightCount-49,true,1.00,856,440,851,415,109468,0
patternWeightCount-50,true,1.00,734,457,727,433,86912,0
patternWeightCount-51,true,1.00,1002,440,999,395,129866,0
patternWeightCount-52,true,1.00,1419,490,1417,447,190746,0
patternWeightCount-53,true,1.00,2312,458,2309,430,275686,0
patternWeightCount-54,true,1.00,839,520,837,495,101303,0
patternWeightCount-55,true,1.00,1250,480,1248,455,154073,0
patternWeightCount-56,true,1.00,1077,473,1072,440,130303,0
patternWeightCount-57,true,1.00,660,444,659,419,87330,0
patternWeightCount-58,true,1.00,1126,493,1123,456,140810,0
patternWeightCount-59,true,1.00,409,453,404,428,50234,0
patternWeightCount-60,true,1.00,1074,560,1071,523,136457,0
patternWeightCount-61,true,1.00,964,415,960,390,119371,0
patternWeightCount-62,true,1.00,1715,475,1711,448,220750,0
patternWeightCount-63,true,1.00,1028,469,1023,444,135801,0
patternWeightCount-64,true,1.00,1675,521,1672,496,210323,0
patternWeightCount-65,true,1.00,1255,502,1255,466,161655,0
patternWeightCount-66,true,1.00,790,478,788,453,97747,0
patternWeightCount-67,true,1.00,1106,517,1102,492,133380,0
patternWeightCount-68,true,1.00,865,502,864,477,76081,0
patternWeightCount-69,true,1.00,2021,499,2017,458,245866,0
patternWeightCount-70,true,1.00,802,489,800,449,101271,0
patternWeightCount-71,true,1.00,768,445,765,410,95353,0
patternWeightCount-72,true,1.00,3899,524,3894,481,417466,0
patternWeightCount-73,true,1.00,4986,497,4982,453,599687,0
patternWeightCount-74,true,1.00,743,465,741,440,95753,0
patternWeightCount-75,true,1.00,982,478,976,453,123563,0
patternWeightCount-76,true,1.00,879,482,873,457,108692,0
patternWeightCount-77,true,1.00,1327,444,1326,419,184288,0
patternWeightCount-78,true,1.00,2422,500,2419,473,292517,0
patternWeightCount-79,true,1.00,1121,444,1120,419,161365,0
patternWeightCount-80,true,1.00,1793,545,1790,520,228402,0
patternWeightCount-81,true,1.00,5254,558,5250,533,553279,0
patternWeightCount-82,true,1.00,332,483,328,434,37636,0
patternWeightCount-83,true,1.00,643,418,638,392,85086,0
patternWeightCount-84,true,1.00,998,529,995,504,131464,0
patternWeightCount-85,true,1.00,1232,479,1231,454,159458,0
patternWeightCount-86,false,0.94,2163,433,2161,433,250706,0
patternWeightCount-87,true,1.00,4678,496,4675,454,508442,0
patternWeightCount-88,true,1.00,970,472,964,444,122483,0
patternWeightCount-89,true,1.00,767,412,766,387,99772,0
patternWeightCount-90,true,1.00,3704,505,3699,476,449026,0
patternWeightCount-91,true,1.00,993,464,991,434,123157,0
patternWeightCount-92,true,1.00,3599,560,3596,504,471497,0
patternWeightCount-93,true,1.00,3232,503,3227,478,395210,0
patternWeightCount-94,true,1.00,1184,490,1181,465,150257,0
patternWeightCount-95,true,1.00,1274,496,1271,471,161464,0
patternWeightCount-96,true,1.00,1013,508,1012,483,126506,0
patternWeightCount-97,true,1.00,955,387,955,362,124871,0
patternWeightCount-98,true,1.00,3932,473,3927,430,504508,0
patternWeightCount-99,true,1.00,1448,500,1444,474,187087,0
patternWeightCount-100,true,1.00,1276,460,1276,435,168021,0
