NDW:0.0
TTFW:0.2
DFPT:2.0
DFPAP:3.0
DFPMP:5.0
RIGHT_WINDOW_BORDER_X:255.0
level,win/fail,% travelled,run time,game ticks,planning time,total plannings,nodes evaluated,most backtracked nodes
patternCount-1,false,0.88,8410,409,8406,409,593792,0
patternCount-2,true,1.00,3775,352,3773,329,239880,0
patternCount-3,true,1.00,5349,394,5347,365,356525,0
patternCount-4,true,1.00,4642,381,4642,357,303003,0
patternCount-5,true,1.00,3806,358,3804,335,247222,0
patternCount-6,true,1.00,3398,358,3397,335,214322,0
patternCount-7,true,1.00,4280,372,4277,349,278867,0
patternCount-8,true,1.00,5781,408,5781,372,399778,0
patternCount-9,true,1.00,3442,362,3437,339,229500,0
patternCount-10,true,1.00,3000,340,2997,317,192213,0
patternCount-11,true,1.00,7005,407,7003,377,475835,0
patternCount-12,true,1.00,4000,382,3996,359,253363,0
patternCount-13,true,1.00,2859,364,2857,341,187625,0
patternCount-14,true,1.00,3989,365,3986,340,260592,0
patternCount-15,true,1.00,4715,378,4712,355,297453,0
patternCount-16,true,1.00,4341,364,4338,341,275225,0
patternCount-17,true,1.00,4557,381,4554,358,285175,0
patternCount-18,true,1.00,4892,394,4891,369,316150,0
patternCount-19,true,1.00,2992,346,2986,323,193735,0
patternCount-20,true,1.00,5940,405,5935,382,367047,0
patternCount-21,true,1.00,3531,360,3528,337,223203,0
patternCount-22,true,1.00,5869,404,5864,367,406564,0
patternCount-23,true,1.00,8532,451,8529,425,616364,0
patternCount-24,true,1.00,10053,482,10051,453,724778,0
patternCount-25,true,1.00,3207,351,3207,328,206454,0
patternCount-26,true,1.00,2623,334,2618,311,174887,0
patternCount-27,true,1.00,3064,340,3061,317,202301,0
patternCount-28,true,1.00,3094,342,3093,313,204500,0
patternCount-29,true,1.00,4538,362,4535,339,294078,0
patternCount-30,true,1.00,3562,344,3560,321,227827,0
patternCount-31,true,1.00,6263,458,6257,435,407888,0
patternCount-32,true,1.00,4192,392,4191,369,283713,0
patternCount-33,true,1.00,6017,414,6011,386,420013,0
patternCount-34,true,1.00,6627,450,6622,424,441530,0
patternCount-35,true,1.00,4976,398,4974,375,310041,0
patternCount-36,true,1.00,8497,507,8491,468,561752,0
patternCount-37,true,1.00,4060,389,4055,364,267240,0
patternCount-38,true,1.00,5283,400,5282,376,366363,0
patternCount-39,true,1.00,3229,358,3224,335,209872,0
patternCount-40,true,1.00,9780,486,9780,450,670061,0
patternCount-41,true,1.00,6317,400,6315,377,407671,0
patternCount-42,true,1.00,5319,401,5315,378,340191,0
patternCount-43,true,1.00,4430,368,4426,345,281001,0
patternCount-44,true,1.00,3587,368,3581,345,231491,0
patternCount-45,true,1.00,4661,395,4656,372,294782,0
patternCount-46,true,1.00,6480,428,6475,404,427191,0
patternCount-47,true,1.00,5800,411,5796,388,379907,0
patternCount-48,true,1.00,4031,380,4028,357,248122,0
patternCount-49,true,1.00,4169,381,4164,358,275760,0
patternCount-50,true,1.00,9016,454,9015,425,620153,0
patternCount-51,true,1.00,4685,410,4683,386,305616,0
patternCount-52,true,1.00,4541,399,4537,376,294862,0
patternCount-53,true,1.00,6771,414,6768,379,482179,0
patternCount-54,true,1.00,5861,404,5860,381,367213,0
patternCount-55,true,1.00,9083,444,9083,414,665909,0
patternCount-56,true,1.00,5391,407,5390,384,352399,0
patternCount-57,true,1.00,3073,356,3072,332,200456,0
patternCount-58,false,0.80,7808,374,7808,374,515608,0
patternCount-59,true,1.00,3701,348,3698,325,242525,0
patternCount-60,true,1.00,4082,385,4080,361,269653,0
patternCount-61,true,1.00,4083,384,4082,354,271900,0
patternCount-62,true,1.00,4824,384,4816,361,305025,0
patternCount-63,true,1.00,5096,380,5092,357,318497,0
patternCount-64,true,1.00,4980,405,4979,382,320469,0
patternCount-65,true,1.00,3909,359,3905,334,245918,0
patternCount-66,true,1.00,4889,385,4886,362,314202,0
patternCount-67,true,1.00,4283,367,4280,333,280573,0
patternCount-68,true,1.00,3988,390,3985,367,254196,0
patternCount-69,true,1.00,4976,381,4973,358,314340,0
patternCount-70,true,1.00,4940,397,4937,374,304459,0
patternCount-71,true,1.00,4341,382,4337,359,281587,0
patternCount-72,true,1.00,7079,394,7075,363,489931,0
patternCount-73,true,1.00,7359,463,7349,440,480095,0
patternCount-74,true,1.00,8027,436,8024,402,563457,0
patternCount-75,true,1.00,4879,396,4875,370,309304,0
patternCount-76,true,1.00,3737,354,3734,331,242947,0
patternCount-77,true,1.00,4900,405,4892,382,308128,0
patternCount-78,true,1.00,6721,442,6716,418,422926,0
patternCount-79,true,1.00,8102,437,8098,402,564047,0
patternCount-80,true,1.00,7692,470,7688,432,510487,0
patternCount-81,true,1.00,6401,421,6399,398,394515,0
patternCount-82,true,1.00,3695,344,3692,321,232768,0
patternCount-83,true,1.00,3402,367,3401,344,221103,0
patternCount-84,true,1.00,4128,371,4126,348,265080,0
patternCount-85,true,1.00,4773,387,4771,364,303130,0
patternCount-86,true,1.00,4050,370,4050,347,255474,0
patternCount-87,true,1.00,3593,357,3591,334,227539,0
patternCount-88,true,1.00,5313,404,5309,379,345051,0
patternCount-89,true,1.00,2961,328,2955,305,195155,0
patternCount-90,true,1.00,5153,386,5150,363,318745,0
patternCount-91,true,1.00,4719,395,4717,372,310494,0
patternCount-92,true,1.00,6240,446,6237,423,384948,0
patternCount-93,true,1.00,9448,477,9447,454,635410,0
patternCount-94,true,1.00,6022,419,6017,396,380233,0
patternCount-95,true,1.00,4755,371,4751,348,307984,0
patternCount-96,true,1.00,4986,441,4983,418,332599,0
patternCount-97,false,0.82,5241,322,5239,322,361391,0
patternCount-98,true,1.00,3788,373,3783,350,243621,0
patternCount-99,true,1.00,5494,435,5490,412,352909,0
patternCount-100,true,1.00,2724,336,2722,313,177371,0
