NDW:0.0
TTFW:0.4
DFPT:2.0
DFPAP:3.0
DFPMP:2.0
RIGHT_WINDOW_BORDER_X:15.0
level,win/fail,% travelled,run time,game ticks,planning time,total plannings,nodes evaluated,most backtracked nodes
Mario-1,false,0.08,4,50,4,50,811,0
Mario-2,false,0.36,26,267,24,267,4919,0
Mario-3,false,0.13,685,145,684,145,65524,0
Mario-4,false,0.06,3,36,3,36,579,0
Mario-5,false,0.13,10,99,9,99,1715,0
Mario-6,false,0.07,346,105,346,105,35059,0
Mario-7,false,0.12,211,139,208,139,19475,0
Mario-8,false,0.06,1120,165,1118,165,96395,0
Mario-9,false,0.03,1,24,1,24,362,0
Mario-10,false,0.07,352,105,351,105,35059,0
Mario-11,false,0.08,242,86,236,86,22628,0
Mario-12,false,0.16,22,157,20,157,3918,0
Mario-13,false,0.07,349,105,348,105,35061,0
Mario-14,false,0.33,22,211,21,211,3700,0
Mario-15,false,0.03,2,33,1,33,394,0
