NDW:0.0
TTFW:0.6
DFPT:2.0
DFPAP:3.0
DFPMP:50.0
RIGHT_WINDOW_BORDER_X:295.0
level,win/fail,% travelled,run time,game ticks,planning time,total plannings,nodes evaluated,most backtracked nodes
Krys-1,true,1.00,8222,492,8212,443,334533,0
Krys-2,true,1.00,4346,443,4344,392,165048,0
Krys-3,false,0.70,28168,999,28163,999,1150840,0
Krys-4,true,1.00,4725,427,4714,378,189380,0
Krys-5,true,1.00,1825,314,1821,263,93154,0
Krys-6,true,1.00,1754,339,1748,295,77428,0
Krys-7,true,1.00,938,308,934,262,40778,0
Krys-8,true,1.00,4669,437,4660,390,187130,0
Krys-9,true,1.00,2349,299,2342,262,117077,0
Krys-10,true,1.00,2834,338,2825,305,122284,0
Krys-11,true,1.00,1336,310,1322,264,51751,0
Krys-12,false,0.70,27540,999,27536,999,1063005,0
Krys-13,true,1.00,4522,361,4514,311,206642,0
Krys-14,true,1.00,1904,305,1895,268,73063,0
Krys-15,true,1.00,4486,395,4476,346,208268,0
Krys-16,true,1.00,3693,359,3685,313,143607,0
Krys-17,true,1.00,4292,374,4287,331,174795,0
Krys-18,true,1.00,5042,513,5020,466,194692,0
Krys-19,true,1.00,2500,317,2491,262,121977,0
Krys-20,true,1.00,5269,466,5263,425,217938,0
Krys-21,true,1.00,2097,318,2095,274,106156,0
Krys-22,true,1.00,2220,292,2213,252,105736,0
Krys-23,true,1.00,3109,390,3100,344,125258,0
Krys-24,true,1.00,5536,372,5530,326,226601,0
Krys-25,true,1.00,3602,376,3594,321,148765,0
Krys-26,true,1.00,2310,282,2304,243,119540,0
Krys-27,true,1.00,4388,404,4381,371,197965,0
Krys-28,true,1.00,4365,371,4361,331,197129,0
Krys-29,true,1.00,4782,456,4772,415,186490,0
Krys-30,true,1.00,3949,450,3939,406,151448,0
Krys-31,true,1.00,2769,378,2762,338,109864,0
Krys-32,true,1.00,2015,355,2006,328,78102,0
Krys-33,true,1.00,1434,330,1430,280,56189,0
Krys-34,true,1.00,3688,375,3682,328,154287,0
Krys-35,true,1.00,2297,323,2290,271,105722,0
Krys-36,false,0.91,25278,999,25270,999,1001110,0
Krys-37,true,1.00,5510,432,5506,388,254521,0
Krys-38,true,1.00,6685,446,6677,383,313085,0
Krys-39,true,1.00,5322,387,5316,325,234498,0
Krys-40,true,1.00,4956,381,4952,340,231563,0
Krys-41,true,1.00,5660,405,5652,360,249001,0
Krys-42,true,1.00,3082,330,3076,274,156755,0
Krys-43,true,1.00,1615,295,1605,258,74949,0
Krys-44,true,1.00,6842,417,6839,375,312394,0
Krys-45,true,1.00,2750,348,2745,303,105821,0
Krys-46,true,1.00,5099,533,5087,490,200944,0
Krys-47,true,1.00,4366,429,4360,376,175688,0
Krys-48,true,1.00,1976,339,1967,297,98950,0
Krys-49,true,1.00,4424,419,4412,371,168063,0
Krys-50,true,1.00,7756,521,7750,466,329417,0
Krys-51,true,1.00,3668,337,3662,301,176932,0
Krys-52,true,1.00,3888,470,3881,428,153456,0
Krys-53,true,1.00,3048,400,3037,356,126546,0
Krys-54,true,1.00,5686,471,5677,439,253707,0
Krys-55,true,1.00,5402,484,5390,440,216337,0
Krys-56,true,1.00,931,292,928,256,42770,0
Krys-57,true,1.00,1345,273,1334,238,63620,0
Krys-58,true,1.00,4179,471,4168,431,169184,0
Krys-59,true,1.00,4203,390,4198,347,159937,0
Krys-60,true,1.00,4760,392,4755,330,201357,0
Krys-61,true,1.00,3027,375,3020,332,120793,0
Krys-62,true,1.00,3138,359,3133,320,119549,0
Krys-63,true,1.00,6713,506,6707,460,269427,0
Krys-64,true,1.00,4592,453,4581,416,190002,0
Krys-65,true,1.00,3357,376,3350,337,130930,0
Krys-66,true,1.00,4871,392,4865,364,186724,0
Krys-67,true,1.00,3584,408,3575,359,145562,0
Krys-68,true,1.00,3078,333,3073,289,158516,0
Krys-69,true,1.00,4944,470,4937,421,207265,0
Krys-70,true,1.00,8130,509,8127,443,344712,0
Krys-71,true,1.00,4118,390,4110,353,206298,0
Krys-72,true,1.00,2745,396,2737,354,107180,0
Krys-73,true,1.00,6427,424,6421,370,273705,0
Krys-74,true,1.00,2683,350,2673,300,124202,0
Krys-75,true,1.00,1959,361,1950,316,77046,0
Krys-76,true,1.00,3010,304,3002,255,153657,0
Krys-77,true,1.00,1746,311,1738,266,83349,0
Krys-78,true,1.00,4476,371,4473,333,190721,0
Krys-79,true,1.00,2417,345,2407,284,95080,0
Krys-80,true,1.00,1821,345,1815,296,77080,0
Krys-81,true,1.00,3635,401,3630,340,150292,0
Krys-82,true,1.00,2249,346,2240,303,89261,0
Krys-83,false,0.91,25930,999,25924,999,1031444,0
Krys-84,true,1.00,676,306,668,263,29820,0
Krys-85,true,1.00,6151,491,6145,445,248918,0
Krys-86,true,1.00,2890,389,2883,344,121914,0
Krys-87,true,1.00,2030,329,2023,299,80145,0
Krys-88,true,1.00,3033,405,3019,367,127362,0
Krys-89,true,1.00,3589,383,3579,347,140926,0
Krys-90,true,1.00,3394,307,3392,249,171922,0
Krys-91,true,1.00,777,309,771,276,32194,0
Krys-92,false,0.91,25496,999,25489,999,959149,0
Krys-93,true,1.00,3235,336,3228,279,155850,0
Krys-94,true,1.00,2374,330,2361,282,111874,0
Krys-95,true,1.00,2130,340,2125,296,87777,0
Krys-96,true,1.00,3794,346,3786,305,192393,0
Krys-97,true,1.00,4298,406,4295,357,172008,0
Krys-98,true,1.00,7747,555,7735,516,297621,0
Krys-99,true,1.00,2933,407,2926,363,115834,0
Krys-100,true,1.00,2290,296,2286,252,118981,0
