NDW:0.0
TTFW:0.2
DFPT:2.0
DFPAP:3.0
DFPMP:5.0
RIGHT_WINDOW_BORDER_X:350.0
level,win/fail,% travelled,run time,game ticks,planning time,total plannings,nodes evaluated,most backtracked nodes
Krys-1,true,1.00,12426,473,12426,429,708944,0
Krys-2,false,0.79,21286,999,21279,999,1149444,0
Krys-3,false,0.70,31040,999,31040,999,1830958,0
Krys-4,true,1.00,10351,391,10350,342,552217,0
Krys-5,true,1.00,6493,289,6492,242,366017,0
Krys-6,true,1.00,7021,297,7021,257,373075,0
Krys-7,true,1.00,7687,307,7687,269,405715,0
Krys-8,true,1.00,8220,325,8217,275,426192,0
Krys-9,true,1.00,7697,298,7697,261,431730,0
Krys-10,true,1.00,8536,324,8534,287,450498,0
Krys-11,true,1.00,8990,347,8988,305,440724,0
Krys-12,false,0.70,31557,999,31556,999,1665085,0
Krys-13,true,1.00,7454,316,7453,270,402992,0
Krys-14,true,1.00,6431,297,6429,260,329468,0
Krys-15,true,1.00,10380,384,10380,340,566345,0
Krys-16,true,1.00,8156,320,8154,279,402055,0
Krys-17,true,1.00,9672,353,9671,322,526537,0
Krys-18,true,1.00,7663,312,7660,276,388860,0
Krys-19,true,1.00,7847,319,7845,277,431791,0
Krys-20,false,0.69,8846,283,8846,283,465110,0
Krys-21,true,1.00,7458,284,7457,243,415976,0
Krys-22,true,1.00,7878,299,7876,255,430568,0
Krys-23,true,1.00,10117,386,10116,336,530299,0
Krys-24,false,0.70,30616,999,30614,999,1733034,0
Krys-25,true,1.00,10573,382,10573,337,577214,0
Krys-26,true,1.00,6379,275,6378,238,367008,0
Krys-27,true,1.00,7794,304,7793,266,431439,0
Krys-28,true,1.00,8212,318,8211,272,468686,0
Krys-29,true,1.00,9126,356,9126,319,478134,0
Krys-30,true,1.00,10669,394,10668,353,548742,0
Krys-31,true,1.00,8209,326,8208,289,422849,0
Krys-32,true,1.00,8020,308,8019,269,419944,0
Krys-33,true,1.00,8008,312,8008,271,391956,0
Krys-34,true,1.00,8309,338,8308,292,451287,0
Krys-35,true,1.00,7048,302,7048,260,388199,0
Krys-36,false,0.91,30791,999,30789,999,1772803,0
Krys-37,true,1.00,9062,357,9061,314,516552,0
Krys-38,true,1.00,11173,405,11172,347,677277,0
Krys-39,false,0.91,31027,999,31027,999,1693879,0
Krys-40,true,1.00,9614,366,9614,317,536123,0
Krys-41,true,1.00,9360,358,9359,314,531427,0
Krys-42,true,1.00,7154,297,7152,256,394936,0
Krys-43,true,1.00,5405,274,5403,228,283252,0
Krys-44,true,1.00,9606,360,9605,316,539707,0
Krys-45,true,1.00,8091,324,8089,275,411494,0
Krys-46,true,1.00,9020,358,9020,320,476659,0
Krys-47,true,1.00,8479,325,8477,284,451030,0
Krys-48,true,1.00,7137,305,7137,255,392286,0
Krys-49,true,1.00,9631,376,9629,327,502306,0
Krys-50,false,0.70,31020,999,31018,999,1793089,0
Krys-51,false,0.30,3472,128,3472,128,183497,0
Krys-52,true,1.00,9565,361,9564,314,474644,0
Krys-53,true,1.00,9082,358,9081,314,484019,0
Krys-54,true,1.00,11004,384,11003,351,615987,0
Krys-55,true,1.00,9467,373,9466,314,515602,0
Krys-56,true,1.00,5752,275,5751,237,297026,0
Krys-57,true,1.00,6239,310,6237,266,349403,0
Krys-58,true,1.00,9248,368,9246,324,490077,0
Krys-59,true,1.00,8772,358,8771,314,450760,0
Krys-60,false,0.91,31024,999,31023,999,1665000,0
Krys-61,true,1.00,8305,340,8304,300,443311,0
Krys-62,true,1.00,9018,353,9017,312,442417,0
Krys-63,true,1.00,13262,490,13260,429,728042,0
Krys-64,true,1.00,11199,406,11199,365,611838,0
Krys-65,true,1.00,8492,353,8471,309,450468,0
Krys-66,true,1.00,9753,347,9752,316,494112,0
Krys-67,true,1.00,9288,361,9287,318,504996,0
Krys-68,true,1.00,7239,320,7238,277,417787,0
Krys-69,true,1.00,10484,405,10484,366,589112,0
Krys-70,false,0.80,30972,999,30972,999,1781164,0
Krys-71,true,1.00,8025,306,8025,277,461247,0
Krys-72,true,1.00,10605,387,10605,345,534373,0
Krys-73,false,0.80,30976,999,30974,999,1633817,0
Krys-74,true,1.00,7369,318,7368,276,391283,0
Krys-75,true,1.00,7535,327,7532,285,376136,0
Krys-76,true,1.00,7818,317,7818,268,461377,0
Krys-77,true,1.00,7920,309,7918,264,430113,0
Krys-78,true,1.00,11330,412,11330,379,613963,0
Krys-79,true,1.00,8739,353,8739,301,442329,0
Krys-80,true,1.00,9257,336,9255,295,461899,0
Krys-81,true,1.00,8310,328,8305,287,435400,0
Krys-82,true,1.00,7457,319,7455,275,379672,0
Krys-83,false,0.91,31049,999,31049,999,1696648,0
Krys-84,true,1.00,6410,295,6405,248,341355,0
Krys-85,true,1.00,9938,369,9936,327,526565,0
Krys-86,true,1.00,7925,332,7921,291,419985,0
Krys-87,true,1.00,7535,315,7534,283,385480,0
Krys-88,true,1.00,10115,388,10113,347,543159,0
Krys-89,true,1.00,8601,346,8597,303,451420,0
Krys-90,true,1.00,8143,323,8142,282,484353,0
Krys-91,true,1.00,7414,295,7413,256,378788,0
Krys-92,false,0.91,30952,999,30950,999,1720272,0
Krys-93,true,1.00,5916,265,5913,233,308039,0
Krys-94,true,1.00,8818,325,8818,285,490558,0
Krys-95,true,1.00,6181,293,6178,252,312509,0
Krys-96,true,1.00,5560,279,5557,229,324249,0
Krys-97,false,0.70,6407,239,6406,239,337023,0
Krys-98,true,1.00,13099,455,13099,415,677105,0
Krys-99,true,1.00,9239,352,9239,311,458439,0
Krys-100,true,1.00,7509,299,7508,252,421207,0
