NDW:0.0
TTFW:1.2
DFPT:2.0
DFPAP:3.0
DFPMP:1.0
RIGHT_WINDOW_BORDER_X:295.0
level,win/fail,% travelled,run time,game ticks,planning time,total plannings,nodes evaluated,most backtracked nodes
Mario-1,true,1.00,472,382,471,336,49421,0
Mario-2,true,1.00,897,331,893,304,100642,0
Mario-3,true,1.00,1338,287,1315,223,166445,0
Mario-4,true,1.00,921,395,916,333,83286,0
Mario-5,true,1.00,817,465,814,413,72757,0
Mario-6,true,1.00,1014,256,1013,227,123405,0
Mario-7,true,1.00,637,406,633,359,66919,0
Mario-8,true,1.00,841,433,838,371,85141,0
Mario-9,true,1.00,460,429,457,383,47992,0
Mario-10,true,1.00,1918,333,1917,275,241919,0
Mario-11,true,1.00,937,439,935,378,92596,0
Mario-12,true,1.00,847,662,843,610,70849,0
Mario-13,true,1.00,1729,361,1726,327,206888,0
Mario-14,true,1.00,539,388,536,339,54614,0
Mario-15,true,1.00,1735,798,1731,754,173429,0
