NDW:0.0
TTFW:1.4
DFPT:2.0
DFPAP:3.0
DFPMP:3.0
RIGHT_WINDOW_BORDER_X:255.0
level,win/fail,% travelled,run time,game ticks,planning time,total plannings,nodes evaluated,most backtracked nodes
Krys-1,true,1.00,7766,551,7748,520,332343,0
Krys-2,true,1.00,2449,405,2440,348,101597,0
Krys-3,true,1.00,7325,547,7318,498,340965,0
Krys-4,true,1.00,2651,434,2639,371,106695,0
Krys-5,true,1.00,1772,344,1762,304,98359,0
Krys-6,true,1.00,1443,343,1430,309,66581,0
Krys-7,true,1.00,465,359,457,308,21188,0
Krys-8,true,1.00,1941,431,1923,381,87021,0
Krys-9,true,1.00,2407,335,2398,299,136333,0
Krys-10,true,1.00,3270,396,3258,339,160637,0
Krys-11,true,1.00,367,394,358,332,14280,0
Krys-12,true,1.00,3939,400,3928,348,167722,0
Krys-13,true,1.00,3884,429,3877,371,203941,0
Krys-14,true,1.00,2794,387,2784,347,115119,0
Krys-15,true,1.00,4310,430,4302,381,214603,0
Krys-16,true,1.00,3373,453,3365,402,132756,0
Krys-17,true,1.00,1942,415,1927,366,83331,0
Krys-18,true,1.00,1883,438,1872,392,84851,0
Krys-19,true,1.00,3230,330,3225,296,160021,0
Krys-20,true,1.00,3522,480,3511,432,160010,0
Krys-21,true,1.00,1972,348,1967,301,115375,0
Krys-22,true,1.00,2380,361,2372,312,134717,0
Krys-23,true,1.00,1921,414,1915,353,83844,0
Krys-24,false,0.70,26623,999,26618,999,959326,0
Krys-25,true,1.00,2808,417,2800,348,129620,0
Krys-26,true,1.00,4046,381,4038,335,218775,0
Krys-27,true,1.00,3665,399,3656,364,167801,0
Krys-28,true,1.00,8042,557,8038,508,369413,0
Krys-29,true,1.00,2030,453,2011,415,84521,0
Krys-30,true,1.00,3854,510,3844,462,152496,0
Krys-31,true,1.00,2017,476,2005,419,89276,0
Krys-32,true,1.00,706,410,694,367,29103,0
Krys-33,true,1.00,578,370,569,318,27814,0
Krys-34,true,1.00,3273,434,3261,383,145360,0
Krys-35,true,1.00,2335,378,2327,341,117764,0
Krys-36,true,1.00,3895,447,3887,372,196406,0
Krys-37,true,1.00,5425,477,5415,439,267910,0
Krys-38,true,1.00,4188,441,4180,398,218915,0
Krys-39,true,1.00,4289,473,4281,398,219156,0
Krys-40,true,1.00,3442,421,3434,371,170635,0
Krys-41,true,1.00,5052,423,5041,383,249475,0
Krys-42,true,1.00,2410,365,2403,304,132130,0
Krys-43,true,1.00,1866,336,1857,296,104471,0
Krys-44,true,1.00,5345,445,5330,399,276224,0
Krys-45,true,1.00,2551,501,2536,456,97470,0
Krys-46,true,1.00,2598,469,2586,429,104940,0
Krys-47,true,1.00,1560,498,1547,435,67259,0
Krys-48,true,1.00,1945,351,1939,310,105319,0
Krys-49,true,1.00,1323,403,1314,360,59560,0
Krys-50,true,1.00,6472,464,6466,427,292514,0
Krys-51,true,1.00,4102,415,4089,358,206853,0
Krys-52,true,1.00,2025,450,2013,402,81241,0
Krys-53,true,1.00,2076,470,2063,439,84938,0
Krys-54,true,1.00,5462,478,5451,441,280442,0
Krys-55,true,1.00,2655,459,2644,418,117323,0
Krys-56,false,0.59,26265,999,26259,999,935204,0
Krys-57,true,1.00,2553,380,2541,343,130397,0
Krys-58,true,1.00,2593,458,2582,423,109443,0
Krys-59,false,0.89,23637,999,23628,999,801855,0
Krys-60,true,1.00,3305,429,3298,354,135363,0
Krys-61,true,1.00,2172,435,2155,384,90443,0
Krys-62,true,1.00,1917,446,1906,398,72657,0
Krys-63,true,1.00,4986,608,4969,556,197534,0
Krys-64,true,1.00,3169,501,3155,461,141283,0
Krys-65,true,1.00,3228,510,3210,472,114745,0
Krys-66,true,1.00,3649,420,3630,380,114485,0
Krys-67,true,1.00,3392,523,3375,471,143166,0
Krys-68,true,1.00,2879,333,2870,284,158466,0
Krys-69,true,1.00,8715,658,8700,609,334825,0
Krys-70,true,1.00,7672,565,7664,520,332460,0
Krys-71,true,1.00,2917,376,2907,330,170270,0
Krys-72,true,1.00,1380,479,1366,438,60374,0
Krys-73,true,1.00,5249,518,5238,478,242549,0
Krys-74,true,1.00,2157,422,2145,361,110496,0
Krys-75,true,1.00,1029,424,1017,364,38773,0
Krys-76,true,1.00,4243,358,4239,315,212297,0
Krys-77,true,1.00,1532,367,1522,307,86502,0
Krys-78,false,0.91,24194,999,24185,999,983227,0
Krys-79,true,1.00,1200,425,1190,352,48822,0
Krys-80,true,1.00,734,422,723,380,32700,0
Krys-81,true,1.00,1567,461,1558,402,76739,0
Krys-82,true,1.00,1492,410,1485,361,62029,0
Krys-83,true,1.00,4890,487,4881,408,170513,0
Krys-84,true,1.00,420,352,412,312,20045,0
Krys-85,true,1.00,3848,519,3835,471,162846,0
Krys-86,true,1.00,1848,401,1841,348,83271,0
Krys-87,true,1.00,1446,389,1434,346,54608,0
Krys-88,true,1.00,1692,447,1683,396,74753,0
Krys-89,true,1.00,1640,378,1629,338,77421,0
Krys-90,true,1.00,3459,361,3448,300,177102,0
Krys-91,true,1.00,490,397,477,365,21388,0
Krys-92,true,1.00,4248,460,4238,370,197793,0
Krys-93,true,1.00,2630,364,2622,327,130379,0
Krys-94,true,1.00,1788,395,1780,336,100606,0
Krys-95,true,1.00,1600,475,1585,416,68505,0
Krys-96,true,1.00,3989,387,3984,338,217549,0
Krys-97,true,1.00,2540,415,2530,372,117004,0
Krys-98,true,1.00,6103,603,6090,568,249263,0
Krys-99,true,1.00,1593,416,1582,358,60971,0
Krys-100,true,1.00,1973,342,1964,301,114451,0
