NDW:0.0
TTFW:1.4
DFPT:2.0
DFPAP:3.0
DFPMP:50.0
RIGHT_WINDOW_BORDER_X:295.0
level,win/fail,% travelled,run time,game ticks,planning time,total plannings,nodes evaluated,most backtracked nodes
patternCount-1,false,0.88,4702,426,4690,426,244505,0
patternCount-2,true,1.00,1119,439,1104,412,61911,0
patternCount-3,true,1.00,3404,479,3398,462,182330,0
patternCount-4,true,1.00,1220,441,1206,414,68952,0
patternCount-5,true,1.00,1429,462,1422,423,78017,0
patternCount-6,true,1.00,680,379,667,351,36212,0
patternCount-7,true,1.00,1528,425,1521,398,86115,0
patternCount-8,true,1.00,2826,426,2822,384,162257,0
patternCount-9,true,1.00,998,441,988,414,54543,0
patternCount-10,true,1.00,491,419,483,385,25472,0
patternCount-11,true,1.00,4850,575,4840,518,268613,0
patternCount-12,true,1.00,860,414,849,382,44894,0
patternCount-13,true,1.00,736,431,727,403,38565,0
patternCount-14,true,1.00,1477,434,1462,397,83067,0
patternCount-15,true,1.00,1185,454,1171,428,65117,0
patternCount-16,true,1.00,1263,431,1254,405,65592,0
patternCount-17,true,1.00,1380,518,1363,491,74215,0
patternCount-18,true,1.00,1287,433,1275,401,70392,0
patternCount-19,true,1.00,860,400,851,374,46147,0
patternCount-20,true,1.00,1332,470,1323,430,72616,0
patternCount-21,true,1.00,1219,484,1205,457,65645,0
patternCount-22,true,1.00,2769,509,2759,461,156789,0
patternCount-23,true,1.00,7394,604,7381,552,401460,0
patternCount-24,true,1.00,5018,444,5014,416,286681,0
patternCount-25,true,1.00,1287,457,1273,419,71822,0
patternCount-26,true,1.00,795,449,784,422,41868,0
patternCount-27,true,1.00,1209,427,1197,398,66764,0
patternCount-28,true,1.00,1199,458,1188,422,65514,0
patternCount-29,true,1.00,1494,457,1479,430,81065,0
patternCount-30,true,1.00,1245,491,1230,464,68241,0
patternCount-31,true,1.00,1701,481,1697,454,93134,0
patternCount-32,true,1.00,1558,473,1546,446,86045,0
patternCount-33,true,1.00,4762,534,4754,493,272750,0
patternCount-34,true,1.00,2310,500,2297,460,130583,0
patternCount-35,true,1.00,1644,509,1633,482,90202,0
patternCount-36,true,1.00,3407,580,3388,507,136533,0
patternCount-37,true,1.00,1122,408,1110,382,57657,0
patternCount-38,true,1.00,3171,485,3164,456,178012,0
patternCount-39,true,1.00,1020,449,1010,417,55371,0
patternCount-40,true,1.00,4870,494,4864,452,275089,0
patternCount-41,true,1.00,2615,464,2600,437,104796,0
patternCount-42,true,1.00,1092,440,1080,406,44427,0
patternCount-43,true,1.00,989,486,979,460,52382,0
patternCount-44,true,1.00,917,444,906,416,49948,0
patternCount-45,true,1.00,1341,422,1328,396,70347,0
patternCount-46,true,1.00,1480,456,1461,429,84015,0
patternCount-47,true,1.00,1908,459,1890,432,83004,0
patternCount-48,true,1.00,1522,419,1499,392,38794,0
patternCount-49,true,1.00,1668,426,1654,399,60215,0
patternCount-50,true,1.00,5055,556,5040,516,287104,0
patternCount-51,true,1.00,1021,416,1010,380,51521,0
patternCount-52,true,1.00,889,440,880,414,46632,0
patternCount-53,true,1.00,4190,444,4182,411,232814,0
patternCount-54,true,1.00,2180,544,2158,516,121358,0
patternCount-55,true,1.00,5308,481,5305,437,291549,0
patternCount-56,true,1.00,1316,441,1305,414,72918,0
patternCount-57,true,1.00,953,427,944,392,51499,0
patternCount-58,false,0.80,4679,451,4671,451,239668,0
patternCount-59,true,1.00,1281,457,1263,431,70731,0
patternCount-60,true,1.00,1188,445,1179,418,64705,0
patternCount-61,true,1.00,1363,496,1351,450,74119,0
patternCount-62,true,1.00,1343,406,1328,368,75448,0
patternCount-63,true,1.00,970,426,960,399,54156,0
patternCount-64,true,1.00,1142,407,1134,381,62645,0
patternCount-65,true,1.00,1062,445,1049,408,58399,0
patternCount-66,true,1.00,1654,493,1642,466,91704,0
patternCount-67,true,1.00,2099,441,2085,409,119239,0
patternCount-68,true,1.00,862,399,851,372,45824,0
patternCount-69,true,1.00,1037,463,1023,427,56913,0
patternCount-70,true,1.00,789,417,776,391,41854,0
patternCount-71,true,1.00,1635,497,1616,470,90061,0
patternCount-72,true,1.00,5581,498,5568,440,308013,0
patternCount-73,true,1.00,1815,516,1806,488,100300,0
patternCount-74,true,1.00,6567,521,6551,463,343078,0
patternCount-75,true,1.00,1188,440,1173,400,62922,0
patternCount-76,true,1.00,1281,456,1271,429,70805,0
patternCount-77,true,1.00,1280,396,1270,364,68496,0
patternCount-78,true,1.00,1682,476,1670,449,91723,0
patternCount-79,true,1.00,4578,490,4561,446,255857,0
patternCount-80,true,1.00,2726,467,2716,402,150348,0
patternCount-81,true,1.00,995,466,985,440,52396,0
patternCount-82,true,1.00,1080,412,1071,386,58404,0
patternCount-83,true,1.00,864,426,849,400,45570,0
patternCount-84,true,1.00,963,453,955,427,50712,0
patternCount-85,true,1.00,1142,430,1132,404,62247,0
patternCount-86,true,1.00,1078,437,1063,411,58729,0
patternCount-87,true,1.00,2063,492,2050,457,116520,0
patternCount-88,true,1.00,1414,458,1408,420,79729,0
patternCount-89,true,1.00,1299,465,1288,439,71712,0
patternCount-90,true,1.00,795,416,781,390,42003,0
patternCount-91,true,1.00,1821,493,1809,466,99683,0
patternCount-92,true,1.00,976,452,966,425,51446,0
patternCount-93,true,1.00,5737,527,5726,493,315258,0
patternCount-94,true,1.00,1572,465,1565,422,86997,0
patternCount-95,true,1.00,1744,457,1733,430,98773,0
patternCount-96,true,1.00,1267,497,1255,469,68947,0
patternCount-97,false,0.88,5102,437,5098,437,272140,0
patternCount-98,true,1.00,1627,482,1621,452,91009,0
patternCount-99,true,1.00,1067,480,1051,454,57523,0
patternCount-100,true,1.00,700,409,690,374,36262,0
