NDW:0.0
TTFW:0.4
DFPT:2.0
DFPAP:3.0
DFPMP:2.0
RIGHT_WINDOW_BORDER_X:400.0
level,win/fail,% travelled,run time,game ticks,planning time,total plannings,nodes evaluated,most backtracked nodes
ge-1,true,1.00,1429,240,1428,194,95017,0
ge-2,true,1.00,696,213,695,176,49393,0
ge-3,true,1.00,473,203,470,162,35694,0
ge-4,true,1.00,1282,217,1282,180,86881,0
ge-5,true,1.00,241,203,238,162,19938,0
ge-6,true,1.00,2132,246,2130,209,125457,0
ge-7,true,1.00,310,203,307,162,23869,0
ge-8,true,1.00,500,207,500,166,35615,0
ge-9,true,1.00,527,203,526,162,42872,0
ge-10,true,1.00,243,203,241,162,20257,0
ge-11,true,1.00,608,211,607,170,43996,0
ge-12,true,1.00,275,203,274,162,24000,0
ge-13,true,1.00,1757,223,1756,187,110088,0
ge-14,true,1.00,618,203,617,162,44087,0
ge-15,true,1.00,773,203,772,162,59819,0
ge-16,true,1.00,2528,267,2527,231,144480,0
ge-17,true,1.00,483,205,483,164,36264,0
ge-18,true,1.00,2134,230,2132,194,122741,0
ge-19,true,1.00,884,221,883,180,61835,0
ge-20,true,1.00,768,213,768,176,52808,0
ge-21,true,1.00,456,205,452,164,34972,0
ge-22,true,1.00,555,207,554,166,41051,0
ge-23,true,1.00,908,205,907,164,67481,0
ge-24,true,1.00,877,207,874,166,61464,0
ge-25,true,1.00,603,203,601,162,47802,0
ge-26,true,1.00,417,203,416,162,34512,0
ge-27,true,1.00,351,207,350,166,26847,0
ge-28,true,1.00,594,203,594,162,48069,0
ge-29,true,1.00,449,204,449,162,36980,0
ge-30,true,1.00,1593,218,1593,181,105546,0
ge-31,true,1.00,1691,230,1690,194,115487,0
ge-32,true,1.00,1105,236,1102,195,67414,0
ge-33,true,1.00,367,206,367,163,26723,0
ge-34,true,1.00,725,207,724,166,57162,0
ge-35,true,1.00,1572,223,1569,187,90990,0
ge-36,false,1.00,885,205,882,164,67132,0
ge-37,true,1.00,423,203,420,162,35725,0
ge-38,true,1.00,1440,225,1439,184,97415,0
ge-39,true,1.00,1232,210,1232,165,81272,0
ge-40,true,1.00,389,203,389,162,24826,0
ge-41,true,1.00,460,203,453,162,30853,0
ge-42,true,1.00,2502,241,2501,200,148260,0
ge-43,true,1.00,1087,225,1086,189,72051,0
ge-44,true,1.00,813,207,812,166,61778,0
ge-45,true,1.00,1366,237,1365,201,86205,0
ge-46,true,1.00,1876,263,1872,227,123784,0
ge-47,true,1.00,725,203,722,162,56991,0
ge-48,true,1.00,1120,219,1119,178,72270,0
ge-49,true,1.00,367,203,366,162,31634,0
ge-50,true,1.00,664,203,662,162,49606,0
ge-51,true,1.00,391,207,387,166,27323,0
ge-52,true,1.00,1119,224,1116,183,71002,0
ge-53,true,1.00,646,207,646,166,48113,0
ge-54,true,1.00,788,218,786,177,51049,0
ge-55,true,1.00,1319,222,1316,180,88613,0
ge-56,true,1.00,602,207,601,170,44196,0
ge-57,true,1.00,654,214,651,172,50344,0
ge-58,true,1.00,932,233,929,196,56341,0
ge-59,true,1.00,785,203,784,162,64401,0
ge-60,true,1.00,849,203,847,162,63991,0
ge-61,true,1.00,450,203,449,162,36328,0
ge-62,true,1.00,764,207,764,166,57997,0
ge-63,true,1.00,981,207,978,166,75607,0
ge-64,false,1.00,617,232,615,191,42663,0
ge-65,true,1.00,719,205,716,164,55650,0
ge-66,true,1.00,1153,210,1152,162,83959,0
ge-67,true,1.00,924,211,921,174,60366,0
ge-68,true,1.00,425,207,424,166,29781,0
ge-69,true,1.00,313,203,313,162,26502,0
ge-70,true,1.00,670,203,668,162,50978,0
ge-71,true,1.00,1251,227,1251,186,92470,0
ge-72,true,1.00,1173,224,1170,188,70725,0
ge-73,true,1.00,484,203,481,162,41585,0
ge-74,true,1.00,1001,205,998,164,74838,0
ge-75,true,1.00,744,231,743,184,49904,0
ge-76,true,1.00,811,209,809,168,62996,0
ge-77,true,1.00,1540,218,1539,177,107120,0
ge-78,true,1.00,1809,224,1808,187,117269,0
ge-79,true,1.00,498,213,497,172,35894,0
ge-80,true,1.00,532,210,527,162,39093,0
ge-81,true,1.00,509,207,508,166,34932,0
ge-82,true,1.00,987,221,986,175,60465,0
ge-83,false,1.00,993,224,992,179,61884,0
ge-84,true,1.00,566,205,565,164,45716,0
ge-85,true,1.00,543,203,541,162,42965,0
ge-86,true,1.00,853,204,852,162,66876,0
ge-87,true,1.00,1021,211,1019,170,70131,0
ge-88,true,1.00,700,219,699,166,47756,0
ge-89,true,1.00,1152,248,1151,197,66875,0
ge-90,true,1.00,261,203,259,162,22860,0
ge-91,true,1.00,494,203,492,162,40704,0
ge-92,true,1.00,292,209,290,168,23150,0
ge-93,true,1.00,776,206,775,164,59148,0
ge-94,true,1.00,660,203,659,162,46878,0
ge-95,true,1.00,1998,239,1997,185,115563,0
ge-96,true,1.00,770,209,766,162,54194,0
ge-97,true,1.00,1281,212,1280,173,80732,0
ge-98,true,1.00,256,203,254,162,22443,0
ge-99,true,1.00,375,203,372,162,32151,0
ge-100,true,1.00,297,203,295,162,25925,0
