NDW:0.0
TTFW:0.4
DFPT:2.0
DFPAP:3.0
DFPMP:20.0
RIGHT_WINDOW_BORDER_X:35.0
level,win/fail,% travelled,run time,game ticks,planning time,total plannings,nodes evaluated,most backtracked nodes
hopper-1,false,0.20,3108,218,3107,218,238198,0
hopper-2,false,0.13,1534,130,1534,130,112630,0
hopper-3,false,0.31,2089,314,2088,314,168089,0
hopper-4,false,0.33,3248,369,3247,369,268624,0
hopper-5,false,0.13,1533,130,1532,130,112109,0
hopper-6,false,0.30,1193,247,1191,247,93524,0
hopper-7,false,0.13,1533,130,1533,130,112740,0
hopper-8,false,0.22,3946,288,3946,288,300006,0
hopper-9,false,0.13,1533,130,1533,130,112486,0
hopper-10,false,0.37,3779,374,3778,374,294759,0
hopper-11,false,0.22,2588,283,2587,283,206998,0
hopper-12,false,0.39,3434,405,3434,405,268392,0
hopper-13,false,0.13,1533,130,1533,130,112718,0
hopper-14,false,0.13,1534,130,1534,130,112737,0
hopper-15,false,0.13,1534,130,1534,130,112562,0
hopper-16,false,0.13,1534,130,1533,130,112690,0
hopper-17,false,0.31,951,218,950,218,74780,0
hopper-18,false,0.28,2575,269,2574,269,194816,0
hopper-19,false,0.41,3470,402,3468,402,280547,0
hopper-20,false,0.13,1533,130,1532,130,112639,0
hopper-21,false,0.13,1533,130,1533,130,112588,0
hopper-22,false,0.13,28998,999,28998,999,2071927,0
hopper-23,false,0.13,1534,130,1534,130,112903,0
hopper-24,false,0.19,2285,229,2282,229,191912,0
hopper-25,false,0.31,735,247,734,247,58256,0
hopper-26,false,0.13,1534,130,1534,130,112342,0
hopper-27,false,0.13,1534,130,1532,130,112531,0
hopper-28,false,0.19,4044,273,4044,273,338970,0
hopper-29,false,0.31,1673,335,1671,335,134776,0
hopper-30,false,0.13,1533,130,1532,130,112648,0
hopper-31,false,0.13,1533,130,1533,130,113074,0
hopper-32,false,0.33,1820,266,1820,266,139402,0
hopper-33,false,0.49,4029,447,4028,447,306683,0
hopper-34,false,0.13,1533,130,1533,130,112736,0
hopper-35,false,0.13,1533,130,1533,130,112726,0
hopper-36,false,0.13,1533,130,1533,130,112665,0
hopper-37,false,0.50,3818,457,3815,457,293769,0
hopper-38,false,0.13,2300,155,2298,155,170610,0
hopper-39,false,0.29,2668,256,2668,256,199418,0
hopper-40,false,0.21,27451,999,27449,999,2088033,0
hopper-41,false,0.28,1636,282,1635,282,140384,0
hopper-42,false,0.13,1533,130,1533,130,112838,0
hopper-43,false,0.13,1533,130,1533,130,112982,0
hopper-44,false,0.30,2778,274,2778,274,209490,0
hopper-45,false,0.21,1973,199,1972,199,152246,0
hopper-46,false,0.32,2886,329,2883,329,218335,0
hopper-47,false,0.32,1706,234,1705,234,129128,0
hopper-48,false,0.13,1532,130,1532,130,113333,0
hopper-49,false,0.13,1539,130,1538,130,112362,0
hopper-50,false,0.19,2770,215,2770,215,186231,0
hopper-51,false,0.38,3620,399,3617,399,280463,0
hopper-52,false,0.35,24847,999,24845,999,1968215,0
hopper-53,false,0.13,1533,130,1533,130,113276,0
hopper-54,false,0.32,2975,292,2972,292,226154,0
hopper-55,false,0.21,2554,267,2554,267,204096,0
hopper-56,false,0.29,2212,245,2211,245,169889,0
hopper-57,false,0.28,2895,240,2895,240,216005,0
hopper-58,false,0.32,2727,326,2724,326,205745,0
hopper-59,false,0.20,2766,266,2766,266,234184,0
hopper-60,false,0.30,846,261,844,261,69519,0
hopper-61,false,0.13,1533,130,1533,130,113167,0
hopper-62,false,0.13,1533,130,1532,130,112799,0
hopper-63,false,0.28,3048,346,3048,346,250778,0
hopper-64,false,0.13,1533,130,1531,130,113411,0
hopper-65,false,0.13,1533,130,1533,130,113317,0
hopper-66,false,0.30,956,221,955,221,73855,0
hopper-67,false,0.31,2082,253,2080,253,159031,0
hopper-68,false,0.28,26430,999,26430,999,2071589,0
hopper-69,false,0.20,1044,149,1042,149,78091,0
hopper-70,false,0.37,3550,378,3549,378,270594,0
hopper-71,false,0.29,2045,245,2044,245,158315,0
hopper-72,false,0.22,3100,224,3099,224,232980,0
hopper-73,false,0.13,1533,130,1532,130,113388,0
hopper-74,false,0.50,6864,612,6863,612,524857,0
hopper-75,false,0.13,1533,130,1531,130,113372,0
hopper-76,false,0.13,1533,130,1533,130,112540,0
hopper-77,false,0.39,3915,375,3915,375,295708,0
hopper-78,false,0.31,2402,252,2402,252,181211,0
hopper-79,false,0.13,1533,130,1532,130,113182,0
hopper-80,false,0.13,1534,130,1534,130,113317,0
hopper-81,false,0.13,1533,130,1532,130,113150,0
hopper-82,false,0.13,1534,130,1533,130,113309,0
hopper-83,false,0.13,1534,130,1534,130,113222,0
hopper-84,false,0.13,1533,130,1533,130,113198,0
hopper-85,false,0.30,2580,290,2575,290,196116,0
hopper-86,false,0.13,1533,130,1533,130,113335,0
hopper-87,false,0.13,1534,130,1534,130,113310,0
hopper-88,false,0.13,1534,130,1534,130,113157,0
hopper-89,false,0.13,1534,130,1533,130,112918,0
hopper-90,false,0.13,1533,130,1533,130,112110,0
hopper-91,false,0.40,2817,336,2817,336,211445,0
hopper-92,false,0.13,1533,130,1532,130,113395,0
hopper-93,false,0.29,1020,208,1019,208,80279,0
hopper-94,false,0.42,3099,386,3093,386,236461,0
hopper-95,false,0.28,3207,260,3205,260,241403,0
hopper-96,false,0.13,1533,130,1532,130,113102,0
hopper-97,false,0.13,1534,130,1533,130,113156,0
hopper-98,false,0.13,1533,130,1533,130,113174,0
hopper-99,false,0.13,1533,130,1533,130,113171,0
hopper-100,false,0.21,1679,184,1679,184,128241,0
