NDW:0.0
TTFW:1.8
DFPT:2.0
DFPAP:3.0
DFPMP:3.0
RIGHT_WINDOW_BORDER_X:155.0
level,win/fail,% travelled,run time,game ticks,planning time,total plannings,nodes evaluated,most backtracked nodes
notchParam-1,true,1.00,1522,352,1520,338,125747,0
notchParam-2,true,1.00,848,335,848,321,82832,0
notchParam-3,true,1.00,498,309,496,295,56910,0
notchParam-4,true,1.00,504,310,503,296,52354,0
notchParam-5,true,1.00,557,308,556,294,57803,0
notchParam-6,true,1.00,530,322,529,308,55838,0
notchParam-7,true,1.00,752,313,748,299,78306,0
notchParam-8,true,1.00,1005,323,1003,309,106881,0
notchParam-9,true,1.00,581,349,577,335,62235,0
notchParam-10,true,1.00,955,314,951,300,99073,0
notchParam-11,true,1.00,498,316,496,302,52023,0
notchParam-12,true,1.00,1032,339,1031,325,112200,0
notchParam-13,true,1.00,200,316,200,302,20471,0
notchParam-14,true,1.00,197,306,194,292,19054,0
notchParam-15,true,1.00,951,316,949,302,85551,0
notchParam-16,true,1.00,1216,351,1215,337,122763,0
notchParam-17,true,1.00,768,310,768,296,74876,0
notchParam-18,true,1.00,178,340,176,326,18836,0
notchParam-19,true,1.00,196,309,196,295,21354,0
notchParam-20,true,1.00,228,308,227,294,22533,0
notchParam-21,true,1.00,193,298,193,284,17862,0
notchParam-22,true,1.00,201,313,199,299,22240,0
notchParam-23,true,1.00,1038,341,1036,327,114041,0
notchParam-24,true,1.00,986,331,986,317,106032,0
notchParam-25,true,1.00,1093,322,1093,308,111276,0
notchParam-26,true,1.00,1090,350,1088,336,117608,0
notchParam-27,true,1.00,229,312,226,298,23101,0
notchParam-28,true,1.00,507,339,504,325,56118,0
notchParam-29,true,1.00,534,324,534,310,57788,0
notchParam-30,true,1.00,197,310,195,296,19389,0
notchParam-31,true,1.00,1412,350,1409,336,138509,0
notchParam-32,true,1.00,746,308,745,294,77261,0
notchParam-33,true,1.00,194,300,193,286,19318,0
notchParam-34,false,0.36,1067,157,1067,157,87810,0
notchParam-35,true,1.00,2111,408,2106,394,217359,0
notchParam-36,true,1.00,755,302,755,288,73057,0
notchParam-37,true,1.00,193,302,189,288,17863,0
notchParam-38,true,1.00,194,306,193,292,20704,0
notchParam-39,true,1.00,1217,325,1214,311,111707,0
notchParam-40,true,1.00,502,312,500,298,53066,0
notchParam-41,true,1.00,505,316,505,302,55612,0
notchParam-42,true,1.00,199,309,197,295,22004,0
notchParam-43,true,1.00,967,316,963,302,102816,0
notchParam-44,true,1.00,1001,330,997,316,107577,0
notchParam-45,true,1.00,1030,340,1030,321,111519,0
notchParam-46,true,1.00,1024,314,1021,300,102315,0
notchParam-47,true,1.00,198,309,196,295,24052,0
notchParam-48,true,1.00,175,329,170,315,21583,0
notchParam-49,true,1.00,203,329,202,310,22595,0
notchParam-50,true,1.00,212,319,209,305,21182,0
notchParam-51,true,1.00,194,308,192,294,19553,0
notchParam-52,true,1.00,1126,339,1125,325,105418,0
notchParam-53,true,1.00,1742,350,1742,336,168097,0
notchParam-54,true,1.00,1405,348,1402,334,137493,0
notchParam-55,true,1.00,209,316,206,302,23734,0
notchParam-56,true,1.00,164,310,162,296,17210,0
notchParam-57,true,1.00,1719,345,1717,331,186166,0
notchParam-58,true,1.00,538,338,536,324,57286,0
notchParam-59,true,1.00,1995,400,1991,386,209322,0
notchParam-60,true,1.00,452,333,451,319,48752,0
notchParam-61,true,1.00,1042,355,1041,341,111568,0
notchParam-62,true,1.00,700,302,698,288,67129,0
notchParam-63,true,1.00,584,333,581,319,61467,0
notchParam-64,true,1.00,503,324,502,310,54269,0
notchParam-65,true,1.00,507,337,506,323,54627,0
notchParam-66,true,1.00,504,337,501,323,53465,0
notchParam-67,true,1.00,1324,352,1322,338,122661,0
notchParam-68,false,0.36,1068,157,1066,157,87789,0
notchParam-69,true,1.00,689,308,686,294,63699,0
notchParam-70,true,1.00,1362,334,1357,320,126909,0
notchParam-71,true,1.00,583,369,581,355,66414,0
notchParam-72,true,1.00,483,335,481,321,56154,0
notchParam-73,true,1.00,467,310,467,296,50010,0
notchParam-74,true,1.00,544,331,543,317,57116,0
notchParam-75,true,1.00,548,335,543,321,65338,0
notchParam-76,true,1.00,1074,357,1072,343,112091,0
notchParam-77,true,1.00,508,306,505,292,56618,0
notchParam-78,true,1.00,1010,330,1008,316,106004,0
notchParam-79,true,1.00,498,319,497,305,54469,0
notchParam-80,true,1.00,202,311,200,297,22179,0
notchParam-81,true,1.00,539,345,537,326,62136,0
notchParam-82,true,1.00,196,305,192,291,20147,0
notchParam-83,true,1.00,196,302,195,288,21978,0
notchParam-84,true,1.00,876,312,875,298,86259,0
notchParam-85,true,1.00,1961,403,1958,389,202225,0
notchParam-86,true,1.00,1039,325,1036,311,109262,0
notchParam-87,true,1.00,200,324,198,310,22341,0
notchParam-88,true,1.00,240,314,238,300,24878,0
notchParam-89,true,1.00,197,304,193,290,19732,0
notchParam-90,true,1.00,199,309,196,295,20848,0
notchParam-91,true,1.00,1109,334,1106,320,109475,0
notchParam-92,true,1.00,1020,308,1017,294,100887,0
notchParam-93,true,1.00,1165,326,1163,312,123276,0
notchParam-94,true,1.00,1200,335,1198,321,123592,0
notchParam-95,true,1.00,1023,356,1022,342,114519,0
notchParam-96,true,1.00,501,326,499,312,57823,0
notchParam-97,true,1.00,509,325,508,311,51083,0
notchParam-98,true,1.00,195,302,194,288,19236,0
notchParam-99,true,1.00,1407,348,1406,334,137310,0
notchParam-100,false,0.67,1424,257,1424,257,123310,0
