NDW:0.0
TTFW:0.8
DFPT:2.0
DFPAP:3.0
DFPMP:20.0
RIGHT_WINDOW_BORDER_X:275.0
level,win/fail,% travelled,run time,game ticks,planning time,total plannings,nodes evaluated,most backtracked nodes
ge-1,true,1.00,500,229,499,193,45553,0
ge-2,true,1.00,548,222,547,197,57242,0
ge-3,true,1.00,205,203,204,178,19587,0
ge-4,true,1.00,968,241,966,211,95457,0
ge-5,true,1.00,64,199,64,174,7209,0
ge-6,true,1.00,450,232,449,207,37663,0
ge-7,true,1.00,142,218,141,192,13230,0
ge-8,true,1.00,232,209,230,184,20812,0
ge-9,true,1.00,432,211,431,186,45184,0
ge-10,true,1.00,62,199,62,174,6688,0
ge-11,true,1.00,198,209,198,184,19310,0
ge-12,true,1.00,66,199,64,174,7745,0
ge-13,true,1.00,419,236,415,211,35011,0
ge-14,true,1.00,195,216,193,180,18558,0
ge-15,true,1.00,551,211,551,186,53027,0
ge-16,true,1.00,514,289,512,264,34572,0
ge-17,true,1.00,267,211,266,178,25865,0
ge-18,true,1.00,323,238,322,214,25027,0
ge-19,true,1.00,595,250,591,225,59797,0
ge-20,true,1.00,395,213,394,188,37215,0
ge-21,true,1.00,227,201,226,176,22217,0
ge-22,true,1.00,298,208,296,177,28631,0
ge-23,true,1.00,546,209,544,179,52333,0
ge-24,true,1.00,376,218,375,187,34804,0
ge-25,true,1.00,332,201,331,176,34055,0
ge-26,true,1.00,230,205,227,180,24824,0
ge-27,true,1.00,74,207,72,182,7340,0
ge-28,true,1.00,494,203,492,178,48226,0
ge-29,true,1.00,234,209,231,174,23752,0
ge-30,true,1.00,656,239,653,204,59078,0
ge-31,true,1.00,682,252,679,225,65277,0
ge-32,true,1.00,206,221,201,196,18168,0
ge-33,true,1.00,138,216,137,179,13037,0
ge-34,true,1.00,526,216,522,185,52648,0
ge-35,true,1.00,369,233,365,208,32597,0
ge-36,true,1.00,626,228,624,194,60360,0
ge-37,true,1.00,258,199,256,174,27667,0
ge-38,true,1.00,529,215,529,190,54930,0
ge-39,true,1.00,387,217,386,191,35821,0
ge-40,true,1.00,65,199,64,174,7891,0
ge-41,true,1.00,226,201,226,176,23204,0
ge-42,true,1.00,610,217,605,192,54863,0
ge-43,true,1.00,334,224,332,197,29842,0
ge-44,true,1.00,447,217,447,192,46197,0
ge-45,true,1.00,540,219,540,194,46199,0
ge-46,true,1.00,680,227,676,202,63282,0
ge-47,true,1.00,795,232,794,207,77014,0
ge-48,true,1.00,379,238,376,213,33482,0
ge-49,true,1.00,163,199,163,174,17708,0
ge-50,true,1.00,497,205,495,180,48075,0
ge-51,true,1.00,147,208,145,182,13705,0
ge-52,true,1.00,588,290,586,264,46529,0
ge-53,true,1.00,243,216,242,191,24557,0
ge-54,true,1.00,585,225,584,200,61141,0
ge-55,true,1.00,413,218,410,193,38700,0
ge-56,true,1.00,375,244,373,206,35333,0
ge-57,true,1.00,477,221,475,186,48064,0
ge-58,true,1.00,323,249,321,216,24314,0
ge-59,true,1.00,663,207,661,182,69369,0
ge-60,true,1.00,525,201,524,176,51690,0
ge-61,true,1.00,262,203,262,178,28134,0
ge-62,true,1.00,506,207,503,182,51581,0
ge-63,true,1.00,718,209,717,184,79345,0
ge-64,true,1.00,292,243,291,207,26911,0
ge-65,true,1.00,554,217,554,192,53893,0
ge-66,true,1.00,524,220,521,184,53228,0
ge-67,true,1.00,268,243,267,218,22474,0
ge-68,true,1.00,180,233,179,208,15116,0
ge-69,true,1.00,163,199,161,174,16157,0
ge-70,true,1.00,327,202,327,177,32524,0
ge-71,true,1.00,871,234,869,209,88657,0
ge-72,true,1.00,236,247,233,217,19748,0
ge-73,true,1.00,397,211,395,186,43164,0
ge-74,true,1.00,776,248,770,223,73379,0
ge-75,true,1.00,254,225,251,190,24808,0
ge-76,true,1.00,673,226,671,201,65695,0
ge-77,true,1.00,694,225,691,200,67152,0
ge-78,true,1.00,599,238,598,202,56523,0
ge-79,true,1.00,178,209,175,179,17234,0
ge-80,true,1.00,143,216,142,175,12314,0
ge-81,true,1.00,121,209,118,184,10517,0
ge-82,true,1.00,226,247,224,202,16902,0
ge-83,false,1.00,209,248,206,194,17375,0
ge-84,true,1.00,562,211,560,186,55663,0
ge-85,true,1.00,275,209,275,184,30327,0
ge-86,true,1.00,661,212,660,176,66436,0
ge-87,true,1.00,502,211,500,186,50217,0
ge-88,true,1.00,556,228,555,190,55775,0
ge-89,true,1.00,349,242,346,216,27687,0
ge-90,true,1.00,63,199,61,174,7332,0
ge-91,true,1.00,265,199,264,174,26919,0
ge-92,true,1.00,60,205,60,180,6257,0
ge-93,true,1.00,567,205,566,180,57215,0
ge-94,true,1.00,398,208,398,181,39966,0
ge-95,true,1.00,220,255,219,228,15823,0
ge-96,true,1.00,600,244,599,198,57992,0
ge-97,true,1.00,552,245,550,220,54424,0
ge-98,true,1.00,62,199,60,174,7350,0
ge-99,true,1.00,164,199,164,174,16516,0
ge-100,true,1.00,70,205,70,180,8102,0
