NDW:0.0
TTFW:0.2
DFPT:2.0
DFPAP:3.0
DFPMP:20.0
RIGHT_WINDOW_BORDER_X:35.0
level,win/fail,% travelled,run time,game ticks,planning time,total plannings,nodes evaluated,most backtracked nodes
ge-1,false,0.21,681,121,681,121,60148,0
ge-2,false,0.41,3829,418,3829,418,355913,0
ge-3,true,1.00,1917,432,1915,428,173478,0
ge-4,false,0.37,1670,262,1668,262,158253,0
ge-5,true,1.00,75,369,70,365,12678,0
ge-6,false,0.54,2303,300,2302,300,204133,0
ge-7,true,1.00,511,410,509,406,53065,0
ge-8,false,0.68,1794,369,1790,369,162790,0
ge-9,false,0.35,1734,243,1733,243,157412,0
ge-10,true,1.00,78,374,76,370,13248,0
ge-11,false,0.92,991,429,991,429,96584,0
ge-12,true,1.00,67,361,62,357,12127,0
ge-13,true,1.00,4522,615,4517,611,402719,0
ge-14,false,0.22,1071,150,1071,150,89522,0
ge-15,false,0.37,2392,244,2390,244,212293,0
ge-16,false,0.10,1724,178,1721,178,196322,0
ge-17,false,0.24,956,141,956,141,86751,0
ge-18,false,0.09,259,68,257,68,30627,0
ge-19,false,0.18,859,134,859,134,75880,0
ge-20,false,0.51,1903,288,1901,288,167804,0
ge-21,false,0.35,1875,204,1873,204,159131,0
ge-22,false,0.70,1638,303,1635,303,144534,0
ge-23,false,0.77,3478,491,3476,491,322101,0
ge-24,false,0.71,1258,386,1251,386,116836,0
ge-25,false,0.63,862,304,861,304,80936,0
ge-26,false,0.49,1746,317,1743,317,164608,0
ge-27,true,1.00,56,354,56,350,10053,0
ge-28,false,0.36,2007,249,2007,249,179532,0
ge-29,false,0.37,1861,239,1860,239,161418,0
ge-30,false,0.10,258,71,258,71,31367,0
ge-31,false,0.24,1084,143,1083,143,99725,0
ge-32,true,1.00,744,416,744,412,70939,0
ge-33,true,1.00,1247,455,1243,451,117896,0
ge-34,false,0.13,432,89,432,89,43306,0
ge-35,false,0.16,29466,1008,29465,1008,2403303,0
ge-36,false,0.43,1786,306,1785,306,172896,0
ge-37,false,0.89,2983,472,2980,472,261038,0
ge-38,false,0.49,1146,257,1145,257,101608,0
ge-39,false,0.18,28999,999,28999,999,2558695,0
ge-40,true,1.00,61,343,59,334,11165,0
ge-41,false,0.50,1601,299,1601,299,144059,0
ge-42,false,0.18,1730,175,1730,175,154654,0
ge-43,false,0.37,576,187,576,187,50949,0
ge-44,false,0.33,2099,270,2098,270,184643,0
ge-45,false,0.21,929,140,929,140,85498,0
ge-46,false,0.30,2934,259,2931,259,251457,0
ge-47,false,0.16,295,94,295,94,28788,0
ge-48,false,0.63,1112,362,1109,362,104492,0
ge-49,false,0.90,1007,379,1005,379,91552,0
ge-50,false,0.34,2026,212,2025,212,178995,0
ge-51,false,0.84,854,382,853,382,81102,0
ge-52,false,0.31,3110,268,3110,268,279555,0
ge-53,false,0.21,2908,191,2908,191,250239,0
ge-54,false,0.91,2380,511,2376,511,214583,0
ge-55,false,0.84,1432,369,1430,369,129700,0
ge-56,false,0.12,304,85,303,85,30727,0
ge-57,false,0.08,6,28,6,28,1164,0
ge-58,true,1.00,1038,546,1036,539,101120,0
ge-59,false,0.38,1634,261,1632,261,150156,0
ge-60,false,0.21,28875,999,28873,999,2404271,0
ge-61,false,0.80,1121,364,1117,364,101759,0
ge-62,false,0.29,3095,257,3095,257,281686,0
ge-63,false,0.20,28950,999,28947,999,2561641,0
ge-64,false,0.70,657,328,656,328,63957,0
ge-65,false,0.38,1054,232,1053,232,100966,0
ge-66,false,0.23,1695,200,1692,200,155881,0
ge-67,true,1.00,2057,477,2055,473,182875,0
ge-68,true,1.00,1057,381,1051,377,91811,0
ge-69,false,0.82,2707,457,2705,457,242967,0
ge-70,false,0.85,1962,407,1960,407,179342,0
ge-71,false,0.28,1797,232,1797,232,173152,0
ge-72,false,0.98,613,443,610,443,62982,0
ge-73,false,0.94,2447,484,2446,484,224382,0
ge-74,false,0.46,1129,309,1128,309,106015,0
ge-75,false,0.83,2178,415,2176,415,200398,0
ge-76,false,0.13,883,122,883,122,84481,0
ge-77,false,0.10,2032,123,2032,123,208887,0
ge-78,false,0.55,1119,322,1117,322,103535,0
ge-79,false,0.99,1368,426,1368,426,123900,0
ge-80,true,1.00,66,357,65,348,11494,0
ge-81,true,1.00,73,350,72,346,12048,0
ge-82,true,1.00,105,389,104,385,16722,0
ge-83,false,0.09,607,89,607,89,71166,0
ge-84,false,0.11,3994,286,3993,286,390760,0
ge-85,false,0.41,1518,247,1518,247,135787,0
ge-86,false,0.80,3531,554,3526,554,312675,0
ge-87,false,0.60,1551,384,1549,384,147139,0
ge-88,false,0.16,2005,144,2005,144,185183,0
ge-89,true,1.00,1028,443,1023,436,99130,0
ge-90,true,1.00,55,341,53,332,10211,0
ge-91,false,0.87,1009,388,1008,388,93883,0
ge-92,true,1.00,110,395,108,390,17228,0
ge-93,false,0.40,390,205,390,205,36959,0
ge-94,false,0.71,1876,415,1874,415,171444,0
ge-95,true,1.00,140,405,137,401,20863,0
ge-96,false,0.32,1533,222,1532,222,141204,0
ge-97,false,0.61,1417,338,1415,338,132876,0
ge-98,true,1.00,61,349,58,345,11013,0
ge-99,false,0.31,2166,225,2165,225,175891,0
ge-100,false,0.12,2862,190,2861,190,269302,0
