NDW:0.0
TTFW:0.4
DFPT:2.0
DFPAP:3.0
DFPMP:2.0
RIGHT_WINDOW_BORDER_X:235.0
level,win/fail,% travelled,run time,game ticks,planning time,total plannings,nodes evaluated,most backtracked nodes
notchParam-1,true,1.00,976,304,974,281,88629,0
notchParam-2,true,1.00,1305,316,1300,295,110260,0
notchParam-3,true,1.00,810,320,809,299,72673,0
notchParam-4,true,1.00,849,314,846,293,74691,0
notchParam-5,true,1.00,808,310,807,288,73595,0
notchParam-6,true,1.00,830,300,827,279,76429,0
notchParam-7,true,1.00,1148,311,1145,290,102964,0
notchParam-8,true,1.00,1297,318,1296,297,116653,0
notchParam-9,true,1.00,910,316,910,293,80346,0
notchParam-10,true,1.00,1292,312,1291,291,113756,0
notchParam-11,true,1.00,746,306,743,285,68546,0
notchParam-12,true,1.00,1235,306,1235,285,110253,0
notchParam-13,true,1.00,520,297,520,276,50045,0
notchParam-14,true,1.00,478,298,477,277,46395,0
notchParam-15,true,1.00,1101,304,1099,283,97689,0
notchParam-16,true,1.00,1404,320,1403,299,125680,0
notchParam-17,true,1.00,1219,314,1217,293,111583,0
notchParam-18,true,1.00,792,330,787,309,65776,0
notchParam-19,true,1.00,425,302,422,281,40439,0
notchParam-20,true,1.00,454,300,450,279,43878,0
notchParam-21,true,1.00,490,298,489,277,46495,0
notchParam-22,true,1.00,476,306,475,285,45063,0
notchParam-23,true,1.00,1544,330,1543,309,130520,0
notchParam-24,true,1.00,1333,314,1331,293,120526,0
notchParam-25,true,1.00,1336,328,1335,302,117169,0
notchParam-26,true,1.00,1338,320,1337,294,118616,0
notchParam-27,true,1.00,455,298,453,277,44386,0
notchParam-28,true,1.00,822,314,822,293,72497,0
notchParam-29,true,1.00,841,306,840,285,76761,0
notchParam-30,true,1.00,474,296,472,275,46982,0
notchParam-31,true,1.00,1298,335,1296,314,112656,0
notchParam-32,true,1.00,1261,318,1260,297,114198,0
notchParam-33,true,1.00,498,294,497,273,49474,0
notchParam-34,true,1.00,1176,320,1175,299,104197,0
notchParam-35,true,1.00,1356,350,1353,327,114719,0
notchParam-36,true,1.00,1208,314,1207,293,112472,0
notchParam-37,true,1.00,546,300,545,279,52710,0
notchParam-38,true,1.00,507,302,506,281,49454,0
notchParam-39,true,1.00,1213,318,1211,297,106056,0
notchParam-40,true,1.00,710,308,708,287,64263,0
notchParam-41,true,1.00,755,308,746,287,68944,0
notchParam-42,true,1.00,565,325,563,299,52051,0
notchParam-43,true,1.00,1244,302,1241,281,111153,0
notchParam-44,true,1.00,1567,330,1566,309,140126,0
notchParam-45,true,1.00,1311,304,1307,281,119191,0
notchParam-46,true,1.00,1252,304,1249,283,112037,0
notchParam-47,true,1.00,445,300,443,279,43129,0
notchParam-48,true,1.00,476,308,476,287,43769,0
notchParam-49,true,1.00,560,311,560,285,51011,0
notchParam-50,true,1.00,731,318,730,297,59703,0
notchParam-51,true,1.00,428,306,426,285,41728,0
notchParam-52,true,1.00,1050,316,1048,295,95218,0
notchParam-53,true,1.00,1567,369,1565,343,136048,0
notchParam-54,true,1.00,1343,341,1342,320,114738,0
notchParam-55,true,1.00,659,310,657,289,56173,0
notchParam-56,true,1.00,486,296,483,275,46909,0
notchParam-57,true,1.00,1289,324,1285,303,116098,0
notchParam-58,true,1.00,925,331,923,310,81220,0
notchParam-59,true,1.00,1523,325,1519,304,130459,0
notchParam-60,true,1.00,1072,340,1070,319,89860,0
notchParam-61,true,1.00,1318,338,1316,317,115598,0
notchParam-62,true,1.00,1070,308,1069,287,92708,0
notchParam-63,true,1.00,822,308,821,287,73440,0
notchParam-64,true,1.00,732,298,730,277,68264,0
notchParam-65,true,1.00,755,310,753,289,69505,0
notchParam-66,true,1.00,788,306,786,285,71716,0
notchParam-67,true,1.00,976,304,973,283,88090,0
notchParam-68,true,1.00,1167,318,1162,297,102223,0
notchParam-69,true,1.00,1074,303,1072,282,95101,0
notchParam-70,true,1.00,1173,320,1169,299,105206,0
notchParam-71,true,1.00,900,328,898,307,80129,0
notchParam-72,true,1.00,798,322,796,301,71200,0
notchParam-73,true,1.00,767,308,764,287,69506,0
notchParam-74,true,1.00,795,316,793,295,70771,0
notchParam-75,true,1.00,873,324,872,301,77505,0
notchParam-76,true,1.00,1389,326,1387,300,121846,0
notchParam-77,true,1.00,857,316,856,295,76949,0
notchParam-78,true,1.00,1337,318,1335,297,119618,0
notchParam-79,true,1.00,845,312,844,291,77582,0
notchParam-80,true,1.00,702,310,699,289,60144,0
notchParam-81,true,1.00,785,306,782,283,72964,0
notchParam-82,true,1.00,486,304,486,283,46544,0
notchParam-83,true,1.00,455,302,453,281,44109,0
notchParam-84,true,1.00,1115,311,1113,290,98194,0
notchParam-85,true,1.00,1164,315,1163,294,101087,0
notchParam-86,true,1.00,1307,308,1305,287,115997,0
notchParam-87,true,1.00,463,294,461,273,46081,0
notchParam-88,true,1.00,480,312,477,291,44669,0
notchParam-89,true,1.00,512,300,508,279,49353,0
notchParam-90,true,1.00,470,294,468,273,46059,0
notchParam-91,true,1.00,1381,316,1379,295,117640,0
notchParam-92,true,1.00,1367,304,1365,283,120137,0
notchParam-93,true,1.00,1293,316,1291,295,115905,0
notchParam-94,true,1.00,1624,330,1620,309,141601,0
notchParam-95,true,1.00,1898,370,1894,349,156194,0
notchParam-96,true,1.00,768,304,766,283,73124,0
notchParam-97,true,1.00,789,302,787,281,71963,0
notchParam-98,true,1.00,476,294,475,273,47136,0
notchParam-99,true,1.00,1350,341,1344,320,117811,0
notchParam-100,true,1.00,1064,300,1062,279,96683,0
