NDW:0.0
TTFW:1.2
DFPT:2.0
DFPAP:3.0
DFPMP:20.0
RIGHT_WINDOW_BORDER_X:400.0
level,win/fail,% travelled,run time,game ticks,planning time,total plannings,nodes evaluated,most backtracked nodes
hopper-1,true,1.00,1262,325,1261,288,134510,0
hopper-2,true,1.00,1312,317,1310,280,136782,0
hopper-3,true,1.00,3250,369,3248,333,289626,0
hopper-4,false,0.28,1236,94,1235,94,114101,0
hopper-5,true,1.00,1072,326,1070,290,110309,0
hopper-6,true,1.00,1019,307,1016,271,106602,0
hopper-7,false,0.84,2009,255,2006,255,179857,0
hopper-8,true,1.00,3189,363,3187,327,277547,0
hopper-9,true,1.00,1102,320,1099,273,116309,0
hopper-10,true,1.00,1029,317,1028,281,111431,0
hopper-11,true,1.00,845,325,842,288,84031,0
hopper-12,true,1.00,876,320,874,283,97947,0
hopper-13,true,1.00,2855,373,2854,335,261799,0
hopper-14,true,1.00,1034,320,1031,284,110235,0
hopper-15,true,1.00,1203,301,1201,265,122821,0
hopper-16,true,1.00,3858,370,3855,334,345911,0
hopper-17,true,1.00,775,309,774,273,81836,0
hopper-18,true,1.00,985,310,983,274,98632,0
hopper-19,true,1.00,765,311,764,274,91019,0
hopper-20,true,1.00,1603,333,1602,288,168168,0
hopper-21,true,1.00,3176,366,3175,330,271191,0
hopper-22,false,0.33,1504,108,1504,108,133158,0
hopper-23,true,1.00,1180,310,1179,274,125466,0
hopper-24,true,1.00,824,311,824,268,85743,0
hopper-25,true,1.00,1154,309,1153,273,136389,0
hopper-26,true,1.00,1246,301,1245,265,126164,0
hopper-27,true,1.00,1076,299,1074,263,113188,0
hopper-28,false,0.86,2564,282,2562,282,266461,0
hopper-29,false,0.26,1434,93,1433,93,121222,0
hopper-30,true,1.00,1054,326,1052,278,110148,0
hopper-31,false,0.77,2124,244,2123,244,200749,0
hopper-32,true,1.00,1253,299,1253,263,137494,0
hopper-33,false,0.50,1534,174,1534,174,133595,0
hopper-34,true,1.00,2686,345,2684,309,216001,0
hopper-35,true,1.00,1765,328,1762,289,161307,0
hopper-36,true,1.00,900,314,899,278,81513,0
hopper-37,false,0.51,1412,166,1409,166,108039,0
hopper-38,true,1.00,1798,309,1793,273,172153,0
hopper-39,true,1.00,2932,358,2929,322,263254,0
hopper-40,true,1.00,1062,321,1059,285,104271,0
hopper-41,true,1.00,1536,301,1534,265,162430,0
hopper-42,true,1.00,1083,305,1078,269,110930,0
hopper-43,false,0.45,2275,151,2272,151,200985,0
hopper-44,true,1.00,1092,315,1091,279,126607,0
hopper-45,false,0.43,1917,147,1915,147,169205,0
hopper-46,false,0.68,2141,234,2141,234,210136,0
hopper-47,true,1.00,1400,305,1397,269,152781,0
hopper-48,true,1.00,1210,303,1206,266,128063,0
hopper-49,true,1.00,1214,315,1212,279,132473,0
hopper-50,true,1.00,3204,356,3201,320,284935,0
hopper-51,false,0.34,1700,115,1700,115,144848,0
hopper-52,true,1.00,757,307,752,270,84142,0
hopper-53,false,0.63,2186,220,2184,220,200741,0
hopper-54,true,1.00,646,297,644,261,65054,0
hopper-55,true,1.00,975,327,972,281,103638,0
hopper-56,true,1.00,731,297,730,261,82292,0
hopper-57,true,1.00,912,303,910,267,95457,0
hopper-58,true,1.00,3241,354,3240,317,303835,0
hopper-59,true,1.00,876,297,875,261,95136,0
hopper-60,true,1.00,942,328,941,284,107843,0
hopper-61,true,1.00,3093,341,3093,305,281494,0
hopper-62,true,1.00,1342,343,1339,286,140538,0
hopper-63,true,1.00,2794,368,2794,330,250782,0
hopper-64,true,1.00,1178,315,1178,279,119099,0
hopper-65,true,1.00,1189,318,1187,269,126335,0
hopper-66,true,1.00,2579,363,2575,327,231411,0
hopper-67,true,1.00,729,333,729,289,78535,0
hopper-68,true,1.00,670,328,670,290,66410,0
hopper-69,true,1.00,3136,383,3134,337,272261,0
hopper-70,true,1.00,1257,305,1256,267,131652,0
hopper-71,true,1.00,660,303,658,267,65428,0
hopper-72,true,1.00,1371,301,1368,265,146590,0
hopper-73,true,1.00,1143,297,1143,261,116156,0
hopper-74,true,1.00,909,305,908,269,88133,0
hopper-75,true,1.00,1170,297,1170,261,121142,0
hopper-76,true,1.00,2430,358,2430,313,223216,0
hopper-77,true,1.00,1193,350,1190,305,120627,0
hopper-78,true,1.00,1090,308,1087,260,127309,0
hopper-79,true,1.00,945,313,941,261,98199,0
hopper-80,true,1.00,954,311,954,275,96024,0
hopper-81,false,0.39,1708,123,1708,123,152727,0
hopper-82,true,1.00,1837,309,1837,267,181752,0
hopper-83,true,1.00,1408,313,1408,277,152115,0
hopper-84,true,1.00,1258,303,1256,267,131398,0
hopper-85,true,1.00,994,339,992,303,103335,0
hopper-86,true,1.00,1146,303,1142,267,119458,0
hopper-87,true,1.00,1223,313,1223,277,133579,0
hopper-88,true,1.00,883,309,882,273,97732,0
hopper-89,true,1.00,1008,336,1005,299,104025,0
hopper-90,true,1.00,1200,323,1197,276,130164,0
hopper-91,true,1.00,1182,322,1178,286,125580,0
hopper-92,true,1.00,1154,313,1154,277,118248,0
hopper-93,true,1.00,736,317,736,280,80957,0
hopper-94,true,1.00,2850,352,2848,316,255946,0
hopper-95,true,1.00,917,297,916,261,94527,0
hopper-96,true,1.00,1405,297,1401,261,150749,0
hopper-97,true,1.00,1443,323,1438,275,146394,0
hopper-98,true,1.00,1546,329,1545,293,161356,0
hopper-99,true,1.00,2116,317,2114,281,215690,0
hopper-100,true,1.00,1292,332,1292,285,134589,0
