NDW:0.0
TTFW:1.0
DFPT:2.0
DFPAP:3.0
DFPMP:1.0
RIGHT_WINDOW_BORDER_X:115.0
level,win/fail,% travelled,run time,game ticks,planning time,total plannings,nodes evaluated,most backtracked nodes
patternWeightCount-1,false,0.96,8250,710,8235,710,485400,0
patternWeightCount-2,true,1.00,953,444,949,427,55932,0
patternWeightCount-3,true,1.00,1032,458,1025,448,60640,0
patternWeightCount-4,true,1.00,761,418,750,408,42747,0
patternWeightCount-5,true,1.00,3124,531,3113,521,186651,0
patternWeightCount-6,true,1.00,1735,471,1725,461,102432,0
patternWeightCount-7,true,1.00,886,444,867,434,51422,0
patternWeightCount-8,true,1.00,971,453,958,443,50238,0
patternWeightCount-9,true,1.00,976,445,965,435,57783,0
patternWeightCount-10,true,1.00,933,449,928,439,53882,0
patternWeightCount-11,true,1.00,737,450,729,440,44179,0
patternWeightCount-12,true,1.00,2089,501,2073,491,122088,0
patternWeightCount-13,true,1.00,1223,456,1215,446,73911,0
patternWeightCount-14,true,1.00,1147,449,1138,439,68444,0
patternWeightCount-15,true,1.00,3574,476,3565,466,212454,0
patternWeightCount-16,true,1.00,4421,561,4413,544,273445,0
patternWeightCount-17,true,1.00,1046,470,1031,460,63733,0
patternWeightCount-18,true,1.00,1115,431,1108,421,67902,0
patternWeightCount-19,true,1.00,1106,430,1095,420,64380,0
patternWeightCount-20,false,0.61,4499,391,4492,391,265192,0
patternWeightCount-21,true,1.00,563,444,548,434,34563,0
patternWeightCount-22,true,1.00,4414,607,4402,591,272600,0
patternWeightCount-23,true,1.00,1701,469,1694,458,103673,0
patternWeightCount-24,true,1.00,2729,439,2722,429,159920,0
patternWeightCount-25,true,1.00,2307,497,2294,487,137987,0
patternWeightCount-26,true,1.00,2238,479,2230,469,137298,0
patternWeightCount-27,true,1.00,2654,565,2644,547,155541,0
patternWeightCount-28,true,1.00,1516,508,1503,498,92394,0
patternWeightCount-29,true,1.00,2159,456,2153,446,135404,0
patternWeightCount-30,false,0.85,4789,517,4783,517,270796,0
patternWeightCount-31,true,1.00,1338,423,1332,413,81783,0
patternWeightCount-32,true,1.00,535,424,525,414,32797,0
patternWeightCount-33,true,1.00,1455,518,1446,508,87446,0
patternWeightCount-34,true,1.00,2266,452,2254,442,135104,0
patternWeightCount-35,true,1.00,5470,609,5456,599,322422,0
patternWeightCount-36,true,1.00,2379,503,2368,493,143919,0
patternWeightCount-37,true,1.00,1694,442,1687,432,98561,0
patternWeightCount-38,false,0.94,5717,529,5708,529,338863,0
patternWeightCount-39,true,1.00,2957,486,2948,476,174870,0
patternWeightCount-40,true,1.00,2822,531,2811,521,178307,0
patternWeightCount-41,true,1.00,1937,517,1931,506,118234,0
patternWeightCount-42,false,0.87,5119,498,5114,498,293814,0
patternWeightCount-43,true,1.00,1188,419,1175,409,71026,0
patternWeightCount-44,true,1.00,1549,494,1541,481,97806,0
patternWeightCount-45,true,1.00,6158,651,6147,630,360368,0
patternWeightCount-46,false,0.83,3093,460,3082,460,189875,0
patternWeightCount-47,true,1.00,1621,463,1617,453,95708,0
patternWeightCount-48,true,1.00,866,409,851,399,52164,0
patternWeightCount-49,true,1.00,1252,415,1240,405,76088,0
patternWeightCount-50,true,1.00,811,420,802,410,46394,0
patternWeightCount-51,true,1.00,1271,466,1260,446,73517,0
patternWeightCount-52,true,1.00,1874,476,1857,462,108448,0
patternWeightCount-53,false,0.72,3087,448,3077,448,170800,0
patternWeightCount-54,true,1.00,1732,482,1723,472,100728,0
patternWeightCount-55,false,0.97,2965,500,2947,500,156686,0
patternWeightCount-56,true,1.00,1089,419,1077,409,62723,0
patternWeightCount-57,true,1.00,638,412,629,402,36129,0
patternWeightCount-58,true,1.00,1629,522,1621,511,95193,0
patternWeightCount-59,true,1.00,510,397,499,387,29632,0
patternWeightCount-60,true,1.00,2167,495,2157,483,125562,0
patternWeightCount-61,true,1.00,2018,432,2005,421,117443,0
patternWeightCount-62,true,1.00,3226,562,3217,548,186414,0
patternWeightCount-63,true,1.00,2362,464,2350,454,136605,0
patternWeightCount-64,true,1.00,2221,478,2213,468,126135,0
patternWeightCount-65,true,1.00,2069,494,2056,484,118056,0
patternWeightCount-66,true,1.00,1356,427,1348,417,78729,0
patternWeightCount-67,true,1.00,1127,483,1108,473,60154,0
patternWeightCount-68,false,0.85,20626,999,20617,999,733663,0
patternWeightCount-69,false,0.96,19505,999,19490,999,967037,0
patternWeightCount-70,true,1.00,1760,457,1749,446,99824,0
patternWeightCount-71,true,1.00,1113,461,1102,450,61272,0
patternWeightCount-72,false,0.80,6764,600,6758,600,370587,0
patternWeightCount-73,false,0.65,3242,999,3209,999,185754,0
patternWeightCount-74,true,1.00,832,423,821,413,48883,0
patternWeightCount-75,true,1.00,1103,419,1084,409,61469,0
patternWeightCount-76,true,1.00,1490,465,1485,455,87533,0
patternWeightCount-77,true,1.00,1462,415,1452,405,85851,0
patternWeightCount-78,true,1.00,4450,572,4440,562,254744,0
patternWeightCount-79,true,1.00,1975,462,1967,452,111880,0
patternWeightCount-80,true,1.00,1800,529,1787,519,105489,0
patternWeightCount-81,false,0.81,5308,518,5294,518,293477,0
patternWeightCount-82,true,1.00,338,408,329,396,18659,0
patternWeightCount-83,true,1.00,1142,395,1131,385,65384,0
patternWeightCount-84,true,1.00,787,462,774,452,45593,0
patternWeightCount-85,true,1.00,2840,498,2830,487,165631,0
patternWeightCount-86,false,0.93,8203,635,8195,635,452783,0
patternWeightCount-87,false,0.71,4945,445,4937,445,276157,0
patternWeightCount-88,true,1.00,1587,488,1572,474,93257,0
patternWeightCount-89,true,1.00,699,405,689,395,40742,0
patternWeightCount-90,false,0.86,20152,999,20143,999,1152910,0
patternWeightCount-91,true,1.00,1434,457,1417,447,84175,0
patternWeightCount-92,false,0.78,3357,487,3350,487,193929,0
patternWeightCount-93,false,0.89,4207,546,4196,546,234907,0
patternWeightCount-94,true,1.00,1881,448,1869,438,108989,0
patternWeightCount-95,true,1.00,2065,432,2060,422,119882,0
patternWeightCount-96,true,1.00,1098,490,1078,480,62862,0
patternWeightCount-97,true,1.00,2030,415,2019,405,125918,0
patternWeightCount-98,false,0.63,1140,296,1137,296,66051,0
patternWeightCount-99,true,1.00,1443,466,1431,456,87638,0
patternWeightCount-100,true,1.00,858,431,849,421,50250,0
