NDW:0.0
TTFW:1.6
DFPT:2.0
DFPAP:3.0
DFPMP:20.0
RIGHT_WINDOW_BORDER_X:176.0
level,win/fail,% travelled,run time,game ticks,planning time,total plannings,nodes evaluated,most backtracked nodes
ore-1,true,1.00,1404,451,1402,427,172091,0
ore-2,false,0.70,2686,345,2685,345,276806,0
ore-3,true,1.00,1393,478,1389,460,164933,0
ore-4,true,1.00,2210,501,2206,483,271138,0
ore-5,true,1.00,1606,393,1604,377,195337,0
ore-6,true,1.00,1730,440,1726,409,211068,0
ore-7,true,1.00,1608,443,1607,426,195046,0
ore-8,false,0.13,3018,134,3018,134,243528,0
ore-9,true,1.00,1222,395,1219,379,146776,0
ore-10,true,1.00,1697,486,1694,464,210766,0
ore-11,true,1.00,2261,518,2258,493,279689,0
ore-12,true,1.00,2365,497,2360,481,289609,0
ore-13,true,1.00,2168,527,2163,494,261513,0
ore-14,true,1.00,1546,425,1543,407,184102,0
ore-15,true,1.00,2391,430,2391,414,273005,0
ore-16,true,1.00,1373,461,1371,445,180948,0
ore-17,true,1.00,1359,455,1356,430,174249,0
ore-18,true,1.00,1691,501,1689,472,218916,0
ore-19,true,1.00,1521,446,1519,429,179825,0
ore-20,true,1.00,1514,465,1513,448,180655,0
ore-21,true,1.00,2010,495,2008,473,256854,0
ore-22,false,0.62,2291,303,2289,303,192835,0
ore-23,true,1.00,1636,434,1635,418,201419,0
ore-24,true,1.00,1786,568,1783,545,213960,0
ore-25,true,1.00,2101,459,2099,435,272794,0
ore-26,true,1.00,1621,455,1617,439,180982,0
ore-27,true,1.00,1376,395,1373,379,168109,0
ore-28,true,1.00,2235,451,2234,435,241733,0
ore-29,true,1.00,2451,433,2449,417,289098,0
ore-30,true,1.00,1713,460,1710,438,198177,0
ore-31,true,1.00,1401,444,1398,428,162905,0
ore-32,true,1.00,1474,450,1472,429,172356,0
ore-33,true,1.00,1460,511,1455,488,182683,0
ore-34,true,1.00,2227,495,2225,461,257736,0
ore-35,true,1.00,1914,417,1911,401,245112,0
ore-36,true,1.00,1096,424,1094,408,128418,0
ore-37,false,0.34,951,129,951,129,85628,0
ore-38,true,1.00,1359,429,1357,403,157761,0
ore-39,true,1.00,1677,476,1674,459,206545,0
ore-40,true,1.00,1430,453,1427,436,172689,0
ore-41,true,1.00,1806,446,1804,427,214684,0
ore-42,true,1.00,1748,533,1744,510,204300,0
ore-43,true,1.00,2192,494,2190,477,270229,0
ore-44,true,1.00,2076,456,2072,426,272800,0
ore-45,false,0.74,22992,999,22989,999,1426069,0
ore-46,false,0.12,799,56,799,56,71383,0
ore-47,true,1.00,2098,495,2094,476,258579,0
ore-48,true,1.00,1857,431,1852,415,242955,0
ore-49,true,1.00,1433,452,1430,429,174584,0
ore-50,true,1.00,2416,475,2413,459,268926,0
ore-51,true,1.00,1520,454,1520,408,187295,0
ore-52,true,1.00,1857,459,1855,432,230359,0
ore-53,true,1.00,1923,471,1920,454,208085,0
ore-54,false,0.71,2147,364,2144,364,222663,0
ore-55,true,1.00,1305,461,1305,443,165182,0
ore-56,true,1.00,1314,407,1312,391,162848,0
ore-57,true,1.00,1804,474,1801,443,225288,0
ore-58,true,1.00,2150,463,2147,447,247064,0
ore-59,true,1.00,2561,461,2559,445,313664,0
ore-60,true,1.00,3475,448,3474,429,413003,0
ore-61,true,1.00,1652,469,1646,445,185080,0
ore-62,true,1.00,1773,452,1768,436,205008,0
ore-63,true,1.00,2018,442,2014,416,240220,0
ore-64,true,1.00,1193,425,1189,407,145634,0
ore-65,true,1.00,2129,478,2127,460,261006,0
ore-66,true,1.00,1634,433,1632,416,207113,0
ore-67,true,1.00,1494,471,1492,444,170124,0
ore-68,true,1.00,1290,429,1288,413,151897,0
ore-69,true,1.00,1843,505,1841,489,224584,0
ore-70,false,0.95,3786,517,3781,517,386276,0
ore-71,true,1.00,1498,433,1492,417,179107,0
ore-72,true,1.00,1238,422,1234,402,153030,0
ore-73,true,1.00,2085,495,2083,466,270155,0
ore-74,true,1.00,2870,486,2868,464,292960,0
ore-75,true,1.00,1848,535,1843,519,210760,0
ore-76,true,1.00,1471,403,1466,387,163614,0
ore-77,true,1.00,1396,430,1395,411,127935,0
ore-78,true,1.00,2150,475,2144,459,271789,0
ore-79,true,1.00,1700,508,1696,491,198957,0
ore-80,true,1.00,1367,423,1364,405,161069,0
ore-81,true,1.00,1546,460,1545,444,192249,0
ore-82,true,1.00,1810,404,1807,388,214530,0
ore-83,true,1.00,1968,448,1964,432,225874,0
ore-84,false,0.13,801,67,801,67,54198,0
ore-85,true,1.00,2357,504,2353,479,281267,0
ore-86,true,1.00,2226,476,2221,459,272482,0
ore-87,true,1.00,1321,424,1318,400,151907,0
ore-88,true,1.00,1341,438,1340,422,171062,0
ore-89,true,1.00,1973,432,1970,416,239594,0
ore-90,true,1.00,2016,461,2010,423,254029,0
ore-91,true,1.00,1867,435,1862,419,230729,0
ore-92,true,1.00,1450,407,1450,391,176012,0
ore-93,true,1.00,4497,523,4496,507,468528,0
ore-94,true,1.00,1663,439,1661,414,198775,0
ore-95,true,1.00,2685,522,2683,505,317690,0
ore-96,true,1.00,1535,497,1529,478,179327,0
ore-97,true,1.00,1354,456,1351,432,159430,0
ore-98,true,1.00,1933,413,1932,396,229277,0
ore-99,true,1.00,1550,453,1546,436,193851,0
ore-100,true,1.00,1373,429,1368,411,180554,0
