NDW:0.0
TTFW:1.8
DFPT:2.0
DFPAP:3.0
DFPMP:0.0
RIGHT_WINDOW_BORDER_X:15.0
level,win/fail,% travelled,run time,game ticks,planning time,total plannings,nodes evaluated,most backtracked nodes
notchParamRand-1,false,0.08,1,61,1,61,447,0
notchParamRand-2,false,0.13,2,77,1,77,397,0
notchParamRand-3,false,0.23,18,136,2,136,623,0
notchParamRand-4,false,0.18,737,243,737,243,74323,0
notchParamRand-5,false,0.27,3,156,2,156,732,0
notchParamRand-6,false,0.28,302,211,302,211,30397,0
notchParamRand-7,false,0.09,1,55,1,55,318,0
notchParamRand-8,false,0.36,205,246,201,246,18303,0
notchParamRand-9,false,0.11,2,79,2,79,514,0
notchParamRand-10,false,0.18,6,153,5,153,1313,0
notchParamRand-11,false,0.48,6,261,2,261,1200,0
notchParamRand-12,false,0.32,7,228,6,228,1587,0
notchParamRand-13,false,0.16,2,106,1,106,588,0
notchParamRand-14,false,0.24,667,243,664,243,65391,0
notchParamRand-15,false,0.29,172,226,170,226,17752,0
notchParamRand-16,false,0.12,8,86,1,86,548,0
notchParamRand-17,true,1.00,24,549,12,547,2128,0
notchParamRand-18,false,0.18,102,176,94,176,3249,0
notchParamRand-19,false,0.09,8,92,5,92,722,0
notchParamRand-20,false,0.14,19,124,16,124,975,0
notchParamRand-21,false,0.18,21,118,19,118,645,0
notchParamRand-22,false,0.15,5,94,4,94,450,0
notchParamRand-23,false,0.24,257,232,242,232,13542,0
notchParamRand-24,false,0.50,12,313,7,313,1815,0
notchParamRand-25,false,0.12,3,82,3,82,510,0
notchParamRand-26,false,0.21,404,223,384,223,26912,0
notchParamRand-27,false,0.52,271,351,270,351,26469,0
notchParamRand-28,false,0.18,204,181,202,181,21086,0
notchParamRand-29,false,0.13,3,117,3,117,913,0
notchParamRand-30,false,0.17,3,113,2,113,613,0
notchParamRand-31,false,0.21,568,218,568,218,51123,0
notchParamRand-32,false,0.24,3,148,2,148,786,0
notchParamRand-33,false,0.19,149,163,148,163,15623,0
notchParamRand-34,false,0.20,2,115,1,115,554,0
notchParamRand-35,false,0.24,207,249,206,249,20618,0
notchParamRand-36,false,0.70,7,392,6,392,1525,0
notchParamRand-37,false,0.27,3,156,2,156,815,0
notchParamRand-38,false,0.04,1,30,1,30,247,0
notchParamRand-39,false,0.18,604,194,603,194,58379,0
notchParamRand-40,false,0.04,1,30,0,30,247,0
notchParamRand-41,false,0.20,9,134,2,134,918,0
notchParamRand-42,false,0.18,173,159,173,159,17240,0
notchParamRand-43,false,0.52,501,324,500,324,50130,0
notchParamRand-44,false,0.16,3,104,2,104,608,0
notchParamRand-45,false,0.11,2,76,2,76,488,0
notchParamRand-46,false,0.35,3,198,1,198,855,0
notchParamRand-47,false,0.05,29,36,2,36,262,0
notchParamRand-48,false,0.09,1,55,0,55,318,0
notchParamRand-49,false,0.14,2,85,2,85,437,0
notchParamRand-50,false,0.17,203,167,202,167,19337,0
notchParamRand-51,false,0.10,2,79,1,79,498,0
notchParamRand-52,false,0.29,185,230,183,230,18295,0
notchParamRand-53,false,0.12,77,999,74,999,13318,0
notchParamRand-54,false,0.10,10,80,2,80,499,0
notchParamRand-55,false,0.18,510,210,506,210,28280,0
notchParamRand-56,false,0.17,4,104,2,104,491,0
notchParamRand-57,false,0.24,205,198,205,198,21642,0
notchParamRand-58,false,0.17,2,113,1,113,660,0
notchParamRand-59,false,0.29,205,219,202,219,20266,0
notchParamRand-60,false,0.29,468,213,467,213,47772,0
notchParamRand-61,false,0.09,1,58,1,58,331,0
notchParamRand-62,false,0.07,1,45,1,45,287,0
notchParamRand-63,false,0.17,2,104,2,104,494,0
notchParamRand-64,false,0.36,237,256,236,256,23105,0
notchParamRand-65,false,0.17,4,139,2,139,942,0
notchParamRand-66,false,0.09,2,78,2,78,499,0
notchParamRand-67,false,0.34,5,208,5,208,947,0
notchParamRand-68,false,0.18,202,172,199,172,20972,0
notchParamRand-69,false,0.10,2,78,1,78,485,0
notchParamRand-70,false,0.21,238,221,237,221,23437,0
notchParamRand-71,false,0.24,236,197,234,197,22066,0
notchParamRand-72,false,0.52,206,331,206,331,21833,0
notchParamRand-73,false,0.27,5,183,3,183,1034,0
notchParamRand-74,true,1.00,10,567,7,565,2309,0
notchParamRand-75,false,0.14,4,111,3,111,820,0
notchParamRand-76,false,0.18,536,240,536,240,49991,0
notchParamRand-77,false,0.17,5,120,3,120,1138,0
notchParamRand-78,false,0.24,300,200,300,200,15421,0
notchParamRand-79,false,0.25,3,167,2,167,883,0
notchParamRand-80,false,0.10,2,60,2,60,335,0
notchParamRand-81,false,0.16,2,104,1,104,588,0
notchParamRand-82,false,0.09,1,55,1,55,318,0
notchParamRand-83,false,0.17,571,220,571,220,54755,0
notchParamRand-84,false,0.14,1,88,1,88,437,0
notchParamRand-85,true,1.00,9,538,5,536,2001,0
notchParamRand-86,false,0.21,107,203,105,203,11252,0
notchParamRand-87,false,0.16,2,106,2,106,593,0
notchParamRand-88,false,0.35,20,198,4,198,1037,0
notchParamRand-89,false,0.15,2,103,1,103,602,0
notchParamRand-90,false,0.06,1,42,1,42,278,0
notchParamRand-91,true,1.00,10,567,8,565,2280,0
notchParamRand-92,false,0.17,170,158,168,158,16308,0
notchParamRand-93,false,0.32,4,201,2,201,1054,0
notchParamRand-94,false,0.15,2,95,2,95,464,0
notchParamRand-95,false,0.19,402,179,402,179,36149,0
notchParamRand-96,false,0.37,240,312,238,312,22810,0
notchParamRand-97,false,0.04,1,30,1,30,247,0
notchParamRand-98,false,0.32,4,201,4,201,1064,0
notchParamRand-99,false,0.28,5,193,4,193,1272,0
notchParamRand-100,false,0.20,2,119,1,119,556,0
