NDW:0.0
TTFW:0.6
DFPT:2.0
DFPAP:3.0
DFPMP:1.0
RIGHT_WINDOW_BORDER_X:295.0
level,win/fail,% travelled,run time,game ticks,planning time,total plannings,nodes evaluated,most backtracked nodes
Krys-1,true,1.00,7688,462,7679,424,312626,0
Krys-2,true,1.00,4297,443,4290,392,166286,0
Krys-3,false,0.70,28137,999,28131,999,1172903,0
Krys-4,true,1.00,4893,441,4886,377,201046,0
Krys-5,true,1.00,1814,314,1808,263,95753,0
Krys-6,true,1.00,1717,339,1711,295,77904,0
Krys-7,true,1.00,918,308,911,262,40874,0
Krys-8,true,1.00,4403,447,4392,393,181655,0
Krys-9,true,1.00,2335,299,2332,262,119185,0
Krys-10,true,1.00,2718,345,2707,305,119107,0
Krys-11,true,1.00,1289,310,1284,264,51751,0
Krys-12,false,0.70,27516,999,27511,999,1086793,0
Krys-13,true,1.00,4435,359,4430,309,208354,0
Krys-14,true,1.00,1882,305,1874,268,73971,0
Krys-15,true,1.00,4463,395,4451,346,212755,0
Krys-16,true,1.00,3706,359,3695,313,143491,0
Krys-17,true,1.00,4254,374,4247,331,176748,0
Krys-18,true,1.00,4956,513,4945,466,196527,0
Krys-19,true,1.00,2486,317,2484,262,123922,0
Krys-20,true,1.00,5218,466,5209,425,221456,0
Krys-21,true,1.00,2076,318,2069,274,108327,0
Krys-22,true,1.00,2200,292,2194,252,107525,0
Krys-23,true,1.00,3065,390,3058,344,126820,0
Krys-24,true,1.00,5549,372,5540,326,230205,0
Krys-25,true,1.00,3571,376,3565,321,151696,0
Krys-26,true,1.00,2289,282,2283,243,121973,0
Krys-27,true,1.00,4346,457,4337,405,193635,0
Krys-28,true,1.00,4326,371,4317,331,201618,0
Krys-29,true,1.00,4650,454,4640,413,187667,0
Krys-30,true,1.00,3854,450,3842,406,155010,0
Krys-31,true,1.00,3492,414,3480,369,146631,0
Krys-32,true,1.00,1768,347,1762,320,71524,0
Krys-33,true,1.00,1379,330,1375,280,56602,0
Krys-34,true,1.00,3643,375,3642,328,159823,0
Krys-35,true,1.00,2259,323,2253,271,109479,0
Krys-36,false,0.91,25253,999,25252,999,1024831,0
Krys-37,true,1.00,5510,432,5506,388,255069,0
Krys-38,true,1.00,6233,429,6230,387,296973,0
Krys-39,true,1.00,5318,387,5313,325,235712,0
Krys-40,true,1.00,4951,381,4944,340,231784,0
Krys-41,true,1.00,5646,405,5640,360,249724,0
Krys-42,true,1.00,3082,330,3080,274,156137,0
Krys-43,true,1.00,1616,295,1615,258,74561,0
Krys-44,true,1.00,6842,417,6838,375,311589,0
Krys-45,true,1.00,2753,348,2748,303,105860,0
Krys-46,true,1.00,5089,533,5079,490,200659,0
Krys-47,true,1.00,4482,433,4473,388,179337,0
Krys-48,true,1.00,1977,339,1967,297,98962,0
Krys-49,true,1.00,4423,423,4416,371,167600,0
Krys-50,true,1.00,5904,441,5894,392,254854,0
Krys-51,true,1.00,3643,337,3634,301,179522,0
Krys-52,true,1.00,4511,486,4501,444,177360,0
Krys-53,true,1.00,3021,400,3019,356,128357,0
Krys-54,true,1.00,5723,465,5715,433,258595,0
Krys-55,true,1.00,5331,467,5325,421,219261,0
Krys-56,true,1.00,924,292,914,256,43178,0
Krys-57,true,1.00,1332,273,1325,238,64615,0
Krys-58,true,1.00,4139,471,4132,431,171897,0
Krys-59,true,1.00,4011,389,4005,344,155987,0
Krys-60,true,1.00,4742,392,4736,330,206339,0
Krys-61,true,1.00,2995,375,2988,332,121825,0
Krys-62,true,1.00,3104,359,3099,320,121189,0
Krys-63,true,1.00,6664,506,6652,460,271651,0
Krys-64,true,1.00,4563,453,4555,410,192040,0
Krys-65,true,1.00,3319,396,3307,361,132508,0
Krys-66,true,1.00,4832,392,4828,364,187817,0
Krys-67,true,1.00,3578,408,3574,359,145478,0
Krys-68,true,1.00,3073,333,3063,289,159288,0
Krys-69,true,1.00,4933,470,4925,421,206428,0
Krys-70,true,1.00,8119,509,8114,443,346403,0
Krys-71,true,1.00,4066,377,4058,340,206103,0
Krys-72,true,1.00,2741,396,2728,354,107280,0
Krys-73,true,1.00,6437,431,6429,373,274692,0
Krys-74,true,1.00,2688,350,2682,300,125021,0
Krys-75,true,1.00,1960,361,1953,316,77279,0
Krys-76,true,1.00,3007,304,3001,255,154724,0
Krys-77,true,1.00,1738,311,1733,266,83108,0
Krys-78,true,1.00,4466,371,4459,333,189998,0
Krys-79,true,1.00,2415,345,2410,284,94808,0
Krys-80,true,1.00,1832,346,1821,297,77209,0
Krys-81,true,1.00,3634,401,3628,340,150561,0
Krys-82,true,1.00,2240,346,2235,303,88066,0
Krys-83,true,1.00,5711,426,5703,359,234732,0
Krys-84,true,1.00,689,306,681,263,29713,0
Krys-85,true,1.00,6473,520,6463,474,256260,0
Krys-86,true,1.00,2908,389,2896,344,120362,0
Krys-87,true,1.00,2043,329,2037,299,79343,0
Krys-88,true,1.00,3034,405,3024,367,127650,0
Krys-89,true,1.00,3585,383,3579,347,141218,0
Krys-90,true,1.00,3458,320,3452,250,174668,0
Krys-91,true,1.00,768,309,761,276,32196,0
Krys-92,false,0.91,25507,999,25500,999,943739,0
Krys-93,true,1.00,3251,336,3243,279,152877,0
Krys-94,true,1.00,2391,330,2385,282,111547,0
Krys-95,true,1.00,2150,340,2143,296,86288,0
Krys-96,true,1.00,3809,346,3796,305,188205,0
Krys-97,true,1.00,4302,406,4297,357,173686,0
Krys-98,true,1.00,7731,555,7727,516,299131,0
Krys-99,true,1.00,2943,407,2939,363,115362,0
Krys-100,true,1.00,2290,296,2287,252,119044,0
