NDW:0.0
TTFW:0.2
DFPT:2.0
DFPAP:3.0
DFPMP:3.0
RIGHT_WINDOW_BORDER_X:350.0
level,win/fail,% travelled,run time,game ticks,planning time,total plannings,nodes evaluated,most backtracked nodes
Krys-1,true,1.00,12043,465,12041,418,685556,0
Krys-2,false,0.79,21287,999,21282,999,1148076,0
Krys-3,false,0.70,30995,999,30993,999,1825514,0
Krys-4,true,1.00,10356,391,10355,342,549576,0
Krys-5,true,1.00,6501,289,6501,242,364417,0
Krys-6,true,1.00,7640,318,7640,274,403594,0
Krys-7,true,1.00,7531,305,7531,264,395270,0
Krys-8,true,1.00,9725,368,9724,315,466468,0
Krys-9,true,1.00,7802,301,7802,264,436328,0
Krys-10,true,1.00,8615,326,8615,289,454259,0
Krys-11,true,1.00,8992,347,8991,305,438791,0
Krys-12,false,0.70,31566,999,31565,999,1653615,0
Krys-13,true,1.00,7198,307,7197,261,387171,0
Krys-14,true,1.00,7380,334,7379,291,373626,0
Krys-15,true,1.00,10252,386,10252,336,570211,0
Krys-16,true,1.00,8141,320,8140,279,406772,0
Krys-17,true,1.00,10923,388,10923,354,596870,0
Krys-18,true,1.00,7553,312,7552,275,381006,0
Krys-19,true,1.00,7884,320,7882,278,432162,0
Krys-20,true,1.00,9964,356,9964,316,528060,0
Krys-21,true,1.00,7506,286,7505,245,418520,0
Krys-22,true,1.00,7683,295,7682,251,420812,0
Krys-23,true,1.00,10186,388,10186,338,533910,0
Krys-24,false,0.70,30617,999,30616,999,1728570,0
Krys-25,false,0.18,31935,999,31935,999,1675515,0
Krys-26,true,1.00,6275,273,6275,235,361335,0
Krys-27,true,1.00,7766,309,7764,271,430781,0
Krys-28,true,1.00,8835,329,8833,283,495795,0
Krys-29,true,1.00,9792,374,9791,327,511232,0
Krys-30,true,1.00,9714,358,9714,320,497004,0
Krys-31,true,1.00,8213,326,8211,289,420709,0
Krys-32,true,1.00,8026,308,8026,269,418629,0
Krys-33,true,1.00,8025,313,8025,272,391432,0
Krys-34,true,1.00,9010,355,9010,313,491652,0
Krys-35,true,1.00,7517,310,7514,268,404616,0
Krys-36,true,1.00,8790,350,8787,302,450492,0
Krys-37,true,1.00,9065,357,9065,314,515712,0
Krys-38,true,1.00,10279,368,10279,324,616879,0
Krys-39,false,0.91,31014,999,31014,999,1700823,0
Krys-40,true,1.00,10484,384,10483,343,599516,0
Krys-41,true,1.00,9357,358,9355,314,533543,0
Krys-42,true,1.00,7260,299,7260,258,398998,0
Krys-43,true,1.00,6248,303,6246,259,336458,0
Krys-44,true,1.00,9238,355,9238,313,533054,0
Krys-45,true,1.00,8094,325,8094,275,412686,0
Krys-46,true,1.00,9579,366,9579,328,507301,0
Krys-47,true,1.00,8506,329,8504,285,454657,0
Krys-48,true,1.00,7136,305,7133,255,393196,0
Krys-49,true,1.00,9633,376,9632,327,502577,0
Krys-50,false,0.70,31005,999,31005,999,1796266,0
Krys-51,false,0.30,3469,128,3468,128,183901,0
Krys-52,true,1.00,9541,359,9541,312,473661,0
Krys-53,true,1.00,8912,350,8912,305,471931,0
Krys-54,true,1.00,11115,387,11114,354,627821,0
Krys-55,true,1.00,10027,408,10025,346,548926,0
Krys-56,true,1.00,5708,273,5706,235,294693,0
Krys-57,true,1.00,6067,299,6066,262,340385,0
Krys-58,true,1.00,9976,378,9976,341,527588,0
Krys-59,true,1.00,8753,358,8752,314,451434,0
Krys-60,false,0.91,31018,999,31017,999,1665984,0
Krys-61,true,1.00,8633,338,8631,306,465115,0
Krys-62,true,1.00,9014,353,9013,312,442686,0
Krys-63,true,1.00,13275,493,13274,432,698918,0
Krys-64,true,1.00,10931,395,10929,357,597660,0
Krys-65,true,1.00,8524,354,8522,310,453940,0
Krys-66,true,1.00,10241,362,10241,330,517302,0
Krys-67,true,1.00,9526,370,9525,326,520901,0
Krys-68,true,1.00,5738,276,5737,229,327309,0
Krys-69,true,1.00,10811,414,10810,376,607337,0
Krys-70,false,0.80,31143,999,31141,999,1651910,0
Krys-71,true,1.00,7879,302,7879,273,462839,0
Krys-72,true,1.00,10615,387,10615,345,531749,0
Krys-73,false,0.80,30983,999,30981,999,1629974,0
Krys-74,true,1.00,7393,317,7389,272,391631,0
Krys-75,true,1.00,6603,300,6601,258,330441,0
Krys-76,true,1.00,7918,316,7918,267,462162,0
Krys-77,true,1.00,7922,309,7922,264,429150,0
Krys-78,true,1.00,11332,412,11332,379,611123,0
Krys-79,true,1.00,8743,353,8742,301,440563,0
Krys-80,true,1.00,8867,325,8866,284,441202,0
Krys-81,true,1.00,8312,328,8312,287,433477,0
Krys-82,true,1.00,7742,326,7741,282,391819,0
Krys-83,false,0.91,31062,999,31060,999,1688465,0
Krys-84,true,1.00,6564,294,6562,249,347118,0
Krys-85,true,1.00,9676,364,9673,319,508704,0
Krys-86,true,1.00,7940,332,7939,291,418640,0
Krys-87,true,1.00,8916,358,8916,326,453530,0
Krys-88,true,1.00,9793,377,9793,336,520342,0
Krys-89,true,1.00,8195,329,8192,291,428110,0
Krys-90,true,1.00,8147,323,8147,282,482635,0
Krys-91,true,1.00,8039,307,8038,268,342227,0
Krys-92,false,0.91,31175,999,31164,999,1727063,0
Krys-93,true,1.00,6259,284,6258,240,326338,0
Krys-94,true,1.00,8323,314,8322,270,460976,0
Krys-95,true,1.00,5486,284,5486,243,282024,0
Krys-96,true,1.00,5564,279,5563,229,323600,0
Krys-97,false,0.70,6408,239,6406,239,337097,0
Krys-98,true,1.00,11913,420,11911,380,613913,0
Krys-99,true,1.00,8292,318,8291,280,414435,0
Krys-100,true,1.00,7823,306,7823,262,444190,0
