NDW:0.0
TTFW:0.6
DFPT:2.0
DFPAP:3.0
DFPMP:7.0
RIGHT_WINDOW_BORDER_X:135.0
level,win/fail,% travelled,run time,game ticks,planning time,total plannings,nodes evaluated,most backtracked nodes
notchParam-1,false,0.36,1539,164,1537,164,75803,0
notchParam-2,true,1.00,1472,324,1467,310,78272,0
notchParam-3,true,1.00,1010,336,1002,322,56421,0
notchParam-4,true,1.00,888,340,878,328,48966,0
notchParam-5,true,1.00,777,330,770,316,41976,0
notchParam-6,true,1.00,756,318,749,306,42879,0
notchParam-7,true,1.00,1984,379,1971,367,106064,0
notchParam-8,true,1.00,2458,374,2452,362,134938,0
notchParam-9,true,1.00,823,348,811,336,45386,0
notchParam-10,true,1.00,1390,328,1381,314,75885,0
notchParam-11,true,1.00,690,318,684,306,38518,0
notchParam-12,true,1.00,1586,348,1575,336,87831,0
notchParam-13,true,1.00,339,310,326,298,18694,0
notchParam-14,true,1.00,344,312,336,300,19147,0
notchParam-15,false,0.67,1887,266,1881,266,95254,0
notchParam-16,true,1.00,4547,472,4543,460,241691,0
notchParam-17,true,1.00,4240,417,4237,405,227791,0
notchParam-18,true,1.00,341,319,327,305,20104,0
notchParam-19,true,1.00,342,315,330,303,19568,0
notchParam-20,true,1.00,410,316,400,304,23214,0
notchParam-21,true,1.00,408,322,401,310,22342,0
notchParam-22,true,1.00,583,316,572,304,32075,0
notchParam-23,true,1.00,1551,362,1541,350,87544,0
notchParam-24,true,1.00,1651,346,1643,334,89617,0
notchParam-25,true,1.00,1451,342,1446,328,79469,0
notchParam-26,true,1.00,1671,361,1665,349,91646,0
notchParam-27,true,1.00,377,320,373,308,21528,0
notchParam-28,true,1.00,808,323,801,311,44525,0
notchParam-29,true,1.00,715,326,708,314,39670,0
notchParam-30,true,1.00,358,304,351,292,20214,0
notchParam-31,true,1.00,3528,424,3513,410,188009,0
notchParam-32,true,1.00,4194,435,4189,423,228552,0
notchParam-33,true,1.00,346,302,342,290,19628,0
notchParam-34,true,1.00,2519,375,2513,363,131168,0
notchParam-35,true,1.00,4340,485,4327,473,230247,0
notchParam-36,true,1.00,2823,397,2817,383,155336,0
notchParam-37,true,1.00,383,308,377,296,21292,0
notchParam-38,true,1.00,358,324,350,310,20497,0
notchParam-39,false,0.35,28919,999,28917,999,1436823,0
notchParam-40,true,1.00,896,350,890,338,50121,0
notchParam-41,true,1.00,747,339,737,325,42121,0
notchParam-42,true,1.00,350,319,341,302,20524,0
notchParam-43,true,1.00,1347,324,1338,312,75321,0
notchParam-44,true,1.00,2383,364,2376,352,132180,0
notchParam-45,true,1.00,2038,365,2030,352,112649,0
notchParam-46,true,1.00,1532,344,1524,332,84013,0
notchParam-47,true,1.00,385,324,374,312,22350,0
notchParam-48,true,1.00,423,318,415,306,24537,0
notchParam-49,true,1.00,342,316,335,300,19551,0
notchParam-50,true,1.00,448,323,443,311,24442,0
notchParam-51,true,1.00,382,312,374,298,21636,0
notchParam-52,false,0.67,2577,285,2573,285,130630,0
notchParam-53,true,1.00,4561,454,4556,440,244323,0
notchParam-54,true,1.00,3712,442,3704,428,194688,0
notchParam-55,true,1.00,452,337,448,323,25124,0
notchParam-56,true,1.00,333,310,323,296,18808,0
notchParam-57,true,1.00,2654,394,2646,382,146536,0
notchParam-58,true,1.00,742,320,734,308,41384,0
notchParam-59,true,1.00,4130,448,4122,436,226765,0
notchParam-60,true,1.00,943,374,935,362,52718,0
notchParam-61,true,1.00,1611,367,1605,353,89851,0
notchParam-62,true,1.00,2746,401,2735,389,139518,0
notchParam-63,true,1.00,732,326,729,314,41251,0
notchParam-64,true,1.00,966,328,951,314,53175,0
notchParam-65,true,1.00,826,352,814,340,47569,0
notchParam-66,true,1.00,797,338,789,324,46365,0
notchParam-67,true,1.00,2628,366,2620,354,136818,0
notchParam-68,true,1.00,2495,364,2487,352,127647,0
notchParam-69,true,1.00,2048,400,2038,388,104047,0
notchParam-70,true,1.00,2974,413,2968,401,156879,0
notchParam-71,true,1.00,755,327,747,315,43501,0
notchParam-72,true,1.00,790,351,777,339,45766,0
notchParam-73,true,1.00,804,328,797,316,46435,0
notchParam-74,true,1.00,719,334,710,322,40903,0
notchParam-75,true,1.00,787,336,782,324,46021,0
notchParam-76,true,1.00,1611,360,1600,348,87969,0
notchParam-77,true,1.00,899,330,896,318,49720,0
notchParam-78,true,1.00,2039,364,2032,350,111540,0
notchParam-79,true,1.00,765,326,756,314,44173,0
notchParam-80,true,1.00,387,328,380,316,22143,0
notchParam-81,true,1.00,676,324,671,309,39571,0
notchParam-82,true,1.00,347,315,339,301,19940,0
notchParam-83,true,1.00,353,326,346,314,20004,0
notchParam-84,true,1.00,3769,422,3760,410,192777,0
notchParam-85,true,1.00,3131,401,3121,389,160421,0
notchParam-86,true,1.00,2533,377,2528,363,137212,0
notchParam-87,true,1.00,367,306,354,294,20269,0
notchParam-88,true,1.00,348,320,344,306,18892,0
notchParam-89,true,1.00,331,304,326,290,18532,0
notchParam-90,true,1.00,352,310,340,298,20002,0
notchParam-91,true,1.00,1679,342,1671,330,89680,0
notchParam-92,true,1.00,2263,348,2256,336,121990,0
notchParam-93,true,1.00,1593,351,1590,339,88502,0
notchParam-94,true,1.00,1995,374,1991,362,111573,0
notchParam-95,true,1.00,1521,366,1514,354,86677,0
notchParam-96,true,1.00,701,324,691,312,41163,0
notchParam-97,true,1.00,707,308,699,296,39380,0
notchParam-98,true,1.00,392,318,385,306,22319,0
notchParam-99,true,1.00,3722,442,3712,428,194979,0
notchParam-100,false,0.66,25739,999,25735,999,1193803,0
