NDW:0.0
TTFW:1.8
DFPT:2.0
DFPAP:3.0
DFPMP:0.0
RIGHT_WINDOW_BORDER_X:255.0
level,win/fail,% travelled,run time,game ticks,planning time,total plannings,nodes evaluated,most backtracked nodes
notchParamRand-1,true,1.00,788,308,788,285,89486,0
notchParamRand-2,true,1.00,118,306,116,283,11308,0
notchParamRand-3,true,1.00,859,308,856,285,108170,0
notchParamRand-4,true,1.00,1317,337,1315,314,165041,0
notchParamRand-5,true,1.00,249,306,248,283,26015,0
notchParamRand-6,true,1.00,353,314,351,291,40482,0
notchParamRand-7,true,1.00,210,294,207,271,23738,0
notchParamRand-8,true,1.00,448,310,447,287,46708,0
notchParamRand-9,true,1.00,535,338,534,315,65546,0
notchParamRand-10,true,1.00,691,335,688,312,85146,0
notchParamRand-11,true,1.00,110,294,108,271,10935,0
notchParamRand-12,true,1.00,257,324,257,301,28024,0
notchParamRand-13,true,1.00,1503,314,1501,291,175020,0
notchParamRand-14,true,1.00,889,314,886,291,101503,0
notchParamRand-15,true,1.00,553,316,552,293,66539,0
notchParamRand-16,true,1.00,380,300,378,277,50325,0
notchParamRand-17,true,1.00,50,303,48,280,3658,0
notchParamRand-18,true,1.00,1586,328,1585,305,197970,0
notchParamRand-19,true,1.00,192,328,192,305,21876,0
notchParamRand-20,true,1.00,1339,322,1338,299,169537,0
notchParamRand-21,true,1.00,46,296,44,273,3198,0
notchParamRand-22,true,1.00,802,316,801,293,99490,0
notchParamRand-23,true,1.00,1035,349,1034,326,129017,0
notchParamRand-24,true,1.00,163,337,163,314,17855,0
notchParamRand-25,true,1.00,47,308,46,283,3759,0
notchParamRand-26,true,1.00,385,347,385,324,44390,0
notchParamRand-27,true,1.00,210,300,209,277,27482,0
notchParamRand-28,true,1.00,457,317,454,294,51412,0
notchParamRand-29,true,1.00,46,298,45,275,3301,0
notchParamRand-30,true,1.00,1715,332,1711,309,207914,0
notchParamRand-31,true,1.00,359,316,359,293,43939,0
notchParamRand-32,true,1.00,110,294,109,271,11592,0
notchParamRand-33,true,1.00,1736,332,1735,309,207763,0
notchParamRand-34,true,1.00,847,316,844,293,100881,0
notchParamRand-35,true,1.00,453,318,453,295,54033,0
notchParamRand-36,true,1.00,44,298,44,274,3190,0
notchParamRand-37,true,1.00,350,310,348,287,42360,0
notchParamRand-38,true,1.00,1592,319,1592,296,184270,0
notchParamRand-39,true,1.00,1344,316,1341,293,161507,0
notchParamRand-40,true,1.00,1869,314,1868,291,221657,0
notchParamRand-41,true,1.00,42,294,39,271,2705,0
notchParamRand-42,true,1.00,390,320,388,297,47897,0
notchParamRand-43,true,1.00,210,300,207,277,24994,0
notchParamRand-44,true,1.00,250,302,248,279,30062,0
notchParamRand-45,true,1.00,848,322,847,299,94042,0
notchParamRand-46,true,1.00,463,311,462,288,56536,0
notchParamRand-47,true,1.00,703,318,701,295,84197,0
notchParamRand-48,true,1.00,1319,324,1318,301,157083,0
notchParamRand-49,true,1.00,647,308,647,285,77041,0
notchParamRand-50,true,1.00,1221,333,1216,310,148855,0
notchParamRand-51,true,1.00,156,315,154,292,16176,0
notchParamRand-52,true,1.00,656,304,655,281,76284,0
notchParamRand-53,true,1.00,884,328,883,305,103864,0
notchParamRand-54,true,1.00,1956,335,1954,312,229734,0
notchParamRand-55,true,1.00,1554,314,1554,291,174985,0
notchParamRand-56,true,1.00,607,333,607,310,72820,0
notchParamRand-57,true,1.00,858,312,857,289,108175,0
notchParamRand-58,true,1.00,785,352,784,329,94017,0
notchParamRand-59,true,1.00,355,313,350,290,42704,0
notchParamRand-60,true,1.00,654,313,650,290,79336,0
notchParamRand-61,true,1.00,448,308,446,285,54078,0
notchParamRand-62,true,1.00,426,322,426,299,47739,0
notchParamRand-63,true,1.00,1264,312,1263,289,149810,0
notchParamRand-64,true,1.00,250,309,249,286,29671,0
notchParamRand-65,true,1.00,1742,336,1741,313,205934,0
notchParamRand-66,true,1.00,196,312,195,289,20387,0
notchParamRand-67,true,1.00,246,300,246,277,25439,0
notchParamRand-68,true,1.00,1291,312,1290,289,154942,0
notchParamRand-69,true,1.00,216,309,213,286,26356,0
notchParamRand-70,true,1.00,626,326,624,303,77687,0
notchParamRand-71,true,1.00,293,318,289,295,32028,0
notchParamRand-72,true,1.00,111,294,109,271,11416,0
notchParamRand-73,true,1.00,362,310,362,287,38792,0
notchParamRand-74,true,1.00,48,298,46,275,3553,0
notchParamRand-75,true,1.00,44,294,41,271,2832,0
notchParamRand-76,true,1.00,1016,346,1016,323,118181,0
notchParamRand-77,true,1.00,1340,360,1339,337,152310,0
notchParamRand-78,true,1.00,891,310,891,287,107151,0
notchParamRand-79,true,1.00,251,298,250,275,27735,0
notchParamRand-80,true,1.00,251,302,249,279,26240,0
notchParamRand-81,true,1.00,245,298,243,275,29445,0
notchParamRand-82,true,1.00,686,312,684,289,82994,0
notchParamRand-83,true,1.00,1208,332,1207,309,141573,0
notchParamRand-84,true,1.00,255,304,253,281,29536,0
notchParamRand-85,true,1.00,43,294,42,271,2769,0
notchParamRand-86,true,1.00,637,336,634,313,75935,0
notchParamRand-87,true,1.00,1526,320,1521,297,188510,0
notchParamRand-88,true,1.00,248,302,247,279,30245,0
notchParamRand-89,true,1.00,283,300,280,277,34752,0
notchParamRand-90,true,1.00,532,317,528,294,60200,0
notchParamRand-91,true,1.00,44,294,42,271,2945,0
notchParamRand-92,true,1.00,865,324,861,301,105682,0
notchParamRand-93,true,1.00,251,318,250,285,29410,0
notchParamRand-94,true,1.00,1463,318,1461,295,171495,0
notchParamRand-95,true,1.00,648,316,646,293,76320,0
notchParamRand-96,true,1.00,330,321,328,298,37912,0
notchParamRand-97,true,1.00,1248,349,1247,326,143249,0
notchParamRand-98,true,1.00,206,294,203,271,26894,0
notchParamRand-99,true,1.00,254,312,254,289,28308,0
notchParamRand-100,true,1.00,1289,314,1287,291,154392,0
