NDW:0.0
TTFW:0.4
DFPT:2.0
DFPAP:3.0
DFPMP:0.0
RIGHT_WINDOW_BORDER_X:35.0
level,win/fail,% travelled,run time,game ticks,planning time,total plannings,nodes evaluated,most backtracked nodes
notchParam-1,false,0.36,1856,280,1854,280,140499,0
notchParam-2,false,0.36,1123,279,1120,279,94666,0
notchParam-3,false,0.19,395,140,394,140,31373,0
notchParam-4,false,0.41,3790,447,3785,447,280402,0
notchParam-5,false,0.19,420,135,418,135,32864,0
notchParam-6,false,0.31,2967,318,2964,318,224546,0
notchParam-7,false,0.37,2048,285,2046,285,179315,0
notchParam-8,false,0.18,1423,228,1421,228,119148,0
notchParam-9,false,0.31,1616,283,1615,283,133529,0
notchParam-10,false,0.18,869,199,867,199,64650,0
notchParam-11,false,0.19,418,131,417,131,31421,0
notchParam-12,false,0.16,1603,203,1600,203,126259,0
notchParam-13,false,0.36,901,281,897,281,73172,0
notchParam-14,false,0.67,1149,447,1145,447,92857,0
notchParam-15,false,0.37,2564,332,2562,332,199593,0
notchParam-16,false,0.36,901,274,898,274,81590,0
notchParam-17,false,0.37,406,227,402,227,34187,0
notchParam-18,false,0.66,16531,999,16528,999,1448080,0
notchParam-19,false,0.36,1515,246,1513,246,118108,0
notchParam-20,false,0.68,1441,465,1439,465,108978,0
notchParam-21,true,1.00,2857,714,2851,710,198775,0
notchParam-22,true,1.00,3202,691,3197,686,261765,0
notchParam-23,false,0.18,27281,999,27278,999,2245016,0
notchParam-24,false,0.18,3360,219,3358,219,269739,0
notchParam-25,false,0.19,1056,159,1052,159,76869,0
notchParam-26,false,0.18,1445,224,1444,224,117240,0
notchParam-27,false,0.68,3498,521,3495,521,282933,0
notchParam-28,false,0.32,423,224,423,224,36297,0
notchParam-29,false,0.31,3097,296,3097,296,230238,0
notchParam-30,false,0.37,412,229,410,229,33359,0
notchParam-31,false,0.36,379,237,374,237,30680,0
notchParam-32,false,0.36,2406,322,2404,322,180464,0
notchParam-33,false,0.35,406,214,403,214,31972,0
notchParam-34,false,0.36,1035,253,1034,253,76664,0
notchParam-35,false,0.36,1828,282,1822,282,141642,0
notchParam-36,false,0.36,2409,324,2406,324,180141,0
notchParam-37,false,0.36,400,218,399,218,31543,0
notchParam-38,false,0.35,24888,999,24888,999,2044608,0
notchParam-39,false,0.36,883,253,881,253,72597,0
notchParam-40,false,0.31,1239,224,1237,224,90906,0
notchParam-41,false,0.57,4120,573,4118,573,346795,0
notchParam-42,false,0.36,863,253,861,253,79612,0
notchParam-43,false,0.18,1233,212,1233,212,97192,0
notchParam-44,false,0.19,1199,188,1197,188,100699,0
notchParam-45,false,0.18,28436,999,28435,999,2092769,0
notchParam-46,false,0.19,2483,208,2481,208,179294,0
notchParam-47,false,0.68,2262,551,2259,551,181246,0
notchParam-48,true,1.00,4170,710,4167,706,344964,0
notchParam-49,true,1.00,2181,695,2173,691,173053,0
notchParam-50,false,0.67,2528,545,2524,545,176702,0
notchParam-51,false,0.67,2065,447,2061,447,154934,0
notchParam-52,false,0.36,884,255,877,255,73075,0
notchParam-53,false,0.36,1546,364,1542,364,118975,0
notchParam-54,false,0.36,1840,285,1836,285,141389,0
notchParam-55,false,0.36,1037,310,1036,310,87336,0
notchParam-56,false,0.67,1866,529,1860,529,146116,0
notchParam-57,false,0.32,1090,270,1088,270,78951,0
notchParam-58,false,0.18,3106,226,3106,226,262823,0
notchParam-59,false,0.19,1676,241,1673,241,136686,0
notchParam-60,false,0.84,8701,931,8692,931,660321,0
notchParam-61,false,0.18,838,157,838,157,64181,0
notchParam-62,false,0.36,2585,275,2585,275,173045,0
notchParam-63,false,0.19,1988,211,1987,211,145516,0
notchParam-64,false,0.31,777,233,775,233,61005,0
notchParam-65,false,0.19,1232,198,1229,198,94116,0
notchParam-66,false,0.19,419,133,418,133,31277,0
notchParam-67,false,0.36,2529,310,2526,310,210789,0
notchParam-68,false,0.36,369,221,367,221,29046,0
notchParam-69,false,0.35,24580,999,24576,999,1692996,0
notchParam-70,false,0.36,1165,265,1158,265,90610,0
notchParam-71,false,0.31,1349,296,1344,296,102458,0
notchParam-72,false,0.19,2480,210,2479,210,189220,0
notchParam-73,false,0.19,416,135,416,135,35569,0
notchParam-74,false,0.32,2653,304,2651,304,215983,0
notchParam-75,false,0.16,732,131,732,131,62357,0
notchParam-76,false,0.08,6,44,6,44,1109,0
notchParam-77,false,0.70,7728,770,7724,770,634911,0
notchParam-78,false,0.18,1261,200,1259,200,97218,0
notchParam-79,false,0.19,2472,208,2472,208,189758,0
notchParam-80,false,0.67,2021,499,2018,499,182874,0
notchParam-81,false,0.44,3069,410,3068,410,253982,0
notchParam-82,false,0.67,1667,480,1659,480,136795,0
notchParam-83,false,0.36,1005,268,1004,268,83272,0
notchParam-84,false,0.36,950,303,947,303,74794,0
notchParam-85,false,0.36,1023,295,1021,295,87030,0
notchParam-86,false,0.18,353,139,352,139,28146,0
notchParam-87,false,0.36,968,252,966,252,72969,0
notchParam-88,false,0.66,19227,999,19217,999,1566253,0
notchParam-89,false,0.67,1319,490,1310,490,102336,0
notchParam-90,false,0.37,914,270,912,270,72160,0
notchParam-91,false,0.18,2080,185,2078,185,137615,0
notchParam-92,false,0.18,1575,230,1574,230,114781,0
notchParam-93,false,0.19,387,136,387,136,29249,0
notchParam-94,false,0.19,380,137,378,137,29412,0
notchParam-95,false,0.18,3735,256,3734,256,303895,0
notchParam-96,false,0.18,1006,191,1005,191,82198,0
notchParam-97,false,0.18,1290,174,1289,174,95871,0
notchParam-98,false,0.67,2968,526,2965,526,219201,0
notchParam-99,false,0.36,1168,265,1167,265,90188,0
notchParam-100,false,0.37,1380,296,1378,296,103417,0
