NDW:0.0
TTFW:0.6
DFPT:2.0
DFPAP:3.0
DFPMP:10.0
RIGHT_WINDOW_BORDER_X:275.0
level,win/fail,% travelled,run time,game ticks,planning time,total plannings,nodes evaluated,most backtracked nodes
notchParamRand-1,true,1.00,967,306,957,281,56625,0
notchParamRand-2,true,1.00,332,304,318,279,11247,0
notchParamRand-3,true,1.00,1181,306,1173,281,39379,0
notchParamRand-4,true,1.00,1749,322,1741,297,101795,0
notchParamRand-5,true,1.00,349,306,342,281,19575,0
notchParamRand-6,true,1.00,458,308,453,283,26201,0
notchParamRand-7,true,1.00,330,294,322,269,18973,0
notchParamRand-8,true,1.00,579,298,573,273,32954,0
notchParamRand-9,true,1.00,668,308,665,283,40236,0
notchParamRand-10,true,1.00,987,319,982,294,56065,0
notchParamRand-11,true,1.00,225,294,218,269,12493,0
notchParamRand-12,true,1.00,374,306,368,281,20983,0
notchParamRand-13,true,1.00,1655,304,1650,279,99142,0
notchParamRand-14,true,1.00,1039,310,1028,285,60688,0
notchParamRand-15,true,1.00,666,308,659,283,39459,0
notchParamRand-16,true,1.00,518,300,510,275,30894,0
notchParamRand-17,true,1.00,162,294,157,269,9027,0
notchParamRand-18,true,1.00,1759,308,1756,283,107166,0
notchParamRand-19,true,1.00,300,318,293,293,16641,0
notchParamRand-20,true,1.00,1563,332,1559,307,90863,0
notchParamRand-21,true,1.00,157,296,150,271,8688,0
notchParamRand-22,true,1.00,917,312,909,287,54255,0
notchParamRand-23,true,1.00,1145,322,1138,297,66930,0
notchParamRand-24,true,1.00,352,316,347,291,19392,0
notchParamRand-25,true,1.00,158,308,148,281,8640,0
notchParamRand-26,true,1.00,573,326,565,301,31931,0
notchParamRand-27,true,1.00,333,294,330,269,19643,0
notchParamRand-28,true,1.00,534,310,527,285,30232,0
notchParamRand-29,true,1.00,173,298,165,273,9763,0
notchParamRand-30,true,1.00,1727,304,1722,279,104836,0
notchParamRand-31,true,1.00,453,320,444,295,26139,0
notchParamRand-32,true,1.00,228,294,218,269,13143,0
notchParamRand-33,true,1.00,1829,320,1820,295,111736,0
notchParamRand-34,true,1.00,1002,312,996,287,59816,0
notchParamRand-35,true,1.00,581,310,575,285,34874,0
notchParamRand-36,true,1.00,154,300,146,272,7924,0
notchParamRand-37,true,1.00,467,310,460,285,27624,0
notchParamRand-38,true,1.00,1668,298,1668,273,100152,0
notchParamRand-39,true,1.00,2508,343,2503,318,149729,0
notchParamRand-40,true,1.00,2067,314,2060,289,126017,0
notchParamRand-41,true,1.00,160,294,157,269,8906,0
notchParamRand-42,true,1.00,508,316,504,291,29427,0
notchParamRand-43,true,1.00,328,300,320,275,19280,0
notchParamRand-44,true,1.00,366,302,360,277,21280,0
notchParamRand-45,true,1.00,925,308,922,283,54635,0
notchParamRand-46,true,1.00,573,298,564,273,34418,0
notchParamRand-47,true,1.00,790,312,783,287,45716,0
notchParamRand-48,true,1.00,1490,316,1487,291,88647,0
notchParamRand-49,true,1.00,754,306,748,281,44248,0
notchParamRand-50,true,1.00,1291,306,1288,281,77050,0
notchParamRand-51,true,1.00,261,298,260,273,14741,0
notchParamRand-52,true,1.00,767,298,762,273,45844,0
notchParamRand-53,true,1.00,953,320,945,295,55207,0
notchParamRand-54,true,1.00,1976,333,1969,308,115908,0
notchParamRand-55,true,1.00,1925,312,1920,287,114582,0
notchParamRand-56,true,1.00,761,304,756,279,44964,0
notchParamRand-57,true,1.00,988,314,979,289,59768,0
notchParamRand-58,true,1.00,817,312,813,287,48092,0
notchParamRand-59,true,1.00,463,304,460,279,27224,0
notchParamRand-60,true,1.00,661,298,658,273,39412,0
notchParamRand-61,true,1.00,556,306,552,281,32338,0
notchParamRand-62,true,1.00,493,316,487,291,27788,0
notchParamRand-63,true,1.00,1420,312,1413,287,86181,0
notchParamRand-64,true,1.00,359,296,352,271,20913,0
notchParamRand-65,true,1.00,2424,321,2421,296,142429,0
notchParamRand-66,true,1.00,582,308,574,283,30618,0
notchParamRand-67,true,1.00,391,300,382,275,21971,0
notchParamRand-68,true,1.00,1427,310,1425,285,85263,0
notchParamRand-69,true,1.00,341,300,336,275,19484,0
notchParamRand-70,true,1.00,672,322,663,297,39488,0
notchParamRand-71,true,1.00,364,312,361,287,20503,0
notchParamRand-72,true,1.00,223,294,217,269,12487,0
notchParamRand-73,true,1.00,482,306,473,281,27175,0
notchParamRand-74,true,1.00,170,294,165,269,9545,0
notchParamRand-75,true,1.00,162,294,154,269,9168,0
notchParamRand-76,true,1.00,1098,324,1092,299,63790,0
notchParamRand-77,true,1.00,1543,310,1541,285,90638,0
notchParamRand-78,true,1.00,984,298,978,273,58821,0
notchParamRand-79,true,1.00,348,298,344,273,19462,0
notchParamRand-80,true,1.00,380,304,376,279,21282,0
notchParamRand-81,true,1.00,373,298,366,273,21639,0
notchParamRand-82,true,1.00,795,308,786,283,46813,0
notchParamRand-83,true,1.00,1384,325,1380,300,83838,0
notchParamRand-84,true,1.00,370,302,364,277,21382,0
notchParamRand-85,true,1.00,168,294,161,269,9341,0
notchParamRand-86,true,1.00,639,327,627,302,35961,0
notchParamRand-87,true,1.00,1734,314,1723,289,104221,0
notchParamRand-88,true,1.00,371,300,361,275,20921,0
notchParamRand-89,true,1.00,434,302,425,277,25573,0
notchParamRand-90,true,1.00,751,320,746,295,43267,0
notchParamRand-91,true,1.00,163,294,157,269,8709,0
notchParamRand-92,true,1.00,1018,314,1014,289,60623,0
notchParamRand-93,true,1.00,370,309,363,279,20961,0
notchParamRand-94,true,1.00,1701,314,1696,289,98861,0
notchParamRand-95,true,1.00,766,316,760,291,44084,0
notchParamRand-96,true,1.00,541,308,539,283,30655,0
notchParamRand-97,true,1.00,1364,318,1357,293,78347,0
notchParamRand-98,true,1.00,328,294,323,269,18795,0
notchParamRand-99,true,1.00,364,308,360,283,20399,0
notchParamRand-100,true,1.00,1522,304,1517,279,90769,0
