NDW:0.0
TTFW:2.0
DFPT:2.0
DFPAP:3.0
DFPMP:5.0
RIGHT_WINDOW_BORDER_X:35.0
level,win/fail,% travelled,run time,game ticks,planning time,total plannings,nodes evaluated,most backtracked nodes
notchParamRand-1,false,0.29,372,203,367,203,19097,0
notchParamRand-2,true,1.00,691,594,668,589,35040,0
notchParamRand-3,false,0.24,2206,306,2198,306,114319,0
notchParamRand-4,false,0.18,2745,234,2742,234,143183,0
notchParamRand-5,true,1.00,1727,667,1712,662,86581,0
notchParamRand-6,false,0.52,2660,447,2648,447,136079,0
notchParamRand-7,false,0.52,1710,402,1704,402,89122,0
notchParamRand-8,false,0.16,23,103,20,103,1423,0
notchParamRand-9,false,0.29,2219,299,2211,299,116469,0
notchParamRand-10,false,0.24,1545,260,1536,260,82293,0
notchParamRand-11,false,0.14,16,74,15,74,919,0
notchParamRand-12,false,0.32,39,185,37,185,2229,0
notchParamRand-13,false,0.17,291,129,288,129,15007,0
notchParamRand-14,false,0.24,1672,223,1668,223,88031,0
notchParamRand-15,false,0.29,2034,275,2027,275,102931,0
notchParamRand-16,false,0.36,1803,362,1793,362,90625,0
notchParamRand-17,true,1.00,117,559,92,547,6124,0
notchParamRand-18,false,0.18,1761,228,1758,228,87711,0
notchParamRand-19,false,0.67,2485,560,2471,560,118381,0
notchParamRand-20,false,0.19,2378,186,2375,186,109078,0
notchParamRand-21,true,1.00,113,539,104,535,6091,0
notchParamRand-22,false,0.39,5234,543,5223,543,262939,0
notchParamRand-23,false,0.24,945,240,935,240,48182,0
notchParamRand-24,false,0.52,1049,394,1040,394,53790,0
notchParamRand-25,false,0.86,94,461,81,461,5050,0
notchParamRand-26,false,0.68,1548,542,1530,542,77763,0
notchParamRand-27,false,0.52,2190,405,2182,405,112290,0
notchParamRand-28,false,0.57,2048,493,2031,493,104593,0
notchParamRand-29,true,1.00,102,516,85,512,5470,0
notchParamRand-30,false,0.18,332,137,332,137,16451,0
notchParamRand-31,false,0.52,2917,451,2905,451,141206,0
notchParamRand-32,true,1.00,792,599,772,595,41175,0
notchParamRand-33,false,0.19,2117,204,2115,204,111171,0
notchParamRand-34,false,0.24,564,181,558,181,28950,0
notchParamRand-35,false,0.42,3755,487,3747,487,188393,0
notchParamRand-36,true,1.00,117,539,88,535,5600,0
notchParamRand-37,false,0.29,877,230,868,230,42932,0
notchParamRand-38,false,0.19,871,181,865,181,44343,0
notchParamRand-39,false,0.19,1556,207,1549,207,80359,0
notchParamRand-40,false,0.17,2206,197,2203,197,110376,0
notchParamRand-41,true,1.00,104,522,89,515,5667,0
notchParamRand-42,true,1.00,2978,786,2960,782,155893,0
notchParamRand-43,false,0.51,22282,999,22275,999,1147116,0
notchParamRand-44,false,0.33,963,1017,937,1017,51885,0
notchParamRand-45,false,0.29,1137,247,1129,247,55223,0
notchParamRand-46,false,0.36,328,247,315,247,15916,0
notchParamRand-47,false,0.05,5,26,4,26,288,0
notchParamRand-48,false,0.18,1249,160,1244,160,61274,0
notchParamRand-49,false,0.18,366,129,362,129,17737,0
notchParamRand-50,false,0.17,966,163,963,163,45692,0
notchParamRand-51,false,0.52,1616,347,1608,347,78438,0
notchParamRand-52,false,0.28,1398,225,1393,225,66629,0
notchParamRand-53,false,0.21,1347,197,1344,197,63580,0
notchParamRand-54,false,0.17,960,154,956,154,46832,0
notchParamRand-55,false,0.16,517,1008,495,1008,25328,0
notchParamRand-56,false,0.37,2081,314,2072,314,98294,0
notchParamRand-57,false,0.24,1889,220,1882,220,90921,0
notchParamRand-58,false,0.05,6,26,5,26,288,0
notchParamRand-59,false,0.29,340,186,335,186,16129,0
notchParamRand-60,false,0.29,1768,315,1758,315,84638,0
notchParamRand-61,false,0.39,1397,315,1391,315,66932,0
notchParamRand-62,false,0.18,335,166,329,166,15571,0
notchParamRand-63,false,0.19,391,138,386,138,18969,0
notchParamRand-64,false,0.16,19,84,16,84,999,0
notchParamRand-65,false,0.18,1161,187,1157,187,55767,0
notchParamRand-66,false,0.51,1570,374,1554,374,75066,0
notchParamRand-67,false,0.36,1049,274,1041,274,50608,0
notchParamRand-68,false,0.18,2214,210,2214,210,106519,0
notchParamRand-69,false,0.52,894,333,891,333,44669,0
notchParamRand-70,false,0.21,873,197,871,197,41682,0
notchParamRand-71,false,0.24,435,167,432,167,21160,0
notchParamRand-72,true,1.00,980,631,958,626,49657,0
notchParamRand-73,false,0.24,37,150,28,150,1804,0
notchParamRand-74,true,1.00,110,526,98,517,5721,0
notchParamRand-75,true,1.00,114,551,94,546,5995,0
notchParamRand-76,false,0.18,1757,186,1754,186,77172,0
notchParamRand-77,false,0.21,1347,221,1340,221,66004,0
notchParamRand-78,false,0.24,2454,283,2448,283,127003,0
notchParamRand-79,true,1.00,1642,680,1630,675,85415,0
notchParamRand-80,false,0.51,3244,404,3234,404,136501,0
notchParamRand-81,false,0.68,2045,522,2029,522,101628,0
notchParamRand-82,false,0.31,1834,290,1828,290,87080,0
notchParamRand-83,false,0.17,964,180,961,180,46484,0
notchParamRand-84,false,0.24,642,202,638,202,31792,0
notchParamRand-85,true,1.00,106,533,81,529,5814,0
notchParamRand-86,false,0.48,1695,467,1685,467,92434,0
notchParamRand-87,false,0.17,518,131,518,131,26830,0
notchParamRand-88,false,0.37,2288,337,2280,337,120456,0
notchParamRand-89,false,0.52,1506,411,1498,411,81450,0
notchParamRand-90,false,0.37,783,247,777,247,35327,0
notchParamRand-91,true,1.00,203,527,180,523,5385,0
notchParamRand-92,false,0.39,3866,427,3855,427,158891,0
notchParamRand-93,false,0.36,616,281,609,281,31420,0
notchParamRand-94,false,0.17,2228,244,2222,244,112135,0
notchParamRand-95,false,0.18,1741,212,1737,212,87896,0
notchParamRand-96,false,0.36,1772,303,1764,303,87407,0
notchParamRand-97,false,0.16,3233,206,3231,206,154182,0
notchParamRand-98,false,0.45,58,251,51,251,3010,0
notchParamRand-99,false,0.52,1103,368,1095,368,54000,0
notchParamRand-100,false,0.21,1126,183,1123,183,54844,0
