NDW:0.0
TTFW:1.6
DFPT:2.0
DFPAP:3.0
DFPMP:1.0
RIGHT_WINDOW_BORDER_X:115.0
level,win/fail,% travelled,run time,game ticks,planning time,total plannings,nodes evaluated,most backtracked nodes
patternOccur-1,true,1.00,1275,502,1273,492,149200,0
patternOccur-2,true,1.00,1088,521,1081,511,139083,0
patternOccur-3,true,1.00,3881,556,3879,546,455282,0
patternOccur-4,true,1.00,1889,551,1887,541,231904,0
patternOccur-5,true,1.00,961,526,960,516,127605,0
patternOccur-6,true,1.00,2267,558,2266,548,283981,0
patternOccur-7,true,1.00,1525,583,1516,572,185695,0
patternOccur-8,true,1.00,1421,467,1418,457,162872,0
patternOccur-9,true,1.00,1272,508,1272,498,146531,0
patternOccur-10,true,1.00,1940,602,1937,591,258265,0
patternOccur-11,false,0.86,2627,484,2621,484,305909,0
patternOccur-12,true,1.00,1585,551,1583,540,208624,0
patternOccur-13,true,1.00,1818,561,1817,551,232743,0
patternOccur-14,true,1.00,8763,742,8761,729,952826,0
patternOccur-15,true,1.00,3425,577,3424,567,412948,0
patternOccur-16,false,0.92,4557,578,4554,578,481964,0
patternOccur-17,true,1.00,1790,535,1788,525,215339,0
patternOccur-18,true,1.00,949,469,947,459,112035,0
patternOccur-19,false,0.83,8155,667,8153,667,1094427,0
patternOccur-20,true,1.00,1859,559,1858,549,223893,0
patternOccur-21,true,1.00,1338,508,1337,498,169882,0
patternOccur-22,false,0.83,6565,657,6564,657,702133,0
patternOccur-23,true,1.00,2327,565,2326,555,273723,0
patternOccur-24,true,1.00,766,517,761,507,99594,0
patternOccur-25,true,1.00,1713,543,1707,533,207832,0
patternOccur-26,true,1.00,1096,533,1095,523,136949,0
patternOccur-27,true,1.00,5575,670,5569,651,611342,0
patternOccur-28,true,1.00,1178,488,1175,477,143630,0
patternOccur-29,true,1.00,1096,422,1091,402,133607,0
patternOccur-30,true,1.00,992,496,988,486,122248,0
patternOccur-31,false,0.77,6346,576,6345,576,699033,0
patternOccur-32,false,0.92,6638,651,6637,651,731762,0
patternOccur-33,true,1.00,1560,555,1556,545,207503,0
patternOccur-34,true,1.00,1115,492,1114,481,135001,0
patternOccur-35,true,1.00,1697,550,1695,540,201703,0
patternOccur-36,false,0.88,3739,614,3734,614,432195,0
patternOccur-37,false,0.95,7250,666,7246,666,806630,0
patternOccur-38,true,1.00,1109,523,1106,513,151489,0
patternOccur-39,false,0.79,4870,534,4866,534,579370,0
patternOccur-40,true,1.00,2323,597,2320,587,288113,0
patternOccur-41,true,1.00,2137,567,2134,546,288866,0
patternOccur-42,false,0.88,5797,591,5794,591,622422,0
patternOccur-43,true,1.00,1319,550,1317,540,173646,0
patternOccur-44,true,1.00,2585,546,2583,536,310404,0
patternOccur-45,true,1.00,5491,588,5485,575,492382,0
patternOccur-46,true,1.00,1404,495,1402,485,170262,0
patternOccur-47,false,0.91,5036,594,5033,594,525605,0
patternOccur-48,true,1.00,1564,537,1562,527,187162,0
patternOccur-49,true,1.00,1024,505,1020,495,125778,0
patternOccur-50,true,1.00,1811,543,1808,533,214541,0
patternOccur-51,true,1.00,1353,532,1346,522,174648,0
patternOccur-52,true,1.00,1239,524,1238,514,152859,0
patternOccur-53,true,1.00,2496,569,2494,559,300943,0
patternOccur-54,true,1.00,4178,600,4173,587,496367,0
patternOccur-55,true,1.00,1516,511,1514,501,183627,0
patternOccur-56,true,1.00,2658,633,2656,623,331346,0
patternOccur-57,true,1.00,1528,534,1523,522,184843,0
patternOccur-58,false,0.92,9079,716,9075,716,949048,0
patternOccur-59,true,1.00,2378,531,2376,521,300968,0
patternOccur-60,false,0.91,6687,662,6682,662,687415,0
patternOccur-61,true,1.00,2270,549,2267,538,267798,0
patternOccur-62,true,1.00,1252,507,1249,497,159465,0
patternOccur-63,true,1.00,2500,524,2497,512,301437,0
patternOccur-64,true,1.00,2574,619,2570,607,302022,0
patternOccur-65,true,1.00,1425,506,1424,496,182453,0
patternOccur-66,true,1.00,2170,535,2168,525,284105,0
patternOccur-67,true,1.00,3209,569,3208,559,448120,0
patternOccur-68,true,1.00,1482,541,1480,531,179363,0
patternOccur-69,false,0.85,5067,587,5067,587,541805,0
patternOccur-70,false,0.87,5899,616,5896,616,757145,0
patternOccur-71,true,1.00,4346,612,4342,602,615312,0
patternOccur-72,false,0.86,7498,668,7496,668,807658,0
patternOccur-73,false,0.87,7425,689,7420,689,828978,0
patternOccur-74,false,0.89,4635,546,4631,546,507929,0
patternOccur-75,false,0.97,3937,603,3935,603,418793,0
patternOccur-76,true,1.00,3158,534,3156,524,384571,0
patternOccur-77,true,1.00,653,517,646,507,81101,0
patternOccur-78,true,1.00,1201,475,1197,465,144874,0
patternOccur-79,true,1.00,1843,584,1839,574,245281,0
patternOccur-80,true,1.00,8261,737,8261,721,1105137,0
patternOccur-81,false,0.88,7655,648,7651,648,879481,0
patternOccur-82,false,0.95,6943,717,6939,717,710277,0
patternOccur-83,true,1.00,795,527,790,517,110672,0
patternOccur-84,true,1.00,1028,480,1025,470,123601,0
patternOccur-85,false,0.92,5650,603,5647,603,594996,0
patternOccur-86,false,0.92,6480,580,6479,580,735757,0
patternOccur-87,true,1.00,1772,553,1771,543,233699,0
patternOccur-88,true,1.00,2967,595,2964,585,347419,0
patternOccur-89,true,1.00,1358,515,1358,505,174536,0
patternOccur-90,true,1.00,3240,608,3236,596,424925,0
patternOccur-91,true,1.00,3331,578,3330,567,408582,0
patternOccur-92,true,1.00,1592,482,1592,472,191307,0
patternOccur-93,true,1.00,2427,597,2424,587,290459,0
patternOccur-94,false,0.84,4116,552,4114,552,475263,0
patternOccur-95,true,1.00,1133,519,1127,509,148021,0
patternOccur-96,false,0.86,3975,561,3973,561,381285,0
patternOccur-97,true,1.00,3393,608,3391,598,436486,0
patternOccur-98,false,0.90,7034,682,7030,682,795701,0
patternOccur-99,true,1.00,722,506,718,496,94543,0
patternOccur-100,true,1.00,1575,525,1575,515,178916,0
