NDW:0.0
TTFW:0.8
DFPT:2.0
DFPAP:3.0
DFPMP:5.0
RIGHT_WINDOW_BORDER_X:295.0
level,win/fail,% travelled,run time,game ticks,planning time,total plannings,nodes evaluated,most backtracked nodes
notchParam-1,true,1.00,903,310,902,284,84571,0
notchParam-2,true,1.00,800,308,798,282,71428,0
notchParam-3,true,1.00,541,310,539,284,52251,0
notchParam-4,true,1.00,583,314,580,287,53951,0
notchParam-5,true,1.00,648,314,647,285,62573,0
notchParam-6,true,1.00,626,326,623,299,59703,0
notchParam-7,true,1.00,801,312,799,286,75551,0
notchParam-8,true,1.00,1052,314,1051,288,101570,0
notchParam-9,true,1.00,609,333,608,306,55820,0
notchParam-10,true,1.00,1076,318,1074,291,103322,0
notchParam-11,true,1.00,538,312,534,285,50207,0
notchParam-12,true,1.00,1135,323,1134,296,111407,0
notchParam-13,true,1.00,255,318,253,292,23243,0
notchParam-14,true,1.00,245,304,242,278,21669,0
notchParam-15,true,1.00,862,320,860,294,80249,0
notchParam-16,true,1.00,740,307,738,281,76814,0
notchParam-17,true,1.00,765,302,764,276,72635,0
notchParam-18,true,1.00,286,328,285,302,25110,0
notchParam-19,true,1.00,237,309,236,283,20843,0
notchParam-20,true,1.00,247,308,246,282,22939,0
notchParam-21,true,1.00,237,304,235,278,19976,0
notchParam-22,true,1.00,265,314,263,288,24415,0
notchParam-23,true,1.00,1343,352,1337,325,127274,0
notchParam-24,true,1.00,1054,320,1052,293,104354,0
notchParam-25,true,1.00,1150,316,1148,289,109172,0
notchParam-26,true,1.00,1125,330,1118,304,108705,0
notchParam-27,true,1.00,244,313,241,287,22272,0
notchParam-28,true,1.00,548,317,545,290,52469,0
notchParam-29,true,1.00,626,326,625,299,60123,0
notchParam-30,true,1.00,246,306,245,280,22599,0
notchParam-31,true,1.00,979,328,977,301,90029,0
notchParam-32,true,1.00,800,308,797,282,75708,0
notchParam-33,true,1.00,244,300,244,274,21987,0
notchParam-34,true,1.00,762,308,760,282,73096,0
notchParam-35,true,1.00,847,317,846,290,77501,0
notchParam-36,true,1.00,751,302,749,276,73484,0
notchParam-37,true,1.00,232,300,228,274,19738,0
notchParam-38,true,1.00,245,306,245,280,22405,0
notchParam-39,true,1.00,780,304,777,278,71554,0
notchParam-40,true,1.00,547,314,542,288,50323,0
notchParam-41,true,1.00,525,321,523,295,49558,0
notchParam-42,true,1.00,253,308,252,282,23983,0
notchParam-43,true,1.00,1162,326,1161,299,109536,0
notchParam-44,true,1.00,1092,316,1090,289,107685,0
notchParam-45,true,1.00,1092,330,1088,290,111586,0
notchParam-46,true,1.00,1089,314,1088,287,101845,0
notchParam-47,true,1.00,270,302,268,276,25231,0
notchParam-48,true,1.00,231,315,229,289,20672,0
notchParam-49,true,1.00,268,316,267,284,23543,0
notchParam-50,true,1.00,343,330,341,304,26525,0
notchParam-51,true,1.00,242,306,240,280,20479,0
notchParam-52,true,1.00,761,304,759,278,75374,0
notchParam-53,true,1.00,796,300,795,274,77736,0
notchParam-54,true,1.00,972,322,968,295,84814,0
notchParam-55,true,1.00,262,317,261,291,23110,0
notchParam-56,true,1.00,237,304,235,278,20901,0
notchParam-57,true,1.00,1103,322,1100,295,110364,0
notchParam-58,true,1.00,628,329,626,303,57150,0
notchParam-59,true,1.00,1285,333,1283,306,122087,0
notchParam-60,true,1.00,641,346,639,319,56601,0
notchParam-61,true,1.00,1285,333,1285,306,120158,0
notchParam-62,true,1.00,731,300,730,274,65002,0
notchParam-63,true,1.00,596,322,595,295,55036,0
notchParam-64,true,1.00,556,330,552,303,55312,0
notchParam-65,true,1.00,613,316,612,289,58863,0
notchParam-66,true,1.00,590,334,587,307,54482,0
notchParam-67,true,1.00,993,336,992,310,93696,0
notchParam-68,true,1.00,759,308,758,280,71806,0
notchParam-69,true,1.00,799,300,796,274,71866,0
notchParam-70,true,1.00,786,306,784,280,75456,0
notchParam-71,true,1.00,667,339,664,312,64243,0
notchParam-72,true,1.00,572,329,571,301,54364,0
notchParam-73,true,1.00,527,310,524,284,50699,0
notchParam-74,true,1.00,654,329,652,302,60538,0
notchParam-75,true,1.00,588,315,586,288,57218,0
notchParam-76,true,1.00,1049,330,1049,303,101948,0
notchParam-77,true,1.00,584,315,581,289,55023,0
notchParam-78,true,1.00,1091,316,1091,289,108812,0
notchParam-79,true,1.00,582,320,580,293,55066,0
notchParam-80,true,1.00,283,332,283,306,24933,0
notchParam-81,true,1.00,562,330,559,303,54553,0
notchParam-82,true,1.00,241,305,240,279,21176,0
notchParam-83,true,1.00,249,306,245,280,22726,0
notchParam-84,true,1.00,795,308,794,282,73361,0
notchParam-85,true,1.00,1038,324,1037,297,90347,0
notchParam-86,true,1.00,1025,306,1021,279,98967,0
notchParam-87,true,1.00,237,314,235,288,22145,0
notchParam-88,true,1.00,267,308,264,282,24183,0
notchParam-89,true,1.00,247,304,244,278,22593,0
notchParam-90,true,1.00,240,300,237,274,21636,0
notchParam-91,true,1.00,1021,326,1020,299,95247,0
notchParam-92,true,1.00,1048,308,1043,281,98022,0
notchParam-93,true,1.00,1083,324,1083,297,104147,0
notchParam-94,true,1.00,1044,332,1041,305,101650,0
notchParam-95,true,1.00,1269,363,1266,336,118807,0
notchParam-96,true,1.00,579,314,577,288,57484,0
notchParam-97,true,1.00,545,310,543,284,49751,0
notchParam-98,true,1.00,248,308,245,282,22449,0
notchParam-99,true,1.00,969,322,969,295,85709,0
notchParam-100,true,1.00,766,304,763,278,75793,0
