NDW:0.0
TTFW:2.0
DFPT:2.0
DFPAP:3.0
DFPMP:2.0
RIGHT_WINDOW_BORDER_X:115.0
level,win/fail,% travelled,run time,game ticks,planning time,total plannings,nodes evaluated,most backtracked nodes
ge-1,true,1.00,590,261,580,233,26526,0
ge-2,true,1.00,469,244,465,234,20970,0
ge-3,true,1.00,200,232,193,221,7789,0
ge-4,true,1.00,2768,311,2764,299,124914,0
ge-5,true,1.00,43,199,35,189,1312,0
ge-6,true,1.00,817,262,806,250,37641,0
ge-7,true,1.00,130,224,121,214,5337,0
ge-8,true,1.00,237,233,226,223,10851,0
ge-9,true,1.00,556,214,551,204,25569,0
ge-10,true,1.00,41,199,36,189,1253,0
ge-11,true,1.00,154,214,150,203,6552,0
ge-12,true,1.00,42,199,39,189,1254,0
ge-13,true,1.00,320,254,310,244,14272,0
ge-14,true,1.00,783,273,774,261,34400,0
ge-15,true,1.00,743,246,737,236,34080,0
ge-16,true,1.00,243,262,233,252,10485,0
ge-17,true,1.00,408,231,401,221,17650,0
ge-18,true,1.00,505,269,497,257,22264,0
ge-19,true,1.00,558,258,555,246,24394,0
ge-20,true,1.00,434,238,427,228,19342,0
ge-21,true,1.00,295,209,289,199,13065,0
ge-22,true,1.00,1067,228,1057,218,49886,0
ge-23,true,1.00,1604,267,1597,253,73237,0
ge-24,true,1.00,665,240,655,230,30771,0
ge-25,true,1.00,1185,256,1178,246,56360,0
ge-26,true,1.00,298,209,291,199,13976,0
ge-27,true,1.00,55,226,46,216,1987,0
ge-28,true,1.00,472,207,463,197,20662,0
ge-29,true,1.00,218,220,212,193,9622,0
ge-30,true,1.00,2011,296,2000,286,92212,0
ge-31,true,1.00,1870,281,1866,271,85070,0
ge-32,true,1.00,140,220,135,210,5666,0
ge-33,true,1.00,134,239,122,217,5478,0
ge-34,true,1.00,724,216,717,206,33870,0
ge-35,true,1.00,1037,295,1033,285,49592,0
ge-36,true,1.00,1811,281,1804,271,88035,0
ge-37,true,1.00,247,202,242,192,10518,0
ge-38,true,1.00,1430,258,1421,248,65919,0
ge-39,true,1.00,288,229,279,219,12589,0
ge-40,true,1.00,40,199,32,189,1242,0
ge-41,true,1.00,205,207,196,191,9670,0
ge-42,true,1.00,542,270,531,260,24117,0
ge-43,true,1.00,474,252,466,242,22793,0
ge-44,true,1.00,771,239,763,229,35254,0
ge-45,true,1.00,371,229,368,219,16934,0
ge-46,true,1.00,1268,268,1263,258,58317,0
ge-47,true,1.00,1137,250,1129,240,52891,0
ge-48,true,1.00,406,237,399,227,18942,0
ge-49,true,1.00,141,199,138,189,6551,0
ge-50,true,1.00,727,233,723,223,32498,0
ge-51,true,1.00,151,239,141,229,5998,0
ge-52,true,1.00,476,295,462,281,21110,0
ge-53,true,1.00,282,219,276,209,12414,0
ge-54,true,1.00,447,240,438,230,20778,0
ge-55,true,1.00,369,246,361,235,17417,0
ge-56,true,1.00,572,238,567,215,24963,0
ge-57,true,1.00,1519,271,1513,259,71272,0
ge-58,true,1.00,206,282,194,272,7928,0
ge-59,true,1.00,836,214,829,204,38598,0
ge-60,true,1.00,1168,239,1163,229,52666,0
ge-61,true,1.00,338,205,333,195,14784,0
ge-62,true,1.00,485,213,479,203,21887,0
ge-63,true,1.00,1537,245,1528,234,68190,0
ge-64,false,1.00,559,264,548,241,26067,0
ge-65,true,1.00,949,243,940,233,44168,0
ge-66,true,1.00,2275,282,2267,270,107972,0
ge-67,true,1.00,204,257,196,246,8750,0
ge-68,true,1.00,129,227,121,217,5153,0
ge-69,true,1.00,177,203,172,193,7712,0
ge-70,true,1.00,1518,259,1513,249,71441,0
ge-71,true,1.00,918,240,907,230,43958,0
ge-72,true,1.00,193,261,184,250,8212,0
ge-73,true,1.00,359,220,352,207,17066,0
ge-74,true,1.00,2025,368,2014,358,91396,0
ge-75,true,1.00,267,249,263,220,11289,0
ge-76,true,1.00,925,223,916,213,43534,0
ge-77,true,1.00,2294,281,2291,271,106587,0
ge-78,true,1.00,712,262,706,251,32109,0
ge-79,true,1.00,193,223,189,210,8196,0
ge-80,true,1.00,61,222,53,211,1976,0
ge-81,true,1.00,60,216,53,206,1999,0
ge-82,true,1.00,70,233,60,205,2421,0
ge-83,false,1.00,540,259,529,236,24489,0
ge-84,true,1.00,1253,231,1249,221,57057,0
ge-85,true,1.00,603,215,598,205,27989,0
ge-86,true,1.00,1020,230,1012,219,46096,0
ge-87,true,1.00,663,239,658,229,28491,0
ge-88,true,1.00,899,262,889,250,36152,0
ge-89,true,1.00,178,261,167,251,6447,0
ge-90,true,1.00,43,199,37,189,1284,0
ge-91,true,1.00,1077,228,1071,218,47616,0
ge-92,true,1.00,50,205,43,195,1557,0
ge-93,true,1.00,1752,268,1741,258,74612,0
ge-94,true,1.00,509,221,500,211,19972,0
ge-95,true,1.00,130,267,115,257,3922,0
ge-96,true,1.00,868,277,857,266,34596,0
ge-97,true,1.00,991,241,977,231,36881,0
ge-98,true,1.00,37,199,27,189,1209,0
ge-99,true,1.00,289,209,280,199,11320,0
ge-100,true,1.00,208,205,201,195,8040,0
