NDW:0.0
TTFW:1.4
DFPT:2.0
DFPAP:3.0
DFPMP:10.0
RIGHT_WINDOW_BORDER_X:176.0
level,win/fail,% travelled,run time,game ticks,planning time,total plannings,nodes evaluated,most backtracked nodes
Krys-1,false,0.38,28872,999,28870,999,1008227,0
Krys-2,false,0.79,24070,999,24061,999,875741,0
Krys-3,true,1.00,6115,545,6107,511,296755,0
Krys-4,true,1.00,2076,402,2068,378,98459,0
Krys-5,true,1.00,4006,414,3998,387,216888,0
Krys-6,true,1.00,2199,412,2188,386,98938,0
Krys-7,true,1.00,306,378,294,353,15449,0
Krys-8,true,1.00,3408,505,3401,479,168473,0
Krys-9,true,1.00,3944,438,3935,399,214349,0
Krys-10,true,1.00,1863,403,1852,366,92212,0
Krys-11,true,1.00,253,390,244,363,10662,0
Krys-12,true,1.00,3277,425,3269,402,139195,0
Krys-13,true,1.00,3907,408,3897,374,203647,0
Krys-14,false,0.79,24320,999,24311,999,835078,0
Krys-15,true,1.00,5067,440,5057,406,266743,0
Krys-16,false,0.69,23319,999,23314,999,808263,0
Krys-17,true,1.00,2249,435,2241,407,103504,0
Krys-18,true,1.00,1993,429,1980,403,100009,0
Krys-19,true,1.00,3759,399,3749,365,199622,0
Krys-20,true,1.00,5019,612,5008,576,247560,0
Krys-21,true,1.00,2407,360,2399,327,142160,0
Krys-22,true,1.00,3991,419,3978,386,218934,0
Krys-23,true,1.00,2007,477,1996,442,91311,0
Krys-24,false,0.70,25888,999,25882,999,883301,0
Krys-25,true,1.00,1914,396,1904,372,86616,0
Krys-26,true,1.00,5894,442,5886,412,311375,0
Krys-27,true,1.00,4138,423,4131,393,199825,0
Krys-28,true,1.00,6671,566,6660,525,325689,0
Krys-29,true,1.00,1970,422,1957,404,85291,0
Krys-30,true,1.00,2868,472,2859,454,122823,0
Krys-31,true,1.00,1407,444,1400,418,69396,0
Krys-32,true,1.00,389,373,381,355,17316,0
Krys-33,true,1.00,520,364,515,341,25670,0
Krys-34,true,1.00,2260,407,2253,389,104623,0
Krys-35,true,1.00,3230,384,3223,353,180063,0
Krys-36,true,1.00,4609,445,4601,417,225296,0
Krys-37,true,1.00,5413,491,5403,473,264904,0
Krys-38,true,1.00,4562,450,4555,419,242202,0
Krys-39,true,1.00,5534,429,5522,405,251370,0
Krys-40,true,1.00,3663,415,3658,388,189517,0
Krys-41,true,1.00,5711,493,5702,462,287982,0
Krys-42,true,1.00,2219,418,2211,395,119233,0
Krys-43,true,1.00,2221,355,2215,326,124363,0
Krys-44,true,1.00,6800,528,6792,494,344331,0
Krys-45,true,1.00,1193,464,1171,439,44464,0
Krys-46,true,1.00,1786,463,1771,432,76178,0
Krys-47,true,1.00,1065,465,1055,438,51534,0
Krys-48,true,1.00,2785,372,2770,347,161090,0
Krys-49,true,1.00,992,386,985,352,47593,0
Krys-50,true,1.00,5954,454,5946,423,294687,0
Krys-51,true,1.00,4584,471,4578,434,239167,0
Krys-52,true,1.00,2245,502,2232,475,99158,0
Krys-53,true,1.00,2206,450,2199,423,96225,0
Krys-54,true,1.00,4191,476,4179,446,218871,0
Krys-55,true,1.00,2928,512,2920,477,141022,0
Krys-56,false,0.59,25780,999,25772,999,884795,0
Krys-57,true,1.00,3628,377,3623,347,190528,0
Krys-58,true,1.00,2788,452,2773,434,135349,0
Krys-59,false,0.89,21986,999,21975,999,776767,0
Krys-60,false,0.91,24260,999,24249,999,938269,0
Krys-61,false,0.48,26548,999,26538,999,905716,0
Krys-62,true,1.00,1254,443,1242,413,46699,0
Krys-63,true,1.00,4330,606,4319,574,179559,0
Krys-64,true,1.00,2431,487,2420,460,110920,0
Krys-65,true,1.00,2309,445,2297,427,93845,0
Krys-66,true,1.00,3885,510,3874,483,167749,0
Krys-67,true,1.00,2663,478,2651,441,119351,0
Krys-68,true,1.00,5294,402,5289,368,277321,0
Krys-69,true,1.00,7662,717,7653,682,286885,0
Krys-70,false,0.80,24623,999,24614,999,887798,0
Krys-71,true,1.00,4078,369,4073,346,229915,0
Krys-72,true,1.00,1816,496,1797,470,92684,0
Krys-73,true,1.00,3287,505,3278,477,144308,0
Krys-74,true,1.00,3608,471,3596,438,169520,0
Krys-75,true,1.00,706,384,693,360,26588,0
Krys-76,true,1.00,3720,372,3713,354,190573,0
Krys-77,true,1.00,1113,346,1102,322,62388,0
Krys-78,false,0.91,22475,999,22464,999,888911,0
Krys-79,true,1.00,740,397,729,369,29045,0
Krys-80,true,1.00,623,426,611,400,24655,0
Krys-81,true,1.00,1625,412,1614,390,81752,0
Krys-82,true,1.00,935,388,920,354,36231,0
Krys-83,true,1.00,4681,453,4666,436,222779,0
Krys-84,true,1.00,327,384,313,347,15633,0
Krys-85,true,1.00,2833,485,2826,461,131676,0
Krys-86,true,1.00,2070,423,2056,396,89018,0
Krys-87,true,1.00,804,383,797,365,30928,0
Krys-88,true,1.00,1618,426,1599,401,74504,0
Krys-89,true,1.00,1449,377,1436,349,68666,0
Krys-90,true,1.00,2897,359,2885,334,152085,0
Krys-91,true,1.00,454,395,439,357,24613,0
Krys-92,true,1.00,5686,505,5679,478,261868,0
Krys-93,true,1.00,2832,381,2827,348,149748,0
Krys-94,true,1.00,1471,367,1461,340,88436,0
Krys-95,true,1.00,1377,451,1364,415,57238,0
Krys-96,true,1.00,3939,405,3931,371,222739,0
Krys-97,true,1.00,2670,375,2663,349,134936,0
Krys-98,true,1.00,3989,560,3974,538,177976,0
Krys-99,true,1.00,1637,460,1625,421,69142,0
Krys-100,true,1.00,3331,363,3321,337,205706,0
