NDW:0.0
TTFW:1.0
DFPT:2.0
DFPAP:3.0
DFPMP:50.0
RIGHT_WINDOW_BORDER_X:295.0
level,win/fail,% travelled,run time,game ticks,planning time,total plannings,nodes evaluated,most backtracked nodes
ore-1,true,1.00,1429,397,1417,359,80050,0
ore-2,false,0.70,2178,282,2172,282,116385,0
ore-3,true,1.00,1665,474,1653,441,92909,0
ore-4,true,1.00,2113,393,2103,366,115075,0
ore-5,true,1.00,1595,374,1586,336,89954,0
ore-6,true,1.00,1673,472,1662,433,91655,0
ore-7,true,1.00,1615,432,1604,394,89852,0
ore-8,true,1.00,3296,394,3285,357,176093,0
ore-9,true,1.00,1224,388,1213,356,67355,0
ore-10,true,1.00,1854,432,1840,405,100964,0
ore-11,true,1.00,1845,460,1837,423,97358,0
ore-12,false,0.46,1812,220,1809,220,89568,0
ore-13,true,1.00,1710,437,1695,407,91824,0
ore-14,true,1.00,2012,421,1997,376,109540,0
ore-15,true,1.00,2047,403,2042,376,111130,0
ore-16,true,1.00,1713,386,1703,351,94235,0
ore-17,true,1.00,2024,478,2011,431,111473,0
ore-18,true,1.00,1543,425,1535,382,84179,0
ore-19,true,1.00,1624,408,1618,381,89869,0
ore-20,true,1.00,2204,417,2192,381,122538,0
ore-21,true,1.00,1943,424,1927,397,101863,0
ore-22,false,0.62,1832,278,1826,278,81097,0
ore-23,true,1.00,1878,418,1871,384,98865,0
ore-24,true,1.00,1641,464,1630,412,87538,0
ore-25,true,1.00,1837,440,1823,403,103014,0
ore-26,true,1.00,1583,423,1570,383,79250,0
ore-27,false,0.24,1420,120,1420,120,68368,0
ore-28,true,1.00,1538,417,1527,385,80588,0
ore-29,false,0.48,1724,210,1719,210,78436,0
ore-30,true,1.00,1487,401,1478,355,82486,0
ore-31,true,1.00,1797,468,1785,428,96509,0
ore-32,true,1.00,1753,403,1745,376,95508,0
ore-33,true,1.00,1851,451,1841,422,102081,0
ore-34,true,1.00,1871,435,1862,402,103680,0
ore-35,true,1.00,1621,398,1614,369,92594,0
ore-36,true,1.00,1580,428,1566,390,87723,0
ore-37,false,0.34,1805,139,1801,139,87252,0
ore-38,true,1.00,1368,404,1358,357,75077,0
ore-39,true,1.00,2234,443,2222,396,123830,0
ore-40,true,1.00,2349,411,2343,378,127060,0
ore-41,true,1.00,1440,388,1427,362,82523,0
ore-42,true,1.00,2958,481,2953,435,162960,0
ore-43,true,1.00,2287,415,2276,388,121068,0
ore-44,true,1.00,2102,391,2087,348,118953,0
ore-45,true,1.00,3309,467,3295,427,172496,0
ore-46,false,0.13,835,48,835,48,41946,0
ore-47,false,0.85,2803,377,2800,377,149069,0
ore-48,true,1.00,3069,457,3057,424,175091,0
ore-49,true,1.00,1475,430,1463,374,82841,0
ore-50,true,1.00,2750,408,2738,379,156109,0
ore-51,true,1.00,2363,405,2347,367,123622,0
ore-52,true,1.00,1928,419,1915,392,102351,0
ore-53,true,1.00,1798,424,1787,379,98178,0
ore-54,false,0.72,2575,316,2567,316,131349,0
ore-55,true,1.00,1611,398,1602,362,93475,0
ore-56,true,1.00,1620,381,1610,354,92007,0
ore-57,true,1.00,1858,431,1844,387,103872,0
ore-58,true,1.00,1680,397,1674,370,93887,0
ore-59,true,1.00,1956,425,1947,393,109045,0
ore-60,true,1.00,2220,373,2210,340,118245,0
ore-61,true,1.00,2746,413,2735,381,150320,0
ore-62,true,1.00,2231,418,2217,389,129924,0
ore-63,false,0.32,2138,199,2133,199,109228,0
ore-64,true,1.00,1224,395,1216,365,69723,0
ore-65,true,1.00,2017,423,2008,390,115797,0
ore-66,true,1.00,1936,435,1927,407,112729,0
ore-67,true,1.00,1889,415,1873,383,106740,0
ore-68,true,1.00,1377,403,1367,367,74280,0
ore-69,true,1.00,4266,543,4252,500,209455,0
ore-70,false,0.96,3306,410,3299,410,182775,0
ore-71,true,1.00,1589,388,1581,360,92452,0
ore-72,true,1.00,1491,396,1481,367,86183,0
ore-73,true,1.00,1853,418,1838,378,107245,0
ore-74,true,1.00,3158,469,3149,426,162373,0
ore-75,true,1.00,2090,452,2084,423,120329,0
ore-76,true,1.00,1394,359,1389,326,82398,0
ore-77,true,1.00,1735,421,1728,373,102049,0
ore-78,true,1.00,1943,413,1932,386,111897,0
ore-79,true,1.00,2092,416,2082,389,123435,0
ore-80,true,1.00,1619,386,1610,358,93428,0
ore-81,true,1.00,1826,413,1817,384,103540,0
ore-82,true,1.00,1775,398,1760,364,101344,0
ore-83,true,1.00,1571,399,1561,372,89881,0
ore-84,true,1.00,3991,454,3983,420,194304,0
ore-85,true,1.00,1815,400,1806,364,104717,0
ore-86,false,0.60,2296,284,2288,284,127883,0
ore-87,true,1.00,1366,376,1360,350,76647,0
ore-88,true,1.00,2217,439,2208,409,130467,0
ore-89,true,1.00,2076,405,2067,378,112177,0
ore-90,true,1.00,2588,477,2581,426,146608,0
ore-91,true,1.00,2208,401,2199,373,124673,0
ore-92,true,1.00,1609,416,1599,387,91059,0
ore-93,false,0.14,1706,76,1705,76,79789,0
ore-94,true,1.00,2130,457,2121,422,119151,0
ore-95,true,1.00,2476,454,2463,415,136868,0
ore-96,true,1.00,2256,454,2245,425,126611,0
ore-97,true,1.00,2094,452,2085,412,116665,0
ore-98,true,1.00,1723,449,1716,415,99795,0
ore-99,true,1.00,2467,431,2457,402,142160,0
ore-100,true,1.00,1722,406,1708,378,100161,0
