NDW:0.0
TTFW:0.6
DFPT:2.0
DFPAP:3.0
DFPMP:50.0
RIGHT_WINDOW_BORDER_X:400.0
level,win/fail,% travelled,run time,game ticks,planning time,total plannings,nodes evaluated,most backtracked nodes
Mario-1,true,1.00,698,346,690,291,29551,0
Mario-2,true,1.00,1338,287,1334,247,51773,0
Mario-3,true,1.00,1408,248,1400,207,71833,0
Mario-4,true,1.00,2631,403,2623,343,101038,0
Mario-5,true,1.00,2216,428,2205,383,88747,0
Mario-6,true,1.00,1545,246,1539,209,77540,0
Mario-7,true,1.00,2493,444,2482,379,96110,0
Mario-8,true,1.00,2089,380,2082,338,84957,0
Mario-9,true,1.00,932,347,921,295,39286,0
Mario-10,true,1.00,1649,262,1643,209,82333,0
Mario-11,true,1.00,1522,354,1512,297,62454,0
Mario-12,true,1.00,4986,597,4971,537,183377,0
Mario-13,true,1.00,1647,312,1641,271,83651,0
Mario-14,true,1.00,740,313,729,252,28765,0
Mario-15,true,1.00,5101,827,5078,772,200120,0
