NDW:0.0
TTFW:0.2
DFPT:2.0
DFPAP:3.0
DFPMP:0.0
RIGHT_WINDOW_BORDER_X:350.0
level,win/fail,% travelled,run time,game ticks,planning time,total plannings,nodes evaluated,most backtracked nodes
notchParamRand-1,true,1.00,4683,310,4678,278,270838,0
notchParamRand-2,true,1.00,4118,294,4116,262,237723,0
notchParamRand-3,true,1.00,4445,294,4444,262,266744,0
notchParamRand-4,true,1.00,4197,294,4195,262,249719,0
notchParamRand-5,true,1.00,3694,294,3693,262,213640,0
notchParamRand-6,true,1.00,3671,294,3670,262,208912,0
notchParamRand-7,true,1.00,3762,294,3760,262,217291,0
notchParamRand-8,true,1.00,4423,298,4421,266,260616,0
notchParamRand-9,true,1.00,4015,294,3997,262,231394,0
notchParamRand-10,true,1.00,4611,298,4608,266,259719,0
notchParamRand-11,true,1.00,3495,294,3492,262,193767,0
notchParamRand-12,true,1.00,3732,298,3729,266,210357,0
notchParamRand-13,true,1.00,5453,304,5452,272,336419,0
notchParamRand-14,true,1.00,4634,300,4631,268,279271,0
notchParamRand-15,true,1.00,4100,302,4100,270,231519,0
notchParamRand-16,true,1.00,3992,294,3991,262,229466,0
notchParamRand-17,true,1.00,3903,294,3902,262,218487,0
notchParamRand-18,true,1.00,4847,306,4847,274,293818,0
notchParamRand-19,true,1.00,4168,300,4162,268,231421,0
notchParamRand-20,true,1.00,5127,310,5123,278,295154,0
notchParamRand-21,true,1.00,4007,294,4007,262,221942,0
notchParamRand-22,true,1.00,3913,294,3913,262,224163,0
notchParamRand-23,true,1.00,5069,308,5066,276,296483,0
notchParamRand-24,true,1.00,4787,304,4787,272,274905,0
notchParamRand-25,true,1.00,3893,294,3892,262,218935,0
notchParamRand-26,true,1.00,4708,318,4707,286,263279,0
notchParamRand-27,true,1.00,3733,294,3730,262,209906,0
notchParamRand-28,true,1.00,3883,296,3882,264,223528,0
notchParamRand-29,true,1.00,4179,294,4177,262,241236,0
notchParamRand-30,true,1.00,3983,294,3982,262,239701,0
notchParamRand-31,true,1.00,4228,302,4225,270,236197,0
notchParamRand-32,true,1.00,4375,298,4374,266,252679,0
notchParamRand-33,true,1.00,4407,294,4405,262,268457,0
notchParamRand-34,true,1.00,4311,296,4309,264,250479,0
notchParamRand-35,true,1.00,3753,298,3750,266,217365,0
notchParamRand-36,true,1.00,3474,294,3473,262,188268,0
notchParamRand-37,true,1.00,3604,294,3601,262,202729,0
notchParamRand-38,true,1.00,5063,306,5060,274,312220,0
notchParamRand-39,true,1.00,4600,302,4597,270,264908,0
notchParamRand-40,true,1.00,4713,302,4710,270,293010,0
notchParamRand-41,true,1.00,4249,294,4244,262,238070,0
notchParamRand-42,true,1.00,3619,294,3616,262,206081,0
notchParamRand-43,true,1.00,3602,294,3601,262,204497,0
notchParamRand-44,true,1.00,3972,294,3972,262,217120,0
notchParamRand-45,true,1.00,4340,296,4338,264,251142,0
notchParamRand-46,true,1.00,4627,300,4623,268,270007,0
notchParamRand-47,true,1.00,3537,298,3536,266,196739,0
notchParamRand-48,true,1.00,4968,302,4968,270,290719,0
notchParamRand-49,true,1.00,4241,298,4238,266,243931,0
notchParamRand-50,true,1.00,4551,300,4549,268,268333,0
notchParamRand-51,true,1.00,3731,294,3728,262,212958,0
notchParamRand-52,true,1.00,4445,300,4442,268,261277,0
notchParamRand-53,true,1.00,4220,294,4216,262,244938,0
notchParamRand-54,true,1.00,5881,314,5879,282,350664,0
notchParamRand-55,true,1.00,4517,294,4514,262,265740,0
notchParamRand-56,true,1.00,4425,294,4423,262,263980,0
notchParamRand-57,true,1.00,4093,294,4092,262,242011,0
notchParamRand-58,true,1.00,4449,300,4444,268,252188,0
notchParamRand-59,true,1.00,3832,294,3831,262,221441,0
notchParamRand-60,true,1.00,4646,306,4644,274,268053,0
notchParamRand-61,true,1.00,3958,302,3957,270,223840,0
notchParamRand-62,true,1.00,3578,294,3574,262,194187,0
notchParamRand-63,true,1.00,4314,298,4313,266,255399,0
notchParamRand-64,true,1.00,4413,302,4410,270,252439,0
notchParamRand-65,true,1.00,5477,314,5475,282,326994,0
notchParamRand-66,true,1.00,4930,302,4924,270,280973,0
notchParamRand-67,true,1.00,3860,294,3858,262,220300,0
notchParamRand-68,true,1.00,4996,310,4993,278,287841,0
notchParamRand-69,true,1.00,3919,294,3918,262,223837,0
notchParamRand-70,true,1.00,3622,294,3617,262,207771,0
notchParamRand-71,true,1.00,3995,298,3994,266,223915,0
notchParamRand-72,true,1.00,4065,300,4064,268,223352,0
notchParamRand-73,true,1.00,3888,296,3881,264,214736,0
notchParamRand-74,true,1.00,4076,294,4073,262,235964,0
notchParamRand-75,true,1.00,3802,294,3799,262,216968,0
notchParamRand-76,true,1.00,3810,298,3809,266,215020,0
notchParamRand-77,true,1.00,4861,312,4860,280,280490,0
notchParamRand-78,true,1.00,4444,298,4443,266,264893,0
notchParamRand-79,true,1.00,3569,294,3567,262,195414,0
notchParamRand-80,true,1.00,4161,300,4156,268,220995,0
notchParamRand-81,true,1.00,3683,294,3681,262,205475,0
notchParamRand-82,true,1.00,3987,296,3981,264,227838,0
notchParamRand-83,true,1.00,4109,294,4108,262,241647,0
notchParamRand-84,true,1.00,3878,294,3875,262,217997,0
notchParamRand-85,true,1.00,3936,294,3932,262,224621,0
notchParamRand-86,true,1.00,4070,306,4069,274,220954,0
notchParamRand-87,true,1.00,4960,306,4957,274,301544,0
notchParamRand-88,true,1.00,4358,308,4356,276,240298,0
notchParamRand-89,true,1.00,4073,298,4068,266,229840,0
notchParamRand-90,true,1.00,4637,298,4636,266,268855,0
notchParamRand-91,true,1.00,3714,294,3713,262,206422,0
notchParamRand-92,true,1.00,3887,294,3885,262,220268,0
notchParamRand-93,true,1.00,3979,294,3977,262,209193,0
notchParamRand-94,true,1.00,5066,304,5065,272,296087,0
notchParamRand-95,true,1.00,4089,298,4085,266,241962,0
notchParamRand-96,true,1.00,4741,308,4741,276,268464,0
notchParamRand-97,true,1.00,5191,308,5191,276,298319,0
notchParamRand-98,true,1.00,3791,294,3788,262,211042,0
notchParamRand-99,true,1.00,4136,300,4136,268,235681,0
notchParamRand-100,true,1.00,4893,300,4891,268,300942,0
