NDW:0.0
TTFW:1.6
DFPT:2.0
DFPAP:3.0
DFPMP:50.0
RIGHT_WINDOW_BORDER_X:215.0
level,win/fail,% travelled,run time,game ticks,planning time,total plannings,nodes evaluated,most backtracked nodes
hopper-1,true,1.00,1046,323,1044,304,114042,0
hopper-2,true,1.00,1273,333,1270,314,137092,0
hopper-3,true,1.00,2811,378,2810,359,275651,0
hopper-4,false,0.27,1824,126,1824,126,160119,0
hopper-5,true,1.00,794,324,792,305,86880,0
hopper-6,true,1.00,936,313,936,293,99592,0
hopper-7,true,1.00,2334,360,2332,341,218268,0
hopper-8,false,0.42,1135,146,1134,146,104387,0
hopper-9,true,1.00,914,320,911,296,104009,0
hopper-10,true,1.00,877,317,876,298,99864,0
hopper-11,true,1.00,619,321,614,302,67331,0
hopper-12,true,1.00,1232,320,1230,301,145484,0
hopper-13,true,1.00,2185,351,2184,332,229070,0
hopper-14,true,1.00,1043,332,1039,309,116843,0
hopper-15,true,1.00,935,303,932,284,99566,0
hopper-16,false,0.55,976,170,976,170,90546,0
hopper-17,true,1.00,842,315,840,296,89690,0
hopper-18,true,1.00,1037,310,1036,291,106476,0
hopper-19,true,1.00,845,315,842,296,99030,0
hopper-20,true,1.00,1046,336,1044,316,111566,0
hopper-21,true,1.00,2501,386,2498,366,235298,0
hopper-22,false,0.33,1069,117,1069,117,97732,0
hopper-23,true,1.00,905,312,901,293,99908,0
hopper-24,true,1.00,582,330,579,309,62826,0
hopper-25,true,1.00,1065,309,1064,290,122631,0
hopper-26,true,1.00,999,301,997,282,104272,0
hopper-27,true,1.00,806,299,803,280,90693,0
hopper-28,false,0.86,2543,310,2542,310,262787,0
hopper-29,false,0.26,1395,109,1394,109,115711,0
hopper-30,true,1.00,847,332,845,312,94809,0
hopper-31,false,0.77,2396,280,2396,280,211820,0
hopper-32,true,1.00,1227,299,1226,280,137014,0
hopper-33,false,0.50,952,171,952,171,90534,0
hopper-34,true,1.00,2010,354,2007,335,211462,0
hopper-35,true,1.00,1253,347,1251,327,152369,0
hopper-36,true,1.00,656,316,653,297,70988,0
hopper-37,false,0.51,803,166,802,166,74187,0
hopper-38,false,0.52,2602,229,2601,229,232768,0
hopper-39,true,1.00,2424,358,2424,339,243489,0
hopper-40,true,1.00,980,337,978,318,98424,0
hopper-41,true,1.00,1603,321,1601,302,169466,0
hopper-42,true,1.00,843,317,838,298,87705,0
hopper-43,false,0.45,2094,167,2093,167,185415,0
hopper-44,true,1.00,1204,313,1203,293,135145,0
hopper-45,false,0.43,1309,160,1309,160,121762,0
hopper-46,false,0.67,1779,237,1775,237,181128,0
hopper-47,true,1.00,1291,309,1290,290,142871,0
hopper-48,true,1.00,1147,336,1145,317,121119,0
hopper-49,true,1.00,1036,323,1036,304,120441,0
hopper-50,true,1.00,3451,395,3450,376,282717,0
hopper-51,false,0.34,1499,131,1499,131,119127,0
hopper-52,true,1.00,702,307,701,288,79769,0
hopper-53,false,0.63,1718,227,1717,227,166090,0
hopper-54,true,1.00,611,302,609,277,56450,0
hopper-55,true,1.00,751,341,751,318,84191,0
hopper-56,true,1.00,668,297,666,278,77251,0
hopper-57,true,1.00,1179,329,1178,310,115775,0
hopper-58,true,1.00,2523,359,2517,340,264983,0
hopper-59,true,1.00,700,306,697,287,80185,0
hopper-60,true,1.00,1055,341,1052,322,123769,0
hopper-61,true,1.00,1821,329,1820,310,190472,0
hopper-62,true,1.00,1101,332,1099,313,115954,0
hopper-63,true,1.00,3218,391,3217,372,304283,0
hopper-64,true,1.00,1331,321,1327,302,137813,0
hopper-65,true,1.00,946,327,945,307,107409,0
hopper-66,true,1.00,2306,382,2305,363,228643,0
hopper-67,true,1.00,766,323,763,304,85336,0
hopper-68,true,1.00,627,328,625,309,67105,0
hopper-69,false,0.84,2024,294,2022,294,188651,0
hopper-70,true,1.00,1075,312,1072,289,120620,0
hopper-71,true,1.00,608,305,608,286,63590,0
hopper-72,true,1.00,1163,303,1161,284,127178,0
hopper-73,true,1.00,907,315,905,296,97779,0
hopper-74,true,1.00,736,305,734,286,75271,0
hopper-75,true,1.00,885,317,883,298,95863,0
hopper-76,true,1.00,2092,364,2089,344,237793,0
hopper-77,true,1.00,891,349,889,328,93960,0
hopper-78,true,1.00,1030,310,1026,290,124078,0
hopper-79,true,1.00,676,307,675,287,73267,0
hopper-80,true,1.00,643,313,642,294,66724,0
hopper-81,false,0.39,1004,124,1004,124,93774,0
hopper-82,false,0.46,4218,247,4218,247,341708,0
hopper-83,true,1.00,1185,324,1182,305,134719,0
hopper-84,true,1.00,1093,307,1092,288,118975,0
hopper-85,true,1.00,1489,331,1488,312,158475,0
hopper-86,true,1.00,918,315,916,296,102908,0
hopper-87,true,1.00,1003,317,1002,298,108056,0
hopper-88,true,1.00,717,331,715,312,87757,0
hopper-89,true,1.00,701,328,698,308,78619,0
hopper-90,true,1.00,778,316,776,296,88552,0
hopper-91,true,1.00,938,322,938,303,106667,0
hopper-92,true,1.00,1013,317,1011,298,103511,0
hopper-93,true,1.00,712,317,710,298,79621,0
hopper-94,true,1.00,1963,351,1961,332,211064,0
hopper-95,true,1.00,932,313,931,294,99021,0
hopper-96,true,1.00,1071,297,1069,278,121866,0
hopper-97,true,1.00,1144,312,1143,293,121748,0
hopper-98,true,1.00,1268,321,1267,302,135348,0
hopper-99,true,1.00,3603,396,3599,377,365917,0
hopper-100,true,1.00,1047,332,1047,305,114948,0
