NDW:0.0
TTFW:1.2
DFPT:2.0
DFPAP:3.0
DFPMP:7.0
RIGHT_WINDOW_BORDER_X:195.0
level,win/fail,% travelled,run time,game ticks,planning time,total plannings,nodes evaluated,most backtracked nodes
notchParamRand-1,true,1.00,1138,328,1136,311,115284,0
notchParamRand-2,true,1.00,94,308,94,291,9511,0
notchParamRand-3,true,1.00,911,308,908,291,102371,0
notchParamRand-4,true,1.00,1392,354,1392,337,156345,0
notchParamRand-5,true,1.00,176,306,174,289,17757,0
notchParamRand-6,true,1.00,299,312,299,295,34067,0
notchParamRand-7,true,1.00,201,296,200,279,20565,0
notchParamRand-8,true,1.00,408,302,408,285,39871,0
notchParamRand-9,true,1.00,492,347,487,330,56053,0
notchParamRand-10,true,1.00,701,326,699,309,80214,0
notchParamRand-11,true,1.00,66,294,63,277,6026,0
notchParamRand-12,true,1.00,219,306,215,289,23293,0
notchParamRand-13,true,1.00,1616,318,1615,301,166737,0
notchParamRand-14,true,1.00,936,316,934,299,96220,0
notchParamRand-15,true,1.00,473,308,472,291,54290,0
notchParamRand-16,true,1.00,307,300,305,283,37038,0
notchParamRand-17,true,1.00,35,294,34,277,2631,0
notchParamRand-18,true,1.00,1779,334,1777,317,193909,0
notchParamRand-19,true,1.00,132,335,129,318,14906,0
notchParamRand-20,true,1.00,1927,369,1925,352,221558,0
notchParamRand-21,true,1.00,36,296,35,279,2670,0
notchParamRand-22,true,1.00,845,328,844,311,94127,0
notchParamRand-23,true,1.00,933,358,929,341,106428,0
notchParamRand-24,true,1.00,159,326,158,309,17341,0
notchParamRand-25,true,1.00,40,308,39,290,3694,0
notchParamRand-26,true,1.00,373,331,369,314,40934,0
notchParamRand-27,true,1.00,174,300,171,283,20350,0
notchParamRand-28,true,1.00,265,312,262,295,29366,0
notchParamRand-29,true,1.00,37,298,37,281,2796,0
notchParamRand-30,true,1.00,1677,322,1675,305,183618,0
notchParamRand-31,true,1.00,251,323,246,306,28522,0
notchParamRand-32,true,1.00,67,294,61,277,6608,0
notchParamRand-33,true,1.00,1814,328,1811,311,196390,0
notchParamRand-34,true,1.00,1001,320,999,303,107821,0
notchParamRand-35,true,1.00,511,314,506,297,56124,0
notchParamRand-36,true,1.00,36,302,35,283,2777,0
notchParamRand-37,true,1.00,279,310,277,293,33183,0
notchParamRand-38,true,1.00,1740,325,1738,308,182559,0
notchParamRand-39,true,1.00,1383,336,1383,319,148716,0
notchParamRand-40,true,1.00,2106,334,2103,317,223096,0
notchParamRand-41,true,1.00,33,294,31,277,2204,0
notchParamRand-42,true,1.00,355,318,355,301,41419,0
notchParamRand-43,true,1.00,168,300,167,283,19049,0
notchParamRand-44,true,1.00,255,304,252,287,30546,0
notchParamRand-45,true,1.00,871,318,870,301,88072,0
notchParamRand-46,true,1.00,448,311,446,294,50057,0
notchParamRand-47,true,1.00,686,318,685,301,73613,0
notchParamRand-48,true,1.00,1480,334,1479,317,158460,0
notchParamRand-49,true,1.00,658,312,657,295,72547,0
notchParamRand-50,true,1.00,1511,334,1509,317,165808,0
notchParamRand-51,true,1.00,146,315,144,298,14429,0
notchParamRand-52,true,1.00,775,318,773,301,82973,0
notchParamRand-53,true,1.00,976,332,974,315,100972,0
notchParamRand-54,true,1.00,1986,358,1985,341,211374,0
notchParamRand-55,true,1.00,1890,330,1887,313,193443,0
notchParamRand-56,true,1.00,615,325,615,308,66622,0
notchParamRand-57,true,1.00,1148,334,1145,317,130513,0
notchParamRand-58,true,1.00,715,330,712,313,81567,0
notchParamRand-59,true,1.00,441,311,439,294,48015,0
notchParamRand-60,true,1.00,438,302,435,285,47770,0
notchParamRand-61,true,1.00,425,314,425,297,47418,0
notchParamRand-62,true,1.00,368,322,366,305,40424,0
notchParamRand-63,true,1.00,1275,312,1273,295,135916,0
notchParamRand-64,true,1.00,227,302,224,285,26466,0
notchParamRand-65,true,1.00,1805,346,1802,329,192920,0
notchParamRand-66,true,1.00,246,327,244,310,24943,0
notchParamRand-67,true,1.00,216,300,214,283,21874,0
notchParamRand-68,true,1.00,1354,336,1353,319,147034,0
notchParamRand-69,true,1.00,173,309,170,292,20227,0
notchParamRand-70,true,1.00,717,328,715,311,80475,0
notchParamRand-71,true,1.00,286,310,285,293,30538,0
notchParamRand-72,true,1.00,68,294,68,277,6523,0
notchParamRand-73,true,1.00,663,310,662,293,68512,0
notchParamRand-74,true,1.00,37,296,34,279,3041,0
notchParamRand-75,true,1.00,34,294,34,277,2324,0
notchParamRand-76,true,1.00,1123,347,1123,330,119455,0
notchParamRand-77,true,1.00,1584,356,1581,339,161737,0
notchParamRand-78,true,1.00,1041,324,1039,307,112589,0
notchParamRand-79,true,1.00,143,306,140,289,15042,0
notchParamRand-80,true,1.00,231,298,231,281,22649,0
notchParamRand-81,true,1.00,236,298,235,281,27498,0
notchParamRand-82,true,1.00,697,330,695,313,77565,0
notchParamRand-83,true,1.00,1147,330,1146,313,123247,0
notchParamRand-84,true,1.00,250,302,250,285,28073,0
notchParamRand-85,true,1.00,33,294,30,277,2253,0
notchParamRand-86,true,1.00,489,328,488,311,51882,0
notchParamRand-87,true,1.00,1545,314,1544,297,172002,0
notchParamRand-88,true,1.00,243,312,241,295,29343,0
notchParamRand-89,true,1.00,311,327,307,310,34542,0
notchParamRand-90,true,1.00,602,318,599,301,61524,0
notchParamRand-91,true,1.00,34,294,32,277,2384,0
notchParamRand-92,true,1.00,752,324,745,307,84547,0
notchParamRand-93,true,1.00,208,319,208,292,24307,0
notchParamRand-94,true,1.00,1580,318,1579,301,164573,0
notchParamRand-95,true,1.00,694,318,692,301,74996,0
notchParamRand-96,true,1.00,426,330,424,313,46051,0
notchParamRand-97,true,1.00,1424,351,1421,334,146993,0
notchParamRand-98,true,1.00,165,294,161,277,19787,0
notchParamRand-99,true,1.00,144,310,143,293,16057,0
notchParamRand-100,true,1.00,1414,316,1413,299,149776,0
