NDW:0.0
TTFW:0.4
DFPT:2.0
DFPAP:3.0
DFPMP:20.0
RIGHT_WINDOW_BORDER_X:235.0
level,win/fail,% travelled,run time,game ticks,planning time,total plannings,nodes evaluated,most backtracked nodes
patternCount-1,false,0.90,7685,511,7682,511,640572,0
patternCount-2,true,1.00,1645,415,1641,394,131712,0
patternCount-3,true,1.00,4382,481,4379,459,327140,0
patternCount-4,true,1.00,1735,421,1727,398,139289,0
patternCount-5,true,1.00,1653,403,1653,381,134056,0
patternCount-6,true,1.00,929,361,925,340,74985,0
patternCount-7,true,1.00,1660,383,1657,362,132741,0
patternCount-8,true,1.00,3415,429,3410,394,291046,0
patternCount-9,true,1.00,1726,412,1720,386,142998,0
patternCount-10,true,1.00,817,348,814,327,67654,0
patternCount-11,true,1.00,6201,485,6197,452,508443,0
patternCount-12,true,1.00,1350,431,1345,410,105016,0
patternCount-13,true,1.00,934,354,931,333,79497,0
patternCount-14,true,1.00,1896,423,1895,397,156690,0
patternCount-15,true,1.00,1365,393,1363,372,107771,0
patternCount-16,true,1.00,1283,371,1282,350,104787,0
patternCount-17,true,1.00,1473,370,1471,347,117982,0
patternCount-18,true,1.00,1946,402,1941,378,156041,0
patternCount-19,true,1.00,1367,390,1364,364,110916,0
patternCount-20,true,1.00,1178,366,1175,345,95175,0
patternCount-21,true,1.00,1261,356,1259,335,103438,0
patternCount-22,true,1.00,5560,493,5557,447,469959,0
patternCount-23,true,1.00,6743,498,6741,475,555465,0
patternCount-24,true,1.00,6865,471,6864,449,595303,0
patternCount-25,true,1.00,1256,381,1253,360,102186,0
patternCount-26,true,1.00,882,368,878,347,74528,0
patternCount-27,true,1.00,1292,352,1289,331,109133,0
patternCount-28,true,1.00,1475,405,1473,384,119415,0
patternCount-29,true,1.00,1226,376,1223,350,99440,0
patternCount-30,true,1.00,1404,402,1400,381,113230,0
patternCount-31,true,1.00,2032,439,2029,418,164453,0
patternCount-32,true,1.00,1953,424,1952,403,158004,0
patternCount-33,true,1.00,3389,427,3388,399,280826,0
patternCount-34,true,1.00,2693,439,2693,417,222895,0
patternCount-35,true,1.00,1889,419,1886,396,150856,0
patternCount-36,true,1.00,2592,402,2590,366,215844,0
patternCount-37,true,1.00,1586,389,1585,368,132105,0
patternCount-38,true,1.00,3653,485,3647,462,296196,0
patternCount-39,true,1.00,1461,431,1457,410,116336,0
patternCount-40,true,1.00,8811,561,8810,539,690292,0
patternCount-41,true,1.00,2265,427,2261,401,188314,0
patternCount-42,true,1.00,1730,399,1727,378,137956,0
patternCount-43,true,1.00,1131,382,1130,356,92481,0
patternCount-44,true,1.00,1107,365,1102,344,92221,0
patternCount-45,true,1.00,1546,433,1544,412,119386,0
patternCount-46,true,1.00,2191,409,2185,388,179031,0
patternCount-47,true,1.00,2546,475,2538,454,199403,0
patternCount-48,true,1.00,1108,373,1105,352,91358,0
patternCount-49,true,1.00,1463,415,1461,383,120426,0
patternCount-50,true,1.00,5873,548,5868,517,487144,0
patternCount-51,true,1.00,1069,378,1065,356,89746,0
patternCount-52,true,1.00,1273,384,1269,363,106121,0
patternCount-53,true,1.00,4499,385,4498,357,376906,0
patternCount-54,true,1.00,2646,489,2642,468,200248,0
patternCount-55,true,1.00,7500,484,7497,460,635740,0
patternCount-56,true,1.00,2554,408,2549,387,213220,0
patternCount-57,true,1.00,1075,368,1072,342,89162,0
patternCount-58,false,0.80,5749,427,5748,427,441485,0
patternCount-59,true,1.00,1809,396,1809,373,142844,0
patternCount-60,true,1.00,1529,385,1527,364,127248,0
patternCount-61,true,1.00,1574,417,1569,394,129575,0
patternCount-62,true,1.00,1576,370,1573,349,128963,0
patternCount-63,true,1.00,1305,377,1301,356,103747,0
patternCount-64,true,1.00,876,350,874,329,74458,0
patternCount-65,true,1.00,1834,383,1833,361,143216,0
patternCount-66,true,1.00,2015,415,2008,392,160380,0
patternCount-67,true,1.00,1775,364,1771,342,146525,0
patternCount-68,true,1.00,1351,428,1349,402,107626,0
patternCount-69,true,1.00,1160,364,1157,343,94108,0
patternCount-70,true,1.00,1286,373,1284,352,101184,0
patternCount-71,true,1.00,1334,369,1333,348,113724,0
patternCount-72,true,1.00,5400,436,5397,402,450291,0
patternCount-73,true,1.00,2225,438,2220,417,178555,0
patternCount-74,true,1.00,9235,587,9231,558,739642,0
patternCount-75,true,1.00,1399,405,1394,382,111259,0
patternCount-76,true,1.00,1554,397,1553,376,126288,0
patternCount-77,true,1.00,1589,390,1588,369,126784,0
patternCount-78,true,1.00,1684,406,1678,385,134974,0
patternCount-79,true,1.00,6084,481,6080,459,516465,0
patternCount-80,true,1.00,4175,486,4172,449,336002,0
patternCount-81,true,1.00,2092,449,2091,428,155519,0
patternCount-82,true,1.00,1530,376,1526,355,122976,0
patternCount-83,true,1.00,1361,408,1358,382,109603,0
patternCount-84,true,1.00,1157,348,1154,327,95216,0
patternCount-85,true,1.00,1442,370,1439,349,114184,0
patternCount-86,true,1.00,970,358,968,337,79746,0
patternCount-87,true,1.00,1449,371,1446,350,118547,0
patternCount-88,true,1.00,1796,394,1792,373,146865,0
patternCount-89,true,1.00,1365,356,1361,335,115444,0
patternCount-90,true,1.00,1634,423,1631,397,127473,0
patternCount-91,true,1.00,2596,489,2594,468,200738,0
patternCount-92,true,1.00,1381,386,1380,365,112367,0
patternCount-93,true,1.00,5705,510,5703,475,461039,0
patternCount-94,true,1.00,1788,376,1785,350,147117,0
patternCount-95,true,1.00,1898,442,1896,421,152291,0
patternCount-96,true,1.00,1569,417,1568,396,130101,0
patternCount-97,true,1.00,1844,388,1843,367,152753,0
patternCount-98,true,1.00,1604,416,1600,395,129138,0
patternCount-99,true,1.00,1410,434,1409,408,110872,0
patternCount-100,true,1.00,1068,367,1068,341,90919,0
