NDW:0.0
TTFW:0.6
DFPT:2.0
DFPAP:3.0
DFPMP:3.0
RIGHT_WINDOW_BORDER_X:95.0
level,win/fail,% travelled,run time,game ticks,planning time,total plannings,nodes evaluated,most backtracked nodes
notchParamRand-1,true,1.00,7675,677,7673,667,617262,0
notchParamRand-2,true,1.00,408,410,406,401,38963,0
notchParamRand-3,true,1.00,6530,608,6527,598,568671,0
notchParamRand-4,true,1.00,10873,776,10868,766,949614,0
notchParamRand-5,true,1.00,911,424,908,414,78932,0
notchParamRand-6,true,1.00,1980,495,1976,486,171779,0
notchParamRand-7,true,1.00,1086,458,1083,442,96904,0
notchParamRand-8,true,1.00,1158,422,1155,414,91225,0
notchParamRand-9,true,1.00,3557,523,3556,513,313016,0
notchParamRand-10,true,1.00,2694,547,2689,531,243156,0
notchParamRand-11,true,1.00,251,408,250,397,24784,0
notchParamRand-12,true,1.00,1378,459,1376,449,120474,0
notchParamRand-13,false,0.85,10050,655,10049,655,846346,0
notchParamRand-14,false,0.22,29303,1008,29303,1008,2480590,0
notchParamRand-15,true,1.00,2865,514,2861,503,248486,0
notchParamRand-16,true,1.00,2075,453,2073,443,206192,0
notchParamRand-17,true,1.00,53,399,49,389,8634,0
notchParamRand-18,false,0.19,2508,198,2507,198,225255,0
notchParamRand-19,true,1.00,241,438,239,428,24517,0
notchParamRand-20,true,1.00,11950,837,11944,823,1024804,0
notchParamRand-21,true,1.00,52,404,46,393,8416,0
notchParamRand-22,true,1.00,5554,592,5552,582,485843,0
notchParamRand-23,true,1.00,6047,609,6043,599,516674,0
notchParamRand-24,true,1.00,963,456,963,444,87971,0
notchParamRand-25,true,1.00,48,401,47,392,7997,0
notchParamRand-26,true,1.00,691,433,686,422,62268,0
notchParamRand-27,true,1.00,1813,448,1812,438,185255,0
notchParamRand-28,true,1.00,1235,463,1229,454,108110,0
notchParamRand-29,true,1.00,50,395,47,385,8250,0
notchParamRand-30,false,0.45,10346,545,10345,545,864309,0
notchParamRand-31,true,1.00,440,407,438,398,42490,0
notchParamRand-32,true,1.00,152,399,150,389,17295,0
notchParamRand-33,false,0.19,2320,141,2320,141,201218,0
notchParamRand-34,true,1.00,7004,643,7001,632,587529,0
notchParamRand-35,true,1.00,1562,455,1561,445,134609,0
notchParamRand-36,true,1.00,49,391,49,381,7957,0
notchParamRand-37,true,1.00,2061,469,2060,460,187391,0
notchParamRand-38,false,0.70,13491,693,13487,693,1083098,0
notchParamRand-39,true,1.00,10527,778,10524,764,912562,0
notchParamRand-40,false,0.28,5482,297,5479,297,454722,0
notchParamRand-41,true,1.00,49,393,46,383,7938,0
notchParamRand-42,true,1.00,1372,457,1367,448,122852,0
notchParamRand-43,true,1.00,816,438,813,428,73441,0
notchParamRand-44,true,1.00,2728,503,2725,493,250509,0
notchParamRand-45,false,0.30,2801,215,2800,215,238700,0
notchParamRand-46,true,1.00,3068,499,3062,490,271216,0
notchParamRand-47,true,1.00,2902,532,2900,522,254516,0
notchParamRand-48,true,1.00,10505,755,10503,745,875895,0
notchParamRand-49,true,1.00,4603,553,4600,543,393986,0
notchParamRand-50,true,1.00,10159,785,10157,774,909015,0
notchParamRand-51,true,1.00,689,430,688,414,62621,0
notchParamRand-52,true,1.00,3900,535,3898,525,333009,0
notchParamRand-53,true,1.00,7943,691,7942,681,668525,0
notchParamRand-54,true,1.00,10744,836,10741,826,925512,0
notchParamRand-55,false,0.18,4272,206,4271,206,362056,0
notchParamRand-56,false,0.67,5998,440,5996,440,492441,0
notchParamRand-57,true,1.00,5722,602,5718,592,489783,0
notchParamRand-58,true,1.00,4405,560,4401,550,385030,0
notchParamRand-59,true,1.00,2242,488,2238,476,203981,0
notchParamRand-60,true,1.00,3872,554,3869,540,340756,0
notchParamRand-61,true,1.00,1563,474,1561,464,133228,0
notchParamRand-62,true,1.00,1183,463,1179,453,102014,0
notchParamRand-63,true,1.00,8568,730,8566,720,725705,0
notchParamRand-64,true,1.00,912,425,908,416,81307,0
notchParamRand-65,true,1.00,15448,877,15445,867,1266770,0
notchParamRand-66,true,1.00,1024,433,1021,423,88756,0
notchParamRand-67,true,1.00,1049,460,1047,450,90029,0
notchParamRand-68,true,1.00,11839,865,11836,855,1001778,0
notchParamRand-69,true,1.00,1476,447,1472,438,135618,0
notchParamRand-70,true,1.00,3031,509,3030,499,271269,0
notchParamRand-71,false,0.41,565,210,564,210,50726,0
notchParamRand-72,true,1.00,465,443,465,429,45824,0
notchParamRand-73,true,1.00,993,443,990,434,87319,0
notchParamRand-74,true,1.00,49,393,48,383,8059,0
notchParamRand-75,true,1.00,54,396,51,386,8740,0
notchParamRand-76,true,1.00,4744,619,4742,609,408451,0
notchParamRand-77,true,1.00,11418,772,11417,762,920074,0
notchParamRand-78,true,1.00,6472,645,6467,635,552628,0
notchParamRand-79,true,1.00,253,411,252,401,25940,0
notchParamRand-80,true,1.00,344,399,341,389,30137,0
notchParamRand-81,true,1.00,1949,474,1946,465,189621,0
notchParamRand-82,true,1.00,2284,492,2282,481,198221,0
notchParamRand-83,true,1.00,6654,682,6651,671,565206,0
notchParamRand-84,true,1.00,645,413,642,403,60905,0
notchParamRand-85,true,1.00,54,399,54,389,8833,0
notchParamRand-86,true,1.00,1271,494,1267,484,112505,0
notchParamRand-87,true,1.00,11705,806,11703,797,1011324,0
notchParamRand-88,true,1.00,1742,493,1738,483,173896,0
notchParamRand-89,true,1.00,3510,535,3506,525,315355,0
notchParamRand-90,true,1.00,4404,564,4404,554,364493,0
notchParamRand-91,true,1.00,52,403,50,392,8480,0
notchParamRand-92,true,1.00,4400,552,4399,536,377471,0
notchParamRand-93,true,1.00,445,403,443,393,41671,0
notchParamRand-94,true,1.00,10044,736,10042,727,845231,0
notchParamRand-95,true,1.00,3887,523,3884,513,324795,0
notchParamRand-96,true,1.00,3318,558,3317,545,294765,0
notchParamRand-97,true,1.00,8352,703,8348,687,700717,0
notchParamRand-98,true,1.00,2137,469,2134,460,200688,0
notchParamRand-99,true,1.00,382,403,380,393,35535,0
notchParamRand-100,true,1.00,15956,951,15951,941,1329200,0
