NDW:0.0
TTFW:0.4
DFPT:2.0
DFPAP:3.0
DFPMP:2.0
RIGHT_WINDOW_BORDER_X:75.0
level,win/fail,% travelled,run time,game ticks,planning time,total plannings,nodes evaluated,most backtracked nodes
notchParamRand-1,false,0.29,2614,337,2614,337,240037,0
notchParamRand-2,true,1.00,263,781,260,772,33016,0
notchParamRand-3,false,0.43,6332,509,6329,509,580694,0
notchParamRand-4,false,0.31,6513,756,6511,756,611409,0
notchParamRand-5,true,1.00,475,707,470,700,49662,0
notchParamRand-6,true,1.00,2681,922,2674,909,251832,0
notchParamRand-7,true,1.00,1096,605,1096,598,108825,0
notchParamRand-8,true,1.00,5885,739,5882,731,489285,0
notchParamRand-9,true,1.00,4483,906,4479,897,431676,0
notchParamRand-10,false,0.81,2719,999,2711,999,265980,0
notchParamRand-11,true,1.00,381,952,378,945,47774,0
notchParamRand-12,true,1.00,2485,876,2478,869,235670,0
notchParamRand-13,false,0.17,3363,500,3361,500,308512,0
notchParamRand-14,true,1.00,9867,837,9865,830,856944,0
notchParamRand-15,true,1.00,2877,891,2872,883,263653,0
notchParamRand-16,true,1.00,2146,731,2142,724,212511,0
notchParamRand-17,false,0.76,288,999,285,999,39187,0
notchParamRand-18,false,0.18,3107,497,3103,497,299370,0
notchParamRand-19,true,1.00,1115,688,1109,679,110879,0
notchParamRand-20,false,0.32,5879,607,5875,607,561722,0
notchParamRand-21,true,1.00,96,561,93,554,14837,0
notchParamRand-22,true,1.00,4332,861,4323,854,408743,0
notchParamRand-23,false,0.24,2664,443,2662,443,233444,0
notchParamRand-24,true,1.00,798,734,797,727,75563,0
notchParamRand-25,true,1.00,261,708,259,700,21760,0
notchParamRand-26,true,1.00,548,575,546,567,55143,0
notchParamRand-27,true,1.00,1154,676,1151,669,83933,0
notchParamRand-28,true,1.00,1800,762,1795,755,151532,0
notchParamRand-29,true,1.00,173,613,169,606,16988,0
notchParamRand-30,false,0.18,5517,587,5517,587,463161,0
notchParamRand-31,true,1.00,1362,660,1355,652,133834,0
notchParamRand-32,false,0.46,280,999,272,999,40772,0
notchParamRand-33,false,0.19,3409,576,3405,576,322058,0
notchParamRand-34,true,1.00,10791,963,10789,956,968680,0
notchParamRand-35,true,1.00,3611,811,3608,801,335368,0
notchParamRand-36,true,1.00,170,827,168,820,26164,0
notchParamRand-37,true,1.00,3519,824,3512,816,342850,0
notchParamRand-38,false,0.18,3593,302,3592,302,330952,0
notchParamRand-39,false,0.46,8210,999,8208,999,752093,0
notchParamRand-40,false,0.17,2397,271,2395,271,206302,0
notchParamRand-41,true,1.00,79,536,76,529,12472,0
notchParamRand-42,true,1.00,1531,931,1527,923,155042,0
notchParamRand-43,true,1.00,1228,727,1222,720,120623,0
notchParamRand-44,true,1.00,1413,915,1407,908,146504,0
notchParamRand-45,false,0.29,2788,475,2784,475,261934,0
notchParamRand-46,true,1.00,4798,915,4795,908,461015,0
notchParamRand-47,true,1.00,4444,935,4437,926,412579,0
notchParamRand-48,false,0.70,11665,986,11662,986,1039651,0
notchParamRand-49,true,1.00,3307,784,3306,776,309027,0
notchParamRand-50,false,0.84,7838,989,7835,989,734323,0
notchParamRand-51,true,1.00,1839,985,1833,978,178681,0
notchParamRand-52,false,0.29,3558,653,3556,653,321438,0
notchParamRand-53,true,1.00,5100,869,5095,862,458109,0
notchParamRand-54,false,0.29,5858,749,5853,749,533674,0
notchParamRand-55,false,0.19,1992,412,1989,412,182110,0
notchParamRand-56,false,0.37,2747,463,2745,463,246970,0
notchParamRand-57,false,0.85,9700,999,9691,999,883543,0
notchParamRand-58,true,1.00,4055,896,4044,889,388796,0
notchParamRand-59,false,0.57,1785,999,1783,999,182685,0
notchParamRand-60,false,0.80,4489,999,4484,999,428541,0
notchParamRand-61,true,1.00,1565,941,1560,934,155186,0
notchParamRand-62,true,1.00,1416,724,1415,715,135833,0
notchParamRand-63,false,0.69,12055,999,12050,999,1090284,0
notchParamRand-64,false,0.66,937,753,929,753,98109,0
notchParamRand-65,false,0.19,3647,530,3646,530,331616,0
notchParamRand-66,true,1.00,1486,740,1482,733,141289,0
notchParamRand-67,true,1.00,1085,625,1084,616,98491,0
notchParamRand-68,false,0.19,2344,402,2341,402,220488,0
notchParamRand-69,true,1.00,1802,698,1797,691,179115,0
notchParamRand-70,false,0.81,4635,664,4629,664,438137,0
notchParamRand-71,true,1.00,527,597,526,581,55022,0
notchParamRand-72,true,1.00,392,697,388,689,44175,0
notchParamRand-73,true,1.00,1494,521,1489,514,132696,0
notchParamRand-74,true,1.00,111,626,106,619,16852,0
notchParamRand-75,true,1.00,75,481,72,472,11378,0
notchParamRand-76,false,0.84,6330,999,6321,999,590035,0
notchParamRand-77,false,0.21,2525,435,2519,435,222693,0
notchParamRand-78,false,0.80,9792,973,9789,973,875232,0
notchParamRand-79,false,0.83,867,999,862,999,94930,0
notchParamRand-80,true,1.00,1455,904,1451,897,131240,0
notchParamRand-81,true,1.00,1114,967,1110,957,123867,0
notchParamRand-82,true,1.00,4770,841,4765,833,443427,0
notchParamRand-83,false,0.84,7062,999,7054,999,644988,0
notchParamRand-84,false,0.60,380,693,376,693,46349,0
notchParamRand-85,true,1.00,69,491,63,484,11268,0
notchParamRand-86,true,1.00,1797,676,1796,669,173149,0
notchParamRand-87,false,0.17,2448,501,2446,501,226074,0
notchParamRand-88,true,1.00,3030,689,3027,682,301152,0
notchParamRand-89,false,0.52,3301,531,3297,531,316910,0
notchParamRand-90,false,0.37,3685,435,3685,435,329462,0
notchParamRand-91,false,0.93,229,998,224,998,35341,0
notchParamRand-92,true,1.00,4614,776,4611,769,431196,0
notchParamRand-93,true,1.00,1331,612,1327,595,129058,0
notchParamRand-94,false,0.17,3026,521,3022,521,276837,0
notchParamRand-95,true,1.00,5649,928,5644,921,508927,0
notchParamRand-96,true,1.00,3256,769,3250,762,295908,0
notchParamRand-97,true,1.00,12059,962,12057,955,1102643,0
notchParamRand-98,true,1.00,810,513,808,506,84586,0
notchParamRand-99,true,1.00,909,638,908,631,89417,0
notchParamRand-100,false,0.21,1922,351,1921,351,178737,0
