NDW:0.0
TTFW:1.2
DFPT:2.0
DFPAP:3.0
DFPMP:1.0
RIGHT_WINDOW_BORDER_X:235.0
level,win/fail,% travelled,run time,game ticks,planning time,total plannings,nodes evaluated,most backtracked nodes
patternCount-1,false,0.90,5913,498,5913,498,580479,0
patternCount-2,true,1.00,869,414,867,393,92383,0
patternCount-3,true,1.00,3929,513,3925,491,362898,0
patternCount-4,true,1.00,876,431,870,405,95310,0
patternCount-5,true,1.00,848,425,842,392,91010,0
patternCount-6,true,1.00,443,394,439,372,48689,0
patternCount-7,true,1.00,997,420,995,399,105827,0
patternCount-8,true,1.00,2685,452,2684,419,277229,0
patternCount-9,true,1.00,1098,428,1096,407,116669,0
patternCount-10,true,1.00,322,391,320,365,36871,0
patternCount-11,true,1.00,4171,502,4169,451,406538,0
patternCount-12,true,1.00,550,424,550,398,57910,0
patternCount-13,true,1.00,663,437,662,415,68979,0
patternCount-14,true,1.00,1179,387,1175,359,124898,0
patternCount-15,true,1.00,703,429,697,408,76120,0
patternCount-16,true,1.00,693,408,691,387,72803,0
patternCount-17,true,1.00,1136,438,1134,417,120429,0
patternCount-18,true,1.00,1086,378,1084,354,112486,0
patternCount-19,true,1.00,962,399,958,378,94611,0
patternCount-20,true,1.00,932,434,926,403,99856,0
patternCount-21,true,1.00,1240,439,1236,418,140951,0
patternCount-22,true,1.00,4045,522,4041,487,418118,0
patternCount-23,true,1.00,4741,470,4739,447,428625,0
patternCount-24,true,1.00,6323,505,6319,471,639433,0
patternCount-25,true,1.00,953,410,947,389,103704,0
patternCount-26,true,1.00,572,453,568,432,60057,0
patternCount-27,true,1.00,791,393,788,370,89831,0
patternCount-28,true,1.00,1073,453,1068,413,110345,0
patternCount-29,true,1.00,879,406,873,385,90823,0
patternCount-30,true,1.00,981,462,980,441,105743,0
patternCount-31,true,1.00,1111,445,1107,424,117302,0
patternCount-32,true,1.00,1702,497,1698,476,172266,0
patternCount-33,true,1.00,2721,451,2716,416,264306,0
patternCount-34,true,1.00,1800,455,1797,433,185889,0
patternCount-35,true,1.00,895,456,892,435,96890,0
patternCount-36,true,1.00,2417,477,2415,438,232767,0
patternCount-37,true,1.00,861,408,859,387,90256,0
patternCount-38,true,1.00,2981,521,2977,499,294651,0
patternCount-39,true,1.00,1081,446,1077,420,112716,0
patternCount-40,true,1.00,6667,551,6664,517,653816,0
patternCount-41,true,1.00,2196,488,2192,467,246132,0
patternCount-42,true,1.00,1039,410,1037,389,111365,0
patternCount-43,true,1.00,682,438,682,417,71243,0
patternCount-44,true,1.00,706,425,703,403,77135,0
patternCount-45,true,1.00,1145,494,1142,463,110762,0
patternCount-46,true,1.00,1403,424,1401,394,154615,0
patternCount-47,true,1.00,1337,445,1333,424,141428,0
patternCount-48,true,1.00,603,436,599,415,65994,0
patternCount-49,true,1.00,1016,438,1015,416,103479,0
patternCount-50,true,1.00,4372,505,4368,471,465401,0
patternCount-51,true,1.00,912,424,910,403,93056,0
patternCount-52,true,1.00,707,410,703,389,75264,0
patternCount-53,true,1.00,3794,429,3791,401,363969,0
patternCount-54,true,1.00,1470,466,1465,444,157823,0
patternCount-55,true,1.00,6134,504,6130,465,563735,0
patternCount-56,true,1.00,1627,436,1626,415,178001,0
patternCount-57,true,1.00,997,472,993,441,99820,0
patternCount-58,false,0.80,5558,470,5558,470,476895,0
patternCount-59,true,1.00,1059,444,1055,423,115490,0
patternCount-60,true,1.00,1109,448,1107,427,114294,0
patternCount-61,true,1.00,1055,464,1053,431,107620,0
patternCount-62,true,1.00,948,416,948,381,101504,0
patternCount-63,true,1.00,787,421,784,400,85409,0
patternCount-64,true,1.00,573,372,570,351,62882,0
patternCount-65,true,1.00,1149,451,1147,425,124390,0
patternCount-66,true,1.00,1239,442,1236,421,138124,0
patternCount-67,true,1.00,1361,462,1355,426,146127,0
patternCount-68,true,1.00,680,418,677,397,71440,0
patternCount-69,true,1.00,880,461,879,431,94239,0
patternCount-70,true,1.00,657,419,652,398,71262,0
patternCount-71,true,1.00,995,445,993,424,105178,0
patternCount-72,true,1.00,6564,515,6564,491,613401,0
patternCount-73,true,1.00,1709,482,1703,460,176896,0
patternCount-74,true,1.00,6229,506,6229,477,570240,0
patternCount-75,true,1.00,1043,450,1042,427,107467,0
patternCount-76,true,1.00,1175,435,1172,414,126849,0
patternCount-77,true,1.00,1091,403,1090,370,114535,0
patternCount-78,true,1.00,1146,456,1143,435,121644,0
patternCount-79,true,1.00,4747,511,4742,479,472644,0
patternCount-80,true,1.00,2756,475,2753,442,276116,0
patternCount-81,true,1.00,997,450,996,429,102623,0
patternCount-82,true,1.00,987,423,986,402,108219,0
patternCount-83,true,1.00,641,466,639,445,66942,0
patternCount-84,true,1.00,500,440,498,419,51173,0
patternCount-85,true,1.00,695,393,693,372,78455,0
patternCount-86,true,1.00,773,445,771,424,84265,0
patternCount-87,true,1.00,1168,477,1168,448,131301,0
patternCount-88,true,1.00,1417,461,1416,427,157716,0
patternCount-89,true,1.00,922,403,921,382,96641,0
patternCount-90,true,1.00,639,414,638,393,69953,0
patternCount-91,true,1.00,1577,453,1573,432,164699,0
patternCount-92,true,1.00,739,416,736,395,75979,0
patternCount-93,true,1.00,6178,536,6176,508,584564,0
patternCount-94,true,1.00,1147,438,1145,409,123787,0
patternCount-95,true,1.00,1596,436,1595,415,168828,0
patternCount-96,true,1.00,991,476,986,454,102278,0
patternCount-97,false,0.83,5048,451,5044,451,498448,0
patternCount-98,true,1.00,1319,475,1312,453,142827,0
patternCount-99,true,1.00,790,455,790,434,87159,0
patternCount-100,true,1.00,469,393,465,372,51021,0
