NDW:0.0
TTFW:1.6
DFPT:2.0
DFPAP:3.0
DFPMP:5.0
RIGHT_WINDOW_BORDER_X:95.0
level,win/fail,% travelled,run time,game ticks,planning time,total plannings,nodes evaluated,most backtracked nodes
ore-1,true,1.00,2971,573,2960,563,183531,0
ore-2,false,0.70,4407,454,4398,454,249457,0
ore-3,true,1.00,2324,505,2314,492,147844,0
ore-4,true,1.00,4029,631,4017,622,256437,0
ore-5,true,1.00,2599,478,2592,469,160554,0
ore-6,true,1.00,3708,540,3689,529,231426,0
ore-7,true,1.00,1782,487,1768,478,111264,0
ore-8,false,0.13,2550,157,2547,157,133294,0
ore-9,true,1.00,3991,512,3984,503,242137,0
ore-10,true,1.00,3392,544,3383,534,217742,0
ore-11,true,1.00,3048,569,3036,561,194116,0
ore-12,false,0.45,3823,320,3817,320,210188,0
ore-13,true,1.00,5488,644,5478,634,333704,0
ore-14,true,1.00,3251,549,3239,537,212647,0
ore-15,true,1.00,3525,485,3512,477,218824,0
ore-16,true,1.00,2567,506,2553,497,168092,0
ore-17,true,1.00,4282,610,4271,586,285781,0
ore-18,true,1.00,2642,511,2628,500,170357,0
ore-19,true,1.00,2507,496,2502,487,163005,0
ore-20,true,1.00,3547,607,3534,595,230221,0
ore-21,true,1.00,2741,567,2725,558,179590,0
ore-22,false,0.58,3001,356,2991,356,169729,0
ore-23,true,1.00,2875,563,2860,555,176393,0
ore-24,true,1.00,2405,530,2396,521,155094,0
ore-25,true,1.00,3283,498,3273,489,216541,0
ore-26,false,0.40,26916,999,26908,999,1040955,0
ore-27,false,0.55,2452,376,2444,376,146649,0
ore-28,false,0.72,3062,437,3051,437,167765,0
ore-29,true,1.00,2404,513,2391,503,146290,0
ore-30,true,1.00,4357,567,4346,558,259049,0
ore-31,true,1.00,2670,501,2654,491,167683,0
ore-32,false,0.61,1484,295,1477,295,91528,0
ore-33,false,0.82,1927,392,1916,392,121279,0
ore-34,true,1.00,3213,531,3204,522,193174,0
ore-35,true,1.00,2733,513,2718,503,110863,0
ore-36,true,1.00,2693,510,2681,500,169411,0
ore-37,false,0.34,2912,195,2911,195,148390,0
ore-38,true,1.00,2744,495,2731,486,171193,0
ore-39,false,0.79,3149,439,3138,439,140614,0
ore-40,true,1.00,1890,455,1878,446,100264,0
ore-41,true,1.00,3080,578,3069,568,193297,0
ore-42,true,1.00,3266,567,3254,557,205348,0
ore-43,true,1.00,1972,506,1965,497,123075,0
ore-44,true,1.00,3339,561,3331,551,216408,0
ore-45,false,0.74,21230,999,21218,999,869389,0
ore-46,false,0.12,1988,113,1987,113,112534,0
ore-47,false,0.81,3083,493,3076,493,190800,0
ore-48,true,1.00,2825,507,2808,498,179293,0
ore-49,true,1.00,2495,505,2481,494,162992,0
ore-50,true,1.00,3994,549,3984,531,247190,0
ore-51,false,0.31,1384,224,1377,224,90529,0
ore-52,true,1.00,3281,562,3268,554,208442,0
ore-53,true,1.00,2755,479,2740,470,174667,0
ore-54,false,0.71,3550,475,3540,475,211407,0
ore-55,true,1.00,2661,512,2651,503,173716,0
ore-56,true,1.00,1847,447,1840,438,117357,0
ore-57,false,0.13,29443,999,29441,999,1937985,0
ore-58,true,1.00,3690,534,3675,526,230795,0
ore-59,true,1.00,3593,533,3582,525,231117,0
ore-60,true,1.00,4771,590,4758,581,298335,0
ore-61,true,1.00,3679,556,3669,546,228577,0
ore-62,true,1.00,2181,499,2172,491,138471,0
ore-63,true,1.00,3066,485,3041,474,133386,0
ore-64,true,1.00,3955,543,3938,534,243012,0
ore-65,true,1.00,3238,507,3225,498,198641,0
ore-66,true,1.00,3789,539,3780,529,232411,0
ore-67,true,1.00,2881,512,2866,502,174175,0
ore-68,true,1.00,3294,483,3280,475,199303,0
ore-69,true,1.00,4641,580,4625,571,291199,0
ore-70,false,0.92,4421,561,4407,561,258474,0
ore-71,true,1.00,3032,509,3015,501,181588,0
ore-72,false,0.61,2305,999,2273,999,144081,0
ore-73,true,1.00,5494,672,5484,661,313107,0
ore-74,true,1.00,2942,566,2927,556,180578,0
ore-75,true,1.00,2337,491,2325,483,138476,0
ore-76,true,1.00,2765,448,2760,439,174061,0
ore-77,true,1.00,2894,509,2882,501,182698,0
ore-78,true,1.00,2338,554,2324,546,149954,0
ore-79,true,1.00,4392,556,4382,548,285823,0
ore-80,true,1.00,2446,492,2431,476,150821,0
ore-81,true,1.00,2758,521,2747,512,176119,0
ore-82,true,1.00,2540,501,2529,491,158662,0
ore-83,false,0.31,718,158,716,158,45304,0
ore-84,false,0.12,3079,144,3079,144,148831,0
ore-85,true,1.00,2437,500,2427,491,151485,0
ore-86,true,1.00,2727,520,2718,510,168829,0
ore-87,true,1.00,1565,488,1551,479,98441,0
ore-88,false,0.90,1883,428,1872,428,118862,0
ore-89,true,1.00,3431,549,3419,540,213490,0
ore-90,true,1.00,1785,479,1774,469,112771,0
ore-91,false,0.71,2150,406,2141,406,132440,0
ore-92,true,1.00,2396,484,2389,472,150993,0
ore-93,false,0.13,3922,185,3920,185,202596,0
ore-94,true,1.00,5306,628,5296,618,340676,0
ore-95,true,1.00,2505,506,2498,498,160251,0
ore-96,true,1.00,1987,500,1975,492,126556,0
ore-97,true,1.00,3030,548,3018,538,187796,0
ore-98,true,1.00,4026,555,4015,546,259555,0
ore-99,false,0.57,3740,411,3734,411,235443,0
ore-100,true,1.00,3152,519,3143,510,204666,0
