NDW:0.0
TTFW:0.4
DFPT:2.0
DFPAP:3.0
DFPMP:3.0
RIGHT_WINDOW_BORDER_X:215.0
level,win/fail,% travelled,run time,game ticks,planning time,total plannings,nodes evaluated,most backtracked nodes
ge-1,true,1.00,755,239,751,208,59594,0
ge-2,true,1.00,589,234,586,215,48386,0
ge-3,true,1.00,161,201,160,182,13234,0
ge-4,true,1.00,1557,247,1557,222,129850,0
ge-5,true,1.00,53,199,51,180,4158,0
ge-6,true,1.00,769,243,767,223,55916,0
ge-7,true,1.00,104,199,103,180,8283,0
ge-8,true,1.00,215,201,212,182,17304,0
ge-9,true,1.00,423,199,421,180,36195,0
ge-10,true,1.00,45,199,45,180,3292,0
ge-11,true,1.00,209,205,207,186,17129,0
ge-12,true,1.00,49,199,48,180,3421,0
ge-13,true,1.00,742,237,740,218,53455,0
ge-14,true,1.00,269,211,266,192,21361,0
ge-15,true,1.00,473,203,471,184,40605,0
ge-16,true,1.00,710,253,709,234,50321,0
ge-17,true,1.00,282,204,279,184,22838,0
ge-18,true,1.00,556,224,555,205,41741,0
ge-19,true,1.00,583,225,582,206,50527,0
ge-20,true,1.00,421,215,420,196,35157,0
ge-21,true,1.00,192,199,189,180,15647,0
ge-22,true,1.00,329,202,326,181,27553,0
ge-23,true,1.00,504,205,503,181,43718,0
ge-24,true,1.00,458,210,456,190,38742,0
ge-25,true,1.00,285,201,284,182,25664,0
ge-26,true,1.00,273,205,271,186,24680,0
ge-27,true,1.00,170,224,169,205,12602,0
ge-28,true,1.00,415,199,413,180,31966,0
ge-29,true,1.00,282,206,281,181,23111,0
ge-30,true,1.00,709,220,709,201,58962,0
ge-31,true,1.00,830,234,829,215,68412,0
ge-32,true,1.00,305,209,303,190,22371,0
ge-33,true,1.00,131,212,127,186,9884,0
ge-34,true,1.00,866,213,865,194,74494,0
ge-35,true,1.00,932,254,930,235,64829,0
ge-36,true,1.00,521,215,521,186,45928,0
ge-37,true,1.00,251,199,250,180,20792,0
ge-38,true,1.00,629,205,629,186,52687,0
ge-39,true,1.00,391,211,391,191,30483,0
ge-40,true,1.00,54,199,52,180,4456,0
ge-41,true,1.00,181,199,180,180,15000,0
ge-42,true,1.00,752,227,752,208,58305,0
ge-43,true,1.00,643,230,643,209,48647,0
ge-44,true,1.00,551,213,548,194,44800,0
ge-45,true,1.00,609,216,607,197,46742,0
ge-46,true,1.00,1219,247,1218,228,96964,0
ge-47,true,1.00,543,199,543,180,45111,0
ge-48,true,1.00,412,211,410,192,32854,0
ge-49,true,1.00,154,199,153,180,12470,0
ge-50,true,1.00,510,205,508,186,41439,0
ge-51,true,1.00,189,206,187,186,14814,0
ge-52,true,1.00,599,226,597,206,47150,0
ge-53,true,1.00,274,205,271,186,22378,0
ge-54,true,1.00,456,218,454,195,34805,0
ge-55,true,1.00,466,213,465,194,38049,0
ge-56,true,1.00,522,208,518,183,44159,0
ge-57,true,1.00,706,208,703,188,61223,0
ge-58,true,1.00,896,259,895,238,58189,0
ge-59,true,1.00,643,199,643,180,54923,0
ge-60,true,1.00,685,209,684,190,54946,0
ge-61,true,1.00,259,201,258,182,21974,0
ge-62,true,1.00,485,207,484,188,43270,0
ge-63,true,1.00,797,214,796,194,66968,0
ge-64,true,1.00,1016,234,1015,215,75383,0
ge-65,true,1.00,729,229,728,210,56754,0
ge-66,true,1.00,633,212,632,185,55696,0
ge-67,true,1.00,347,209,346,190,25959,0
ge-68,true,1.00,152,205,150,186,11585,0
ge-69,true,1.00,280,201,279,182,22429,0
ge-70,true,1.00,354,202,352,181,30932,0
ge-71,true,1.00,727,217,724,198,63662,0
ge-72,true,1.00,430,216,429,197,32510,0
ge-73,true,1.00,345,201,344,182,30513,0
ge-74,true,1.00,698,213,696,194,58387,0
ge-75,true,1.00,363,212,361,187,28901,0
ge-76,true,1.00,1108,225,1105,206,93147,0
ge-77,true,1.00,1386,227,1385,208,118139,0
ge-78,true,1.00,784,228,784,202,63120,0
ge-79,false,1.00,228,200,226,182,18053,0
ge-80,true,1.00,233,209,233,187,15724,0
ge-81,true,1.00,259,209,258,190,18893,0
ge-82,true,1.00,395,247,394,206,26896,0
ge-83,true,1.00,636,262,634,226,47497,0
ge-84,true,1.00,629,199,628,180,55017,0
ge-85,true,1.00,297,203,296,184,25056,0
ge-86,true,1.00,662,200,662,180,56215,0
ge-87,true,1.00,621,213,618,194,52080,0
ge-88,true,1.00,616,246,615,226,48426,0
ge-89,true,1.00,755,252,752,232,53695,0
ge-90,true,1.00,53,199,51,180,4427,0
ge-91,true,1.00,260,201,258,182,22402,0
ge-92,true,1.00,78,203,76,184,6564,0
ge-93,true,1.00,454,200,452,180,38780,0
ge-94,true,1.00,325,201,325,182,27343,0
ge-95,true,1.00,507,231,506,211,35885,0
ge-96,true,1.00,600,214,600,195,49805,0
ge-97,true,1.00,707,231,705,211,54073,0
ge-98,true,1.00,54,199,51,180,4399,0
ge-99,true,1.00,155,199,154,180,11791,0
ge-100,true,1.00,390,203,387,184,33436,0
