NDW:0.0
TTFW:0.8
DFPT:2.0
DFPAP:3.0
DFPMP:3.0
RIGHT_WINDOW_BORDER_X:275.0
level,win/fail,% travelled,run time,game ticks,planning time,total plannings,nodes evaluated,most backtracked nodes
notch-1,true,1.00,831,260,830,235,81290,0
notch-2,true,1.00,1005,282,1005,257,104289,0
notch-3,true,1.00,918,267,915,242,90944,0
notch-4,true,1.00,732,245,729,220,73209,0
notch-5,true,1.00,654,242,653,217,65921,0
notch-6,true,1.00,656,269,653,243,66157,0
notch-7,true,1.00,421,281,421,240,42761,0
notch-8,true,1.00,624,276,622,244,63135,0
notch-9,true,1.00,932,276,931,251,92043,0
notch-10,true,1.00,837,267,837,242,84507,0
notch-11,true,1.00,796,252,793,227,77679,0
notch-12,true,1.00,569,245,568,220,54751,0
notch-13,true,1.00,583,249,582,224,59088,0
notch-14,true,1.00,926,251,926,224,88747,0
notch-15,true,1.00,672,247,671,222,67098,0
notch-16,true,1.00,900,262,899,226,91927,0
notch-17,true,1.00,864,269,864,242,87790,0
notch-18,true,1.00,1187,300,1187,270,110647,0
notch-19,true,1.00,996,249,994,218,102783,0
notch-20,true,1.00,900,271,896,246,88664,0
notch-21,true,1.00,855,278,853,253,88645,0
notch-22,true,1.00,524,237,522,212,50839,0
notch-23,true,1.00,1030,262,1029,231,100598,0
notch-24,true,1.00,839,269,836,243,84524,0
notch-25,true,1.00,806,262,804,235,81633,0
notch-26,true,1.00,729,257,729,226,71061,0
notch-27,true,1.00,1116,267,1115,241,112941,0
notch-28,true,1.00,745,259,742,225,73784,0
notch-29,true,1.00,1031,291,1028,261,103090,0
notch-30,true,1.00,802,238,801,211,77593,0
notch-31,true,1.00,700,259,698,233,68154,0
notch-32,true,1.00,683,259,681,233,67313,0
notch-33,true,1.00,680,247,677,222,64530,0
notch-34,true,1.00,603,255,602,230,61691,0
notch-35,true,1.00,600,262,598,237,62683,0
notch-36,true,1.00,1019,289,1018,253,101057,0
notch-37,true,1.00,1326,281,1326,243,134492,0
notch-38,true,1.00,825,257,823,231,79425,0
notch-39,true,1.00,658,234,655,203,65683,0
notch-40,true,1.00,754,257,751,228,79288,0
notch-41,true,1.00,885,267,884,237,90608,0
notch-42,true,1.00,703,250,702,225,70168,0
notch-43,true,1.00,595,242,594,217,59465,0
notch-44,true,1.00,595,235,594,210,59070,0
notch-45,true,1.00,666,246,661,221,67382,0
notch-46,true,1.00,673,257,669,232,67689,0
notch-47,true,1.00,792,263,791,237,79843,0
notch-48,true,1.00,1186,280,1185,254,119919,0
notch-49,true,1.00,830,279,829,242,75439,0
notch-50,true,1.00,844,291,844,263,81740,0
notch-51,true,1.00,841,253,841,223,83812,0
notch-52,true,1.00,743,258,742,233,76347,0
notch-53,true,1.00,289,260,285,219,26188,0
notch-54,true,1.00,1012,292,1010,261,99821,0
notch-55,true,1.00,1031,295,1028,269,100155,0
notch-56,true,1.00,684,266,683,241,68142,0
notch-57,true,1.00,684,279,681,253,66933,0
notch-58,true,1.00,1063,285,1059,254,102601,0
notch-59,true,1.00,795,268,794,243,76815,0
notch-60,true,1.00,972,263,968,238,96945,0
notch-61,true,1.00,759,231,758,206,76080,0
notch-62,true,1.00,782,260,782,235,75577,0
notch-63,true,1.00,655,280,653,255,69311,0
notch-64,true,1.00,998,254,996,228,95777,0
notch-65,true,1.00,1178,277,1176,249,118355,0
notch-66,true,1.00,992,283,988,257,98034,0
notch-67,true,1.00,954,255,954,224,89977,0
notch-68,true,1.00,515,248,513,223,51740,0
notch-69,true,1.00,1823,283,1822,258,179876,0
notch-70,true,1.00,1156,283,1156,255,120038,0
notch-71,true,1.00,768,242,767,217,76122,0
notch-72,true,1.00,708,259,704,234,71304,0
notch-73,true,1.00,719,263,715,237,70906,0
notch-74,true,1.00,603,243,602,218,59502,0
notch-75,true,1.00,1134,292,1132,261,114498,0
notch-76,true,1.00,1046,259,1042,235,102634,0
notch-77,true,1.00,740,253,740,228,73189,0
notch-78,true,1.00,875,277,874,241,85822,0
notch-79,true,1.00,860,266,858,239,86184,0
notch-80,true,1.00,394,236,389,211,39937,0
notch-81,true,1.00,1055,243,1054,218,105653,0
notch-82,true,1.00,857,250,856,225,83174,0
notch-83,true,1.00,855,254,855,223,85679,0
notch-84,true,1.00,664,260,663,229,65337,0
notch-85,true,1.00,610,262,607,230,62319,0
notch-86,true,1.00,756,245,755,220,75292,0
notch-87,true,1.00,838,249,836,224,85857,0
notch-88,true,1.00,994,278,991,246,103534,0
notch-89,true,1.00,958,273,957,248,97427,0
notch-90,true,1.00,935,249,933,224,93997,0
notch-91,true,1.00,1133,268,1131,243,112199,0
notch-92,true,1.00,808,255,805,230,83589,0
notch-93,true,1.00,682,258,681,232,66743,0
notch-94,true,1.00,1236,293,1235,253,121695,0
notch-95,true,1.00,608,253,606,227,60269,0
notch-96,true,1.00,634,279,631,252,64203,0
notch-97,true,1.00,1133,279,1132,254,115083,0
notch-98,true,1.00,821,247,821,221,80784,0
notch-99,true,1.00,1021,263,1021,237,105149,0
notch-100,true,1.00,748,272,746,247,59179,0
