NDW:0.0
TTFW:1.0
DFPT:2.0
DFPAP:3.0
DFPMP:2.0
RIGHT_WINDOW_BORDER_X:135.0
level,win/fail,% travelled,run time,game ticks,planning time,total plannings,nodes evaluated,most backtracked nodes
notchParam-1,true,1.00,1076,343,1069,331,58330,0
notchParam-2,true,1.00,1379,358,1374,346,76912,0
notchParam-3,true,1.00,679,342,673,330,40344,0
notchParam-4,true,1.00,667,351,655,339,37782,0
notchParam-5,true,1.00,787,328,776,316,44888,0
notchParam-6,true,1.00,681,314,671,302,39599,0
notchParam-7,true,1.00,3836,449,3832,437,213943,0
notchParam-8,true,1.00,2119,366,2114,354,122696,0
notchParam-9,true,1.00,647,328,641,316,37567,0
notchParam-10,true,1.00,2129,381,2121,369,119824,0
notchParam-11,true,1.00,729,324,721,312,42023,0
notchParam-12,true,1.00,1460,384,1455,372,84054,0
notchParam-13,true,1.00,304,312,297,300,17753,0
notchParam-14,true,1.00,327,306,322,294,18757,0
notchParam-15,true,1.00,1538,356,1528,344,79409,0
notchParam-16,false,0.67,3338,312,3329,312,184697,0
notchParam-17,false,0.36,1979,168,1975,168,105115,0
notchParam-18,true,1.00,322,361,315,349,18464,0
notchParam-19,true,1.00,273,323,265,311,15927,0
notchParam-20,true,1.00,299,304,291,292,16987,0
notchParam-21,true,1.00,329,310,322,298,17860,0
notchParam-22,true,1.00,557,322,549,310,32818,0
notchParam-23,true,1.00,1403,359,1393,347,80607,0
notchParam-24,true,1.00,2416,386,2403,374,134438,0
notchParam-25,true,1.00,1309,333,1303,321,72009,0
notchParam-26,true,1.00,1870,353,1863,341,106172,0
notchParam-27,true,1.00,303,314,299,302,17555,0
notchParam-28,true,1.00,674,337,667,325,39421,0
notchParam-29,true,1.00,665,328,660,316,38676,0
notchParam-30,true,1.00,319,314,314,302,18242,0
notchParam-31,true,1.00,2809,370,2799,358,150279,0
notchParam-32,false,0.36,1978,168,1978,168,107977,0
notchParam-33,true,1.00,302,302,295,290,17501,0
notchParam-34,true,1.00,3426,413,3422,401,179229,0
notchParam-35,true,1.00,3592,417,3581,405,202463,0
notchParam-36,false,0.67,2794,274,2785,274,156473,0
notchParam-37,true,1.00,336,306,331,294,18799,0
notchParam-38,true,1.00,352,320,339,308,20155,0
notchParam-39,true,1.00,3158,423,3154,411,169685,0
notchParam-40,true,1.00,666,320,656,308,38555,0
notchParam-41,true,1.00,704,327,695,315,41323,0
notchParam-42,true,1.00,338,317,334,300,19929,0
notchParam-43,true,1.00,1908,362,1895,350,109570,0
notchParam-44,true,1.00,2084,369,2076,357,118469,0
notchParam-45,true,1.00,1745,346,1738,329,100203,0
notchParam-46,true,1.00,1267,328,1258,316,72738,0
notchParam-47,true,1.00,353,327,350,315,21069,0
notchParam-48,true,1.00,269,319,259,307,16077,0
notchParam-49,true,1.00,328,328,320,312,19368,0
notchParam-50,true,1.00,355,330,348,318,19844,0
notchParam-51,true,1.00,274,307,261,295,15397,0
notchParam-52,true,1.00,2283,370,2277,358,119849,0
notchParam-53,false,0.67,4186,327,4180,327,234980,0
notchParam-54,true,1.00,2770,388,2766,376,153492,0
notchParam-55,true,1.00,380,352,370,340,21474,0
notchParam-56,true,1.00,282,315,277,303,16066,0
notchParam-57,true,1.00,1604,360,1597,348,92399,0
notchParam-58,true,1.00,735,347,731,335,42588,0
notchParam-59,true,1.00,1489,383,1483,371,84639,0
notchParam-60,true,1.00,679,328,671,316,39304,0
notchParam-61,true,1.00,1473,392,1465,380,85303,0
notchParam-62,true,1.00,2199,361,2192,349,115261,0
notchParam-63,true,1.00,663,316,657,304,38341,0
notchParam-64,true,1.00,773,352,765,340,44644,0
notchParam-65,true,1.00,702,332,697,320,41182,0
notchParam-66,true,1.00,744,335,740,323,42993,0
notchParam-67,true,1.00,2158,367,2149,355,116344,0
notchParam-68,false,0.38,2062,187,2059,187,103967,0
notchParam-69,false,0.37,539,137,537,137,26832,0
notchParam-70,false,0.67,2208,277,2200,277,118928,0
notchParam-71,true,1.00,762,347,752,335,45140,0
notchParam-72,true,1.00,681,337,671,325,40106,0
notchParam-73,true,1.00,681,320,673,308,39798,0
notchParam-74,true,1.00,694,326,682,314,39722,0
notchParam-75,true,1.00,709,326,699,314,42204,0
notchParam-76,true,1.00,1365,348,1358,336,77535,0
notchParam-77,true,1.00,754,321,749,309,43328,0
notchParam-78,true,1.00,1832,372,1827,360,106580,0
notchParam-79,true,1.00,696,316,690,304,40788,0
notchParam-80,true,1.00,289,341,279,329,15831,0
notchParam-81,true,1.00,673,342,666,326,38642,0
notchParam-82,true,1.00,288,311,282,299,16524,0
notchParam-83,true,1.00,303,302,292,290,17565,0
notchParam-84,true,1.00,3073,407,3067,395,170295,0
notchParam-85,true,1.00,4138,425,4132,413,222155,0
notchParam-86,true,1.00,1358,330,1349,318,76216,0
notchParam-87,true,1.00,315,314,306,302,18571,0
notchParam-88,true,1.00,347,320,342,308,19370,0
notchParam-89,true,1.00,336,310,326,298,18915,0
notchParam-90,true,1.00,333,313,323,301,18969,0
notchParam-91,true,1.00,1822,358,1821,346,100653,0
notchParam-92,true,1.00,1365,330,1361,318,73729,0
notchParam-93,true,1.00,2019,365,2009,353,112637,0
notchParam-94,true,1.00,2719,374,2715,362,151989,0
notchParam-95,true,1.00,1553,368,1548,356,87295,0
notchParam-96,true,1.00,613,331,604,319,35356,0
notchParam-97,true,1.00,693,314,688,302,37495,0
notchParam-98,true,1.00,308,304,303,292,16538,0
notchParam-99,true,1.00,2798,388,2788,376,146144,0
notchParam-100,true,1.00,2957,378,2951,366,137035,0
