NDW:0.0
TTFW:1.2
DFPT:2.0
DFPAP:3.0
DFPMP:7.0
RIGHT_WINDOW_BORDER_X:115.0
level,win/fail,% travelled,run time,game ticks,planning time,total plannings,nodes evaluated,most backtracked nodes
hopper-1,true,1.00,1664,399,1663,389,159244,0
hopper-2,true,1.00,1773,369,1772,359,162226,0
hopper-3,true,1.00,1378,386,1376,376,138363,0
hopper-4,true,1.00,1097,361,1096,351,114732,0
hopper-5,true,1.00,2301,388,2301,378,214018,0
hopper-6,true,1.00,2141,383,2139,373,201115,0
hopper-7,true,1.00,1708,385,1706,375,154742,0
hopper-8,true,1.00,1151,377,1149,366,111955,0
hopper-9,true,1.00,2301,364,2301,354,216033,0
hopper-10,true,1.00,1285,361,1285,351,128642,0
hopper-11,true,1.00,1468,390,1466,380,143267,0
hopper-12,true,1.00,932,334,928,324,90574,0
hopper-13,true,1.00,2413,444,2411,434,248286,0
hopper-14,true,1.00,1755,394,1750,383,165778,0
hopper-15,true,1.00,1870,349,1867,339,172742,0
hopper-16,true,1.00,3119,441,3119,428,320151,0
hopper-17,true,1.00,1314,351,1312,341,122078,0
hopper-18,true,1.00,1654,352,1652,342,152377,0
hopper-19,true,1.00,1112,348,1110,337,119001,0
hopper-20,true,1.00,3090,383,3089,373,298418,0
hopper-21,true,1.00,1281,368,1279,358,118678,0
hopper-22,true,1.00,1579,404,1578,393,155234,0
hopper-23,true,1.00,2039,371,2038,361,186040,0
hopper-24,true,1.00,1214,379,1212,369,130033,0
hopper-25,true,1.00,2469,383,2467,373,247865,0
hopper-26,true,1.00,1971,374,1969,360,181997,0
hopper-27,true,1.00,2059,394,2057,384,199479,0
hopper-28,true,1.00,2101,421,2100,411,220038,0
hopper-29,false,0.25,1191,111,1189,111,97000,0
hopper-30,true,1.00,1744,382,1740,372,166935,0
hopper-31,true,1.00,1883,399,1880,389,186722,0
hopper-32,true,1.00,2619,390,2619,380,249944,0
hopper-33,false,0.49,1663,206,1661,206,144097,0
hopper-34,true,1.00,1519,375,1517,365,148332,0
hopper-35,true,1.00,4387,510,4384,500,455624,0
hopper-36,true,1.00,1281,349,1276,339,119200,0
hopper-37,false,0.51,2515,232,2515,232,216862,0
hopper-38,true,1.00,4462,510,4461,500,496616,0
hopper-39,true,1.00,1282,369,1281,359,135539,0
hopper-40,true,1.00,1782,381,1779,371,159660,0
hopper-41,true,1.00,3023,421,3021,411,295856,0
hopper-42,true,1.00,1486,365,1486,355,135606,0
hopper-43,false,0.44,3082,227,3081,227,257771,0
hopper-44,true,1.00,1647,353,1645,343,157449,0
hopper-45,false,0.41,27738,999,27737,999,2172493,0
hopper-46,false,0.41,1259,189,1257,189,132722,0
hopper-47,true,1.00,3525,413,3521,403,342381,0
hopper-48,true,1.00,2370,386,2367,376,223362,0
hopper-49,true,1.00,4077,436,4074,426,391760,0
hopper-50,true,1.00,1225,382,1225,372,118950,0
hopper-51,true,1.00,1771,400,1768,390,175866,0
hopper-52,true,1.00,879,331,879,321,86994,0
hopper-53,false,0.63,6050,398,6048,398,520946,0
hopper-54,true,1.00,696,344,694,331,67730,0
hopper-55,true,1.00,1593,386,1592,375,165968,0
hopper-56,true,1.00,1476,357,1475,347,148208,0
hopper-57,true,1.00,1044,321,1043,311,94378,0
hopper-58,true,1.00,1961,401,1956,391,206431,0
hopper-59,true,1.00,1314,346,1312,336,133576,0
hopper-60,true,1.00,1392,372,1391,362,142926,0
hopper-61,true,1.00,1966,373,1964,363,184494,0
hopper-62,true,1.00,1848,370,1848,360,171851,0
hopper-63,true,1.00,1042,367,1041,357,104444,0
hopper-64,true,1.00,1978,376,1974,366,182818,0
hopper-65,true,1.00,1944,394,1939,383,181617,0
hopper-66,true,1.00,929,379,926,369,91712,0
hopper-67,true,1.00,1116,362,1115,352,106779,0
hopper-68,true,1.00,1290,370,1288,360,128625,0
hopper-69,true,1.00,1372,395,1371,385,128957,0
hopper-70,true,1.00,1639,365,1637,355,157335,0
hopper-71,true,1.00,619,323,618,313,58850,0
hopper-72,true,1.00,1707,352,1706,340,160009,0
hopper-73,true,1.00,2073,379,2073,369,192526,0
hopper-74,true,1.00,847,327,846,317,77093,0
hopper-75,true,1.00,1672,355,1670,345,153382,0
hopper-76,true,1.00,1683,405,1680,391,163470,0
hopper-77,true,1.00,1420,397,1418,387,131029,0
hopper-78,true,1.00,3138,421,3132,411,327183,0
hopper-79,true,1.00,1874,392,1870,382,188963,0
hopper-80,true,1.00,1844,357,1841,347,150855,0
hopper-81,false,0.38,3923,262,3922,262,322955,0
hopper-82,false,0.45,4892,288,4891,288,406276,0
hopper-83,true,1.00,3077,450,3072,440,299288,0
hopper-84,true,1.00,2871,404,2869,394,288358,0
hopper-85,true,1.00,1431,397,1430,387,132585,0
hopper-86,true,1.00,1996,385,1994,375,183779,0
hopper-87,true,1.00,4426,455,4424,445,420572,0
hopper-88,true,1.00,1919,378,1916,368,193938,0
hopper-89,true,1.00,2041,379,2039,369,194988,0
hopper-90,true,1.00,2546,391,2544,381,255971,0
hopper-91,true,1.00,3401,421,3400,411,322527,0
hopper-92,true,1.00,2502,394,2501,384,229379,0
hopper-93,true,1.00,920,341,918,331,90423,0
hopper-94,true,1.00,2546,426,2546,416,251959,0
hopper-95,true,1.00,1244,325,1243,315,123236,0
hopper-96,false,0.37,5872,287,5871,287,524734,0
hopper-97,true,1.00,2584,396,2580,386,236194,0
hopper-98,true,1.00,3561,422,3561,412,329558,0
hopper-99,true,1.00,3632,448,3627,438,354192,0
hopper-100,true,1.00,1749,377,1749,367,167756,0
