NDW:0.0
TTFW:0.6
DFPT:2.0
DFPAP:3.0
DFPMP:1.0
RIGHT_WINDOW_BORDER_X:75.0
level,win/fail,% travelled,run time,game ticks,planning time,total plannings,nodes evaluated,most backtracked nodes
hopper-1,true,1.00,8633,795,8628,787,687440,0
hopper-2,true,1.00,5852,769,5848,761,468403,0
hopper-3,true,1.00,6751,714,6749,707,564136,0
hopper-4,false,0.57,1779,367,1778,367,153284,0
hopper-5,true,1.00,5780,700,5779,693,459064,0
hopper-6,true,1.00,6993,693,6988,685,570759,0
hopper-7,true,1.00,3573,589,3567,582,272604,0
hopper-8,true,1.00,2291,600,2282,593,191620,0
hopper-9,false,0.21,3558,236,3557,236,291753,0
hopper-10,false,0.94,5657,632,5651,632,489460,0
hopper-11,true,1.00,5115,613,5112,605,425607,0
hopper-12,true,1.00,6784,691,6781,684,562746,0
hopper-13,true,1.00,8103,806,8097,797,686926,0
hopper-14,true,1.00,6818,661,6814,654,550715,0
hopper-15,true,1.00,8650,756,8648,748,697827,0
hopper-16,true,1.00,8031,703,8027,696,679565,0
hopper-17,true,1.00,4079,633,4075,624,318360,0
hopper-18,true,1.00,5197,622,5194,615,401491,0
hopper-19,true,1.00,6202,734,6200,726,554009,0
hopper-20,true,1.00,6137,677,6134,670,479240,0
hopper-21,true,1.00,3944,614,3942,607,302999,0
hopper-22,false,0.40,3720,430,3719,430,314629,0
hopper-23,true,1.00,6422,649,6417,642,516460,0
hopper-24,true,1.00,3635,587,3634,580,295234,0
hopper-25,true,1.00,9577,834,9574,825,818058,0
hopper-26,true,1.00,5315,591,5308,583,421518,0
hopper-27,true,1.00,2946,547,2942,539,250384,0
hopper-28,false,0.31,7674,434,7672,434,663622,0
hopper-29,false,0.32,2979,294,2977,294,257667,0
hopper-30,false,0.73,4415,520,4413,520,349391,0
hopper-31,true,1.00,2224,578,2216,569,189430,0
hopper-32,true,1.00,9918,785,9915,777,799801,0
hopper-33,false,0.49,3761,331,3761,331,286709,0
hopper-34,true,1.00,4657,652,4653,645,378378,0
hopper-35,true,1.00,9115,745,9110,737,783238,0
hopper-36,true,1.00,4940,599,4936,592,392308,0
hopper-37,true,1.00,6909,747,6906,740,590863,0
hopper-38,true,1.00,11029,806,11026,799,1000849,0
hopper-39,true,1.00,5884,749,5882,740,495229,0
hopper-40,true,1.00,6859,682,6857,673,520034,0
hopper-41,false,0.24,1158,220,1156,220,97355,0
hopper-42,true,1.00,4254,529,4249,521,336518,0
hopper-43,false,0.44,7197,407,7196,407,528657,0
hopper-44,false,0.40,5836,457,5833,457,452509,0
hopper-45,false,0.42,5283,364,5280,364,411018,0
hopper-46,false,0.66,6030,482,6028,482,496971,0
hopper-47,true,1.00,9293,787,9293,779,750872,0
hopper-48,true,1.00,5438,655,5433,647,434143,0
hopper-49,true,1.00,8889,819,8888,812,736284,0
hopper-50,true,1.00,5398,632,5394,625,427104,0
hopper-51,true,1.00,3718,626,3713,616,310726,0
hopper-52,true,1.00,4794,728,4790,719,400952,0
hopper-53,false,0.82,9943,779,9938,779,825298,0
hopper-54,false,0.68,4928,484,4926,484,393417,0
hopper-55,true,1.00,6040,729,6036,719,513559,0
hopper-56,true,1.00,4661,605,4657,597,402743,0
hopper-57,true,1.00,5312,663,5309,656,413179,0
hopper-58,false,0.70,5925,548,5922,548,513496,0
hopper-59,true,1.00,6654,731,6653,722,574240,0
hopper-60,false,0.71,5214,525,5213,525,480380,0
hopper-61,true,1.00,7779,800,7777,793,621454,0
hopper-62,true,1.00,6916,768,6912,760,548200,0
hopper-63,true,1.00,2635,529,2634,522,221089,0
hopper-64,true,1.00,7483,676,7481,667,597633,0
hopper-65,true,1.00,7597,721,7591,714,611798,0
hopper-66,true,1.00,2994,558,2992,551,243791,0
hopper-67,true,1.00,3763,582,3759,574,315651,0
hopper-68,true,1.00,5248,635,5244,628,425922,0
hopper-69,true,1.00,2592,640,2586,631,203740,0
hopper-70,true,1.00,7827,763,7825,753,632925,0
hopper-71,true,1.00,2609,540,2603,533,208147,0
hopper-72,true,1.00,12049,841,12044,832,953146,0
hopper-73,false,0.82,7241,581,7237,581,568597,0
hopper-74,true,1.00,4750,588,4749,580,362583,0
hopper-75,true,1.00,5318,659,5316,650,415300,0
hopper-76,true,1.00,6751,656,6746,648,544576,0
hopper-77,true,1.00,3696,675,3689,666,288802,0
hopper-78,true,1.00,11156,821,11149,813,917694,0
hopper-79,true,1.00,6663,699,6659,690,549470,0
hopper-80,true,1.00,5288,604,5287,597,405882,0
hopper-81,true,1.00,3071,674,3069,665,255551,0
hopper-82,false,0.60,5213,537,5212,537,442352,0
hopper-83,true,1.00,5033,670,5027,662,408146,0
hopper-84,true,1.00,7862,756,7862,749,633852,0
hopper-85,false,0.56,4899,429,4898,429,377699,0
hopper-86,false,0.47,6686,444,6684,444,529747,0
hopper-87,true,1.00,6755,749,6753,742,548127,0
hopper-88,false,0.23,2841,260,2840,260,246025,0
hopper-89,true,1.00,4486,572,4482,565,354083,0
hopper-90,true,1.00,6050,649,6048,642,489655,0
hopper-91,true,1.00,7742,727,7739,720,631309,0
hopper-92,true,1.00,6475,594,6472,587,498628,0
hopper-93,true,1.00,3083,574,3077,566,252208,0
hopper-94,true,1.00,5684,661,5680,654,471724,0
hopper-95,true,1.00,6614,683,6611,675,534209,0
hopper-96,false,0.36,27097,999,27096,999,2064581,0
hopper-97,true,1.00,6996,748,6989,739,544158,0
hopper-98,true,1.00,8233,701,8232,694,637295,0
hopper-99,true,1.00,11272,854,11268,847,909477,0
hopper-100,true,1.00,5551,668,5547,659,435504,0
