NDW:0.0
TTFW:1.2
DFPT:2.0
DFPAP:3.0
DFPMP:50.0
RIGHT_WINDOW_BORDER_X:35.0
level,win/fail,% travelled,run time,game ticks,planning time,total plannings,nodes evaluated,most backtracked nodes
patternWeightCount-1,false,0.18,2832,333,2823,333,179109,0
patternWeightCount-2,true,1.00,4371,906,4356,902,260509,0
patternWeightCount-3,false,0.12,1911,232,1902,232,116017,0
patternWeightCount-4,true,1.00,3359,966,3339,961,194167,0
patternWeightCount-5,false,0.62,10554,999,10531,999,647949,0
patternWeightCount-6,false,0.44,3052,549,3044,549,186940,0
patternWeightCount-7,false,0.44,3038,526,3025,526,175450,0
patternWeightCount-8,true,1.00,2007,904,1980,899,116229,0
patternWeightCount-9,false,0.26,2535,361,2526,361,153641,0
patternWeightCount-10,false,0.55,14174,999,14163,999,802317,0
patternWeightCount-11,true,1.00,2995,979,2963,975,181967,0
patternWeightCount-12,false,0.33,940,316,933,316,55684,0
patternWeightCount-13,false,0.37,18069,999,18055,999,1007065,0
patternWeightCount-14,false,0.03,155,79,153,79,10437,0
patternWeightCount-15,false,0.56,7803,932,7778,932,413506,0
patternWeightCount-16,false,0.37,5725,603,5715,603,354594,0
patternWeightCount-17,true,1.00,2684,871,2657,867,159342,0
patternWeightCount-18,false,0.01,6,21,6,21,421,0
patternWeightCount-19,true,1.00,3154,875,3133,871,181353,0
patternWeightCount-20,false,0.57,6157,795,6139,795,366164,0
patternWeightCount-21,true,1.00,1798,912,1771,908,113559,0
patternWeightCount-22,false,0.07,2166,125,2166,125,133355,0
patternWeightCount-23,false,0.06,2107,143,2105,143,122066,0
patternWeightCount-24,false,0.89,6870,1008,6849,1008,403815,0
patternWeightCount-25,false,0.06,1508,114,1508,114,89221,0
patternWeightCount-26,false,0.20,1307,251,1302,251,80793,0
patternWeightCount-27,false,0.12,2504,242,2500,242,160842,0
patternWeightCount-28,false,0.09,1016,140,1016,140,62656,0
patternWeightCount-29,false,0.30,1566,353,1556,353,97661,0
patternWeightCount-30,false,0.54,4279,663,4262,663,254418,0
patternWeightCount-31,false,0.03,483,77,482,77,33328,0
patternWeightCount-32,true,1.00,2438,903,2411,899,145731,0
patternWeightCount-33,false,0.84,6422,999,6374,999,294834,0
patternWeightCount-34,false,0.02,600,89,599,89,44140,0
patternWeightCount-35,false,0.64,4221,886,4199,886,246169,0
patternWeightCount-36,false,0.80,4805,998,4788,998,284740,0
patternWeightCount-37,false,0.90,4233,999,4218,999,253014,0
patternWeightCount-38,false,0.09,1420,168,1418,168,83779,0
patternWeightCount-39,false,0.12,4772,366,4766,366,295402,0
patternWeightCount-40,false,0.56,3110,661,3098,661,189595,0
patternWeightCount-41,false,0.10,27589,999,27584,999,1526986,0
patternWeightCount-42,false,0.38,18575,999,18562,999,1035086,0
patternWeightCount-43,false,0.22,3459,356,3455,356,201178,0
patternWeightCount-44,false,0.84,5095,999,5074,999,314070,0
patternWeightCount-45,false,0.18,3713,319,3708,319,210770,0
patternWeightCount-46,false,0.40,5877,702,5866,702,352803,0
patternWeightCount-47,false,0.50,4146,658,4128,658,242665,0
patternWeightCount-48,true,1.00,3184,847,3167,843,189858,0
patternWeightCount-49,false,0.48,5981,710,5972,710,348931,0
patternWeightCount-50,false,0.22,3634,320,3623,320,204776,0
patternWeightCount-51,false,0.17,2830,211,2824,211,110326,0
patternWeightCount-52,false,0.63,3750,684,3737,684,224446,0
patternWeightCount-53,false,0.29,3044,385,3040,385,167590,0
patternWeightCount-54,false,0.03,560,96,559,96,39759,0
patternWeightCount-55,false,0.48,4875,591,4862,591,300600,0
patternWeightCount-56,false,0.19,3329,362,3326,362,199741,0
patternWeightCount-57,false,0.12,474,115,474,115,28630,0
patternWeightCount-58,false,0.47,2422,500,2410,500,142564,0
patternWeightCount-59,true,1.00,2405,760,2391,756,145506,0
patternWeightCount-60,false,0.01,642,64,638,64,45602,0
patternWeightCount-61,false,0.00,5570,999,5548,999,433566,0
patternWeightCount-62,false,0.87,6531,984,6497,984,323546,0
patternWeightCount-63,false,0.03,1946,133,1943,133,127346,0
patternWeightCount-64,false,0.15,2612,251,2604,251,159907,0
patternWeightCount-65,false,0.74,7396,999,7373,999,383810,0
patternWeightCount-66,false,0.90,4952,999,4938,999,295555,0
patternWeightCount-67,true,1.00,3598,985,3578,981,214277,0
patternWeightCount-68,true,1.00,4084,887,4071,883,239484,0
patternWeightCount-69,false,0.81,2515,812,2502,812,153628,0
patternWeightCount-70,false,0.70,6750,999,6731,999,380112,0
patternWeightCount-71,false,0.20,1256,262,1246,262,45269,0
patternWeightCount-72,false,0.74,7981,985,7965,985,498182,0
patternWeightCount-73,false,0.07,1633,153,1629,153,96647,0
patternWeightCount-74,true,1.00,5155,984,5139,980,315429,0
patternWeightCount-75,false,0.20,3067,287,3062,287,175899,0
patternWeightCount-76,false,0.89,5101,999,5077,999,305558,0
patternWeightCount-77,false,0.13,2713,246,2710,246,164557,0
patternWeightCount-78,false,0.05,2589,208,2589,208,161037,0
patternWeightCount-79,false,0.34,5773,474,5767,474,344035,0
patternWeightCount-80,false,0.05,1165,176,1160,176,71681,0
patternWeightCount-81,false,0.41,2500,524,2484,524,148998,0
patternWeightCount-82,true,1.00,634,730,621,726,37905,0
patternWeightCount-83,false,0.19,3137,335,3127,335,190026,0
patternWeightCount-84,false,0.40,18366,999,18349,999,986344,0
patternWeightCount-85,false,0.24,1239,240,1230,240,74249,0
patternWeightCount-86,false,0.01,132,38,131,38,9526,0
patternWeightCount-87,false,0.15,712,172,707,172,40904,0
patternWeightCount-88,false,0.07,1402,154,1400,154,83804,0
patternWeightCount-89,false,0.45,3015,532,3000,532,180263,0
patternWeightCount-90,false,0.54,3624,694,3610,694,211757,0
patternWeightCount-91,false,0.61,4239,813,4224,813,250304,0
patternWeightCount-92,false,0.22,1958,225,1952,225,112862,0
patternWeightCount-93,false,0.40,3797,575,3785,575,229080,0
patternWeightCount-94,false,0.46,4622,651,4607,651,281773,0
patternWeightCount-95,false,0.54,8306,991,8292,991,505387,0
patternWeightCount-96,false,0.68,5367,852,5350,852,318441,0
patternWeightCount-97,false,0.24,2386,332,2381,332,150842,0
patternWeightCount-98,false,0.64,4247,720,4231,720,249879,0
patternWeightCount-99,false,0.68,7936,999,7915,999,484418,0
patternWeightCount-100,false,0.46,18458,999,18448,999,1061635,0
