NDW:0.0
TTFW:1.0
DFPT:2.0
DFPAP:3.0
DFPMP:50.0
RIGHT_WINDOW_BORDER_X:176.0
level,win/fail,% travelled,run time,game ticks,planning time,total plannings,nodes evaluated,most backtracked nodes
notch-1,true,1.00,859,257,852,241,45562,0
notch-2,true,1.00,1227,267,1218,251,56869,0
notch-3,true,1.00,1069,255,1051,239,29662,0
notch-4,true,1.00,1131,266,1123,245,44010,0
notch-5,true,1.00,804,246,801,229,42604,0
notch-6,true,1.00,821,261,814,245,43434,0
notch-7,true,1.00,713,272,708,256,38120,0
notch-8,true,1.00,688,279,672,262,36077,0
notch-9,true,1.00,1091,262,1087,246,58123,0
notch-10,true,1.00,1030,288,1025,272,55951,0
notch-11,true,1.00,889,264,884,248,47526,0
notch-12,true,1.00,740,247,728,231,23170,0
notch-13,true,1.00,985,262,976,246,27484,0
notch-14,true,1.00,926,255,920,239,37173,0
notch-15,true,1.00,818,271,812,255,42691,0
notch-16,true,1.00,907,272,898,245,48304,0
notch-17,true,1.00,1156,290,1151,274,61368,0
notch-18,true,1.00,959,309,949,292,50518,0
notch-19,true,1.00,1242,251,1236,235,66695,0
notch-20,true,1.00,922,282,920,266,49020,0
notch-21,true,1.00,1042,291,1037,275,57355,0
notch-22,true,1.00,529,239,525,223,27904,0
notch-23,true,1.00,1038,248,1032,232,55700,0
notch-24,true,1.00,767,265,765,249,41338,0
notch-25,true,1.00,1093,292,1086,265,58804,0
notch-26,true,1.00,753,266,749,249,39763,0
notch-27,true,1.00,1401,271,1393,255,71204,0
notch-28,true,1.00,873,246,864,229,42767,0
notch-29,true,1.00,1046,276,1042,260,49506,0
notch-30,true,1.00,979,247,973,231,48054,0
notch-31,true,1.00,807,270,799,254,39666,0
notch-32,true,1.00,781,271,773,249,39129,0
notch-33,true,1.00,809,248,798,232,40270,0
notch-34,true,1.00,728,255,717,239,36414,0
notch-35,true,1.00,780,273,770,257,38829,0
notch-36,true,1.00,1041,286,1035,270,51966,0
notch-37,true,1.00,1486,291,1479,267,76315,0
notch-38,true,1.00,1094,286,1090,259,54758,0
notch-39,true,1.00,696,232,691,215,35272,0
notch-40,true,1.00,1087,281,1076,264,56921,0
notch-41,true,1.00,1179,266,1172,250,60653,0
notch-42,true,1.00,1465,267,1458,251,75983,0
notch-43,true,1.00,751,252,746,236,37529,0
notch-44,true,1.00,752,235,744,219,37505,0
notch-45,true,1.00,825,250,815,234,42698,0
notch-46,true,1.00,827,269,819,253,42164,0
notch-47,true,1.00,1120,290,1116,274,57494,0
notch-48,true,1.00,1234,253,1231,237,61795,0
notch-49,true,1.00,855,271,847,249,40757,0
notch-50,true,1.00,781,291,774,271,40405,0
notch-51,true,1.00,840,259,830,238,44630,0
notch-52,true,1.00,855,263,849,247,45654,0
notch-53,true,1.00,437,264,426,246,22362,0
notch-54,true,1.00,1240,302,1232,285,66516,0
notch-55,true,1.00,1135,295,1129,279,60181,0
notch-56,true,1.00,798,268,794,252,42093,0
notch-57,true,1.00,755,282,747,266,39197,0
notch-58,true,1.00,1094,282,1087,267,57046,0
notch-59,true,1.00,742,277,732,250,37825,0
notch-60,true,1.00,1093,272,1085,256,58155,0
notch-61,true,1.00,881,233,876,217,45258,0
notch-62,true,1.00,903,288,894,272,45431,0
notch-63,true,1.00,1344,300,1338,285,73562,0
notch-64,true,1.00,1003,244,1000,228,52888,0
notch-65,true,1.00,1335,286,1328,266,70982,0
notch-66,true,1.00,1012,289,1002,273,51296,0
notch-67,true,1.00,1010,245,1006,229,48658,0
notch-68,true,1.00,569,265,560,249,27973,0
notch-69,true,1.00,1498,287,1489,271,74597,0
notch-70,true,1.00,1242,306,1234,290,62734,0
notch-71,true,1.00,1077,245,1069,229,53653,0
notch-72,true,1.00,828,253,821,237,40971,0
notch-73,true,1.00,918,273,910,257,43773,0
notch-74,true,1.00,648,241,642,225,32275,0
notch-75,true,1.00,1411,312,1401,294,69717,0
notch-76,true,1.00,981,293,976,276,49348,0
notch-77,true,1.00,981,259,975,243,48710,0
notch-78,true,1.00,997,264,989,242,50467,0
notch-79,true,1.00,1001,287,991,270,49363,0
notch-80,true,1.00,452,232,448,216,22056,0
notch-81,true,1.00,1505,269,1499,243,75542,0
notch-82,true,1.00,815,248,809,232,41164,0
notch-83,true,1.00,1113,286,1107,267,56237,0
notch-84,true,1.00,1031,260,1026,244,50872,0
notch-85,true,1.00,876,282,862,264,44013,0
notch-86,true,1.00,902,251,895,235,44329,0
notch-87,true,1.00,1005,251,993,235,50970,0
notch-88,true,1.00,1249,292,1240,275,62089,0
notch-89,true,1.00,1230,273,1225,257,63716,0
notch-90,true,1.00,1253,263,1246,247,63848,0
notch-91,true,1.00,1494,278,1486,262,75821,0
notch-92,true,1.00,1117,253,1104,237,35967,0
notch-93,true,1.00,944,264,935,248,37217,0
notch-94,true,1.00,1376,278,1367,261,71393,0
notch-95,true,1.00,644,246,637,230,32018,0
notch-96,true,1.00,688,266,682,250,35841,0
notch-97,true,1.00,1269,283,1260,267,60262,0
notch-98,true,1.00,1162,247,1149,230,32428,0
notch-99,true,1.00,1251,265,1237,243,47820,0
notch-100,true,1.00,918,278,911,262,48241,0
