NDW:0.0
TTFW:1.4
DFPT:2.0
DFPAP:3.0
DFPMP:1.0
RIGHT_WINDOW_BORDER_X:195.0
level,win/fail,% travelled,run time,game ticks,planning time,total plannings,nodes evaluated,most backtracked nodes
patternWeightCount-1,true,1.00,3617,509,3602,484,162966,0
patternWeightCount-2,true,1.00,620,430,613,411,33711,0
patternWeightCount-3,true,1.00,618,448,610,430,32849,0
patternWeightCount-4,true,1.00,936,414,927,397,50418,0
patternWeightCount-5,true,1.00,2034,503,2014,485,75386,0
patternWeightCount-6,true,1.00,2592,486,2581,468,137379,0
patternWeightCount-7,true,1.00,1269,428,1250,411,40727,0
patternWeightCount-8,true,1.00,870,448,857,431,37573,0
patternWeightCount-9,true,1.00,1186,479,1169,461,68685,0
patternWeightCount-10,true,1.00,1140,532,1132,514,64422,0
patternWeightCount-11,true,1.00,615,450,605,432,33244,0
patternWeightCount-12,true,1.00,1563,531,1551,513,87708,0
patternWeightCount-13,true,1.00,993,436,976,419,55491,0
patternWeightCount-14,true,1.00,1078,444,1059,425,60636,0
patternWeightCount-15,true,1.00,1370,423,1359,405,78128,0
patternWeightCount-16,true,1.00,3190,537,3179,509,190892,0
patternWeightCount-17,true,1.00,1253,489,1231,472,38661,0
patternWeightCount-18,true,1.00,848,411,842,394,43191,0
patternWeightCount-19,true,1.00,767,486,748,469,40071,0
patternWeightCount-20,true,1.00,7466,529,7455,499,310589,0
patternWeightCount-21,true,1.00,700,517,684,499,30147,0
patternWeightCount-22,true,1.00,2792,532,2785,506,165022,0
patternWeightCount-23,true,1.00,1239,518,1233,481,72651,0
patternWeightCount-24,true,1.00,1404,405,1396,388,82565,0
patternWeightCount-25,true,1.00,1639,474,1624,457,95549,0
patternWeightCount-26,true,1.00,1321,509,1312,483,77486,0
patternWeightCount-27,true,1.00,2910,519,2894,478,122433,0
patternWeightCount-28,true,1.00,1341,475,1328,458,71931,0
patternWeightCount-29,true,1.00,1371,494,1364,477,74264,0
patternWeightCount-30,true,1.00,3526,491,3518,466,184922,0
patternWeightCount-31,true,1.00,1090,463,1074,446,56399,0
patternWeightCount-32,true,1.00,728,428,718,403,38734,0
patternWeightCount-33,true,1.00,850,457,839,440,45387,0
patternWeightCount-34,true,1.00,1625,429,1616,412,90823,0
patternWeightCount-35,true,1.00,1995,468,1985,451,101152,0
patternWeightCount-36,true,1.00,1727,483,1717,466,96205,0
patternWeightCount-37,true,1.00,879,457,869,440,47451,0
patternWeightCount-38,true,1.00,2725,488,2707,451,147616,0
patternWeightCount-39,true,1.00,875,421,866,402,48131,0
patternWeightCount-40,true,1.00,1381,472,1374,455,81010,0
patternWeightCount-41,true,1.00,1347,506,1332,485,77026,0
patternWeightCount-42,false,0.87,3755,448,3746,448,194651,0
patternWeightCount-43,true,1.00,1092,416,1081,399,59627,0
patternWeightCount-44,true,1.00,2015,495,1998,455,120623,0
patternWeightCount-45,true,1.00,3537,560,3525,527,202110,0
patternWeightCount-46,true,1.00,3408,484,3391,458,183528,0
patternWeightCount-47,true,1.00,804,443,792,426,43096,0
patternWeightCount-48,true,1.00,958,475,948,458,54448,0
patternWeightCount-49,true,1.00,690,432,681,415,38567,0
patternWeightCount-50,true,1.00,872,442,866,417,48658,0
patternWeightCount-51,true,1.00,1225,461,1215,431,70575,0
patternWeightCount-52,true,1.00,1566,490,1554,465,87806,0
patternWeightCount-53,true,1.00,2676,465,2666,446,147185,0
patternWeightCount-54,true,1.00,881,506,873,489,46678,0
patternWeightCount-55,true,1.00,1245,518,1235,498,69970,0
patternWeightCount-56,true,1.00,1240,490,1221,463,69709,0
patternWeightCount-57,true,1.00,558,407,546,390,31168,0
patternWeightCount-58,true,1.00,1261,462,1250,443,71543,0
patternWeightCount-59,true,1.00,578,433,560,416,31537,0
patternWeightCount-60,true,1.00,1561,513,1548,486,90202,0
patternWeightCount-61,true,1.00,922,401,912,384,53035,0
patternWeightCount-62,true,1.00,2014,449,2000,430,115375,0
patternWeightCount-63,true,1.00,1282,446,1277,429,74681,0
patternWeightCount-64,true,1.00,1938,485,1928,468,115384,0
patternWeightCount-65,true,1.00,1354,494,1333,476,78674,0
patternWeightCount-66,true,1.00,1077,466,1064,448,62750,0
patternWeightCount-67,true,1.00,1078,475,1072,458,58471,0
patternWeightCount-68,false,0.85,20891,999,20883,999,742824,0
patternWeightCount-69,true,1.00,1640,429,1630,397,93865,0
patternWeightCount-70,true,1.00,1237,476,1222,455,71425,0
patternWeightCount-71,true,1.00,760,432,746,397,42656,0
patternWeightCount-72,true,1.00,5138,492,5133,475,267864,0
patternWeightCount-73,true,1.00,6791,539,6783,510,376817,0
patternWeightCount-74,true,1.00,1272,462,1261,445,74812,0
patternWeightCount-75,true,1.00,1112,468,1101,451,62771,0
patternWeightCount-76,true,1.00,1130,478,1118,461,64268,0
patternWeightCount-77,true,1.00,1381,472,1365,455,80943,0
patternWeightCount-78,true,1.00,1966,506,1945,488,110142,0
patternWeightCount-79,true,1.00,828,380,819,363,48003,0
patternWeightCount-80,true,1.00,1740,543,1727,526,100046,0
patternWeightCount-81,false,0.91,4383,526,4373,526,233468,0
patternWeightCount-82,true,1.00,355,418,348,387,18482,0
patternWeightCount-83,true,1.00,846,404,837,386,44485,0
patternWeightCount-84,true,1.00,1144,487,1120,470,62518,0
patternWeightCount-85,true,1.00,1569,441,1559,424,87627,0
patternWeightCount-86,false,0.93,2883,425,2874,425,157454,0
patternWeightCount-87,true,1.00,5461,500,5446,466,282570,0
patternWeightCount-88,true,1.00,2096,478,2085,459,111903,0
patternWeightCount-89,true,1.00,869,416,854,399,42619,0
patternWeightCount-90,true,1.00,3884,466,3871,448,199702,0
patternWeightCount-91,true,1.00,1209,478,1189,460,67221,0
patternWeightCount-92,true,1.00,3411,514,3400,473,183460,0
patternWeightCount-93,true,1.00,3146,464,3137,439,170724,0
patternWeightCount-94,true,1.00,1792,480,1778,463,85561,0
patternWeightCount-95,true,1.00,1583,474,1572,457,87555,0
patternWeightCount-96,true,1.00,1314,443,1305,426,75408,0
patternWeightCount-97,true,1.00,1083,380,1073,362,63578,0
patternWeightCount-98,true,1.00,4233,469,4219,450,227063,0
patternWeightCount-99,true,1.00,1653,502,1641,484,91830,0
patternWeightCount-100,true,1.00,934,439,923,422,49879,0
