NDW:0.0
TTFW:2.0
DFPT:2.0
DFPAP:3.0
DFPMP:20.0
RIGHT_WINDOW_BORDER_X:176.0
level,win/fail,% travelled,run time,game ticks,planning time,total plannings,nodes evaluated,most backtracked nodes
patternCount-1,false,0.68,2038,402,2023,402,65080,0
patternCount-2,true,1.00,1331,431,1321,415,67430,0
patternCount-3,false,0.93,4813,491,4807,491,220225,0
patternCount-4,true,1.00,1452,460,1442,444,72018,0
patternCount-5,true,1.00,1202,453,1189,435,56870,0
patternCount-6,true,1.00,851,411,839,395,40514,0
patternCount-7,true,1.00,1366,477,1349,461,64297,0
patternCount-8,true,1.00,3842,481,3825,452,188411,0
patternCount-9,true,1.00,1400,480,1389,464,68869,0
patternCount-10,true,1.00,532,393,514,377,25596,0
patternCount-11,true,1.00,5991,612,5979,594,279560,0
patternCount-12,true,1.00,906,424,890,392,42700,0
patternCount-13,true,1.00,832,437,823,421,40224,0
patternCount-14,true,1.00,1193,430,1184,396,59890,0
patternCount-15,true,1.00,1687,499,1673,483,81836,0
patternCount-16,true,1.00,856,427,841,411,40729,0
patternCount-17,true,1.00,1564,560,1541,544,77197,0
patternCount-18,true,1.00,1451,458,1438,442,70672,0
patternCount-19,true,1.00,739,382,733,366,35574,0
patternCount-20,true,1.00,1351,462,1341,443,68257,0
patternCount-21,true,1.00,1019,467,1005,451,49515,0
patternCount-22,true,1.00,3174,552,3162,514,159466,0
patternCount-23,false,0.92,6966,552,6958,552,275680,0
patternCount-24,true,1.00,5882,500,5868,484,283500,0
patternCount-25,true,1.00,1415,477,1400,460,62289,0
patternCount-26,true,1.00,881,468,865,452,38929,0
patternCount-27,true,1.00,1245,455,1228,439,54364,0
patternCount-28,true,1.00,1194,476,1181,445,48348,0
patternCount-29,true,1.00,1223,424,1204,408,55689,0
patternCount-30,true,1.00,1440,497,1425,481,61906,0
patternCount-31,true,1.00,1964,502,1944,486,80204,0
patternCount-32,true,1.00,1826,512,1810,496,80396,0
patternCount-33,true,1.00,3805,522,3794,491,186309,0
patternCount-34,true,1.00,3103,560,3085,527,155432,0
patternCount-35,true,1.00,1146,448,1131,432,56590,0
patternCount-36,true,1.00,2868,486,2854,449,139874,0
patternCount-37,true,1.00,1275,425,1264,409,63975,0
patternCount-38,true,1.00,2988,476,2979,460,146768,0
patternCount-39,true,1.00,1136,488,1124,472,54573,0
patternCount-40,true,1.00,4599,483,4582,460,225575,0
patternCount-41,true,1.00,2320,456,2307,440,117880,0
patternCount-42,true,1.00,1013,461,999,445,48998,0
patternCount-43,true,1.00,649,492,635,476,30209,0
patternCount-44,true,1.00,1098,438,1090,422,52505,0
patternCount-45,true,1.00,1680,523,1665,497,76901,0
patternCount-46,true,1.00,1845,459,1838,443,96660,0
patternCount-47,true,1.00,1611,484,1595,468,83208,0
patternCount-48,true,1.00,764,423,749,407,38114,0
patternCount-49,true,1.00,1485,456,1476,440,74734,0
patternCount-50,true,1.00,6029,583,6017,559,312852,0
patternCount-51,true,1.00,975,409,963,393,47115,0
patternCount-52,true,1.00,1045,471,1032,455,52900,0
patternCount-53,true,1.00,6736,573,6718,545,334585,0
patternCount-54,true,1.00,2343,578,2328,562,116321,0
patternCount-55,true,1.00,6185,496,6173,474,279933,0
patternCount-56,true,1.00,1424,471,1402,455,67980,0
patternCount-57,true,1.00,1039,478,1026,453,48631,0
patternCount-58,false,0.69,3957,451,3942,451,164391,0
patternCount-59,true,1.00,1989,466,1972,450,94447,0
patternCount-60,true,1.00,1690,479,1677,463,78291,0
patternCount-61,true,1.00,1247,463,1235,433,58215,0
patternCount-62,true,1.00,1676,468,1657,445,77942,0
patternCount-63,true,1.00,939,498,918,482,44167,0
patternCount-64,true,1.00,1130,440,1116,424,53502,0
patternCount-65,true,1.00,1305,466,1291,449,62552,0
patternCount-66,true,1.00,1334,468,1321,452,63823,0
patternCount-67,true,1.00,1781,475,1766,444,85596,0
patternCount-68,true,1.00,1111,446,1095,430,51377,0
patternCount-69,true,1.00,1312,499,1294,483,58452,0
patternCount-70,true,1.00,1094,430,1082,414,49567,0
patternCount-71,true,1.00,1385,496,1366,467,62353,0
patternCount-72,true,1.00,5271,481,5260,459,238162,0
patternCount-73,true,1.00,2350,552,2331,536,110316,0
patternCount-74,true,1.00,9284,593,9273,571,403263,0
patternCount-75,true,1.00,1353,493,1335,476,63099,0
patternCount-76,true,1.00,1171,489,1161,473,53367,0
patternCount-77,true,1.00,1217,399,1202,372,55640,0
patternCount-78,true,1.00,1688,508,1676,492,74513,0
patternCount-79,true,1.00,5598,564,5588,542,223719,0
patternCount-80,true,1.00,3485,485,3472,463,173288,0
patternCount-81,true,1.00,1228,463,1220,447,59788,0
patternCount-82,true,1.00,1455,448,1441,432,74554,0
patternCount-83,true,1.00,1026,416,1012,400,51057,0
patternCount-84,true,1.00,900,459,885,443,45050,0
patternCount-85,true,1.00,997,463,978,447,50794,0
patternCount-86,true,1.00,1154,446,1140,430,59472,0
patternCount-87,true,1.00,1260,498,1251,472,63400,0
patternCount-88,true,1.00,2142,461,2129,435,112510,0
patternCount-89,true,1.00,1396,450,1381,434,72689,0
patternCount-90,true,1.00,744,426,733,410,38775,0
patternCount-91,true,1.00,1553,478,1543,462,79231,0
patternCount-92,true,1.00,910,456,895,440,45015,0
patternCount-93,true,1.00,7271,543,7257,526,361788,0
patternCount-94,true,1.00,1601,482,1586,465,81934,0
patternCount-95,true,1.00,1424,455,1409,439,72590,0
patternCount-96,true,1.00,1282,493,1261,477,64762,0
patternCount-97,false,0.82,4862,454,4851,454,233565,0
patternCount-98,true,1.00,1345,538,1327,522,61757,0
patternCount-99,true,1.00,1492,531,1466,515,66362,0
patternCount-100,true,1.00,632,404,619,388,27658,0
