NDW:0.0
TTFW:1.0
DFPT:2.0
DFPAP:3.0
DFPMP:5.0
RIGHT_WINDOW_BORDER_X:235.0
level,win/fail,% travelled,run time,game ticks,planning time,total plannings,nodes evaluated,most backtracked nodes
ore-1,true,1.00,1630,403,1625,380,82368,0
ore-2,false,0.70,1849,300,1844,300,88023,0
ore-3,true,1.00,1921,457,1906,427,96287,0
ore-4,true,1.00,2304,421,2288,393,110379,0
ore-5,true,1.00,1841,354,1828,325,91587,0
ore-6,true,1.00,1886,478,1873,440,91110,0
ore-7,true,1.00,1656,472,1643,447,80104,0
ore-8,true,1.00,2629,354,2619,323,126799,0
ore-9,true,1.00,1353,376,1342,355,68712,0
ore-10,false,0.55,883,251,875,251,45227,0
ore-11,true,1.00,1660,483,1648,448,78715,0
ore-12,false,0.46,2290,231,2287,231,100467,0
ore-13,true,1.00,2193,456,2184,417,109102,0
ore-14,true,1.00,1847,405,1834,382,93211,0
ore-15,true,1.00,2020,408,2011,381,100071,0
ore-16,true,1.00,1750,415,1744,390,91293,0
ore-17,true,1.00,2001,479,1992,437,104092,0
ore-18,true,1.00,1548,435,1535,398,80146,0
ore-19,true,1.00,1606,412,1593,386,81986,0
ore-20,true,1.00,2329,438,2313,408,116578,0
ore-21,true,1.00,2234,453,2220,421,111652,0
ore-22,false,0.62,2277,296,2271,296,107311,0
ore-23,true,1.00,1453,377,1442,355,74675,0
ore-24,true,1.00,1801,438,1787,406,90831,0
ore-25,true,1.00,1868,419,1857,383,94019,0
ore-26,true,1.00,1524,405,1512,380,74084,0
ore-27,false,0.24,1414,111,1409,111,64751,0
ore-28,true,1.00,2077,452,2066,426,96364,0
ore-29,false,0.48,3215,263,3210,263,133605,0
ore-30,true,1.00,1213,374,1205,350,61064,0
ore-31,true,1.00,1786,479,1771,443,88800,0
ore-32,true,1.00,1524,404,1503,371,74629,0
ore-33,true,1.00,1568,399,1562,368,77106,0
ore-34,true,1.00,1688,418,1681,387,82613,0
ore-35,true,1.00,1988,422,1982,400,105013,0
ore-36,true,1.00,1553,404,1540,375,79749,0
ore-37,false,0.34,1435,149,1434,149,63876,0
ore-38,true,1.00,1600,424,1586,394,76103,0
ore-39,true,1.00,2039,428,2026,404,99924,0
ore-40,true,1.00,1906,398,1895,376,88013,0
ore-41,true,1.00,2336,437,2322,398,111091,0
ore-42,true,1.00,2409,429,2391,406,115318,0
ore-43,true,1.00,2668,429,2654,408,128880,0
ore-44,true,1.00,2187,402,2178,368,111529,0
ore-45,false,0.74,23079,999,23067,999,834604,0
ore-46,false,0.12,975,53,974,53,50683,0
ore-47,false,0.84,2996,446,2986,446,154365,0
ore-48,true,1.00,1674,422,1663,393,95358,0
ore-49,true,1.00,1531,426,1520,399,87383,0
ore-50,true,1.00,1907,386,1897,364,109836,0
ore-51,true,1.00,2104,405,2097,373,120235,0
ore-52,true,1.00,1920,440,1906,417,109405,0
ore-53,true,1.00,2175,418,2164,393,124290,0
ore-54,false,0.72,2721,323,2717,323,142052,0
ore-55,true,1.00,1406,403,1399,372,82900,0
ore-56,true,1.00,1343,404,1332,372,76899,0
ore-57,true,1.00,1718,425,1709,400,96582,0
ore-58,true,1.00,1982,401,1972,380,114538,0
ore-59,true,1.00,2115,448,2104,425,116457,0
ore-60,true,1.00,1967,363,1957,335,108311,0
ore-61,true,1.00,1724,436,1719,411,91812,0
ore-62,true,1.00,1666,413,1659,391,97504,0
ore-63,false,0.32,2332,162,2328,162,112578,0
ore-64,true,1.00,1122,386,1109,364,65083,0
ore-65,true,1.00,2287,422,2275,395,130887,0
ore-66,true,1.00,2101,449,2090,427,118047,0
ore-67,true,1.00,1836,415,1823,388,103729,0
ore-68,true,1.00,1960,416,1951,381,109249,0
ore-69,true,1.00,2918,453,2907,430,159595,0
ore-70,false,0.95,2874,410,2862,410,145966,0
ore-71,true,1.00,1492,414,1484,392,81687,0
ore-72,true,1.00,1593,437,1585,403,88389,0
ore-73,true,1.00,2052,414,2047,392,115004,0
ore-74,true,1.00,2208,402,2201,365,105681,0
ore-75,true,1.00,1851,473,1835,451,91635,0
ore-76,true,1.00,1536,354,1528,333,81438,0
ore-77,true,1.00,1553,417,1537,393,79839,0
ore-78,true,1.00,1764,383,1747,362,86962,0
ore-79,true,1.00,1678,415,1664,385,74427,0
ore-80,true,1.00,2155,409,2136,387,92296,0
ore-81,true,1.00,2057,394,2043,371,86449,0
ore-82,true,1.00,1992,406,1980,373,83943,0
ore-83,true,1.00,1621,413,1610,384,67494,0
ore-84,true,1.00,4844,512,4831,484,193583,0
ore-85,true,1.00,1393,419,1381,389,67373,0
ore-86,false,0.62,2066,299,2056,299,96805,0
ore-87,true,1.00,1310,338,1296,317,60624,0
ore-88,true,1.00,1995,408,1985,385,98105,0
ore-89,true,1.00,2471,414,2464,393,108890,0
ore-90,true,1.00,1615,396,1599,373,70800,0
ore-91,true,1.00,1831,408,1818,379,81036,0
ore-92,true,1.00,2399,453,2389,430,106979,0
ore-93,false,0.13,1483,73,1481,73,57266,0
ore-94,true,1.00,2161,414,2147,387,106069,0
ore-95,true,1.00,2198,443,2188,410,103568,0
ore-96,true,1.00,2236,411,2219,389,107925,0
ore-97,true,1.00,2016,467,2004,426,98157,0
ore-98,true,1.00,1757,401,1744,379,84476,0
ore-99,true,1.00,2852,470,2835,445,133722,0
ore-100,true,1.00,1650,399,1635,370,82091,0
