NDW:0.0
TTFW:1.8
DFPT:2.0
DFPAP:3.0
DFPMP:5.0
RIGHT_WINDOW_BORDER_X:55.0
level,win/fail,% travelled,run time,game ticks,planning time,total plannings,nodes evaluated,most backtracked nodes
Krys-1,false,0.79,2749,558,2741,558,249074,0
Krys-2,false,0.62,586,355,585,355,86138,0
Krys-3,false,0.12,1030,136,1029,136,103306,0
Krys-4,true,1.00,1021,567,1017,556,114538,0
Krys-5,false,0.63,5653,505,5651,505,565016,0
Krys-6,false,0.72,1077,423,1076,423,110133,0
Krys-7,true,1.00,777,456,774,449,80636,0
Krys-8,false,0.82,1167,494,1166,494,140858,0
Krys-9,false,0.34,3166,237,3165,237,330629,0
Krys-10,true,1.00,3278,729,3276,722,392378,0
Krys-11,true,1.00,36,458,32,451,6647,0
Krys-12,false,0.44,143,246,143,246,21184,0
Krys-13,false,0.64,13200,999,13190,999,1400675,0
Krys-14,true,1.00,126,444,120,437,17025,0
Krys-15,false,0.66,5573,520,5572,520,659218,0
Krys-16,false,0.45,725,307,725,307,76076,0
Krys-17,false,0.71,1332,379,1331,379,127989,0
Krys-18,false,0.87,1462,562,1458,562,154065,0
Krys-19,false,0.10,1521,121,1521,121,141714,0
Krys-20,false,0.73,1190,615,1188,615,165082,0
Krys-21,false,0.88,4979,637,4977,637,547582,0
Krys-22,false,0.34,4441,261,4440,261,433189,0
Krys-23,true,1.00,2041,668,2036,663,221305,0
Krys-24,false,0.82,6921,999,6915,999,829977,0
Krys-25,true,1.00,7016,731,7009,726,716302,0
Krys-26,false,0.62,8682,550,8677,550,964558,0
Krys-27,false,0.52,121,276,120,276,12242,0
Krys-28,false,0.55,2985,487,2984,487,333326,0
Krys-29,true,1.00,1025,529,1023,524,101338,0
Krys-30,false,0.54,85,334,85,334,11037,0
Krys-31,false,0.72,548,437,545,437,76823,0
Krys-32,true,1.00,137,454,134,447,18879,0
Krys-33,true,1.00,581,444,578,437,61578,0
Krys-34,false,0.61,1517,360,1516,360,165501,0
Krys-35,false,0.53,2673,419,2671,419,321878,0
Krys-36,false,0.41,2043,367,2041,367,225908,0
Krys-37,false,0.27,1828,182,1827,182,158195,0
Krys-38,false,0.33,1689,314,1687,314,176854,0
Krys-39,false,0.19,1786,129,1786,129,176139,0
Krys-40,false,0.62,1774,433,1773,433,219718,0
Krys-41,false,0.57,7175,589,7172,589,782385,0
Krys-42,false,0.62,2663,528,2661,528,311784,0
Krys-43,false,0.82,6521,999,6513,999,778844,0
Krys-44,false,0.62,7603,602,7600,602,795416,0
Krys-45,true,1.00,407,570,403,557,42946,0
Krys-46,true,1.00,1818,627,1818,622,168247,0
Krys-47,false,0.62,1343,323,1343,323,147604,0
Krys-48,false,0.10,1520,121,1520,121,141067,0
Krys-49,true,1.00,1478,520,1473,514,149287,0
Krys-50,false,0.34,2070,245,2070,245,219038,0
Krys-51,false,0.42,3545,337,3544,337,368574,0
Krys-52,false,0.42,15,187,15,187,2696,0
Krys-53,true,1.00,1273,561,1269,554,106928,0
Krys-54,false,0.55,2918,444,2917,444,317746,0
Krys-55,false,0.51,984,313,982,313,122303,0
Krys-56,false,0.86,1307,484,1306,484,127138,0
Krys-57,false,0.75,19946,999,19943,999,1656266,0
Krys-58,true,1.00,4278,692,4277,685,381094,0
Krys-59,true,1.00,543,586,539,580,47338,0
Krys-60,false,0.57,5759,479,5758,479,549834,0
Krys-61,false,0.30,349,220,345,220,56537,0
Krys-62,true,1.00,420,457,416,450,43280,0
Krys-63,false,0.45,1688,365,1683,365,138913,0
Krys-64,true,1.00,2746,686,2742,679,281834,0
Krys-65,false,0.73,1276,373,1276,373,101554,0
Krys-66,true,1.00,2175,644,2171,639,206304,0
Krys-67,true,1.00,978,568,974,562,116720,0
Krys-68,false,0.63,2138,386,2138,386,208734,0
Krys-69,false,0.48,18326,999,18318,999,1119658,0
Krys-70,false,0.55,2879,519,2874,519,311576,0
Krys-71,false,0.73,8624,750,8622,750,977222,0
Krys-72,true,1.00,525,594,523,587,69236,0
Krys-73,false,0.63,3326,456,3325,456,362600,0
Krys-74,false,0.71,19319,999,19316,999,1710377,0
Krys-75,false,0.73,89,400,86,400,12699,0
Krys-76,false,0.42,1494,253,1494,253,153209,0
Krys-77,false,0.45,3331,320,3329,320,331710,0
Krys-78,false,0.19,3833,999,3828,999,587895,0
Krys-79,true,1.00,376,501,372,486,39561,0
Krys-80,true,1.00,268,498,265,492,28771,0
Krys-81,true,1.00,2619,592,2616,585,281833,0
Krys-82,true,1.00,560,484,558,477,57229,0
Krys-83,false,0.53,2784,323,2781,323,301167,0
Krys-84,true,1.00,103,445,98,439,13326,0
Krys-85,false,0.20,16,115,16,115,3005,0
Krys-86,false,0.63,1493,357,1492,357,120833,0
Krys-87,true,1.00,93,434,93,427,13273,0
Krys-88,false,0.74,1506,441,1502,441,149273,0
Krys-89,false,0.34,971,217,970,217,98796,0
Krys-90,false,0.62,5975,440,5974,440,592541,0
Krys-91,true,1.00,804,493,802,486,84467,0
Krys-92,false,0.45,1142,385,1139,385,117186,0
Krys-93,false,0.82,3174,561,3167,561,403671,0
Krys-94,false,0.45,2108,246,2106,246,253047,0
Krys-95,false,0.75,18983,999,18980,999,1603849,0
Krys-96,false,0.55,918,255,917,255,95222,0
Krys-97,false,0.70,3520,457,3518,457,370435,0
Krys-98,false,0.13,1294,162,1294,162,108337,0
Krys-99,true,1.00,656,558,653,553,75741,0
Krys-100,false,0.31,1367,193,1367,193,136131,0
