NDW:0.0
TTFW:0.2
DFPT:2.0
DFPAP:3.0
DFPMP:50.0
RIGHT_WINDOW_BORDER_X:295.0
level,win/fail,% travelled,run time,game ticks,planning time,total plannings,nodes evaluated,most backtracked nodes
ge-1,true,1.00,3169,226,3165,194,187936,0
ge-2,true,1.00,2889,210,2888,183,171301,0
ge-3,true,1.00,2094,199,2092,172,122433,0
ge-4,true,1.00,3063,219,3061,190,181191,0
ge-5,true,1.00,2021,199,2019,172,112118,0
ge-6,true,1.00,3994,229,3992,202,229217,0
ge-7,true,1.00,2231,201,2230,174,126046,0
ge-8,true,1.00,2562,209,2562,182,153975,0
ge-9,true,1.00,1856,199,1853,172,110228,0
ge-10,true,1.00,2018,199,2015,172,107292,0
ge-11,true,1.00,2554,205,2552,176,154292,0
ge-12,true,1.00,1892,201,1891,172,103828,0
ge-13,true,1.00,3255,223,3255,194,187239,0
ge-14,true,1.00,2531,209,2528,180,144465,0
ge-15,true,1.00,2211,201,2210,174,137155,0
ge-16,true,1.00,4256,230,4255,203,246764,0
ge-17,true,1.00,2157,201,2155,174,125614,0
ge-18,true,1.00,3825,233,3823,204,219835,0
ge-19,true,1.00,3081,213,3080,186,187672,0
ge-20,true,1.00,2291,201,2291,172,134451,0
ge-21,true,1.00,2056,199,2054,172,120561,0
ge-22,true,1.00,2291,199,2288,172,124625,0
ge-23,true,1.00,2393,199,2393,172,149335,0
ge-24,true,1.00,2206,203,2202,174,129175,0
ge-25,true,1.00,2209,201,2208,172,132681,0
ge-26,true,1.00,2129,199,2125,172,127836,0
ge-27,true,1.00,2407,203,2404,176,139018,0
ge-28,true,1.00,2315,203,2313,176,146309,0
ge-29,true,1.00,2129,206,2127,174,128045,0
ge-30,true,1.00,3113,212,3113,185,192455,0
ge-31,true,1.00,3178,214,3176,187,193226,0
ge-32,true,1.00,2936,213,2934,186,164384,0
ge-33,true,1.00,2183,210,2180,178,124175,0
ge-34,true,1.00,2127,208,2125,178,130847,0
ge-35,true,1.00,3682,223,3680,196,209628,0
ge-36,false,1.00,1936,203,1935,172,117900,0
ge-37,true,1.00,1912,199,1910,172,117608,0
ge-38,true,1.00,2716,209,2714,180,162969,0
ge-39,true,1.00,2825,211,2825,183,173428,0
ge-40,true,1.00,2117,201,2117,172,128055,0
ge-41,true,1.00,2301,201,2300,174,128499,0
ge-42,true,1.00,2913,211,2910,184,174420,0
ge-43,true,1.00,3334,226,3331,195,194444,0
ge-44,true,1.00,2358,205,2356,176,140848,0
ge-45,true,1.00,3175,216,3174,190,185522,0
ge-46,true,1.00,3077,221,3077,194,176794,0
ge-47,true,1.00,2332,201,2329,174,139794,0
ge-48,true,1.00,2848,213,2847,184,162171,0
ge-49,true,1.00,2160,201,2158,172,127638,0
ge-50,true,1.00,2079,199,2077,172,126950,0
ge-51,true,1.00,2451,207,2449,178,146841,0
ge-52,true,1.00,2930,212,2929,185,172676,0
ge-53,true,1.00,2377,203,2376,176,145108,0
ge-54,true,1.00,2755,212,2753,185,158577,0
ge-55,true,1.00,3314,219,3312,190,198140,0
ge-56,true,1.00,2278,207,2278,180,136266,0
ge-57,true,1.00,2101,199,2099,172,124770,0
ge-58,true,1.00,3726,248,3725,213,211566,0
ge-59,true,1.00,2245,199,2244,172,141167,0
ge-60,true,1.00,2188,199,2183,172,128808,0
ge-61,true,1.00,2062,201,2061,172,121429,0
ge-62,true,1.00,2410,199,2409,172,143823,0
ge-63,true,1.00,2133,199,2133,172,126119,0
ge-64,true,1.00,2592,215,2591,186,142292,0
ge-65,true,1.00,2336,201,2335,174,140397,0
ge-66,true,1.00,2333,206,2331,172,142993,0
ge-67,true,1.00,2378,205,2375,173,135312,0
ge-68,true,1.00,2555,215,2554,186,150146,0
ge-69,true,1.00,2024,207,2022,175,120803,0
ge-70,true,1.00,2023,199,2021,172,121516,0
ge-71,true,1.00,2728,207,2728,180,169304,0
ge-72,true,1.00,3866,228,3863,201,222206,0
ge-73,true,1.00,2188,201,2188,172,132975,0
ge-74,true,1.00,2670,209,2667,182,163954,0
ge-75,true,1.00,3343,226,3342,193,194333,0
ge-76,true,1.00,1988,199,1986,172,123721,0
ge-77,true,1.00,2746,213,2743,184,168551,0
ge-78,true,1.00,3905,230,3903,201,230923,0
ge-79,false,1.00,2260,201,2257,174,130071,0
ge-80,true,1.00,2315,203,2312,174,129371,0
ge-81,true,1.00,2290,199,2289,172,123772,0
ge-82,true,1.00,3267,220,3265,185,184298,0
ge-83,true,1.00,4056,257,4055,225,231145,0
ge-84,true,1.00,2101,201,2098,172,128834,0
ge-85,true,1.00,2169,199,2168,172,129701,0
ge-86,true,1.00,2264,199,2264,172,139337,0
ge-87,true,1.00,2713,207,2711,180,162565,0
ge-88,true,1.00,2487,210,2487,178,147188,0
ge-89,true,1.00,3467,229,3466,202,200026,0
ge-90,true,1.00,2048,201,2046,172,120956,0
ge-91,true,1.00,2146,199,2143,172,129724,0
ge-92,true,1.00,1896,201,1893,172,109829,0
ge-93,true,1.00,2463,199,2461,172,148113,0
ge-94,true,1.00,2239,201,2237,172,123696,0
ge-95,true,1.00,4143,230,4140,201,231612,0
ge-96,true,1.00,2519,206,2518,178,149348,0
ge-97,true,1.00,3113,210,3110,183,185989,0
ge-98,true,1.00,2028,201,2026,172,122478,0
ge-99,true,1.00,2071,201,2070,172,123143,0
ge-100,true,1.00,2127,199,2125,172,121730,0
