NDW:0.0
TTFW:0.8
DFPT:2.0
DFPAP:3.0
DFPMP:0.0
RIGHT_WINDOW_BORDER_X:275.0
level,win/fail,% travelled,run time,game ticks,planning time,total plannings,nodes evaluated,most backtracked nodes
notchParamRand-1,true,1.00,886,312,880,287,82623,0
notchParamRand-2,true,1.00,166,308,163,283,17242,0
notchParamRand-3,true,1.00,894,306,892,281,90867,0
notchParamRand-4,true,1.00,1636,336,1636,311,159665,0
notchParamRand-5,true,1.00,290,306,288,281,27368,0
notchParamRand-6,true,1.00,388,304,386,279,37877,0
notchParamRand-7,true,1.00,263,294,262,269,27175,0
notchParamRand-8,true,1.00,500,302,497,277,46977,0
notchParamRand-9,true,1.00,590,308,588,283,59432,0
notchParamRand-10,true,1.00,867,313,864,288,85597,0
notchParamRand-11,true,1.00,157,294,154,269,15871,0
notchParamRand-12,true,1.00,300,306,298,281,29318,0
notchParamRand-13,true,1.00,1587,306,1584,281,149906,0
notchParamRand-14,true,1.00,953,312,950,287,89934,0
notchParamRand-15,true,1.00,585,308,585,283,57922,0
notchParamRand-16,true,1.00,431,300,430,275,46353,0
notchParamRand-17,true,1.00,97,294,95,269,11193,0
notchParamRand-18,true,1.00,1761,316,1760,291,173803,0
notchParamRand-19,true,1.00,202,325,200,300,20367,0
notchParamRand-20,true,1.00,1387,327,1381,302,141855,0
notchParamRand-21,true,1.00,96,296,94,271,11043,0
notchParamRand-22,true,1.00,866,318,864,293,86485,0
notchParamRand-23,true,1.00,1002,326,1002,301,98966,0
notchParamRand-24,true,1.00,237,320,236,295,24081,0
notchParamRand-25,true,1.00,91,308,91,280,10661,0
notchParamRand-26,true,1.00,446,326,445,301,41326,0
notchParamRand-27,true,1.00,262,300,261,275,29334,0
notchParamRand-28,true,1.00,458,310,455,285,42320,0
notchParamRand-29,true,1.00,102,298,101,273,12541,0
notchParamRand-30,true,1.00,1982,341,1981,316,193808,0
notchParamRand-31,true,1.00,417,316,415,291,40588,0
notchParamRand-32,true,1.00,165,294,164,269,18989,0
notchParamRand-33,true,1.00,1840,320,1837,295,181930,0
notchParamRand-34,true,1.00,939,318,938,293,91374,0
notchParamRand-35,true,1.00,490,310,487,285,49459,0
notchParamRand-36,true,1.00,89,300,88,272,10103,0
notchParamRand-37,true,1.00,392,310,391,285,39630,0
notchParamRand-38,true,1.00,1636,313,1635,288,157834,0
notchParamRand-39,true,1.00,1522,317,1519,292,149709,0
notchParamRand-40,true,1.00,1971,314,1971,289,196604,0
notchParamRand-41,true,1.00,98,294,97,269,12008,0
notchParamRand-42,true,1.00,451,316,448,291,43638,0
notchParamRand-43,true,1.00,263,300,260,275,28102,0
notchParamRand-44,true,1.00,329,304,328,279,33691,0
notchParamRand-45,true,1.00,912,308,908,283,85567,0
notchParamRand-46,true,1.00,498,302,495,277,50160,0
notchParamRand-47,true,1.00,726,314,724,289,70125,0
notchParamRand-48,true,1.00,1267,310,1266,285,122971,0
notchParamRand-49,true,1.00,683,306,682,281,64189,0
notchParamRand-50,true,1.00,1226,324,1225,299,120814,0
notchParamRand-51,true,1.00,196,308,195,283,19627,0
notchParamRand-52,true,1.00,771,308,768,283,73514,0
notchParamRand-53,true,1.00,855,312,852,287,80004,0
notchParamRand-54,true,1.00,1611,338,1611,313,156249,0
notchParamRand-55,true,1.00,1648,312,1647,287,152973,0
notchParamRand-56,true,1.00,655,304,652,279,65476,0
notchParamRand-57,true,1.00,889,312,888,287,90134,0
notchParamRand-58,true,1.00,723,312,722,287,71729,0
notchParamRand-59,true,1.00,393,304,389,279,40733,0
notchParamRand-60,true,1.00,591,302,590,277,58425,0
notchParamRand-61,true,1.00,487,312,484,287,48280,0
notchParamRand-62,true,1.00,425,316,423,291,40697,0
notchParamRand-63,true,1.00,1366,314,1361,289,131916,0
notchParamRand-64,true,1.00,293,296,290,271,31566,0
notchParamRand-65,true,1.00,2000,322,1998,297,191473,0
notchParamRand-66,true,1.00,391,306,390,281,36045,0
notchParamRand-67,true,1.00,295,300,293,275,28628,0
notchParamRand-68,true,1.00,1312,312,1312,287,127751,0
notchParamRand-69,true,1.00,262,300,261,275,28354,0
notchParamRand-70,true,1.00,628,328,625,303,62491,0
notchParamRand-71,true,1.00,268,310,268,285,26125,0
notchParamRand-72,true,1.00,160,294,159,269,17028,0
notchParamRand-73,true,1.00,418,306,415,281,38975,0
notchParamRand-74,true,1.00,102,294,101,269,12752,0
notchParamRand-75,true,1.00,102,294,100,269,12114,0
notchParamRand-76,true,1.00,1050,328,1048,303,99306,0
notchParamRand-77,true,1.00,1375,326,1373,301,132484,0
notchParamRand-78,true,1.00,893,302,890,277,87361,0
notchParamRand-79,true,1.00,289,298,289,273,27751,0
notchParamRand-80,true,1.00,293,304,292,279,28768,0
notchParamRand-81,true,1.00,300,298,298,273,31742,0
notchParamRand-82,true,1.00,721,308,718,283,70062,0
notchParamRand-83,true,1.00,1211,327,1210,302,119852,0
notchParamRand-84,true,1.00,292,300,288,275,29261,0
notchParamRand-85,true,1.00,102,294,100,269,12482,0
notchParamRand-86,true,1.00,577,331,576,306,53073,0
notchParamRand-87,true,1.00,1630,314,1628,289,160283,0
notchParamRand-88,true,1.00,304,298,304,273,31815,0
notchParamRand-89,true,1.00,368,304,365,279,38894,0
notchParamRand-90,true,1.00,575,313,572,288,55469,0
notchParamRand-91,true,1.00,96,294,95,269,11025,0
notchParamRand-92,true,1.00,879,314,876,289,86043,0
notchParamRand-93,true,1.00,293,313,291,283,29180,0
notchParamRand-94,true,1.00,1536,324,1534,299,143765,0
notchParamRand-95,true,1.00,689,316,687,291,64393,0
notchParamRand-96,true,1.00,464,316,460,291,44124,0
notchParamRand-97,true,1.00,1251,316,1251,291,115590,0
notchParamRand-98,true,1.00,255,294,254,269,28091,0
notchParamRand-99,true,1.00,295,310,292,285,28603,0
notchParamRand-100,true,1.00,1437,312,1435,287,139550,0
