NDW:0.0
TTFW:1.4
DFPT:2.0
DFPAP:3.0
DFPMP:1.0
RIGHT_WINDOW_BORDER_X:350.0
level,win/fail,% travelled,run time,game ticks,planning time,total plannings,nodes evaluated,most backtracked nodes
hopper-1,true,1.00,1158,327,1147,289,61300,0
hopper-2,true,1.00,1416,317,1409,285,76634,0
hopper-3,false,0.25,1084,83,1082,83,50844,0
hopper-4,false,0.28,1129,94,1128,94,55148,0
hopper-5,true,1.00,998,316,989,284,52776,0
hopper-6,true,1.00,1006,314,997,275,53540,0
hopper-7,false,0.84,1724,255,1721,255,84185,0
hopper-8,false,0.42,1378,139,1377,139,66403,0
hopper-9,true,1.00,1004,312,993,275,52073,0
hopper-10,true,1.00,934,315,928,283,50087,0
hopper-11,true,1.00,790,321,781,289,40644,0
hopper-12,true,1.00,1250,320,1237,288,66466,0
hopper-13,false,0.40,1491,127,1491,127,73214,0
hopper-14,true,1.00,1315,318,1310,287,72323,0
hopper-15,true,1.00,1095,301,1083,269,58687,0
hopper-16,false,0.55,1482,169,1478,169,71526,0
hopper-17,true,1.00,959,311,949,279,50868,0
hopper-18,true,1.00,1076,310,1066,278,56558,0
hopper-19,true,1.00,817,311,813,279,44744,0
hopper-20,true,1.00,1315,332,1309,298,68660,0
hopper-21,false,0.62,1754,199,1743,199,43400,0
hopper-22,false,0.33,1268,108,1265,108,41812,0
hopper-23,true,1.00,1143,310,1132,278,57288,0
hopper-24,true,1.00,775,325,769,292,39936,0
hopper-25,true,1.00,1088,309,1075,277,59135,0
hopper-26,true,1.00,1125,301,1112,269,59162,0
hopper-27,true,1.00,1129,299,1115,267,32411,0
hopper-28,false,0.86,2385,288,2376,288,99906,0
hopper-29,false,0.26,1083,87,1082,87,51835,0
hopper-30,true,1.00,971,324,965,283,52330,0
hopper-31,false,0.77,1983,244,1980,244,100445,0
hopper-32,true,1.00,1181,299,1176,267,66333,0
hopper-33,false,0.50,1281,169,1278,169,62471,0
hopper-34,false,0.32,1283,102,1283,102,62799,0
hopper-35,true,1.00,1387,332,1380,298,77889,0
hopper-36,true,1.00,806,314,796,282,42918,0
hopper-37,false,0.51,1309,166,1303,166,62401,0
hopper-38,true,1.00,1790,307,1786,275,97554,0
hopper-39,false,0.53,1462,171,1458,171,73364,0
hopper-40,true,1.00,991,328,986,291,52580,0
hopper-41,true,1.00,1707,301,1699,269,94233,0
hopper-42,true,1.00,970,317,962,285,51139,0
hopper-43,false,0.45,1774,144,1769,144,87904,0
hopper-44,true,1.00,1195,313,1182,281,65794,0
hopper-45,false,0.43,1431,150,1430,150,65977,0
hopper-46,false,0.67,2081,226,2078,226,59935,0
hopper-47,true,1.00,1358,305,1348,273,74316,0
hopper-48,true,1.00,1102,303,1091,271,60281,0
hopper-49,true,1.00,1256,315,1248,283,68808,0
hopper-50,false,0.63,1658,201,1655,201,83883,0
hopper-51,false,0.34,1225,109,1222,109,60037,0
hopper-52,true,1.00,802,307,792,275,44283,0
hopper-53,false,0.63,1997,222,1994,222,100984,0
hopper-54,true,1.00,642,297,632,265,34407,0
hopper-55,true,1.00,1022,343,1016,300,56300,0
hopper-56,true,1.00,750,297,744,265,41343,0
hopper-57,true,1.00,1028,331,1019,299,54794,0
hopper-58,false,0.58,1583,180,1582,180,79739,0
hopper-59,true,1.00,792,297,785,265,43048,0
hopper-60,true,1.00,1006,321,999,289,55846,0
hopper-61,false,0.83,2044,250,2039,250,106395,0
hopper-62,true,1.00,1358,330,1349,297,74362,0
hopper-63,false,0.23,1078,78,1078,78,52256,0
hopper-64,true,1.00,1097,313,1090,281,59481,0
hopper-65,true,1.00,1077,321,1072,282,59988,0
hopper-66,false,0.75,1574,251,1572,251,77934,0
hopper-67,true,1.00,1061,326,1053,294,58017,0
hopper-68,true,1.00,750,326,739,294,39950,0
hopper-69,false,0.84,1786,271,1780,271,91513,0
hopper-70,true,1.00,1181,305,1176,272,65549,0
hopper-71,true,1.00,715,303,707,271,38093,0
hopper-72,true,1.00,1176,301,1164,269,63891,0
hopper-73,true,1.00,1152,315,1146,283,62560,0
hopper-74,true,1.00,800,305,794,273,42863,0
hopper-75,true,1.00,1194,317,1184,285,64955,0
hopper-76,false,0.48,1570,149,1567,149,77979,0
hopper-77,true,1.00,1096,347,1088,308,58514,0
hopper-78,true,1.00,1125,308,1117,266,64106,0
hopper-79,true,1.00,838,313,827,267,45585,0
hopper-80,true,1.00,830,311,823,279,44176,0
hopper-81,false,0.39,1427,123,1426,123,70319,0
hopper-82,true,1.00,1694,307,1683,273,87507,0
hopper-83,true,1.00,1387,324,1382,292,78147,0
hopper-84,true,1.00,1284,303,1273,271,71161,0
hopper-85,true,1.00,1116,345,1100,313,60288,0
hopper-86,true,1.00,1047,303,1036,271,57502,0
hopper-87,true,1.00,1184,313,1177,281,64895,0
hopper-88,true,1.00,905,331,897,299,48846,0
hopper-89,true,1.00,994,340,986,307,54045,0
hopper-90,true,1.00,1050,318,1042,284,56978,0
hopper-91,true,1.00,1387,322,1381,291,77076,0
hopper-92,true,1.00,1193,315,1185,283,64554,0
hopper-93,true,1.00,728,313,722,281,39261,0
hopper-94,false,0.65,1715,211,1710,211,86513,0
hopper-95,true,1.00,1038,309,1031,277,55177,0
hopper-96,true,1.00,1260,297,1255,265,69194,0
hopper-97,true,1.00,1279,312,1273,280,69506,0
hopper-98,true,1.00,1467,321,1466,289,79970,0
hopper-99,true,1.00,1943,321,1939,288,104204,0
hopper-100,true,1.00,1220,332,1211,287,66701,0
