NDW:0.0
TTFW:0.8
DFPT:2.0
DFPAP:3.0
DFPMP:7.0
RIGHT_WINDOW_BORDER_X:255.0
level,win/fail,% travelled,run time,game ticks,planning time,total plannings,nodes evaluated,most backtracked nodes
Krys-1,true,1.00,7609,544,7604,503,503367,0
Krys-2,true,1.00,1450,368,1448,322,94976,0
Krys-3,true,1.00,7042,553,7038,515,519619,0
Krys-4,true,1.00,2735,517,2733,415,177629,0
Krys-5,true,1.00,1844,356,1840,310,168039,0
Krys-6,true,1.00,1092,361,1092,322,87542,0
Krys-7,true,1.00,343,323,340,283,27438,0
Krys-8,true,1.00,2554,482,2549,434,173564,0
Krys-9,true,1.00,1986,301,1984,266,185929,0
Krys-10,true,1.00,1799,340,1798,298,149648,0
Krys-11,true,1.00,448,374,444,331,29439,0
Krys-12,true,1.00,5586,493,5585,450,360017,0
Krys-13,true,1.00,2922,356,2918,304,246715,0
Krys-14,true,1.00,2011,396,2008,359,125630,0
Krys-15,true,1.00,4486,422,4483,381,402785,0
Krys-16,true,1.00,2576,404,2573,356,164096,0
Krys-17,true,1.00,1968,403,1963,357,132600,0
Krys-18,true,1.00,1296,431,1291,390,94985,0
Krys-19,true,1.00,2976,347,2976,308,245746,0
Krys-20,true,1.00,4445,559,4442,526,342784,0
Krys-21,true,1.00,1590,347,1588,303,155705,0
Krys-22,true,1.00,2257,311,2257,268,212557,0
Krys-23,true,1.00,1345,370,1342,328,90140,0
Krys-24,true,1.00,5813,416,5811,380,410564,0
Krys-25,true,1.00,3778,424,3774,376,262752,0
Krys-26,true,1.00,2339,290,2337,255,216874,0
Krys-27,true,1.00,2919,369,2916,334,218717,0
Krys-28,true,1.00,5458,504,5458,458,431704,0
Krys-29,true,1.00,2877,430,2870,395,181078,0
Krys-30,true,1.00,2621,451,2619,403,165351,0
Krys-31,true,1.00,1626,427,1619,381,112030,0
Krys-32,true,1.00,820,381,816,356,53311,0
Krys-33,true,1.00,495,327,490,286,36111,0
Krys-34,true,1.00,2771,412,2769,368,184023,0
Krys-35,true,1.00,1999,342,1995,296,173869,0
Krys-36,true,1.00,4470,404,4467,330,355657,0
Krys-37,true,1.00,4760,435,4760,403,380411,0
Krys-38,true,1.00,4765,470,4764,424,408365,0
Krys-39,true,1.00,3227,391,3226,320,263808,0
Krys-40,true,1.00,4365,427,4361,390,381196,0
Krys-41,false,0.70,26678,999,26676,999,1530304,0
Krys-42,true,1.00,2415,404,2412,363,222908,0
Krys-43,true,1.00,1442,331,1440,301,125238,0
Krys-44,true,1.00,7282,572,7280,523,559385,0
Krys-45,true,1.00,2311,419,2309,378,139824,0
Krys-46,true,1.00,1741,442,1735,399,113389,0
Krys-47,true,1.00,1639,426,1633,379,112929,0
Krys-48,true,1.00,1734,315,1733,272,163788,0
Krys-49,true,1.00,1652,408,1650,365,102913,0
Krys-50,true,1.00,6597,503,6594,463,460507,0
Krys-51,true,1.00,3614,402,3608,366,339418,0
Krys-52,true,1.00,2273,490,2270,454,142935,0
Krys-53,true,1.00,2027,475,2020,444,126899,0
Krys-54,true,1.00,3861,467,3860,430,320402,0
Krys-55,true,1.00,3711,511,3709,450,246363,0
Krys-56,true,1.00,542,332,535,292,43615,0
Krys-57,true,1.00,1815,306,1812,271,146944,0
Krys-58,true,1.00,2935,436,2932,391,187177,0
Krys-59,true,1.00,2805,404,2802,364,168328,0
Krys-60,true,1.00,2761,387,2760,316,215591,0
Krys-61,true,1.00,2056,392,2054,360,128933,0
Krys-62,true,1.00,2124,418,2121,370,117818,0
Krys-63,true,1.00,4933,607,4929,565,303938,0
Krys-64,true,1.00,3253,494,3251,454,223755,0
Krys-65,true,1.00,3373,508,3372,473,203595,0
Krys-66,true,1.00,2573,389,2568,356,152240,0
Krys-67,true,1.00,2579,438,2573,389,174989,0
Krys-68,true,1.00,3518,353,3518,317,301566,0
Krys-69,true,1.00,3519,478,3516,442,227658,0
Krys-70,false,0.80,25749,999,25748,999,1434366,0
Krys-71,true,1.00,3591,405,3589,358,326264,0
Krys-72,true,1.00,1405,473,1400,429,95015,0
Krys-73,false,0.80,24535,999,24533,999,1356355,0
Krys-74,true,1.00,2909,395,2907,354,209224,0
Krys-75,true,1.00,1224,414,1221,366,69703,0
Krys-76,true,1.00,3663,318,3663,287,301398,0
Krys-77,true,1.00,1544,371,1540,323,137059,0
Krys-78,true,1.00,6912,493,6910,459,455368,0
Krys-79,true,1.00,1331,390,1329,314,83068,0
Krys-80,true,1.00,607,385,602,341,43051,0
Krys-81,true,1.00,1309,394,1303,345,101784,0
Krys-82,true,1.00,1411,346,1408,312,89339,0
Krys-83,true,1.00,5288,462,5285,388,380662,0
Krys-84,true,1.00,302,333,300,290,22767,0
Krys-85,true,1.00,3823,530,3821,488,245658,0
Krys-86,true,1.00,2111,376,2110,333,150991,0
Krys-87,true,1.00,1433,372,1429,347,85023,0
Krys-88,true,1.00,2360,423,2360,379,153261,0
Krys-89,true,1.00,2197,412,2197,372,146260,0
Krys-90,true,1.00,2997,323,2996,280,255304,0
Krys-91,true,1.00,419,341,418,301,30527,0
Krys-92,true,1.00,4823,497,4820,413,345846,0
Krys-93,true,1.00,1915,303,1915,269,175159,0
Krys-94,true,1.00,1406,352,1402,305,124168,0
Krys-95,true,1.00,1556,379,1552,331,96124,0
Krys-96,true,1.00,4725,409,4720,373,414095,0
Krys-97,false,0.70,2421,249,2420,249,160983,0
Krys-98,true,1.00,5494,539,5489,504,337787,0
Krys-99,true,1.00,1633,455,1630,414,100064,0
Krys-100,true,1.00,2226,333,2223,297,219899,0
