NDW:0.0
TTFW:1.0
DFPT:2.0
DFPAP:3.0
DFPMP:10.0
RIGHT_WINDOW_BORDER_X:295.0
level,win/fail,% travelled,run time,game ticks,planning time,total plannings,nodes evaluated,most backtracked nodes
ore-1,true,1.00,1442,397,1431,359,78917,0
ore-2,false,0.70,2184,282,2179,282,113712,0
ore-3,true,1.00,1667,474,1658,441,91879,0
ore-4,true,1.00,2122,393,2113,366,112139,0
ore-5,true,1.00,1607,374,1604,336,87153,0
ore-6,true,1.00,1692,472,1682,433,89749,0
ore-7,true,1.00,1640,432,1628,394,87459,0
ore-8,true,1.00,3333,394,3326,357,174186,0
ore-9,true,1.00,1227,388,1219,356,67136,0
ore-10,true,1.00,1843,432,1833,405,101270,0
ore-11,true,1.00,1844,460,1829,423,97796,0
ore-12,false,0.46,2177,231,2173,231,104470,0
ore-13,true,1.00,1706,437,1695,407,92154,0
ore-14,true,1.00,2009,421,1995,376,111803,0
ore-15,true,1.00,2034,403,2021,376,112504,0
ore-16,true,1.00,1717,386,1708,351,94065,0
ore-17,true,1.00,2021,478,2008,431,112305,0
ore-18,true,1.00,1536,425,1523,382,84709,0
ore-19,true,1.00,1620,408,1615,381,90418,0
ore-20,true,1.00,2196,417,2185,381,123431,0
ore-21,true,1.00,1903,424,1899,397,108837,0
ore-22,false,0.62,1789,278,1786,278,88557,0
ore-23,true,1.00,1849,418,1839,384,102885,0
ore-24,true,1.00,1635,464,1617,412,88638,0
ore-25,true,1.00,1846,440,1840,403,101745,0
ore-26,true,1.00,1579,423,1565,383,78667,0
ore-27,false,0.24,1428,120,1426,120,66966,0
ore-28,true,1.00,1555,417,1545,385,79299,0
ore-29,false,0.48,1732,210,1730,210,77824,0
ore-30,true,1.00,1491,401,1482,355,81884,0
ore-31,true,1.00,1798,468,1784,428,95768,0
ore-32,true,1.00,1757,403,1744,376,94192,0
ore-33,true,1.00,1859,451,1847,422,100787,0
ore-34,true,1.00,1881,435,1863,402,101562,0
ore-35,true,1.00,1630,398,1624,369,91564,0
ore-36,true,1.00,1591,428,1580,390,86205,0
ore-37,false,0.34,1814,139,1812,139,86077,0
ore-38,true,1.00,1372,404,1360,357,73478,0
ore-39,true,1.00,2239,443,2230,396,122683,0
ore-40,true,1.00,2360,411,2350,378,126766,0
ore-41,true,1.00,1435,388,1422,362,83802,0
ore-42,true,1.00,2927,481,2915,435,164316,0
ore-43,true,1.00,2293,415,2284,388,119621,0
ore-44,true,1.00,2116,391,2108,348,118234,0
ore-45,true,1.00,3296,471,3280,427,170048,0
ore-46,false,0.13,836,48,835,48,41055,0
ore-47,false,0.85,2814,377,2805,377,146947,0
ore-48,true,1.00,3093,457,3078,424,171521,0
ore-49,true,1.00,1489,430,1476,374,80920,0
ore-50,true,1.00,2756,408,2747,379,153954,0
ore-51,true,1.00,2373,405,2354,367,123101,0
ore-52,true,1.00,1946,419,1934,392,101366,0
ore-53,true,1.00,1803,424,1793,379,95771,0
ore-54,false,0.72,2580,316,2573,316,127963,0
ore-55,true,1.00,1624,398,1615,362,91285,0
ore-56,true,1.00,1634,381,1626,354,89053,0
ore-57,true,1.00,1869,431,1859,387,101755,0
ore-58,true,1.00,1696,397,1691,370,91629,0
ore-59,true,1.00,1971,425,1958,393,106599,0
ore-60,true,1.00,2244,373,2236,340,116606,0
ore-61,true,1.00,2763,413,2747,381,146540,0
ore-62,true,1.00,2256,418,2239,389,125993,0
ore-63,false,0.32,2140,199,2137,199,107256,0
ore-64,true,1.00,1231,395,1218,365,68704,0
ore-65,true,1.00,2022,423,2012,390,113667,0
ore-66,true,1.00,1951,435,1939,407,110424,0
ore-67,true,1.00,1899,415,1890,383,105532,0
ore-68,true,1.00,1386,403,1380,367,74162,0
ore-69,true,1.00,4144,529,4133,486,206766,0
ore-70,false,0.96,3325,410,3312,410,179579,0
ore-71,true,1.00,1589,388,1586,360,91084,0
ore-72,true,1.00,1500,396,1495,367,85211,0
ore-73,true,1.00,1871,418,1864,378,106202,0
ore-74,true,1.00,3183,469,3174,426,160363,0
ore-75,true,1.00,2091,452,2082,423,119008,0
ore-76,true,1.00,1405,359,1398,326,81129,0
ore-77,true,1.00,1742,421,1735,373,100229,0
ore-78,true,1.00,1941,413,1937,386,110963,0
ore-79,true,1.00,2096,416,2085,389,121125,0
ore-80,true,1.00,1624,386,1610,358,93050,0
ore-81,true,1.00,1834,413,1827,384,102971,0
ore-82,true,1.00,1775,398,1765,364,101457,0
ore-83,true,1.00,1572,399,1559,372,89722,0
ore-84,true,1.00,3453,439,3446,410,170806,0
ore-85,true,1.00,1823,400,1816,364,103910,0
ore-86,false,0.60,2297,284,2292,284,126764,0
ore-87,true,1.00,1379,376,1368,350,76167,0
ore-88,true,1.00,2230,439,2212,409,129265,0
ore-89,true,1.00,2084,405,2074,378,112533,0
ore-90,true,1.00,2595,477,2586,426,146547,0
ore-91,true,1.00,2214,401,2208,373,125007,0
ore-92,true,1.00,1607,416,1597,387,90563,0
ore-93,false,0.14,1706,76,1705,76,79281,0
ore-94,true,1.00,2142,457,2135,422,118239,0
ore-95,true,1.00,2474,454,2464,415,134841,0
ore-96,true,1.00,2259,454,2242,425,125335,0
ore-97,true,1.00,2091,452,2074,412,116617,0
ore-98,true,1.00,1727,449,1717,415,99801,0
ore-99,true,1.00,2469,431,2462,402,141767,0
ore-100,true,1.00,1721,406,1715,378,100320,0
