NDW:0.0
TTFW:0.2
DFPT:2.0
DFPAP:3.0
DFPMP:0.0
RIGHT_WINDOW_BORDER_X:255.0
level,win/fail,% travelled,run time,game ticks,planning time,total plannings,nodes evaluated,most backtracked nodes
notch-1,true,1.00,1996,252,1994,229,138409,0
notch-2,true,1.00,3355,275,3354,252,218024,0
notch-3,true,1.00,1880,239,1879,216,130565,0
notch-4,true,1.00,2106,235,2105,212,152797,0
notch-5,true,1.00,1670,242,1668,219,115770,0
notch-6,true,1.00,1886,259,1885,235,124147,0
notch-7,true,1.00,1781,252,1778,229,114384,0
notch-8,true,1.00,3102,295,3099,272,195719,0
notch-9,true,1.00,2394,264,2392,241,163673,0
notch-10,true,1.00,2437,268,2435,245,171630,0
notch-11,true,1.00,2212,254,2210,231,153109,0
notch-12,true,1.00,2368,255,2368,232,146575,0
notch-13,true,1.00,2355,253,2353,229,160211,0
notch-14,true,1.00,1717,237,1715,214,123081,0
notch-15,true,1.00,2071,245,2070,222,138367,0
notch-16,true,1.00,2352,260,2352,237,165264,0
notch-17,true,1.00,2517,249,2514,226,166975,0
notch-18,true,1.00,4563,299,4563,276,276435,0
notch-19,true,1.00,2082,237,2081,214,146283,0
notch-20,true,1.00,2676,270,2676,242,176071,0
notch-21,true,1.00,2170,264,2166,241,151301,0
notch-22,true,1.00,1654,237,1653,214,107253,0
notch-23,true,1.00,2433,254,2430,231,163895,0
notch-24,true,1.00,1726,251,1726,228,112653,0
notch-25,true,1.00,2184,261,2180,238,153848,0
notch-26,true,1.00,2675,257,2672,234,178049,0
notch-27,true,1.00,3605,264,3604,241,238003,0
notch-28,true,1.00,2161,251,2159,226,142989,0
notch-29,true,1.00,2652,257,2652,234,171850,0
notch-30,true,1.00,2309,254,2308,228,158174,0
notch-31,true,1.00,1933,243,1929,219,126755,0
notch-32,true,1.00,2251,258,2248,235,148009,0
notch-33,true,1.00,1862,243,1862,220,128731,0
notch-34,true,1.00,2053,255,2046,232,132721,0
notch-35,true,1.00,1827,236,1826,213,119432,0
notch-36,true,1.00,2541,259,2539,236,171012,0
notch-37,true,1.00,3033,282,3033,249,207527,0
notch-38,true,1.00,2317,259,2316,230,161580,0
notch-39,true,1.00,2170,256,2167,233,145885,0
notch-40,true,1.00,1692,237,1691,213,114861,0
notch-41,true,1.00,2719,274,2718,250,183018,0
notch-42,true,1.00,2122,248,2122,225,148591,0
notch-43,true,1.00,2349,248,2347,225,154393,0
notch-44,true,1.00,1765,235,1765,212,118156,0
notch-45,true,1.00,1955,247,1954,224,138876,0
notch-46,true,1.00,2022,245,2021,222,136075,0
notch-47,true,1.00,2668,261,2667,238,185856,0
notch-48,true,1.00,2359,251,2357,228,166270,0
notch-49,true,1.00,2568,263,2564,232,164089,0
notch-50,true,1.00,3762,288,3760,263,228782,0
notch-51,true,1.00,2767,273,2764,250,181867,0
notch-52,true,1.00,1941,253,1940,230,129300,0
notch-53,true,1.00,1525,247,1524,221,92910,0
notch-54,true,1.00,2710,269,2709,245,183352,0
notch-55,true,1.00,2805,270,2805,247,190793,0
notch-56,true,1.00,1839,256,1838,233,128209,0
notch-57,true,1.00,2487,249,2486,226,162126,0
notch-58,true,1.00,3943,291,3942,268,252957,0
notch-59,true,1.00,2325,258,2323,235,156149,0
notch-60,true,1.00,2470,268,2469,245,175112,0
notch-61,true,1.00,1833,233,1832,210,124382,0
notch-62,true,1.00,3252,274,3248,251,194801,0
notch-63,true,1.00,2110,252,2107,229,133251,0
notch-64,true,1.00,1943,240,1941,217,136092,0
notch-65,true,1.00,4013,274,4009,249,265941,0
notch-66,true,1.00,3140,275,3139,248,205580,0
notch-67,true,1.00,1911,244,1908,221,134611,0
notch-68,true,1.00,1827,242,1825,219,117310,0
notch-69,true,1.00,3984,285,3983,262,263323,0
notch-70,true,1.00,2732,282,2730,259,183997,0
notch-71,true,1.00,2390,247,2387,224,173949,0
notch-72,true,1.00,1922,251,1920,228,128094,0
notch-73,true,1.00,2755,273,2753,250,178155,0
notch-74,true,1.00,2387,267,2386,243,147598,0
notch-75,true,1.00,2559,252,2556,229,175833,0
notch-76,true,1.00,2325,260,2324,237,155753,0
notch-77,true,1.00,2193,245,2191,222,141567,0
notch-78,true,1.00,2722,265,2721,242,185813,0
notch-79,true,1.00,2683,260,2682,236,180885,0
notch-80,true,1.00,1345,232,1342,209,87134,0
notch-81,true,1.00,2444,242,2443,219,174752,0
notch-82,true,1.00,2793,266,2787,243,184589,0
notch-83,true,1.00,2459,255,2458,232,164318,0
notch-84,true,1.00,1983,251,1982,227,135997,0
notch-85,true,1.00,2177,254,2172,228,135119,0
notch-86,true,1.00,2108,243,2108,220,144416,0
notch-87,true,1.00,1957,253,1957,228,137977,0
notch-88,true,1.00,2853,262,2849,237,194353,0
notch-89,true,1.00,2494,265,2491,242,170212,0
notch-90,true,1.00,2492,243,2490,220,169372,0
notch-91,true,1.00,3758,285,3756,262,244951,0
notch-92,true,1.00,2559,259,2555,236,177536,0
notch-93,true,1.00,2203,258,2201,229,143363,0
notch-94,true,1.00,3927,297,3927,271,262672,0
notch-95,true,1.00,1726,244,1724,221,114870,0
notch-96,true,1.00,2005,264,2004,241,133994,0
notch-97,true,1.00,1914,237,1914,214,127642,0
notch-98,true,1.00,2594,256,2593,225,182818,0
notch-99,true,1.00,2569,258,2566,235,178557,0
notch-100,true,1.00,3056,286,3054,263,199352,0
