NDW:0.0
TTFW:1.0
DFPT:2.0
DFPAP:3.0
DFPMP:2.0
RIGHT_WINDOW_BORDER_X:400.0
level,win/fail,% travelled,run time,game ticks,planning time,total plannings,nodes evaluated,most backtracked nodes
ge-1,true,1.00,1006,250,997,201,44371,0
ge-2,true,1.00,592,223,586,186,24295,0
ge-3,true,1.00,409,243,399,202,15180,0
ge-4,true,1.00,1118,244,1113,202,50577,0
ge-5,true,1.00,129,206,123,162,5340,0
ge-6,true,1.00,855,250,843,213,36843,0
ge-7,true,1.00,227,221,219,175,9040,0
ge-8,true,1.00,317,220,314,176,14104,0
ge-9,true,1.00,498,218,492,176,26413,0
ge-10,true,1.00,127,206,121,162,5223,0
ge-11,true,1.00,278,222,267,177,12932,0
ge-12,true,1.00,129,206,124,162,5563,0
ge-13,true,1.00,603,238,596,202,28720,0
ge-14,true,1.00,351,218,346,171,16087,0
ge-15,true,1.00,635,214,630,170,32965,0
ge-16,true,1.00,583,269,576,233,21136,0
ge-17,true,1.00,421,212,416,167,21812,0
ge-18,true,1.00,533,259,531,223,21648,0
ge-19,true,1.00,501,240,494,202,25622,0
ge-20,true,1.00,561,215,557,178,28954,0
ge-21,true,1.00,304,208,301,164,15208,0
ge-22,true,1.00,443,210,439,166,22591,0
ge-23,true,1.00,648,209,645,167,34277,0
ge-24,true,1.00,569,220,562,176,29229,0
ge-25,true,1.00,402,208,396,164,21339,0
ge-26,true,1.00,303,212,297,168,16208,0
ge-27,true,1.00,145,214,141,170,5981,0
ge-28,true,1.00,625,212,620,168,33252,0
ge-29,true,1.00,282,221,276,162,14521,0
ge-30,true,1.00,836,246,826,190,41594,0
ge-31,true,1.00,1442,243,1439,207,79931,0
ge-32,true,1.00,367,219,360,181,15015,0
ge-33,true,1.00,244,215,238,165,11034,0
ge-34,true,1.00,659,216,655,172,35975,0
ge-35,true,1.00,603,281,590,239,25950,0
ge-36,false,1.00,975,274,965,229,48807,0
ge-37,true,1.00,322,204,319,162,17334,0
ge-38,true,1.00,730,236,726,200,37652,0
ge-39,true,1.00,539,220,534,169,25636,0
ge-40,true,1.00,127,206,120,162,5647,0
ge-41,true,1.00,295,199,283,163,15373,0
ge-42,true,1.00,857,220,855,184,44656,0
ge-43,true,1.00,468,261,462,206,22038,0
ge-44,true,1.00,651,218,643,177,35475,0
ge-45,true,1.00,646,214,639,178,29904,0
ge-46,true,1.00,971,236,961,197,50192,0
ge-47,true,1.00,790,235,788,195,42410,0
ge-48,true,1.00,558,245,551,209,25352,0
ge-49,true,1.00,236,204,233,162,12028,0
ge-50,true,1.00,574,209,567,172,30191,0
ge-51,true,1.00,289,224,287,175,12427,0
ge-52,true,1.00,746,289,737,250,31785,0
ge-53,true,1.00,409,216,404,180,21571,0
ge-54,true,1.00,447,230,443,179,20415,0
ge-55,true,1.00,565,226,557,178,24565,0
ge-56,true,1.00,424,224,416,172,21135,0
ge-57,true,1.00,564,223,558,175,30291,0
ge-58,true,1.00,367,221,361,184,14815,0
ge-59,true,1.00,788,207,783,169,44300,0
ge-60,true,1.00,692,208,683,164,37302,0
ge-61,true,1.00,335,204,330,165,17769,0
ge-62,true,1.00,570,216,566,172,30063,0
ge-63,true,1.00,978,223,967,186,53898,0
ge-64,false,1.00,399,231,393,179,18904,0
ge-65,true,1.00,695,217,688,180,37336,0
ge-66,true,1.00,725,220,721,172,38607,0
ge-67,true,1.00,579,253,574,214,26713,0
ge-68,true,1.00,242,232,238,196,9517,0
ge-69,true,1.00,222,206,216,162,10883,0
ge-70,true,1.00,430,208,425,166,22808,0
ge-71,true,1.00,993,225,986,189,52190,0
ge-72,true,1.00,525,236,520,200,21143,0
ge-73,true,1.00,342,214,331,170,18340,0
ge-74,true,1.00,869,228,864,184,45218,0
ge-75,true,1.00,348,232,339,185,17254,0
ge-76,true,1.00,811,221,809,183,44076,0
ge-77,true,1.00,1185,228,1178,191,63821,0
ge-78,true,1.00,972,263,964,215,48386,0
ge-79,true,1.00,285,218,276,172,13420,0
ge-80,true,1.00,256,220,251,162,10006,0
ge-81,true,1.00,278,212,273,176,10820,0
ge-82,true,1.00,332,260,323,202,12761,0
ge-83,false,1.00,387,265,377,207,16318,0
ge-84,true,1.00,453,216,446,172,23410,0
ge-85,true,1.00,380,214,373,170,19548,0
ge-86,true,1.00,766,212,760,164,42452,0
ge-87,true,1.00,655,220,652,176,34235,0
ge-88,true,1.00,460,241,451,163,22229,0
ge-89,true,1.00,516,257,512,203,20806,0
ge-90,true,1.00,128,206,122,162,5504,0
ge-91,true,1.00,332,206,328,162,17316,0
ge-92,true,1.00,134,212,129,168,5884,0
ge-93,true,1.00,553,210,543,168,30492,0
ge-94,true,1.00,465,206,461,164,24195,0
ge-95,true,1.00,433,265,426,209,16862,0
ge-96,true,1.00,836,232,830,184,42889,0
ge-97,true,1.00,562,242,555,197,27386,0
ge-98,true,1.00,127,206,123,162,5404,0
ge-99,true,1.00,235,206,232,162,11504,0
ge-100,true,1.00,149,212,143,168,6517,0
