NDW:0.0
TTFW:1.8
DFPT:2.0
DFPAP:3.0
DFPMP:1.0
RIGHT_WINDOW_BORDER_X:115.0
level,win/fail,% travelled,run time,game ticks,planning time,total plannings,nodes evaluated,most backtracked nodes
notchParam-1,false,0.36,1791,173,1791,173,160952,0
notchParam-2,false,0.67,5181,379,5181,379,485560,0
notchParam-3,true,1.00,564,360,561,350,65989,0
notchParam-4,true,1.00,620,330,616,320,66265,0
notchParam-5,true,1.00,960,360,959,350,101268,0
notchParam-6,true,1.00,939,353,936,343,101752,0
notchParam-7,true,1.00,9645,641,9641,631,989708,0
notchParam-8,true,1.00,3925,444,3924,434,412616,0
notchParam-9,true,1.00,497,358,490,348,54339,0
notchParam-10,true,1.00,2297,376,2295,366,231980,0
notchParam-11,true,1.00,553,316,552,306,56113,0
notchParam-12,true,1.00,2727,406,2727,396,283637,0
notchParam-13,true,1.00,221,314,220,304,23708,0
notchParam-14,true,1.00,218,306,215,296,22960,0
notchParam-15,false,0.68,3025,305,3024,305,269677,0
notchParam-16,false,0.68,5450,382,5449,382,581865,0
notchParam-17,false,0.36,4395,246,4395,246,425312,0
notchParam-18,true,1.00,198,361,196,351,22381,0
notchParam-19,true,1.00,184,309,181,299,20336,0
notchParam-20,true,1.00,217,308,216,298,22549,0
notchParam-21,true,1.00,183,302,183,292,17345,0
notchParam-22,true,1.00,242,332,242,322,29082,0
notchParam-23,true,1.00,3399,472,3399,462,381781,0
notchParam-24,true,1.00,4334,458,4332,448,439194,0
notchParam-25,true,1.00,2406,390,2403,380,248261,0
notchParam-26,true,1.00,2818,433,2815,423,313011,0
notchParam-27,true,1.00,219,326,219,316,24155,0
notchParam-28,true,1.00,885,355,885,345,97713,0
notchParam-29,true,1.00,626,337,624,327,67071,0
notchParam-30,true,1.00,653,334,651,324,68760,0
notchParam-31,false,0.67,3387,311,3385,311,347701,0
notchParam-32,false,0.36,4394,246,4394,246,426518,0
notchParam-33,true,1.00,249,304,247,294,25668,0
notchParam-34,false,0.36,2985,199,2984,199,261367,0
notchParam-35,false,0.67,6074,386,6073,386,639921,0
notchParam-36,false,0.68,5555,372,5552,372,556521,0
notchParam-37,true,1.00,216,310,214,300,20884,0
notchParam-38,true,1.00,187,313,185,303,21375,0
notchParam-39,true,1.00,5480,463,5475,453,533955,0
notchParam-40,true,1.00,619,332,618,322,64135,0
notchParam-41,true,1.00,792,357,790,347,85041,0
notchParam-42,true,1.00,221,318,218,308,25610,0
notchParam-43,true,1.00,2166,421,2162,411,216688,0
notchParam-44,true,1.00,2450,391,2450,381,255586,0
notchParam-45,true,1.00,4290,459,4290,448,441959,0
notchParam-46,true,1.00,2206,356,2206,346,224908,0
notchParam-47,true,1.00,191,324,191,314,23717,0
notchParam-48,true,1.00,256,335,255,325,31270,0
notchParam-49,true,1.00,260,332,256,321,29362,0
notchParam-50,true,1.00,264,347,259,337,27225,0
notchParam-51,true,1.00,183,308,179,298,19123,0
notchParam-52,false,0.67,4332,350,4330,350,408457,0
notchParam-53,false,0.67,5852,398,5851,398,625294,0
notchParam-54,false,0.67,4424,334,4423,334,467340,0
notchParam-55,true,1.00,192,316,192,306,22280,0
notchParam-56,true,1.00,189,325,187,315,21474,0
notchParam-57,true,1.00,5615,493,5613,483,594789,0
notchParam-58,true,1.00,593,359,591,349,64079,0
notchParam-59,true,1.00,2680,415,2676,405,278173,0
notchParam-60,true,1.00,890,360,888,350,97149,0
notchParam-61,true,1.00,1944,397,1943,387,209683,0
notchParam-62,true,1.00,5769,469,5768,459,521803,0
notchParam-63,true,1.00,646,318,646,308,67779,0
notchParam-64,true,1.00,626,354,624,344,67350,0
notchParam-65,true,1.00,594,362,593,352,63988,0
notchParam-66,true,1.00,943,386,942,376,103240,0
notchParam-67,false,0.68,8333,500,8332,500,837225,0
notchParam-68,false,0.36,2985,199,2983,199,259803,0
notchParam-69,false,0.36,1198,152,1197,152,100165,0
notchParam-70,true,1.00,4940,439,4935,429,477101,0
notchParam-71,true,1.00,835,390,835,380,93563,0
notchParam-72,true,1.00,736,343,734,333,83391,0
notchParam-73,true,1.00,760,350,759,340,80954,0
notchParam-74,true,1.00,1017,355,1016,345,105163,0
notchParam-75,true,1.00,752,346,751,336,86117,0
notchParam-76,true,1.00,4700,506,4696,496,500595,0
notchParam-77,true,1.00,772,359,768,349,84793,0
notchParam-78,true,1.00,1652,373,1652,363,174996,0
notchParam-79,true,1.00,620,355,619,345,66530,0
notchParam-80,true,1.00,223,330,221,320,25688,0
notchParam-81,true,1.00,679,321,679,309,73274,0
notchParam-82,true,1.00,647,324,645,314,69474,0
notchParam-83,true,1.00,196,319,194,309,23437,0
notchParam-84,true,1.00,9107,614,9106,604,920334,0
notchParam-85,false,0.36,3375,222,3374,222,361281,0
notchParam-86,true,1.00,2475,389,2473,379,263509,0
notchParam-87,true,1.00,219,314,215,304,23451,0
notchParam-88,true,1.00,218,316,218,306,23787,0
notchParam-89,true,1.00,231,316,226,306,25345,0
notchParam-90,true,1.00,183,311,182,301,19550,0
notchParam-91,true,1.00,1972,358,1970,348,194246,0
notchParam-92,true,1.00,2817,405,2815,395,287239,0
notchParam-93,true,1.00,2951,431,2949,421,304404,0
notchParam-94,true,1.00,3248,417,3245,407,346433,0
notchParam-95,true,1.00,2039,428,2036,418,221905,0
notchParam-96,true,1.00,1241,364,1240,354,146015,0
notchParam-97,true,1.00,778,334,776,324,78598,0
notchParam-98,true,1.00,182,302,179,292,18831,0
notchParam-99,false,0.67,4424,334,4424,334,467280,0
notchParam-100,false,0.67,3122,303,3120,303,294843,0
