NDW:0.0
TTFW:1.4
DFPT:2.0
DFPAP:3.0
DFPMP:10.0
RIGHT_WINDOW_BORDER_X:195.0
level,win/fail,% travelled,run time,game ticks,planning time,total plannings,nodes evaluated,most backtracked nodes
Krys-1,false,0.38,29098,999,29095,999,977928,0
Krys-2,false,0.79,23599,999,23587,999,795276,0
Krys-3,true,1.00,5696,494,5680,463,269264,0
Krys-4,true,1.00,3328,447,3320,418,145895,0
Krys-5,true,1.00,1878,341,1866,307,106975,0
Krys-6,true,1.00,2343,412,2338,377,108621,0
Krys-7,true,1.00,378,349,371,314,19130,0
Krys-8,true,1.00,1576,442,1561,404,81280,0
Krys-9,true,1.00,2434,340,2429,306,143196,0
Krys-10,true,1.00,2230,466,2222,426,112933,0
Krys-11,true,1.00,291,412,271,381,12180,0
Krys-12,true,1.00,3285,408,3279,378,144556,0
Krys-13,true,1.00,4944,499,4929,469,261032,0
Krys-14,false,0.79,24075,999,24071,999,802591,0
Krys-15,true,1.00,4346,426,4340,388,228787,0
Krys-16,false,0.69,22319,999,22301,999,767325,0
Krys-17,true,1.00,2269,458,2262,421,101142,0
Krys-18,true,1.00,1353,382,1339,345,67260,0
Krys-19,true,1.00,2918,411,2907,377,154436,0
Krys-20,true,1.00,3772,519,3755,465,199223,0
Krys-21,true,1.00,2384,364,2376,326,143246,0
Krys-22,true,1.00,2796,376,2788,333,167204,0
Krys-23,true,1.00,2281,438,2275,401,118329,0
Krys-24,false,0.70,26043,999,26040,999,845536,0
Krys-25,true,1.00,2234,396,2224,369,101939,0
Krys-26,true,1.00,4288,388,4280,348,228652,0
Krys-27,true,1.00,2705,441,2696,408,118268,0
Krys-28,true,1.00,6830,544,6819,504,303489,0
Krys-29,true,1.00,1682,438,1666,417,72696,0
Krys-30,true,1.00,3060,494,3041,458,128503,0
Krys-31,true,1.00,2403,483,2393,441,117877,0
Krys-32,true,1.00,568,409,553,387,23002,0
Krys-33,true,1.00,456,378,445,341,21958,0
Krys-34,true,1.00,2736,428,2725,376,122038,0
Krys-35,true,1.00,3328,426,3313,392,169832,0
Krys-36,false,0.28,29844,999,29839,999,1065231,0
Krys-37,true,1.00,7276,504,7264,483,367736,0
Krys-38,true,1.00,5360,438,5353,408,277509,0
Krys-39,true,1.00,4983,407,4971,380,241814,0
Krys-40,true,1.00,3581,417,3567,388,168839,0
Krys-41,true,1.00,3799,413,3792,382,186729,0
Krys-42,true,1.00,2556,437,2541,411,127456,0
Krys-43,true,1.00,3099,382,3088,351,133446,0
Krys-44,true,1.00,6606,494,6597,454,321832,0
Krys-45,true,1.00,1673,472,1665,444,60764,0
Krys-46,true,1.00,2611,506,2600,472,105025,0
Krys-47,true,1.00,965,457,945,419,44038,0
Krys-48,true,1.00,2408,397,2404,369,129394,0
Krys-49,true,1.00,1032,396,1022,362,44015,0
Krys-50,true,1.00,5228,488,5222,454,235958,0
Krys-51,true,1.00,4308,447,4300,410,213754,0
Krys-52,true,1.00,2433,453,2420,418,103660,0
Krys-53,true,1.00,1642,458,1632,425,66055,0
Krys-54,true,1.00,4004,424,3991,393,191220,0
Krys-55,true,1.00,3204,476,3192,433,139225,0
Krys-56,false,0.59,26000,999,25995,999,839027,0
Krys-57,true,1.00,2588,330,2583,296,137351,0
Krys-58,true,1.00,2546,452,2539,432,114064,0
Krys-59,false,0.89,22349,999,22330,999,777554,0
Krys-60,true,1.00,3317,412,3305,385,152097,0
Krys-61,false,0.48,26921,999,26912,999,923857,0
Krys-62,true,1.00,1185,416,1172,383,42155,0
Krys-63,true,1.00,4582,611,4563,565,183716,0
Krys-64,true,1.00,3284,482,3272,448,146029,0
Krys-65,true,1.00,2294,418,2283,397,89312,0
Krys-66,true,1.00,3634,464,3620,434,153500,0
Krys-67,true,1.00,1470,430,1459,383,69776,0
Krys-68,true,1.00,4116,354,4107,311,184222,0
Krys-69,true,1.00,8611,670,8593,627,333176,0
Krys-70,true,1.00,6557,517,6544,478,251108,0
Krys-71,true,1.00,3868,376,3861,343,224964,0
Krys-72,true,1.00,1890,437,1882,406,99286,0
Krys-73,true,1.00,3137,492,3126,453,142501,0
Krys-74,true,1.00,2540,440,2530,406,128033,0
Krys-75,true,1.00,796,454,784,420,29593,0
Krys-76,true,1.00,4083,371,4073,349,209928,0
Krys-77,true,1.00,1374,376,1365,339,75480,0
Krys-78,false,0.91,24800,999,24793,999,945012,0
Krys-79,true,1.00,1354,474,1343,443,53006,0
Krys-80,true,1.00,441,396,432,368,19655,0
Krys-81,true,1.00,1157,379,1148,342,61068,0
Krys-82,true,1.00,1002,400,993,357,39976,0
Krys-83,true,1.00,5345,474,5324,446,202080,0
Krys-84,true,1.00,295,357,289,323,14082,0
Krys-85,true,1.00,3049,485,3034,458,144226,0
Krys-86,true,1.00,1791,406,1780,376,78963,0
Krys-87,true,1.00,976,384,966,362,38292,0
Krys-88,true,1.00,1808,458,1801,423,84437,0
Krys-89,true,1.00,1529,398,1522,363,75636,0
Krys-90,true,1.00,3957,396,3952,359,210713,0
Krys-91,true,1.00,392,391,387,355,19536,0
Krys-92,true,1.00,4341,444,4335,405,202360,0
Krys-93,true,1.00,2982,387,2971,348,116954,0
Krys-94,true,1.00,1659,385,1651,347,85736,0
Krys-95,true,1.00,1199,393,1186,357,50958,0
Krys-96,true,1.00,3745,395,3737,352,202909,0
Krys-97,true,1.00,1432,408,1423,376,73052,0
Krys-98,true,1.00,4855,560,4848,533,201502,0
Krys-99,true,1.00,1609,458,1593,416,60039,0
Krys-100,true,1.00,3206,364,3191,322,183365,0
