NDW:0.0
TTFW:2.0
DFPT:2.0
DFPAP:3.0
DFPMP:1.0
RIGHT_WINDOW_BORDER_X:75.0
level,win/fail,% travelled,run time,game ticks,planning time,total plannings,nodes evaluated,most backtracked nodes
patternWeightCount-1,true,1.00,8533,774,8521,749,419625,0
patternWeightCount-2,true,1.00,1201,535,1186,528,57768,0
patternWeightCount-3,true,1.00,907,494,897,487,44620,0
patternWeightCount-4,true,1.00,3234,578,3218,571,157066,0
patternWeightCount-5,true,1.00,4283,605,4262,599,215472,0
patternWeightCount-6,true,1.00,4733,655,4705,648,233178,0
patternWeightCount-7,true,1.00,1403,474,1388,468,69479,0
patternWeightCount-8,true,1.00,1120,492,1106,485,47910,0
patternWeightCount-9,true,1.00,3496,627,3480,620,183776,0
patternWeightCount-10,true,1.00,1910,603,1901,595,96474,0
patternWeightCount-11,true,1.00,692,485,674,479,35694,0
patternWeightCount-12,true,1.00,2624,617,2610,611,133153,0
patternWeightCount-13,true,1.00,2597,522,2581,515,125098,0
patternWeightCount-14,true,1.00,2175,563,2152,556,99055,0
patternWeightCount-15,true,1.00,3527,641,3509,634,163339,0
patternWeightCount-16,true,1.00,4881,653,4862,631,230783,0
patternWeightCount-17,true,1.00,2180,558,2165,551,102462,0
patternWeightCount-18,false,0.01,104,21,103,21,4895,0
patternWeightCount-19,true,1.00,1784,552,1763,546,79626,0
patternWeightCount-20,false,0.57,4159,401,4146,401,191490,0
patternWeightCount-21,true,1.00,1251,568,1228,561,56668,0
patternWeightCount-22,true,1.00,5374,656,5355,639,244836,0
patternWeightCount-23,true,1.00,3231,679,3211,659,148887,0
patternWeightCount-24,true,1.00,2719,523,2706,515,123161,0
patternWeightCount-25,true,1.00,4526,570,4510,564,201462,0
patternWeightCount-26,true,1.00,4048,583,4025,572,182144,0
patternWeightCount-27,true,1.00,4994,659,4977,649,223415,0
patternWeightCount-28,true,1.00,1633,565,1609,558,74550,0
patternWeightCount-29,true,1.00,2105,480,2096,473,94770,0
patternWeightCount-30,false,0.84,5833,615,5815,615,263524,0
patternWeightCount-31,true,1.00,5020,608,5006,601,236461,0
patternWeightCount-32,true,1.00,1481,523,1469,516,68630,0
patternWeightCount-33,true,1.00,3303,560,3283,553,153120,0
patternWeightCount-34,true,1.00,4054,525,4041,519,187242,0
patternWeightCount-35,false,0.64,5215,510,5202,510,233586,0
patternWeightCount-36,true,1.00,3370,661,3339,654,153764,0
patternWeightCount-37,true,1.00,957,484,937,478,44423,0
patternWeightCount-38,false,0.94,9739,740,9714,740,455013,0
patternWeightCount-39,false,0.24,4933,302,4930,302,223228,0
patternWeightCount-40,true,1.00,7782,755,7761,748,400600,0
patternWeightCount-41,true,1.00,2927,594,2911,587,149221,0
patternWeightCount-42,false,0.87,8370,711,8354,711,436634,0
patternWeightCount-43,true,1.00,1880,523,1864,516,97738,0
patternWeightCount-44,true,1.00,2507,599,2483,586,136161,0
patternWeightCount-45,false,0.95,9989,854,9973,854,497257,0
patternWeightCount-46,false,0.86,4487,577,4477,577,217756,0
patternWeightCount-47,true,1.00,2727,516,2706,510,136284,0
patternWeightCount-48,true,1.00,1282,446,1268,440,62656,0
patternWeightCount-49,true,1.00,2133,482,2117,476,103395,0
patternWeightCount-50,true,1.00,1283,439,1273,433,63776,0
patternWeightCount-51,true,1.00,2057,511,2048,498,106844,0
patternWeightCount-52,true,1.00,2366,611,2344,598,124721,0
patternWeightCount-53,false,0.74,4659,532,4649,532,241449,0
patternWeightCount-54,true,1.00,1874,545,1858,538,98868,0
patternWeightCount-55,false,0.97,4341,590,4316,590,212331,0
patternWeightCount-56,true,1.00,4231,600,4216,593,218449,0
patternWeightCount-57,true,1.00,729,438,711,432,35411,0
patternWeightCount-58,true,1.00,3138,562,3125,553,154468,0
patternWeightCount-59,true,1.00,804,454,796,448,38841,0
patternWeightCount-60,true,1.00,4508,679,4487,672,225452,0
patternWeightCount-61,true,1.00,2299,579,2279,570,114082,0
patternWeightCount-62,false,0.98,6046,711,6020,711,296093,0
patternWeightCount-63,true,1.00,5409,653,5393,647,277618,0
patternWeightCount-64,true,1.00,3351,617,3339,610,173896,0
patternWeightCount-65,true,1.00,2588,566,2565,559,132100,0
patternWeightCount-66,true,1.00,1657,508,1639,502,80357,0
patternWeightCount-67,true,1.00,2079,535,2050,529,49114,0
patternWeightCount-68,false,0.85,19233,999,19221,999,569247,0
patternWeightCount-69,false,0.96,11523,852,11510,852,493533,0
patternWeightCount-70,true,1.00,2302,574,2274,567,74485,0
patternWeightCount-71,true,1.00,1193,522,1183,515,60909,0
patternWeightCount-72,false,0.74,20596,999,20583,999,1104948,0
patternWeightCount-73,false,0.66,6180,550,6168,550,305983,0
patternWeightCount-74,true,1.00,1781,534,1761,528,74154,0
patternWeightCount-75,true,1.00,3557,599,3539,593,189227,0
patternWeightCount-76,true,1.00,1444,540,1433,533,74855,0
patternWeightCount-77,true,1.00,2239,568,2223,561,107275,0
patternWeightCount-78,true,1.00,7738,705,7720,697,387244,0
patternWeightCount-79,true,1.00,1377,509,1360,503,68091,0
patternWeightCount-80,true,1.00,2676,617,2653,610,129952,0
patternWeightCount-81,false,0.81,8068,664,8055,664,404963,0
patternWeightCount-82,true,1.00,596,447,587,440,28601,0
patternWeightCount-83,true,1.00,2927,550,2913,543,146215,0
patternWeightCount-84,true,1.00,1762,510,1743,503,89488,0
patternWeightCount-85,true,1.00,2875,590,2860,583,148333,0
patternWeightCount-86,false,0.93,5583,576,5575,576,274891,0
patternWeightCount-87,false,0.72,3421,465,3410,465,167413,0
patternWeightCount-88,true,1.00,2729,578,2708,570,132008,0
patternWeightCount-89,true,1.00,1106,482,1088,476,55043,0
patternWeightCount-90,false,0.75,4251,502,4231,502,212871,0
patternWeightCount-91,true,1.00,3557,622,3537,614,183304,0
patternWeightCount-92,false,0.96,16014,999,15993,999,798048,0
patternWeightCount-93,false,0.90,6944,661,6919,661,339385,0
patternWeightCount-94,true,1.00,2364,560,2351,553,120322,0
patternWeightCount-95,true,1.00,2905,546,2888,533,145869,0
patternWeightCount-96,true,1.00,1541,552,1531,545,74397,0
patternWeightCount-97,true,1.00,4291,565,4277,557,205450,0
patternWeightCount-98,false,0.93,15862,991,15841,991,793421,0
patternWeightCount-99,true,1.00,3518,605,3505,598,183971,0
patternWeightCount-100,true,1.00,1878,526,1864,520,95535,0
