NDW:0.0
TTFW:0.2
DFPT:2.0
DFPAP:3.0
DFPMP:20.0
RIGHT_WINDOW_BORDER_X:35.0
level,win/fail,% travelled,run time,game ticks,planning time,total plannings,nodes evaluated,most backtracked nodes
patternCount-1,false,0.50,3450,650,3446,650,367065,0
patternCount-2,false,0.32,2306,601,2303,601,253971,0
patternCount-3,false,0.06,239,122,238,122,35005,0
patternCount-4,false,0.13,1570,256,1569,256,173160,0
patternCount-5,false,0.17,1274,197,1274,197,124010,0
patternCount-6,false,0.30,2206,435,2205,435,232704,0
patternCount-7,false,0.53,7987,882,7978,882,808823,0
patternCount-8,false,0.08,494,161,494,161,57091,0
patternCount-9,false,0.07,1401,196,1400,196,162797,0
patternCount-10,false,0.67,3301,999,3295,999,356751,0
patternCount-11,false,0.62,6683,999,6677,999,670845,0
patternCount-12,false,0.03,433,120,433,120,90840,0
patternCount-13,false,0.06,172,111,172,111,28929,0
patternCount-14,false,0.13,1315,215,1314,215,162767,0
patternCount-15,false,0.65,6421,994,6416,994,662399,0
patternCount-16,false,0.13,880,310,878,310,105689,0
patternCount-17,false,0.62,5620,999,5615,999,568349,0
patternCount-18,false,0.11,1435,999,1430,999,181147,0
patternCount-19,false,0.05,159,101,157,101,26953,0
patternCount-20,false,0.10,1454,145,1452,145,156247,0
patternCount-21,false,0.58,4956,999,4952,999,539672,0
patternCount-22,false,0.07,485,179,484,179,69290,0
patternCount-23,false,0.51,3529,670,3526,670,364376,0
patternCount-24,false,0.05,159,101,158,101,26953,0
patternCount-25,false,0.26,19927,999,19923,999,1869048,0
patternCount-26,false,0.05,158,101,158,101,26953,0
patternCount-27,false,0.08,259,152,258,152,37012,0
patternCount-28,false,0.11,729,209,729,209,79726,0
patternCount-29,false,0.18,2808,405,2807,405,303774,0
patternCount-30,false,0.63,4906,933,4901,933,533009,0
patternCount-31,false,0.50,4330,889,4327,889,466205,0
patternCount-32,false,0.05,159,101,159,101,26953,0
patternCount-33,false,0.05,158,101,156,101,26953,0
patternCount-34,false,0.44,6210,805,6208,805,623269,0
patternCount-35,false,0.05,133,100,133,100,21875,0
patternCount-36,false,0.05,134,100,134,100,21878,0
patternCount-37,false,0.11,25891,999,25890,999,2303992,0
patternCount-38,false,0.05,159,101,159,101,26953,0
patternCount-39,false,0.25,1646,419,1644,419,179624,0
patternCount-40,false,0.65,5579,999,5573,999,586733,0
patternCount-41,false,0.43,2419,615,2417,615,262300,0
patternCount-42,false,0.04,548,157,546,157,97923,0
patternCount-43,false,0.10,949,276,948,276,117607,0
patternCount-44,false,0.41,5029,706,5025,706,504397,0
patternCount-45,false,0.26,3032,552,3028,552,301376,0
patternCount-46,false,0.04,106,95,105,95,20650,0
patternCount-47,false,0.10,25184,999,25181,999,2340201,0
patternCount-48,false,0.14,2174,319,2172,319,230577,0
patternCount-49,false,0.07,574,144,572,144,82061,0
patternCount-50,false,0.04,93,78,91,78,15354,0
patternCount-51,false,0.01,24,33,24,33,5800,0
patternCount-52,false,0.17,1589,316,1585,316,168497,0
patternCount-53,false,0.05,1242,162,1242,162,152772,0
patternCount-54,false,0.18,2331,329,2329,329,236810,0
patternCount-55,false,0.48,4762,844,4755,844,474419,0
patternCount-56,false,0.12,2140,251,2140,251,259560,0
patternCount-57,false,0.52,2718,728,2715,728,288648,0
patternCount-58,false,0.39,2393,651,2392,651,263000,0
patternCount-59,false,0.25,3640,570,3637,570,376572,0
patternCount-60,false,0.06,268,121,267,121,40148,0
patternCount-61,false,0.06,425,159,424,159,60208,0
patternCount-62,false,0.20,1845,325,1844,325,190484,0
patternCount-63,false,0.18,1451,301,1450,301,162307,0
patternCount-64,false,0.24,1332,362,1331,362,158523,0
patternCount-65,false,0.20,1942,397,1938,397,204121,0
patternCount-66,false,0.12,1718,246,1715,246,195773,0
patternCount-67,false,0.37,1905,552,1902,552,205958,0
patternCount-68,false,0.41,2994,600,2990,600,319353,0
patternCount-69,false,0.45,2609,575,2606,575,274676,0
patternCount-70,false,0.34,3932,646,3929,646,469804,0
patternCount-71,false,0.14,1636,362,1635,362,192962,0
patternCount-72,false,0.28,2700,438,2696,438,273674,0
patternCount-73,false,0.13,510,211,509,211,56332,0
patternCount-74,false,0.51,4013,713,4009,713,404488,0
patternCount-75,false,0.31,1798,500,1797,500,189816,0
patternCount-76,false,0.72,7461,999,7453,999,773955,0
patternCount-77,false,0.29,18692,999,18691,999,1687051,0
patternCount-78,false,0.04,2431,262,2429,262,364499,0
patternCount-79,false,0.07,577,176,576,176,86775,0
patternCount-80,false,0.60,7690,999,7685,999,760167,0
patternCount-81,false,0.67,4218,999,4212,999,447059,0
patternCount-82,false,0.70,6783,999,6780,999,704538,0
patternCount-83,false,0.08,412,130,410,130,54064,0
patternCount-84,false,0.38,3117,724,3114,724,327270,0
patternCount-85,false,0.05,399,131,399,131,57153,0
patternCount-86,false,0.51,4531,895,4522,895,482751,0
patternCount-87,false,0.10,674,214,671,214,87690,0
patternCount-88,false,0.23,2503,557,2499,557,255933,0
patternCount-89,false,0.08,4051,256,4050,256,422435,0
patternCount-90,false,0.42,2173,551,2169,551,237363,0
patternCount-91,false,0.09,406,192,404,192,50565,0
patternCount-92,false,0.61,4989,999,4981,999,520678,0
patternCount-93,false,0.41,3510,651,3509,651,371283,0
patternCount-94,false,0.12,1536,205,1535,205,151087,0
patternCount-95,false,0.19,22050,1008,22050,1008,2139416,0
patternCount-96,false,0.13,24369,999,24369,999,2204695,0
patternCount-97,false,0.27,1589,361,1586,361,173721,0
patternCount-98,false,0.18,583,225,582,225,70516,0
patternCount-99,false,0.17,1121,360,1119,360,141293,0
patternCount-100,false,0.34,1974,549,1973,549,213660,0
