NDW:0.0
TTFW:1.8
DFPT:2.0
DFPAP:3.0
DFPMP:50.0
RIGHT_WINDOW_BORDER_X:135.0
level,win/fail,% travelled,run time,game ticks,planning time,total plannings,nodes evaluated,most backtracked nodes
patternCount-1,false,0.75,4836,552,4835,552,466992,0
patternCount-2,true,1.00,802,459,801,447,103755,0
patternCount-3,false,0.91,3197,534,3192,534,318598,0
patternCount-4,true,1.00,936,451,934,425,113089,0
patternCount-5,true,1.00,906,465,904,452,110173,0
patternCount-6,true,1.00,526,430,525,418,66111,0
patternCount-7,true,1.00,1058,459,1056,447,130107,0
patternCount-8,true,1.00,5212,594,5208,571,595238,0
patternCount-9,true,1.00,1513,515,1510,503,182913,0
patternCount-10,true,1.00,464,426,462,407,59555,0
patternCount-11,false,0.74,2455,504,2453,504,323210,0
patternCount-12,true,1.00,749,498,747,479,95712,0
patternCount-13,true,1.00,532,468,528,456,66586,0
patternCount-14,true,1.00,2961,541,2956,518,337160,0
patternCount-15,true,1.00,817,479,816,467,101833,0
patternCount-16,true,1.00,881,461,878,449,103953,0
patternCount-17,true,1.00,1077,542,1073,530,132235,0
patternCount-18,true,1.00,1845,543,1843,519,219655,0
patternCount-19,true,1.00,907,462,904,450,104003,0
patternCount-20,true,1.00,1643,508,1641,495,198947,0
patternCount-21,true,1.00,862,499,859,487,107287,0
patternCount-22,true,1.00,4849,619,4846,595,558356,0
patternCount-23,false,0.69,1894,344,1892,344,198062,0
patternCount-24,true,1.00,10954,769,10949,756,1269065,0
patternCount-25,true,1.00,813,443,809,430,97466,0
patternCount-26,true,1.00,449,432,448,420,59035,0
patternCount-27,true,1.00,928,455,926,443,115360,0
patternCount-28,true,1.00,951,493,949,471,119922,0
patternCount-29,true,1.00,1152,501,1149,489,140024,0
patternCount-30,true,1.00,1053,508,1053,496,135542,0
patternCount-31,true,1.00,1437,529,1432,517,172083,0
patternCount-32,true,1.00,1878,490,1876,478,207135,0
patternCount-33,false,0.82,5343,542,5341,542,566363,0
patternCount-34,true,1.00,2957,599,2956,578,344003,0
patternCount-35,true,1.00,868,493,865,481,107188,0
patternCount-36,true,1.00,3534,564,3530,544,387593,0
patternCount-37,true,1.00,974,437,971,425,113805,0
patternCount-38,true,1.00,2900,505,2900,493,325476,0
patternCount-39,true,1.00,1037,509,1032,492,125152,0
patternCount-40,true,1.00,9134,652,9132,633,1035349,0
patternCount-41,true,1.00,3299,579,3295,567,404941,0
patternCount-42,true,1.00,812,484,808,464,100332,0
patternCount-43,true,1.00,435,452,434,440,58235,0
patternCount-44,true,1.00,627,468,623,456,81747,0
patternCount-45,true,1.00,1172,556,1166,535,134484,0
patternCount-46,true,1.00,2004,528,2003,516,242935,0
patternCount-47,true,1.00,1828,490,1826,478,216206,0
patternCount-48,true,1.00,714,438,711,426,94378,0
patternCount-49,true,1.00,1354,479,1350,465,154359,0
patternCount-50,true,1.00,6433,670,6431,627,743122,0
patternCount-51,true,1.00,647,450,636,438,81812,0
patternCount-52,true,1.00,688,459,685,447,83223,0
patternCount-53,true,1.00,7426,571,7423,558,812895,0
patternCount-54,true,1.00,2081,585,2075,573,255593,0
patternCount-55,false,0.56,4629,391,4628,391,492331,0
patternCount-56,true,1.00,1167,452,1164,440,143818,0
patternCount-57,true,1.00,630,450,625,438,77345,0
patternCount-58,true,1.00,648,480,643,468,92664,0
patternCount-59,true,1.00,1094,512,1088,500,136325,0
patternCount-60,true,1.00,1533,475,1531,463,179375,0
patternCount-61,true,1.00,932,474,929,459,108780,0
patternCount-62,true,1.00,2050,557,2050,540,251424,0
patternCount-63,true,1.00,571,460,569,448,75259,0
patternCount-64,true,1.00,1235,531,1229,519,154418,0
patternCount-65,true,1.00,777,448,773,435,94998,0
patternCount-66,true,1.00,1927,522,1925,510,231422,0
patternCount-67,true,1.00,2067,537,2063,520,259138,0
patternCount-68,true,1.00,525,450,521,438,66599,0
patternCount-69,true,1.00,831,473,828,461,106874,0
patternCount-70,true,1.00,740,442,736,430,91601,0
patternCount-71,true,1.00,1131,525,1128,496,137844,0
patternCount-72,false,0.82,6292,566,6291,566,715745,0
patternCount-73,true,1.00,1787,536,1782,524,211861,0
patternCount-74,false,0.82,7408,549,7405,549,811527,0
patternCount-75,true,1.00,1085,527,1082,510,129443,0
patternCount-76,true,1.00,1235,481,1231,469,151649,0
patternCount-77,true,1.00,1381,505,1377,490,164480,0
patternCount-78,true,1.00,1555,513,1551,501,208481,0
patternCount-79,true,1.00,7692,704,7689,691,869392,0
patternCount-80,true,1.00,5405,628,5402,592,563273,0
patternCount-81,true,1.00,842,503,838,491,104138,0
patternCount-82,true,1.00,660,441,658,429,83409,0
patternCount-83,true,1.00,559,452,558,440,69147,0
patternCount-84,true,1.00,657,494,656,482,85199,0
patternCount-85,true,1.00,891,503,891,491,111750,0
patternCount-86,true,1.00,771,440,769,428,99850,0
patternCount-87,true,1.00,1652,508,1650,489,218897,0
patternCount-88,true,1.00,2131,519,2128,504,254433,0
patternCount-89,true,1.00,1330,450,1329,438,159110,0
patternCount-90,true,1.00,966,460,964,448,120264,0
patternCount-91,true,1.00,1660,513,1656,501,190626,0
patternCount-92,true,1.00,1083,473,1082,461,130191,0
patternCount-93,false,0.88,18423,999,18421,999,1825265,0
patternCount-94,true,1.00,1077,465,1071,452,131404,0
patternCount-95,true,1.00,2303,459,2300,447,295653,0
patternCount-96,true,1.00,693,438,689,426,85446,0
patternCount-97,false,0.82,8582,652,8576,652,926241,0
patternCount-98,true,1.00,1267,524,1265,512,172670,0
patternCount-99,true,1.00,687,478,684,466,92651,0
patternCount-100,true,1.00,629,472,628,460,77853,0
