NDW:0.0
TTFW:1.8
DFPT:2.0
DFPAP:3.0
DFPMP:0.0
RIGHT_WINDOW_BORDER_X:55.0
level,win/fail,% travelled,run time,game ticks,planning time,total plannings,nodes evaluated,most backtracked nodes
patternCount-1,false,0.67,6927,736,6926,736,705893,0
patternCount-2,false,0.33,1887,397,1885,397,213575,0
patternCount-3,false,0.91,7731,989,7725,989,778550,0
patternCount-4,false,0.32,1998,381,1997,381,233061,0
patternCount-5,false,0.18,3027,288,3024,288,294986,0
patternCount-6,true,1.00,1994,692,1990,687,219844,0
patternCount-7,false,0.53,3265,592,3262,592,366688,0
patternCount-8,false,0.86,8829,923,8827,923,948737,0
patternCount-9,false,0.08,1117,150,1116,150,136108,0
patternCount-10,true,1.00,1108,666,1103,661,129471,0
patternCount-11,false,0.76,6809,880,6808,880,842785,0
patternCount-12,false,0.30,2156,388,2151,388,273969,0
patternCount-13,true,1.00,1239,729,1234,724,148196,0
patternCount-14,false,0.95,3712,688,3700,688,374920,0
patternCount-15,true,1.00,2914,796,2904,791,334636,0
patternCount-16,true,1.00,2695,864,2687,859,290115,0
patternCount-17,true,1.00,2836,677,2833,672,297391,0
patternCount-18,false,0.97,6950,882,6949,882,666258,0
patternCount-19,true,1.00,3197,748,3179,743,322833,0
patternCount-20,false,0.34,3562,467,3559,467,400004,0
patternCount-21,true,1.00,2312,739,2305,734,245296,0
patternCount-22,false,0.83,8548,976,8545,976,887634,0
patternCount-23,false,0.00,1184,999,1175,999,298650,0
patternCount-24,false,0.45,6660,677,6658,677,713116,0
patternCount-25,true,1.00,3303,683,3300,678,353829,0
patternCount-26,true,1.00,1326,769,1322,764,151855,0
patternCount-27,true,1.00,4209,954,4205,949,466850,0
patternCount-28,false,0.24,1421,342,1420,342,152884,0
patternCount-29,false,0.40,4284,555,4283,555,471759,0
patternCount-30,true,1.00,2955,867,2951,862,352071,0
patternCount-31,false,0.44,3756,999,3753,999,403620,0
patternCount-32,false,0.65,9429,938,9427,938,930987,0
patternCount-33,false,0.74,7751,924,7745,924,814368,0
patternCount-34,false,0.90,7464,998,7460,998,794586,0
patternCount-35,true,1.00,3399,820,3396,815,367720,0
patternCount-36,false,0.87,4788,997,4783,997,490431,0
patternCount-37,true,1.00,3070,742,3069,737,315963,0
patternCount-38,false,0.79,7677,999,7674,999,778151,0
patternCount-39,true,1.00,2820,831,2814,826,302507,0
patternCount-40,false,0.68,4754,731,4751,731,589233,0
patternCount-41,false,0.65,3199,568,3196,568,364511,0
patternCount-42,true,1.00,3589,752,3587,747,394228,0
patternCount-43,true,1.00,1705,797,1703,792,204819,0
patternCount-44,true,1.00,2409,756,2403,751,278598,0
patternCount-45,true,1.00,1935,869,1931,864,206995,0
patternCount-46,true,1.00,5018,905,5015,900,537710,0
patternCount-47,false,0.36,5877,538,5873,538,652110,0
patternCount-48,true,1.00,4332,778,4328,773,524297,0
patternCount-49,false,0.89,3994,998,3991,998,428544,0
patternCount-50,true,1.00,966,720,960,715,130277,0
patternCount-51,false,0.48,1275,489,1273,489,148267,0
patternCount-52,true,1.00,5070,846,5067,841,569570,0
patternCount-53,false,0.74,8743,905,8740,905,886994,0
patternCount-54,false,0.63,5084,683,5078,683,506504,0
patternCount-55,false,0.55,5269,702,5263,702,568634,0
patternCount-56,true,1.00,2918,806,2913,801,313428,0
patternCount-57,true,1.00,1421,656,1421,651,155544,0
patternCount-58,false,0.78,3066,738,3060,738,358329,0
patternCount-59,true,1.00,3351,809,3347,804,355392,0
patternCount-60,false,0.57,4793,754,4791,754,499744,0
patternCount-61,false,0.42,3702,526,3700,526,372908,0
patternCount-62,true,1.00,4968,740,4962,729,523787,0
patternCount-63,true,1.00,1609,807,1604,802,194294,0
patternCount-64,true,1.00,3273,860,3272,855,396466,0
patternCount-65,true,1.00,2266,644,2262,639,247822,0
patternCount-66,true,1.00,4559,766,4554,761,492416,0
patternCount-67,false,0.38,1194,376,1193,376,130862,0
patternCount-68,false,0.46,2392,489,2387,489,261506,0
patternCount-69,true,1.00,2518,811,2514,806,295294,0
patternCount-70,true,1.00,3164,780,3161,775,408126,0
patternCount-71,false,0.23,2641,390,2640,390,336395,0
patternCount-72,false,0.65,13275,999,13270,999,1427114,0
patternCount-73,false,0.65,3184,702,3177,702,339066,0
patternCount-74,false,0.54,7035,715,7034,715,789767,0
patternCount-75,false,0.37,4439,535,4438,535,459872,0
patternCount-76,false,0.30,2160,348,2159,348,235676,0
patternCount-77,false,0.38,4866,460,4864,460,502360,0
patternCount-78,true,1.00,3272,836,3266,831,404346,0
patternCount-79,false,0.74,5262,786,5256,786,634493,0
patternCount-80,false,0.81,9094,989,9091,989,1002473,0
patternCount-81,false,0.51,1090,466,1089,466,130750,0
patternCount-82,true,1.00,3390,722,3387,717,376596,0
patternCount-83,false,0.03,2341,999,2337,999,469167,0
patternCount-84,true,1.00,2850,775,2848,770,310331,0
patternCount-85,false,0.29,2492,401,2492,401,269901,0
patternCount-86,true,1.00,2261,826,2257,821,277662,0
patternCount-87,true,1.00,3878,819,3875,812,449291,0
patternCount-88,false,0.29,4166,405,4163,405,486314,0
patternCount-89,false,0.08,557,87,557,87,63289,0
patternCount-90,false,0.52,1317,460,1313,460,154093,0
patternCount-91,false,0.69,4664,871,4660,871,475898,0
patternCount-92,true,1.00,1623,642,1621,637,184008,0
patternCount-93,false,0.22,428,198,424,198,49719,0
patternCount-94,true,1.00,3575,824,3574,819,397522,0
patternCount-95,true,1.00,6505,894,6502,889,703597,0
patternCount-96,false,0.53,1820,582,1816,582,193326,0
patternCount-97,false,0.72,7287,717,7267,717,750023,0
patternCount-98,true,1.00,5511,875,5503,870,619222,0
patternCount-99,true,1.00,2310,766,2304,761,250102,0
patternCount-100,false,0.52,2978,607,2974,607,328415,0
