NDW:0.0
TTFW:0.2
DFPT:2.0
DFPAP:3.0
DFPMP:20.0
RIGHT_WINDOW_BORDER_X:55.0
level,win/fail,% travelled,run time,game ticks,planning time,total plannings,nodes evaluated,most backtracked nodes
patternCount-1,false,0.67,4599,989,4593,989,514426,0
patternCount-2,false,0.33,3154,480,3152,480,321918,0
patternCount-3,false,0.73,7251,999,7249,999,707595,0
patternCount-4,false,0.14,2023,221,2021,221,218331,0
patternCount-5,false,0.93,5018,999,5011,999,502306,0
patternCount-6,true,1.00,2708,972,2697,965,296044,0
patternCount-7,false,0.56,6978,999,6972,999,723471,0
patternCount-8,false,0.40,1606,371,1604,371,166356,0
patternCount-9,false,0.07,627,133,627,133,84374,0
patternCount-10,true,1.00,1994,957,1989,945,225051,0
patternCount-11,false,0.37,2689,538,2686,538,292992,0
patternCount-12,false,0.99,3143,999,3139,999,358901,0
patternCount-13,false,0.91,3745,999,3740,999,386412,0
patternCount-14,false,0.95,3834,999,3830,999,413165,0
patternCount-15,false,0.83,4916,999,4910,999,506409,0
patternCount-16,false,0.95,4667,999,4664,999,469590,0
patternCount-17,false,0.85,5971,999,5963,999,604447,0
patternCount-18,false,0.97,4427,999,4424,999,462054,0
patternCount-19,false,0.85,3816,999,3810,999,386535,0
patternCount-20,false,0.81,6412,999,6404,999,660955,0
patternCount-21,false,0.68,5591,999,5589,999,571427,0
patternCount-22,false,0.82,5378,999,5372,999,557308,0
patternCount-23,false,0.66,5035,858,5033,858,510528,0
patternCount-24,false,0.43,8023,805,8017,805,768491,0
patternCount-25,true,1.00,6829,993,6824,986,667432,0
patternCount-26,true,1.00,2388,953,2380,940,261376,0
patternCount-27,false,0.73,4762,999,4757,999,490031,0
patternCount-28,false,0.13,1158,241,1157,241,122467,0
patternCount-29,false,0.65,6632,999,6628,999,679901,0
patternCount-30,false,0.92,4911,999,4902,999,516646,0
patternCount-31,false,0.14,1425,223,1424,223,163968,0
patternCount-32,false,0.62,6521,999,6517,999,649233,0
patternCount-33,false,0.65,6261,933,6255,933,621637,0
patternCount-34,false,0.23,2780,330,2777,330,263617,0
patternCount-35,false,0.99,3580,999,3576,999,370659,0
patternCount-36,false,0.73,5859,999,5854,999,592310,0
patternCount-37,false,0.11,760,214,760,214,86846,0
patternCount-38,false,0.55,6213,929,6207,929,617878,0
patternCount-39,false,0.54,5092,802,5087,802,512087,0
patternCount-40,false,0.65,7555,887,7549,887,790407,0
patternCount-41,false,0.65,4176,816,4174,816,437701,0
patternCount-42,false,0.93,4769,999,4761,999,529551,0
patternCount-43,false,0.76,3808,999,3801,999,410549,0
patternCount-44,false,0.14,410,185,409,185,51722,0
patternCount-45,false,0.81,3914,999,3906,999,405502,0
patternCount-46,false,0.01,34,42,34,42,7589,0
patternCount-47,false,0.70,7442,999,7434,999,761679,0
patternCount-48,false,0.83,6012,999,6000,999,607274,0
patternCount-49,false,0.91,5030,999,5019,999,506648,0
patternCount-50,false,0.74,6363,999,6357,999,664800,0
patternCount-51,false,0.60,4500,999,4497,999,474053,0
patternCount-52,false,0.76,5364,999,5359,999,558405,0
patternCount-53,false,0.05,576,144,576,144,77605,0
patternCount-54,false,0.67,9823,999,9818,999,1003036,0
patternCount-55,false,0.55,8002,897,7997,897,809449,0
patternCount-56,false,0.70,7638,999,7634,999,765016,0
patternCount-57,false,0.78,6018,999,6012,999,588663,0
patternCount-58,false,0.82,3843,999,3840,999,400323,0
patternCount-59,false,0.77,6835,999,6832,999,712460,0
patternCount-60,false,0.56,6504,830,6500,830,634315,0
patternCount-61,false,0.75,6727,999,6719,999,650945,0
patternCount-62,false,0.88,5779,999,5771,999,580558,0
patternCount-63,false,0.43,1597,505,1594,505,177261,0
patternCount-64,false,0.35,3201,999,3194,999,410436,0
patternCount-65,false,0.96,5057,999,5053,999,509458,0
patternCount-66,true,1.00,5396,980,5395,967,542353,0
patternCount-67,false,0.94,4372,996,4364,996,444519,0
patternCount-68,false,0.41,2370,542,2367,542,250048,0
patternCount-69,false,0.50,4079,732,4071,732,422530,0
patternCount-70,false,0.83,4144,999,4139,999,495825,0
patternCount-71,false,0.36,3385,543,3382,543,362179,0
patternCount-72,false,0.66,7659,996,7656,996,788619,0
patternCount-73,false,0.65,6180,844,6179,844,608653,0
patternCount-74,false,0.54,6161,855,6159,855,629659,0
patternCount-75,false,0.28,2657,446,2655,446,266411,0
patternCount-76,false,0.30,3551,459,3549,459,379318,0
patternCount-77,false,0.67,7560,999,7553,999,734639,0
patternCount-78,false,0.75,7980,999,7971,999,794607,0
patternCount-79,false,0.75,8356,942,8352,942,837978,0
patternCount-80,false,0.64,5958,999,5952,999,609487,0
patternCount-81,true,1.00,2814,941,2810,934,294804,0
patternCount-82,false,0.87,6907,999,6903,999,709255,0
patternCount-83,false,0.84,4684,999,4681,999,478661,0
patternCount-84,false,0.73,4654,999,4648,999,485412,0
patternCount-85,false,0.96,4034,999,4027,999,428141,0
patternCount-86,false,0.75,4831,1008,4826,1008,517155,0
patternCount-87,false,0.83,5686,999,5680,999,588328,0
patternCount-88,false,0.64,11004,999,11001,999,1088794,0
patternCount-89,false,0.07,2835,220,2833,220,301405,0
patternCount-90,false,0.92,4245,999,4235,999,470653,0
patternCount-91,false,0.65,5267,998,5265,998,539762,0
patternCount-92,true,1.00,3383,959,3380,940,355274,0
patternCount-93,false,0.57,4987,746,4985,746,517012,0
patternCount-94,false,0.33,3220,408,3214,408,319664,0
patternCount-95,false,0.71,8482,999,8474,999,860428,0
patternCount-96,false,0.80,4863,999,4856,999,489941,0
patternCount-97,false,0.72,8611,999,8600,999,845438,0
patternCount-98,false,0.60,6238,999,6232,999,644153,0
patternCount-99,false,0.08,703,179,703,179,96519,0
patternCount-100,false,0.73,5543,999,5539,999,577995,0
