NDW:0.0
TTFW:0.8
DFPT:2.0
DFPAP:3.0
DFPMP:3.0
RIGHT_WINDOW_BORDER_X:35.0
level,win/fail,% travelled,run time,game ticks,planning time,total plannings,nodes evaluated,most backtracked nodes
patternOccur-1,false,0.58,2837,639,2815,639,153044,0
patternOccur-2,false,0.52,4178,698,4158,698,225434,0
patternOccur-3,false,0.51,6677,834,6652,834,370665,0
patternOccur-4,false,0.05,1640,157,1639,157,93767,0
patternOccur-5,false,0.15,1235,173,1233,173,70699,0
patternOccur-6,false,0.03,767,84,761,84,44004,0
patternOccur-7,false,0.32,4403,601,4390,601,241593,0
patternOccur-8,false,0.31,1999,319,1990,319,108236,0
patternOccur-9,false,0.68,6414,947,6390,947,350408,0
patternOccur-10,false,0.77,4724,999,4701,999,259904,0
patternOccur-11,false,0.06,1173,142,1170,142,65938,0
patternOccur-12,false,0.85,5493,999,5471,999,308590,0
patternOccur-13,false,0.43,4035,618,4020,618,227046,0
patternOccur-14,false,0.06,1274,132,1272,132,75934,0
patternOccur-15,false,0.31,3187,432,3180,432,176726,0
patternOccur-16,false,0.23,2401,400,2384,400,135820,0
patternOccur-17,false,0.42,7141,705,7126,705,366589,0
patternOccur-18,false,0.45,2706,512,2692,512,152468,0
patternOccur-19,false,0.62,5175,835,5151,835,282394,0
patternOccur-20,false,0.67,8207,999,8184,999,452123,0
patternOccur-21,false,0.06,3048,204,3045,204,180464,0
patternOccur-22,false,0.08,1288,199,1281,199,74798,0
patternOccur-23,false,0.05,753,79,751,79,43329,0
patternOccur-24,false,0.73,5769,998,5745,998,323154,0
patternOccur-25,false,0.64,5857,999,5840,999,324010,0
patternOccur-26,false,0.15,868,170,866,170,50299,0
patternOccur-27,false,0.35,2797,527,2787,527,155203,0
patternOccur-28,false,0.25,2811,373,2803,373,157570,0
patternOccur-29,false,0.88,6094,999,6069,999,324593,0
patternOccur-30,false,0.69,5584,999,5570,999,305715,0
patternOccur-31,false,0.32,1126,398,1118,398,64472,0
patternOccur-32,false,0.01,265,34,265,34,17340,0
patternOccur-33,false,0.50,3798,628,3782,628,206986,0
patternOccur-34,false,0.29,3439,389,3430,389,189280,0
patternOccur-35,false,0.89,4646,999,4619,999,257892,0
patternOccur-36,false,0.68,6441,999,6427,999,357676,0
patternOccur-37,false,0.83,6393,999,6373,999,351853,0
patternOccur-38,false,0.04,1664,142,1660,142,103057,0
patternOccur-39,false,0.28,4827,486,4816,486,263420,0
patternOccur-40,false,0.63,6089,999,6067,999,338012,0
patternOccur-41,false,0.66,6157,999,6131,999,345955,0
patternOccur-42,false,0.12,4674,366,4666,366,265721,0
patternOccur-43,false,0.71,7792,999,7764,999,435213,0
patternOccur-44,false,0.14,798,1008,768,1008,42288,0
patternOccur-45,false,0.06,591,94,588,94,33991,0
patternOccur-46,false,0.84,5345,1008,5329,1008,289725,0
patternOccur-47,false,0.37,5574,543,5564,543,308268,0
patternOccur-48,false,0.56,4021,857,4002,857,226241,0
patternOccur-49,false,0.80,5878,999,5862,999,317041,0
patternOccur-50,false,0.02,1973,188,1966,188,139047,0
patternOccur-51,false,0.22,413,218,406,218,23314,0
patternOccur-52,false,0.61,7520,999,7491,999,427309,0
patternOccur-53,false,0.17,2052,320,2049,320,114423,0
patternOccur-54,false,0.17,3780,313,3774,313,208511,0
patternOccur-55,false,0.06,368,121,365,121,21679,0
patternOccur-56,false,0.11,1900,200,1897,200,101708,0
patternOccur-57,false,0.16,1842,999,1816,999,102953,0
patternOccur-58,false,0.73,5407,997,5380,997,298161,0
patternOccur-59,false,0.54,3878,686,3866,686,206952,0
patternOccur-60,false,0.74,4490,999,4472,999,243467,0
patternOccur-61,false,0.18,2441,336,2432,336,132825,0
patternOccur-62,false,0.78,6719,999,6694,999,372337,0
patternOccur-63,false,0.63,9075,999,9060,999,510960,0
patternOccur-64,false,0.53,6935,861,6916,861,388009,0
patternOccur-65,false,0.19,1233,231,1227,231,73017,0
patternOccur-66,false,0.03,397,77,396,77,24057,0
patternOccur-67,false,0.20,1079,237,1072,237,60816,0
patternOccur-68,false,0.81,5066,999,5047,999,281683,0
patternOccur-69,false,0.73,5483,999,5461,999,307937,0
patternOccur-70,false,0.06,1437,146,1433,146,84097,0
patternOccur-71,false,0.16,1487,238,1476,238,85111,0
patternOccur-72,false,0.32,3475,519,3461,519,184308,0
patternOccur-73,false,0.43,2810,629,2789,629,151268,0
patternOccur-74,false,0.03,1679,205,1673,205,107237,0
patternOccur-75,false,0.33,2806,379,2799,379,147504,0
patternOccur-76,false,0.22,5748,483,5742,483,315202,0
patternOccur-77,false,0.46,3069,560,3058,560,168123,0
patternOccur-78,false,0.77,4597,999,4571,999,249713,0
patternOccur-79,false,0.08,1180,165,1176,165,71539,0
patternOccur-80,false,0.16,2406,218,2399,218,129734,0
patternOccur-81,false,0.19,2576,338,2568,338,140942,0
patternOccur-82,false,0.70,6173,999,6149,999,345289,0
patternOccur-83,false,0.56,3464,668,3445,668,188582,0
patternOccur-84,false,0.05,667,131,662,131,41004,0
patternOccur-85,false,0.27,2380,347,2373,347,130695,0
patternOccur-86,false,0.38,3173,517,3157,517,170227,0
patternOccur-87,false,0.06,448,84,447,84,25673,0
patternOccur-88,false,0.09,4227,295,4220,295,243362,0
patternOccur-89,false,0.00,5808,999,5781,999,412730,0
patternOccur-90,false,0.53,5008,797,4987,797,275726,0
patternOccur-91,false,0.05,1330,123,1327,123,74976,0
patternOccur-92,false,0.65,4758,865,4741,865,262890,0
patternOccur-93,false,0.50,8617,999,8595,999,459664,0
patternOccur-94,false,0.80,5235,999,5210,999,290522,0
patternOccur-95,false,0.18,3880,319,3873,319,218624,0
patternOccur-96,false,0.30,2455,451,2441,451,133604,0
patternOccur-97,false,0.53,10250,969,10229,969,588175,0
patternOccur-98,false,0.67,5284,994,5256,994,296858,0
patternOccur-99,false,0.87,3070,999,3047,999,174950,0
patternOccur-100,false,0.14,1514,220,1510,220,78842,0
