NDW:0.0
TTFW:2.0
DFPT:2.0
DFPAP:3.0
DFPMP:50.0
RIGHT_WINDOW_BORDER_X:95.0
level,win/fail,% travelled,run time,game ticks,planning time,total plannings,nodes evaluated,most backtracked nodes
Krys-1,false,0.38,28360,999,28354,999,887719,0
Krys-2,false,0.61,1862,338,1855,338,106241,0
Krys-3,false,0.79,9112,526,9106,526,316983,0
Krys-4,false,0.82,4748,545,4729,545,150808,0
Krys-5,true,1.00,5215,487,5198,468,220428,0
Krys-6,true,1.00,1533,435,1515,416,71462,0
Krys-7,true,1.00,397,383,384,373,24161,0
Krys-8,true,1.00,3141,573,3124,558,126668,0
Krys-9,false,0.72,6579,410,6573,410,384884,0
Krys-10,true,1.00,2616,458,2604,439,114800,0
Krys-11,true,1.00,221,391,206,383,6490,0
Krys-12,true,1.00,3758,506,3741,487,126820,0
Krys-13,true,1.00,5923,492,5915,482,277435,0
Krys-14,false,0.79,23572,999,23563,999,668016,0
Krys-15,false,0.80,4512,375,4496,375,156714,0
Krys-16,false,0.69,21209,999,21189,999,614029,0
Krys-17,true,1.00,2404,516,2381,497,90738,0
Krys-18,true,1.00,1937,485,1930,466,115253,0
Krys-19,true,1.00,7307,596,7297,577,319023,0
Krys-20,true,1.00,4800,694,4782,681,293333,0
Krys-21,true,1.00,3625,448,3623,429,223769,0
Krys-22,true,1.00,6950,498,6942,488,359794,0
Krys-23,true,1.00,2463,524,2439,514,86934,0
Krys-24,true,1.00,5239,589,5224,579,171201,0
Krys-25,true,1.00,3579,474,3563,455,186424,0
Krys-26,true,1.00,9598,581,9588,571,460179,0
Krys-27,true,1.00,4778,540,4770,521,228185,0
Krys-28,true,1.00,6124,630,6100,620,198062,0
Krys-29,true,1.00,1020,468,1001,459,51498,0
Krys-30,true,1.00,2551,588,2539,575,101173,0
Krys-31,true,1.00,2084,491,2072,472,117662,0
Krys-32,true,1.00,584,441,569,432,20907,0
Krys-33,true,1.00,744,406,730,387,26264,0
Krys-34,true,1.00,3423,497,3404,478,129350,0
Krys-35,false,0.30,989,171,986,171,58296,0
Krys-36,false,0.41,3423,322,3418,322,174869,0
Krys-37,true,1.00,7681,639,7669,630,376645,0
Krys-38,false,0.31,29085,999,29082,999,1477246,0
Krys-39,false,0.53,3292,280,3284,280,144292,0
Krys-40,false,0.62,3007,357,2997,357,147976,0
Krys-41,false,0.83,5934,432,5929,432,285864,0
Krys-42,true,1.00,3845,490,3838,471,158121,0
Krys-43,false,0.91,4244,417,4231,417,226344,0
Krys-44,false,0.65,4171,390,4158,390,181835,0
Krys-45,true,1.00,784,438,771,429,28450,0
Krys-46,true,1.00,2437,534,2427,524,126797,0
Krys-47,true,1.00,1733,517,1708,498,60293,0
Krys-48,true,1.00,6534,503,6515,494,253040,0
Krys-49,true,1.00,685,412,667,400,28363,0
Krys-50,false,0.28,29665,999,29661,999,841462,0
Krys-51,false,0.62,5512,400,5507,400,280895,0
Krys-52,true,1.00,1358,435,1344,419,48628,0
Krys-53,true,1.00,1570,473,1560,463,78031,0
Krys-54,true,1.00,4538,642,4519,619,224422,0
Krys-55,true,1.00,2408,487,2395,468,71700,0
Krys-56,false,0.59,25595,999,25587,999,695099,0
Krys-57,true,1.00,6337,520,6315,498,198311,0
Krys-58,true,1.00,5567,642,5553,633,245852,0
Krys-59,false,0.89,19001,999,18989,999,492114,0
Krys-60,false,0.91,23524,999,23516,999,773798,0
Krys-61,false,0.48,26736,999,26727,999,708383,0
Krys-62,true,1.00,625,418,610,400,23906,0
Krys-63,true,1.00,3241,624,3229,614,135668,0
Krys-64,true,1.00,2215,540,2195,524,68671,0
Krys-65,true,1.00,1728,454,1722,445,74930,0
Krys-66,true,1.00,2309,539,2295,529,100441,0
Krys-67,true,1.00,3247,560,3226,550,122295,0
Krys-68,false,0.62,3304,267,3298,267,190995,0
Krys-69,false,0.48,25863,999,25859,999,740044,0
Krys-70,true,1.00,5557,595,5544,582,315506,0
Krys-71,false,0.71,25429,999,25426,999,1330400,0
Krys-72,true,1.00,1938,553,1917,543,68722,0
Krys-73,true,1.00,4115,596,4101,583,243173,0
Krys-74,false,0.73,2913,389,2905,389,155726,0
Krys-75,true,1.00,389,477,379,458,20301,0
Krys-76,false,0.52,4147,315,4141,315,240722,0
Krys-77,true,1.00,1999,419,1988,400,94541,0
Krys-78,false,0.20,5429,227,5427,227,326421,0
Krys-79,true,1.00,716,445,696,435,28501,0
Krys-80,true,1.00,513,445,486,426,14300,0
Krys-81,true,1.00,1351,430,1338,411,47214,0
Krys-82,true,1.00,805,398,793,388,39243,0
Krys-83,true,1.00,4525,513,4514,494,278092,0
Krys-84,true,1.00,218,380,210,370,13577,0
Krys-85,true,1.00,2911,617,2891,605,157518,0
Krys-86,true,1.00,2950,451,2941,434,141845,0
Krys-87,true,1.00,374,354,361,345,19220,0
Krys-88,true,1.00,2087,487,2073,477,83913,0
Krys-89,true,1.00,1663,458,1653,445,101681,0
Krys-90,false,0.72,6873,414,6866,414,361668,0
Krys-91,true,1.00,235,411,228,398,14342,0
Krys-92,true,1.00,6851,574,6836,555,282963,0
Krys-93,true,1.00,3410,426,3399,413,222403,0
Krys-94,true,1.00,4534,449,4526,439,289391,0
Krys-95,true,1.00,802,366,790,353,40707,0
Krys-96,false,0.83,6950,468,6942,468,402922,0
Krys-97,true,1.00,4487,518,4477,499,240858,0
Krys-98,true,1.00,3482,647,3459,638,108429,0
Krys-99,true,1.00,915,489,897,477,47316,0
Krys-100,false,0.62,6993,403,6991,403,363644,0
