NDW:0.0
TTFW:1.4
DFPT:2.0
DFPAP:3.0
DFPMP:2.0
RIGHT_WINDOW_BORDER_X:75.0
level,win/fail,% travelled,run time,game ticks,planning time,total plannings,nodes evaluated,most backtracked nodes
hopper-1,false,0.48,4366,340,4363,340,240683,0
hopper-2,false,0.80,6939,535,6933,535,383512,0
hopper-3,false,0.24,2003,143,2000,143,103129,0
hopper-4,false,0.26,1544,147,1541,147,85605,0
hopper-5,true,1.00,5931,587,5922,580,329248,0
hopper-6,true,1.00,3952,508,3941,502,230558,0
hopper-7,false,0.82,22333,999,22324,999,1146102,0
hopper-8,false,0.41,2316,215,2311,215,119909,0
hopper-9,false,0.21,2880,187,2878,187,160788,0
hopper-10,true,1.00,3707,475,3699,467,220010,0
hopper-11,false,0.22,3369,206,3366,206,202061,0
hopper-12,true,1.00,3667,548,3661,541,221261,0
hopper-13,true,1.00,4720,576,4708,569,263048,0
hopper-14,true,1.00,4658,542,4648,535,261419,0
hopper-15,true,1.00,6040,595,6028,588,342470,0
hopper-16,false,0.54,4526,341,4517,341,237308,0
hopper-17,true,1.00,2796,464,2788,458,154891,0
hopper-18,true,1.00,4026,490,4017,483,212659,0
hopper-19,true,1.00,4709,496,4693,489,293840,0
hopper-20,true,1.00,5022,554,5008,547,266082,0
hopper-21,false,0.61,5053,390,5047,390,263288,0
hopper-22,false,0.31,28522,999,28516,999,1481779,0
hopper-23,true,1.00,4812,573,4799,566,261180,0
hopper-24,true,1.00,1362,399,1353,393,77561,0
hopper-25,true,1.00,4642,507,4634,500,276416,0
hopper-26,true,1.00,6449,584,6444,577,348455,0
hopper-27,true,1.00,2953,490,2942,483,167973,0
hopper-28,false,0.57,9268,539,9263,539,570417,0
hopper-29,false,0.26,1478,134,1475,134,76470,0
hopper-30,true,1.00,4414,511,4405,503,241737,0
hopper-31,false,0.77,7097,490,7097,490,379036,0
hopper-32,false,0.42,4505,297,4500,297,259649,0
hopper-33,false,0.49,1917,233,1915,233,101741,0
hopper-34,false,0.31,3524,228,3524,228,184212,0
hopper-35,true,1.00,10140,667,10131,660,606773,0
hopper-36,true,1.00,2566,439,2560,432,136974,0
hopper-37,false,0.51,3479,275,3472,275,181258,0
hopper-38,false,0.52,4686,333,4682,333,251543,0
hopper-39,false,0.52,3224,282,3220,282,169222,0
hopper-40,true,1.00,5470,518,5461,511,285950,0
hopper-41,false,0.24,2598,163,2598,163,132851,0
hopper-42,true,1.00,4363,553,4356,546,240821,0
hopper-43,false,0.44,6912,414,6906,414,361483,0
hopper-44,true,1.00,6833,615,6826,608,385515,0
hopper-45,false,0.42,4409,303,4407,303,240056,0
hopper-46,false,0.39,1349,197,1345,197,74443,0
hopper-47,false,0.60,5666,399,5660,399,317301,0
hopper-48,true,1.00,6297,553,6287,544,361547,0
hopper-49,false,0.30,5367,281,5363,281,304820,0
hopper-50,false,0.62,3893,363,3885,363,215284,0
hopper-51,false,0.33,1295,168,1292,168,66640,0
hopper-52,true,1.00,3815,493,3804,487,226962,0
hopper-53,false,0.63,10150,549,10144,549,553682,0
hopper-54,true,1.00,2882,466,2869,459,163068,0
hopper-55,true,1.00,2216,470,2203,463,135339,0
hopper-56,true,1.00,4248,493,4236,487,251688,0
hopper-57,true,1.00,2937,485,2932,479,167276,0
hopper-58,false,0.58,5640,394,5637,394,324063,0
hopper-59,true,1.00,4929,518,4917,511,294911,0
hopper-60,true,1.00,9654,678,9646,672,615839,0
hopper-61,false,0.83,8055,575,8048,575,452366,0
hopper-62,true,1.00,5065,543,5056,536,279379,0
hopper-63,false,0.22,1138,117,1135,117,62150,0
hopper-64,true,1.00,6616,584,6609,577,382769,0
hopper-65,false,0.13,2663,156,2662,156,142062,0
hopper-66,false,0.74,2915,372,2903,372,156850,0
hopper-67,true,1.00,2186,407,2178,400,129642,0
hopper-68,true,1.00,2368,460,2360,454,138932,0
hopper-69,false,0.83,6132,526,6124,526,338883,0
hopper-70,true,1.00,4497,528,4487,521,270029,0
hopper-71,true,1.00,5544,549,5538,542,316091,0
hopper-72,true,1.00,6885,623,6871,616,394825,0
hopper-73,true,1.00,7639,640,7630,634,432191,0
hopper-74,true,1.00,2510,437,2498,430,138204,0
hopper-75,true,1.00,6502,596,6496,589,365747,0
hopper-76,true,1.00,5335,543,5327,536,300448,0
hopper-77,true,1.00,1567,454,1556,447,85285,0
hopper-78,true,1.00,7246,608,7235,599,426298,0
hopper-79,true,1.00,3846,507,3837,500,217462,0
hopper-80,false,0.23,3122,198,3122,198,167027,0
hopper-81,false,0.38,5207,344,5204,344,280449,0
hopper-82,false,0.46,3820,300,3816,300,215447,0
hopper-83,true,1.00,7793,599,7787,593,445479,0
hopper-84,true,1.00,8016,644,8007,638,472045,0
hopper-85,true,1.00,5262,539,5257,532,299879,0
hopper-86,false,0.22,2844,219,2843,219,164971,0
hopper-87,true,1.00,4738,535,4723,527,265525,0
hopper-88,false,0.23,2245,170,2241,170,131494,0
hopper-89,false,0.13,2662,156,2660,156,142378,0
hopper-90,true,1.00,3898,491,3890,484,230474,0
hopper-91,true,1.00,7579,643,7572,637,445095,0
hopper-92,true,1.00,7226,609,7215,603,392095,0
hopper-93,true,1.00,3061,452,3053,445,175825,0
hopper-94,false,0.64,5380,408,5378,408,297132,0
hopper-95,true,1.00,5516,558,5507,551,303651,0
hopper-96,false,0.13,2661,156,2658,156,143804,0
hopper-97,true,1.00,7088,624,7077,618,390998,0
hopper-98,true,1.00,7716,607,7707,601,428434,0
hopper-99,true,1.00,9766,682,9761,676,560554,0
hopper-100,true,1.00,5472,559,5462,552,294522,0
