NDW:0.0
TTFW:1.2
DFPT:2.0
DFPAP:3.0
DFPMP:1.0
RIGHT_WINDOW_BORDER_X:95.0
level,win/fail,% travelled,run time,game ticks,planning time,total plannings,nodes evaluated,most backtracked nodes
ore-1,true,1.00,2121,532,2118,520,258039,0
ore-2,false,0.70,3923,390,3922,390,386796,0
ore-3,true,1.00,4537,621,4534,612,520848,0
ore-4,true,1.00,2318,531,2310,522,281199,0
ore-5,true,1.00,2943,477,2941,468,331170,0
ore-6,false,0.33,3256,287,3255,287,389739,0
ore-7,true,1.00,2138,459,2134,450,254211,0
ore-8,false,0.12,3020,153,3019,153,298711,0
ore-9,true,1.00,3104,486,3102,477,347757,0
ore-10,false,0.69,2445,404,2443,404,310567,0
ore-11,true,1.00,5681,688,5679,678,695132,0
ore-12,true,1.00,3006,620,3002,611,370940,0
ore-13,true,1.00,3686,580,3684,570,427355,0
ore-14,true,1.00,6031,694,6028,682,742600,0
ore-15,true,1.00,3689,544,3687,535,419747,0
ore-16,true,1.00,4378,550,4375,541,528702,0
ore-17,true,1.00,5181,698,5175,686,648814,0
ore-18,true,1.00,4465,620,4463,603,521772,0
ore-19,true,1.00,4724,627,4720,618,533503,0
ore-20,true,1.00,2979,617,2975,604,364804,0
ore-21,true,1.00,3247,625,3243,615,410084,0
ore-22,false,0.59,3785,421,3781,421,378150,0
ore-23,true,1.00,4659,666,4655,657,564022,0
ore-24,true,1.00,4890,603,4888,594,562941,0
ore-25,true,1.00,3308,607,3304,597,416200,0
ore-26,true,1.00,4490,630,4488,622,512387,0
ore-27,false,0.55,2336,375,2332,375,286755,0
ore-28,true,1.00,2931,587,2928,576,346919,0
ore-29,true,1.00,3932,651,3931,641,467777,0
ore-30,false,0.12,9,57,8,57,1266,0
ore-31,true,1.00,2256,543,2252,533,270199,0
ore-32,true,1.00,2136,517,2130,508,259066,0
ore-33,false,0.82,2113,463,2108,463,256084,0
ore-34,false,0.91,5413,712,5407,712,625717,0
ore-35,true,1.00,3571,511,3569,502,438342,0
ore-36,true,1.00,5655,693,5651,681,674328,0
ore-37,false,0.33,1863,179,1862,179,169882,0
ore-38,true,1.00,6531,706,6530,697,815139,0
ore-39,false,0.53,3488,365,3485,365,428638,0
ore-40,true,1.00,4408,558,4406,549,585589,0
ore-41,true,1.00,4426,621,4421,611,519233,0
ore-42,true,1.00,4370,641,4367,632,509302,0
ore-43,true,1.00,2848,541,2844,532,327229,0
ore-44,true,1.00,3225,564,3222,555,401228,0
ore-45,false,0.74,19605,999,19600,999,1489342,0
ore-46,false,0.12,2814,139,2814,139,292656,0
ore-47,true,1.00,4319,701,4316,692,552342,0
ore-48,true,1.00,2359,509,2358,499,292507,0
ore-49,true,1.00,2796,553,2795,542,315732,0
ore-50,true,1.00,4369,571,4369,559,478857,0
ore-51,true,1.00,3889,561,3886,552,476164,0
ore-52,true,1.00,4213,569,4208,559,529983,0
ore-53,true,1.00,4272,623,4270,614,544313,0
ore-54,true,1.00,4151,654,4149,645,511064,0
ore-55,true,1.00,3911,551,3909,542,507608,0
ore-56,true,1.00,2192,502,2188,492,255356,0
ore-57,true,1.00,2766,495,2763,485,351439,0
ore-58,true,1.00,6098,651,6092,643,695229,0
ore-59,true,1.00,6715,718,6707,710,856284,0
ore-60,true,1.00,5838,717,5834,708,736871,0
ore-61,false,0.52,3606,390,3606,390,423247,0
ore-62,true,1.00,2791,554,2789,546,314047,0
ore-63,true,1.00,4908,604,4907,593,584246,0
ore-64,true,1.00,2018,471,2013,461,227452,0
ore-65,true,1.00,4703,617,4700,608,533136,0
ore-66,true,1.00,6672,756,6668,738,799293,0
ore-67,true,1.00,3885,605,3878,596,457422,0
ore-68,true,1.00,3536,576,3535,568,415802,0
ore-69,true,1.00,3697,661,3692,652,458115,0
ore-70,true,1.00,4731,786,4729,777,602756,0
ore-71,true,1.00,3568,570,3567,562,430706,0
ore-72,true,1.00,3598,556,3592,547,417287,0
ore-73,true,1.00,8026,810,8022,799,963182,0
ore-74,true,1.00,2649,569,2645,558,322924,0
ore-75,true,1.00,3933,582,3927,574,428225,0
ore-76,true,1.00,3482,497,3481,486,433733,0
ore-77,true,1.00,2728,528,2725,519,318035,0
ore-78,true,1.00,4184,584,4184,576,539406,0
ore-79,true,1.00,1804,483,1801,475,218192,0
ore-80,true,1.00,2447,475,2445,465,281016,0
ore-81,false,0.53,3373,408,3372,408,395667,0
ore-82,false,0.31,3273,290,3273,290,413193,0
ore-83,false,0.32,1136,189,1136,189,142492,0
ore-84,false,0.13,2287,112,2287,112,189132,0
ore-85,true,1.00,2942,598,2937,589,331656,0
ore-86,true,1.00,4394,583,4393,574,543780,0
ore-87,true,1.00,2059,479,2055,470,233062,0
ore-88,true,1.00,4947,589,4943,581,595785,0
ore-89,true,1.00,5008,661,5006,652,629842,0
ore-90,true,1.00,2500,541,2496,531,333132,0
ore-91,true,1.00,5739,689,5734,680,676390,0
ore-92,true,1.00,3038,597,3032,585,356016,0
ore-93,true,1.00,3743,542,3740,532,436374,0
ore-94,true,1.00,4060,654,4057,641,484343,0
ore-95,true,1.00,3334,545,3333,537,402151,0
ore-96,false,0.82,4171,512,4168,512,461346,0
ore-97,true,1.00,3577,610,3574,601,434431,0
ore-98,true,1.00,3987,548,3984,539,457763,0
ore-99,false,0.58,2996,419,2994,419,372127,0
ore-100,true,1.00,3197,558,3196,549,396113,0
