NDW:0.0
TTFW:1.4
DFPT:2.0
DFPAP:3.0
DFPMP:3.0
RIGHT_WINDOW_BORDER_X:115.0
level,win/fail,% travelled,run time,game ticks,planning time,total plannings,nodes evaluated,most backtracked nodes
ore-1,true,1.00,2875,504,2864,493,170021,0
ore-2,false,0.69,3868,403,3858,403,201532,0
ore-3,true,1.00,2197,505,2186,494,115486,0
ore-4,true,1.00,2552,478,2544,467,148784,0
ore-5,true,1.00,2071,424,2061,413,120998,0
ore-6,true,1.00,2662,486,2653,474,155599,0
ore-7,true,1.00,2443,462,2432,451,142382,0
ore-8,false,0.12,1170,87,1170,87,56064,0
ore-9,true,1.00,2406,457,2391,446,138961,0
ore-10,true,1.00,2485,483,2475,472,147776,0
ore-11,true,1.00,3775,525,3762,515,225980,0
ore-12,false,0.45,5836,357,5832,357,298799,0
ore-13,true,1.00,1481,420,1469,402,80792,0
ore-14,true,1.00,2483,531,2470,514,149369,0
ore-15,true,1.00,2625,487,2610,477,152917,0
ore-16,false,0.84,3691,447,3678,447,139468,0
ore-17,true,1.00,2970,548,2959,530,166305,0
ore-18,true,1.00,2228,467,2215,456,131828,0
ore-19,true,1.00,1684,445,1676,435,98628,0
ore-20,true,1.00,2027,464,2011,453,105944,0
ore-21,true,1.00,3582,558,3574,547,210394,0
ore-22,false,0.58,2327,316,2320,316,120517,0
ore-23,true,1.00,5244,563,5231,553,305048,0
ore-24,true,1.00,3176,563,3159,551,192489,0
ore-25,true,1.00,1857,433,1847,422,111266,0
ore-26,false,0.39,814,216,809,216,45450,0
ore-27,false,0.24,3999,216,3998,216,196075,0
ore-28,true,1.00,1994,520,1982,506,102216,0
ore-29,true,1.00,1862,465,1851,452,101782,0
ore-30,true,1.00,1780,430,1764,418,95796,0
ore-31,true,1.00,2802,502,2786,484,152356,0
ore-32,true,1.00,2373,466,2364,456,130856,0
ore-33,true,1.00,2241,499,2224,478,131196,0
ore-34,true,1.00,2466,498,2449,488,143513,0
ore-35,true,1.00,3688,459,3679,447,216252,0
ore-36,true,1.00,2063,452,2048,442,117485,0
ore-37,false,0.34,3873,232,3868,232,180666,0
ore-38,true,1.00,2868,460,2857,447,160268,0
ore-39,true,1.00,2982,483,2974,472,177731,0
ore-40,true,1.00,2210,444,2191,433,126345,0
ore-41,true,1.00,2534,480,2515,468,142609,0
ore-42,true,1.00,2582,468,2573,457,145289,0
ore-43,true,1.00,2584,486,2572,476,145032,0
ore-44,true,1.00,3458,501,3453,489,179294,0
ore-45,false,0.74,22396,999,22391,999,796566,0
ore-46,false,0.12,2287,107,2286,107,111371,0
ore-47,false,0.83,4889,535,4871,535,235091,0
ore-48,true,1.00,2859,532,2845,521,154170,0
ore-49,true,1.00,2133,467,2116,455,125932,0
ore-50,true,1.00,3676,489,3647,478,209034,0
ore-51,true,1.00,4362,541,4353,529,275479,0
ore-52,true,1.00,3840,500,3834,487,232465,0
ore-53,true,1.00,4261,547,4247,536,237384,0
ore-54,false,0.72,4326,491,4317,491,228056,0
ore-55,true,1.00,1735,440,1719,429,62945,0
ore-56,true,1.00,1672,413,1660,401,99551,0
ore-57,true,1.00,3241,569,3227,557,196546,0
ore-58,true,1.00,3479,559,3463,549,215081,0
ore-59,true,1.00,3553,493,3539,483,222747,0
ore-60,true,1.00,2782,454,2769,438,141861,0
ore-61,true,1.00,4039,517,4014,505,215117,0
ore-62,false,0.88,2025,409,2016,409,125491,0
ore-63,true,1.00,2526,465,2517,447,159425,0
ore-64,true,1.00,1217,441,1207,430,76602,0
ore-65,true,1.00,2961,548,2950,536,186037,0
ore-66,true,1.00,3723,537,3710,527,239377,0
ore-67,true,1.00,2655,489,2646,475,167676,0
ore-68,true,1.00,1690,467,1679,455,99433,0
ore-69,true,1.00,5184,580,5172,569,325043,0
ore-70,false,0.92,5247,596,5238,596,310781,0
ore-71,true,1.00,2331,474,2311,464,141300,0
ore-72,true,1.00,1697,471,1687,460,102266,0
ore-73,false,0.32,5740,318,5732,318,242095,0
ore-74,true,1.00,5144,593,5125,575,247610,0
ore-75,true,1.00,2211,521,2189,511,93729,0
ore-76,true,1.00,2744,440,2729,429,162077,0
ore-77,true,1.00,2142,452,2133,441,125475,0
ore-78,true,1.00,1773,478,1767,468,111156,0
ore-79,true,1.00,2211,508,2201,498,129042,0
ore-80,true,1.00,2332,459,2322,447,140835,0
ore-81,true,1.00,2394,487,2383,475,110969,0
ore-82,true,1.00,2933,492,2922,480,169362,0
ore-83,true,1.00,2998,470,2987,460,185229,0
ore-84,true,1.00,6394,581,6376,570,278219,0
ore-85,true,1.00,2494,514,2484,502,144557,0
ore-86,true,1.00,3832,538,3820,527,218431,0
ore-87,true,1.00,2339,508,2326,496,137611,0
ore-88,false,0.31,29216,999,29211,999,1292726,0
ore-89,true,1.00,4502,613,4485,603,272532,0
ore-90,true,1.00,3615,540,3591,529,118012,0
ore-91,true,1.00,1711,446,1701,435,96253,0
ore-92,true,1.00,2567,504,2556,493,142011,0
ore-93,false,0.13,2669,131,2666,131,138023,0
ore-94,true,1.00,3348,495,3337,482,196522,0
ore-95,true,1.00,2204,494,2200,484,128118,0
ore-96,false,0.50,1949,317,1946,317,114807,0
ore-97,false,0.79,3735,430,3728,430,206372,0
ore-98,true,1.00,2856,446,2846,435,168988,0
ore-99,false,0.57,2127,367,2119,367,122617,0
ore-100,true,1.00,2854,504,2844,494,171485,0
