NDW:0.0
TTFW:1.6
DFPT:2.0
DFPAP:3.0
DFPMP:50.0
RIGHT_WINDOW_BORDER_X:75.0
level,win/fail,% travelled,run time,game ticks,planning time,total plannings,nodes evaluated,most backtracked nodes
ore-1,false,0.78,3201,465,3190,465,210877,0
ore-2,false,0.70,6444,570,6438,570,379734,0
ore-3,true,1.00,4368,590,4357,583,280015,0
ore-4,true,1.00,5366,699,5351,692,355805,0
ore-5,true,1.00,6007,639,5996,632,391661,0
ore-6,true,1.00,4427,613,4414,605,282115,0
ore-7,true,1.00,1526,454,1515,440,97997,0
ore-8,false,0.12,2072,125,2071,125,113084,0
ore-9,true,1.00,3325,547,3302,540,202980,0
ore-10,true,1.00,2653,545,2638,538,155259,0
ore-11,true,1.00,3305,633,3281,627,192574,0
ore-12,true,1.00,2755,592,2739,585,161891,0
ore-13,true,1.00,5306,651,5291,642,287885,0
ore-14,true,1.00,5768,671,5753,663,382657,0
ore-15,true,1.00,6445,663,6428,656,337240,0
ore-16,true,1.00,6106,675,6097,668,397964,0
ore-17,true,1.00,4244,651,4233,641,293223,0
ore-18,true,1.00,2589,556,2580,543,174439,0
ore-19,true,1.00,4245,621,4236,614,276031,0
ore-20,true,1.00,4345,672,4334,665,287337,0
ore-21,true,1.00,3761,662,3750,654,259622,0
ore-22,false,0.58,2504,343,2502,343,148837,0
ore-23,false,0.79,3446,509,3441,509,227863,0
ore-24,true,1.00,4126,654,4103,647,280909,0
ore-25,true,1.00,6942,685,6930,678,476551,0
ore-26,true,1.00,4235,637,4220,630,260487,0
ore-27,false,0.62,3880,580,3868,580,240125,0
ore-28,false,0.73,2217,408,2208,408,139637,0
ore-29,true,1.00,4830,624,4819,617,305166,0
ore-30,true,1.00,4787,659,4779,651,307162,0
ore-31,true,1.00,3958,573,3946,564,187821,0
ore-32,true,1.00,1785,447,1774,440,115839,0
ore-33,true,1.00,2706,552,2694,545,182966,0
ore-34,true,1.00,4577,592,4561,585,291887,0
ore-35,false,0.34,1144,207,1141,207,77316,0
ore-36,true,1.00,4095,516,4087,508,259405,0
ore-37,false,0.34,3396,287,3391,287,179929,0
ore-38,true,1.00,3759,594,3750,587,229262,0
ore-39,true,1.00,5012,679,4998,672,335381,0
ore-40,true,1.00,4528,590,4512,583,297032,0
ore-41,true,1.00,4706,683,4684,676,214208,0
ore-42,true,1.00,4621,635,4610,628,298083,0
ore-43,true,1.00,3538,592,3525,585,228394,0
ore-44,true,1.00,5541,589,5534,582,372638,0
ore-45,false,0.34,2587,224,2585,224,145551,0
ore-46,false,0.11,30823,999,30820,999,1686660,0
ore-47,false,0.81,3741,589,3725,589,239207,0
ore-48,true,1.00,5447,641,5435,634,359123,0
ore-49,true,1.00,4958,572,4948,563,302023,0
ore-50,true,1.00,6451,653,6437,638,358671,0
ore-51,true,1.00,3954,617,3941,610,269396,0
ore-52,true,1.00,4806,579,4797,573,322569,0
ore-53,true,1.00,3785,597,3772,590,247987,0
ore-54,false,0.71,4763,468,4759,468,289247,0
ore-55,true,1.00,3711,594,3704,587,252213,0
ore-56,true,1.00,1856,519,1841,512,120454,0
ore-57,true,1.00,5995,739,5981,731,405432,0
ore-58,false,0.91,4262,564,4257,564,275806,0
ore-59,true,1.00,6648,741,6629,734,448028,0
ore-60,true,1.00,4470,727,4452,720,279816,0
ore-61,true,1.00,3730,549,3716,541,235284,0
ore-62,false,0.29,1341,211,1335,211,89618,0
ore-63,false,0.07,912,121,906,121,59867,0
ore-64,true,1.00,3607,522,3597,514,237432,0
ore-65,true,1.00,5792,701,5782,694,393189,0
ore-66,true,1.00,6413,748,6401,741,435954,0
ore-67,true,1.00,6639,718,6628,711,437386,0
ore-68,true,1.00,2889,499,2878,492,194536,0
ore-69,true,1.00,5739,669,5729,662,393464,0
ore-70,false,0.92,6961,746,6946,746,456197,0
ore-71,true,1.00,5398,629,5385,622,346322,0
ore-72,true,1.00,4025,595,4014,588,271290,0
ore-73,true,1.00,10422,820,10406,811,623908,0
ore-74,false,0.15,790,141,788,141,55790,0
ore-75,true,1.00,3233,594,3221,587,209328,0
ore-76,true,1.00,4077,604,4055,596,288055,0
ore-77,true,1.00,3001,591,2994,584,205853,0
ore-78,true,1.00,4239,611,4226,604,291061,0
ore-79,true,1.00,5586,668,5574,661,364078,0
ore-80,true,1.00,5302,612,5293,603,345915,0
ore-81,true,1.00,2528,576,2514,569,169537,0
ore-82,true,1.00,4285,634,4269,627,278653,0
ore-83,false,0.30,1132,206,1128,206,77479,0
ore-84,false,0.13,2564,129,2564,129,133975,0
ore-85,false,0.15,217,70,216,70,14100,0
ore-86,true,1.00,4287,585,4278,578,294868,0
ore-87,true,1.00,3067,569,3058,562,202921,0
ore-88,true,1.00,2869,515,2861,508,197412,0
ore-89,false,0.93,3756,607,3745,607,244806,0
ore-90,true,1.00,6838,636,6814,630,456611,0
ore-91,true,1.00,2916,544,2903,537,192778,0
ore-92,true,1.00,3019,559,3014,550,188339,0
ore-93,false,0.14,2007,125,2003,125,111183,0
ore-94,true,1.00,4717,689,4701,682,308013,0
ore-95,true,1.00,4091,624,4089,617,260824,0
ore-96,false,0.83,6602,703,6588,703,423905,0
ore-97,true,1.00,7457,745,7446,738,474782,0
ore-98,true,1.00,4596,657,4579,650,295667,0
ore-99,true,1.00,3544,633,3536,624,228938,0
ore-100,true,1.00,1688,482,1679,475,111011,0
