NDW:0.0
TTFW:1.4
DFPT:2.0
DFPAP:3.0
DFPMP:3.0
RIGHT_WINDOW_BORDER_X:155.0
level,win/fail,% travelled,run time,game ticks,planning time,total plannings,nodes evaluated,most backtracked nodes
patternOccur-1,true,1.00,1338,526,1329,512,72272,0
patternOccur-2,true,1.00,1014,425,1003,411,53872,0
patternOccur-3,true,1.00,1776,476,1768,462,99002,0
patternOccur-4,true,1.00,1813,459,1806,445,101957,0
patternOccur-5,true,1.00,1217,475,1208,461,66214,0
patternOccur-6,true,1.00,1891,486,1876,472,105440,0
patternOccur-7,true,1.00,2065,523,2052,509,113758,0
patternOccur-8,true,1.00,2055,481,2040,467,113690,0
patternOccur-9,true,1.00,1749,482,1735,468,94666,0
patternOccur-10,true,1.00,1558,512,1548,498,84796,0
patternOccur-11,false,0.87,2892,470,2877,470,148042,0
patternOccur-12,true,1.00,2389,552,2380,536,131136,0
patternOccur-13,true,1.00,1576,489,1566,475,87467,0
patternOccur-14,true,1.00,4344,517,4333,495,227919,0
patternOccur-15,true,1.00,1567,427,1559,413,87188,0
patternOccur-16,false,0.92,4954,523,4942,523,260299,0
patternOccur-17,true,1.00,1454,508,1440,494,83614,0
patternOccur-18,true,1.00,1118,465,1105,451,62844,0
patternOccur-19,false,0.82,6132,571,6123,571,336292,0
patternOccur-20,true,1.00,1426,522,1411,508,79817,0
patternOccur-21,true,1.00,1827,514,1811,500,106617,0
patternOccur-22,false,0.84,4535,517,4528,517,234814,0
patternOccur-23,true,1.00,2591,519,2581,505,149468,0
patternOccur-24,true,1.00,1264,493,1247,479,72302,0
patternOccur-25,true,1.00,1627,502,1613,488,93359,0
patternOccur-26,true,1.00,1270,473,1257,459,70447,0
patternOccur-27,false,0.90,3134,490,3127,490,174437,0
patternOccur-28,true,1.00,1820,521,1807,507,104702,0
patternOccur-29,true,1.00,947,419,940,395,53554,0
patternOccur-30,true,1.00,1322,478,1309,464,76190,0
patternOccur-31,false,0.77,4275,478,4264,478,220799,0
patternOccur-32,false,0.92,3759,561,3747,561,201168,0
patternOccur-33,true,1.00,1455,502,1443,488,82843,0
patternOccur-34,true,1.00,1772,486,1750,470,105746,0
patternOccur-35,true,1.00,907,459,897,445,52402,0
patternOccur-36,true,1.00,3041,512,3027,496,168849,0
patternOccur-37,false,0.94,4166,532,4152,532,231055,0
patternOccur-38,true,1.00,1232,461,1221,447,71779,0
patternOccur-39,false,0.79,4850,476,4839,476,260109,0
patternOccur-40,true,1.00,2067,472,2064,458,121950,0
patternOccur-41,true,1.00,1843,510,1836,487,110080,0
patternOccur-42,false,0.88,4048,497,4030,497,217944,0
patternOccur-43,true,1.00,1772,477,1761,463,107386,0
patternOccur-44,true,1.00,1393,459,1380,445,81021,0
patternOccur-45,true,1.00,3774,524,3766,504,201679,0
patternOccur-46,true,1.00,1569,452,1562,438,88465,0
patternOccur-47,true,1.00,3784,494,3773,473,207663,0
patternOccur-48,true,1.00,1543,473,1525,459,89932,0
patternOccur-49,true,1.00,1203,450,1183,436,69903,0
patternOccur-50,true,1.00,2366,497,2350,483,132273,0
patternOccur-51,true,1.00,2547,550,2534,535,151179,0
patternOccur-52,true,1.00,1812,463,1801,449,105822,0
patternOccur-53,true,1.00,1648,447,1636,433,93752,0
patternOccur-54,true,1.00,3092,507,3085,492,181346,0
patternOccur-55,true,1.00,1853,438,1839,424,106976,0
patternOccur-56,true,1.00,1918,527,1905,513,112188,0
patternOccur-57,true,1.00,2266,502,2255,488,135745,0
patternOccur-58,true,1.00,5899,591,5889,572,321680,0
patternOccur-59,true,1.00,1569,513,1549,499,91793,0
patternOccur-60,true,1.00,4808,540,4796,518,258716,0
patternOccur-61,true,1.00,1688,453,1683,438,99610,0
patternOccur-62,true,1.00,1523,453,1511,439,85765,0
patternOccur-63,true,1.00,1514,485,1505,468,87374,0
patternOccur-64,true,1.00,2218,573,2199,557,123451,0
patternOccur-65,true,1.00,1027,469,1019,455,58846,0
patternOccur-66,true,1.00,1474,469,1464,455,84080,0
patternOccur-67,false,0.89,2869,451,2859,451,150292,0
patternOccur-68,true,1.00,1174,478,1158,464,65192,0
patternOccur-69,false,0.90,4917,512,4906,512,248944,0
patternOccur-70,false,0.87,4901,496,4895,496,274154,0
patternOccur-71,true,1.00,2385,513,2376,499,140006,0
patternOccur-72,false,0.86,4396,516,4388,516,232636,0
patternOccur-73,true,1.00,3663,496,3654,480,198374,0
patternOccur-74,true,1.00,5180,555,5167,536,270967,0
patternOccur-75,true,1.00,2437,521,2426,506,132505,0
patternOccur-76,true,1.00,2009,479,1997,465,116871,0
patternOccur-77,true,1.00,1315,494,1294,480,72334,0
patternOccur-78,true,1.00,806,441,794,427,43210,0
patternOccur-79,true,1.00,1906,500,1890,486,104687,0
patternOccur-80,true,1.00,3452,517,3440,502,189928,0
patternOccur-81,true,1.00,5217,559,5210,535,258712,0
patternOccur-82,true,1.00,2732,569,2714,524,136677,0
patternOccur-83,true,1.00,1290,509,1262,495,60781,0
patternOccur-84,true,1.00,1362,456,1352,442,75216,0
patternOccur-85,false,0.92,2757,489,2749,489,143852,0
patternOccur-86,true,1.00,6420,562,6407,547,338521,0
patternOccur-87,true,1.00,1469,510,1456,496,84954,0
patternOccur-88,true,1.00,1534,475,1522,461,90224,0
patternOccur-89,true,1.00,1545,479,1533,465,89427,0
patternOccur-90,true,1.00,2460,545,2450,527,150876,0
patternOccur-91,true,1.00,1880,485,1861,469,110706,0
patternOccur-92,true,1.00,789,412,781,398,46124,0
patternOccur-93,true,1.00,1622,452,1612,438,95080,0
patternOccur-94,false,0.84,4021,491,4012,491,220284,0
patternOccur-95,true,1.00,1800,479,1793,465,106870,0
patternOccur-96,false,0.86,4129,523,4122,523,215245,0
patternOccur-97,true,1.00,1988,448,1980,434,113988,0
patternOccur-98,false,0.90,4041,538,4032,538,210536,0
patternOccur-99,true,1.00,600,427,588,413,33146,0
patternOccur-100,true,1.00,1319,441,1309,427,72308,0
