NDW:0.0
TTFW:1.4
DFPT:2.0
DFPAP:3.0
DFPMP:50.0
RIGHT_WINDOW_BORDER_X:295.0
level,win/fail,% travelled,run time,game ticks,planning time,total plannings,nodes evaluated,most backtracked nodes
ore-1,true,1.00,1430,425,1422,380,81460,0
ore-2,false,0.70,2887,314,2884,314,154304,0
ore-3,true,1.00,1538,422,1530,386,90624,0
ore-4,true,1.00,2372,474,2359,436,131450,0
ore-5,true,1.00,1709,392,1705,353,97887,0
ore-6,true,1.00,1643,472,1632,433,93943,0
ore-7,true,1.00,2401,463,2377,428,140093,0
ore-8,false,0.14,1276,64,1274,64,61501,0
ore-9,true,1.00,1162,395,1153,351,66823,0
ore-10,true,1.00,2013,438,1998,411,112813,0
ore-11,true,1.00,1807,471,1795,425,101938,0
ore-12,false,0.46,1778,215,1774,215,93309,0
ore-13,true,1.00,1455,427,1445,376,80805,0
ore-14,true,1.00,2395,423,2382,396,137463,0
ore-15,true,1.00,1961,419,1953,392,111169,0
ore-16,true,1.00,3916,476,3907,446,191025,0
ore-17,true,1.00,2154,543,2146,496,123405,0
ore-18,true,1.00,1510,483,1492,440,82719,0
ore-19,true,1.00,1407,417,1400,388,80713,0
ore-20,true,1.00,2399,452,2396,416,139140,0
ore-21,true,1.00,2132,519,2126,487,120791,0
ore-22,false,0.62,1848,263,1841,263,94130,0
ore-23,true,1.00,2292,443,2279,409,130891,0
ore-24,true,1.00,1889,502,1876,458,106416,0
ore-25,true,1.00,1852,471,1835,434,108209,0
ore-26,true,1.00,1738,421,1729,380,88527,0
ore-27,false,0.24,1895,139,1894,139,95328,0
ore-28,true,1.00,1824,488,1813,456,93396,0
ore-29,true,1.00,2298,435,2289,403,120585,0
ore-30,true,1.00,1392,446,1378,384,79149,0
ore-31,true,1.00,1642,466,1635,421,92326,0
ore-32,true,1.00,1904,426,1891,388,105418,0
ore-33,true,1.00,2084,510,2072,481,117914,0
ore-34,true,1.00,2077,493,2067,456,117464,0
ore-35,true,1.00,1907,387,1901,358,111980,0
ore-36,true,1.00,1750,411,1745,373,100648,0
ore-37,false,0.34,1427,122,1427,122,70955,0
ore-38,true,1.00,1376,404,1368,361,78541,0
ore-39,true,1.00,2806,468,2792,419,163701,0
ore-40,true,1.00,2432,424,2420,391,136346,0
ore-41,true,1.00,1517,439,1507,383,88332,0
ore-42,true,1.00,3675,483,3666,445,203511,0
ore-43,true,1.00,3141,451,3131,424,168731,0
ore-44,true,1.00,2116,426,2107,369,124927,0
ore-45,false,0.74,24186,999,24184,999,902574,0
ore-46,false,0.13,808,48,806,48,41266,0
ore-47,false,0.85,4052,466,4048,466,225481,0
ore-48,true,1.00,3073,499,3055,471,174876,0
ore-49,true,1.00,1512,444,1497,388,87735,0
ore-50,true,1.00,3278,464,3268,435,192939,0
ore-51,true,1.00,2564,453,2550,407,141218,0
ore-52,true,1.00,1890,436,1877,403,104620,0
ore-53,true,1.00,1789,450,1776,405,101978,0
ore-54,false,0.72,2701,336,2694,336,143939,0
ore-55,true,1.00,1721,427,1713,387,102833,0
ore-56,true,1.00,1576,392,1567,351,90354,0
ore-57,true,1.00,2265,455,2252,406,132623,0
ore-58,true,1.00,1850,441,1839,414,105693,0
ore-59,true,1.00,2496,492,2489,460,148160,0
ore-60,true,1.00,2219,403,2209,370,124007,0
ore-61,true,1.00,2299,418,2292,380,129866,0
ore-62,true,1.00,3065,420,3060,393,160075,0
ore-63,false,0.32,1895,155,1892,155,92158,0
ore-64,true,1.00,1217,421,1210,392,68943,0
ore-65,true,1.00,2122,467,2110,430,121628,0
ore-66,true,1.00,2412,432,2405,382,137108,0
ore-67,true,1.00,1938,418,1930,381,111823,0
ore-68,true,1.00,1337,411,1324,374,74030,0
ore-69,true,1.00,3389,531,3383,488,183877,0
ore-70,false,0.96,3225,422,3220,422,174765,0
ore-71,true,1.00,1542,404,1528,376,89724,0
ore-72,true,1.00,1774,424,1767,397,103225,0
ore-73,true,1.00,2181,445,2172,404,123980,0
ore-74,true,1.00,3380,479,3366,434,175031,0
ore-75,true,1.00,2084,472,2074,443,121071,0
ore-76,true,1.00,1934,425,1923,392,111528,0
ore-77,true,1.00,1746,424,1735,382,103332,0
ore-78,true,1.00,2346,463,2335,425,137146,0
ore-79,true,1.00,2053,422,2046,395,120077,0
ore-80,true,1.00,1907,405,1899,370,111504,0
ore-81,true,1.00,2051,459,2042,420,117770,0
ore-82,true,1.00,2093,415,2085,381,122442,0
ore-83,true,1.00,1535,431,1525,404,87102,0
ore-84,true,1.00,4529,476,4518,447,219017,0
ore-85,true,1.00,1826,424,1813,388,105671,0
ore-86,false,0.61,2595,311,2587,311,143278,0
ore-87,true,1.00,1436,409,1421,374,81227,0
ore-88,true,1.00,2182,442,2171,407,125229,0
ore-89,true,1.00,2107,423,2102,396,112795,0
ore-90,true,1.00,2498,470,2489,435,147483,0
ore-91,true,1.00,2098,410,2089,365,120066,0
ore-92,true,1.00,1651,463,1647,434,92352,0
ore-93,false,0.14,1706,76,1705,76,81054,0
ore-94,true,1.00,2393,480,2382,431,137275,0
ore-95,true,1.00,2591,481,2583,435,145916,0
ore-96,true,1.00,3263,527,3247,500,184098,0
ore-97,false,0.78,2809,366,2806,366,147259,0
ore-98,true,1.00,2007,431,1994,405,118326,0
ore-99,true,1.00,2881,519,2871,481,159095,0
ore-100,true,1.00,2357,470,2344,442,139095,0
