NDW:0.0
TTFW:0.6
DFPT:2.0
DFPAP:3.0
DFPMP:20.0
RIGHT_WINDOW_BORDER_X:176.0
level,win/fail,% travelled,run time,game ticks,planning time,total plannings,nodes evaluated,most backtracked nodes
hopper-1,true,1.00,1320,315,1308,299,52690,0
hopper-2,true,1.00,1482,325,1471,309,54058,0
hopper-3,false,0.25,557,87,554,87,26921,0
hopper-4,false,0.26,2307,144,2306,144,108922,0
hopper-5,true,1.00,1039,317,1032,301,54092,0
hopper-6,true,1.00,1108,313,1096,297,58063,0
hopper-7,false,0.84,1275,265,1271,265,63047,0
hopper-8,false,0.42,878,147,878,147,43201,0
hopper-9,true,1.00,1111,317,1098,302,58100,0
hopper-10,true,1.00,888,303,880,287,48107,0
hopper-11,true,1.00,866,311,862,295,45112,0
hopper-12,true,1.00,1030,311,1025,295,54673,0
hopper-13,false,0.40,2578,182,2577,182,118171,0
hopper-14,true,1.00,1035,313,1031,296,54756,0
hopper-15,true,1.00,1117,317,1109,301,58451,0
hopper-16,false,0.55,945,178,942,178,46104,0
hopper-17,true,1.00,840,301,837,285,42819,0
hopper-18,true,1.00,1072,307,1062,291,54885,0
hopper-19,true,1.00,1363,332,1355,316,75087,0
hopper-20,true,1.00,1273,309,1263,293,52259,0
hopper-21,false,0.62,1182,204,1171,204,36347,0
hopper-22,false,0.33,700,112,698,112,32430,0
hopper-23,true,1.00,1141,313,1135,297,60685,0
hopper-24,true,1.00,664,305,657,289,35932,0
hopper-25,true,1.00,941,307,932,291,52516,0
hopper-26,true,1.00,1195,311,1190,295,62686,0
hopper-27,true,1.00,1136,319,1128,303,61439,0
hopper-28,false,0.85,2863,311,2857,311,151628,0
hopper-29,false,0.26,558,91,554,91,27754,0
hopper-30,true,1.00,1724,345,1712,324,92314,0
hopper-31,false,0.77,2885,292,2881,292,140193,0
hopper-32,true,1.00,1550,331,1541,315,85286,0
hopper-33,false,0.50,720,159,714,159,36978,0
hopper-34,false,0.31,1274,121,1271,121,60547,0
hopper-35,true,1.00,1547,327,1539,311,85266,0
hopper-36,true,1.00,965,309,957,293,50993,0
hopper-37,false,0.51,719,171,716,171,36499,0
hopper-38,false,0.52,3157,243,3152,243,149053,0
hopper-39,false,0.52,1222,181,1215,181,36478,0
hopper-40,true,1.00,981,310,974,291,44108,0
hopper-41,true,1.00,2239,331,2226,315,109648,0
hopper-42,true,1.00,1167,315,1145,299,32344,0
hopper-43,false,0.45,2823,201,2820,201,110159,0
hopper-44,true,1.00,1243,319,1237,303,66439,0
hopper-45,false,0.42,1135,151,1133,151,56478,0
hopper-46,false,0.66,2665,273,2659,273,128969,0
hopper-47,true,1.00,1685,323,1677,307,90262,0
hopper-48,true,1.00,1290,313,1286,297,66217,0
hopper-49,true,1.00,1405,321,1401,305,74157,0
hopper-50,false,0.62,3073,263,3068,263,139888,0
hopper-51,false,0.34,695,115,693,115,33347,0
hopper-52,true,1.00,810,312,805,296,42626,0
hopper-53,false,0.64,1609,234,1602,234,79569,0
hopper-54,true,1.00,632,300,625,282,33091,0
hopper-55,true,1.00,866,311,856,295,46183,0
hopper-56,true,1.00,769,301,765,285,41032,0
hopper-57,true,1.00,1097,309,1091,293,44467,0
hopper-58,false,0.58,1132,183,1128,183,35328,0
hopper-59,true,1.00,1978,345,1972,329,106166,0
hopper-60,true,1.00,1134,327,1127,311,61799,0
hopper-61,true,1.00,1372,335,1364,319,73593,0
hopper-62,true,1.00,1472,336,1461,320,78227,0
hopper-63,false,0.23,624,80,623,80,28930,0
hopper-64,true,1.00,1418,339,1412,323,74516,0
hopper-65,true,1.00,1131,309,1122,293,60556,0
hopper-66,true,1.00,1040,343,1029,327,56949,0
hopper-67,true,1.00,897,305,888,289,48004,0
hopper-68,true,1.00,681,303,674,287,35294,0
hopper-69,false,0.84,1418,274,1416,274,72246,0
hopper-70,true,1.00,1385,325,1379,309,74031,0
hopper-71,true,1.00,700,305,692,289,36930,0
hopper-72,true,1.00,2821,364,2814,348,152471,0
hopper-73,true,1.00,1242,319,1238,303,65434,0
hopper-74,true,1.00,796,311,791,295,40699,0
hopper-75,true,1.00,1240,321,1228,305,65638,0
hopper-76,true,1.00,1366,339,1362,323,73093,0
hopper-77,true,1.00,965,311,955,295,50687,0
hopper-78,true,1.00,1250,309,1242,293,68531,0
hopper-79,true,1.00,851,314,845,296,44983,0
hopper-80,true,1.00,876,309,868,293,45538,0
hopper-81,false,0.39,961,136,958,136,48036,0
hopper-82,false,0.46,1068,155,1066,155,53864,0
hopper-83,true,1.00,1485,327,1481,311,79240,0
hopper-84,true,1.00,1489,327,1480,311,79247,0
hopper-85,true,1.00,1237,358,1231,342,65597,0
hopper-86,true,1.00,1216,336,1207,320,65906,0
hopper-87,true,1.00,1210,327,1204,311,62146,0
hopper-88,true,1.00,955,325,950,309,51171,0
hopper-89,true,1.00,1001,315,995,299,52617,0
hopper-90,true,1.00,910,301,900,285,47761,0
hopper-91,true,1.00,1431,337,1425,321,77063,0
hopper-92,true,1.00,1716,341,1712,325,87697,0
hopper-93,true,1.00,821,317,809,301,43154,0
hopper-94,true,1.00,1277,333,1269,317,67946,0
hopper-95,true,1.00,957,299,947,283,49610,0
hopper-96,true,1.00,1477,310,1469,294,78978,0
hopper-97,true,1.00,1517,326,1511,310,76888,0
hopper-98,true,1.00,1631,335,1624,319,79737,0
hopper-99,false,0.72,2312,262,2306,262,118853,0
hopper-100,true,1.00,1355,325,1350,308,71855,0
