NDW:0.0
TTFW:0.4
DFPT:2.0
DFPAP:3.0
DFPMP:10.0
RIGHT_WINDOW_BORDER_X:275.0
level,win/fail,% travelled,run time,game ticks,planning time,total plannings,nodes evaluated,most backtracked nodes
patternOccur-1,true,1.00,1528,374,1526,349,115036,0
patternOccur-2,true,1.00,1588,407,1586,382,113822,0
patternOccur-3,true,1.00,1835,389,1832,364,135935,0
patternOccur-4,true,1.00,1766,367,1764,342,131786,0
patternOccur-5,true,1.00,1405,388,1402,363,100275,0
patternOccur-6,true,1.00,2497,454,2493,429,177275,0
patternOccur-7,true,1.00,2027,406,2025,378,149660,0
patternOccur-8,true,1.00,1917,370,1913,345,143649,0
patternOccur-9,true,1.00,2657,409,2649,384,191694,0
patternOccur-10,true,1.00,1338,360,1332,335,101437,0
patternOccur-11,true,1.00,4215,480,4215,437,314991,0
patternOccur-12,true,1.00,2667,427,2662,401,180815,0
patternOccur-13,true,1.00,1558,398,1556,373,110793,0
patternOccur-14,true,1.00,4507,414,4504,382,345197,0
patternOccur-15,true,1.00,1843,374,1839,349,135606,0
patternOccur-16,true,1.00,3813,430,3810,398,292202,0
patternOccur-17,true,1.00,2025,380,2023,355,143648,0
patternOccur-18,true,1.00,1566,346,1565,321,116521,0
patternOccur-19,true,1.00,7248,535,7245,503,520891,0
patternOccur-20,true,1.00,1544,391,1542,366,117984,0
patternOccur-21,true,1.00,1917,414,1913,388,138857,0
patternOccur-22,true,1.00,3778,412,3775,378,294871,0
patternOccur-23,true,1.00,2935,433,2932,408,205424,0
patternOccur-24,true,1.00,1995,436,1991,411,140439,0
patternOccur-25,true,1.00,2467,433,2464,408,181101,0
patternOccur-26,true,1.00,1358,364,1356,339,99975,0
patternOccur-27,true,1.00,3992,449,3988,412,292370,0
patternOccur-28,true,1.00,1898,402,1897,377,137199,0
patternOccur-29,true,1.00,1612,383,1608,354,117650,0
patternOccur-30,true,1.00,1321,382,1319,357,98121,0
patternOccur-31,true,1.00,4703,424,4703,396,372606,0
patternOccur-32,true,1.00,2495,359,2493,327,198798,0
patternOccur-33,true,1.00,1303,379,1301,354,99638,0
patternOccur-34,true,1.00,1870,391,1867,366,143988,0
patternOccur-35,true,1.00,2578,462,2574,437,182857,0
patternOccur-36,true,1.00,2904,424,2901,398,227253,0
patternOccur-37,true,1.00,4640,463,4638,429,339775,0
patternOccur-38,true,1.00,1604,388,1599,363,120280,0
patternOccur-39,true,1.00,3846,432,3843,407,274670,0
patternOccur-40,true,1.00,1908,384,1907,359,145953,0
patternOccur-41,true,1.00,2153,418,2152,393,155705,0
patternOccur-42,false,0.89,4892,482,4890,482,347710,0
patternOccur-43,true,1.00,1487,380,1485,355,114094,0
patternOccur-44,true,1.00,1486,360,1486,335,116415,0
patternOccur-45,true,1.00,2280,373,2278,336,178158,0
patternOccur-46,true,1.00,1375,382,1373,357,100506,0
patternOccur-47,true,1.00,4814,507,4811,469,364258,0
patternOccur-48,true,1.00,2518,416,2512,391,183897,0
patternOccur-49,true,1.00,1398,347,1395,322,106959,0
patternOccur-50,true,1.00,2194,396,2192,371,162679,0
patternOccur-51,true,1.00,2361,419,2360,393,179068,0
patternOccur-52,true,1.00,1783,406,1782,372,130657,0
patternOccur-53,true,1.00,1673,366,1672,341,127244,0
patternOccur-54,true,1.00,2784,406,2783,381,209708,0
patternOccur-55,true,1.00,2929,466,2924,441,215218,0
patternOccur-56,true,1.00,1963,416,1961,391,140513,0
patternOccur-57,true,1.00,2609,461,2604,435,191255,0
patternOccur-58,true,1.00,6010,485,6008,447,454434,0
patternOccur-59,true,1.00,1926,400,1923,375,144848,0
patternOccur-60,true,1.00,2559,371,2558,346,195292,0
patternOccur-61,true,1.00,1638,357,1631,332,129493,0
patternOccur-62,true,1.00,1852,375,1848,350,139497,0
patternOccur-63,true,1.00,1590,372,1589,347,120333,0
patternOccur-64,true,1.00,2423,396,2422,364,177557,0
patternOccur-65,true,1.00,1496,388,1495,363,110631,0
patternOccur-66,true,1.00,1944,415,1941,390,146262,0
patternOccur-67,true,1.00,1865,395,1862,370,141940,0
patternOccur-68,true,1.00,1643,409,1636,384,118260,0
patternOccur-69,true,1.00,4893,485,4888,459,366787,0
patternOccur-70,true,1.00,4970,447,4969,422,368429,0
patternOccur-71,true,1.00,2664,428,2661,402,197256,0
patternOccur-72,false,0.87,3182,389,3178,389,231413,0
patternOccur-73,true,1.00,3331,423,3329,367,256870,0
patternOccur-74,true,1.00,3889,423,3886,381,294794,0
patternOccur-75,true,1.00,2387,443,2385,416,179523,0
patternOccur-76,true,1.00,1443,352,1442,327,116668,0
patternOccur-77,true,1.00,1507,385,1506,360,110119,0
patternOccur-78,true,1.00,1306,334,1304,309,97102,0
patternOccur-79,true,1.00,1724,372,1720,347,133166,0
patternOccur-80,true,1.00,3081,427,3077,390,225282,0
patternOccur-81,true,1.00,4076,436,4073,411,317385,0
patternOccur-82,true,1.00,2362,395,2357,363,172742,0
patternOccur-83,true,1.00,1511,426,1508,401,109663,0
patternOccur-84,true,1.00,1174,345,1171,320,93639,0
patternOccur-85,false,0.93,1941,351,1938,351,151709,0
patternOccur-86,true,1.00,5164,475,5159,442,372370,0
patternOccur-87,true,1.00,1200,395,1198,370,89401,0
patternOccur-88,true,1.00,1971,401,1968,376,150602,0
patternOccur-89,true,1.00,1968,420,1965,395,149782,0
patternOccur-90,true,1.00,2018,398,2014,372,156856,0
patternOccur-91,true,1.00,1377,371,1377,346,107397,0
patternOccur-92,true,1.00,1248,354,1244,329,94337,0
patternOccur-93,true,1.00,1718,406,1714,380,127156,0
patternOccur-94,true,1.00,3378,388,3376,357,267553,0
patternOccur-95,true,1.00,1387,378,1385,353,106327,0
patternOccur-96,false,0.87,2395,387,2391,387,174407,0
patternOccur-97,true,1.00,1473,373,1470,348,115803,0
patternOccur-98,false,0.90,2749,362,2747,362,208679,0
patternOccur-99,true,1.00,875,361,874,336,66791,0
patternOccur-100,true,1.00,1983,390,1982,365,144721,0
