NDW:0.0
TTFW:0.2
DFPT:2.0
DFPAP:3.0
DFPMP:20.0
RIGHT_WINDOW_BORDER_X:55.0
level,win/fail,% travelled,run time,game ticks,planning time,total plannings,nodes evaluated,most backtracked nodes
Mario-1,true,1.00,1428,818,1421,810,143587,0
Mario-2,true,1.00,3532,809,3526,797,321546,0
Mario-3,false,0.34,4097,381,4096,381,391627,0
Mario-4,true,1.00,2890,922,2885,912,298039,0
Mario-5,true,1.00,6174,1009,6172,1004,581631,0
Mario-6,false,0.57,5697,496,5696,496,537646,0
Mario-7,false,0.33,3177,399,3175,399,259368,0
Mario-8,true,1.00,3224,806,3219,799,307601,0
Mario-9,true,1.00,3131,890,3126,883,294724,0
Mario-10,false,0.25,1777,233,1775,233,174416,0
Mario-11,true,1.00,5713,910,5705,903,551812,0
Mario-12,false,0.57,2181,661,2179,661,200736,0
Mario-13,false,0.31,2791,368,2790,368,266927,0
Mario-14,true,1.00,619,704,615,693,71171,0
Mario-15,false,0.58,3966,1045,3964,1045,351714,0
