NDW:0.0
TTFW:0.2
DFPT:2.0
DFPAP:3.0
DFPMP:50.0
RIGHT_WINDOW_BORDER_X:55.0
level,win/fail,% travelled,run time,game ticks,planning time,total plannings,nodes evaluated,most backtracked nodes
notchParam-1,false,0.36,3160,400,3159,400,278247,0
notchParam-2,false,0.36,3964,365,3964,365,386695,0
notchParam-3,true,1.00,6420,996,6417,989,589747,0
notchParam-4,true,1.00,4919,865,4912,855,438826,0
notchParam-5,false,0.97,8602,999,8598,999,750195,0
notchParam-6,false,0.93,8306,999,8297,999,753341,0
notchParam-7,false,0.36,3780,367,3778,367,370928,0
notchParam-8,false,0.57,6285,635,6283,635,588930,0
notchParam-9,true,1.00,5885,982,5879,975,553282,0
notchParam-10,false,0.17,27325,999,27325,999,2153530,0
notchParam-11,false,0.94,6584,999,6580,999,580581,0
notchParam-12,false,0.18,2248,234,2246,234,201286,0
notchParam-13,true,1.00,1868,753,1865,740,179797,0
notchParam-14,true,1.00,2263,794,2258,787,212106,0
notchParam-15,false,0.36,2019,340,2018,340,174984,0
notchParam-16,false,0.37,4003,400,4002,400,365754,0
notchParam-17,false,0.36,3474,356,3473,356,313980,0
notchParam-18,true,1.00,2244,730,2238,722,220539,0
notchParam-19,true,1.00,2782,687,2781,680,264970,0
notchParam-20,true,1.00,2166,794,2164,781,202959,0
notchParam-21,true,1.00,2490,733,2488,726,212040,0
notchParam-22,false,0.67,1505,546,1500,546,149197,0
notchParam-23,false,0.44,8298,540,8298,540,807849,0
notchParam-24,false,0.18,2469,245,2466,245,239784,0
notchParam-25,false,0.31,9013,562,9013,562,747743,0
notchParam-26,false,0.32,2634,304,2632,304,236581,0
notchParam-27,true,1.00,1566,737,1561,730,161600,0
notchParam-28,true,1.00,6214,970,6209,960,572289,0
notchParam-29,false,0.97,8018,999,8014,999,714333,0
notchParam-30,true,1.00,1420,736,1418,729,140322,0
notchParam-31,false,0.36,2594,387,2593,387,233037,0
notchParam-32,false,0.36,3475,356,3473,356,317910,0
notchParam-33,false,0.67,3290,615,3287,615,297279,0
notchParam-34,false,0.36,1768,356,1765,356,156921,0
notchParam-35,false,0.35,24496,999,24494,999,2243460,0
notchParam-36,false,0.36,3471,358,3471,358,316349,0
notchParam-37,true,1.00,2648,772,2642,765,234846,0
notchParam-38,true,1.00,2584,765,2584,758,250959,0
notchParam-39,false,0.37,1766,308,1765,308,173281,0
notchParam-40,true,1.00,5105,994,5092,987,454757,0
notchParam-41,true,1.00,5186,947,5183,940,477887,0
notchParam-42,true,1.00,810,729,806,722,92504,0
notchParam-43,false,0.30,24426,999,24422,999,2097260,0
notchParam-44,false,0.17,26968,999,26967,999,2400500,0
notchParam-45,false,0.31,3636,327,3636,327,321937,0
notchParam-46,false,0.44,9073,557,9071,557,758789,0
notchParam-47,true,1.00,1265,623,1265,618,123939,0
notchParam-48,true,1.00,2095,747,2092,739,213672,0
notchParam-49,true,1.00,1800,768,1798,761,176656,0
notchParam-50,true,1.00,1930,781,1924,774,183443,0
notchParam-51,true,1.00,3256,801,3253,794,294089,0
notchParam-52,false,0.36,2884,367,2882,367,278190,0
notchParam-53,false,0.37,1826,365,1824,365,169994,0
notchParam-54,false,0.36,4031,399,4027,399,369022,0
notchParam-55,true,1.00,2139,760,2135,753,214345,0
notchParam-56,true,1.00,2165,763,2159,756,209138,0
notchParam-57,false,0.31,2711,332,2710,332,237168,0
notchParam-58,true,1.00,6034,928,6028,915,549421,0
notchParam-59,false,0.18,3768,266,3767,266,343355,0
notchParam-60,false,0.95,8709,999,8708,999,720895,0
notchParam-61,false,0.19,2198,228,2198,228,189908,0
notchParam-62,false,0.36,4221,406,4219,406,321801,0
notchParam-63,false,0.18,1121,200,1120,200,91560,0
notchParam-64,false,0.88,7231,999,7225,999,602024,0
notchParam-65,true,1.00,6984,984,6979,979,615708,0
notchParam-66,false,0.82,10411,997,10408,997,955867,0
notchParam-67,false,0.36,3595,365,3593,365,353340,0
notchParam-68,false,0.36,3939,391,3938,391,347984,0
notchParam-69,false,0.35,23612,999,23611,999,1881436,0
notchParam-70,false,0.36,4019,396,4018,396,372706,0
notchParam-71,true,1.00,7420,883,7415,876,705861,0
notchParam-72,true,1.00,5324,821,5321,813,501173,0
notchParam-73,true,1.00,5790,982,5787,975,525489,0
notchParam-74,true,1.00,6360,957,6358,950,565099,0
notchParam-75,true,1.00,5371,950,5367,943,511753,0
notchParam-76,false,0.31,4086,422,4086,422,380089,0
notchParam-77,true,1.00,7597,979,7593,966,704518,0
notchParam-78,false,0.43,22037,999,22035,999,1942987,0
notchParam-79,false,0.99,7057,999,7050,999,659934,0
notchParam-80,true,1.00,1574,719,1570,712,164447,0
notchParam-81,true,1.00,5649,936,5647,929,530541,0
notchParam-82,true,1.00,2409,758,2406,745,233232,0
notchParam-83,true,1.00,2054,761,2050,754,212056,0
notchParam-84,false,0.37,1311,315,1309,315,121953,0
notchParam-85,false,0.36,3956,365,3956,365,388885,0
notchParam-86,false,0.14,199,130,199,130,20353,0
notchParam-87,true,1.00,1570,748,1567,741,153967,0
notchParam-88,true,1.00,1989,732,1984,724,198472,0
notchParam-89,true,1.00,1844,737,1843,727,180437,0
notchParam-90,true,1.00,2430,774,2425,767,237387,0
notchParam-91,false,0.43,9443,610,9440,610,776132,0
notchParam-92,false,0.18,1010,194,1009,194,93201,0
notchParam-93,false,0.19,2120,225,2120,225,186021,0
notchParam-94,false,0.31,1996,334,1993,334,184156,0
notchParam-95,false,0.18,2901,232,2901,232,286337,0
notchParam-96,true,1.00,5386,959,5383,947,501631,0
notchParam-97,true,1.00,6753,816,6749,811,595313,0
notchParam-98,true,1.00,2248,806,2246,799,212132,0
notchParam-99,false,0.35,24423,999,24423,999,2257753,0
notchParam-100,false,0.37,1791,338,1789,338,164892,0
