NDW:0.0
TTFW:2.0
DFPT:2.0
DFPAP:3.0
DFPMP:3.0
RIGHT_WINDOW_BORDER_X:135.0
level,win/fail,% travelled,run time,game ticks,planning time,total plannings,nodes evaluated,most backtracked nodes
ge-1,true,1.00,566,255,558,230,28423,0
ge-2,true,1.00,506,223,502,211,25482,0
ge-3,true,1.00,338,242,326,228,16637,0
ge-4,true,1.00,1051,251,1047,238,52588,0
ge-5,true,1.00,79,199,79,187,3632,0
ge-6,true,1.00,374,245,370,232,18272,0
ge-7,true,1.00,186,246,172,234,8955,0
ge-8,true,1.00,228,225,223,213,11208,0
ge-9,true,1.00,527,229,522,217,26922,0
ge-10,true,1.00,69,199,63,187,3197,0
ge-11,true,1.00,156,215,152,203,7609,0
ge-12,true,1.00,76,199,70,187,3521,0
ge-13,true,1.00,364,270,357,257,17893,0
ge-14,true,1.00,318,247,312,230,15845,0
ge-15,true,1.00,591,225,586,213,29781,0
ge-16,true,1.00,359,324,344,312,16962,0
ge-17,true,1.00,310,219,301,206,16121,0
ge-18,true,1.00,608,289,597,277,30147,0
ge-19,true,1.00,555,283,545,266,27148,0
ge-20,true,1.00,387,221,377,209,19278,0
ge-21,true,1.00,233,201,229,189,11537,0
ge-22,true,1.00,390,206,385,194,19480,0
ge-23,true,1.00,642,207,639,195,32213,0
ge-24,true,1.00,511,238,505,223,26057,0
ge-25,true,1.00,355,205,349,193,18441,0
ge-26,true,1.00,327,213,322,201,17383,0
ge-27,true,1.00,93,216,86,204,4476,0
ge-28,true,1.00,536,221,526,209,26585,0
ge-29,true,1.00,324,228,319,193,16494,0
ge-30,true,1.00,1354,277,1344,265,70221,0
ge-31,true,1.00,721,252,712,240,35852,0
ge-32,true,1.00,196,250,192,238,8993,0
ge-33,true,1.00,159,231,151,203,7441,0
ge-34,true,1.00,706,214,695,201,35369,0
ge-35,true,1.00,908,298,896,286,44935,0
ge-36,false,1.00,1026,281,1020,261,51342,0
ge-37,true,1.00,302,200,291,188,14562,0
ge-38,true,1.00,734,237,727,225,38349,0
ge-39,true,1.00,270,222,264,210,13373,0
ge-40,true,1.00,81,199,79,187,3747,0
ge-41,true,1.00,248,207,244,195,12540,0
ge-42,true,1.00,665,259,652,247,32575,0
ge-43,true,1.00,380,259,374,246,18696,0
ge-44,true,1.00,738,240,732,224,36421,0
ge-45,true,1.00,430,224,425,212,21608,0
ge-46,true,1.00,699,259,693,247,35336,0
ge-47,true,1.00,779,252,773,240,39746,0
ge-48,true,1.00,367,263,360,251,18201,0
ge-49,true,1.00,182,200,177,188,8948,0
ge-50,true,1.00,580,216,575,204,29212,0
ge-51,true,1.00,175,225,167,213,8264,0
ge-52,true,1.00,406,294,395,279,19659,0
ge-53,true,1.00,293,215,286,203,14275,0
ge-54,true,1.00,340,240,333,228,17623,0
ge-55,true,1.00,318,243,309,231,15711,0
ge-56,true,1.00,578,262,570,236,28610,0
ge-57,true,1.00,988,228,982,215,51248,0
ge-58,true,1.00,230,281,218,269,10545,0
ge-59,true,1.00,813,219,801,207,42120,0
ge-60,true,1.00,954,217,948,205,48386,0
ge-61,true,1.00,288,203,281,191,14446,0
ge-62,true,1.00,462,211,456,199,23555,0
ge-63,true,1.00,1263,242,1258,230,63813,0
ge-64,true,1.00,389,264,380,236,19048,0
ge-65,true,1.00,1214,255,1207,238,61697,0
ge-66,true,1.00,622,228,612,214,32440,0
ge-67,true,1.00,283,271,277,259,13375,0
ge-68,true,1.00,209,249,205,237,9840,0
ge-69,true,1.00,258,216,252,204,12725,0
ge-70,true,1.00,428,220,424,208,21712,0
ge-71,true,1.00,953,236,947,224,49197,0
ge-72,true,1.00,218,258,208,246,10430,0
ge-73,true,1.00,485,208,477,194,24995,0
ge-74,true,1.00,712,248,704,236,32922,0
ge-75,true,1.00,277,246,271,214,13026,0
ge-76,true,1.00,1187,237,1179,225,58337,0
ge-77,true,1.00,1269,238,1261,226,64929,0
ge-78,true,1.00,633,249,628,236,30863,0
ge-79,true,1.00,200,215,192,203,9554,0
ge-80,true,1.00,122,263,115,250,5209,0
ge-81,true,1.00,124,239,115,227,5565,0
ge-82,true,1.00,133,261,122,230,5786,0
ge-83,false,1.00,644,277,638,254,31978,0
ge-84,true,1.00,664,209,660,197,34453,0
ge-85,true,1.00,288,203,283,191,14828,0
ge-86,true,1.00,1138,222,1133,209,57437,0
ge-87,true,1.00,619,243,611,231,30588,0
ge-88,true,1.00,500,252,496,237,23300,0
ge-89,true,1.00,274,297,263,285,12107,0
ge-90,true,1.00,88,199,82,187,3691,0
ge-91,true,1.00,298,204,291,192,14779,0
ge-92,true,1.00,95,205,88,193,4360,0
ge-93,true,1.00,579,209,575,197,29822,0
ge-94,true,1.00,395,206,386,194,20372,0
ge-95,true,1.00,193,315,182,303,8187,0
ge-96,true,1.00,635,254,629,236,33006,0
ge-97,true,1.00,687,253,680,241,33654,0
ge-98,true,1.00,83,199,74,187,3665,0
ge-99,true,1.00,186,205,178,193,9159,0
ge-100,true,1.00,319,207,309,195,15304,0
