NDW:0.0
TTFW:0.2
DFPT:2.0
DFPAP:3.0
DFPMP:10.0
RIGHT_WINDOW_BORDER_X:55.0
level,win/fail,% travelled,run time,game ticks,planning time,total plannings,nodes evaluated,most backtracked nodes
notchParam-1,false,0.36,3862,439,3862,439,339149,0
notchParam-2,false,0.36,3964,365,3963,365,386782,0
notchParam-3,true,1.00,6418,996,6415,989,593284,0
notchParam-4,true,1.00,4914,865,4913,855,439243,0
notchParam-5,false,0.97,8601,999,8599,999,750518,0
notchParam-6,false,0.93,8309,999,8304,999,754270,0
notchParam-7,false,0.36,3782,367,3781,367,371098,0
notchParam-8,false,0.57,6285,635,6283,635,590296,0
notchParam-9,true,1.00,5884,982,5878,975,554340,0
notchParam-10,false,0.17,27328,999,27325,999,2174777,0
notchParam-11,false,0.94,6579,999,6576,999,581638,0
notchParam-12,false,0.19,1175,194,1172,194,110081,0
notchParam-13,true,1.00,1865,753,1857,740,180249,0
notchParam-14,true,1.00,2261,794,2257,787,212238,0
notchParam-15,false,0.36,2019,340,2018,340,178042,0
notchParam-16,false,0.36,2927,344,2924,344,283135,0
notchParam-17,false,0.36,3475,356,3475,356,315802,0
notchParam-18,true,1.00,2242,730,2239,722,221190,0
notchParam-19,true,1.00,2780,687,2778,680,265180,0
notchParam-20,true,1.00,2164,794,2159,781,202645,0
notchParam-21,true,1.00,2489,733,2487,726,212724,0
notchParam-22,false,0.67,1504,546,1500,546,150262,0
notchParam-23,false,0.44,8292,540,8290,540,809214,0
notchParam-24,false,0.18,2468,245,2467,245,238326,0
notchParam-25,false,0.31,9014,562,9014,562,743975,0
notchParam-26,false,0.44,5409,468,5407,468,484852,0
notchParam-27,true,1.00,1567,737,1564,730,161254,0
notchParam-28,true,1.00,6222,970,6219,960,561088,0
notchParam-29,false,0.97,8020,999,8015,999,712633,0
notchParam-30,true,1.00,1427,736,1419,729,140194,0
notchParam-31,false,0.36,2595,387,2592,387,231269,0
notchParam-32,false,0.36,3477,356,3474,356,316055,0
notchParam-33,false,0.67,3290,615,3287,615,296034,0
notchParam-34,false,0.36,1768,356,1768,356,159024,0
notchParam-35,false,0.35,24491,999,24491,999,2251759,0
notchParam-36,false,0.36,3472,358,3471,358,315258,0
notchParam-37,true,1.00,2649,772,2647,765,234588,0
notchParam-38,true,1.00,2583,765,2574,758,250509,0
notchParam-39,false,0.37,1766,308,1764,308,174321,0
notchParam-40,true,1.00,5106,994,5099,987,456409,0
notchParam-41,true,1.00,5185,947,5182,940,478916,0
notchParam-42,true,1.00,810,729,808,722,92740,0
notchParam-43,false,0.30,24427,999,24426,999,2091409,0
notchParam-44,false,0.17,26965,999,26964,999,2408473,0
notchParam-45,false,0.31,3635,327,3634,327,322919,0
notchParam-46,false,0.44,9073,557,9070,557,759891,0
notchParam-47,true,1.00,1263,623,1260,618,124418,0
notchParam-48,true,1.00,2092,747,2090,739,214541,0
notchParam-49,true,1.00,1800,768,1795,761,177188,0
notchParam-50,true,1.00,1930,781,1927,774,183571,0
notchParam-51,true,1.00,3260,801,3256,794,299965,0
notchParam-52,false,0.36,3127,363,3126,363,301692,0
notchParam-53,false,0.37,1827,365,1825,365,170672,0
notchParam-54,false,0.36,4029,399,4028,399,369717,0
notchParam-55,true,1.00,2138,760,2134,753,214671,0
notchParam-56,true,1.00,2167,763,2160,756,209103,0
notchParam-57,false,0.31,2713,332,2711,332,237353,0
notchParam-58,true,1.00,6033,928,6025,915,550905,0
notchParam-59,false,0.18,3768,266,3767,266,365787,0
notchParam-60,false,0.45,5486,556,5483,556,490708,0
notchParam-61,false,0.19,2194,228,2194,228,198819,0
notchParam-62,false,0.36,4199,406,4197,406,341539,0
notchParam-63,false,0.18,1112,200,1111,200,99757,0
notchParam-64,false,0.88,7197,999,7191,999,634644,0
notchParam-65,false,0.97,5658,999,5654,999,529738,0
notchParam-66,false,0.82,10413,997,10406,997,954487,0
notchParam-67,false,0.36,3597,365,3597,365,352541,0
notchParam-68,false,0.36,3940,391,3940,391,346275,0
notchParam-69,false,0.35,23614,999,23614,999,1871406,0
notchParam-70,false,0.36,4017,396,4017,396,371775,0
notchParam-71,true,1.00,7419,883,7418,876,702293,0
notchParam-72,true,1.00,5329,821,5327,813,499697,0
notchParam-73,true,1.00,5795,982,5784,975,524670,0
notchParam-74,true,1.00,6363,957,6359,950,565222,0
notchParam-75,true,1.00,5374,950,5370,943,510542,0
notchParam-76,false,0.31,4086,422,4084,422,377811,0
notchParam-77,true,1.00,7603,979,7600,966,698668,0
notchParam-78,false,0.43,22042,999,22041,999,1926916,0
notchParam-79,false,0.99,7063,999,7057,999,656242,0
notchParam-80,true,1.00,1578,719,1575,712,163618,0
notchParam-81,true,1.00,5655,936,5650,929,526613,0
notchParam-82,true,1.00,2411,758,2407,745,231856,0
notchParam-83,true,1.00,2057,761,2053,754,210430,0
notchParam-84,false,0.37,1313,315,1310,315,121088,0
notchParam-85,false,0.36,3957,365,3955,365,385895,0
notchParam-86,false,0.14,200,130,197,130,20284,0
notchParam-87,true,1.00,1572,748,1570,741,153280,0
notchParam-88,true,1.00,1990,732,1985,724,197718,0
notchParam-89,true,1.00,1847,737,1841,727,180287,0
notchParam-90,true,1.00,2433,774,2431,767,236402,0
notchParam-91,false,0.43,9441,610,9438,610,772386,0
notchParam-92,false,0.18,1012,194,1010,194,92922,0
notchParam-93,false,0.19,2121,225,2119,225,185383,0
notchParam-94,false,0.31,1995,334,1995,334,183468,0
notchParam-95,false,0.18,2900,232,2898,232,285741,0
notchParam-96,true,1.00,5391,959,5388,947,500383,0
notchParam-97,true,1.00,6755,816,6753,811,593098,0
notchParam-98,true,1.00,2252,806,2249,799,211457,0
notchParam-99,false,0.35,24425,999,24424,999,2246222,0
notchParam-100,false,0.37,1791,338,1787,338,163552,0
