NDW:0.0
TTFW:1.0
DFPT:2.0
DFPAP:3.0
DFPMP:5.0
RIGHT_WINDOW_BORDER_X:35.0
level,win/fail,% travelled,run time,game ticks,planning time,total plannings,nodes evaluated,most backtracked nodes
Mario-1,true,1.00,1554,928,1550,924,147133,0
Mario-2,false,0.51,1677,349,1676,349,134364,0
Mario-3,false,0.25,2335,265,2335,265,200652,0
Mario-4,false,0.51,2494,491,2493,491,219963,0
Mario-5,false,0.20,817,231,815,231,68947,0
Mario-6,false,0.35,1001,274,998,274,110274,0
Mario-7,false,0.33,1084,347,1083,347,86362,0
Mario-8,false,0.96,4799,814,4795,814,403388,0
Mario-9,true,1.00,3262,772,3257,768,284349,0
Mario-10,false,0.24,1359,259,1359,259,122514,0
Mario-11,false,0.38,5250,498,5250,498,451488,0
Mario-12,true,1.00,464,1073,448,1069,57060,0
Mario-13,false,0.31,910,352,908,352,92503,0
Mario-14,false,0.19,10,109,10,109,1821,0
Mario-15,false,0.43,427,642,421,642,43725,0
