NDW:0.0
TTFW:0.8
DFPT:2.0
DFPAP:3.0
DFPMP:0.0
RIGHT_WINDOW_BORDER_X:255.0
level,win/fail,% travelled,run time,game ticks,planning time,total plannings,nodes evaluated,most backtracked nodes
patternCount-1,false,0.90,7338,501,7336,501,681129,0
patternCount-2,true,1.00,876,438,875,414,80398,0
patternCount-3,true,1.00,3819,513,3818,479,313152,0
patternCount-4,true,1.00,989,380,988,356,97666,0
patternCount-5,true,1.00,1112,438,1107,406,105112,0
patternCount-6,true,1.00,431,386,430,362,42972,0
patternCount-7,true,1.00,1160,429,1154,406,111600,0
patternCount-8,true,1.00,2912,506,2910,459,275522,0
patternCount-9,true,1.00,722,402,718,379,68756,0
patternCount-10,true,1.00,255,373,252,350,26247,0
patternCount-11,true,1.00,4616,467,4614,438,417833,0
patternCount-12,true,1.00,597,408,590,380,56966,0
patternCount-13,true,1.00,612,414,610,391,58440,0
patternCount-14,true,1.00,1146,384,1138,349,108146,0
patternCount-15,true,1.00,734,419,731,396,69833,0
patternCount-16,true,1.00,917,404,916,381,78706,0
patternCount-17,true,1.00,853,403,849,380,79331,0
patternCount-18,true,1.00,1056,369,1055,345,99971,0
patternCount-19,true,1.00,479,350,478,327,45203,0
patternCount-20,true,1.00,1149,409,1140,377,99704,0
patternCount-21,true,1.00,909,405,905,382,75870,0
patternCount-22,true,1.00,2963,430,2962,400,283066,0
patternCount-23,true,1.00,5112,479,5111,453,443874,0
patternCount-24,true,1.00,5228,481,5226,452,498461,0
patternCount-25,true,1.00,1108,397,1108,370,104819,0
patternCount-26,true,1.00,499,404,494,381,47618,0
patternCount-27,true,1.00,824,382,824,359,81564,0
patternCount-28,true,1.00,972,410,970,375,91963,0
patternCount-29,true,1.00,837,404,836,381,78489,0
patternCount-30,true,1.00,667,406,665,383,64634,0
patternCount-31,true,1.00,1120,424,1119,401,103434,0
patternCount-32,true,1.00,1222,437,1219,414,113644,0
patternCount-33,true,1.00,3117,467,3114,436,291793,0
patternCount-34,true,1.00,1677,473,1674,441,157861,0
patternCount-35,true,1.00,990,427,986,404,96817,0
patternCount-36,true,1.00,1982,469,1981,432,178746,0
patternCount-37,true,1.00,729,383,726,360,67792,0
patternCount-38,true,1.00,2781,476,2779,452,252519,0
patternCount-39,true,1.00,949,425,944,397,89515,0
patternCount-40,true,1.00,4538,461,4537,426,413778,0
patternCount-41,true,1.00,1978,463,1976,440,194948,0
patternCount-42,true,1.00,586,413,584,385,56261,0
patternCount-43,true,1.00,444,388,442,365,43179,0
patternCount-44,true,1.00,683,381,679,358,65179,0
patternCount-45,true,1.00,909,488,907,456,83138,0
patternCount-46,true,1.00,1428,424,1425,401,137443,0
patternCount-47,true,1.00,1368,445,1366,422,128670,0
patternCount-48,true,1.00,703,405,699,382,66293,0
patternCount-49,true,1.00,734,389,733,366,69386,0
patternCount-50,true,1.00,6470,542,6468,510,615048,0
patternCount-51,true,1.00,628,403,624,380,58108,0
patternCount-52,true,1.00,1004,371,1003,348,94877,0
patternCount-53,true,1.00,4850,446,4846,422,433014,0
patternCount-54,true,1.00,1448,458,1446,435,129036,0
patternCount-55,true,1.00,7469,548,7466,511,652176,0
patternCount-56,true,1.00,1098,403,1096,380,103899,0
patternCount-57,true,1.00,794,405,792,379,74666,0
patternCount-58,false,0.80,5942,440,5940,440,484597,0
patternCount-59,true,1.00,938,389,933,366,88256,0
patternCount-60,true,1.00,1092,410,1091,387,102642,0
patternCount-61,true,1.00,964,445,962,405,91260,0
patternCount-62,true,1.00,1022,411,1016,382,98139,0
patternCount-63,true,1.00,632,388,629,365,61650,0
patternCount-64,true,1.00,771,387,769,364,71925,0
patternCount-65,true,1.00,680,397,679,365,70344,0
patternCount-66,true,1.00,1184,386,1181,363,115739,0
patternCount-67,true,1.00,1348,432,1346,398,131873,0
patternCount-68,true,1.00,475,389,472,366,45971,0
patternCount-69,true,1.00,736,388,735,365,71279,0
patternCount-70,true,1.00,624,393,620,370,59608,0
patternCount-71,true,1.00,1101,447,1094,424,105531,0
patternCount-72,true,1.00,5257,445,5254,415,461277,0
patternCount-73,true,1.00,1528,455,1526,431,144000,0
patternCount-74,true,1.00,8619,558,8616,526,726519,0
patternCount-75,true,1.00,1075,433,1073,407,101388,0
patternCount-76,true,1.00,864,393,862,370,84571,0
patternCount-77,true,1.00,977,405,976,371,91661,0
patternCount-78,true,1.00,876,412,873,389,85489,0
patternCount-79,true,1.00,4180,472,4176,437,403815,0
patternCount-80,true,1.00,2171,414,2170,385,195722,0
patternCount-81,true,1.00,927,403,926,380,84977,0
patternCount-82,true,1.00,913,420,910,397,86941,0
patternCount-83,true,1.00,672,432,669,409,63701,0
patternCount-84,true,1.00,585,412,581,389,56038,0
patternCount-85,true,1.00,829,393,829,370,80867,0
patternCount-86,true,1.00,560,372,558,349,55840,0
patternCount-87,true,1.00,950,396,950,374,89371,0
patternCount-88,true,1.00,1307,446,1301,411,124464,0
patternCount-89,true,1.00,999,431,997,408,98541,0
patternCount-90,true,1.00,595,390,594,367,56330,0
patternCount-91,true,1.00,1470,480,1460,457,137829,0
patternCount-92,true,1.00,884,406,882,383,84856,0
patternCount-93,true,1.00,8216,605,8209,568,708492,0
patternCount-94,true,1.00,937,385,933,362,90144,0
patternCount-95,true,1.00,1305,433,1302,410,125351,0
patternCount-96,true,1.00,851,462,848,438,82647,0
patternCount-97,false,0.88,4817,407,4814,407,418856,0
patternCount-98,true,1.00,765,388,764,365,74041,0
patternCount-99,true,1.00,695,406,692,383,68402,0
patternCount-100,true,1.00,469,365,465,342,42889,0
