NDW:0.0
TTFW:1.6
DFPT:2.0
DFPAP:3.0
DFPMP:3.0
RIGHT_WINDOW_BORDER_X:75.0
level,win/fail,% travelled,run time,game ticks,planning time,total plannings,nodes evaluated,most backtracked nodes
hopper-1,true,1.00,4454,500,4445,494,242607,0
hopper-2,true,1.00,3892,445,3882,439,204874,0
hopper-3,false,0.24,2397,149,2396,149,120629,0
hopper-4,false,0.26,2836,171,2835,171,151804,0
hopper-5,true,1.00,5053,542,5038,535,272748,0
hopper-6,true,1.00,3559,443,3550,437,193756,0
hopper-7,false,0.83,3734,379,3725,379,187234,0
hopper-8,false,0.41,2287,208,2284,208,107323,0
hopper-9,true,1.00,6954,540,6946,534,286735,0
hopper-10,false,0.68,3086,344,3082,344,174416,0
hopper-11,true,1.00,4173,480,4167,474,235349,0
hopper-12,true,1.00,4844,514,4832,507,281953,0
hopper-13,true,1.00,3950,486,3942,479,217382,0
hopper-14,true,1.00,4609,490,4604,484,251797,0
hopper-15,true,1.00,3258,464,3246,458,172365,0
hopper-16,false,0.54,4242,314,4236,314,213293,0
hopper-17,true,1.00,3442,474,3433,468,182117,0
hopper-18,true,1.00,2907,456,2898,449,151392,0
hopper-19,true,1.00,2063,418,2048,411,124626,0
hopper-20,true,1.00,5432,514,5427,507,288040,0
hopper-21,false,0.61,6375,407,6367,407,325162,0
hopper-22,false,0.32,1681,155,1681,155,85568,0
hopper-23,true,1.00,3966,473,3960,466,215249,0
hopper-24,true,1.00,1289,402,1280,395,68736,0
hopper-25,true,1.00,5419,531,5408,525,316091,0
hopper-26,true,1.00,4098,511,4092,505,213231,0
hopper-27,true,1.00,2144,440,2136,433,118241,0
hopper-28,false,0.85,12530,743,12525,743,726232,0
hopper-29,false,0.25,2167,143,2167,143,108728,0
hopper-30,true,1.00,3145,461,3137,454,169299,0
hopper-31,false,0.77,5071,414,5067,414,267038,0
hopper-32,true,1.00,7998,626,7987,619,443203,0
hopper-33,false,0.49,4072,293,4069,293,212120,0
hopper-34,false,0.31,2101,160,2097,160,103968,0
hopper-35,true,1.00,7471,586,7461,579,378735,0
hopper-36,true,1.00,1831,415,1827,409,96909,0
hopper-37,false,0.50,4681,317,4677,317,238317,0
hopper-38,false,0.52,3275,302,3271,302,167182,0
hopper-39,false,0.52,4996,322,4990,322,228846,0
hopper-40,true,1.00,4218,488,4209,481,188430,0
hopper-41,false,0.24,2398,149,2395,149,119924,0
hopper-42,true,1.00,4081,472,4068,466,224421,0
hopper-43,false,0.44,3397,283,3390,283,171886,0
hopper-44,true,1.00,6808,574,6791,567,363794,0
hopper-45,false,0.42,4207,277,4206,277,216259,0
hopper-46,false,0.66,5558,444,5548,444,294324,0
hopper-47,false,0.72,8004,489,7997,489,424868,0
hopper-48,true,1.00,5000,508,4983,501,224384,0
hopper-49,false,0.37,7435,377,7428,377,396389,0
hopper-50,false,0.62,5399,356,5384,356,233930,0
hopper-51,false,0.33,2460,185,2457,185,114343,0
hopper-52,true,1.00,5084,516,5073,509,287057,0
hopper-53,false,0.20,5100,243,5097,243,273182,0
hopper-54,true,1.00,5856,511,5846,504,312558,0
hopper-55,true,1.00,2341,433,2332,425,134979,0
hopper-56,true,1.00,4078,459,4067,452,171330,0
hopper-57,true,1.00,2345,430,2332,423,92221,0
hopper-58,false,0.57,5489,370,5483,370,261258,0
hopper-59,true,1.00,3670,443,3666,436,208009,0
hopper-60,true,1.00,5365,489,5353,481,312301,0
hopper-61,false,0.82,10942,628,10938,628,578195,0
hopper-62,true,1.00,4715,543,4699,536,244387,0
hopper-63,false,0.23,3057,165,3054,165,154384,0
hopper-64,true,1.00,5900,566,5887,560,315311,0
hopper-65,false,0.13,1102,90,1101,90,55172,0
hopper-66,false,0.73,5970,425,5955,425,240705,0
hopper-67,true,1.00,2589,416,2582,409,142969,0
hopper-68,true,1.00,1242,414,1228,407,66174,0
hopper-69,false,0.84,3994,446,3982,446,202814,0
hopper-70,true,1.00,5135,489,5124,483,188409,0
hopper-71,true,1.00,4623,474,4615,468,250725,0
hopper-72,true,1.00,6609,568,6596,561,356579,0
hopper-73,false,0.82,5276,496,5265,496,275938,0
hopper-74,true,1.00,2550,423,2542,416,131134,0
hopper-75,false,0.32,6049,322,6046,322,317315,0
hopper-76,true,1.00,4580,519,4571,511,244902,0
hopper-77,true,1.00,1546,435,1534,428,80477,0
hopper-78,true,1.00,8224,611,8215,605,403921,0
hopper-79,true,1.00,2468,436,2460,429,128877,0
hopper-80,true,1.00,5435,555,5425,548,274536,0
hopper-81,false,0.38,2993,228,2989,228,147654,0
hopper-82,false,0.46,3555,265,3553,265,177929,0
hopper-83,true,1.00,4151,485,4141,479,221577,0
hopper-84,true,1.00,7074,586,7059,579,385425,0
hopper-85,true,1.00,5081,515,5068,508,265657,0
hopper-86,false,0.46,7176,402,7174,402,384947,0
hopper-87,false,0.48,4066,336,4062,336,213168,0
hopper-88,true,1.00,3407,478,3402,472,197740,0
hopper-89,false,0.13,1104,90,1102,90,54119,0
hopper-90,true,1.00,3130,418,3125,412,175364,0
hopper-91,true,1.00,5435,536,5430,530,292375,0
hopper-92,true,1.00,5945,549,5935,542,298324,0
hopper-93,true,1.00,1065,368,1058,361,58328,0
hopper-94,false,0.64,5206,405,5203,405,266957,0
hopper-95,true,1.00,6289,550,6278,543,332239,0
hopper-96,false,0.13,1102,90,1101,90,55101,0
hopper-97,true,1.00,4948,521,4930,515,210585,0
hopper-98,true,1.00,7670,612,7654,606,406263,0
hopper-99,false,0.72,7823,553,7815,553,407630,0
hopper-100,true,1.00,5410,541,5403,534,237069,0
