NDW:0.0
TTFW:0.2
DFPT:2.0
DFPAP:3.0
DFPMP:1.0
RIGHT_WINDOW_BORDER_X:55.0
level,win/fail,% travelled,run time,game ticks,planning time,total plannings,nodes evaluated,most backtracked nodes
Mario-1,true,1.00,1459,818,1452,810,140523,0
Mario-2,true,1.00,3552,809,3547,797,314075,0
Mario-3,false,0.34,3882,381,3881,381,386616,0
Mario-4,true,1.00,2947,922,2941,912,295480,0
Mario-5,true,1.00,6209,1009,6204,1004,570428,0
Mario-6,false,0.57,5717,496,5715,496,524781,0
Mario-7,true,1.00,7593,1076,7588,1062,618179,0
Mario-8,true,1.00,3257,806,3251,799,302580,0
Mario-9,true,1.00,3149,890,3143,883,288375,0
Mario-10,false,0.25,1803,233,1803,233,171424,0
Mario-11,true,1.00,5754,910,5748,903,539843,0
Mario-12,false,0.57,2221,661,2217,661,198196,0
Mario-13,false,0.30,3786,391,3780,391,318188,0
Mario-14,true,1.00,642,704,635,693,70490,0
Mario-15,false,0.58,4154,1045,4145,1045,319669,0
