NDW:0.0
TTFW:1.4
DFPT:2.0
DFPAP:3.0
DFPMP:10.0
RIGHT_WINDOW_BORDER_X:295.0
level,win/fail,% travelled,run time,game ticks,planning time,total plannings,nodes evaluated,most backtracked nodes
notchParamRand-1,true,1.00,920,312,912,285,50414,0
notchParamRand-2,true,1.00,197,306,184,280,8772,0
notchParamRand-3,true,1.00,1012,306,999,280,58194,0
notchParamRand-4,true,1.00,1523,334,1517,307,88303,0
notchParamRand-5,true,1.00,332,306,326,280,16359,0
notchParamRand-6,true,1.00,520,312,513,286,27629,0
notchParamRand-7,true,1.00,278,294,271,268,13568,0
notchParamRand-8,true,1.00,542,304,533,278,27986,0
notchParamRand-9,true,1.00,655,335,649,308,35644,0
notchParamRand-10,true,1.00,812,332,809,306,44753,0
notchParamRand-11,true,1.00,180,294,171,268,7674,0
notchParamRand-12,true,1.00,412,308,404,282,20876,0
notchParamRand-13,true,1.00,1693,312,1689,285,95437,0
notchParamRand-14,true,1.00,1026,312,1017,286,56561,0
notchParamRand-15,true,1.00,659,308,650,282,36551,0
notchParamRand-16,true,1.00,453,300,449,274,24670,0
notchParamRand-17,true,1.00,121,303,109,277,4231,0
notchParamRand-18,true,1.00,1776,326,1766,299,101825,0
notchParamRand-19,true,1.00,316,338,305,312,15505,0
notchParamRand-20,true,1.00,1516,333,1510,307,87008,0
notchParamRand-21,true,1.00,114,296,103,270,4025,0
notchParamRand-22,true,1.00,1006,314,993,287,56382,0
notchParamRand-23,true,1.00,1111,325,1100,298,62683,0
notchParamRand-24,true,1.00,259,316,247,289,12183,0
notchParamRand-25,true,1.00,118,308,110,277,4454,0
notchParamRand-26,true,1.00,486,332,480,306,24738,0
notchParamRand-27,true,1.00,274,298,264,272,13957,0
notchParamRand-28,true,1.00,578,312,569,285,30471,0
notchParamRand-29,true,1.00,113,298,105,272,4042,0
notchParamRand-30,true,1.00,1822,326,1814,299,103402,0
notchParamRand-31,true,1.00,490,316,484,289,25940,0
notchParamRand-32,true,1.00,180,294,172,268,7406,0
notchParamRand-33,true,1.00,1796,310,1793,283,102408,0
notchParamRand-34,true,1.00,950,316,942,289,52300,0
notchParamRand-35,true,1.00,583,310,578,284,32002,0
notchParamRand-36,true,1.00,108,300,96,269,3776,0
notchParamRand-37,true,1.00,523,310,517,284,27855,0
notchParamRand-38,true,1.00,1712,315,1698,288,96157,0
notchParamRand-39,true,1.00,2053,342,2042,315,113663,0
notchParamRand-40,true,1.00,2081,314,2075,288,117741,0
notchParamRand-41,true,1.00,106,294,97,268,3652,0
notchParamRand-42,true,1.00,526,316,510,289,28315,0
notchParamRand-43,true,1.00,282,300,275,274,14357,0
notchParamRand-44,true,1.00,374,302,366,276,19183,0
notchParamRand-45,true,1.00,955,318,949,292,50764,0
notchParamRand-46,true,1.00,625,311,618,285,34339,0
notchParamRand-47,true,1.00,810,314,802,288,44708,0
notchParamRand-48,true,1.00,1403,324,1398,297,79338,0
notchParamRand-49,true,1.00,783,306,776,279,43474,0
notchParamRand-50,true,1.00,1348,321,1339,294,75900,0
notchParamRand-51,true,1.00,249,315,243,288,11813,0
notchParamRand-52,true,1.00,770,308,762,282,42240,0
notchParamRand-53,true,1.00,994,328,986,302,54965,0
notchParamRand-54,true,1.00,1782,342,1775,315,99940,0
notchParamRand-55,true,1.00,1722,312,1718,286,95231,0
notchParamRand-56,true,1.00,768,325,759,299,41251,0
notchParamRand-57,true,1.00,1000,312,992,286,57655,0
notchParamRand-58,true,1.00,978,323,971,296,54610,0
notchParamRand-59,true,1.00,503,311,496,284,27029,0
notchParamRand-60,true,1.00,834,311,827,285,46603,0
notchParamRand-61,true,1.00,566,306,563,279,30536,0
notchParamRand-62,true,1.00,530,320,519,293,27132,0
notchParamRand-63,true,1.00,1413,312,1406,286,79511,0
notchParamRand-64,true,1.00,381,296,369,270,20163,0
notchParamRand-65,true,1.00,2737,348,2730,321,156022,0
notchParamRand-66,true,1.00,356,312,346,286,16887,0
notchParamRand-67,true,1.00,367,300,361,274,18624,0
notchParamRand-68,true,1.00,1403,312,1397,285,79731,0
notchParamRand-69,true,1.00,298,309,290,283,15013,0
notchParamRand-70,true,1.00,697,326,691,299,38531,0
notchParamRand-71,true,1.00,410,324,402,297,21050,0
notchParamRand-72,true,1.00,177,294,170,268,7732,0
notchParamRand-73,true,1.00,473,320,465,294,23551,0
notchParamRand-74,true,1.00,114,296,106,270,3998,0
notchParamRand-75,true,1.00,108,294,98,268,3625,0
notchParamRand-76,true,1.00,1196,341,1187,314,65716,0
notchParamRand-77,true,1.00,1490,346,1481,319,81317,0
notchParamRand-78,true,1.00,946,310,936,284,53339,0
notchParamRand-79,true,1.00,330,298,326,272,16309,0
notchParamRand-80,true,1.00,325,302,320,276,16117,0
notchParamRand-81,true,1.00,368,298,359,272,19255,0
notchParamRand-82,true,1.00,811,312,804,286,45162,0
notchParamRand-83,true,1.00,1518,336,1505,309,80425,0
notchParamRand-84,true,1.00,541,300,517,274,13488,0
notchParamRand-85,true,1.00,218,294,203,268,3625,0
notchParamRand-86,true,1.00,1177,338,1168,311,40086,0
notchParamRand-87,true,1.00,1732,318,1723,292,100442,0
notchParamRand-88,true,1.00,385,300,377,274,20235,0
notchParamRand-89,true,1.00,408,325,404,298,21619,0
notchParamRand-90,true,1.00,629,310,618,284,33586,0
notchParamRand-91,true,1.00,111,294,104,268,3976,0
notchParamRand-92,true,1.00,961,326,955,299,54457,0
notchParamRand-93,true,1.00,383,317,372,281,20184,0
notchParamRand-94,true,1.00,1638,308,1635,281,93390,0
notchParamRand-95,true,1.00,808,316,798,289,45445,0
notchParamRand-96,true,1.00,523,329,521,303,27312,0
notchParamRand-97,true,1.00,1432,343,1421,316,79964,0
notchParamRand-98,true,1.00,275,294,264,268,14379,0
notchParamRand-99,true,1.00,352,310,343,284,17625,0
notchParamRand-100,true,1.00,1561,314,1550,287,89387,0
