NDW:0.0
TTFW:0.4
DFPT:2.0
DFPAP:3.0
DFPMP:20.0
RIGHT_WINDOW_BORDER_X:55.0
level,win/fail,% travelled,run time,game ticks,planning time,total plannings,nodes evaluated,most backtracked nodes
hopper-1,false,0.48,11530,705,11529,705,899400,0
hopper-2,false,0.13,3223,198,3222,198,240380,0
hopper-3,false,0.30,1372,263,1371,263,117611,0
hopper-4,false,0.57,3036,483,3032,483,251902,0
hopper-5,false,0.13,3223,198,3220,198,239949,0
hopper-6,false,0.53,3957,401,3955,401,309533,0
hopper-7,false,0.13,3223,198,3223,198,240090,0
hopper-8,true,1.00,6441,772,6438,767,514401,0
hopper-9,false,0.13,3224,198,3224,198,240177,0
hopper-10,false,0.67,16186,999,16180,999,1285715,0
hopper-11,false,0.22,5543,351,5541,351,443459,0
hopper-12,false,0.40,3063,378,3061,378,242106,0
hopper-13,false,0.13,3223,198,3222,198,240466,0
hopper-14,false,0.13,3223,198,3221,198,240253,0
hopper-15,false,0.13,3223,198,3223,198,240667,0
hopper-16,false,0.13,3223,198,3222,198,240807,0
hopper-17,false,0.31,2284,308,2283,308,178245,0
hopper-18,false,0.28,3410,308,3407,308,260258,0
hopper-19,false,0.93,8553,999,8550,999,729634,0
hopper-20,false,0.13,3224,198,3223,198,240814,0
hopper-21,false,0.13,3223,198,3223,198,240609,0
hopper-22,false,0.39,3533,434,3528,434,278653,0
hopper-23,false,0.13,3223,198,3222,198,240989,0
hopper-24,false,0.97,11110,999,11106,999,851134,0
hopper-25,false,0.54,19671,999,19666,999,1480341,0
hopper-26,false,0.13,3223,198,3221,198,240474,0
hopper-27,false,0.13,3223,198,3223,198,240649,0
hopper-28,false,0.19,3950,272,3950,272,319822,0
hopper-29,false,0.31,5355,413,5355,413,445543,0
hopper-30,false,0.13,3223,198,3223,198,240827,0
hopper-31,false,0.13,3223,198,3223,198,241028,0
hopper-32,false,0.33,2838,307,2836,307,223356,0
hopper-33,false,0.48,20626,999,20625,999,1573075,0
hopper-34,false,0.13,3223,198,3223,198,240309,0
hopper-35,false,0.13,3223,198,3223,198,240506,0
hopper-36,false,0.13,3223,198,3221,198,238417,0
hopper-37,false,0.50,19974,999,19974,999,1511606,0
hopper-38,false,0.37,7357,515,7357,515,552905,0
hopper-39,false,0.36,6127,502,6127,502,478283,0
hopper-40,false,0.22,5597,341,5596,341,423906,0
hopper-41,false,0.24,886,269,886,269,72781,0
hopper-42,false,0.13,3223,198,3222,198,240787,0
hopper-43,false,0.13,3223,198,3221,198,240726,0
hopper-44,false,0.31,5784,408,5783,408,438624,0
hopper-45,false,0.42,25168,999,25167,999,1841378,0
hopper-46,false,0.33,4156,369,4156,369,328444,0
hopper-47,false,0.39,6346,452,6346,452,486615,0
hopper-48,false,0.13,3223,198,3223,198,240838,0
hopper-49,false,0.13,3223,198,3223,198,240999,0
hopper-50,false,0.45,24443,999,24438,999,1881351,0
hopper-51,true,1.00,11932,957,11928,952,937676,0
hopper-52,false,0.41,5103,484,5102,484,423124,0
hopper-53,false,0.13,3223,198,3223,198,240791,0
hopper-54,false,0.32,1472,299,1470,299,114876,0
hopper-55,false,0.85,8592,771,8589,771,697057,0
hopper-56,false,0.30,3804,333,3803,333,291251,0
hopper-57,false,0.68,7187,676,7184,676,551511,0
hopper-58,false,0.39,6349,531,6345,531,492634,0
hopper-59,false,0.20,3206,232,3206,232,256690,0
hopper-60,false,0.37,5262,445,5256,445,432763,0
hopper-61,false,0.13,3223,198,3223,198,239910,0
hopper-62,false,0.13,3223,198,3223,198,240606,0
hopper-63,false,0.28,2732,318,2729,318,230974,0
hopper-64,false,0.13,3223,198,3223,198,240340,0
hopper-65,false,0.13,3223,198,3223,198,240578,0
hopper-66,false,0.51,5650,515,5648,515,428429,0
hopper-67,false,0.40,5932,505,5929,505,493946,0
hopper-68,false,0.29,1254,246,1252,246,99981,0
hopper-69,false,0.31,7396,509,7395,509,555929,0
hopper-70,false,0.38,5833,372,5831,372,442679,0
hopper-71,false,0.53,3812,581,3806,581,299019,0
hopper-72,false,0.23,2216,209,2215,209,166874,0
hopper-73,false,0.13,3223,198,3223,198,240619,0
hopper-74,false,0.50,4916,416,4914,416,368527,0
hopper-75,false,0.13,3223,198,3223,198,240531,0
hopper-76,false,0.13,3223,198,3222,198,240761,0
hopper-77,false,0.46,21637,999,21635,999,1610920,0
hopper-78,false,0.30,1750,260,1747,260,133914,0
hopper-79,false,0.13,3223,198,3222,198,240560,0
hopper-80,false,0.13,3223,198,3223,198,240363,0
hopper-81,false,0.13,3223,198,3222,198,240318,0
hopper-82,false,0.13,3223,198,3223,198,240276,0
hopper-83,false,0.13,3223,198,3222,198,240534,0
hopper-84,false,0.13,3223,198,3223,198,240874,0
hopper-85,false,0.31,5389,389,5387,389,407921,0
hopper-86,false,0.13,3223,198,3222,198,240446,0
hopper-87,false,0.13,3223,198,3222,198,240518,0
hopper-88,false,0.13,3223,198,3221,198,240209,0
hopper-89,false,0.13,3223,198,3222,198,239731,0
hopper-90,false,0.13,3223,198,3223,198,240228,0
hopper-91,false,0.38,25848,999,25845,999,1967766,0
hopper-92,false,0.13,3223,198,3223,198,240573,0
hopper-93,false,0.49,6859,548,6856,548,540927,0
hopper-94,false,0.42,6628,419,6626,419,505921,0
hopper-95,false,0.33,24865,999,24862,999,1961775,0
hopper-96,false,0.13,3223,198,3222,198,240211,0
hopper-97,false,0.13,3223,198,3223,198,240460,0
hopper-98,false,0.13,3223,198,3223,198,240666,0
hopper-99,false,0.13,3223,198,3223,198,240510,0
hopper-100,false,0.20,3008,223,3008,223,227507,0
