NDW:0.0
TTFW:1.2
DFPT:2.0
DFPAP:3.0
DFPMP:2.0
RIGHT_WINDOW_BORDER_X:255.0
level,win/fail,% travelled,run time,game ticks,planning time,total plannings,nodes evaluated,most backtracked nodes
patternWeightCount-1,true,1.00,2511,456,2505,426,279818,0
patternWeightCount-2,true,1.00,576,441,574,411,62217,0
patternWeightCount-3,true,1.00,449,399,447,376,47011,0
patternWeightCount-4,true,1.00,590,423,588,400,64336,0
patternWeightCount-5,true,1.00,1446,466,1442,443,161711,0
patternWeightCount-6,true,1.00,1455,460,1452,436,166305,0
patternWeightCount-7,true,1.00,804,409,798,381,90100,0
patternWeightCount-8,true,1.00,469,410,464,387,46689,0
patternWeightCount-9,true,1.00,1070,483,1064,460,130052,0
patternWeightCount-10,true,1.00,904,506,900,483,96549,0
patternWeightCount-11,true,1.00,511,463,507,439,52823,0
patternWeightCount-12,true,1.00,1237,479,1235,456,136978,0
patternWeightCount-13,true,1.00,994,423,990,400,118675,0
patternWeightCount-14,true,1.00,802,431,799,399,89818,0
patternWeightCount-15,true,1.00,1305,397,1302,373,145380,0
patternWeightCount-16,true,1.00,2647,498,2645,456,319094,0
patternWeightCount-17,true,1.00,636,453,632,430,68663,0
patternWeightCount-18,true,1.00,712,420,710,397,79762,0
patternWeightCount-19,true,1.00,543,434,537,411,56526,0
patternWeightCount-20,true,1.00,6800,487,6798,446,656667,0
patternWeightCount-21,true,1.00,501,502,498,478,50189,0
patternWeightCount-22,true,1.00,2214,504,2212,469,263233,0
patternWeightCount-23,true,1.00,581,455,575,421,62381,0
patternWeightCount-24,true,1.00,1014,451,1012,427,112525,0
patternWeightCount-25,true,1.00,1286,476,1284,453,150254,0
patternWeightCount-26,true,1.00,919,475,919,443,111547,0
patternWeightCount-27,true,1.00,1825,446,1822,409,217659,0
patternWeightCount-28,true,1.00,1164,500,1160,477,132340,0
patternWeightCount-29,true,1.00,1057,452,1056,429,119500,0
patternWeightCount-30,true,1.00,2877,475,2870,438,286368,0
patternWeightCount-31,true,1.00,1020,451,1010,428,105039,0
patternWeightCount-32,true,1.00,756,423,753,392,84514,0
patternWeightCount-33,true,1.00,630,453,627,430,67998,0
patternWeightCount-34,true,1.00,1076,425,1073,402,120318,0
patternWeightCount-35,true,1.00,1736,466,1735,443,183047,0
patternWeightCount-36,true,1.00,1050,454,1047,431,119489,0
patternWeightCount-37,true,1.00,600,437,597,414,64377,0
patternWeightCount-38,true,1.00,1649,442,1644,416,173725,0
patternWeightCount-39,true,1.00,695,392,692,369,69904,0
patternWeightCount-40,true,1.00,1008,465,1006,442,108705,0
patternWeightCount-41,true,1.00,1248,488,1245,453,139776,0
patternWeightCount-42,false,0.87,2318,408,2314,408,244286,0
patternWeightCount-43,true,1.00,845,419,844,396,95022,0
patternWeightCount-44,true,1.00,1123,468,1120,419,138999,0
patternWeightCount-45,true,1.00,2850,529,2847,491,301263,0
patternWeightCount-46,true,1.00,3532,500,3532,465,352694,0
patternWeightCount-47,true,1.00,638,457,635,434,65343,0
patternWeightCount-48,true,1.00,625,406,623,383,69997,0
patternWeightCount-49,true,1.00,765,434,765,411,82514,0
patternWeightCount-50,true,1.00,1123,444,1122,413,115776,0
patternWeightCount-51,true,1.00,1029,438,1029,396,120844,0
patternWeightCount-52,true,1.00,1168,466,1165,432,140311,0
patternWeightCount-53,true,1.00,2414,478,2412,453,250840,0
patternWeightCount-54,true,1.00,738,464,735,441,77057,0
patternWeightCount-55,true,1.00,1105,447,1102,424,119464,0
patternWeightCount-56,true,1.00,1475,466,1468,433,156225,0
patternWeightCount-57,true,1.00,556,400,556,377,64227,0
patternWeightCount-58,true,1.00,987,436,984,399,110006,0
patternWeightCount-59,true,1.00,365,421,363,398,38073,0
patternWeightCount-60,true,1.00,1027,459,1023,424,112037,0
patternWeightCount-61,true,1.00,1027,414,1026,386,119186,0
patternWeightCount-62,true,1.00,1857,457,1852,421,210915,0
patternWeightCount-63,true,1.00,1454,458,1448,435,156513,0
patternWeightCount-64,true,1.00,1398,453,1395,430,152767,0
patternWeightCount-65,true,1.00,1095,483,1094,459,103135,0
patternWeightCount-66,true,1.00,728,455,723,432,77045,0
patternWeightCount-67,true,1.00,720,429,715,406,72877,0
patternWeightCount-68,true,1.00,2314,541,2310,518,147992,0
patternWeightCount-69,true,1.00,1670,461,1667,418,186537,0
patternWeightCount-70,true,1.00,965,492,962,442,110481,0
patternWeightCount-71,true,1.00,812,434,809,399,89145,0
patternWeightCount-72,true,1.00,3776,486,3772,462,358103,0
patternWeightCount-73,true,1.00,5191,486,5189,444,524901,0
patternWeightCount-74,true,1.00,794,432,792,409,90602,0
patternWeightCount-75,true,1.00,904,453,898,430,102666,0
patternWeightCount-76,true,1.00,884,494,882,471,97575,0
patternWeightCount-77,true,1.00,1032,461,1030,438,113557,0
patternWeightCount-78,true,1.00,1924,488,1920,463,203254,0
patternWeightCount-79,true,1.00,727,381,724,358,82196,0
patternWeightCount-80,true,1.00,1393,513,1393,490,155167,0
patternWeightCount-81,true,1.00,4616,528,4615,503,420833,0
patternWeightCount-82,true,1.00,223,409,219,378,21503,0
patternWeightCount-83,true,1.00,694,430,690,406,79164,0
patternWeightCount-84,true,1.00,614,440,610,417,67368,0
patternWeightCount-85,true,1.00,1415,425,1411,402,171071,0
patternWeightCount-86,false,0.93,2575,450,2570,450,259464,0
patternWeightCount-87,true,1.00,5277,513,5273,471,488319,0
patternWeightCount-88,true,1.00,1103,437,1098,413,118661,0
patternWeightCount-89,true,1.00,718,421,717,398,78184,0
patternWeightCount-90,true,1.00,4505,515,4503,489,467999,0
patternWeightCount-91,true,1.00,1030,446,1025,420,111282,0
patternWeightCount-92,true,1.00,3875,512,3870,464,435154,0
patternWeightCount-93,true,1.00,2917,460,2915,426,307290,0
patternWeightCount-94,true,1.00,1004,460,1000,437,108954,0
patternWeightCount-95,true,1.00,1053,461,1048,438,114679,0
patternWeightCount-96,true,1.00,1000,462,999,439,114139,0
patternWeightCount-97,true,1.00,949,374,947,350,110104,0
patternWeightCount-98,true,1.00,5383,512,5381,476,578137,0
patternWeightCount-99,true,1.00,1127,430,1124,407,131808,0
patternWeightCount-100,true,1.00,938,414,935,391,100898,0
