NDW:0.0
TTFW:1.2
DFPT:2.0
DFPAP:3.0
DFPMP:10.0
RIGHT_WINDOW_BORDER_X:176.0
level,win/fail,% travelled,run time,game ticks,planning time,total plannings,nodes evaluated,most backtracked nodes
ore-1,true,1.00,2000,447,1999,423,255256,0
ore-2,false,0.70,3505,362,3503,362,364753,0
ore-3,true,1.00,1567,448,1565,428,184091,0
ore-4,true,1.00,2091,531,2091,513,256889,0
ore-5,true,1.00,2013,419,2008,403,239559,0
ore-6,true,1.00,2198,472,2192,444,252053,0
ore-7,true,1.00,1530,423,1527,405,178651,0
ore-8,false,0.13,2561,147,2561,147,232044,0
ore-9,true,1.00,1332,381,1329,364,157843,0
ore-10,true,1.00,2014,477,2011,455,256966,0
ore-11,true,1.00,2200,492,2196,473,271497,0
ore-12,true,1.00,2132,419,2129,402,252499,0
ore-13,true,1.00,2056,483,2054,453,243323,0
ore-14,true,1.00,1441,414,1441,397,176490,0
ore-15,true,1.00,3282,456,3280,440,381682,0
ore-16,true,1.00,1324,471,1322,454,175506,0
ore-17,true,1.00,1487,458,1485,433,191702,0
ore-18,true,1.00,1552,454,1549,425,197074,0
ore-19,true,1.00,2205,456,2199,440,277360,0
ore-20,true,1.00,1583,435,1577,418,187349,0
ore-21,true,1.00,1603,492,1601,475,203296,0
ore-22,false,0.61,2895,347,2891,347,267040,0
ore-23,true,1.00,1195,429,1194,413,144952,0
ore-24,true,1.00,1363,485,1359,461,166495,0
ore-25,true,1.00,1784,441,1783,423,227314,0
ore-26,true,1.00,1418,461,1415,444,161039,0
ore-27,true,1.00,2428,454,2425,433,304041,0
ore-28,true,1.00,2168,477,2166,461,260452,0
ore-29,true,1.00,2931,489,2929,472,349895,0
ore-30,true,1.00,1704,423,1703,401,202835,0
ore-31,true,1.00,1483,449,1480,416,177269,0
ore-32,true,1.00,1467,425,1464,408,173791,0
ore-33,true,1.00,1993,524,1990,499,249526,0
ore-34,true,1.00,3923,527,3921,490,460666,0
ore-35,true,1.00,1588,392,1586,376,194836,0
ore-36,true,1.00,1791,436,1791,415,217034,0
ore-37,false,0.34,2915,203,2915,203,249637,0
ore-38,true,1.00,1686,432,1681,406,203936,0
ore-39,true,1.00,1669,434,1662,416,214967,0
ore-40,true,1.00,1316,419,1314,401,157388,0
ore-41,true,1.00,1950,452,1949,433,237970,0
ore-42,true,1.00,1236,472,1232,455,151842,0
ore-43,true,1.00,2745,457,2742,440,337759,0
ore-44,true,1.00,2023,435,2022,405,267752,0
ore-45,false,0.74,22535,999,22531,999,1586406,0
ore-46,false,0.12,1485,81,1485,81,135823,0
ore-47,true,1.00,1604,460,1601,441,201543,0
ore-48,true,1.00,2076,412,2072,396,271086,0
ore-49,true,1.00,1579,445,1577,422,188418,0
ore-50,true,1.00,2287,419,2284,403,262936,0
ore-51,true,1.00,1609,441,1606,419,206627,0
ore-52,true,1.00,1523,449,1522,417,190077,0
ore-53,true,1.00,1644,426,1639,409,189524,0
ore-54,false,0.72,3423,372,3422,372,350697,0
ore-55,true,1.00,1198,427,1197,409,151606,0
ore-56,true,1.00,1034,385,1032,362,124471,0
ore-57,true,1.00,1495,442,1492,407,180357,0
ore-58,true,1.00,1776,432,1772,416,213925,0
ore-59,true,1.00,1970,462,1968,446,244396,0
ore-60,true,1.00,2968,462,2966,443,345976,0
ore-61,true,1.00,2120,434,2119,416,228681,0
ore-62,true,1.00,2157,506,2154,490,246481,0
ore-63,true,1.00,2587,462,2581,436,313020,0
ore-64,true,1.00,1248,400,1245,383,153560,0
ore-65,true,1.00,1983,446,1977,429,243657,0
ore-66,true,1.00,1672,436,1668,419,205819,0
ore-67,true,1.00,1384,426,1379,399,160055,0
ore-68,true,1.00,1638,438,1635,422,194152,0
ore-69,true,1.00,1865,500,1863,484,235314,0
ore-70,false,0.95,4761,562,4758,562,516749,0
ore-71,true,1.00,1442,417,1440,401,172762,0
ore-72,true,1.00,1800,484,1799,464,228688,0
ore-73,true,1.00,3318,538,3315,509,420690,0
ore-74,true,1.00,2023,458,2021,436,253495,0
ore-75,true,1.00,1457,463,1453,447,174046,0
ore-76,true,1.00,1655,388,1654,372,213886,0
ore-77,true,1.00,1278,411,1275,394,156175,0
ore-78,true,1.00,1588,468,1584,452,200675,0
ore-79,true,1.00,1236,406,1234,390,151679,0
ore-80,true,1.00,1608,428,1604,402,196468,0
ore-81,true,1.00,1614,455,1613,439,199816,0
ore-82,true,1.00,1615,449,1612,427,201955,0
ore-83,true,1.00,2072,428,2071,412,239586,0
ore-84,false,0.13,800,67,800,67,60114,0
ore-85,true,1.00,1632,448,1631,419,187813,0
ore-86,true,1.00,2667,516,2665,498,335215,0
ore-87,true,1.00,1598,413,1596,397,183870,0
ore-88,true,1.00,1394,421,1391,405,177729,0
ore-89,true,1.00,2025,437,2020,421,240481,0
ore-90,true,1.00,2102,463,2097,433,232767,0
ore-91,true,1.00,1841,413,1837,394,196867,0
ore-92,true,1.00,2153,464,2151,445,213640,0
ore-93,true,1.00,1779,418,1777,393,195543,0
ore-94,true,1.00,1764,477,1762,460,219208,0
ore-95,true,1.00,2345,494,2338,477,280525,0
ore-96,true,1.00,1600,497,1597,481,200302,0
ore-97,true,1.00,1988,508,1987,489,232335,0
ore-98,true,1.00,2248,452,2245,435,265498,0
ore-99,true,1.00,1863,479,1863,462,234272,0
ore-100,true,1.00,1243,413,1238,396,162786,0
