NDW:0.0
TTFW:1.6
DFPT:2.0
DFPAP:3.0
DFPMP:5.0
RIGHT_WINDOW_BORDER_X:400.0
level,win/fail,% travelled,run time,game ticks,planning time,total plannings,nodes evaluated,most backtracked nodes
notchParam-1,true,1.00,1006,312,1005,276,110610,0
notchParam-2,true,1.00,834,338,831,302,88807,0
notchParam-3,true,1.00,663,313,661,277,79272,0
notchParam-4,true,1.00,662,325,660,288,74478,0
notchParam-5,true,1.00,592,317,591,269,68704,0
notchParam-6,true,1.00,661,318,658,281,76718,0
notchParam-7,true,1.00,879,319,873,283,104200,0
notchParam-8,true,1.00,1275,315,1273,279,149848,0
notchParam-9,true,1.00,653,337,651,300,75004,0
notchParam-10,true,1.00,1206,320,1204,283,140158,0
notchParam-11,true,1.00,569,312,567,275,66732,0
notchParam-12,true,1.00,1215,331,1215,295,147162,0
notchParam-13,true,1.00,230,314,228,278,24380,0
notchParam-14,true,1.00,225,304,224,268,23739,0
notchParam-15,true,1.00,940,330,937,294,102400,0
notchParam-16,true,1.00,815,307,813,271,96716,0
notchParam-17,true,1.00,1007,326,1006,290,110827,0
notchParam-18,true,1.00,270,344,269,308,29596,0
notchParam-19,true,1.00,256,315,254,279,28463,0
notchParam-20,true,1.00,225,312,225,276,24204,0
notchParam-21,true,1.00,222,302,219,266,22537,0
notchParam-22,true,1.00,242,315,241,279,27828,0
notchParam-23,true,1.00,1558,387,1557,350,182954,0
notchParam-24,true,1.00,1372,359,1370,322,164721,0
notchParam-25,true,1.00,1269,324,1266,288,145714,0
notchParam-26,true,1.00,1299,330,1299,294,156353,0
notchParam-27,true,1.00,227,309,224,273,25628,0
notchParam-28,true,1.00,646,323,645,286,76092,0
notchParam-29,true,1.00,635,329,632,292,73781,0
notchParam-30,true,1.00,229,308,226,272,25432,0
notchParam-31,true,1.00,1015,328,1015,292,116897,0
notchParam-32,true,1.00,1029,335,1025,299,119196,0
notchParam-33,true,1.00,222,300,219,264,24644,0
notchParam-34,true,1.00,880,308,878,272,100343,0
notchParam-35,true,1.00,846,313,844,277,94775,0
notchParam-36,true,1.00,991,322,990,286,107754,0
notchParam-37,true,1.00,215,300,215,264,21781,0
notchParam-38,true,1.00,223,306,220,270,24871,0
notchParam-39,true,1.00,797,304,796,268,89692,0
notchParam-40,true,1.00,641,314,641,278,75240,0
notchParam-41,true,1.00,727,322,726,286,87351,0
notchParam-42,true,1.00,228,309,227,273,25604,0
notchParam-43,true,1.00,1179,318,1177,281,139502,0
notchParam-44,true,1.00,1282,334,1279,298,154149,0
notchParam-45,true,1.00,1231,330,1227,288,154581,0
notchParam-46,true,1.00,1205,314,1202,277,135444,0
notchParam-47,true,1.00,229,312,229,276,26978,0
notchParam-48,true,1.00,488,335,488,299,59491,0
notchParam-49,true,1.00,234,321,234,281,26882,0
notchParam-50,true,1.00,290,336,289,300,30174,0
notchParam-51,true,1.00,221,308,220,272,23790,0
notchParam-52,true,1.00,937,302,935,266,106933,0
notchParam-53,true,1.00,836,302,834,266,105368,0
notchParam-54,true,1.00,1006,324,1004,288,111335,0
notchParam-55,true,1.00,283,322,281,286,31310,0
notchParam-56,true,1.00,236,318,232,282,26241,0
notchParam-57,true,1.00,1241,322,1241,285,151770,0
notchParam-58,true,1.00,693,342,691,306,79536,0
notchParam-59,true,1.00,1719,356,1718,320,207166,0
notchParam-60,true,1.00,767,358,765,321,83018,0
notchParam-61,true,1.00,1280,345,1280,308,151586,0
notchParam-62,true,1.00,779,298,779,262,85949,0
notchParam-63,true,1.00,642,326,638,290,72745,0
notchParam-64,true,1.00,701,326,699,289,83575,0
notchParam-65,true,1.00,600,312,597,275,69327,0
notchParam-66,true,1.00,681,331,679,294,78911,0
notchParam-67,true,1.00,860,314,858,278,102643,0
notchParam-68,true,1.00,862,310,862,268,93666,0
notchParam-69,true,1.00,796,308,795,272,82684,0
notchParam-70,true,1.00,799,308,795,272,89233,0
notchParam-71,true,1.00,893,358,891,320,107299,0
notchParam-72,true,1.00,637,323,635,286,77003,0
notchParam-73,true,1.00,632,310,629,274,72577,0
notchParam-74,true,1.00,665,338,664,297,76268,0
notchParam-75,true,1.00,706,330,704,293,87554,0
notchParam-76,true,1.00,1476,367,1474,330,175799,0
notchParam-77,true,1.00,690,323,689,286,80823,0
notchParam-78,true,1.00,1216,314,1212,277,144245,0
notchParam-79,true,1.00,668,321,665,284,78200,0
notchParam-80,true,1.00,275,358,272,322,30838,0
notchParam-81,true,1.00,651,341,649,288,80589,0
notchParam-82,true,1.00,238,305,236,269,26519,0
notchParam-83,true,1.00,224,302,223,266,25259,0
notchParam-84,true,1.00,976,337,975,301,111394,0
notchParam-85,true,1.00,1323,385,1321,349,142201,0
notchParam-86,true,1.00,1132,304,1130,267,132685,0
notchParam-87,true,1.00,241,318,238,282,28390,0
notchParam-88,true,1.00,223,312,221,276,24252,0
notchParam-89,true,1.00,228,304,226,268,23974,0
notchParam-90,true,1.00,243,309,240,273,26533,0
notchParam-91,true,1.00,1276,332,1276,295,140341,0
notchParam-92,true,1.00,1144,308,1144,271,128513,0
notchParam-93,true,1.00,1249,327,1247,285,148076,0
notchParam-94,true,1.00,1303,343,1303,307,150170,0
notchParam-95,true,1.00,1642,358,1639,322,202634,0
notchParam-96,true,1.00,671,327,669,291,83497,0
notchParam-97,true,1.00,628,317,627,281,67875,0
notchParam-98,true,1.00,226,300,226,264,24486,0
notchParam-99,true,1.00,999,324,997,288,111860,0
notchParam-100,true,1.00,898,304,895,268,102883,0
