NDW:0.0
TTFW:0.6
DFPT:2.0
DFPAP:3.0
DFPMP:7.0
RIGHT_WINDOW_BORDER_X:255.0
level,win/fail,% travelled,run time,game ticks,planning time,total plannings,nodes evaluated,most backtracked nodes
Krys-1,true,1.00,8135,514,8122,479,329443,0
Krys-2,true,1.00,2943,398,2932,361,113331,0
Krys-3,false,0.70,27587,999,27586,999,1054004,0
Krys-4,true,1.00,4046,420,4036,373,156777,0
Krys-5,true,1.00,2056,337,2050,301,101282,0
Krys-6,true,1.00,1745,324,1733,289,76078,0
Krys-7,true,1.00,783,308,776,272,33861,0
Krys-8,true,1.00,4464,498,4455,412,177761,0
Krys-9,true,1.00,2627,308,2622,278,125539,0
Krys-10,true,1.00,2384,334,2377,292,100137,0
Krys-11,true,1.00,1074,316,1066,285,42625,0
Krys-12,false,0.70,27202,999,27190,999,964505,0
Krys-13,true,1.00,3288,334,3281,294,147394,0
Krys-14,true,1.00,2220,333,2216,294,84886,0
Krys-15,true,1.00,4900,449,4896,408,224635,0
Krys-16,false,0.39,29136,999,29134,999,1043100,0
Krys-17,true,1.00,3096,377,3088,337,122254,0
Krys-18,true,1.00,3541,465,3532,424,136829,0
Krys-19,true,1.00,3153,341,3148,301,150341,0
Krys-20,true,1.00,5378,492,5368,452,219322,0
Krys-21,true,1.00,1966,312,1954,276,99384,0
Krys-22,true,1.00,3021,321,3013,281,149946,0
Krys-23,true,1.00,3510,397,3498,342,142316,0
Krys-24,true,1.00,5384,368,5378,327,220145,0
Krys-25,true,1.00,5791,455,5785,404,232011,0
Krys-26,true,1.00,2570,305,2562,262,132837,0
Krys-27,true,1.00,3472,370,3466,324,153905,0
Krys-28,true,1.00,5409,437,5404,397,242653,0
Krys-29,true,1.00,2193,373,2182,338,86462,0
Krys-30,true,1.00,3722,446,3713,405,146867,0
Krys-31,true,1.00,3856,467,3842,426,151977,0
Krys-32,true,1.00,1551,321,1544,298,61191,0
Krys-33,true,1.00,1138,322,1131,281,46322,0
Krys-34,true,1.00,2955,363,2951,324,125695,0
Krys-35,true,1.00,2436,302,2429,267,110605,0
Krys-36,false,0.91,25921,999,25913,999,1054271,0
Krys-37,true,1.00,5229,433,5224,399,241418,0
Krys-38,true,1.00,5865,467,5857,426,271890,0
Krys-39,true,1.00,4279,404,4271,334,192251,0
Krys-40,true,1.00,4494,374,4485,338,202065,0
Krys-41,true,1.00,6536,416,6532,386,292515,0
Krys-42,true,1.00,2741,390,2734,343,128469,0
Krys-43,true,1.00,1729,334,1722,300,80181,0
Krys-44,true,1.00,6628,457,6623,421,290063,0
Krys-45,true,1.00,3950,424,3940,391,148943,0
Krys-46,true,1.00,3729,485,3719,445,148669,0
Krys-47,true,1.00,3605,459,3594,414,149120,0
Krys-48,true,1.00,2059,293,2057,252,102877,0
Krys-49,true,1.00,4542,440,4529,404,167637,0
Krys-50,true,1.00,6622,468,6617,424,282854,0
Krys-51,true,1.00,3967,378,3956,341,193480,0
Krys-52,true,1.00,3939,525,3931,487,148823,0
Krys-53,true,1.00,3468,461,3456,430,138280,0
Krys-54,true,1.00,4730,430,4723,397,207263,0
Krys-55,true,1.00,4974,504,4966,465,200848,0
Krys-56,true,1.00,1264,328,1261,292,58591,0
Krys-57,true,1.00,3148,335,3146,304,155951,0
Krys-58,true,1.00,3105,417,3099,384,123316,0
Krys-59,true,1.00,3494,390,3486,348,138015,0
Krys-60,true,1.00,3767,404,3761,334,164341,0
Krys-61,true,1.00,2930,352,2924,320,113696,0
Krys-62,true,1.00,2483,374,2475,334,91749,0
Krys-63,true,1.00,6760,534,6748,494,262535,0
Krys-64,true,1.00,4146,440,4135,400,170922,0
Krys-65,true,1.00,3293,391,3284,354,126281,0
Krys-66,true,1.00,3882,421,3869,387,146167,0
Krys-67,true,1.00,5513,498,5502,452,222158,0
Krys-68,true,1.00,3088,326,3085,285,151946,0
Krys-69,true,1.00,9324,584,9318,541,352021,0
Krys-70,true,1.00,7905,474,7900,431,329251,0
Krys-71,true,1.00,4214,392,4209,349,204695,0
Krys-72,true,1.00,2930,456,2921,420,111991,0
Krys-73,false,0.80,25723,999,25715,999,897600,0
Krys-74,true,1.00,3520,376,3513,336,151276,0
Krys-75,true,1.00,1729,350,1718,311,64186,0
Krys-76,true,1.00,2880,297,2874,263,137729,0
Krys-77,true,1.00,1805,312,1797,272,82037,0
Krys-78,true,1.00,4366,375,4356,341,174963,0
Krys-79,true,1.00,2222,357,2212,300,83766,0
Krys-80,true,1.00,1650,351,1638,305,66465,0
Krys-81,true,1.00,3108,368,3098,330,123260,0
Krys-82,true,1.00,1842,329,1835,295,71493,0
Krys-83,false,0.91,25574,999,25565,999,958220,0
Krys-84,true,1.00,557,289,547,248,22817,0
Krys-85,true,1.00,4624,475,4617,434,177711,0
Krys-86,true,1.00,2868,356,2863,320,113397,0
Krys-87,true,1.00,1633,320,1626,296,61433,0
Krys-88,true,1.00,3753,422,3737,387,148161,0
Krys-89,true,1.00,3278,361,3269,325,128573,0
Krys-90,true,1.00,3219,320,3213,265,156725,0
Krys-91,true,1.00,1175,338,1166,307,47049,0
Krys-92,true,1.00,5528,473,5514,415,233512,0
Krys-93,true,1.00,2530,324,2521,276,116026,0
Krys-94,true,1.00,2142,315,2138,267,96592,0
Krys-95,true,1.00,1612,320,1605,279,64206,0
Krys-96,true,1.00,4550,386,4542,345,220202,0
Krys-97,false,0.70,3238,257,3231,257,123577,0
Krys-98,true,1.00,7669,547,7660,524,291931,0
Krys-99,true,1.00,2609,390,2604,349,98027,0
Krys-100,true,1.00,2603,317,2594,277,130802,0
