NDW:0.0
TTFW:1.4
DFPT:2.0
DFPAP:3.0
DFPMP:5.0
RIGHT_WINDOW_BORDER_X:195.0
level,win/fail,% travelled,run time,game ticks,planning time,total plannings,nodes evaluated,most backtracked nodes
Krys-1,false,0.38,29044,999,29041,999,1035984,0
Krys-2,false,0.79,24165,999,24158,999,872035,0
Krys-3,true,1.00,5980,496,5964,465,262679,0
Krys-4,true,1.00,3254,431,3235,402,112263,0
Krys-5,true,1.00,1906,360,1895,326,102152,0
Krys-6,true,1.00,2292,407,2278,372,94356,0
Krys-7,true,1.00,391,349,378,314,18895,0
Krys-8,true,1.00,1605,442,1588,404,80087,0
Krys-9,true,1.00,2450,340,2443,306,139566,0
Krys-10,true,1.00,2256,466,2238,426,111807,0
Krys-11,true,1.00,298,412,286,381,12180,0
Krys-12,true,1.00,3289,408,3281,378,142480,0
Krys-13,true,1.00,4966,499,4956,469,258609,0
Krys-14,false,0.79,24082,999,24073,999,848045,0
Krys-15,true,1.00,4497,421,4487,383,232604,0
Krys-16,false,0.69,21842,999,21831,999,738038,0
Krys-17,true,1.00,2884,459,2867,428,91565,0
Krys-18,true,1.00,1394,382,1380,345,66226,0
Krys-19,true,1.00,2942,411,2935,377,150596,0
Krys-20,true,1.00,3845,519,3837,465,189969,0
Krys-21,true,1.00,2405,364,2396,326,138016,0
Krys-22,true,1.00,2816,376,2803,333,156394,0
Krys-23,true,1.00,2321,433,2301,399,70661,0
Krys-24,false,0.70,26060,999,26056,999,864039,0
Krys-25,true,1.00,2258,396,2245,369,100497,0
Krys-26,true,1.00,4307,388,4300,348,220383,0
Krys-27,true,1.00,2720,441,2707,408,119578,0
Krys-28,true,1.00,6846,544,6834,504,304007,0
Krys-29,true,1.00,1687,438,1673,417,71140,0
Krys-30,true,1.00,3064,494,3044,458,129418,0
Krys-31,true,1.00,2409,483,2395,441,118434,0
Krys-32,true,1.00,567,409,560,387,23002,0
Krys-33,true,1.00,470,378,457,341,21632,0
Krys-34,true,1.00,2704,392,2693,358,119034,0
Krys-35,true,1.00,2935,390,2926,370,155929,0
Krys-36,false,0.28,29834,999,29832,999,1070173,0
Krys-37,true,1.00,7371,504,7366,483,326317,0
Krys-38,true,1.00,5140,419,5131,388,193838,0
Krys-39,true,1.00,4994,420,4987,393,240092,0
Krys-40,true,1.00,3531,417,3522,388,175718,0
Krys-41,true,1.00,3796,406,3790,375,195497,0
Krys-42,true,1.00,2434,437,2426,411,135429,0
Krys-43,true,1.00,2845,381,2834,350,161179,0
Krys-44,true,1.00,6591,494,6587,454,328533,0
Krys-45,true,1.00,1728,479,1715,451,63906,0
Krys-46,true,1.00,2604,506,2587,472,107349,0
Krys-47,true,1.00,925,457,913,419,44860,0
Krys-48,true,1.00,2386,397,2376,369,136030,0
Krys-49,true,1.00,993,396,983,362,45105,0
Krys-50,false,0.70,24412,999,24401,999,831041,0
Krys-51,true,1.00,4204,443,4189,412,222552,0
Krys-52,true,1.00,2366,453,2341,418,104968,0
Krys-53,true,1.00,1616,458,1598,425,68387,0
Krys-54,true,1.00,3965,424,3959,393,197957,0
Krys-55,true,1.00,3141,476,3121,433,143700,0
Krys-56,false,0.59,25991,999,25989,999,909386,0
Krys-57,true,1.00,2948,335,2941,304,125597,0
Krys-58,true,1.00,2626,474,2611,453,101916,0
Krys-59,false,0.89,22360,999,22347,999,762751,0
Krys-60,true,1.00,3127,407,3116,380,151977,0
Krys-61,false,0.48,26880,999,26874,999,908407,0
Krys-62,true,1.00,1217,416,1204,383,41661,0
Krys-63,true,1.00,5353,654,5342,608,206458,0
Krys-64,true,1.00,3264,482,3251,448,149861,0
Krys-65,true,1.00,2273,418,2264,397,93350,0
Krys-66,true,1.00,3629,464,3613,434,154155,0
Krys-67,true,1.00,1454,430,1442,383,70452,0
Krys-68,true,1.00,4346,388,4336,348,228535,0
Krys-69,true,1.00,8394,644,8376,613,318403,0
Krys-70,false,0.80,25212,999,25203,999,918350,0
Krys-71,true,1.00,3884,376,3880,343,218610,0
Krys-72,true,1.00,1924,437,1915,406,96956,0
Krys-73,true,1.00,3154,492,3141,453,139633,0
Krys-74,true,1.00,2571,440,2563,406,114105,0
Krys-75,true,1.00,1453,454,1424,420,25630,0
Krys-76,true,1.00,4121,371,4110,349,196168,0
Krys-77,true,1.00,1376,376,1365,339,74750,0
Krys-78,false,0.91,24817,999,24805,999,928513,0
Krys-79,true,1.00,1517,474,1504,443,52143,0
Krys-80,true,1.00,471,396,461,368,19367,0
Krys-81,true,1.00,1183,379,1174,342,59788,0
Krys-82,true,1.00,1028,400,1019,357,38999,0
Krys-83,false,0.91,22991,999,22986,999,824256,0
Krys-84,true,1.00,309,357,295,323,13766,0
Krys-85,true,1.00,3118,485,3098,458,138448,0
Krys-86,true,1.00,1812,406,1803,376,75979,0
Krys-87,true,1.00,1012,384,998,362,37685,0
Krys-88,true,1.00,1850,458,1835,423,80483,0
Krys-89,true,1.00,1602,398,1597,363,72129,0
Krys-90,true,1.00,4010,396,4002,359,197623,0
Krys-91,true,1.00,417,391,403,355,19100,0
Krys-92,true,1.00,4430,448,4421,409,190900,0
Krys-93,true,1.00,3011,395,3001,356,154525,0
Krys-94,true,1.00,1794,383,1781,345,96442,0
Krys-95,true,1.00,1614,436,1602,403,46179,0
Krys-96,true,1.00,3761,395,3756,352,196496,0
Krys-97,true,1.00,1451,408,1441,376,71584,0
Krys-98,true,1.00,4899,560,4887,533,195139,0
Krys-99,true,1.00,1580,458,1571,416,59240,0
Krys-100,true,1.00,3090,352,3081,310,137603,0
