NDW:0.0
TTFW:0.4
DFPT:2.0
DFPAP:3.0
DFPMP:20.0
RIGHT_WINDOW_BORDER_X:155.0
level,win/fail,% travelled,run time,game ticks,planning time,total plannings,nodes evaluated,most backtracked nodes
ge-1,true,1.00,438,224,437,201,38889,0
ge-2,true,1.00,463,227,462,213,41761,0
ge-3,true,1.00,131,200,129,185,11592,0
ge-4,true,1.00,1068,234,1068,219,97389,0
ge-5,true,1.00,28,199,27,185,2594,0
ge-6,true,1.00,408,227,408,213,35139,0
ge-7,true,1.00,100,201,97,187,8731,0
ge-8,true,1.00,139,205,138,191,12081,0
ge-9,true,1.00,397,202,397,188,35938,0
ge-10,true,1.00,29,199,27,185,2649,0
ge-11,true,1.00,163,207,162,193,14798,0
ge-12,true,1.00,31,201,31,187,2697,0
ge-13,true,1.00,327,217,326,203,28770,0
ge-14,true,1.00,141,205,139,191,11906,0
ge-15,true,1.00,464,207,462,193,41572,0
ge-16,true,1.00,480,248,479,234,41956,0
ge-17,true,1.00,271,210,270,196,25531,0
ge-18,true,1.00,759,244,759,230,70278,0
ge-19,true,1.00,419,213,418,199,38088,0
ge-20,true,1.00,297,213,295,199,26300,0
ge-21,true,1.00,195,201,194,187,16811,0
ge-22,true,1.00,277,206,276,192,24723,0
ge-23,true,1.00,529,205,528,191,47563,0
ge-24,true,1.00,343,210,342,196,30444,0
ge-25,true,1.00,292,201,292,187,26504,0
ge-26,true,1.00,192,199,190,185,17543,0
ge-27,true,1.00,70,207,70,193,6043,0
ge-28,true,1.00,422,199,421,185,34794,0
ge-29,true,1.00,202,202,201,187,17559,0
ge-30,true,1.00,788,224,787,210,75034,0
ge-31,true,1.00,753,233,753,219,66634,0
ge-32,true,1.00,166,211,164,197,14080,0
ge-33,true,1.00,111,206,107,191,9501,0
ge-34,true,1.00,662,207,662,193,60270,0
ge-35,true,1.00,426,231,425,217,35123,0
ge-36,true,1.00,659,216,659,199,59456,0
ge-37,true,1.00,195,202,194,188,17283,0
ge-38,true,1.00,672,221,671,207,59165,0
ge-39,true,1.00,283,213,279,199,25344,0
ge-40,true,1.00,27,199,24,185,2552,0
ge-41,true,1.00,192,199,189,185,16896,0
ge-42,true,1.00,589,241,589,227,48830,0
ge-43,true,1.00,330,226,329,212,28885,0
ge-44,true,1.00,524,221,523,207,44171,0
ge-45,true,1.00,1445,248,1443,234,123153,0
ge-46,true,1.00,1108,276,1108,262,95443,0
ge-47,true,1.00,555,199,553,185,48326,0
ge-48,true,1.00,360,219,358,205,31283,0
ge-49,true,1.00,126,199,126,185,11028,0
ge-50,true,1.00,585,219,585,205,49900,0
ge-51,true,1.00,122,210,121,196,10649,0
ge-52,true,1.00,402,220,402,206,35565,0
ge-53,true,1.00,179,203,177,189,15684,0
ge-54,true,1.00,448,228,447,214,39954,0
ge-55,true,1.00,334,216,334,202,29936,0
ge-56,true,1.00,507,229,505,212,45356,0
ge-57,true,1.00,794,220,791,205,72804,0
ge-58,true,1.00,374,248,374,234,28845,0
ge-59,true,1.00,654,201,653,187,57482,0
ge-60,true,1.00,707,217,706,203,58681,0
ge-61,true,1.00,196,199,195,185,17690,0
ge-62,true,1.00,630,217,628,203,57697,0
ge-63,true,1.00,671,210,670,196,60331,0
ge-64,false,1.00,481,238,480,224,40693,0
ge-65,true,1.00,544,214,543,199,47404,0
ge-66,true,1.00,487,214,485,199,44380,0
ge-67,true,1.00,211,218,209,202,18393,0
ge-68,true,1.00,116,209,114,195,9113,0
ge-69,true,1.00,190,199,189,185,16167,0
ge-70,true,1.00,260,201,260,187,23506,0
ge-71,true,1.00,963,241,962,227,88393,0
ge-72,true,1.00,216,227,210,213,19320,0
ge-73,true,1.00,294,201,292,187,26784,0
ge-74,true,1.00,1049,257,1048,243,91153,0
ge-75,true,1.00,402,257,399,237,33949,0
ge-76,true,1.00,732,207,729,193,65104,0
ge-77,true,1.00,1148,241,1146,227,105541,0
ge-78,true,1.00,680,225,679,211,57622,0
ge-79,true,1.00,150,205,150,191,13117,0
ge-80,true,1.00,112,210,109,195,9631,0
ge-81,true,1.00,44,205,42,191,3964,0
ge-82,true,1.00,280,244,279,214,19774,0
ge-83,false,1.00,579,248,577,226,55566,0
ge-84,true,1.00,567,205,566,191,51683,0
ge-85,true,1.00,238,205,236,191,21813,0
ge-86,true,1.00,636,199,634,185,56288,0
ge-87,true,1.00,451,209,451,195,41851,0
ge-88,true,1.00,1515,286,1512,272,136676,0
ge-89,true,1.00,347,244,345,230,30089,0
ge-90,true,1.00,27,199,26,185,2581,0
ge-91,true,1.00,226,199,222,185,20049,0
ge-92,true,1.00,37,205,35,191,3630,0
ge-93,true,1.00,535,212,535,198,47490,0
ge-94,true,1.00,361,201,360,187,32389,0
ge-95,true,1.00,247,230,247,216,21482,0
ge-96,true,1.00,643,222,641,208,57285,0
ge-97,true,1.00,944,251,943,237,78751,0
ge-98,true,1.00,28,199,26,185,2524,0
ge-99,true,1.00,125,199,125,185,10051,0
ge-100,true,1.00,658,219,658,205,60605,0
