NDW:0.0
TTFW:0.2
DFPT:2.0
DFPAP:3.0
DFPMP:0.0
RIGHT_WINDOW_BORDER_X:350.0
level,win/fail,% travelled,run time,game ticks,planning time,total plannings,nodes evaluated,most backtracked nodes
Mario-1,true,1.00,5149,333,5056,290,323704,0
Mario-2,true,1.00,4873,266,4843,234,268524,0
Mario-3,true,1.00,3576,247,3571,215,262226,0
Mario-4,true,1.00,7766,373,7741,334,527345,0
Mario-5,true,1.00,6217,336,6189,299,422618,0
Mario-6,true,1.00,4377,243,4374,203,362337,0
Mario-7,true,1.00,6612,399,6581,352,505082,0
Mario-8,true,1.00,5610,347,5607,315,437065,0
Mario-9,true,1.00,6098,345,6024,310,340820,0
Mario-10,true,1.00,5138,268,5130,236,308230,0
Mario-11,true,1.00,7945,343,7874,298,429063,0
Mario-12,true,1.00,13424,493,13412,456,736867,0
Mario-13,true,1.00,3880,249,3880,217,240715,0
Mario-14,true,1.00,5824,295,5814,265,314309,0
Mario-15,true,1.00,15966,691,15877,644,838388,0
