NDW:0.0
TTFW:0.4
DFPT:2.0
DFPAP:3.0
DFPMP:3.0
RIGHT_WINDOW_BORDER_X:55.0
level,win/fail,% travelled,run time,game ticks,planning time,total plannings,nodes evaluated,most backtracked nodes
patternWeightCount-1,false,0.71,4788,999,4783,999,495567,0
patternWeightCount-2,true,1.00,3133,928,3125,920,300383,0
patternWeightCount-3,true,1.00,3408,929,3402,919,323599,0
patternWeightCount-4,true,1.00,4055,859,4052,846,373394,0
patternWeightCount-5,false,0.79,6808,999,6804,999,642891,0
patternWeightCount-6,false,0.77,5498,999,5491,999,528687,0
patternWeightCount-7,false,0.91,5194,999,5190,999,473523,0
patternWeightCount-8,true,1.00,1590,770,1587,765,152134,0
patternWeightCount-9,false,0.86,5771,999,5765,999,565406,0
patternWeightCount-10,true,1.00,4542,968,4534,961,408164,0
patternWeightCount-11,true,1.00,2090,902,2084,894,209521,0
patternWeightCount-12,false,0.45,2850,518,2848,518,268912,0
patternWeightCount-13,true,1.00,4466,968,4460,956,412159,0
patternWeightCount-14,false,0.88,4603,999,4601,999,449062,0
patternWeightCount-15,false,0.95,3728,999,3725,999,370502,0
patternWeightCount-16,false,0.81,5997,999,5993,999,595493,0
patternWeightCount-17,false,0.97,2697,999,2689,999,296500,0
patternWeightCount-18,true,1.00,2938,997,2932,991,294877,0
patternWeightCount-19,true,1.00,2250,955,2243,948,210551,0
patternWeightCount-20,false,0.58,5092,636,5091,636,480385,0
patternWeightCount-21,true,1.00,1441,956,1433,951,155159,0
patternWeightCount-22,false,0.82,6251,999,6247,999,615553,0
patternWeightCount-23,false,0.07,1775,134,1775,134,168498,0
patternWeightCount-24,false,0.14,1373,222,1371,222,138876,0
patternWeightCount-25,false,0.29,20538,999,20531,999,1842324,0
patternWeightCount-26,false,0.26,3705,360,3705,360,354542,0
patternWeightCount-27,false,0.76,5558,999,5553,999,552526,0
patternWeightCount-28,false,0.25,1533,314,1530,314,153871,0
patternWeightCount-29,false,0.81,5156,999,5147,999,479164,0
patternWeightCount-30,false,0.82,7737,987,7731,987,694487,0
patternWeightCount-31,false,0.19,1166,247,1165,247,130240,0
patternWeightCount-32,true,1.00,2246,932,2242,919,223304,0
patternWeightCount-33,false,0.90,4259,999,4254,999,455301,0
patternWeightCount-34,false,0.68,8811,997,8803,997,860843,0
patternWeightCount-35,false,0.64,5684,820,5681,820,534086,0
patternWeightCount-36,true,1.00,5098,991,5095,986,489369,0
patternWeightCount-37,true,1.00,2145,870,2138,863,210863,0
patternWeightCount-38,false,0.88,4432,999,4427,999,424480,0
patternWeightCount-39,false,0.13,2969,362,2966,362,316675,0
patternWeightCount-40,false,0.57,1830,603,1825,603,188698,0
patternWeightCount-41,false,0.99,5135,999,5127,999,502251,0
patternWeightCount-42,false,0.78,5758,999,5752,999,542868,0
patternWeightCount-43,true,1.00,4024,960,4019,953,395854,0
patternWeightCount-44,false,0.89,4852,999,4848,999,492781,0
patternWeightCount-45,false,0.18,2173,215,2170,215,186778,0
patternWeightCount-46,false,0.85,6909,974,6904,974,644581,0
patternWeightCount-47,false,0.51,3765,589,3762,589,335589,0
patternWeightCount-48,true,1.00,1830,914,1827,907,182727,0
patternWeightCount-49,false,0.96,4125,999,4121,999,389158,0
patternWeightCount-50,true,1.00,4867,958,4862,945,435827,0
patternWeightCount-51,false,0.83,5280,999,5270,999,514860,0
patternWeightCount-52,false,0.86,3621,995,3614,995,366228,0
patternWeightCount-53,false,0.73,5078,867,5072,867,474453,0
patternWeightCount-54,false,0.01,6854,999,6846,999,1096818,0
patternWeightCount-55,false,0.96,6796,999,6793,999,559855,0
patternWeightCount-56,false,0.77,7289,999,7280,999,638173,0
patternWeightCount-57,true,1.00,1411,877,1406,870,150030,0
patternWeightCount-58,false,0.90,4632,999,4626,999,448199,0
patternWeightCount-59,true,1.00,2387,961,2383,954,248959,0
patternWeightCount-60,false,0.11,1817,251,1817,251,232762,0
patternWeightCount-61,false,0.93,4667,999,4663,999,448718,0
patternWeightCount-62,false,0.98,5297,999,5291,999,513993,0
patternWeightCount-63,false,0.69,7607,999,7598,999,781199,0
patternWeightCount-64,false,0.74,7198,1004,7191,1004,670949,0
patternWeightCount-65,false,0.94,6013,999,6005,999,560414,0
patternWeightCount-66,false,0.83,4714,999,4710,999,487036,0
patternWeightCount-67,true,1.00,3456,994,3452,981,330448,0
patternWeightCount-68,true,1.00,1364,805,1358,797,140851,0
patternWeightCount-69,false,0.82,2723,818,2720,818,264102,0
patternWeightCount-70,false,0.85,4915,999,4911,999,480021,0
patternWeightCount-71,false,0.94,3214,999,3209,999,304776,0
patternWeightCount-72,false,0.75,5691,825,5685,825,569305,0
patternWeightCount-73,false,0.65,7004,993,7001,993,692668,0
patternWeightCount-74,false,0.86,3653,999,3648,999,375737,0
patternWeightCount-75,false,0.98,4715,999,4708,999,450592,0
patternWeightCount-76,false,0.87,4295,999,4292,999,424984,0
patternWeightCount-77,false,0.99,4865,999,4857,999,469226,0
patternWeightCount-78,false,0.72,7556,999,7551,999,729871,0
patternWeightCount-79,false,0.34,21596,999,21595,999,1825376,0
patternWeightCount-80,false,0.85,6932,999,6931,999,632189,0
patternWeightCount-81,false,0.63,5675,737,5670,737,534626,0
patternWeightCount-82,true,1.00,802,833,796,826,91092,0
patternWeightCount-83,false,0.79,4359,999,4354,999,457431,0
patternWeightCount-84,false,0.97,3900,999,3895,999,368901,0
patternWeightCount-85,false,0.96,4280,999,4274,999,417428,0
patternWeightCount-86,false,0.90,6838,987,6834,987,634879,0
patternWeightCount-87,false,0.72,8460,864,8452,864,748316,0
patternWeightCount-88,false,0.83,7018,999,7009,999,672858,0
patternWeightCount-89,false,0.98,3840,999,3827,999,358569,0
patternWeightCount-90,false,0.76,5684,959,5680,959,540792,0
patternWeightCount-91,false,0.95,6051,999,6045,999,589223,0
patternWeightCount-92,false,0.77,8834,999,8827,999,812094,0
patternWeightCount-93,false,0.86,7939,990,7934,990,775159,0
patternWeightCount-94,false,0.75,5375,999,5369,999,532466,0
patternWeightCount-95,false,0.73,7181,999,7176,999,676820,0
patternWeightCount-96,false,0.99,3961,999,3959,999,381066,0
patternWeightCount-97,false,0.99,6708,999,6704,999,630261,0
patternWeightCount-98,false,0.65,8842,876,8841,876,811636,0
patternWeightCount-99,false,0.79,6911,999,6905,999,683591,0
patternWeightCount-100,false,0.42,2448,520,2446,520,234254,0
