NDW:0.0
TTFW:0.4
DFPT:2.0
DFPAP:3.0
DFPMP:7.0
RIGHT_WINDOW_BORDER_X:400.0
level,win/fail,% travelled,run time,game ticks,planning time,total plannings,nodes evaluated,most backtracked nodes
patternOccur-1,true,1.00,2748,443,2745,406,165964,0
patternOccur-2,true,1.00,2652,436,2649,395,160853,0
patternOccur-3,true,1.00,2859,392,2858,355,181090,0
patternOccur-4,true,1.00,3486,418,3482,377,212896,0
patternOccur-5,true,1.00,2424,398,2420,361,149608,0
patternOccur-6,true,1.00,3962,450,3960,413,238501,0
patternOccur-7,true,1.00,2641,370,2636,334,164531,0
patternOccur-8,true,1.00,2351,366,2349,328,146982,0
patternOccur-9,true,1.00,3518,411,3517,369,216303,0
patternOccur-10,true,1.00,2414,386,2409,344,150225,0
patternOccur-11,true,1.00,3785,380,3784,336,247206,0
patternOccur-12,true,1.00,3394,391,3392,351,204988,0
patternOccur-13,true,1.00,3155,405,3150,369,190637,0
patternOccur-14,true,1.00,3690,349,3687,293,244402,0
patternOccur-15,true,1.00,2912,377,2910,341,182460,0
patternOccur-16,true,1.00,4155,396,4152,348,275513,0
patternOccur-17,true,1.00,3121,419,3118,383,188580,0
patternOccur-18,true,1.00,2319,382,2318,330,143083,0
patternOccur-19,false,0.83,5858,401,5854,401,349888,0
patternOccur-20,true,1.00,2759,413,2755,376,176000,0
patternOccur-21,true,1.00,2649,417,2649,374,161416,0
patternOccur-22,true,1.00,4920,435,4917,381,319549,0
patternOccur-23,true,1.00,3076,368,3074,332,186832,0
patternOccur-24,true,1.00,2685,401,2683,365,161419,0
patternOccur-25,true,1.00,2708,384,2706,347,171817,0
patternOccur-26,true,1.00,1826,350,1825,314,114724,0
patternOccur-27,true,1.00,2981,390,2981,332,185253,0
patternOccur-28,true,1.00,3684,374,3683,337,222340,0
patternOccur-29,true,1.00,1771,349,1770,308,112581,0
patternOccur-30,true,1.00,2282,401,2278,364,137696,0
patternOccur-31,true,1.00,8167,468,8166,423,538969,0
patternOccur-32,true,1.00,5844,460,5843,415,363036,0
patternOccur-33,true,1.00,1998,357,1996,321,128919,0
patternOccur-34,true,1.00,2447,382,2445,346,155090,0
patternOccur-35,true,1.00,2200,379,2199,342,130906,0
patternOccur-36,true,1.00,3507,379,3506,326,227841,0
patternOccur-37,true,1.00,3760,413,3759,357,229975,0
patternOccur-38,true,1.00,2078,384,2076,348,133524,0
patternOccur-39,true,1.00,3834,397,3834,356,240501,0
patternOccur-40,true,1.00,2612,379,2611,338,166243,0
patternOccur-41,true,1.00,3620,404,3620,362,218614,0
patternOccur-42,false,0.89,4772,366,4769,366,286910,0
patternOccur-43,true,1.00,2396,367,2394,331,150997,0
patternOccur-44,true,1.00,2772,389,2770,352,172726,0
patternOccur-45,true,1.00,2201,342,2197,306,140584,0
patternOccur-46,true,1.00,2546,387,2542,350,151430,0
patternOccur-47,true,1.00,4425,427,4420,373,274145,0
patternOccur-48,true,1.00,2773,373,2768,334,170938,0
patternOccur-49,true,1.00,2087,375,2084,339,130524,0
patternOccur-50,true,1.00,2668,380,2667,333,167218,0
patternOccur-51,true,1.00,2873,393,2867,356,183296,0
patternOccur-52,true,1.00,3021,382,3020,337,186014,0
patternOccur-53,true,1.00,2795,385,2791,349,172479,0
patternOccur-54,true,1.00,4555,412,4550,371,227024,0
patternOccur-55,true,1.00,3678,383,3676,347,166268,0
patternOccur-56,true,1.00,4492,448,4489,411,267689,0
patternOccur-57,true,1.00,2943,402,2937,358,182904,0
patternOccur-58,true,1.00,6083,478,6078,440,384258,0
patternOccur-59,true,1.00,3616,388,3612,352,157016,0
patternOccur-60,true,1.00,4320,417,4315,369,230682,0
patternOccur-61,true,1.00,2440,365,2436,328,153046,0
patternOccur-62,true,1.00,2406,377,2398,341,149543,0
patternOccur-63,true,1.00,2790,386,2787,348,167948,0
patternOccur-64,true,1.00,4501,455,4497,412,251148,0
patternOccur-65,true,1.00,2585,392,2583,356,157878,0
patternOccur-66,true,1.00,2002,355,1999,319,129398,0
patternOccur-67,true,1.00,2434,392,2431,355,151766,0
patternOccur-68,true,1.00,2053,371,2049,335,126020,0
patternOccur-69,true,1.00,3876,390,3874,347,252496,0
patternOccur-70,true,1.00,3892,376,3890,340,240797,0
patternOccur-71,true,1.00,4693,443,4692,406,286856,0
patternOccur-72,true,1.00,4998,405,4996,363,310527,0
patternOccur-73,true,1.00,4422,419,4419,364,276358,0
patternOccur-74,true,1.00,4630,433,4629,372,291562,0
patternOccur-75,true,1.00,3000,379,2997,339,196181,0
patternOccur-76,true,1.00,2119,352,2114,316,138806,0
patternOccur-77,true,1.00,1814,334,1811,298,113370,0
patternOccur-78,true,1.00,2916,402,2914,364,174183,0
patternOccur-79,true,1.00,2954,420,2948,384,180550,0
patternOccur-80,true,1.00,3487,380,3483,342,212711,0
patternOccur-81,true,1.00,2737,364,2733,323,181161,0
patternOccur-82,true,1.00,3697,383,3697,341,225254,0
patternOccur-83,true,1.00,1993,365,1991,329,124311,0
patternOccur-84,true,1.00,1737,346,1736,310,113292,0
patternOccur-85,true,1.00,2867,382,2864,342,187919,0
patternOccur-86,true,1.00,3967,411,3961,367,248430,0
patternOccur-87,true,1.00,2268,379,2265,343,137592,0
patternOccur-88,true,1.00,2730,450,2729,413,167588,0
patternOccur-89,true,1.00,3615,416,3613,379,217808,0
patternOccur-90,true,1.00,3472,447,3467,405,209274,0
patternOccur-91,true,1.00,2050,384,2049,348,128366,0
patternOccur-92,true,1.00,2205,368,2203,332,126275,0
patternOccur-93,true,1.00,2632,387,2628,351,160221,0
patternOccur-94,true,1.00,6886,495,6881,430,433393,0
patternOccur-95,true,1.00,2938,379,2934,342,174803,0
patternOccur-96,false,0.89,2887,311,2886,311,185523,0
patternOccur-97,true,1.00,2321,370,2316,333,146986,0
patternOccur-98,false,0.90,4069,379,4068,379,246503,0
patternOccur-99,true,1.00,1801,350,1801,312,112148,0
patternOccur-100,true,1.00,3367,390,3365,354,197760,0
