NDW:0.0
TTFW:1.4
DFPT:2.0
DFPAP:3.0
DFPMP:5.0
RIGHT_WINDOW_BORDER_X:55.0
level,win/fail,% travelled,run time,game ticks,planning time,total plannings,nodes evaluated,most backtracked nodes
Krys-1,false,0.38,26762,999,26760,999,1042598,0
Krys-2,false,0.60,7561,999,7538,999,465661,0
Krys-3,false,0.15,4310,193,4309,193,252212,0
Krys-4,false,0.81,6828,999,6806,999,412214,0
Krys-5,false,0.62,3042,399,3032,399,181573,0
Krys-6,false,0.51,2895,483,2887,483,180578,0
Krys-7,true,1.00,313,488,305,481,20493,0
Krys-8,true,1.00,2727,662,2714,655,177250,0
Krys-9,false,0.31,2336,235,2329,235,147947,0
Krys-10,true,1.00,3711,710,3691,703,240734,0
Krys-11,true,1.00,112,485,94,478,7318,0
Krys-12,false,0.44,505,261,501,261,32639,0
Krys-13,false,0.65,21469,999,21460,999,1209937,0
Krys-14,true,1.00,353,506,342,500,21305,0
Krys-15,false,0.53,3392,383,3386,383,218403,0
Krys-16,false,0.69,18292,999,18274,999,837662,0
Krys-17,false,0.72,1997,410,1992,410,114816,0
Krys-18,false,0.46,564,310,559,310,33136,0
Krys-19,false,0.10,2146,178,2144,178,123391,0
Krys-20,false,0.64,1774,504,1766,504,118576,0
Krys-21,false,0.32,2501,241,2497,241,126834,0
Krys-22,false,0.50,4759,420,4753,420,289082,0
Krys-23,true,1.00,3774,809,3759,803,245641,0
Krys-24,false,0.82,13163,999,13137,999,756375,0
Krys-25,false,0.45,3292,343,3285,343,193442,0
Krys-26,false,0.32,4755,359,4749,359,285792,0
Krys-27,false,0.52,220,296,205,296,11631,0
Krys-28,false,0.79,6923,797,6909,797,395111,0
Krys-29,true,1.00,1003,642,984,633,55407,0
Krys-30,true,1.00,3170,806,3152,799,175633,0
Krys-31,false,0.72,1029,447,1018,447,65075,0
Krys-32,true,1.00,263,527,250,520,15542,0
Krys-33,false,0.27,149,135,142,135,8486,0
Krys-34,true,1.00,4077,697,4053,692,179698,0
Krys-35,false,0.50,4366,999,4343,999,303419,0
Krys-36,false,0.41,2849,364,2841,364,186008,0
Krys-37,false,0.31,24549,999,24542,999,1494466,0
Krys-38,false,0.36,4546,363,4538,363,274835,0
Krys-39,false,0.20,5836,294,5833,294,337317,0
Krys-40,false,0.62,4724,546,4715,546,301526,0
Krys-41,false,0.35,3543,312,3537,312,208321,0
Krys-42,false,0.54,3145,393,3138,393,188443,0
Krys-43,false,0.53,4833,430,4828,430,293481,0
Krys-44,false,0.47,5964,442,5960,442,364279,0
Krys-45,true,1.00,577,507,562,501,31815,0
Krys-46,true,1.00,2077,730,2058,724,107716,0
Krys-47,false,0.61,1118,406,1108,406,68188,0
Krys-48,false,0.10,2149,178,2145,178,119212,0
Krys-49,true,1.00,2073,640,2055,633,119573,0
Krys-50,false,0.35,4009,387,4000,387,242501,0
Krys-51,false,0.61,22013,999,22011,999,1420909,0
Krys-52,true,1.00,800,644,790,637,47905,0
Krys-53,true,1.00,2461,721,2446,714,129848,0
Krys-54,false,0.44,1864,329,1856,329,113728,0
Krys-55,true,1.00,3959,695,3942,689,214749,0
Krys-56,false,0.23,773,150,769,150,45121,0
Krys-57,false,0.75,20056,999,20045,999,1042416,0
Krys-58,false,0.63,3682,542,3670,542,194092,0
Krys-59,false,0.89,14339,999,14319,999,618963,0
Krys-60,false,0.63,8573,588,8557,588,519254,0
Krys-61,false,0.30,1220,276,1211,276,77711,0
Krys-62,true,1.00,699,571,679,564,40136,0
Krys-63,false,0.42,1619,413,1611,413,79076,0
Krys-64,true,1.00,3586,751,3557,744,206310,0
Krys-65,true,1.00,1570,645,1557,639,77128,0
Krys-66,true,1.00,2675,685,2657,678,136137,0
Krys-67,true,1.00,2092,754,2075,748,117431,0
Krys-68,false,0.62,2478,393,2475,393,142337,0
Krys-69,false,0.48,23291,999,23285,999,918690,0
Krys-70,false,0.55,2384,446,2378,446,149814,0
Krys-71,false,0.73,10392,876,10377,876,686403,0
Krys-72,true,1.00,960,626,944,619,61366,0
Krys-73,false,0.63,1166,414,1156,414,76586,0
Krys-74,false,0.72,18857,999,18845,999,1054356,0
Krys-75,true,1.00,239,524,232,518,15131,0
Krys-76,false,0.33,2469,260,2465,260,157747,0
Krys-77,false,0.81,6713,639,6708,639,412166,0
Krys-78,false,0.20,9391,999,9372,999,643989,0
Krys-79,true,1.00,559,505,547,499,33873,0
Krys-80,false,0.63,398,330,390,330,24027,0
Krys-81,false,0.61,1981,417,1971,417,127494,0
Krys-82,true,1.00,948,507,940,500,58387,0
Krys-83,false,0.53,2100,307,2094,307,138968,0
Krys-84,true,1.00,190,464,177,458,11754,0
Krys-85,false,0.56,178,334,166,334,11291,0
Krys-86,true,1.00,1477,562,1467,555,78700,0
Krys-87,true,1.00,293,493,281,486,17857,0
Krys-88,false,0.73,982,418,973,418,62552,0
Krys-89,false,0.35,3787,296,3783,296,226973,0
Krys-90,false,0.32,4747,359,4743,359,300209,0
Krys-91,true,1.00,330,509,317,502,20935,0
Krys-92,false,0.36,1905,334,1895,334,116343,0
Krys-93,false,0.42,311,240,307,240,20995,0
Krys-94,false,0.55,4493,449,4487,449,287246,0
Krys-95,false,0.73,1951,514,1941,514,112469,0
Krys-96,false,0.44,332,232,327,232,22552,0
Krys-97,false,0.71,4753,516,4742,516,299471,0
Krys-98,true,1.00,4993,777,4978,765,299036,0
Krys-99,true,1.00,712,535,697,528,41416,0
Krys-100,false,0.61,11988,734,11982,734,781845,0
