NDW:0.0
TTFW:1.2
DFPT:2.0
DFPAP:3.0
DFPMP:2.0
RIGHT_WINDOW_BORDER_X:350.0
level,win/fail,% travelled,run time,game ticks,planning time,total plannings,nodes evaluated,most backtracked nodes
ge-1,true,1.00,553,255,551,203,58137,0
ge-2,true,1.00,376,231,376,199,40757,0
ge-3,true,1.00,195,219,193,187,17187,0
ge-4,true,1.00,1034,240,1033,207,121369,0
ge-5,true,1.00,45,199,43,167,2823,0
ge-6,true,1.00,411,241,410,209,40018,0
ge-7,true,1.00,141,225,140,185,12228,0
ge-8,true,1.00,178,217,178,185,16175,0
ge-9,true,1.00,368,226,367,185,43343,0
ge-10,true,1.00,42,199,41,167,2644,0
ge-11,true,1.00,163,207,161,175,15418,0
ge-12,true,1.00,45,199,44,167,2609,0
ge-13,true,1.00,813,248,811,216,83629,0
ge-14,true,1.00,211,234,210,191,20206,0
ge-15,true,1.00,1296,228,1295,196,137113,0
ge-16,true,1.00,192,259,192,227,14235,0
ge-17,true,1.00,260,207,260,175,28333,0
ge-18,true,1.00,233,241,233,209,20961,0
ge-19,true,1.00,952,254,951,222,112740,0
ge-20,true,1.00,382,227,379,195,40797,0
ge-21,true,1.00,211,201,211,169,20501,0
ge-22,true,1.00,281,203,278,171,29111,0
ge-23,true,1.00,544,208,541,172,58883,0
ge-24,true,1.00,421,227,420,190,44012,0
ge-25,true,1.00,324,201,323,169,34182,0
ge-26,true,1.00,178,203,177,171,19020,0
ge-27,true,1.00,64,220,62,188,4362,0
ge-28,true,1.00,477,205,476,173,51906,0
ge-29,true,1.00,178,218,178,167,17570,0
ge-30,true,1.00,667,246,665,198,71949,0
ge-31,true,1.00,720,254,716,216,81519,0
ge-32,true,1.00,170,224,167,191,14519,0
ge-33,true,1.00,109,239,108,193,9424,0
ge-34,true,1.00,560,207,559,175,63695,0
ge-35,true,1.00,414,250,413,217,43466,0
ge-36,true,1.00,615,250,612,209,66349,0
ge-37,true,1.00,209,199,208,167,23245,0
ge-38,true,1.00,563,245,563,213,60809,0
ge-39,true,1.00,353,221,352,186,36948,0
ge-40,true,1.00,41,199,39,167,2717,0
ge-41,true,1.00,178,208,178,173,19135,0
ge-42,true,1.00,757,268,756,235,79566,0
ge-43,true,1.00,281,240,281,188,30194,0
ge-44,true,1.00,461,212,461,181,52567,0
ge-45,true,1.00,905,220,903,188,90269,0
ge-46,true,1.00,1329,263,1329,231,136598,0
ge-47,true,1.00,639,228,638,196,68339,0
ge-48,true,1.00,330,217,327,185,32816,0
ge-49,true,1.00,143,199,142,167,15019,0
ge-50,true,1.00,462,212,458,180,50762,0
ge-51,true,1.00,128,231,127,199,11119,0
ge-52,true,1.00,288,266,288,231,24156,0
ge-53,true,1.00,273,226,272,194,27497,0
ge-54,true,1.00,273,242,271,204,27944,0
ge-55,true,1.00,372,222,370,191,36764,0
ge-56,true,1.00,313,249,312,179,32000,0
ge-57,true,1.00,466,217,463,180,51707,0
ge-58,true,1.00,574,286,568,227,56318,0
ge-59,true,1.00,721,217,721,185,85060,0
ge-60,true,1.00,486,201,485,169,50144,0
ge-61,true,1.00,229,203,228,171,23800,0
ge-62,true,1.00,436,207,432,175,47334,0
ge-63,true,1.00,735,226,731,188,84070,0
ge-64,false,1.00,214,244,214,191,20885,0
ge-65,true,1.00,556,234,554,202,61910,0
ge-66,true,1.00,570,224,568,181,62628,0
ge-67,true,1.00,274,242,273,210,24850,0
ge-68,true,1.00,200,240,198,208,16056,0
ge-69,true,1.00,155,199,154,167,13824,0
ge-70,true,1.00,331,204,330,171,28101,0
ge-71,true,1.00,725,241,723,209,85633,0
ge-72,true,1.00,230,253,229,221,18215,0
ge-73,true,1.00,261,209,260,177,27832,0
ge-74,true,1.00,671,235,668,203,68450,0
ge-75,true,1.00,239,246,237,192,25422,0
ge-76,true,1.00,681,219,681,186,76648,0
ge-77,true,1.00,697,228,695,196,78200,0
ge-78,true,1.00,607,236,606,204,65534,0
ge-79,true,1.00,174,222,174,190,17163,0
ge-80,true,1.00,90,219,89,167,5850,0
ge-81,true,1.00,88,216,87,184,6126,0
ge-82,true,1.00,94,241,91,187,6609,0
ge-83,false,1.00,142,252,140,190,13014,0
ge-84,true,1.00,283,209,283,177,29639,0
ge-85,true,1.00,262,209,261,177,27945,0
ge-86,true,1.00,657,206,653,169,74318,0
ge-87,true,1.00,516,223,515,191,56920,0
ge-88,true,1.00,492,248,490,182,57718,0
ge-89,true,1.00,210,261,207,224,17121,0
ge-90,true,1.00,43,199,40,167,2852,0
ge-91,true,1.00,241,199,240,167,24949,0
ge-92,true,1.00,47,205,46,173,3243,0
ge-93,true,1.00,499,227,496,181,55509,0
ge-94,true,1.00,366,206,365,168,41986,0
ge-95,true,1.00,155,259,155,210,11854,0
ge-96,true,1.00,662,232,661,189,73998,0
ge-97,true,1.00,337,217,336,184,36377,0
ge-98,true,1.00,42,199,41,167,2584,0
ge-99,true,1.00,141,199,140,167,12255,0
ge-100,true,1.00,52,205,51,173,3389,0
