NDW:0.0
TTFW:1.2
DFPT:2.0
DFPAP:3.0
DFPMP:20.0
RIGHT_WINDOW_BORDER_X:275.0
level,win/fail,% travelled,run time,game ticks,planning time,total plannings,nodes evaluated,most backtracked nodes
Krys-1,true,1.00,8699,593,8694,562,612001,0
Krys-2,true,1.00,3128,439,3124,378,201617,0
Krys-3,true,1.00,6582,523,6577,477,524304,0
Krys-4,true,1.00,3234,450,3226,399,216287,0
Krys-5,true,1.00,1750,370,1748,309,187297,0
Krys-6,true,1.00,1405,360,1399,316,130252,0
Krys-7,true,1.00,295,355,291,301,26802,0
Krys-8,true,1.00,1543,458,1538,382,127206,0
Krys-9,true,1.00,2117,335,2116,297,236659,0
Krys-10,true,1.00,2454,385,2452,341,222208,0
Krys-11,true,1.00,242,392,242,334,16209,0
Krys-12,true,1.00,4549,428,4548,367,309476,0
Krys-13,true,1.00,3625,433,3623,369,360573,0
Krys-14,true,1.00,2141,381,2137,333,133956,0
Krys-15,true,1.00,3796,402,3796,353,387439,0
Krys-16,true,1.00,3064,437,3062,380,188826,0
Krys-17,true,1.00,2139,429,2139,380,153092,0
Krys-18,true,1.00,1293,443,1292,393,102749,0
Krys-19,true,1.00,4565,417,4563,353,414709,0
Krys-20,true,1.00,4583,531,4581,484,416129,0
Krys-21,true,1.00,1740,408,1736,364,197431,0
Krys-22,true,1.00,1823,332,1821,283,204584,0
Krys-23,true,1.00,2110,505,2106,438,150623,0
Krys-24,false,0.70,26922,999,26922,999,1513200,0
Krys-25,true,1.00,2608,398,2605,343,201680,0
Krys-26,true,1.00,3252,336,3250,287,342212,0
Krys-27,true,1.00,2396,344,2395,303,199532,0
Krys-28,true,1.00,4199,431,4197,382,358011,0
Krys-29,true,1.00,1774,475,1772,420,120243,0
Krys-30,true,1.00,2716,549,2715,488,170519,0
Krys-31,true,1.00,1357,453,1353,403,116216,0
Krys-32,true,1.00,569,434,561,385,38748,0
Krys-33,true,1.00,453,353,453,295,39633,0
Krys-34,true,1.00,3837,498,3837,437,284771,0
Krys-35,true,1.00,3432,451,3429,394,303759,0
Krys-36,true,1.00,3646,417,3645,339,349322,0
Krys-37,true,1.00,5103,473,5099,435,450380,0
Krys-38,true,1.00,3867,391,3865,342,388878,0
Krys-39,true,1.00,3487,411,3487,336,328991,0
Krys-40,true,1.00,4143,466,4141,410,397928,0
Krys-41,true,1.00,4715,401,4714,356,406141,0
Krys-42,true,1.00,2202,360,2201,302,228247,0
Krys-43,true,1.00,1388,345,1387,296,150870,0
Krys-44,true,1.00,5673,491,5671,439,494422,0
Krys-45,true,1.00,1886,470,1882,426,116578,0
Krys-46,true,1.00,1884,439,1882,396,125321,0
Krys-47,true,1.00,1312,511,1308,452,108423,0
Krys-48,true,1.00,1662,332,1658,288,177624,0
Krys-49,true,1.00,1119,447,1115,401,84627,0
Krys-50,true,1.00,6194,486,6189,437,477471,0
Krys-51,true,1.00,3472,411,3471,348,360353,0
Krys-52,true,1.00,2164,478,2159,431,145295,0
Krys-53,true,1.00,1531,430,1529,384,104447,0
Krys-54,true,1.00,4085,454,4081,414,365192,0
Krys-55,true,1.00,2993,449,2992,402,223636,0
Krys-56,true,1.00,701,347,698,307,55137,0
Krys-57,true,1.00,1771,350,1766,302,151590,0
Krys-58,true,1.00,2580,465,2577,427,174808,0
Krys-59,true,1.00,3249,425,3247,373,207182,0
Krys-60,true,1.00,2869,403,2867,330,260137,0
Krys-61,true,1.00,2211,464,2208,418,145805,0
Krys-62,true,1.00,1889,453,1889,402,109995,0
Krys-63,true,1.00,3867,636,3864,590,239646,0
Krys-64,true,1.00,3025,514,3022,471,224207,0
Krys-65,true,1.00,2494,413,2493,375,148718,0
Krys-66,true,1.00,2770,407,2768,364,167720,0
Krys-67,true,1.00,2723,512,2718,460,198590,0
Krys-68,true,1.00,2270,314,2266,265,220869,0
Krys-69,true,1.00,3845,482,3842,427,265032,0
Krys-70,true,1.00,5996,519,5995,479,449967,0
Krys-71,true,1.00,2365,363,2365,314,254678,0
Krys-72,true,1.00,1252,527,1249,476,85791,0
Krys-73,true,1.00,5179,545,5177,502,369829,0
Krys-74,true,1.00,2486,411,2486,359,216360,0
Krys-75,true,1.00,1072,375,1069,313,58691,0
Krys-76,true,1.00,3694,338,3694,301,329313,0
Krys-77,true,1.00,1423,353,1422,307,145242,0
Krys-78,true,1.00,4951,433,4949,397,371930,0
Krys-79,true,1.00,1194,392,1192,319,77387,0
Krys-80,true,1.00,568,408,564,362,43413,0
Krys-81,true,1.00,1002,430,997,372,88331,0
Krys-82,true,1.00,1677,393,1673,356,107831,0
Krys-83,true,1.00,4118,488,4115,406,313212,0
Krys-84,true,1.00,276,366,276,314,22452,0
Krys-85,true,1.00,3270,507,3266,449,236407,0
Krys-86,true,1.00,1586,388,1586,344,132029,0
Krys-87,true,1.00,1430,378,1428,336,89958,0
Krys-88,true,1.00,2128,479,2124,424,153601,0
Krys-89,true,1.00,1642,438,1639,402,115295,0
Krys-90,true,1.00,3409,365,3407,304,315892,0
Krys-91,true,1.00,345,390,342,347,27557,0
Krys-92,true,1.00,3622,441,3616,348,297239,0
Krys-93,true,1.00,2262,366,2257,322,225260,0
Krys-94,true,1.00,1556,375,1552,331,161100,0
Krys-95,true,1.00,1472,426,1469,368,102100,0
Krys-96,true,1.00,3819,405,3818,353,383102,0
Krys-97,true,1.00,2074,413,2071,367,168077,0
Krys-98,true,1.00,5033,506,5031,474,351559,0
Krys-99,true,1.00,1299,480,1295,413,82658,0
Krys-100,true,1.00,2056,370,2055,330,239645,0
