NDW:0.0
TTFW:1.6
DFPT:2.0
DFPAP:3.0
DFPMP:5.0
RIGHT_WINDOW_BORDER_X:15.0
level,win/fail,% travelled,run time,game ticks,planning time,total plannings,nodes evaluated,most backtracked nodes
patternWeightCount-1,false,0.04,683,135,677,135,44331,0
patternWeightCount-2,false,0.17,1685,402,1673,402,102352,0
patternWeightCount-3,false,0.04,550,131,547,131,36527,0
patternWeightCount-4,false,0.40,2171,770,2161,770,128705,0
patternWeightCount-5,false,0.07,961,244,956,244,53827,0
patternWeightCount-6,false,0.13,778,276,773,276,44210,0
patternWeightCount-7,false,0.01,104,1008,86,1008,5434,0
patternWeightCount-8,false,0.02,360,102,357,102,24446,0
patternWeightCount-9,false,0.23,952,481,934,481,58995,0
patternWeightCount-10,false,0.00,2361,999,2329,999,186715,0
patternWeightCount-11,false,0.43,2836,790,2819,790,166971,0
patternWeightCount-12,false,0.33,1366,528,1360,528,79962,0
patternWeightCount-13,false,0.00,5,21,5,21,342,0
patternWeightCount-14,false,0.11,1972,353,1966,353,112836,0
patternWeightCount-15,false,0.13,1307,315,1299,315,77829,0
patternWeightCount-16,false,0.11,480,212,474,212,25320,0
patternWeightCount-17,false,0.07,849,202,844,202,51359,0
patternWeightCount-18,false,0.00,5,21,5,21,342,0
patternWeightCount-19,false,0.08,403,146,401,146,23044,0
patternWeightCount-20,false,0.01,10589,999,10566,999,744688,0
patternWeightCount-21,false,0.60,2057,1008,2039,1008,122452,0
patternWeightCount-22,false,0.06,307,139,304,139,18421,0
patternWeightCount-23,false,0.07,483,127,482,127,27029,0
patternWeightCount-24,false,0.13,1933,335,1926,335,114212,0
patternWeightCount-25,false,0.06,190,102,186,102,10879,0
patternWeightCount-26,false,0.19,970,384,966,384,55449,0
patternWeightCount-27,false,0.07,405,144,400,144,25702,0
patternWeightCount-28,false,0.05,422,150,419,150,25111,0
patternWeightCount-29,false,0.00,5,21,5,21,342,0
patternWeightCount-30,false,0.23,1024,568,1010,568,61737,0
patternWeightCount-31,false,0.03,171,105,169,105,11538,0
patternWeightCount-32,false,0.29,1228,450,1218,450,71619,0
patternWeightCount-33,false,0.03,322,111,318,111,23702,0
patternWeightCount-34,false,0.02,223,111,222,111,16572,0
patternWeightCount-35,false,0.06,227,131,225,131,14585,0
patternWeightCount-36,false,0.00,2814,999,2787,999,228447,0
patternWeightCount-37,false,0.58,2842,999,2816,999,159232,0
patternWeightCount-38,false,0.10,509,180,503,180,29648,0
patternWeightCount-39,false,0.03,208,67,207,67,12955,0
patternWeightCount-40,false,0.42,3669,847,3653,847,210104,0
patternWeightCount-41,false,0.03,292,107,290,107,20474,0
patternWeightCount-42,false,0.20,1665,433,1657,433,97181,0
patternWeightCount-43,false,0.17,1690,364,1678,364,95422,0
patternWeightCount-44,false,0.00,5,21,5,21,342,0
patternWeightCount-45,false,0.09,263,150,258,150,15033,0
patternWeightCount-46,false,0.27,2839,558,2830,558,157476,0
patternWeightCount-47,false,0.18,158,181,156,181,9223,0
patternWeightCount-48,false,0.07,687,176,681,176,36630,0
patternWeightCount-49,false,0.15,796,1008,763,1008,44837,0
patternWeightCount-50,false,0.00,4,21,2,21,342,0
patternWeightCount-51,false,0.09,114,121,112,121,7002,0
patternWeightCount-52,false,0.17,1089,326,1081,326,66827,0
patternWeightCount-53,false,0.00,2816,999,2785,999,228447,0
patternWeightCount-54,false,0.03,93,52,91,52,5955,0
patternWeightCount-55,false,0.48,3173,896,3156,896,184815,0
patternWeightCount-56,false,0.04,852,96,851,96,50724,0
patternWeightCount-57,false,0.00,5,21,5,21,342,0
patternWeightCount-58,false,0.45,2363,802,2344,802,136914,0
patternWeightCount-59,false,0.52,3191,999,3173,999,191141,0
patternWeightCount-60,false,0.01,425,106,424,106,30888,0
patternWeightCount-61,false,0.00,2845,999,2826,999,228447,0
patternWeightCount-62,false,0.04,552,128,549,128,33268,0
patternWeightCount-63,false,0.03,425,111,421,111,27594,0
patternWeightCount-64,false,0.07,292,174,288,174,19886,0
patternWeightCount-65,false,0.51,2715,999,2694,999,155623,0
patternWeightCount-66,false,0.04,669,129,665,129,41524,0
patternWeightCount-67,false,0.18,585,255,578,255,34548,0
patternWeightCount-68,false,0.11,1928,350,1923,350,113595,0
patternWeightCount-69,false,0.63,2546,999,2524,999,146876,0
patternWeightCount-70,false,0.04,353,88,350,88,22032,0
patternWeightCount-71,false,0.22,1262,457,1259,457,75137,0
patternWeightCount-72,false,0.46,2535,878,2518,878,147808,0
patternWeightCount-73,false,0.08,877,173,873,173,49376,0
patternWeightCount-74,false,0.03,619,120,617,120,40005,0
patternWeightCount-75,false,0.19,1726,462,1713,462,100337,0
patternWeightCount-76,false,0.08,547,118,546,118,30890,0
patternWeightCount-77,false,0.07,132,102,130,102,7667,0
patternWeightCount-78,false,0.02,113,56,112,56,7657,0
patternWeightCount-79,false,0.09,360,153,357,153,20501,0
patternWeightCount-80,false,0.20,1271,499,1255,499,71630,0
patternWeightCount-81,false,0.41,2030,721,2007,721,114158,0
patternWeightCount-82,false,0.04,195,136,194,136,11960,0
patternWeightCount-83,false,0.04,505,116,503,116,30767,0
patternWeightCount-84,false,0.12,611,218,608,218,38505,0
patternWeightCount-85,false,0.24,1076,391,1069,391,61988,0
patternWeightCount-86,false,0.24,589,410,577,410,37291,0
patternWeightCount-87,false,0.15,905,318,899,318,51210,0
patternWeightCount-88,false,0.08,616,148,614,148,34836,0
patternWeightCount-89,false,0.23,1005,339,996,339,58913,0
patternWeightCount-90,false,0.24,3770,713,3756,713,217359,0
patternWeightCount-91,false,0.00,5,21,5,21,342,0
patternWeightCount-92,false,0.21,934,327,928,327,50848,0
patternWeightCount-93,false,0.03,1000,132,996,132,63232,0
patternWeightCount-94,false,0.04,448,102,446,102,28649,0
patternWeightCount-95,false,0.03,1054,1008,1031,1008,67017,0
patternWeightCount-96,false,0.43,3729,999,3702,999,226846,0
patternWeightCount-97,false,0.10,345,180,341,180,21555,0
patternWeightCount-98,false,0.57,4207,1002,4183,1002,235400,0
patternWeightCount-99,false,0.13,833,248,826,248,48630,0
patternWeightCount-100,false,0.14,1586,360,1580,360,94265,0
