NDW:0.0
TTFW:1.2
DFPT:2.0
DFPAP:3.0
DFPMP:20.0
RIGHT_WINDOW_BORDER_X:275.0
level,win/fail,% travelled,run time,game ticks,planning time,total plannings,nodes evaluated,most backtracked nodes
ore-1,true,1.00,1538,433,1536,405,182803,0
ore-2,false,0.70,2609,321,2607,321,273995,0
ore-3,true,1.00,1437,445,1429,400,149755,0
ore-4,true,1.00,1863,430,1857,397,192691,0
ore-5,true,1.00,1672,395,1671,358,198466,0
ore-6,true,1.00,1482,440,1479,404,168561,0
ore-7,true,1.00,2454,471,2452,440,286935,0
ore-8,true,1.00,2515,376,2511,341,285079,0
ore-9,true,1.00,958,355,956,331,109213,0
ore-10,true,1.00,1218,420,1216,380,148334,0
ore-11,true,1.00,1334,453,1330,418,149539,0
ore-12,true,1.00,3737,539,3733,508,348874,0
ore-13,true,1.00,1818,512,1816,464,208850,0
ore-14,true,1.00,2002,427,1998,402,244836,0
ore-15,true,1.00,1916,433,1912,403,235312,0
ore-16,true,1.00,2172,466,2168,429,260987,0
ore-17,true,1.00,1472,446,1467,398,177923,0
ore-18,true,1.00,1439,484,1435,446,173887,0
ore-19,true,1.00,1194,416,1192,389,138704,0
ore-20,true,1.00,1902,452,1899,419,220784,0
ore-21,true,1.00,1683,473,1681,443,200222,0
ore-22,false,0.62,1937,335,1931,335,179451,0
ore-23,true,1.00,1675,434,1673,403,206101,0
ore-24,true,1.00,1305,479,1299,430,150246,0
ore-25,true,1.00,1288,429,1285,395,158500,0
ore-26,true,1.00,1621,405,1618,376,182239,0
ore-27,true,1.00,2340,487,2334,450,265862,0
ore-28,true,1.00,1383,434,1382,409,142446,0
ore-29,true,1.00,1840,428,1837,404,197825,0
ore-30,true,1.00,1178,412,1172,366,132095,0
ore-31,true,1.00,1468,473,1467,431,171829,0
ore-32,true,1.00,1471,415,1465,390,165655,0
ore-33,true,1.00,1331,409,1327,373,151821,0
ore-34,true,1.00,1670,477,1668,434,194530,0
ore-35,true,1.00,1499,434,1496,407,179628,0
ore-36,true,1.00,1280,409,1279,374,151276,0
ore-37,false,0.35,1497,140,1496,140,132916,0
ore-38,true,1.00,1288,404,1283,361,151300,0
ore-39,true,1.00,2130,482,2126,451,261700,0
ore-40,true,1.00,1692,426,1689,398,193260,0
ore-41,true,1.00,1262,423,1257,377,154069,0
ore-42,true,1.00,1885,494,1882,455,225726,0
ore-43,true,1.00,2075,525,2067,499,230462,0
ore-44,true,1.00,2146,422,2143,376,260378,0
ore-45,false,0.74,23099,999,23097,999,1383269,0
ore-46,false,0.12,864,53,864,53,70819,0
ore-47,true,1.00,1855,468,1853,438,207489,0
ore-48,true,1.00,2295,431,2293,404,264484,0
ore-49,true,1.00,1307,394,1302,369,152936,0
ore-50,true,1.00,2482,422,2481,397,299938,0
ore-51,true,1.00,1688,445,1683,408,187649,0
ore-52,true,1.00,1552,437,1546,403,186358,0
ore-53,true,1.00,1457,400,1453,368,169642,0
ore-54,false,0.72,2571,316,2569,316,242010,0
ore-55,true,1.00,1471,399,1466,366,182554,0
ore-56,true,1.00,1243,375,1241,350,146194,0
ore-57,true,1.00,1677,431,1671,394,206170,0
ore-58,true,1.00,1411,423,1407,393,168588,0
ore-59,true,1.00,1706,430,1702,402,207375,0
ore-60,true,1.00,1890,415,1889,383,215405,0
ore-61,true,1.00,1606,419,1604,389,175285,0
ore-62,true,1.00,1543,425,1539,399,179395,0
ore-63,true,1.00,2204,413,2200,375,230964,0
ore-64,true,1.00,1172,390,1169,365,137978,0
ore-65,true,1.00,1784,468,1781,434,211514,0
ore-66,true,1.00,1845,485,1842,439,220118,0
ore-67,true,1.00,2249,418,2247,383,254678,0
ore-68,true,1.00,1104,426,1103,397,125136,0
ore-69,true,1.00,2047,469,2044,440,226157,0
ore-70,true,1.00,2419,465,2415,428,288476,0
ore-71,true,1.00,1410,425,1409,399,164048,0
ore-72,true,1.00,1176,453,1172,416,143421,0
ore-73,true,1.00,1589,435,1584,397,185190,0
ore-74,true,1.00,2362,441,2357,404,249203,0
ore-75,true,1.00,1611,445,1609,418,190048,0
ore-76,true,1.00,1402,425,1400,395,168971,0
ore-77,true,1.00,1292,413,1289,368,155298,0
ore-78,true,1.00,1405,414,1401,378,166476,0
ore-79,true,1.00,1637,417,1632,392,193305,0
ore-80,true,1.00,1368,418,1361,372,157082,0
ore-81,true,1.00,1615,436,1611,408,197348,0
ore-82,true,1.00,1450,424,1445,393,169952,0
ore-83,true,1.00,1410,419,1408,394,163579,0
ore-84,true,1.00,2762,468,2762,437,280254,0
ore-85,true,1.00,1900,444,1895,410,221776,0
ore-86,true,1.00,2592,468,2584,433,316764,0
ore-87,true,1.00,1197,413,1196,388,132867,0
ore-88,true,1.00,1865,426,1862,398,235856,0
ore-89,true,1.00,1683,418,1681,393,183014,0
ore-90,true,1.00,2146,501,2144,452,262226,0
ore-91,true,1.00,1679,385,1673,351,198474,0
ore-92,true,1.00,1935,453,1933,424,226874,0
ore-93,false,0.13,2200,91,2200,91,165943,0
ore-94,true,1.00,1510,454,1505,419,175449,0
ore-95,true,1.00,1782,466,1780,433,199766,0
ore-96,true,1.00,2002,497,1998,460,240899,0
ore-97,true,1.00,1941,467,1935,433,221439,0
ore-98,true,1.00,2498,442,2494,414,301746,0
ore-99,true,1.00,1780,448,1778,422,211175,0
ore-100,true,1.00,1464,459,1461,420,177923,0
