NDW:0.0
TTFW:1.0
DFPT:2.0
DFPAP:3.0
DFPMP:50.0
RIGHT_WINDOW_BORDER_X:55.0
level,win/fail,% travelled,run time,game ticks,planning time,total plannings,nodes evaluated,most backtracked nodes
notch-1,true,1.00,2686,546,2685,539,237826,0
notch-2,true,1.00,6733,788,6726,781,650939,0
notch-3,false,0.33,1873,248,1871,248,161097,0
notch-4,false,0.59,3832,401,3830,401,339762,0
notch-5,false,0.65,2568,431,2566,431,233848,0
notch-6,true,1.00,4428,676,4423,670,411429,0
notch-7,true,1.00,4345,635,4344,628,398582,0
notch-8,true,1.00,6309,711,6305,704,592140,0
notch-9,true,1.00,9538,909,9536,902,822623,0
notch-10,false,0.12,1404,116,1403,116,123017,0
notch-11,false,0.76,5603,596,5599,596,482698,0
notch-12,true,1.00,4409,678,4404,666,385856,0
notch-13,true,1.00,6652,791,6650,784,589412,0
notch-14,false,0.63,5067,519,5067,519,426543,0
notch-15,true,1.00,4655,648,4649,642,396231,0
notch-16,false,0.98,11918,999,11916,999,1059347,0
notch-17,true,1.00,7086,731,7082,724,640162,0
notch-18,true,1.00,5735,725,5733,718,533907,0
notch-19,false,0.12,1935,147,1934,147,162743,0
notch-20,true,1.00,5142,728,5139,722,477477,0
notch-21,true,1.00,4386,740,4381,733,406084,0
notch-22,true,1.00,4446,687,4441,682,385546,0
notch-23,false,0.66,4966,574,4963,574,440130,0
notch-24,true,1.00,4338,670,4332,663,395273,0
notch-25,true,1.00,7678,822,7675,812,685680,0
notch-26,true,1.00,6683,702,6683,695,569028,0
notch-27,true,1.00,9318,892,9314,885,897807,0
notch-28,true,1.00,8876,845,8874,833,805584,0
notch-29,false,0.31,2431,259,2431,259,224365,0
notch-30,false,0.26,2983,242,2982,242,235908,0
notch-31,true,1.00,5473,703,5469,691,464648,0
notch-32,true,1.00,4061,691,4058,684,356803,0
notch-33,true,1.00,8039,731,8035,724,668076,0
notch-34,true,1.00,8276,752,8273,745,741130,0
notch-35,true,1.00,3735,668,3730,661,348174,0
notch-36,true,1.00,10105,940,10103,935,864764,0
notch-37,true,1.00,9773,942,9767,935,906387,0
notch-38,false,0.23,1698,203,1698,203,149451,0
notch-39,true,1.00,6341,779,6337,772,559609,0
notch-40,false,0.71,4196,475,4195,475,366862,0
notch-41,false,0.31,1562,209,1561,209,143168,0
notch-42,false,0.09,37,49,37,49,3430,0
notch-43,true,1.00,4612,597,4606,591,406012,0
notch-44,true,1.00,3977,691,3974,684,323557,0
notch-45,true,1.00,5166,729,5160,722,445465,0
notch-46,true,1.00,6532,722,6529,717,580192,0
notch-47,false,0.39,2372,303,2372,303,220277,0
notch-48,true,1.00,9426,919,9421,912,864357,0
notch-49,true,1.00,5193,623,5188,616,460987,0
notch-50,true,1.00,5785,684,5781,677,533302,0
notch-51,false,0.69,4749,524,4748,524,416555,0
notch-52,true,1.00,3787,640,3783,635,341098,0
notch-53,true,1.00,2826,575,2824,568,232244,0
notch-54,false,0.59,7115,570,7111,570,645545,0
notch-55,false,0.20,1471,187,1470,187,123470,0
notch-56,true,1.00,3548,707,3543,700,305379,0
notch-57,true,1.00,3736,633,3732,627,329224,0
notch-58,true,1.00,7249,719,7244,712,674845,0
notch-59,true,1.00,3485,596,3483,588,301332,0
notch-60,true,1.00,7723,759,7720,752,662864,0
notch-61,false,0.14,405,97,405,97,36707,0
notch-62,false,0.65,4295,504,4291,504,394853,0
notch-63,true,1.00,5374,773,5372,767,516931,0
notch-64,false,0.77,4357,567,4354,567,385598,0
notch-65,true,1.00,8058,890,8054,883,764914,0
notch-66,false,0.47,2911,363,2910,363,252902,0
notch-67,true,1.00,5812,670,5809,663,473325,0
notch-68,true,1.00,3052,568,3047,563,272090,0
notch-69,true,1.00,7232,772,7228,765,663865,0
notch-70,true,1.00,5660,710,5655,703,534418,0
notch-71,true,1.00,7185,786,7184,779,634584,0
notch-72,true,1.00,6507,780,6502,768,597859,0
notch-73,true,1.00,5783,682,5781,676,531446,0
notch-74,true,1.00,4992,561,4988,556,459619,0
notch-75,true,1.00,9302,903,9300,891,835688,0
notch-76,true,1.00,4888,713,4888,706,432802,0
notch-77,true,1.00,4124,676,4116,669,370548,0
notch-78,true,1.00,7800,777,7796,770,699837,0
notch-79,true,1.00,7363,768,7353,761,674643,0
notch-80,true,1.00,3698,559,3698,554,309677,0
notch-81,true,1.00,10950,953,10947,946,972534,0
notch-82,true,1.00,4994,677,4990,670,441849,0
notch-83,false,0.65,3688,461,3686,461,340334,0
notch-84,true,1.00,3687,606,3687,594,324713,0
notch-85,true,1.00,2268,607,2265,600,209643,0
notch-86,false,0.77,4558,546,4554,546,420774,0
notch-87,false,0.79,9718,736,9713,736,812520,0
notch-88,false,0.33,2119,280,2118,280,183642,0
notch-89,false,0.64,6936,671,6934,671,632113,0
notch-90,false,0.85,7384,836,7381,836,673644,0
notch-91,true,1.00,10461,876,10455,871,941055,0
notch-92,true,1.00,6639,913,6637,906,603509,0
notch-93,true,1.00,5669,790,5659,783,508324,0
notch-94,false,0.39,6054,381,6054,381,541342,0
notch-95,true,1.00,5303,659,5300,652,466427,0
notch-96,true,1.00,5249,768,5247,758,471312,0
notch-97,false,0.08,77,78,77,78,8438,0
notch-98,false,0.12,885,114,885,114,79049,0
notch-99,true,1.00,9538,879,9535,872,895667,0
notch-100,false,0.57,4965,481,4963,481,455253,0
