NDW:0.0
TTFW:1.2
DFPT:2.0
DFPAP:3.0
DFPMP:3.0
RIGHT_WINDOW_BORDER_X:135.0
level,win/fail,% travelled,run time,game ticks,planning time,total plannings,nodes evaluated,most backtracked nodes
notchParamRand-1,true,1.00,1122,353,1121,341,111236,0
notchParamRand-2,true,1.00,142,324,139,312,16706,0
notchParamRand-3,true,1.00,1804,361,1801,349,191858,0
notchParamRand-4,true,1.00,3428,414,3428,402,369693,0
notchParamRand-5,true,1.00,246,312,244,300,27570,0
notchParamRand-6,true,1.00,436,314,432,302,46969,0
notchParamRand-7,true,1.00,1060,331,1056,319,112863,0
notchParamRand-8,true,1.00,735,314,732,302,69583,0
notchParamRand-9,true,1.00,727,349,726,337,81031,0
notchParamRand-10,true,1.00,1902,372,1898,360,208442,0
notchParamRand-11,true,1.00,100,298,98,286,11700,0
notchParamRand-12,true,1.00,316,306,313,294,34562,0
notchParamRand-13,true,1.00,2058,346,2056,334,203744,0
notchParamRand-14,true,1.00,1659,335,1658,323,167260,0
notchParamRand-15,true,1.00,638,318,636,306,69092,0
notchParamRand-16,true,1.00,472,308,470,296,54913,0
notchParamRand-17,true,1.00,31,294,27,282,4382,0
notchParamRand-18,true,1.00,4741,431,4737,419,487650,0
notchParamRand-19,true,1.00,144,337,143,325,17446,0
notchParamRand-20,true,1.00,2331,382,2330,370,243952,0
notchParamRand-21,true,1.00,33,296,30,284,4761,0
notchParamRand-22,true,1.00,780,322,777,310,85462,0
notchParamRand-23,true,1.00,1997,374,1996,362,214747,0
notchParamRand-24,true,1.00,173,327,173,315,19944,0
notchParamRand-25,true,1.00,36,308,33,296,5740,0
notchParamRand-26,true,1.00,350,341,348,329,38399,0
notchParamRand-27,true,1.00,201,304,200,292,26121,0
notchParamRand-28,true,1.00,415,324,411,312,45050,0
notchParamRand-29,true,1.00,34,298,31,286,4960,0
notchParamRand-30,true,1.00,3837,408,3834,396,371621,0
notchParamRand-31,true,1.00,276,318,275,306,31490,0
notchParamRand-32,true,1.00,105,308,102,296,13031,0
notchParamRand-33,true,1.00,3895,417,3891,405,405512,0
notchParamRand-34,true,1.00,1068,330,1068,318,108840,0
notchParamRand-35,true,1.00,574,316,570,304,61654,0
notchParamRand-36,true,1.00,33,302,33,290,4726,0
notchParamRand-37,true,1.00,741,331,740,319,86350,0
notchParamRand-38,true,1.00,2487,354,2485,342,245153,0
notchParamRand-39,true,1.00,2832,418,2828,406,291967,0
notchParamRand-40,true,1.00,5584,440,5582,428,574932,0
notchParamRand-41,true,1.00,32,294,29,282,4827,0
notchParamRand-42,true,1.00,345,316,341,304,39271,0
notchParamRand-43,true,1.00,302,304,300,292,33691,0
notchParamRand-44,true,1.00,304,304,300,292,35776,0
notchParamRand-45,true,1.00,1366,334,1363,322,135299,0
notchParamRand-46,true,1.00,2582,379,2581,367,280132,0
notchParamRand-47,true,1.00,884,350,882,338,91409,0
notchParamRand-48,true,1.00,1729,338,1727,326,173081,0
notchParamRand-49,true,1.00,702,308,697,296,73377,0
notchParamRand-50,true,1.00,1672,362,1669,350,178176,0
notchParamRand-51,true,1.00,173,315,171,303,19598,0
notchParamRand-52,true,1.00,770,318,770,306,80200,0
notchParamRand-53,true,1.00,1146,336,1146,324,118795,0
notchParamRand-54,true,1.00,3230,404,3228,392,334214,0
notchParamRand-55,true,1.00,3579,395,3574,383,352420,0
notchParamRand-56,true,1.00,1291,345,1289,333,128858,0
notchParamRand-57,true,1.00,2124,352,2124,340,223483,0
notchParamRand-58,true,1.00,912,348,910,336,98686,0
notchParamRand-59,true,1.00,371,311,370,299,41666,0
notchParamRand-60,true,1.00,802,322,798,310,86488,0
notchParamRand-61,true,1.00,473,316,473,304,52440,0
notchParamRand-62,true,1.00,412,338,410,326,44845,0
notchParamRand-63,true,1.00,2620,374,2620,362,265546,0
notchParamRand-64,true,1.00,309,300,307,288,35483,0
notchParamRand-65,true,1.00,3635,410,3632,398,365167,0
notchParamRand-66,true,1.00,214,309,213,297,23341,0
notchParamRand-67,true,1.00,368,306,366,294,37065,0
notchParamRand-68,true,1.00,2749,367,2748,355,280444,0
notchParamRand-69,true,1.00,205,307,205,295,24041,0
notchParamRand-70,true,1.00,691,354,690,342,76378,0
notchParamRand-71,true,1.00,310,312,308,300,34178,0
notchParamRand-72,true,1.00,99,298,97,286,12154,0
notchParamRand-73,true,1.00,500,312,497,300,49251,0
notchParamRand-74,true,1.00,34,296,33,284,4988,0
notchParamRand-75,true,1.00,32,294,32,282,4590,0
notchParamRand-76,true,1.00,1301,358,1299,346,133427,0
notchParamRand-77,true,1.00,1742,365,1742,353,168699,0
notchParamRand-78,true,1.00,1031,314,1029,302,104778,0
notchParamRand-79,true,1.00,243,312,242,300,27511,0
notchParamRand-80,true,1.00,395,304,395,292,37920,0
notchParamRand-81,true,1.00,304,302,302,290,36520,0
notchParamRand-82,true,1.00,934,332,933,320,98769,0
notchParamRand-83,true,1.00,1401,348,1399,336,145229,0
notchParamRand-84,true,1.00,252,316,251,304,30528,0
notchParamRand-85,true,1.00,33,294,31,282,4617,0
notchParamRand-86,true,1.00,549,348,544,336,59773,0
notchParamRand-87,true,1.00,3392,382,3392,370,353988,0
notchParamRand-88,true,1.00,344,326,340,314,41403,0
notchParamRand-89,true,1.00,475,326,472,314,50746,0
notchParamRand-90,true,1.00,568,310,567,298,56900,0
notchParamRand-91,true,1.00,31,296,30,283,4396,0
notchParamRand-92,true,1.00,974,340,973,328,101430,0
notchParamRand-93,true,1.00,346,318,344,306,38929,0
notchParamRand-94,true,1.00,3144,379,3139,367,313213,0
notchParamRand-95,true,1.00,801,308,799,296,81925,0
notchParamRand-96,true,1.00,412,326,410,314,44368,0
notchParamRand-97,true,1.00,2726,391,2723,379,274608,0
notchParamRand-98,true,1.00,365,306,364,294,45183,0
notchParamRand-99,true,1.00,243,308,239,296,27406,0
notchParamRand-100,true,1.00,2403,354,2402,342,241060,0
