NDW:0.0
TTFW:1.4
DFPT:2.0
DFPAP:3.0
DFPMP:2.0
RIGHT_WINDOW_BORDER_X:400.0
level,win/fail,% travelled,run time,game ticks,planning time,total plannings,nodes evaluated,most backtracked nodes
notch-1,true,1.00,941,287,936,248,53199,0
notch-2,true,1.00,1121,281,1117,244,65104,0
notch-3,true,1.00,1025,251,1020,215,58938,0
notch-4,true,1.00,863,263,861,218,50472,0
notch-5,true,1.00,787,258,786,215,45550,0
notch-6,true,1.00,894,287,891,244,51703,0
notch-7,true,1.00,588,276,584,235,33049,0
notch-8,true,1.00,770,287,765,237,42610,0
notch-9,true,1.00,1586,266,1585,230,94118,0
notch-10,true,1.00,966,273,959,235,55317,0
notch-11,true,1.00,1100,256,1096,217,64271,0
notch-12,true,1.00,803,260,799,223,45150,0
notch-13,true,1.00,837,270,828,234,48027,0
notch-14,true,1.00,867,266,861,215,50279,0
notch-15,true,1.00,1029,263,1023,226,60193,0
notch-16,true,1.00,1433,290,1426,240,55648,0
notch-17,true,1.00,969,276,962,233,55423,0
notch-18,true,1.00,1400,317,1394,270,81456,0
notch-19,true,1.00,992,245,986,201,58776,0
notch-20,true,1.00,1166,294,1159,258,68752,0
notch-21,true,1.00,1023,309,1020,271,59612,0
notch-22,true,1.00,697,241,692,202,39044,0
notch-23,true,1.00,1259,252,1250,215,43270,0
notch-24,true,1.00,895,267,889,231,31257,0
notch-25,true,1.00,1208,302,1203,260,70011,0
notch-26,true,1.00,996,276,984,227,58217,0
notch-27,true,1.00,1400,290,1392,245,83429,0
notch-28,true,1.00,787,256,778,205,46218,0
notch-29,true,1.00,1052,284,1049,241,59997,0
notch-30,true,1.00,929,254,926,201,53711,0
notch-31,true,1.00,853,279,844,233,48768,0
notch-32,true,1.00,838,275,834,228,48188,0
notch-33,true,1.00,868,256,860,212,30723,0
notch-34,true,1.00,921,257,907,221,29385,0
notch-35,true,1.00,812,282,805,244,42753,0
notch-36,true,1.00,1106,288,1100,239,63659,0
notch-37,true,1.00,1096,269,1095,227,64378,0
notch-38,true,1.00,910,309,903,234,52159,0
notch-39,true,1.00,744,228,739,192,42909,0
notch-40,true,1.00,844,273,841,218,49761,0
notch-41,true,1.00,1203,311,1192,268,69652,0
notch-42,true,1.00,705,276,701,229,39629,0
notch-43,true,1.00,759,254,751,215,43898,0
notch-44,true,1.00,655,247,649,199,37198,0
notch-45,true,1.00,686,244,682,208,39856,0
notch-46,true,1.00,933,255,929,219,53919,0
notch-47,true,1.00,962,277,956,238,55617,0
notch-48,true,1.00,1309,265,1301,220,73230,0
notch-49,true,1.00,842,279,831,228,45509,0
notch-50,true,1.00,1097,304,1088,250,53147,0
notch-51,true,1.00,841,245,835,209,35457,0
notch-52,true,1.00,1070,274,1056,233,33994,0
notch-53,true,1.00,689,269,674,204,15042,0
notch-54,true,1.00,1197,304,1189,259,40653,0
notch-55,true,1.00,1084,286,1076,247,62594,0
notch-56,true,1.00,811,269,803,230,45351,0
notch-57,true,1.00,911,291,905,241,51381,0
notch-58,true,1.00,1483,318,1475,276,84142,0
notch-59,true,1.00,905,286,901,244,50136,0
notch-60,true,1.00,976,285,973,249,56641,0
notch-61,true,1.00,797,247,793,211,45521,0
notch-62,true,1.00,716,282,713,246,38649,0
notch-63,true,1.00,951,297,944,261,54214,0
notch-64,true,1.00,880,250,876,214,51743,0
notch-65,true,1.00,1480,343,1475,280,85741,0
notch-66,true,1.00,1694,305,1690,250,94045,0
notch-67,true,1.00,841,247,832,205,46251,0
notch-68,true,1.00,525,250,521,214,27467,0
notch-69,true,1.00,1439,301,1428,264,77912,0
notch-70,true,1.00,1310,300,1305,253,54875,0
notch-71,true,1.00,1212,257,1207,221,65678,0
notch-72,true,1.00,844,245,838,209,46307,0
notch-73,true,1.00,780,277,771,229,41489,0
notch-74,true,1.00,654,246,646,202,35053,0
notch-75,true,1.00,1398,303,1387,260,79003,0
notch-76,true,1.00,860,274,852,232,49740,0
notch-77,true,1.00,846,276,841,228,48038,0
notch-78,true,1.00,996,277,991,230,57909,0
notch-79,true,1.00,992,292,984,235,57564,0
notch-80,true,1.00,557,230,556,194,31543,0
notch-81,true,1.00,1161,259,1154,212,67280,0
notch-82,true,1.00,743,274,736,235,41990,0
notch-83,true,1.00,1107,278,1097,235,36579,0
notch-84,true,1.00,862,259,846,216,21347,0
notch-85,true,1.00,724,288,715,231,34809,0
notch-86,true,1.00,840,245,832,208,48435,0
notch-87,true,1.00,731,243,728,205,41719,0
notch-88,true,1.00,1552,288,1544,245,93409,0
notch-89,true,1.00,1439,308,1428,254,83025,0
notch-90,true,1.00,1271,272,1261,236,56906,0
notch-91,true,1.00,1293,294,1286,244,75498,0
notch-92,true,1.00,1547,281,1543,245,91084,0
notch-93,true,1.00,872,274,867,224,49401,0
notch-94,true,1.00,1208,278,1203,224,70859,0
notch-95,true,1.00,650,255,642,213,36165,0
notch-96,true,1.00,657,271,650,226,38188,0
notch-97,true,1.00,823,295,817,251,46756,0
notch-98,true,1.00,976,263,970,203,57279,0
notch-99,true,1.00,1808,306,1801,257,110486,0
notch-100,true,1.00,777,262,775,226,44699,0
