NDW:0.0
TTFW:0.2
DFPT:2.0
DFPAP:3.0
DFPMP:20.0
RIGHT_WINDOW_BORDER_X:15.0
level,win/fail,% travelled,run time,game ticks,planning time,total plannings,nodes evaluated,most backtracked nodes
hopper-1,false,0.13,244,106,244,106,17228,0
hopper-2,false,0.13,243,106,242,106,17270,0
hopper-3,false,0.24,1541,271,1541,271,102291,0
hopper-4,false,0.14,14,113,14,113,1922,0
hopper-5,false,0.13,244,106,242,106,17055,0
hopper-6,false,0.14,14,113,13,113,1922,0
hopper-7,false,0.13,251,106,251,106,16633,0
hopper-8,false,0.13,244,106,244,106,17000,0
hopper-9,false,0.13,243,106,242,106,17652,0
hopper-10,false,0.24,10,150,10,150,1534,0
hopper-11,false,0.13,243,106,241,106,17125,0
hopper-12,false,0.14,14,113,14,113,1922,0
hopper-13,false,0.13,244,106,244,106,17431,0
hopper-14,false,0.13,244,106,244,106,17498,0
hopper-15,false,0.13,244,106,244,106,17200,0
hopper-16,false,0.13,244,106,244,106,16547,0
hopper-17,false,0.14,13,113,13,113,1922,0
hopper-18,false,0.15,4,91,2,91,687,0
hopper-19,false,0.17,19,120,18,120,2274,0
hopper-20,false,0.13,245,106,245,106,16478,0
hopper-21,false,0.13,245,106,245,106,16310,0
hopper-22,false,0.12,4,74,3,74,591,0
hopper-23,false,0.13,245,106,243,106,16621,0
hopper-24,false,0.13,254,106,254,106,16484,0
hopper-25,false,0.31,234,235,233,235,16501,0
hopper-26,false,0.13,244,106,244,106,16284,0
hopper-27,false,0.13,245,106,244,106,16392,0
hopper-28,false,0.13,244,106,244,106,16469,0
hopper-29,false,0.26,248,170,248,170,15915,0
hopper-30,false,0.13,247,106,246,106,15220,0
hopper-31,false,0.13,248,106,245,106,14585,0
hopper-32,false,0.17,19,120,17,120,2274,0
hopper-33,false,0.15,4,91,2,91,683,0
hopper-34,false,0.13,248,106,247,106,15241,0
hopper-35,false,0.13,247,106,247,106,15992,0
hopper-36,false,0.13,245,106,245,106,16140,0
hopper-37,false,0.14,14,113,14,113,1922,0
hopper-38,false,0.12,27845,999,27844,999,1773884,0
hopper-39,false,0.29,729,234,727,234,48906,0
hopper-40,false,0.13,242,106,242,106,17381,0
hopper-41,false,0.24,1534,271,1531,271,101178,0
hopper-42,false,0.13,244,106,243,106,16811,0
hopper-43,false,0.13,243,106,243,106,17199,0
hopper-44,false,0.30,754,234,753,234,52050,0
hopper-45,false,0.13,243,106,243,106,17087,0
hopper-46,false,0.13,244,106,244,106,17448,0
hopper-47,false,0.16,3,93,2,93,692,0
hopper-48,false,0.13,244,106,243,106,16770,0
hopper-49,false,0.13,244,106,243,106,16877,0
hopper-50,false,0.13,244,106,244,106,17093,0
hopper-51,false,0.13,243,106,242,106,17498,0
hopper-52,false,0.22,5,126,4,126,824,0
hopper-53,false,0.13,243,106,243,106,16957,0
hopper-54,false,0.26,5,151,5,151,890,0
hopper-55,false,0.13,244,106,242,106,16836,0
hopper-56,false,0.29,961,229,960,229,64794,0
hopper-57,false,0.18,4,104,3,104,752,0
hopper-58,false,0.13,246,106,246,106,16658,0
hopper-59,false,0.13,247,106,247,106,16764,0
hopper-60,false,0.14,13,113,13,113,1922,0
hopper-61,false,0.13,245,106,243,106,16833,0
hopper-62,false,0.13,245,106,245,106,16527,0
hopper-63,false,0.22,642,182,641,182,43041,0
hopper-64,false,0.13,245,106,245,106,17242,0
hopper-65,false,0.13,244,106,244,106,17340,0
hopper-66,false,0.15,4,91,3,91,687,0
hopper-67,false,0.14,14,113,13,113,1922,0
hopper-68,false,0.14,15,113,15,113,1922,0
hopper-69,false,0.13,243,106,241,106,16989,0
hopper-70,false,0.13,245,106,244,106,17169,0
hopper-71,false,0.17,18,123,15,123,2279,0
hopper-72,false,0.13,244,106,243,106,17223,0
hopper-73,false,0.13,249,106,248,106,17091,0
hopper-74,false,0.13,245,106,245,106,17020,0
hopper-75,false,0.13,244,106,243,106,17021,0
hopper-76,false,0.13,244,106,243,106,17153,0
hopper-77,false,0.13,245,106,245,106,17198,0
hopper-78,false,0.25,5,148,3,148,883,0
hopper-79,false,0.13,244,106,242,106,17151,0
hopper-80,false,0.13,243,106,242,106,16928,0
hopper-81,false,0.13,263,106,263,106,14975,0
hopper-82,false,0.13,244,106,244,106,16854,0
hopper-83,false,0.13,244,106,242,106,17066,0
hopper-84,false,0.13,245,106,245,106,16908,0
hopper-85,false,0.16,4,93,4,93,688,0
hopper-86,false,0.13,244,106,244,106,16897,0
hopper-87,false,0.13,245,106,245,106,17278,0
hopper-88,false,0.13,245,106,245,106,17274,0
hopper-89,false,0.13,244,106,243,106,16862,0
hopper-90,false,0.13,244,106,244,106,16867,0
hopper-91,false,0.13,245,106,245,106,17027,0
hopper-92,false,0.13,245,106,245,106,16989,0
hopper-93,false,0.14,14,113,13,113,1922,0
hopper-94,false,0.13,245,106,244,106,17127,0
hopper-95,false,0.28,582,214,581,214,40238,0
hopper-96,false,0.13,244,106,243,106,17535,0
hopper-97,false,0.13,243,106,242,106,17728,0
hopper-98,false,0.13,243,106,243,106,17352,0
hopper-99,false,0.13,247,106,246,106,15262,0
hopper-100,false,0.13,242,106,242,106,18724,0
