NDW:0.0
TTFW:1.4
DFPT:2.0
DFPAP:3.0
DFPMP:10.0
RIGHT_WINDOW_BORDER_X:155.0
level,win/fail,% travelled,run time,game ticks,planning time,total plannings,nodes evaluated,most backtracked nodes
notch-1,true,1.00,1249,295,1239,281,67446,0
notch-2,true,1.00,1167,286,1164,272,63475,0
notch-3,true,1.00,882,253,876,239,47103,0
notch-4,true,1.00,1109,281,1104,255,59931,0
notch-5,true,1.00,789,256,786,241,42211,0
notch-6,true,1.00,864,285,859,271,47427,0
notch-7,true,1.00,732,273,724,259,40185,0
notch-8,true,1.00,722,307,715,290,38479,0
notch-9,true,1.00,1139,291,1131,277,60221,0
notch-10,true,1.00,1144,289,1136,275,62427,0
notch-11,true,1.00,982,264,978,250,54142,0
notch-12,true,1.00,590,267,581,253,32259,0
notch-13,true,1.00,736,274,733,260,40308,0
notch-14,true,1.00,936,275,932,261,51878,0
notch-15,true,1.00,850,271,847,257,45782,0
notch-16,true,1.00,1160,294,1149,273,65436,0
notch-17,true,1.00,948,280,940,266,53141,0
notch-18,true,1.00,1115,348,1108,334,62334,0
notch-19,true,1.00,1128,251,1122,237,63166,0
notch-20,true,1.00,949,290,944,276,53664,0
notch-21,true,1.00,936,293,927,279,52958,0
notch-22,true,1.00,501,241,495,227,27319,0
notch-23,true,1.00,1125,267,1117,252,63259,0
notch-24,true,1.00,862,269,855,255,47418,0
notch-25,true,1.00,1211,295,1201,280,67588,0
notch-26,true,1.00,844,282,838,268,46669,0
notch-27,true,1.00,1324,323,1317,309,74400,0
notch-28,true,1.00,909,253,902,239,50728,0
notch-29,true,1.00,945,273,936,259,51276,0
notch-30,true,1.00,889,252,887,238,47781,0
notch-31,true,1.00,737,274,728,260,40560,0
notch-32,true,1.00,753,275,747,260,41554,0
notch-33,true,1.00,778,251,772,237,43030,0
notch-34,true,1.00,765,257,760,243,43273,0
notch-35,true,1.00,650,278,645,264,35767,0
notch-36,true,1.00,1014,275,1006,261,57616,0
notch-37,true,1.00,1242,271,1239,256,71343,0
notch-38,true,1.00,994,299,985,281,55588,0
notch-39,true,1.00,686,238,682,223,38405,0
notch-40,true,1.00,1145,283,1140,267,66038,0
notch-41,true,1.00,1392,299,1384,285,79323,0
notch-42,true,1.00,1167,260,1157,246,67747,0
notch-43,true,1.00,825,250,817,236,46295,0
notch-44,true,1.00,711,239,707,225,40690,0
notch-45,true,1.00,796,246,792,232,45116,0
notch-46,true,1.00,858,266,854,252,48983,0
notch-47,true,1.00,1045,280,1039,266,60677,0
notch-48,true,1.00,1303,281,1297,267,75365,0
notch-49,true,1.00,1007,288,1003,268,57569,0
notch-50,true,1.00,749,284,739,269,42901,0
notch-51,true,1.00,726,250,714,231,41555,0
notch-52,true,1.00,756,283,752,269,43518,0
notch-53,true,1.00,363,275,356,259,19777,0
notch-54,true,1.00,1110,298,1102,283,64110,0
notch-55,true,1.00,1222,298,1213,284,70282,0
notch-56,true,1.00,674,266,668,252,38985,0
notch-57,true,1.00,878,299,872,285,48728,0
notch-58,true,1.00,984,299,979,284,56741,0
notch-59,true,1.00,758,286,749,259,41670,0
notch-60,true,1.00,1094,265,1089,251,61627,0
notch-61,true,1.00,879,239,866,225,49108,0
notch-62,true,1.00,967,280,960,266,54617,0
notch-63,true,1.00,911,295,900,281,52145,0
notch-64,true,1.00,1046,266,1038,252,58689,0
notch-65,true,1.00,1313,303,1306,289,75892,0
notch-66,true,1.00,1163,329,1155,314,66075,0
notch-67,true,1.00,963,249,961,235,53726,0
notch-68,true,1.00,455,242,451,228,25264,0
notch-69,true,1.00,1253,296,1246,282,70876,0
notch-70,true,1.00,1634,323,1633,308,94043,0
notch-71,true,1.00,986,245,977,231,55866,0
notch-72,true,1.00,779,245,774,231,44093,0
notch-73,true,1.00,947,279,940,265,53204,0
notch-74,true,1.00,558,239,555,225,32356,0
notch-75,true,1.00,1434,318,1426,303,80709,0
notch-76,true,1.00,1351,305,1341,290,76902,0
notch-77,true,1.00,838,269,834,255,47016,0
notch-78,true,1.00,960,267,958,248,53834,0
notch-79,true,1.00,938,276,933,261,53317,0
notch-80,true,1.00,428,238,419,224,23580,0
notch-81,true,1.00,1352,267,1343,249,75203,0
notch-82,true,1.00,843,299,837,285,47557,0
notch-83,true,1.00,1043,286,1037,264,57424,0
notch-84,true,1.00,712,262,710,248,39495,0
notch-85,true,1.00,820,286,813,271,46301,0
notch-86,true,1.00,800,247,791,233,44477,0
notch-87,true,1.00,1416,287,1412,273,78139,0
notch-88,true,1.00,1657,315,1652,300,93239,0
notch-89,true,1.00,1270,288,1263,274,71511,0
notch-90,true,1.00,1048,266,1044,252,58196,0
notch-91,true,1.00,1311,272,1308,258,72643,0
notch-92,true,1.00,1207,277,1205,263,67069,0
notch-93,true,1.00,819,260,815,246,45232,0
notch-94,true,1.00,1357,294,1350,279,76152,0
notch-95,true,1.00,808,257,799,243,43697,0
notch-96,true,1.00,700,270,695,256,40084,0
notch-97,true,1.00,1451,297,1443,283,81921,0
notch-98,true,1.00,1285,290,1274,276,71283,0
notch-99,true,1.00,1621,310,1612,289,91665,0
notch-100,true,1.00,994,293,988,278,53555,0
