NDW:0.0
TTFW:1.8
DFPT:2.0
DFPAP:3.0
DFPMP:1.0
RIGHT_WINDOW_BORDER_X:35.0
level,win/fail,% travelled,run time,game ticks,planning time,total plannings,nodes evaluated,most backtracked nodes
Mario-1,true,1.00,1152,790,1148,786,128904,0
Mario-2,false,0.74,2175,494,2173,494,206763,0
Mario-3,false,0.26,1520,6666,1491,6666,168554,0
Mario-4,false,0.50,1730,430,1730,430,173809,0
Mario-5,false,0.20,1003,209,1002,209,96914,0
Mario-6,false,0.57,4128,594,4126,594,397064,0
Mario-7,false,0.20,374,202,374,202,42206,0
Mario-8,false,0.09,3046,192,3045,192,275020,0
Mario-9,false,0.76,2208,525,2207,525,219908,0
Mario-10,false,0.26,727,239,725,239,81254,0
Mario-11,false,0.50,3994,483,3988,483,401385,0
Mario-12,true,1.00,355,1046,350,1042,50043,0
Mario-13,false,0.31,948,352,946,352,116580,0
Mario-14,false,0.33,9,182,7,182,2098,0
Mario-15,false,0.58,1000,878,995,878,107743,0
