NDW:0.0
TTFW:1.2
DFPT:2.0
DFPAP:3.0
DFPMP:7.0
RIGHT_WINDOW_BORDER_X:115.0
level,win/fail,% travelled,run time,game ticks,planning time,total plannings,nodes evaluated,most backtracked nodes
Mario-1,true,1.00,611,434,608,420,73014,0
Mario-2,true,1.00,539,343,536,323,55632,0
Mario-3,true,1.00,1548,302,1545,286,181212,0
Mario-4,true,1.00,1090,514,1087,498,124341,0
Mario-5,true,1.00,2423,550,2421,532,265782,0
Mario-6,true,1.00,1072,276,1069,266,125660,0
Mario-7,true,1.00,754,445,747,431,73898,0
Mario-8,true,1.00,3253,544,3251,531,314638,0
Mario-9,true,1.00,514,417,511,405,52147,0
Mario-10,true,1.00,2982,370,2980,355,340046,0
Mario-11,true,1.00,756,414,754,397,78677,0
Mario-12,true,1.00,1279,730,1274,715,136350,0
Mario-13,true,1.00,2894,413,2893,396,361445,0
Mario-14,true,1.00,148,380,144,364,17121,0
Mario-15,true,1.00,5203,987,5195,971,501091,0
