NDW:0.0
TTFW:0.6
DFPT:2.0
DFPAP:3.0
DFPMP:5.0
RIGHT_WINDOW_BORDER_X:135.0
level,win/fail,% travelled,run time,game ticks,planning time,total plannings,nodes evaluated,most backtracked nodes
patternOccur-1,true,1.00,972,418,961,406,55541,0
patternOccur-2,true,1.00,932,410,920,398,53704,0
patternOccur-3,true,1.00,2062,445,2051,433,115759,0
patternOccur-4,true,1.00,2016,466,2007,452,117875,0
patternOccur-5,true,1.00,976,419,967,407,55637,0
patternOccur-6,true,1.00,2448,499,2439,485,137688,0
patternOccur-7,true,1.00,1497,520,1488,508,85866,0
patternOccur-8,true,1.00,1532,429,1523,417,87690,0
patternOccur-9,true,1.00,1862,452,1851,438,104984,0
patternOccur-10,true,1.00,809,400,797,388,46415,0
patternOccur-11,false,0.86,3784,422,3774,422,207017,0
patternOccur-12,true,1.00,1545,491,1534,478,87803,0
patternOccur-13,true,1.00,1580,443,1573,431,91104,0
patternOccur-14,true,1.00,4709,472,4701,450,263323,0
patternOccur-15,true,1.00,1535,410,1528,396,86015,0
patternOccur-16,false,0.91,4621,519,4613,519,244992,0
patternOccur-17,true,1.00,1567,428,1557,414,88558,0
patternOccur-18,true,1.00,1160,414,1147,400,66113,0
patternOccur-19,false,0.82,8044,606,8031,606,455036,0
patternOccur-20,true,1.00,1483,413,1472,399,85463,0
patternOccur-21,true,1.00,1557,463,1546,446,89735,0
patternOccur-22,false,0.84,5722,528,5716,528,309016,0
patternOccur-23,true,1.00,3501,522,3489,510,197897,0
patternOccur-24,true,1.00,1251,459,1244,445,71336,0
patternOccur-25,true,1.00,1651,464,1639,452,92835,0
patternOccur-26,true,1.00,844,391,837,379,47621,0
patternOccur-27,true,1.00,5308,525,5296,506,284124,0
patternOccur-28,true,1.00,1724,486,1713,474,96372,0
patternOccur-29,true,1.00,1032,392,1026,375,57144,0
patternOccur-30,true,1.00,1368,454,1359,442,75387,0
patternOccur-31,false,0.89,9522,627,9517,627,511659,0
patternOccur-32,true,1.00,5721,564,5709,550,313927,0
patternOccur-33,true,1.00,1605,431,1595,419,89765,0
patternOccur-34,true,1.00,1727,481,1719,468,95435,0
patternOccur-35,true,1.00,1709,425,1698,413,92894,0
patternOccur-36,false,0.90,4004,556,3994,556,214993,0
patternOccur-37,false,0.94,10337,661,10328,661,542613,0
patternOccur-38,true,1.00,1261,405,1248,393,70162,0
patternOccur-39,false,0.79,4631,468,4618,468,248621,0
patternOccur-40,true,1.00,2757,452,2743,440,151894,0
patternOccur-41,true,1.00,1844,474,1831,453,103685,0
patternOccur-42,false,0.87,3758,449,3743,449,205291,0
patternOccur-43,true,1.00,1453,404,1440,392,82191,0
patternOccur-44,true,1.00,1339,406,1328,394,75468,0
patternOccur-45,false,0.90,20741,999,20727,999,1137807,0
patternOccur-46,true,1.00,1093,422,1082,410,61634,0
patternOccur-47,false,0.86,4537,495,4526,495,250717,0
patternOccur-48,true,1.00,2032,452,2025,440,113786,0
patternOccur-49,true,1.00,1127,404,1119,392,64486,0
patternOccur-50,true,1.00,2197,467,2185,455,121972,0
patternOccur-51,true,1.00,2305,478,2297,464,129686,0
patternOccur-52,true,1.00,1754,499,1746,486,98727,0
patternOccur-53,true,1.00,1618,430,1610,413,90565,0
patternOccur-54,true,1.00,2230,463,2222,446,125642,0
patternOccur-55,true,1.00,1779,438,1763,426,99471,0
patternOccur-56,true,1.00,2166,487,2155,473,120626,0
patternOccur-57,true,1.00,2202,529,2185,516,123517,0
patternOccur-58,false,0.79,19399,999,19388,999,997924,0
patternOccur-59,true,1.00,1787,438,1781,426,101024,0
patternOccur-60,true,1.00,4010,500,4001,481,215464,0
patternOccur-61,true,1.00,2328,466,2317,454,131945,0
patternOccur-62,true,1.00,1192,405,1189,393,66760,0
patternOccur-63,true,1.00,1188,432,1175,420,67954,0
patternOccur-64,true,1.00,2208,499,2201,486,121727,0
patternOccur-65,true,1.00,2591,486,2580,472,143640,0
patternOccur-66,true,1.00,1825,454,1816,437,103517,0
patternOccur-67,false,0.88,5216,541,5205,541,284587,0
patternOccur-68,true,1.00,1312,420,1302,406,70971,0
patternOccur-69,false,0.91,4611,470,4604,470,241612,0
patternOccur-70,false,0.87,4650,503,4645,503,258026,0
patternOccur-71,true,1.00,2913,477,2906,463,165529,0
patternOccur-72,false,0.86,3243,511,3232,511,176654,0
patternOccur-73,false,0.90,20214,999,20203,999,1063706,0
patternOccur-74,true,1.00,3671,490,3661,472,191841,0
patternOccur-75,true,1.00,2832,466,2823,426,148294,0
patternOccur-76,true,1.00,1984,458,1965,444,111073,0
patternOccur-77,true,1.00,1061,442,1045,428,58750,0
patternOccur-78,true,1.00,974,445,964,433,54125,0
patternOccur-79,true,1.00,2309,497,2295,485,128184,0
patternOccur-80,true,1.00,4365,544,4351,526,232524,0
patternOccur-81,false,0.85,4222,476,4211,476,234201,0
patternOccur-82,false,0.95,5506,556,5497,556,284424,0
patternOccur-83,true,1.00,895,401,887,389,49948,0
patternOccur-84,true,1.00,1236,418,1222,406,66111,0
patternOccur-85,true,1.00,3570,486,3561,469,191661,0
patternOccur-86,false,0.91,6110,521,6105,521,321251,0
patternOccur-87,true,1.00,1234,434,1224,422,68668,0
patternOccur-88,true,1.00,1836,435,1828,421,100818,0
patternOccur-89,true,1.00,1862,474,1854,457,104059,0
patternOccur-90,true,1.00,1828,443,1823,431,103401,0
patternOccur-91,true,1.00,1860,470,1846,458,103967,0
patternOccur-92,true,1.00,1045,382,1037,370,58943,0
patternOccur-93,true,1.00,2184,472,2177,460,116517,0
patternOccur-94,false,0.84,5132,511,5121,511,270990,0
patternOccur-95,true,1.00,1283,427,1273,415,70970,0
patternOccur-96,false,0.86,2704,451,2693,451,135344,0
patternOccur-97,true,1.00,2878,497,2864,485,161171,0
patternOccur-98,false,0.89,5409,532,5402,532,280603,0
patternOccur-99,true,1.00,757,398,751,386,42541,0
patternOccur-100,true,1.00,1868,493,1858,481,101019,0
