NDW:0.0
TTFW:2.0
DFPT:2.0
DFPAP:3.0
DFPMP:5.0
RIGHT_WINDOW_BORDER_X:235.0
level,win/fail,% travelled,run time,game ticks,planning time,total plannings,nodes evaluated,most backtracked nodes
notch-1,true,1.00,911,263,903,242,52972,0
notch-2,true,1.00,1045,273,1041,252,62214,0
notch-3,true,1.00,930,267,924,246,53717,0
notch-4,true,1.00,1119,262,1112,241,64948,0
notch-5,true,1.00,724,258,717,231,42211,0
notch-6,true,1.00,933,309,928,287,54595,0
notch-7,true,1.00,656,294,651,272,39209,0
notch-8,true,1.00,682,286,677,249,39994,0
notch-9,true,1.00,1095,268,1090,247,64626,0
notch-10,true,1.00,1010,306,1004,285,60423,0
notch-11,true,1.00,1230,270,1224,249,73391,0
notch-12,true,1.00,658,264,653,243,38840,0
notch-13,true,1.00,842,259,836,238,50596,0
notch-14,true,1.00,984,264,975,241,58471,0
notch-15,true,1.00,880,265,866,244,51515,0
notch-16,true,1.00,1403,302,1396,269,86191,0
notch-17,true,1.00,947,279,945,255,56600,0
notch-18,true,1.00,1254,334,1242,309,73965,0
notch-19,true,1.00,1026,257,1021,229,62466,0
notch-20,true,1.00,920,280,910,259,54535,0
notch-21,true,1.00,902,310,893,289,54423,0
notch-22,true,1.00,656,254,650,233,37881,0
notch-23,true,1.00,1037,260,1033,235,61998,0
notch-24,true,1.00,708,282,703,261,41596,0
notch-25,true,1.00,1049,296,1043,275,62622,0
notch-26,true,1.00,902,267,900,246,53722,0
notch-27,true,1.00,1819,293,1815,271,111634,0
notch-28,true,1.00,705,251,699,227,42544,0
notch-29,true,1.00,1108,281,1103,252,65757,0
notch-30,true,1.00,959,248,952,217,56966,0
notch-31,true,1.00,774,271,767,249,45671,0
notch-32,true,1.00,680,268,672,246,40041,0
notch-33,true,1.00,850,244,843,215,51399,0
notch-34,true,1.00,843,257,837,236,50955,0
notch-35,true,1.00,779,285,768,264,45838,0
notch-36,true,1.00,1485,304,1480,283,87592,0
notch-37,true,1.00,1576,277,1571,247,94888,0
notch-38,true,1.00,1045,293,1040,264,61340,0
notch-39,true,1.00,718,230,712,208,41926,0
notch-40,true,1.00,1105,275,1096,245,65579,0
notch-41,true,1.00,1084,280,1080,259,64324,0
notch-42,true,1.00,977,250,972,228,58474,0
notch-43,true,1.00,814,252,809,231,47533,0
notch-44,true,1.00,981,262,966,226,58331,0
notch-45,true,1.00,849,244,846,223,51036,0
notch-46,true,1.00,781,253,776,232,46436,0
notch-47,true,1.00,1374,281,1369,259,83922,0
notch-48,true,1.00,1086,259,1077,237,65850,0
notch-49,true,1.00,1117,281,1109,253,67118,0
notch-50,true,1.00,1074,306,1067,281,63272,0
notch-51,true,1.00,790,245,788,224,47874,0
notch-52,true,1.00,740,270,736,248,43484,0
notch-53,true,1.00,370,276,363,242,20961,0
notch-54,true,1.00,1287,312,1284,284,76828,0
notch-55,true,1.00,1260,290,1251,268,74133,0
notch-56,true,1.00,823,279,814,258,48308,0
notch-57,true,1.00,886,289,883,267,51277,0
notch-58,true,1.00,1398,300,1391,273,83418,0
notch-59,true,1.00,1170,274,1160,253,68418,0
notch-60,true,1.00,985,284,976,263,58717,0
notch-61,true,1.00,869,250,864,229,51235,0
notch-62,true,1.00,1097,288,1088,267,64916,0
notch-63,true,1.00,947,292,940,271,57339,0
notch-64,true,1.00,1097,268,1089,246,64487,0
notch-65,true,1.00,1429,319,1423,295,85865,0
notch-66,true,1.00,1763,306,1759,283,103022,0
notch-67,true,1.00,903,253,899,232,52475,0
notch-68,true,1.00,565,242,559,221,32356,0
notch-69,true,1.00,1429,294,1422,273,84603,0
notch-70,true,1.00,1131,302,1124,269,67412,0
notch-71,true,1.00,1228,249,1218,228,73134,0
notch-72,true,1.00,760,247,757,226,44674,0
notch-73,true,1.00,959,294,952,272,56619,0
notch-74,true,1.00,621,257,613,236,36148,0
notch-75,true,1.00,1407,296,1398,266,83366,0
notch-76,true,1.00,937,290,932,260,55834,0
notch-77,true,1.00,684,251,681,230,39662,0
notch-78,true,1.00,967,268,961,247,56803,0
notch-79,true,1.00,1276,286,1270,260,75586,0
notch-80,true,1.00,517,235,513,210,30020,0
notch-81,true,1.00,1146,249,1137,228,67774,0
notch-82,true,1.00,912,275,903,254,53642,0
notch-83,true,1.00,1137,303,1134,264,67071,0
notch-84,true,1.00,711,248,706,227,41046,0
notch-85,true,1.00,698,272,691,242,40704,0
notch-86,true,1.00,769,245,761,224,45217,0
notch-87,true,1.00,850,251,844,230,50614,0
notch-88,true,1.00,1298,298,1293,276,77922,0
notch-89,true,1.00,1043,297,1038,275,61204,0
notch-90,true,1.00,1446,280,1441,259,85203,0
notch-91,true,1.00,2251,289,2248,268,134565,0
notch-92,true,1.00,1262,270,1255,249,72123,0
notch-93,true,1.00,757,280,753,257,41608,0
notch-94,true,1.00,1331,281,1328,257,74651,0
notch-95,true,1.00,696,261,692,239,38493,0
notch-96,true,1.00,677,280,664,258,38334,0
notch-97,true,1.00,1002,292,991,270,56919,0
notch-98,true,1.00,1876,291,1871,268,105983,0
notch-99,true,1.00,1165,292,1152,253,67253,0
notch-100,true,1.00,810,280,802,250,45486,0
