NDW:0.0
TTFW:0.8
DFPT:2.0
DFPAP:3.0
DFPMP:10.0
RIGHT_WINDOW_BORDER_X:295.0
level,win/fail,% travelled,run time,game ticks,planning time,total plannings,nodes evaluated,most backtracked nodes
hopper-1,true,1.00,1013,319,1008,292,97556,0
hopper-2,true,1.00,1126,317,1123,290,103545,0
hopper-3,false,0.25,1070,86,1070,86,80254,0
hopper-4,false,0.28,907,94,906,94,75683,0
hopper-5,true,1.00,801,305,798,278,73714,0
hopper-6,true,1.00,938,313,936,282,86511,0
hopper-7,false,0.84,1604,260,1602,260,124149,0
hopper-8,true,1.00,946,334,946,298,91380,0
hopper-9,true,1.00,863,297,861,270,80269,0
hopper-10,true,1.00,806,305,800,278,77847,0
hopper-11,true,1.00,645,311,641,284,59102,0
hopper-12,true,1.00,948,315,947,283,93638,0
hopper-13,true,1.00,2367,343,2366,316,206145,0
hopper-14,true,1.00,935,313,934,281,94119,0
hopper-15,true,1.00,986,301,984,274,88185,0
hopper-16,false,0.54,1978,191,1978,191,146927,0
hopper-17,true,1.00,818,315,818,288,76018,0
hopper-18,true,1.00,928,301,927,274,82187,0
hopper-19,true,1.00,770,311,765,284,82744,0
hopper-20,true,1.00,1072,318,1070,290,97574,0
hopper-21,true,1.00,854,317,852,290,77922,0
hopper-22,false,0.33,1373,118,1373,118,102533,0
hopper-23,true,1.00,879,299,878,272,82694,0
hopper-24,true,1.00,582,299,578,272,54488,0
hopper-25,true,1.00,932,303,930,276,91569,0
hopper-26,true,1.00,1054,301,1051,274,92238,0
hopper-27,true,1.00,873,309,873,282,83798,0
hopper-28,false,0.85,2151,290,2151,290,194320,0
hopper-29,false,0.26,1468,102,1467,102,106136,0
hopper-30,true,1.00,794,305,792,274,74318,0
hopper-31,false,0.77,1639,242,1634,242,137690,0
hopper-32,true,1.00,1185,299,1182,272,114224,0
hopper-33,false,0.50,1065,173,1065,173,87326,0
hopper-34,true,1.00,1020,315,1017,288,96841,0
hopper-35,true,1.00,1176,316,1173,288,116091,0
hopper-36,true,1.00,613,316,612,290,55073,0
hopper-37,false,0.51,1203,171,1203,171,89921,0
hopper-38,false,0.59,1618,217,1617,217,137037,0
hopper-39,true,1.00,1022,309,1021,282,98972,0
hopper-40,true,1.00,1028,312,1025,280,89120,0
hopper-41,true,1.00,1611,301,1608,274,148365,0
hopper-42,true,1.00,794,303,792,276,73512,0
hopper-43,false,0.45,1714,151,1713,151,133533,0
hopper-44,true,1.00,1158,301,1158,274,115479,0
hopper-45,false,0.43,1220,143,1220,143,96883,0
hopper-46,false,0.67,1734,229,1733,229,149012,0
hopper-47,true,1.00,1429,311,1428,284,139671,0
hopper-48,true,1.00,973,303,973,276,91733,0
hopper-49,true,1.00,1192,329,1191,302,113299,0
hopper-50,false,0.63,1453,202,1452,202,113440,0
hopper-51,false,0.34,1569,124,1569,124,115396,0
hopper-52,true,1.00,695,308,690,281,69363,0
hopper-53,true,1.00,1556,327,1551,300,143792,0
hopper-54,true,1.00,560,297,555,270,49593,0
hopper-55,true,1.00,725,321,723,284,69741,0
hopper-56,true,1.00,657,297,655,270,62381,0
hopper-57,true,1.00,867,303,867,276,79341,0
hopper-58,true,1.00,1162,313,1161,286,124173,0
hopper-59,true,1.00,689,297,687,270,67117,0
hopper-60,true,1.00,1015,322,1012,295,100837,0
hopper-61,true,1.00,2266,335,2263,308,186200,0
hopper-62,true,1.00,1145,329,1142,302,101342,0
hopper-63,true,1.00,936,311,936,284,92030,0
hopper-64,true,1.00,1029,311,1024,284,93852,0
hopper-65,true,1.00,873,308,871,270,83646,0
hopper-66,true,1.00,809,311,807,284,78206,0
hopper-67,true,1.00,777,313,776,286,70625,0
hopper-68,true,1.00,727,326,725,299,63581,0
hopper-69,false,0.84,1476,258,1475,258,119421,0
hopper-70,true,1.00,1066,309,1061,282,100893,0
hopper-71,true,1.00,665,303,661,276,57112,0
hopper-72,true,1.00,1232,313,1229,286,114208,0
hopper-73,true,1.00,912,297,910,270,81555,0
hopper-74,true,1.00,761,305,760,278,64832,0
hopper-75,true,1.00,885,297,884,270,80025,0
hopper-76,true,1.00,2445,363,2440,336,207613,0
hopper-77,true,1.00,1074,330,1069,303,97606,0
hopper-78,true,1.00,1027,310,1026,281,102480,0
hopper-79,true,1.00,731,309,730,273,66459,0
hopper-80,true,1.00,672,315,672,288,58001,0
hopper-81,true,1.00,1043,325,1040,293,100299,0
hopper-82,false,0.54,3275,232,3272,232,236260,0
hopper-83,true,1.00,1200,309,1198,282,112232,0
hopper-84,true,1.00,1043,303,1041,276,96827,0
hopper-85,true,1.00,1045,347,1045,320,98965,0
hopper-86,true,1.00,995,303,994,276,94712,0
hopper-87,true,1.00,1003,315,999,288,96170,0
hopper-88,true,1.00,725,333,722,302,72834,0
hopper-89,true,1.00,777,309,775,282,71642,0
hopper-90,true,1.00,868,316,866,288,82186,0
hopper-91,true,1.00,910,297,908,270,87905,0
hopper-92,true,1.00,1106,319,1105,292,99958,0
hopper-93,true,1.00,679,313,676,286,65617,0
hopper-94,true,1.00,1281,317,1280,290,124403,0
hopper-95,true,1.00,858,297,857,270,77886,0
hopper-96,true,1.00,1135,297,1135,270,106965,0
hopper-97,true,1.00,1131,301,1128,274,103226,0
hopper-98,true,1.00,1351,331,1349,304,126078,0
hopper-99,true,1.00,1541,346,1541,311,146013,0
hopper-100,true,1.00,1019,330,1015,292,94326,0
