NDW:0.0
TTFW:0.8
DFPT:2.0
DFPAP:3.0
DFPMP:1.0
RIGHT_WINDOW_BORDER_X:215.0
level,win/fail,% travelled,run time,game ticks,planning time,total plannings,nodes evaluated,most backtracked nodes
ge-1,true,1.00,520,241,518,211,49503,0
ge-2,true,1.00,431,234,429,215,45327,0
ge-3,true,1.00,139,203,137,184,12781,0
ge-4,true,1.00,1124,239,1124,215,109558,0
ge-5,true,1.00,30,199,29,180,2266,0
ge-6,true,1.00,374,250,371,219,35334,0
ge-7,true,1.00,80,214,77,194,7472,0
ge-8,true,1.00,224,215,224,196,20833,0
ge-9,true,1.00,447,219,446,200,46240,0
ge-10,true,1.00,30,199,27,180,2135,0
ge-11,true,1.00,151,209,150,190,14154,0
ge-12,true,1.00,29,199,28,180,2001,0
ge-13,true,1.00,322,237,320,218,29311,0
ge-14,true,1.00,158,222,158,191,15106,0
ge-15,true,1.00,505,213,504,194,48228,0
ge-16,true,1.00,208,258,205,239,17677,0
ge-17,true,1.00,238,203,236,184,23821,0
ge-18,true,1.00,333,243,332,223,30910,0
ge-19,true,1.00,475,253,473,234,48850,0
ge-20,true,1.00,323,209,323,190,31088,0
ge-21,true,1.00,164,201,163,182,15305,0
ge-22,true,1.00,302,208,300,187,28747,0
ge-23,true,1.00,506,210,506,187,49335,0
ge-24,true,1.00,397,220,396,195,39186,0
ge-25,true,1.00,268,201,267,182,27054,0
ge-26,true,1.00,197,209,196,190,20077,0
ge-27,true,1.00,43,207,43,188,3512,0
ge-28,true,1.00,591,211,591,192,54532,0
ge-29,true,1.00,212,211,211,181,19910,0
ge-30,true,1.00,559,236,558,202,53888,0
ge-31,true,1.00,561,219,560,199,56901,0
ge-32,true,1.00,149,217,149,198,13474,0
ge-33,true,1.00,74,216,74,185,6615,0
ge-34,true,1.00,751,214,749,192,74335,0
ge-35,true,1.00,352,239,352,219,33962,0
ge-36,false,1.00,582,226,581,203,58176,0
ge-37,true,1.00,228,200,227,180,23633,0
ge-38,true,1.00,747,217,745,198,79232,0
ge-39,true,1.00,246,216,245,196,23508,0
ge-40,true,1.00,29,199,28,180,2172,0
ge-41,true,1.00,161,199,158,180,15743,0
ge-42,true,1.00,547,221,546,202,52216,0
ge-43,true,1.00,312,226,311,202,30531,0
ge-44,true,1.00,480,221,478,202,48034,0
ge-45,true,1.00,429,217,427,198,39191,0
ge-46,true,1.00,757,248,754,225,71734,0
ge-47,true,1.00,584,234,583,215,56180,0
ge-48,true,1.00,337,245,334,226,33214,0
ge-49,true,1.00,129,200,127,180,12645,0
ge-50,true,1.00,469,205,469,186,46975,0
ge-51,true,1.00,112,208,108,188,11082,0
ge-52,true,1.00,484,251,484,231,43000,0
ge-53,true,1.00,260,229,259,210,24979,0
ge-54,true,1.00,246,222,245,202,26634,0
ge-55,true,1.00,360,219,358,198,35932,0
ge-56,true,1.00,491,245,489,215,47484,0
ge-57,true,1.00,642,211,639,191,67147,0
ge-58,true,1.00,161,222,160,203,14153,0
ge-59,true,1.00,658,205,657,186,68132,0
ge-60,true,1.00,492,203,490,184,48495,0
ge-61,true,1.00,230,204,228,183,23947,0
ge-62,true,1.00,419,209,419,190,43151,0
ge-63,true,1.00,695,246,694,221,76614,0
ge-64,true,1.00,678,234,676,207,61587,0
ge-65,true,1.00,576,225,573,204,57669,0
ge-66,true,1.00,551,216,551,187,55836,0
ge-67,true,1.00,187,232,183,213,16254,0
ge-68,true,1.00,104,233,104,214,7863,0
ge-69,true,1.00,226,199,224,180,21683,0
ge-70,true,1.00,303,202,302,183,30201,0
ge-71,true,1.00,1520,243,1519,224,154265,0
ge-72,true,1.00,172,239,171,215,16377,0
ge-73,true,1.00,335,214,335,182,35641,0
ge-74,true,1.00,668,231,667,212,63182,0
ge-75,true,1.00,226,233,225,197,22934,0
ge-76,true,1.00,917,226,917,205,92623,0
ge-77,true,1.00,1033,225,1032,206,105071,0
ge-78,true,1.00,521,227,521,202,53523,0
ge-79,true,1.00,146,212,143,185,13938,0
ge-80,true,1.00,73,211,72,189,5672,0
ge-81,true,1.00,65,209,62,190,5253,0
ge-82,true,1.00,137,248,134,207,10465,0
ge-83,false,1.00,340,240,340,210,32626,0
ge-84,true,1.00,634,209,632,190,63094,0
ge-85,true,1.00,439,213,439,194,47974,0
ge-86,true,1.00,637,202,637,182,65752,0
ge-87,true,1.00,432,229,432,210,43066,0
ge-88,true,1.00,462,250,461,205,47584,0
ge-89,true,1.00,265,248,264,228,24991,0
ge-90,true,1.00,29,199,28,180,2245,0
ge-91,true,1.00,228,199,227,180,21574,0
ge-92,true,1.00,33,205,33,186,2669,0
ge-93,true,1.00,470,211,469,192,47207,0
ge-94,true,1.00,308,208,307,188,31545,0
ge-95,true,1.00,139,239,139,219,11765,0
ge-96,true,1.00,623,230,622,207,59821,0
ge-97,true,1.00,448,239,448,220,42987,0
ge-98,true,1.00,29,199,28,180,2106,0
ge-99,true,1.00,127,199,126,180,10428,0
ge-100,true,1.00,429,211,428,192,44677,0
