NDW:0.0
TTFW:1.0
DFPT:2.0
DFPAP:3.0
DFPMP:1.0
RIGHT_WINDOW_BORDER_X:95.0
level,win/fail,% travelled,run time,game ticks,planning time,total plannings,nodes evaluated,most backtracked nodes
ore-1,true,1.00,4461,618,4455,603,279133,0
ore-2,false,0.70,3212,356,3205,356,179097,0
ore-3,true,1.00,2533,483,2528,474,157149,0
ore-4,true,1.00,4907,632,4895,623,305203,0
ore-5,true,1.00,4882,580,4871,571,304283,0
ore-6,true,1.00,4989,560,4981,549,303258,0
ore-7,true,1.00,1798,432,1789,423,111992,0
ore-8,false,0.13,3197,177,3196,177,171766,0
ore-9,true,1.00,3714,484,3703,475,226415,0
ore-10,false,0.79,1948,378,1939,378,126015,0
ore-11,true,1.00,2942,548,2931,540,182725,0
ore-12,true,1.00,2357,527,2342,518,147061,0
ore-13,true,1.00,3735,598,3718,587,227077,0
ore-14,true,1.00,3821,578,3808,569,249204,0
ore-15,true,1.00,4540,589,4533,571,277521,0
ore-16,true,1.00,2568,476,2559,468,171836,0
ore-17,true,1.00,2942,517,2937,501,197207,0
ore-18,true,1.00,1782,450,1777,440,115570,0
ore-19,true,1.00,2963,551,2951,539,191036,0
ore-20,false,0.22,2039,181,2035,181,129784,0
ore-21,true,1.00,3020,558,3011,549,192331,0
ore-22,false,0.58,2884,329,2881,329,161920,0
ore-23,false,0.78,2780,374,2776,374,175184,0
ore-24,true,1.00,3060,492,3048,483,193999,0
ore-25,true,1.00,2508,483,2498,473,159057,0
ore-26,true,1.00,3899,587,3887,578,221118,0
ore-27,true,1.00,3777,576,3765,567,224250,0
ore-28,true,1.00,1872,464,1859,456,107158,0
ore-29,true,1.00,4346,538,4331,529,264166,0
ore-30,false,0.12,23,57,21,57,1346,0
ore-31,true,1.00,5873,639,5860,628,368203,0
ore-32,false,0.74,1554,354,1548,354,94348,0
ore-33,true,1.00,2583,544,2569,536,163344,0
ore-34,false,0.90,19314,999,19308,999,1219991,0
ore-35,true,1.00,4282,590,4276,581,273063,0
ore-36,true,1.00,3362,556,3354,546,213618,0
ore-37,false,0.34,3081,233,3079,233,161566,0
ore-38,true,1.00,4118,530,4109,521,257558,0
ore-39,true,1.00,5748,606,5736,597,367055,0
ore-40,true,1.00,3072,489,3066,480,190672,0
ore-41,true,1.00,3756,541,3747,531,231325,0
ore-42,true,1.00,2886,556,2878,547,181266,0
ore-43,true,1.00,2698,554,2686,545,165845,0
ore-44,true,1.00,3751,554,3735,544,224648,0
ore-45,false,0.74,21819,999,21805,999,880359,0
ore-46,false,0.11,4946,205,4945,205,273193,0
ore-47,false,0.81,3868,473,3858,473,226175,0
ore-48,true,1.00,3866,508,3858,498,214062,0
ore-49,true,1.00,2959,528,2947,518,182298,0
ore-50,true,1.00,3308,496,3295,484,193929,0
ore-51,true,1.00,4577,624,4569,615,282451,0
ore-52,true,1.00,1970,461,1963,452,124144,0
ore-53,true,1.00,2847,491,2835,482,173645,0
ore-54,true,1.00,3287,519,3273,510,204216,0
ore-55,true,1.00,2353,487,2336,479,147933,0
ore-56,true,1.00,3510,579,3492,571,210574,0
ore-57,true,1.00,2250,539,2244,529,141028,0
ore-58,true,1.00,2538,489,2532,481,154712,0
ore-59,true,1.00,4689,548,4679,540,294319,0
ore-60,false,0.83,3932,515,3919,515,245147,0
ore-61,true,1.00,4403,572,4392,562,264484,0
ore-62,true,1.00,2791,522,2779,514,171805,0
ore-63,true,1.00,3981,551,3972,543,247419,0
ore-64,true,1.00,1811,452,1800,443,111718,0
ore-65,true,1.00,4128,579,4113,570,252844,0
ore-66,true,1.00,3893,586,3884,568,245282,0
ore-67,true,1.00,3963,528,3955,518,240835,0
ore-68,true,1.00,2716,522,2703,513,166910,0
ore-69,true,1.00,3178,560,3162,551,197912,0
ore-70,false,0.93,6968,626,6960,626,382577,0
ore-71,true,1.00,3606,534,3600,526,218751,0
ore-72,false,0.52,1951,304,1947,304,123206,0
ore-73,true,1.00,4342,557,4334,546,254995,0
ore-74,true,1.00,5762,671,5750,655,359066,0
ore-75,true,1.00,2712,551,2700,543,167315,0
ore-76,true,1.00,4199,523,4190,512,270049,0
ore-77,false,0.89,19284,999,19280,999,1205431,0
ore-78,true,1.00,3732,582,3720,573,235970,0
ore-79,true,1.00,2676,577,2656,569,166459,0
ore-80,true,1.00,4671,567,4659,555,283270,0
ore-81,true,1.00,3250,532,3242,523,205796,0
ore-82,true,1.00,4154,550,4143,541,260070,0
ore-83,false,0.30,2814,208,2808,208,177881,0
ore-84,false,0.13,2899,132,2898,132,141121,0
ore-85,true,1.00,2683,538,2668,529,163528,0
ore-86,true,1.00,3263,579,3252,567,201764,0
ore-87,true,1.00,2558,509,2549,500,149411,0
ore-88,false,0.63,1603,315,1594,315,98971,0
ore-89,true,1.00,3674,576,3660,568,229103,0
ore-90,true,1.00,4450,584,4436,575,280452,0
ore-91,true,1.00,3512,553,3497,544,215131,0
ore-92,true,1.00,2014,454,2003,445,123764,0
ore-93,false,0.13,2077,121,2077,121,110213,0
ore-94,true,1.00,2250,528,2235,518,140563,0
ore-95,true,1.00,2140,517,2129,509,131929,0
ore-96,false,0.55,1793,347,1785,347,112215,0
ore-97,true,1.00,3086,513,3080,504,189954,0
ore-98,true,1.00,2441,458,2432,449,150883,0
ore-99,true,1.00,4571,650,4559,629,285658,0
ore-100,true,1.00,2817,506,2807,497,180743,0
