NDW:0.0
TTFW:1.2
DFPT:2.0
DFPAP:3.0
DFPMP:20.0
RIGHT_WINDOW_BORDER_X:350.0
level,win/fail,% travelled,run time,game ticks,planning time,total plannings,nodes evaluated,most backtracked nodes
notchParamRand-1,true,1.00,841,312,841,280,88433,0
notchParamRand-2,true,1.00,142,308,142,276,11580,0
notchParamRand-3,true,1.00,894,306,889,274,102807,0
notchParamRand-4,true,1.00,1797,333,1794,301,205405,0
notchParamRand-5,true,1.00,268,306,267,274,24864,0
notchParamRand-6,true,1.00,377,314,376,282,39799,0
notchParamRand-7,true,1.00,230,294,229,262,22554,0
notchParamRand-8,true,1.00,477,318,474,286,45937,0
notchParamRand-9,true,1.00,538,326,535,294,60195,0
notchParamRand-10,true,1.00,734,306,733,274,81749,0
notchParamRand-11,true,1.00,134,294,132,262,11343,0
notchParamRand-12,true,1.00,303,310,303,278,29391,0
notchParamRand-13,true,1.00,1732,312,1731,280,187693,0
notchParamRand-14,true,1.00,888,310,888,278,95442,0
notchParamRand-15,true,1.00,579,308,577,276,63619,0
notchParamRand-16,true,1.00,402,300,400,268,47084,0
notchParamRand-17,true,1.00,67,294,66,262,4187,0
notchParamRand-18,true,1.00,1740,324,1740,292,198118,0
notchParamRand-19,true,1.00,190,335,188,303,18969,0
notchParamRand-20,true,1.00,1426,331,1423,298,166870,0
notchParamRand-21,true,1.00,70,296,65,264,4325,0
notchParamRand-22,true,1.00,975,316,975,284,110355,0
notchParamRand-23,true,1.00,1384,344,1383,312,160365,0
notchParamRand-24,true,1.00,193,325,190,293,18713,0
notchParamRand-25,true,1.00,67,313,66,268,4444,0
notchParamRand-26,true,1.00,343,327,342,295,34495,0
notchParamRand-27,true,1.00,232,300,232,268,26005,0
notchParamRand-28,true,1.00,416,312,411,280,41504,0
notchParamRand-29,true,1.00,70,298,69,266,4267,0
notchParamRand-30,true,1.00,1737,326,1732,294,199181,0
notchParamRand-31,true,1.00,365,316,363,284,38723,0
notchParamRand-32,true,1.00,130,294,130,262,11767,0
notchParamRand-33,true,1.00,1624,310,1622,278,181582,0
notchParamRand-34,true,1.00,840,314,837,282,91199,0
notchParamRand-35,true,1.00,452,310,449,278,48727,0
notchParamRand-36,true,1.00,61,303,58,262,3804,0
notchParamRand-37,true,1.00,375,310,375,278,40161,0
notchParamRand-38,true,1.00,1659,315,1657,283,183462,0
notchParamRand-39,true,1.00,1415,335,1411,303,160285,0
notchParamRand-40,true,1.00,2099,314,2098,282,237127,0
notchParamRand-41,true,1.00,62,294,59,262,3636,0
notchParamRand-42,true,1.00,425,316,423,284,47200,0
notchParamRand-43,true,1.00,231,300,229,268,24568,0
notchParamRand-44,true,1.00,275,302,275,270,30152,0
notchParamRand-45,true,1.00,947,320,946,288,100092,0
notchParamRand-46,true,1.00,530,311,529,279,58706,0
notchParamRand-47,true,1.00,690,314,689,282,76450,0
notchParamRand-48,true,1.00,1346,322,1345,290,148602,0
notchParamRand-49,true,1.00,679,306,679,274,73968,0
notchParamRand-50,true,1.00,1286,321,1285,289,147136,0
notchParamRand-51,true,1.00,144,315,141,283,12955,0
notchParamRand-52,true,1.00,749,308,746,276,81484,0
notchParamRand-53,true,1.00,910,328,908,296,97003,0
notchParamRand-54,true,1.00,1660,337,1660,305,181024,0
notchParamRand-55,true,1.00,1651,312,1648,280,172775,0
notchParamRand-56,true,1.00,680,345,678,313,73805,0
notchParamRand-57,true,1.00,874,312,873,280,102293,0
notchParamRand-58,true,1.00,679,323,676,291,79013,0
notchParamRand-59,true,1.00,382,311,382,279,42538,0
notchParamRand-60,true,1.00,576,302,574,270,62898,0
notchParamRand-61,true,1.00,419,306,418,274,46087,0
notchParamRand-62,true,1.00,371,320,371,288,38532,0
notchParamRand-63,true,1.00,1409,312,1408,280,154876,0
notchParamRand-64,true,1.00,271,296,269,264,29266,0
notchParamRand-65,true,1.00,1694,328,1692,296,183499,0
notchParamRand-66,true,1.00,265,321,263,290,23444,0
notchParamRand-67,true,1.00,265,300,263,268,24645,0
notchParamRand-68,true,1.00,1375,312,1373,280,159602,0
notchParamRand-69,true,1.00,240,311,239,279,25810,0
notchParamRand-70,true,1.00,606,328,604,296,71016,0
notchParamRand-71,true,1.00,251,310,249,278,25336,0
notchParamRand-72,true,1.00,132,294,127,262,11707,0
notchParamRand-73,true,1.00,401,306,398,274,39754,0
notchParamRand-74,true,1.00,67,296,67,264,4307,0
notchParamRand-75,true,1.00,63,294,62,262,3680,0
notchParamRand-76,true,1.00,1673,342,1672,310,179968,0
notchParamRand-77,true,1.00,1582,352,1578,320,175465,0
notchParamRand-78,true,1.00,860,310,860,278,96667,0
notchParamRand-79,true,1.00,271,298,269,266,26875,0
notchParamRand-80,true,1.00,276,304,273,272,26870,0
notchParamRand-81,true,1.00,268,298,266,266,29200,0
notchParamRand-82,true,1.00,661,312,660,280,74458,0
notchParamRand-83,true,1.00,1240,319,1239,287,140010,0
notchParamRand-84,true,1.00,273,302,273,270,27736,0
notchParamRand-85,true,1.00,62,294,61,262,3538,0
notchParamRand-86,true,1.00,518,332,517,300,54889,0
notchParamRand-87,true,1.00,1758,320,1754,288,200657,0
notchParamRand-88,true,1.00,273,298,272,266,29852,0
notchParamRand-89,true,1.00,358,321,354,289,39748,0
notchParamRand-90,true,1.00,574,310,574,278,60515,0
notchParamRand-91,true,1.00,67,294,66,262,4003,0
notchParamRand-92,true,1.00,919,330,917,298,103664,0
notchParamRand-93,true,1.00,275,318,272,276,28626,0
notchParamRand-94,true,1.00,1588,312,1587,280,176260,0
notchParamRand-95,true,1.00,754,316,752,284,81023,0
notchParamRand-96,true,1.00,413,336,413,304,42466,0
notchParamRand-97,true,1.00,1611,347,1607,315,168941,0
notchParamRand-98,true,1.00,226,294,224,262,25104,0
notchParamRand-99,true,1.00,279,310,276,278,27780,0
notchParamRand-100,true,1.00,1380,314,1379,282,153603,0
