NDW:0.0
TTFW:1.8
DFPT:2.0
DFPAP:3.0
DFPMP:5.0
RIGHT_WINDOW_BORDER_X:15.0
level,win/fail,% travelled,run time,game ticks,planning time,total plannings,nodes evaluated,most backtracked nodes
patternCount-1,false,0.03,97,85,97,85,20014,0
patternCount-2,false,0.08,572,162,571,162,78496,0
patternCount-3,false,0.04,153,163,153,163,33303,0
patternCount-4,false,0.03,127,121,126,121,23672,0
patternCount-5,false,0.08,1024,304,1023,304,123952,0
patternCount-6,false,0.08,566,291,563,291,83919,0
patternCount-7,false,0.01,76,81,75,81,20950,0
patternCount-8,false,0.09,605,271,603,271,74000,0
patternCount-9,false,0.06,412,160,411,160,68274,0
patternCount-10,false,0.06,455,353,451,353,87980,0
patternCount-11,false,0.09,866,260,864,260,110989,0
patternCount-12,false,0.03,41,46,41,46,9124,0
patternCount-13,false,0.01,56,73,56,73,17391,0
patternCount-14,false,0.04,98,123,96,123,21086,0
patternCount-15,false,0.06,1155,214,1155,214,144097,0
patternCount-16,false,0.07,631,256,629,256,78722,0
patternCount-17,false,0.16,1332,392,1331,392,140460,0
patternCount-18,false,0.13,1168,444,1166,444,140805,0
patternCount-19,false,0.05,100,143,99,143,20250,0
patternCount-20,false,0.11,1312,270,1310,270,147962,0
patternCount-21,false,0.21,2148,673,2148,673,273585,0
patternCount-22,false,0.02,33,97,32,97,7814,0
patternCount-23,false,0.00,672,999,670,999,229541,0
patternCount-24,false,0.05,99,143,98,143,20250,0
patternCount-25,false,0.17,1235,317,1234,317,132040,0
patternCount-26,false,0.05,100,143,100,143,20250,0
patternCount-27,false,0.07,338,225,336,225,52334,0
patternCount-28,false,0.07,268,236,267,236,46293,0
patternCount-29,false,0.08,748,190,746,190,94494,0
patternCount-30,false,0.02,45,64,45,64,11338,0
patternCount-31,false,0.06,164,173,164,173,22211,0
patternCount-32,false,0.05,100,143,100,143,20250,0
patternCount-33,false,0.05,99,143,97,143,20250,0
patternCount-34,false,0.07,395,212,392,212,55482,0
patternCount-35,false,0.08,303,277,300,277,47948,0
patternCount-36,false,0.18,1797,442,1796,442,199530,0
patternCount-37,false,0.11,686,385,684,385,94851,0
patternCount-38,false,0.05,100,143,96,143,20250,0
patternCount-39,false,0.11,466,244,461,244,56160,0
patternCount-40,false,0.00,1,21,1,21,342,0
patternCount-41,false,0.24,1194,527,1191,527,157447,0
patternCount-42,false,0.04,154,132,152,132,29965,0
patternCount-43,false,0.06,229,227,229,227,42839,0
patternCount-44,false,0.12,590,304,587,304,73491,0
patternCount-45,false,0.09,564,282,563,282,78464,0
patternCount-46,false,0.00,786,999,779,999,281146,0
patternCount-47,false,0.03,65,83,62,83,14682,0
patternCount-48,false,0.03,52,65,52,65,10437,0
patternCount-49,false,0.02,228,92,228,92,44028,0
patternCount-50,false,0.04,71,107,69,107,13999,0
patternCount-51,false,0.02,110,72,110,72,26219,0
patternCount-52,false,0.04,81,74,80,74,13490,0
patternCount-53,false,0.06,478,215,477,215,68897,0
patternCount-54,false,0.00,1,21,1,21,342,0
patternCount-55,false,0.02,25,51,25,51,5686,0
patternCount-56,false,0.05,793,212,792,212,118213,0
patternCount-57,false,0.10,431,256,429,256,55014,0
patternCount-58,false,0.08,172,111,171,111,37405,0
patternCount-59,false,0.07,370,136,368,136,47353,0
patternCount-60,false,0.06,197,143,197,143,32448,0
patternCount-61,false,0.05,252,136,251,136,41329,0
patternCount-62,false,0.10,605,254,603,254,83007,0
patternCount-63,false,0.18,1242,523,1239,523,172878,0
patternCount-64,false,0.02,48,73,48,73,12262,0
patternCount-65,false,0.05,101,128,101,128,18206,0
patternCount-66,false,0.06,511,109,510,109,73520,0
patternCount-67,false,0.20,1533,417,1532,417,183078,0
patternCount-68,false,0.09,619,358,617,358,88054,0
patternCount-69,false,0.21,1477,659,1474,659,182798,0
patternCount-70,false,0.03,501,117,498,117,85424,0
patternCount-71,false,0.05,342,154,341,154,60350,0
patternCount-72,false,0.13,333,283,328,283,38132,0
patternCount-73,false,0.05,148,167,147,167,22320,0
patternCount-74,false,0.11,986,266,986,266,123478,0
patternCount-75,false,0.11,1909,401,1906,401,211259,0
patternCount-76,false,0.00,2,21,2,21,342,0
patternCount-77,false,0.06,1379,178,1378,178,153019,0
patternCount-78,false,0.04,377,142,376,142,60039,0
patternCount-79,false,0.01,1443,999,1435,999,403566,0
patternCount-80,false,0.08,175,159,175,159,19751,0
patternCount-81,false,0.06,105,106,104,106,15965,0
patternCount-82,false,0.08,719,207,719,207,87801,0
patternCount-83,false,0.05,487,218,487,218,78282,0
patternCount-84,false,0.03,154,121,154,121,23672,0
patternCount-85,false,0.04,129,129,127,129,25471,0
patternCount-86,false,0.05,454,178,454,178,65541,0
patternCount-87,false,0.01,100,108,100,108,29417,0
patternCount-88,false,0.07,124,174,124,174,22150,0
patternCount-89,false,0.08,1337,250,1336,250,152477,0
patternCount-90,false,0.06,322,198,321,198,40515,0
patternCount-91,false,0.03,62,86,62,86,13268,0
patternCount-92,false,0.22,1668,508,1666,508,191145,0
patternCount-93,false,0.12,823,372,822,372,105807,0
patternCount-94,false,0.12,876,301,876,301,113852,0
patternCount-95,false,0.05,685,236,684,236,102652,0
patternCount-96,false,0.02,70,112,69,112,16880,0
patternCount-97,false,0.07,395,193,395,193,47192,0
patternCount-98,false,0.03,68,117,67,117,14104,0
patternCount-99,false,0.06,617,237,614,237,97610,0
patternCount-100,false,0.18,1824,539,1821,539,232998,0
