NDW:0.0
TTFW:1.6
DFPT:2.0
DFPAP:3.0
DFPMP:7.0
RIGHT_WINDOW_BORDER_X:75.0
level,win/fail,% travelled,run time,game ticks,planning time,total plannings,nodes evaluated,most backtracked nodes
hopper-1,true,1.00,5260,549,5248,543,283067,0
hopper-2,true,1.00,3890,445,3884,439,207695,0
hopper-3,false,0.24,2397,149,2395,149,122202,0
hopper-4,false,0.26,2833,171,2832,171,143892,0
hopper-5,true,1.00,3811,487,3792,480,128395,0
hopper-6,true,1.00,3557,443,3546,437,193706,0
hopper-7,false,0.83,3736,379,3726,379,186250,0
hopper-8,false,0.41,2288,208,2285,208,113941,0
hopper-9,true,1.00,5804,523,5791,517,309928,0
hopper-10,false,0.68,3089,344,3085,344,173397,0
hopper-11,true,1.00,4174,480,4166,474,232966,0
hopper-12,true,1.00,4844,514,4835,507,280711,0
hopper-13,true,1.00,3944,486,3934,479,217388,0
hopper-14,true,1.00,4607,490,4599,484,252453,0
hopper-15,true,1.00,3259,464,3252,458,171138,0
hopper-16,false,0.54,4240,314,4234,314,213897,0
hopper-17,true,1.00,3440,474,3429,468,183531,0
hopper-18,true,1.00,2907,456,2898,449,151064,0
hopper-19,true,1.00,2067,418,2057,411,123741,0
hopper-20,true,1.00,5438,514,5430,507,286449,0
hopper-21,false,0.61,6375,407,6368,407,323406,0
hopper-22,false,0.32,1680,155,1677,155,86021,0
hopper-23,true,1.00,3962,473,3948,466,216571,0
hopper-24,true,1.00,1285,402,1278,395,69774,0
hopper-25,true,1.00,4462,492,4456,486,255442,0
hopper-26,true,1.00,4102,511,4089,505,211885,0
hopper-27,true,1.00,2145,440,2136,433,118593,0
hopper-28,false,0.85,12544,704,12535,704,736942,0
hopper-29,false,0.25,2167,143,2166,143,108458,0
hopper-30,true,1.00,3145,461,3130,454,168241,0
hopper-31,false,0.77,5075,414,5069,414,266009,0
hopper-32,true,1.00,7998,626,7986,619,441317,0
hopper-33,false,0.49,4074,293,4067,293,207849,0
hopper-34,false,0.31,2103,160,2101,160,104275,0
hopper-35,true,1.00,9875,674,9862,667,531295,0
hopper-36,true,1.00,1901,415,1887,409,81281,0
hopper-37,false,0.50,4678,317,4674,317,239230,0
hopper-38,false,0.52,3275,302,3269,302,165998,0
hopper-39,false,0.52,4994,322,4993,322,255308,0
hopper-40,true,1.00,4196,488,4184,481,213004,0
hopper-41,false,0.24,2397,149,2397,149,120230,0
hopper-42,true,1.00,4083,472,4080,466,226115,0
hopper-43,false,0.44,3393,283,3389,283,173116,0
hopper-44,true,1.00,6810,574,6804,567,367086,0
hopper-45,false,0.42,4206,277,4202,277,217458,0
hopper-46,false,0.66,5560,444,5557,444,292496,0
hopper-47,false,0.72,8006,489,8000,489,420044,0
hopper-48,true,1.00,4922,508,4914,501,260964,0
hopper-49,false,0.38,5763,310,5755,310,274734,0
hopper-50,false,0.62,5957,390,5950,390,309880,0
hopper-51,false,0.33,2443,185,2442,185,120907,0
hopper-52,true,1.00,5080,516,5072,509,289121,0
hopper-53,false,0.20,5099,243,5096,243,275656,0
hopper-54,true,1.00,5851,511,5845,504,314251,0
hopper-55,true,1.00,2337,433,2332,425,134823,0
hopper-56,true,1.00,2279,484,2262,478,124342,0
hopper-57,true,1.00,3228,473,3221,466,164043,0
hopper-58,false,0.58,4344,338,4340,338,221998,0
hopper-59,true,1.00,3672,443,3668,436,205874,0
hopper-60,true,1.00,5334,489,5323,481,311920,0
hopper-61,false,0.82,10951,628,10944,628,563829,0
hopper-62,true,1.00,4717,543,4700,536,241021,0
hopper-63,false,0.23,3057,165,3057,165,152454,0
hopper-64,true,1.00,5904,566,5894,560,310698,0
hopper-65,false,0.13,1105,90,1105,90,54442,0
hopper-66,false,0.73,5842,425,5836,425,293956,0
hopper-67,true,1.00,2589,416,2572,409,142929,0
hopper-68,true,1.00,1245,414,1238,407,65383,0
hopper-69,false,0.84,3996,446,3988,446,202214,0
hopper-70,true,1.00,5300,537,5288,531,287733,0
hopper-71,true,1.00,4626,474,4620,468,248273,0
hopper-72,true,1.00,8068,626,8055,617,377433,0
hopper-73,true,1.00,6008,578,5996,572,317997,0
hopper-74,true,1.00,2622,423,2610,416,99055,0
hopper-75,true,1.00,8352,638,8347,631,401846,0
hopper-76,true,1.00,4577,519,4569,511,245871,0
hopper-77,true,1.00,1550,435,1538,428,80232,0
hopper-78,true,1.00,7702,570,7687,564,425693,0
hopper-79,false,0.59,2939,293,2931,293,112740,0
hopper-80,true,1.00,5546,555,5537,548,237914,0
hopper-81,false,0.38,2991,228,2988,228,127957,0
hopper-82,false,0.45,4650,281,4646,281,224476,0
hopper-83,true,1.00,4149,485,4140,479,221877,0
hopper-84,true,1.00,7073,586,7065,579,382185,0
hopper-85,true,1.00,5081,515,5072,508,267461,0
hopper-86,false,0.46,7177,402,7171,402,384306,0
hopper-87,true,1.00,3874,476,3868,470,162063,0
hopper-88,true,1.00,3403,478,3394,472,198525,0
hopper-89,false,0.13,1102,90,1101,90,54860,0
hopper-90,true,1.00,3128,418,3123,412,178166,0
hopper-91,true,1.00,4704,507,4692,501,240469,0
hopper-92,true,1.00,5938,549,5927,542,299111,0
hopper-93,true,1.00,1068,368,1057,361,57135,0
hopper-94,false,0.64,3032,340,3020,340,155136,0
hopper-95,true,1.00,6298,550,6288,543,323628,0
hopper-96,false,0.13,1104,90,1104,90,55182,0
hopper-97,true,1.00,5644,550,5637,544,291711,0
hopper-98,true,1.00,7674,612,7669,606,399436,0
hopper-99,false,0.72,7834,553,7828,553,400400,0
hopper-100,true,1.00,5357,541,5340,534,271811,0
