NDW:0.0
TTFW:0.8
DFPT:2.0
DFPAP:3.0
DFPMP:20.0
RIGHT_WINDOW_BORDER_X:275.0
level,win/fail,% travelled,run time,game ticks,planning time,total plannings,nodes evaluated,most backtracked nodes
notchParam-1,true,1.00,895,310,894,285,87691,0
notchParam-2,true,1.00,841,310,838,285,77266,0
notchParam-3,true,1.00,589,312,588,287,58310,0
notchParam-4,true,1.00,589,316,588,291,55832,0
notchParam-5,true,1.00,592,314,591,288,59042,0
notchParam-6,true,1.00,592,322,589,297,56923,0
notchParam-7,true,1.00,861,320,860,295,84277,0
notchParam-8,true,1.00,1026,312,1022,287,100119,0
notchParam-9,true,1.00,611,333,609,308,57168,0
notchParam-10,true,1.00,1085,318,1085,293,104925,0
notchParam-11,true,1.00,554,316,552,291,52162,0
notchParam-12,true,1.00,1069,319,1069,294,105320,0
notchParam-13,true,1.00,268,316,265,291,27204,0
notchParam-14,true,1.00,262,304,261,279,26610,0
notchParam-15,true,1.00,865,298,864,273,85920,0
notchParam-16,true,1.00,793,326,792,301,85549,0
notchParam-17,true,1.00,894,308,894,283,86751,0
notchParam-18,true,1.00,301,324,300,299,29738,0
notchParam-19,true,1.00,259,309,258,284,26048,0
notchParam-20,true,1.00,260,308,259,283,26240,0
notchParam-21,true,1.00,264,308,263,283,26690,0
notchParam-22,true,1.00,279,316,277,291,28208,0
notchParam-23,true,1.00,1335,349,1333,324,126168,0
notchParam-24,true,1.00,1065,320,1065,295,105942,0
notchParam-25,true,1.00,1096,318,1092,293,104964,0
notchParam-26,true,1.00,1112,326,1111,301,106803,0
notchParam-27,true,1.00,262,313,261,288,27005,0
notchParam-28,true,1.00,578,319,575,294,55825,0
notchParam-29,true,1.00,655,323,655,298,62616,0
notchParam-30,true,1.00,261,308,260,283,26272,0
notchParam-31,true,1.00,885,328,884,303,89514,0
notchParam-32,true,1.00,871,316,868,291,85760,0
notchParam-33,true,1.00,263,300,262,275,27745,0
notchParam-34,true,1.00,826,308,826,283,82367,0
notchParam-35,true,1.00,1330,358,1325,333,116665,0
notchParam-36,true,1.00,891,308,891,283,90029,0
notchParam-37,true,1.00,260,300,254,275,27037,0
notchParam-38,true,1.00,265,306,265,281,27715,0
notchParam-39,true,1.00,1068,335,1067,310,97880,0
notchParam-40,true,1.00,501,314,499,289,48984,0
notchParam-41,true,1.00,540,321,537,296,52905,0
notchParam-42,true,1.00,266,312,265,287,27218,0
notchParam-43,true,1.00,1004,316,1001,291,96683,0
notchParam-44,true,1.00,1111,318,1107,293,111093,0
notchParam-45,true,1.00,1092,326,1088,295,111405,0
notchParam-46,true,1.00,1088,314,1086,289,101561,0
notchParam-47,true,1.00,265,302,262,277,28941,0
notchParam-48,true,1.00,245,315,242,290,24513,0
notchParam-49,true,1.00,269,316,268,285,26991,0
notchParam-50,true,1.00,377,326,376,301,32376,0
notchParam-51,true,1.00,256,306,254,281,25639,0
notchParam-52,true,1.00,841,302,838,277,87502,0
notchParam-53,true,1.00,1114,327,1112,302,109258,0
notchParam-54,true,1.00,975,324,974,299,91631,0
notchParam-55,true,1.00,285,317,283,292,27900,0
notchParam-56,true,1.00,267,304,265,279,27463,0
notchParam-57,true,1.00,1109,322,1107,297,111624,0
notchParam-58,true,1.00,632,329,628,304,58995,0
notchParam-59,true,1.00,1224,339,1223,314,115766,0
notchParam-60,true,1.00,549,328,546,303,51585,0
notchParam-61,true,1.00,1121,329,1120,304,108731,0
notchParam-62,true,1.00,819,300,815,275,77969,0
notchParam-63,true,1.00,594,322,591,297,55681,0
notchParam-64,true,1.00,557,330,555,305,55046,0
notchParam-65,true,1.00,590,316,589,291,57768,0
notchParam-66,true,1.00,566,338,563,313,53667,0
notchParam-67,true,1.00,839,304,838,279,86465,0
notchParam-68,true,1.00,860,317,857,288,82949,0
notchParam-69,true,1.00,819,300,816,275,77640,0
notchParam-70,true,1.00,870,306,870,281,86159,0
notchParam-71,true,1.00,662,344,660,319,64029,0
notchParam-72,true,1.00,549,329,548,304,54590,0
notchParam-73,true,1.00,524,310,523,285,50711,0
notchParam-74,true,1.00,595,329,593,304,55076,0
notchParam-75,true,1.00,606,315,603,290,61672,0
notchParam-76,true,1.00,1227,332,1224,307,122237,0
notchParam-77,true,1.00,604,315,601,290,59627,0
notchParam-78,true,1.00,1073,316,1069,291,105118,0
notchParam-79,true,1.00,592,320,590,295,57388,0
notchParam-80,true,1.00,333,334,330,309,32825,0
notchParam-81,true,1.00,537,332,533,307,53158,0
notchParam-82,true,1.00,263,305,260,280,26807,0
notchParam-83,true,1.00,271,306,270,281,28202,0
notchParam-84,true,1.00,861,310,859,285,83204,0
notchParam-85,true,1.00,967,334,965,309,89239,0
notchParam-86,true,1.00,1094,310,1091,285,107665,0
notchParam-87,true,1.00,254,314,253,289,26236,0
notchParam-88,true,1.00,288,308,286,283,28052,0
notchParam-89,true,1.00,265,304,263,279,27426,0
notchParam-90,true,1.00,263,300,261,275,27270,0
notchParam-91,true,1.00,1036,324,1031,299,98328,0
notchParam-92,true,1.00,1057,308,1056,283,99634,0
notchParam-93,true,1.00,1106,329,1106,299,105782,0
notchParam-94,true,1.00,1061,334,1060,309,103752,0
notchParam-95,true,1.00,1264,359,1263,334,118139,0
notchParam-96,true,1.00,569,314,567,289,58658,0
notchParam-97,true,1.00,524,314,520,289,49945,0
notchParam-98,true,1.00,268,308,264,283,27613,0
notchParam-99,true,1.00,918,318,917,293,88347,0
notchParam-100,true,1.00,854,306,850,281,87688,0
