NDW:0.0
TTFW:0.4
DFPT:2.0
DFPAP:3.0
DFPMP:2.0
RIGHT_WINDOW_BORDER_X:215.0
level,win/fail,% travelled,run time,game ticks,planning time,total plannings,nodes evaluated,most backtracked nodes
Krys-1,true,1.00,9992,562,9989,537,650227,0
Krys-2,true,1.00,2699,413,2697,388,156123,0
Krys-3,true,1.00,7855,528,7854,497,546786,0
Krys-4,true,1.00,4941,480,4934,425,316234,0
Krys-5,true,1.00,3397,360,3392,318,271989,0
Krys-6,true,1.00,1739,350,1737,311,122307,0
Krys-7,true,1.00,814,320,813,285,56863,0
Krys-8,true,1.00,4457,440,4456,400,284991,0
Krys-9,true,1.00,2714,342,2712,308,215205,0
Krys-10,true,1.00,2675,358,2675,335,178369,0
Krys-11,true,1.00,1580,349,1578,317,93260,0
Krys-12,true,1.00,5566,456,5566,418,348107,0
Krys-13,true,1.00,3098,369,3097,335,230872,0
Krys-14,true,1.00,1439,322,1436,297,88066,0
Krys-15,true,1.00,7266,489,7260,454,535110,0
Krys-16,true,1.00,3362,444,3360,414,196304,0
Krys-17,true,1.00,5589,478,5587,453,353398,0
Krys-18,true,1.00,2740,431,2739,397,178339,0
Krys-19,true,1.00,3648,398,3645,363,279606,0
Krys-20,true,1.00,6512,509,6508,487,414166,0
Krys-21,true,1.00,2369,338,2368,298,191964,0
Krys-22,true,1.00,4785,415,4783,384,382434,0
Krys-23,true,1.00,2788,373,2781,337,175140,0
Krys-24,true,1.00,7290,471,7289,433,485174,0
Krys-25,true,1.00,3870,408,3869,374,251094,0
Krys-26,true,1.00,3016,317,3015,286,244319,0
Krys-27,true,1.00,3427,378,3424,347,238485,0
Krys-28,true,1.00,6331,471,6326,424,439917,0
Krys-29,true,1.00,5029,459,5028,435,300593,0
Krys-30,true,1.00,4525,436,4520,397,271284,0
Krys-31,true,1.00,3439,425,3436,385,208714,0
Krys-32,true,1.00,1911,351,1910,331,114425,0
Krys-33,true,1.00,1367,321,1363,286,85327,0
Krys-34,true,1.00,4277,428,4275,384,277501,0
Krys-35,true,1.00,2242,324,2239,303,175094,0
Krys-36,false,0.91,23909,999,23904,999,1414831,0
Krys-37,true,1.00,5392,430,5390,408,383404,0
Krys-38,true,1.00,6206,436,6201,399,468274,0
Krys-39,true,1.00,5892,422,5890,393,426472,0
Krys-40,true,1.00,6047,443,6045,415,442481,0
Krys-41,false,0.70,27033,999,27032,999,1575715,0
Krys-42,true,1.00,2592,331,2591,297,205256,0
Krys-43,true,1.00,2653,313,2646,282,200936,0
Krys-44,true,1.00,9338,521,9336,486,650116,0
Krys-45,true,1.00,3635,424,3631,402,206848,0
Krys-46,true,1.00,3854,468,3851,429,234062,0
Krys-47,true,1.00,3434,442,3434,407,214399,0
Krys-48,true,1.00,2796,325,2794,303,215613,0
Krys-49,true,1.00,3409,395,3408,350,197313,0
Krys-50,false,0.70,25219,999,25219,999,1410856,0
Krys-51,true,1.00,4498,371,4496,348,338246,0
Krys-52,true,1.00,4682,481,4673,447,265027,0
Krys-53,true,1.00,3125,388,3122,353,187634,0
Krys-54,true,1.00,6213,468,6211,437,435919,0
Krys-55,true,1.00,3348,378,3345,338,211682,0
Krys-56,true,1.00,1167,321,1167,290,78435,0
Krys-57,true,1.00,1620,299,1618,274,115763,0
Krys-58,true,1.00,4998,465,4996,437,295656,0
Krys-59,true,1.00,3196,433,3193,390,178897,0
Krys-60,false,0.91,25522,999,25521,999,1549011,0
Krys-61,true,1.00,3208,345,3201,313,201605,0
Krys-62,true,1.00,3471,404,3466,371,189952,0
Krys-63,true,1.00,8357,642,8353,604,521122,0
Krys-64,true,1.00,5528,454,5525,428,345238,0
Krys-65,true,1.00,3018,391,3016,366,179703,0
Krys-66,true,1.00,4126,402,4125,370,239804,0
Krys-67,true,1.00,6969,533,6960,508,442924,0
Krys-68,true,1.00,3651,327,3650,292,287241,0
Krys-69,true,1.00,9029,638,9027,601,551178,0
Krys-70,true,1.00,8422,518,8418,483,544494,0
Krys-71,true,1.00,4781,394,4780,368,371793,0
Krys-72,true,1.00,4988,500,4982,472,290234,0
Krys-73,true,1.00,6665,476,6662,454,419504,0
Krys-74,true,1.00,2342,366,2338,321,160187,0
Krys-75,true,1.00,2055,361,2054,325,113450,0
Krys-76,true,1.00,3648,329,3648,296,283386,0
Krys-77,true,1.00,2449,338,2447,299,177982,0
Krys-78,true,1.00,3826,374,3824,349,260208,0
Krys-79,true,1.00,2337,349,2333,306,138390,0
Krys-80,true,1.00,3129,458,3127,428,182053,0
Krys-81,true,1.00,2611,342,2609,307,163918,0
Krys-82,true,1.00,1349,325,1343,290,82186,0
Krys-83,true,1.00,7552,512,7551,465,493476,0
Krys-84,true,1.00,743,295,742,262,49763,0
Krys-85,true,1.00,6432,504,6424,470,399881,0
Krys-86,true,1.00,2808,374,2803,344,182046,0
Krys-87,true,1.00,1548,326,1545,306,93450,0
Krys-88,true,1.00,4042,429,4038,397,261447,0
Krys-89,true,1.00,4141,407,4137,376,251873,0
Krys-90,true,1.00,3569,342,3569,314,278888,0
Krys-91,true,1.00,1054,321,1051,287,68807,0
Krys-92,true,1.00,4486,443,4484,374,302145,0
Krys-93,true,1.00,3121,337,3119,309,214858,0
Krys-94,true,1.00,2263,327,2262,288,167387,0
Krys-95,true,1.00,2126,321,2124,286,125297,0
Krys-96,true,1.00,4233,354,4233,316,345769,0
Krys-97,true,1.00,2852,329,2850,303,184811,0
Krys-98,true,1.00,7621,494,7619,475,457021,0
Krys-99,true,1.00,2763,399,2760,364,160010,0
Krys-100,true,1.00,3533,349,3530,310,283807,0
