NDW:0.0
TTFW:0.2
DFPT:2.0
DFPAP:3.0
DFPMP:2.0
RIGHT_WINDOW_BORDER_X:75.0
level,win/fail,% travelled,run time,game ticks,planning time,total plannings,nodes evaluated,most backtracked nodes
notch-1,true,1.00,4465,866,4459,856,420474,0
notch-2,true,1.00,5699,782,5695,775,584213,0
notch-3,true,1.00,3517,827,3509,819,343128,0
notch-4,true,1.00,4223,665,4218,657,398556,0
notch-5,true,1.00,3479,939,3472,931,343287,0
notch-6,true,1.00,4058,689,4055,681,402565,0
notch-7,true,1.00,3537,770,3536,763,346908,0
notch-8,false,0.79,4460,764,4458,764,428612,0
notch-9,true,1.00,5602,991,5598,983,526107,0
notch-10,true,1.00,4490,775,4485,768,424688,0
notch-11,false,0.97,5278,999,5270,999,504203,0
notch-12,true,1.00,3097,944,3092,936,288505,0
notch-13,true,1.00,2658,760,2653,751,255157,0
notch-14,true,1.00,5194,723,5193,716,481274,0
notch-15,true,1.00,3385,941,3381,924,321255,0
notch-16,true,1.00,3239,726,3237,718,311713,0
notch-17,true,1.00,3666,689,3663,680,360696,0
notch-18,true,1.00,4545,786,4538,779,438937,0
notch-19,true,1.00,5055,791,5052,783,483101,0
notch-20,true,1.00,2497,658,2495,649,240916,0
notch-21,true,1.00,5486,892,5484,883,542007,0
notch-22,true,1.00,3229,777,3224,769,301706,0
notch-23,true,1.00,5679,960,5670,953,548524,0
notch-24,true,1.00,3594,771,3586,764,339176,0
notch-25,false,0.96,6589,999,6584,999,634812,0
notch-26,true,1.00,6334,896,6330,886,609443,0
notch-27,true,1.00,4647,876,4645,866,471320,0
notch-28,true,1.00,5157,759,5153,752,502271,0
notch-29,true,1.00,5597,872,5591,862,531268,0
notch-30,true,1.00,4282,860,4276,850,393784,0
notch-31,false,0.97,5014,999,5008,999,486542,0
notch-32,true,1.00,5597,946,5592,932,519527,0
notch-33,true,1.00,5352,937,5347,925,496937,0
notch-34,true,1.00,4931,904,4927,897,480181,0
notch-35,true,1.00,5082,997,5076,989,499560,0
notch-36,true,1.00,6189,940,6181,932,583923,0
notch-37,true,1.00,6256,969,6254,960,618223,0
notch-38,true,1.00,6032,872,6025,863,559456,0
notch-39,false,0.96,2845,999,2835,999,277524,0
notch-40,true,1.00,5045,707,5043,699,484560,0
notch-41,true,1.00,4001,728,3995,720,397350,0
notch-42,true,1.00,5352,823,5344,814,503836,0
notch-43,true,1.00,3856,738,3850,731,355853,0
notch-44,true,1.00,3393,894,3385,878,330173,0
notch-45,true,1.00,4405,777,4403,769,416870,0
notch-46,true,1.00,5125,981,5119,971,480577,0
notch-47,false,0.94,7692,999,7691,999,727629,0
notch-48,true,1.00,5063,767,5060,760,495209,0
notch-49,true,1.00,2363,763,2358,753,237003,0
notch-50,true,1.00,2034,727,2030,720,205880,0
notch-51,true,1.00,4792,707,4788,698,462110,0
notch-52,false,0.80,4098,999,4092,999,397055,0
notch-53,true,1.00,845,526,841,519,86293,0
notch-54,true,1.00,4313,957,4310,948,424326,0
notch-55,false,0.90,8101,999,8100,999,756377,0
notch-56,true,1.00,2839,669,2836,660,266405,0
notch-57,true,1.00,3453,769,3449,762,325246,0
notch-58,true,1.00,5131,831,5128,823,501258,0
notch-59,true,1.00,2389,727,2384,718,209222,0
notch-60,true,1.00,6761,805,6757,796,537132,0
notch-61,true,1.00,3643,706,3639,699,357930,0
notch-62,true,1.00,4656,714,4649,705,455602,0
notch-63,true,1.00,2920,823,2914,814,298471,0
notch-64,true,1.00,3874,814,3870,807,366857,0
notch-65,true,1.00,5424,731,5419,724,551368,0
notch-66,true,1.00,4805,861,4802,852,470879,0
notch-67,true,1.00,3452,692,3450,684,323406,0
notch-68,true,1.00,2957,759,2955,752,292577,0
notch-69,true,1.00,5788,862,5785,852,562443,0
notch-70,true,1.00,6051,944,6044,937,599196,0
notch-71,true,1.00,2143,593,2138,585,209759,0
notch-72,true,1.00,4695,767,4689,759,451951,0
notch-73,true,1.00,4041,635,4039,628,386515,0
notch-74,true,1.00,2590,924,2585,915,267190,0
notch-75,true,1.00,6346,792,6345,784,599959,0
notch-76,true,1.00,4070,739,4065,729,379752,0
notch-77,true,1.00,3587,747,3585,737,347261,0
notch-78,true,1.00,5318,844,5311,836,519156,0
notch-79,true,1.00,2855,609,2852,601,283865,0
notch-80,true,1.00,3087,777,3084,770,285359,0
notch-81,true,1.00,8773,868,8772,855,813096,0
notch-82,true,1.00,3932,735,3928,727,368374,0
notch-83,true,1.00,6012,945,6004,936,575803,0
notch-84,true,1.00,3576,579,3571,570,329628,0
notch-85,true,1.00,3125,608,3123,601,304777,0
notch-86,true,1.00,3905,685,3902,678,378776,0
notch-87,true,1.00,5042,701,5039,694,484947,0
notch-88,true,1.00,7401,920,7394,913,725267,0
notch-89,false,0.95,6166,999,6160,999,607870,0
notch-90,true,1.00,5208,755,5205,747,509377,0
notch-91,true,1.00,6019,971,6011,962,581867,0
notch-92,true,1.00,5030,884,5023,875,488666,0
notch-93,true,1.00,3597,662,3595,655,335779,0
notch-94,true,1.00,5942,878,5940,871,586848,0
notch-95,true,1.00,3374,603,3370,594,312955,0
notch-96,false,0.88,4910,999,4905,999,476171,0
notch-97,true,1.00,3589,705,3581,694,351764,0
notch-98,true,1.00,5071,691,5064,684,490078,0
notch-99,true,1.00,5779,791,5775,782,567761,0
notch-100,true,1.00,6404,914,6401,900,612903,0
