NDW:0.0
TTFW:1.4
DFPT:2.0
DFPAP:3.0
DFPMP:10.0
RIGHT_WINDOW_BORDER_X:275.0
level,win/fail,% travelled,run time,game ticks,planning time,total plannings,nodes evaluated,most backtracked nodes
patternWeightCount-1,true,1.00,3362,509,3351,465,174328,0
patternWeightCount-2,true,1.00,944,448,936,420,52038,0
patternWeightCount-3,true,1.00,877,424,868,399,48629,0
patternWeightCount-4,true,1.00,862,438,857,413,46666,0
patternWeightCount-5,true,1.00,1701,496,1693,461,96751,0
patternWeightCount-6,true,1.00,2406,473,2393,447,139599,0
patternWeightCount-7,true,1.00,1041,434,1032,404,57513,0
patternWeightCount-8,true,1.00,658,399,646,374,32239,0
patternWeightCount-9,true,1.00,1563,503,1554,476,87684,0
patternWeightCount-10,true,1.00,1341,475,1327,450,75099,0
patternWeightCount-11,true,1.00,642,453,635,428,33378,0
patternWeightCount-12,true,1.00,1954,544,1945,518,110077,0
patternWeightCount-13,true,1.00,1428,464,1412,439,81442,0
patternWeightCount-14,true,1.00,1239,451,1236,420,70182,0
patternWeightCount-15,true,1.00,1653,404,1637,379,95954,0
patternWeightCount-16,true,1.00,2990,514,2973,477,177446,0
patternWeightCount-17,true,1.00,1098,490,1085,465,58855,0
patternWeightCount-18,true,1.00,1104,408,1099,383,63173,0
patternWeightCount-19,true,1.00,845,461,833,436,43858,0
patternWeightCount-20,false,0.74,3401,319,3392,319,191861,0
patternWeightCount-21,true,1.00,875,522,865,496,43276,0
patternWeightCount-22,true,1.00,2810,566,2799,526,164290,0
patternWeightCount-23,true,1.00,858,480,846,455,45834,0
patternWeightCount-24,true,1.00,1695,473,1673,447,96497,0
patternWeightCount-25,true,1.00,1970,494,1955,469,112549,0
patternWeightCount-26,true,1.00,1589,489,1574,457,91608,0
patternWeightCount-27,true,1.00,1878,499,1861,458,107398,0
patternWeightCount-28,true,1.00,1692,548,1681,523,96740,0
patternWeightCount-29,true,1.00,1204,441,1194,416,68054,0
patternWeightCount-30,true,1.00,5094,552,5085,510,279015,0
patternWeightCount-31,true,1.00,1779,480,1765,455,98262,0
patternWeightCount-32,true,1.00,899,432,885,398,49605,0
patternWeightCount-33,true,1.00,956,467,944,442,52235,0
patternWeightCount-34,true,1.00,1483,433,1474,408,85608,0
patternWeightCount-35,true,1.00,2421,450,2412,425,130075,0
patternWeightCount-36,true,1.00,1535,475,1525,450,88126,0
patternWeightCount-37,true,1.00,859,433,849,408,46266,0
patternWeightCount-38,true,1.00,2020,462,2004,413,111762,0
patternWeightCount-39,true,1.00,890,416,886,386,48139,0
patternWeightCount-40,true,1.00,1348,477,1329,452,76491,0
patternWeightCount-41,true,1.00,1545,483,1534,445,87055,0
patternWeightCount-42,false,0.87,2894,418,2881,418,114151,0
patternWeightCount-43,true,1.00,1252,409,1241,384,55485,0
patternWeightCount-44,true,1.00,1901,489,1890,434,115029,0
patternWeightCount-45,true,1.00,3130,543,3120,497,178651,0
patternWeightCount-46,true,1.00,3972,482,3962,445,208914,0
patternWeightCount-47,true,1.00,812,435,798,410,43385,0
patternWeightCount-48,true,1.00,886,420,881,395,47584,0
patternWeightCount-49,true,1.00,1069,439,1061,414,59187,0
patternWeightCount-50,true,1.00,1502,445,1494,421,84345,0
patternWeightCount-51,true,1.00,1284,435,1279,390,73340,0
patternWeightCount-52,true,1.00,1496,465,1486,422,83671,0
patternWeightCount-53,true,1.00,2929,479,2922,451,165351,0
patternWeightCount-54,true,1.00,1188,522,1169,497,61625,0
patternWeightCount-55,true,1.00,1519,470,1507,445,86604,0
patternWeightCount-56,true,1.00,1318,448,1309,415,74373,0
patternWeightCount-57,true,1.00,973,411,963,386,54744,0
patternWeightCount-58,true,1.00,1481,482,1472,448,82755,0
patternWeightCount-59,true,1.00,566,422,548,397,29431,0
patternWeightCount-60,true,1.00,1444,519,1434,482,80396,0
patternWeightCount-61,true,1.00,1209,422,1199,397,67799,0
patternWeightCount-62,true,1.00,2430,510,2421,468,139192,0
patternWeightCount-63,true,1.00,1401,482,1386,457,80193,0
patternWeightCount-64,true,1.00,1860,488,1845,463,107717,0
patternWeightCount-65,true,1.00,1576,506,1566,470,89673,0
patternWeightCount-66,true,1.00,1151,468,1136,442,63009,0
patternWeightCount-67,true,1.00,1171,461,1164,436,61813,0
patternWeightCount-68,false,0.85,20798,999,20793,999,753899,0
patternWeightCount-69,true,1.00,2388,472,2382,420,134907,0
patternWeightCount-70,true,1.00,1898,527,1874,487,59294,0
patternWeightCount-71,true,1.00,1203,451,1186,416,49735,0
patternWeightCount-72,true,1.00,3813,489,3799,446,202103,0
patternWeightCount-73,true,1.00,5445,494,5436,449,302326,0
patternWeightCount-74,true,1.00,1140,481,1129,456,61105,0
patternWeightCount-75,true,1.00,1457,476,1452,451,77204,0
patternWeightCount-76,true,1.00,1563,474,1547,449,55343,0
patternWeightCount-77,true,1.00,1912,470,1896,445,76286,0
patternWeightCount-78,true,1.00,2703,471,2691,444,150392,0
patternWeightCount-79,true,1.00,1160,389,1153,364,67059,0
patternWeightCount-80,true,1.00,2189,533,2175,508,124651,0
patternWeightCount-81,true,1.00,4560,517,4551,485,244179,0
patternWeightCount-82,true,1.00,429,454,417,405,21408,0
patternWeightCount-83,true,1.00,887,400,878,374,50724,0
patternWeightCount-84,true,1.00,1678,493,1658,468,58945,0
patternWeightCount-85,true,1.00,1757,448,1743,423,74376,0
patternWeightCount-86,false,0.94,2366,422,2360,422,128628,0
patternWeightCount-87,true,1.00,5062,486,5049,450,270553,0
patternWeightCount-88,true,1.00,1382,469,1375,441,75797,0
patternWeightCount-89,true,1.00,1388,449,1377,424,79540,0
patternWeightCount-90,true,1.00,4042,508,4033,481,227362,0
patternWeightCount-91,true,1.00,1338,463,1324,433,72619,0
patternWeightCount-92,true,1.00,3610,517,3605,461,205161,0
patternWeightCount-93,true,1.00,3533,462,3520,437,184576,0
patternWeightCount-94,true,1.00,2158,471,2133,446,56443,0
patternWeightCount-95,true,1.00,1433,465,1421,440,73125,0
patternWeightCount-96,true,1.00,1296,447,1286,422,70758,0
patternWeightCount-97,true,1.00,1084,379,1066,353,61435,0
patternWeightCount-98,true,1.00,4197,477,4188,435,242804,0
patternWeightCount-99,true,1.00,1879,503,1868,477,108911,0
patternWeightCount-100,true,1.00,1552,442,1544,417,88649,0
