NDW:0.0
TTFW:0.6
DFPT:2.0
DFPAP:3.0
DFPMP:1.0
RIGHT_WINDOW_BORDER_X:400.0
level,win/fail,% travelled,run time,game ticks,planning time,total plannings,nodes evaluated,most backtracked nodes
patternOccur-1,true,1.00,1283,370,1272,329,59498,0
patternOccur-2,true,1.00,1325,388,1320,347,60316,0
patternOccur-3,true,1.00,1753,393,1742,356,83998,0
patternOccur-4,true,1.00,1565,411,1556,375,75516,0
patternOccur-5,true,1.00,1079,372,1065,335,49907,0
patternOccur-6,true,1.00,1896,431,1884,394,88354,0
patternOccur-7,true,1.00,1972,397,1966,361,93689,0
patternOccur-8,true,1.00,1685,384,1676,347,79489,0
patternOccur-9,true,1.00,1755,391,1745,346,82422,0
patternOccur-10,true,1.00,1226,390,1214,347,56692,0
patternOccur-11,true,1.00,4685,485,4676,437,214659,0
patternOccur-12,true,1.00,2214,414,2201,375,102919,0
patternOccur-13,true,1.00,1268,404,1258,367,57603,0
patternOccur-14,true,1.00,2997,386,2988,337,143731,0
patternOccur-15,true,1.00,1502,354,1495,318,73625,0
patternOccur-16,true,1.00,3390,386,3381,338,161856,0
patternOccur-17,true,1.00,1386,354,1374,317,66310,0
patternOccur-18,true,1.00,1251,366,1238,327,57554,0
patternOccur-19,true,1.00,4688,442,4681,389,209066,0
patternOccur-20,true,1.00,1326,368,1319,332,65032,0
patternOccur-21,true,1.00,1303,408,1296,364,60751,0
patternOccur-22,true,1.00,3269,414,3267,378,156206,0
patternOccur-23,true,1.00,1954,385,1944,348,90769,0
patternOccur-24,true,1.00,1560,401,1554,365,72687,0
patternOccur-25,true,1.00,1831,404,1817,363,89135,0
patternOccur-26,true,1.00,1081,360,1075,324,51527,0
patternOccur-27,true,1.00,2965,401,2957,345,139881,0
patternOccur-28,true,1.00,2119,400,2110,363,101604,0
patternOccur-29,true,1.00,1059,355,1054,315,52114,0
patternOccur-30,true,1.00,1298,377,1285,340,60367,0
patternOccur-31,true,1.00,5337,420,5328,375,268427,0
patternOccur-32,true,1.00,2317,352,2313,314,114619,0
patternOccur-33,true,1.00,1164,351,1156,314,57251,0
patternOccur-34,true,1.00,1356,374,1347,332,66486,0
patternOccur-35,true,1.00,1174,378,1165,341,54929,0
patternOccur-36,true,1.00,2485,401,2474,342,121941,0
patternOccur-37,true,1.00,3299,416,3287,354,153900,0
patternOccur-38,true,1.00,1325,376,1314,340,63744,0
patternOccur-39,true,1.00,2659,439,2652,401,124379,0
patternOccur-40,true,1.00,1859,396,1853,360,90293,0
patternOccur-41,true,1.00,1583,387,1575,342,73204,0
patternOccur-42,false,0.89,3513,379,3504,379,159710,0
patternOccur-43,true,1.00,1498,366,1494,330,73930,0
patternOccur-44,true,1.00,1405,382,1394,345,68276,0
patternOccur-45,true,1.00,1829,369,1818,328,88303,0
patternOccur-46,true,1.00,1080,350,1069,313,50120,0
patternOccur-47,true,1.00,2685,392,2674,338,129987,0
patternOccur-48,true,1.00,1578,379,1574,342,74338,0
patternOccur-49,true,1.00,1376,366,1368,330,67203,0
patternOccur-50,true,1.00,1867,383,1860,339,88930,0
patternOccur-51,true,1.00,1855,386,1843,349,89476,0
patternOccur-52,true,1.00,1835,412,1827,361,86706,0
patternOccur-53,true,1.00,1694,372,1683,336,82648,0
patternOccur-54,true,1.00,2468,414,2457,377,120023,0
patternOccur-55,true,1.00,1670,410,1660,374,80069,0
patternOccur-56,true,1.00,1677,356,1668,320,78185,0
patternOccur-57,true,1.00,1631,368,1626,325,79880,0
patternOccur-58,true,1.00,5225,481,5215,437,246072,0
patternOccur-59,true,1.00,1707,389,1697,352,81476,0
patternOccur-60,true,1.00,2491,415,2485,355,117741,0
patternOccur-61,true,1.00,1279,362,1270,325,61183,0
patternOccur-62,true,1.00,1509,376,1504,340,70945,0
patternOccur-63,true,1.00,1390,368,1385,329,63796,0
patternOccur-64,true,1.00,1730,354,1720,311,81223,0
patternOccur-65,true,1.00,1840,439,1832,403,84405,0
patternOccur-66,true,1.00,1518,405,1506,366,69290,0
patternOccur-67,true,1.00,2965,425,2955,387,140631,0
patternOccur-68,true,1.00,1287,402,1279,365,58712,0
patternOccur-69,true,1.00,4638,459,4628,411,214464,0
patternOccur-70,true,1.00,3319,377,3314,340,149981,0
patternOccur-71,true,1.00,1830,375,1824,336,87877,0
patternOccur-72,true,1.00,3760,427,3754,385,169522,0
patternOccur-73,true,1.00,4311,444,4299,390,199946,0
patternOccur-74,true,1.00,3284,427,3275,372,154813,0
patternOccur-75,true,1.00,2435,393,2424,355,119504,0
patternOccur-76,true,1.00,1432,357,1421,321,69777,0
patternOccur-77,true,1.00,1051,362,1037,326,46993,0
patternOccur-78,true,1.00,1064,360,1058,324,46715,0
patternOccur-79,true,1.00,1376,369,1364,332,65107,0
patternOccur-80,true,1.00,2529,403,2521,352,117995,0
patternOccur-81,true,1.00,3720,442,3710,359,178208,0
patternOccur-82,true,1.00,2173,386,2166,349,102222,0
patternOccur-83,true,1.00,1323,388,1316,352,62025,0
patternOccur-84,true,1.00,1427,390,1418,354,65763,0
patternOccur-85,true,1.00,2360,408,2351,371,111836,0
patternOccur-86,true,1.00,3032,416,3024,351,139111,0
patternOccur-87,true,1.00,1218,390,1209,349,55203,0
patternOccur-88,true,1.00,1297,375,1290,339,60112,0
patternOccur-89,true,1.00,1615,395,1601,356,73808,0
patternOccur-90,true,1.00,2003,416,1992,374,92365,0
patternOccur-91,true,1.00,1622,419,1610,383,74448,0
patternOccur-92,true,1.00,1173,364,1170,328,52238,0
patternOccur-93,true,1.00,1599,399,1590,350,72832,0
patternOccur-94,true,1.00,4570,443,4558,386,201896,0
patternOccur-95,true,1.00,1336,414,1329,371,61172,0
patternOccur-96,false,0.87,3406,363,3401,363,149035,0
patternOccur-97,true,1.00,1376,361,1368,319,64594,0
patternOccur-98,false,0.90,2838,343,2833,343,123610,0
patternOccur-99,true,1.00,834,354,829,312,39630,0
patternOccur-100,true,1.00,1653,390,1642,353,75373,0
