NDW:0.0
TTFW:1.0
DFPT:2.0
DFPAP:3.0
DFPMP:7.0
RIGHT_WINDOW_BORDER_X:155.0
level,win/fail,% travelled,run time,game ticks,planning time,total plannings,nodes evaluated,most backtracked nodes
ore-1,true,1.00,1863,437,1852,423,87898,0
ore-2,false,0.70,6425,428,6413,428,261730,0
ore-3,true,1.00,2120,467,2111,449,97667,0
ore-4,true,1.00,2092,425,2073,410,58518,0
ore-5,true,1.00,1763,432,1750,416,75255,0
ore-6,true,1.00,2002,452,1985,425,91021,0
ore-7,true,1.00,1646,422,1635,407,75761,0
ore-8,false,0.13,2393,124,2390,124,93748,0
ore-9,true,1.00,1668,379,1661,364,79770,0
ore-10,false,0.55,1092,248,1085,248,52754,0
ore-11,true,1.00,2310,468,2299,450,107334,0
ore-12,false,0.46,1340,194,1336,194,58984,0
ore-13,true,1.00,2493,468,2475,441,114734,0
ore-14,true,1.00,1798,425,1782,411,82091,0
ore-15,true,1.00,2269,442,2258,424,101606,0
ore-16,true,1.00,1969,422,1961,408,92784,0
ore-17,true,1.00,2729,496,2712,475,126669,0
ore-18,true,1.00,1851,459,1832,436,83470,0
ore-19,true,1.00,1559,430,1549,415,70484,0
ore-20,true,1.00,2619,456,2605,441,117699,0
ore-21,true,1.00,2330,450,2325,434,103267,0
ore-22,false,0.58,3438,367,3426,367,137881,0
ore-23,true,1.00,1459,415,1446,401,64762,0
ore-24,true,1.00,2101,482,2085,458,93161,0
ore-25,true,1.00,2343,450,2330,429,104006,0
ore-26,true,1.00,1705,437,1697,423,72443,0
ore-27,false,0.23,3086,176,3083,176,114975,0
ore-28,true,1.00,2850,453,2819,440,74398,0
ore-29,false,0.47,4095,295,4088,295,147382,0
ore-30,true,1.00,1974,400,1956,381,88139,0
ore-31,true,1.00,1678,464,1662,435,74276,0
ore-32,true,1.00,1736,416,1721,399,77143,0
ore-33,true,1.00,1714,440,1706,426,77078,0
ore-34,true,1.00,2177,448,2164,429,96006,0
ore-35,true,1.00,1971,441,1960,427,90456,0
ore-36,true,1.00,1262,382,1246,367,57454,0
ore-37,false,0.34,1779,157,1777,157,70505,0
ore-38,true,1.00,1840,411,1831,387,82809,0
ore-39,true,1.00,1547,429,1529,414,70336,0
ore-40,true,1.00,2463,455,2450,440,109235,0
ore-41,true,1.00,2149,467,2138,451,96412,0
ore-42,true,1.00,1651,460,1642,435,73845,0
ore-43,true,1.00,2648,454,2639,440,117207,0
ore-44,true,1.00,1802,414,1796,387,81717,0
ore-45,false,0.74,23814,999,23802,999,637169,0
ore-46,false,0.12,535,49,534,49,21336,0
ore-47,false,0.81,4906,476,4889,476,182538,0
ore-48,true,1.00,1737,432,1722,417,72179,0
ore-49,true,1.00,1748,424,1731,407,73201,0
ore-50,true,1.00,1677,375,1665,361,75769,0
ore-51,true,1.00,1919,436,1903,419,90867,0
ore-52,true,1.00,2140,440,2123,417,99335,0
ore-53,true,1.00,2399,417,2387,402,108741,0
ore-54,false,0.71,3566,384,3558,384,150821,0
ore-55,true,1.00,1986,409,1974,394,96796,0
ore-56,true,1.00,1306,382,1296,360,60690,0
ore-57,true,1.00,1960,417,1945,390,90507,0
ore-58,true,1.00,2577,444,2556,430,118337,0
ore-59,true,1.00,2429,440,2411,426,111291,0
ore-60,true,1.00,2369,401,2355,387,91737,0
ore-61,true,1.00,2226,436,2213,420,71992,0
ore-62,true,1.00,1524,392,1513,378,74428,0
ore-63,true,1.00,1744,391,1719,368,47783,0
ore-64,true,1.00,1156,393,1136,377,42580,0
ore-65,true,1.00,2350,440,2339,425,112050,0
ore-66,true,1.00,2026,448,2010,433,95539,0
ore-67,true,1.00,1752,430,1740,404,84301,0
ore-68,true,1.00,1461,404,1455,387,70036,0
ore-69,true,1.00,3148,467,3127,453,148804,0
ore-70,false,0.95,4681,522,4672,522,214544,0
ore-71,true,1.00,1665,402,1653,388,81583,0
ore-72,true,1.00,1475,419,1466,403,72727,0
ore-73,true,1.00,2213,438,2205,422,106065,0
ore-74,true,1.00,2670,476,2650,442,121025,0
ore-75,true,1.00,1985,482,1977,468,94761,0
ore-76,false,0.38,854,143,851,143,43389,0
ore-77,true,1.00,1736,430,1721,415,85351,0
ore-78,true,1.00,1617,380,1603,366,69623,0
ore-79,true,1.00,1863,427,1849,413,81433,0
ore-80,true,1.00,1548,403,1532,388,66464,0
ore-81,true,1.00,2380,471,2373,457,103476,0
ore-82,true,1.00,1883,449,1868,430,81564,0
ore-83,true,1.00,1695,435,1683,421,76233,0
ore-84,false,0.13,589,65,589,65,21594,0
ore-85,true,1.00,1725,447,1706,432,78734,0
ore-86,false,0.62,3562,373,3550,373,161025,0
ore-87,true,1.00,1219,383,1207,369,56166,0
ore-88,true,1.00,1606,409,1597,395,75244,0
ore-89,true,1.00,2665,435,2653,421,116474,0
ore-90,true,1.00,2635,463,2625,448,124182,0
ore-91,true,1.00,1813,367,1793,353,47936,0
ore-92,true,1.00,1509,375,1497,361,64798,0
ore-93,false,0.13,3532,149,3531,149,140141,0
ore-94,true,1.00,2064,481,2055,465,99373,0
ore-95,true,1.00,1975,398,1950,384,55529,0
ore-96,true,1.00,2943,543,2927,527,132153,0
ore-97,false,0.78,1454,323,1440,323,66044,0
ore-98,true,1.00,2798,447,2780,432,122939,0
ore-99,true,1.00,2027,428,2016,413,85393,0
ore-100,true,1.00,1931,431,1923,412,88983,0
