NDW:0.0
TTFW:0.8
DFPT:2.0
DFPAP:3.0
DFPMP:0.0
RIGHT_WINDOW_BORDER_X:95.0
level,win/fail,% travelled,run time,game ticks,planning time,total plannings,nodes evaluated,most backtracked nodes
patternOccur-1,true,1.00,1354,523,1343,513,77838,0
patternOccur-2,true,1.00,2013,512,1989,502,86488,0
patternOccur-3,true,1.00,3270,589,3256,579,156505,0
patternOccur-4,true,1.00,4211,615,4199,605,243289,0
patternOccur-5,true,1.00,1622,516,1612,507,93288,0
patternOccur-6,true,1.00,1811,551,1796,537,105598,0
patternOccur-7,true,1.00,2380,544,2369,534,137929,0
patternOccur-8,true,1.00,1777,478,1764,469,101454,0
patternOccur-9,true,1.00,3094,607,3087,598,176779,0
patternOccur-10,true,1.00,1095,467,1084,457,63750,0
patternOccur-11,false,0.86,3643,508,3633,508,208051,0
patternOccur-12,true,1.00,2553,591,2538,581,149046,0
patternOccur-13,true,1.00,2827,570,2822,559,165405,0
patternOccur-14,false,0.82,4831,579,4825,579,267871,0
patternOccur-15,true,1.00,2308,498,2299,490,129808,0
patternOccur-16,false,0.83,19397,999,19389,999,988732,0
patternOccur-17,true,1.00,2236,543,2231,534,124751,0
patternOccur-18,true,1.00,1177,461,1163,451,69229,0
patternOccur-19,false,0.82,6338,684,6324,684,379121,0
patternOccur-20,true,1.00,2377,536,2368,526,137388,0
patternOccur-21,true,1.00,1568,535,1557,525,90969,0
patternOccur-22,false,0.83,17757,999,17751,999,941777,0
patternOccur-23,true,1.00,3150,617,3136,607,180169,0
patternOccur-24,true,1.00,1776,520,1766,510,104093,0
patternOccur-25,true,1.00,2445,492,2432,483,110729,0
patternOccur-26,true,1.00,1664,496,1651,488,68047,0
patternOccur-27,false,0.92,17100,999,17081,999,878509,0
patternOccur-28,true,1.00,2668,628,2658,618,154447,0
patternOccur-29,true,1.00,1561,494,1543,484,87459,0
patternOccur-30,true,1.00,1473,525,1460,517,83593,0
patternOccur-31,false,0.76,20763,999,20755,999,1115201,0
patternOccur-32,false,0.87,6821,661,6808,661,388374,0
patternOccur-33,true,1.00,2809,534,2794,526,158488,0
patternOccur-34,true,1.00,4311,664,4299,655,245188,0
patternOccur-35,true,1.00,1298,511,1281,500,73496,0
patternOccur-36,false,0.89,5224,588,5213,588,291854,0
patternOccur-37,false,0.95,7131,685,7121,685,389160,0
patternOccur-38,true,1.00,2641,544,2632,534,151585,0
patternOccur-39,false,0.79,8585,681,8573,681,482759,0
patternOccur-40,true,1.00,3035,548,3025,539,175773,0
patternOccur-41,true,1.00,3896,592,3879,573,226496,0
patternOccur-42,false,0.87,7095,731,7086,731,402861,0
patternOccur-43,true,1.00,1752,487,1740,479,101018,0
patternOccur-44,true,1.00,3616,627,3600,617,201704,0
patternOccur-45,false,0.91,4031,518,4014,518,229639,0
patternOccur-46,true,1.00,1547,515,1533,505,90205,0
patternOccur-47,false,0.87,6111,662,6100,662,351325,0
patternOccur-48,true,1.00,2654,546,2643,532,153410,0
patternOccur-49,true,1.00,2034,516,2025,507,118415,0
patternOccur-50,true,1.00,3464,583,3452,574,191132,0
patternOccur-51,true,1.00,2786,609,2772,600,160889,0
patternOccur-52,true,1.00,3014,649,3002,639,171782,0
patternOccur-53,true,1.00,2762,500,2753,490,155173,0
patternOccur-54,true,1.00,3442,589,3425,579,197792,0
patternOccur-55,true,1.00,1952,537,1940,527,112329,0
patternOccur-56,true,1.00,2398,609,2381,600,137071,0
patternOccur-57,true,1.00,3612,587,3604,577,206085,0
patternOccur-58,false,0.74,5368,529,5363,529,292699,0
patternOccur-59,true,1.00,2561,579,2551,569,145402,0
patternOccur-60,false,0.87,4449,532,4440,532,242149,0
patternOccur-61,true,1.00,3682,633,3666,624,211218,0
patternOccur-62,true,1.00,2677,549,2665,540,155172,0
patternOccur-63,true,1.00,1519,490,1510,473,87884,0
patternOccur-64,true,1.00,4668,659,4653,650,269833,0
patternOccur-65,true,1.00,2422,565,2417,556,141873,0
patternOccur-66,true,1.00,3004,600,2988,591,171721,0
patternOccur-67,true,1.00,2724,583,2704,574,159258,0
patternOccur-68,true,1.00,1269,494,1265,485,71682,0
patternOccur-69,false,0.85,5263,568,5256,568,298901,0
patternOccur-70,false,0.87,6710,626,6696,626,399395,0
patternOccur-71,true,1.00,6023,669,6014,661,353191,0
patternOccur-72,false,0.86,5045,569,5036,569,283331,0
patternOccur-73,false,0.86,6841,634,6830,634,325375,0
patternOccur-74,false,0.85,4837,542,4831,542,232262,0
patternOccur-75,false,0.96,6547,728,6530,728,320904,0
patternOccur-76,true,1.00,2988,586,2976,576,170076,0
patternOccur-77,true,1.00,987,464,984,454,56686,0
patternOccur-78,true,1.00,1121,472,1107,463,64479,0
patternOccur-79,true,1.00,2522,614,2507,604,144546,0
patternOccur-80,false,0.90,6565,622,6555,622,383259,0
patternOccur-81,false,0.85,5656,531,5646,531,329045,0
patternOccur-82,false,0.95,5434,635,5421,635,291329,0
patternOccur-83,true,1.00,1566,524,1554,514,91620,0
patternOccur-84,true,1.00,3246,608,3220,598,178717,0
patternOccur-85,false,0.91,17985,999,17972,999,973092,0
patternOccur-86,false,0.91,8728,688,8718,688,488979,0
patternOccur-87,true,1.00,2214,548,2207,539,128046,0
patternOccur-88,true,1.00,5089,684,5081,674,294982,0
patternOccur-89,true,1.00,2842,573,2833,563,163216,0
patternOccur-90,true,1.00,3942,633,3927,624,231648,0
patternOccur-91,true,1.00,3122,596,3109,587,174718,0
patternOccur-92,true,1.00,984,474,976,466,56551,0
patternOccur-93,true,1.00,2843,603,2828,593,159194,0
patternOccur-94,false,0.84,5936,575,5925,575,341419,0
patternOccur-95,true,1.00,2460,595,2451,585,145536,0
patternOccur-96,false,0.86,3323,479,3315,479,172090,0
patternOccur-97,true,1.00,3554,637,3541,628,206348,0
patternOccur-98,false,0.90,6732,669,6719,669,384255,0
patternOccur-99,true,1.00,963,509,952,500,45883,0
patternOccur-100,true,1.00,2336,546,2315,536,84617,0
