NDW:0.0
TTFW:0.8
DFPT:2.0
DFPAP:3.0
DFPMP:1.0
RIGHT_WINDOW_BORDER_X:235.0
level,win/fail,% travelled,run time,game ticks,planning time,total plannings,nodes evaluated,most backtracked nodes
ore-1,true,1.00,1839,432,1833,410,188888,0
ore-2,false,0.70,1986,305,1984,305,185471,0
ore-3,true,1.00,1742,416,1741,385,173463,0
ore-4,true,1.00,1920,446,1914,413,190124,0
ore-5,true,1.00,1507,361,1503,338,154652,0
ore-6,true,1.00,1419,414,1416,391,135972,0
ore-7,true,1.00,1232,396,1231,367,124651,0
ore-8,true,1.00,2125,389,2124,357,211428,0
ore-9,true,1.00,1280,342,1277,321,129856,0
ore-10,false,0.55,453,220,451,220,48715,0
ore-11,true,1.00,1458,425,1452,391,149617,0
ore-12,true,1.00,1342,391,1338,370,139035,0
ore-13,true,1.00,2543,457,2539,423,246855,0
ore-14,true,1.00,1428,386,1426,364,149101,0
ore-15,true,1.00,1886,409,1884,382,181494,0
ore-16,true,1.00,1424,409,1422,383,151760,0
ore-17,true,1.00,1727,465,1724,442,183845,0
ore-18,true,1.00,1229,377,1225,344,132643,0
ore-19,true,1.00,1274,375,1274,353,133565,0
ore-20,true,1.00,1943,429,1941,405,197113,0
ore-21,true,1.00,1545,386,1544,364,164217,0
ore-22,true,1.00,1611,384,1607,357,174125,0
ore-23,true,1.00,1141,344,1137,321,122845,0
ore-24,true,1.00,1418,411,1418,378,144701,0
ore-25,true,1.00,1556,378,1556,346,165600,0
ore-26,true,1.00,1296,377,1295,352,127464,0
ore-27,true,1.00,1780,440,1775,419,180938,0
ore-28,true,1.00,1517,458,1515,432,140188,0
ore-29,true,1.00,1907,422,1905,400,191929,0
ore-30,true,1.00,1275,383,1272,359,124319,0
ore-31,true,1.00,1521,408,1513,386,153744,0
ore-32,true,1.00,1676,420,1674,393,169151,0
ore-33,true,1.00,1748,428,1745,404,179514,0
ore-34,true,1.00,1475,426,1474,399,148092,0
ore-35,true,1.00,1472,387,1470,365,156183,0
ore-36,true,1.00,1382,437,1376,405,144953,0
ore-37,false,0.34,1279,159,1279,159,102975,0
ore-38,true,1.00,1805,401,1799,379,183621,0
ore-39,true,1.00,1605,406,1602,383,167232,0
ore-40,true,1.00,1895,438,1889,408,194299,0
ore-41,true,1.00,1503,396,1501,357,154525,0
ore-42,true,1.00,1585,389,1584,368,167530,0
ore-43,true,1.00,1317,424,1316,399,136920,0
ore-44,true,1.00,1713,407,1709,373,181547,0
ore-45,false,0.74,21532,999,21531,999,1256174,0
ore-46,false,0.12,964,53,964,53,82357,0
ore-47,true,1.00,1548,428,1547,401,157623,0
ore-48,true,1.00,1169,420,1164,399,121440,0
ore-49,true,1.00,1676,428,1674,401,161843,0
ore-50,true,1.00,1462,364,1461,343,148606,0
ore-51,true,1.00,1372,427,1371,395,147163,0
ore-52,true,1.00,1652,421,1651,387,169085,0
ore-53,true,1.00,1759,407,1756,381,173551,0
ore-54,true,1.00,1709,470,1706,445,173391,0
ore-55,true,1.00,1115,384,1112,358,119620,0
ore-56,true,1.00,1171,386,1168,354,120424,0
ore-57,true,1.00,1863,443,1860,406,192406,0
ore-58,true,1.00,1510,353,1507,332,154854,0
ore-59,true,1.00,1675,416,1673,395,167941,0
ore-60,true,1.00,1751,382,1747,355,176990,0
ore-61,true,1.00,1370,409,1368,375,133133,0
ore-62,true,1.00,1539,380,1538,358,161121,0
ore-63,true,1.00,1701,369,1699,343,168162,0
ore-64,true,1.00,1194,375,1191,354,120447,0
ore-65,true,1.00,1729,388,1726,361,175062,0
ore-66,true,1.00,1884,425,1883,399,192061,0
ore-67,true,1.00,1287,384,1285,358,127633,0
ore-68,true,1.00,2531,433,2529,409,252129,0
ore-69,true,1.00,2579,440,2575,417,250779,0
ore-70,false,0.95,2430,393,2422,393,230713,0
ore-71,true,1.00,1300,397,1299,376,132314,0
ore-72,true,1.00,1632,408,1629,374,171629,0
ore-73,true,1.00,1608,376,1604,347,166177,0
ore-74,true,1.00,2165,444,2163,415,207536,0
ore-75,true,1.00,1694,419,1691,397,169453,0
ore-76,true,1.00,1371,354,1369,333,148970,0
ore-77,true,1.00,1626,422,1622,398,165481,0
ore-78,true,1.00,1553,363,1550,342,164746,0
ore-79,true,1.00,1681,409,1679,388,171333,0
ore-80,true,1.00,1872,390,1871,366,190017,0
ore-81,true,1.00,1894,420,1891,398,198328,0
ore-82,true,1.00,1478,407,1474,381,148121,0
ore-83,true,1.00,1728,461,1724,432,177983,0
ore-84,true,1.00,2256,404,2255,383,227172,0
ore-85,true,1.00,1187,389,1184,359,118080,0
ore-86,true,1.00,1455,449,1451,416,158260,0
ore-87,true,1.00,1104,371,1096,349,109648,0
ore-88,true,1.00,1598,399,1597,376,169108,0
ore-89,true,1.00,2026,390,2023,369,205661,0
ore-90,true,1.00,1646,405,1643,383,175874,0
ore-91,true,1.00,1382,378,1380,357,146454,0
ore-92,true,1.00,1877,388,1877,365,195949,0
ore-93,true,1.00,3600,477,3595,451,360774,0
ore-94,true,1.00,2480,423,2475,401,258999,0
ore-95,true,1.00,1884,442,1879,418,194400,0
ore-96,true,1.00,2162,421,2157,400,218852,0
ore-97,true,1.00,1254,446,1251,414,124373,0
ore-98,true,1.00,1468,393,1467,370,153184,0
ore-99,true,1.00,2038,438,2037,415,206583,0
ore-100,true,1.00,1202,399,1198,375,122581,0
