NDW:0.0
TTFW:0.4
DFPT:2.0
DFPAP:3.0
DFPMP:10.0
RIGHT_WINDOW_BORDER_X:35.0
level,win/fail,% travelled,run time,game ticks,planning time,total plannings,nodes evaluated,most backtracked nodes
patternCount-1,false,0.46,3512,629,3509,629,343660,0
patternCount-2,false,0.08,450,137,449,137,52158,0
patternCount-3,false,0.06,385,150,384,150,49821,0
patternCount-4,false,0.61,5348,999,5345,999,532531,0
patternCount-5,false,0.50,7813,999,7809,999,729418,0
patternCount-6,false,0.75,3289,999,3285,999,329484,0
patternCount-7,false,0.35,3012,556,3009,556,301004,0
patternCount-8,false,0.50,7912,998,7902,998,753149,0
patternCount-9,false,0.05,1180,246,1179,246,142928,0
patternCount-10,false,0.12,287,135,287,135,35758,0
patternCount-11,false,0.13,1101,264,1101,264,119262,0
patternCount-12,false,0.04,436,115,435,115,81237,0
patternCount-13,false,0.50,2995,911,2982,911,298098,0
patternCount-14,false,0.08,1023,244,1022,244,127201,0
patternCount-15,false,0.66,5568,999,5559,999,550493,0
patternCount-16,false,0.20,23606,999,23605,999,1984686,0
patternCount-17,false,0.77,5757,999,5755,999,546735,0
patternCount-18,false,0.35,3522,631,3520,631,355455,0
patternCount-19,false,0.43,4599,714,4595,714,418122,0
patternCount-20,false,0.13,2088,274,2086,274,205116,0
patternCount-21,false,0.14,1100,195,1098,195,115683,0
patternCount-22,false,0.04,150,89,148,89,21634,0
patternCount-23,false,0.13,856,196,854,196,100361,0
patternCount-24,false,0.21,1617,411,1615,411,163234,0
patternCount-25,false,0.20,4765,395,4763,395,458226,0
patternCount-26,false,0.30,2451,500,2448,500,223549,0
patternCount-27,false,0.27,1711,423,1707,423,170570,0
patternCount-28,false,0.26,2580,429,2579,429,239694,0
patternCount-29,false,0.18,2099,408,2099,408,234025,0
patternCount-30,false,0.14,1206,313,1204,313,144345,0
patternCount-31,false,0.54,5067,983,5061,983,495288,0
patternCount-32,false,0.09,401,191,399,191,46942,0
patternCount-33,false,0.42,4870,863,4867,863,452689,0
patternCount-34,false,0.10,900,258,900,258,90748,0
patternCount-35,false,0.17,1371,999,1364,999,131226,0
patternCount-36,false,0.13,1097,246,1096,246,104073,0
patternCount-37,false,0.33,2973,545,2968,545,273935,0
patternCount-38,false,0.11,830,243,828,243,85552,0
patternCount-39,false,0.19,1344,362,1342,362,137005,0
patternCount-40,false,0.66,6092,995,6088,995,612394,0
patternCount-41,false,0.36,1445,561,1439,561,151021,0
patternCount-42,false,0.04,634,132,632,132,100550,0
patternCount-43,false,0.30,1843,460,1840,460,190982,0
patternCount-44,false,0.22,3276,376,3274,376,302309,0
patternCount-45,false,0.66,5684,999,5680,999,515694,0
patternCount-46,false,0.17,1829,302,1827,302,177121,0
patternCount-47,false,0.03,367,133,366,133,56733,0
patternCount-48,false,0.14,2811,320,2809,320,262930,0
patternCount-49,false,0.14,1042,237,1039,237,104269,0
patternCount-50,false,0.40,1551,603,1547,603,167895,0
patternCount-51,false,0.30,2503,999,2497,999,261704,0
patternCount-52,false,0.06,653,150,653,150,78482,0
patternCount-53,false,0.06,823,122,822,122,94273,0
patternCount-54,false,0.18,2617,320,2616,320,258555,0
patternCount-55,false,0.13,1399,234,1397,234,129866,0
patternCount-56,false,0.13,1230,270,1227,270,121842,0
patternCount-57,false,0.83,3836,999,3826,999,359243,0
patternCount-58,false,0.40,1255,562,1251,562,135408,0
patternCount-59,false,0.17,1063,325,1062,325,110788,0
patternCount-60,false,0.25,1939,468,1936,468,198954,0
patternCount-61,false,0.38,3072,694,3072,694,304225,0
patternCount-62,false,0.17,1500,286,1498,286,147312,0
patternCount-63,false,0.82,2442,999,2439,999,268704,0
patternCount-64,false,0.04,256,109,255,109,44033,0
patternCount-65,false,0.42,4762,657,4760,657,454959,0
patternCount-66,false,0.14,2453,274,2453,274,240783,0
patternCount-67,false,0.22,1684,500,1682,500,175797,0
patternCount-68,false,0.66,4113,999,4110,999,402693,0
patternCount-69,false,0.20,947,285,942,285,101532,0
patternCount-70,false,0.25,2310,446,2308,446,290647,0
patternCount-71,false,0.07,634,178,634,178,84275,0
patternCount-72,false,0.59,7948,999,7943,999,751591,0
patternCount-73,false,0.59,4916,995,4912,995,483939,0
patternCount-74,false,0.23,1039,375,1036,375,105882,0
patternCount-75,false,0.14,2075,999,2067,999,248280,0
patternCount-76,false,0.32,3359,566,3356,566,356635,0
patternCount-77,false,0.09,1008,212,1007,212,103949,0
patternCount-78,false,0.04,874,128,873,128,121841,0
patternCount-79,false,0.37,5415,647,5411,647,558495,0
patternCount-80,false,0.16,1025,189,1023,189,90329,0
patternCount-81,false,0.48,2235,779,2232,779,236900,0
patternCount-82,false,0.62,6200,999,6194,999,620209,0
patternCount-83,false,0.06,354,112,351,112,48415,0
patternCount-84,false,0.27,20846,999,20842,999,1735630,0
patternCount-85,false,0.05,308,118,308,118,40277,0
patternCount-86,false,0.18,2819,344,2818,344,277796,0
patternCount-87,false,0.10,477,214,477,214,59206,0
patternCount-88,false,0.08,180,106,180,106,19692,0
patternCount-89,false,0.09,2280,222,2277,222,238053,0
patternCount-90,false,0.42,3216,702,3212,702,322782,0
patternCount-91,false,0.60,2740,999,2735,999,281088,0
patternCount-92,false,0.43,2701,544,2701,544,265872,0
patternCount-93,false,0.37,2412,600,2405,600,250086,0
patternCount-94,false,0.25,2575,459,2574,459,246179,0
patternCount-95,false,0.18,2341,399,2340,399,258942,0
patternCount-96,false,0.09,476,154,474,154,42724,0
patternCount-97,false,0.55,5705,863,5699,863,515976,0
patternCount-98,false,0.62,5352,999,5345,999,527213,0
patternCount-99,false,0.19,2636,999,2630,999,366135,0
patternCount-100,false,0.18,505,265,505,265,60889,0
