NDW:0.0
TTFW:0.4
DFPT:2.0
DFPAP:3.0
DFPMP:10.0
RIGHT_WINDOW_BORDER_X:55.0
level,win/fail,% travelled,run time,game ticks,planning time,total plannings,nodes evaluated,most backtracked nodes
notch-1,false,0.58,3506,487,3503,487,304387,0
notch-2,true,1.00,8615,832,8611,827,805146,0
notch-3,false,0.29,2914,291,2911,291,243052,0
notch-4,false,0.30,1390,188,1389,188,117416,0
notch-5,true,1.00,4532,751,4529,744,394080,0
notch-6,true,1.00,5355,826,5352,821,493217,0
notch-7,true,1.00,2685,763,2679,756,247210,0
notch-8,false,0.16,506,125,503,125,46131,0
notch-9,false,0.32,4622,348,4620,348,390692,0
notch-10,false,0.67,4708,574,4703,574,415411,0
notch-11,false,0.18,918,167,918,167,76140,0
notch-12,true,1.00,5924,848,5922,841,501062,0
notch-13,true,1.00,5880,883,5866,878,514874,0
notch-14,true,1.00,7544,832,7542,827,639491,0
notch-15,true,1.00,4963,732,4961,724,426085,0
notch-16,false,0.57,8751,809,8744,809,776361,0
notch-17,false,0.60,4103,443,4102,443,371357,0
notch-18,true,1.00,5345,845,5340,840,493623,0
notch-19,true,1.00,9265,978,9264,971,843484,0
notch-20,false,0.75,7406,751,7404,751,691073,0
notch-21,true,1.00,7071,936,7067,929,646744,0
notch-22,true,1.00,5203,735,5200,725,444195,0
notch-23,true,1.00,8975,950,8974,943,788461,0
notch-24,false,0.45,1241,326,1237,326,109331,0
notch-25,false,0.52,6452,635,6450,635,580938,0
notch-26,true,1.00,8930,844,8927,836,779955,0
notch-27,false,0.48,7428,553,7426,553,723209,0
notch-28,false,0.40,2350,279,2348,279,227719,0
notch-29,false,0.75,5114,644,5112,644,458265,0
notch-30,false,0.42,8446,638,8445,638,685469,0
notch-31,false,0.24,626,170,622,170,51376,0
notch-32,true,1.00,5931,885,5925,872,505324,0
notch-33,true,1.00,7533,825,7528,818,647665,0
notch-34,true,1.00,6566,811,6560,798,586831,0
notch-35,true,1.00,6535,807,6532,799,598212,0
notch-36,false,0.93,7992,999,7987,999,696639,0
notch-37,false,0.50,6755,578,6753,578,622309,0
notch-38,true,1.00,6078,803,6075,796,526569,0
notch-39,false,0.85,4299,666,4295,666,368225,0
notch-40,false,0.92,9688,999,9683,999,882413,0
notch-41,false,0.96,8252,999,8244,999,752592,0
notch-42,false,0.42,3711,408,3709,408,343426,0
notch-43,false,0.46,3727,382,3726,382,311569,0
notch-44,false,0.27,1452,199,1451,199,122283,0
notch-45,true,1.00,8046,923,8042,916,707359,0
notch-46,true,1.00,6216,889,6205,879,552595,0
notch-47,true,1.00,6582,835,6578,827,587558,0
notch-48,false,0.63,4785,601,4781,601,440945,0
notch-49,true,1.00,6853,781,6851,774,606386,0
notch-50,true,1.00,7175,803,7168,790,644764,0
notch-51,false,0.20,1628,241,1628,241,157779,0
notch-52,false,0.65,3607,588,3605,588,317557,0
notch-53,true,1.00,3231,719,3229,712,273557,0
notch-54,true,1.00,7723,889,7717,882,693208,0
notch-55,true,1.00,7685,907,7681,899,679095,0
notch-56,true,1.00,5578,791,5570,781,482095,0
notch-57,false,0.63,3420,530,3417,530,295959,0
notch-58,false,0.91,10470,999,10464,999,966169,0
notch-59,true,1.00,5032,716,5028,708,423713,0
notch-60,false,0.83,12874,999,12868,999,1076969,0
notch-61,false,0.27,2249,280,2248,280,195196,0
notch-62,true,1.00,3234,811,3230,803,301639,0
notch-63,false,0.54,4315,609,4310,609,410645,0
notch-64,true,1.00,6314,846,6312,839,545585,0
notch-65,true,1.00,8600,872,8597,867,818286,0
notch-66,true,1.00,10859,904,10856,897,990907,0
notch-67,true,1.00,9711,908,9709,898,778402,0
notch-68,true,1.00,4093,771,4089,763,361103,0
notch-69,false,0.79,5908,775,5904,775,528350,0
notch-70,true,1.00,6993,839,6988,834,643061,0
notch-71,true,1.00,7351,949,7346,941,649639,0
notch-72,true,1.00,4854,826,4848,819,446295,0
notch-73,true,1.00,7262,887,7259,882,649539,0
notch-74,true,1.00,3761,686,3755,679,354099,0
notch-75,false,0.91,10305,999,10300,999,924893,0
notch-76,false,0.62,4087,580,4086,580,360698,0
notch-77,true,1.00,6383,877,6382,870,577235,0
notch-78,false,0.84,7580,786,7578,786,663717,0
notch-79,false,0.37,2967,340,2963,340,267484,0
notch-80,false,0.77,3205,705,3202,705,274060,0
notch-81,true,1.00,7835,761,7830,756,695818,0
notch-82,false,0.41,4075,421,4073,421,353559,0
notch-83,false,0.64,6924,663,6923,663,628437,0
notch-84,false,0.35,2557,332,2556,332,225340,0
notch-85,true,1.00,2846,774,2839,767,263342,0
notch-86,false,0.50,3132,464,3130,464,254950,0
notch-87,false,0.71,5211,626,5208,626,442417,0
notch-88,false,0.24,2297,248,2296,248,192850,0
notch-89,false,0.35,2902,371,2900,371,280670,0
notch-90,false,0.43,4832,377,4830,377,436090,0
notch-91,false,0.69,6280,645,6273,645,563437,0
notch-92,false,0.51,3538,554,3536,554,319186,0
notch-93,false,0.31,3000,346,2999,346,287835,0
notch-94,false,0.90,11001,999,10999,999,992103,0
notch-95,true,1.00,2444,637,2441,630,224696,0
notch-96,false,0.79,2840,568,2837,568,251351,0
notch-97,true,1.00,9180,882,9178,874,831347,0
notch-98,true,1.00,10170,993,10164,983,929662,0
notch-99,true,1.00,11423,951,11422,938,1053347,0
notch-100,true,1.00,5516,843,5510,836,501948,0
