NDW:0.0
TTFW:1.4
DFPT:2.0
DFPAP:3.0
DFPMP:50.0
RIGHT_WINDOW_BORDER_X:195.0
level,win/fail,% travelled,run time,game ticks,planning time,total plannings,nodes evaluated,most backtracked nodes
ore-1,true,1.00,1980,412,1962,393,83401,0
ore-2,false,0.70,2756,333,2750,333,148967,0
ore-3,true,1.00,1615,444,1605,417,98657,0
ore-4,true,1.00,1901,469,1896,452,111765,0
ore-5,true,1.00,2097,375,2085,357,123883,0
ore-6,true,1.00,1951,438,1942,410,119963,0
ore-7,true,1.00,1656,447,1651,427,98735,0
ore-8,true,1.00,2880,405,2874,377,166951,0
ore-9,true,1.00,1176,378,1167,359,70503,0
ore-10,false,0.55,768,269,761,269,46022,0
ore-11,true,1.00,1873,512,1864,485,109468,0
ore-12,false,0.46,1981,223,1974,223,97026,0
ore-13,true,1.00,1689,475,1676,439,95712,0
ore-14,true,1.00,1743,395,1733,377,100674,0
ore-15,true,1.00,2066,398,2060,381,119003,0
ore-16,false,0.85,2045,386,2032,386,109554,0
ore-17,true,1.00,1778,474,1761,442,104666,0
ore-18,true,1.00,1489,448,1475,417,89898,0
ore-19,true,1.00,1389,408,1381,390,82073,0
ore-20,true,1.00,2050,458,2036,427,120091,0
ore-21,true,1.00,2097,474,2084,448,124691,0
ore-22,false,0.61,3716,334,3710,334,179011,0
ore-23,true,1.00,1398,397,1386,379,82135,0
ore-24,true,1.00,1906,519,1889,494,111535,0
ore-25,true,1.00,1967,447,1952,420,117298,0
ore-26,true,1.00,1976,421,1965,403,108987,0
ore-27,false,0.24,2493,141,2493,141,108504,0
ore-28,true,1.00,2021,443,2011,420,108095,0
ore-29,true,1.00,2157,454,2145,436,115466,0
ore-30,true,1.00,1481,408,1471,389,83074,0
ore-31,true,1.00,1509,424,1497,406,84998,0
ore-32,true,1.00,2187,509,2171,484,118336,0
ore-33,true,1.00,1420,449,1406,423,86863,0
ore-34,true,1.00,2191,460,2180,426,127418,0
ore-35,true,1.00,1451,422,1438,404,79801,0
ore-36,true,1.00,1437,426,1426,408,85844,0
ore-37,false,0.34,2008,160,2003,160,94028,0
ore-38,true,1.00,1474,423,1464,393,81639,0
ore-39,true,1.00,1938,435,1918,413,109761,0
ore-40,true,1.00,2171,446,2162,426,117334,0
ore-41,true,1.00,1710,416,1699,388,96556,0
ore-42,true,1.00,1859,453,1845,433,104070,0
ore-43,true,1.00,2418,457,2402,439,128818,0
ore-44,true,1.00,2405,427,2396,397,133734,0
ore-45,false,0.74,23563,999,23555,999,817893,0
ore-46,false,0.12,1330,68,1329,68,65249,0
ore-47,false,0.84,3206,442,3196,442,163956,0
ore-48,true,1.00,1847,413,1836,396,110944,0
ore-49,true,1.00,1396,437,1379,411,81918,0
ore-50,true,1.00,2149,434,2135,416,123484,0
ore-51,true,1.00,1724,424,1714,397,101040,0
ore-52,true,1.00,2212,450,2201,431,129720,0
ore-53,true,1.00,1581,405,1573,386,90047,0
ore-54,false,0.27,837,125,830,125,47394,0
ore-55,true,1.00,1625,415,1613,394,99581,0
ore-56,true,1.00,1113,387,1105,363,66601,0
ore-57,true,1.00,1556,441,1547,399,92859,0
ore-58,true,1.00,1900,423,1892,406,115284,0
ore-59,true,1.00,2131,467,2119,448,128721,0
ore-60,true,1.00,2465,361,2454,344,115693,0
ore-61,true,1.00,1773,421,1754,389,49378,0
ore-62,true,1.00,1929,461,1918,443,88528,0
ore-63,false,0.31,2981,190,2978,190,158198,0
ore-64,true,1.00,1417,439,1407,421,87097,0
ore-65,true,1.00,1752,480,1741,456,105498,0
ore-66,true,1.00,1936,467,1932,448,119524,0
ore-67,true,1.00,1377,424,1368,407,80202,0
ore-68,true,1.00,1432,402,1420,384,84997,0
ore-69,true,1.00,2651,508,2639,480,147568,0
ore-70,false,0.95,3769,474,3753,474,200835,0
ore-71,true,1.00,1871,426,1860,408,115446,0
ore-72,true,1.00,1408,422,1400,394,86052,0
ore-73,true,1.00,2333,422,2324,404,140830,0
ore-74,true,1.00,3051,451,3039,428,171889,0
ore-75,true,1.00,1732,488,1717,470,102938,0
ore-76,true,1.00,1578,399,1572,382,93507,0
ore-77,true,1.00,1534,401,1520,379,65461,0
ore-78,true,1.00,1718,410,1706,393,86009,0
ore-79,true,1.00,1945,427,1925,410,71951,0
ore-80,true,1.00,1424,400,1413,377,85500,0
ore-81,true,1.00,1695,452,1687,432,104717,0
ore-82,true,1.00,1491,388,1482,365,89797,0
ore-83,true,1.00,1541,441,1532,424,92681,0
ore-84,true,1.00,4003,521,3991,501,211471,0
ore-85,true,1.00,1646,438,1632,417,99921,0
ore-86,false,0.62,2168,301,2165,301,126900,0
ore-87,true,1.00,1586,412,1578,394,97110,0
ore-88,true,1.00,1709,432,1704,413,105388,0
ore-89,true,1.00,2136,419,2130,402,128210,0
ore-90,true,1.00,2114,483,2106,445,125860,0
ore-91,true,1.00,1849,459,1836,430,108108,0
ore-92,true,1.00,1563,434,1551,415,91402,0
ore-93,false,0.14,1675,91,1675,91,78313,0
ore-94,true,1.00,2290,469,2271,449,134861,0
ore-95,true,1.00,1906,444,1897,425,108829,0
ore-96,true,1.00,1845,472,1838,450,109228,0
ore-97,true,1.00,2116,499,2099,478,124963,0
ore-98,true,1.00,2055,433,2049,414,124573,0
ore-99,true,1.00,1881,448,1864,430,113139,0
ore-100,true,1.00,1710,449,1693,428,104898,0
