NDW:0.0
TTFW:1.4
DFPT:2.0
DFPAP:3.0
DFPMP:5.0
RIGHT_WINDOW_BORDER_X:55.0
level,win/fail,% travelled,run time,game ticks,planning time,total plannings,nodes evaluated,most backtracked nodes
hopper-1,false,0.41,7979,474,7971,474,440737,0
hopper-2,false,0.46,23856,999,23850,999,1326970,0
hopper-3,false,0.24,6365,323,6363,323,332443,0
hopper-4,false,0.26,3670,271,3667,271,201355,0
hopper-5,false,0.14,4872,237,4868,237,255324,0
hopper-6,false,0.30,1431,227,1424,227,78025,0
hopper-7,false,0.14,4874,237,4873,237,261255,0
hopper-8,false,0.41,10326,546,10323,546,554761,0
hopper-9,false,0.14,4871,237,4868,237,260223,0
hopper-10,false,0.67,4642,552,4632,552,271770,0
hopper-11,false,0.22,4371,326,4366,326,256931,0
hopper-12,false,0.32,2047,268,2044,268,110331,0
hopper-13,false,0.14,4872,237,4872,237,261929,0
hopper-14,false,0.31,7859,395,7856,395,425639,0
hopper-15,false,0.14,4870,237,4869,237,255194,0
hopper-16,false,0.14,4872,237,4871,237,254728,0
hopper-17,false,0.31,1269,239,1263,239,69231,0
hopper-18,false,0.29,3377,266,3375,266,179786,0
hopper-19,false,0.41,2263,352,2261,352,135221,0
hopper-20,false,0.20,5907,307,5905,307,311498,0
hopper-21,false,0.14,4871,237,4866,237,254232,0
hopper-22,false,0.32,3291,300,3291,300,175536,0
hopper-23,false,0.14,4871,237,4869,237,255695,0
hopper-24,false,0.32,26410,999,26408,999,1354945,0
hopper-25,false,0.32,2627,259,2624,259,142124,0
hopper-26,false,0.51,23407,999,23399,999,1153983,0
hopper-27,false,0.44,9186,540,9181,540,479375,0
hopper-28,false,0.18,27968,999,27964,999,1632800,0
hopper-29,false,0.26,2053,205,2050,205,105647,0
hopper-30,false,0.14,4875,237,4874,237,250260,0
hopper-31,false,0.77,13437,823,13431,823,737915,0
hopper-32,false,0.33,4162,290,4158,290,225148,0
hopper-33,false,0.49,3343,373,3335,373,174704,0
hopper-34,false,0.37,6658,419,6654,419,360415,0
hopper-35,false,0.22,6150,330,6148,330,340674,0
hopper-36,false,0.14,4872,237,4869,237,250765,0
hopper-37,false,0.51,4859,447,4854,447,251311,0
hopper-38,false,0.52,7743,545,7743,545,370166,0
hopper-39,false,0.35,25387,999,25374,999,1320923,0
hopper-40,false,0.21,28007,999,27998,999,1526213,0
hopper-41,false,0.23,28088,999,28083,999,1428509,0
hopper-42,false,0.14,4874,237,4872,237,248162,0
hopper-43,false,0.14,4872,237,4871,237,248401,0
hopper-44,false,0.30,6062,366,6059,366,314964,0
hopper-45,false,0.22,4738,307,4735,307,258632,0
hopper-46,false,0.21,1682,216,1674,216,55964,0
hopper-47,false,0.39,4567,396,4560,396,207407,0
hopper-48,false,0.14,4893,237,4888,237,236439,0
hopper-49,false,0.21,4517,254,4513,254,241927,0
hopper-50,false,0.45,5414,431,5408,431,290633,0
hopper-51,false,0.33,5240,378,5233,378,273011,0
hopper-52,false,0.41,5746,431,5743,431,314653,0
hopper-53,false,0.14,4872,237,4868,237,250234,0
hopper-54,false,0.32,4472,323,4466,323,233291,0
hopper-55,false,0.84,12660,917,12646,917,700573,0
hopper-56,false,0.57,4628,413,4625,413,251395,0
hopper-57,false,0.67,18895,999,18890,999,908707,0
hopper-58,false,0.39,6987,485,6971,485,352820,0
hopper-59,false,0.20,5816,303,5813,303,350029,0
hopper-60,false,0.36,4163,347,4158,347,262015,0
hopper-61,false,0.14,4873,237,4871,237,253295,0
hopper-62,false,0.14,4871,237,4870,237,211534,0
hopper-63,false,0.23,767,152,761,152,23640,0
hopper-64,false,0.14,4891,237,4889,237,228163,0
hopper-65,false,0.14,4873,237,4871,237,247514,0
hopper-66,false,0.73,19802,999,19795,999,987251,0
hopper-67,false,0.40,7449,538,7440,538,424361,0
hopper-68,false,0.29,2453,244,2448,244,132248,0
hopper-69,false,0.31,4148,336,4139,336,213352,0
hopper-70,false,0.37,5008,379,5003,379,261538,0
hopper-71,false,0.28,26966,999,26962,999,1384216,0
hopper-72,false,0.22,3552,258,3549,258,181868,0
hopper-73,false,0.14,4872,237,4869,237,250343,0
hopper-74,false,0.50,8267,532,8261,532,424056,0
hopper-75,false,0.23,6767,352,6763,352,345910,0
hopper-76,false,0.14,4873,237,4871,237,249373,0
hopper-77,false,1.00,12870,999,12857,999,662015,0
hopper-78,false,0.29,27239,999,27220,999,1403799,0
hopper-79,false,0.58,4998,448,4992,448,262769,0
hopper-80,false,0.14,4873,237,4872,237,212897,0
hopper-81,false,0.22,3497,222,3494,222,184956,0
hopper-82,false,0.44,24407,999,24399,999,1282808,0
hopper-83,false,0.43,8998,536,8996,536,476649,0
hopper-84,false,0.21,5184,292,5181,292,283044,0
hopper-85,false,0.30,26844,999,26840,999,1366760,0
hopper-86,false,0.22,4354,265,4350,265,229833,0
hopper-87,false,0.14,4873,237,4872,237,250441,0
hopper-88,false,0.22,4524,261,4522,261,243571,0
hopper-89,false,0.14,4874,237,4871,237,249415,0
hopper-90,false,0.76,6102,591,6091,591,329834,0
hopper-91,false,0.39,4385,378,4381,378,228862,0
hopper-92,false,0.20,5919,307,5917,307,217875,0
hopper-93,false,0.30,4242,326,4232,326,183917,0
hopper-94,false,0.41,5120,408,5113,408,241548,0
hopper-95,false,0.33,26445,999,26439,999,1311115,0
hopper-96,false,0.14,4875,237,4875,237,248639,0
hopper-97,false,0.19,4447,241,4446,241,228062,0
hopper-98,false,0.14,4873,237,4868,237,250219,0
hopper-99,false,0.22,6828,335,6825,335,349608,0
hopper-100,false,0.21,4688,268,4686,268,240900,0
