NDW:0.0
TTFW:0.6
DFPT:2.0
DFPAP:3.0
DFPMP:20.0
RIGHT_WINDOW_BORDER_X:55.0
level,win/fail,% travelled,run time,game ticks,planning time,total plannings,nodes evaluated,most backtracked nodes
patternCount-1,false,0.67,4648,997,4640,997,508069,0
patternCount-2,false,0.95,3302,999,3296,999,347907,0
patternCount-3,false,0.66,6691,999,6686,999,650286,0
patternCount-4,false,0.83,4468,999,4460,999,464292,0
patternCount-5,false,0.17,1674,218,1672,218,154865,0
patternCount-6,true,1.00,1669,883,1661,876,175543,0
patternCount-7,false,0.05,269,150,268,150,43799,0
patternCount-8,false,0.12,1828,239,1826,239,185752,0
patternCount-9,false,0.16,1747,285,1743,285,182025,0
patternCount-10,true,1.00,1682,897,1677,890,187793,0
patternCount-11,false,0.74,6581,973,6576,973,715205,0
patternCount-12,false,0.84,3975,999,3965,999,454067,0
patternCount-13,false,0.87,3272,999,3265,999,333237,0
patternCount-14,false,0.15,1184,320,1180,320,150785,0
patternCount-15,false,0.75,3522,999,3518,999,376866,0
patternCount-16,false,0.81,3464,999,3461,999,352870,0
patternCount-17,false,0.95,5816,999,5814,999,573924,0
patternCount-18,false,0.31,2824,999,2819,999,344374,0
patternCount-19,false,0.91,4163,999,4158,999,396437,0
patternCount-20,false,0.90,4968,999,4961,999,507449,0
patternCount-21,false,0.98,3163,999,3157,999,321651,0
patternCount-22,false,0.78,4363,988,4356,988,443332,0
patternCount-23,false,0.66,6018,910,6013,910,590371,0
patternCount-24,false,0.43,5867,774,5860,774,578759,0
patternCount-25,false,0.77,7102,999,7098,999,687683,0
patternCount-26,true,1.00,2131,993,2127,979,229499,0
patternCount-27,false,0.67,3259,905,3248,905,348929,0
patternCount-28,false,0.82,4843,999,4834,999,484130,0
patternCount-29,false,0.80,5909,999,5904,999,577384,0
patternCount-30,false,0.94,3251,999,3244,999,353891,0
patternCount-31,false,0.44,3326,682,3322,682,337143,0
patternCount-32,false,0.64,7658,999,7654,999,724852,0
patternCount-33,false,0.63,6169,999,6162,999,593813,0
patternCount-34,false,0.58,8197,999,8192,999,808326,0
patternCount-35,false,0.73,5853,999,5846,999,566202,0
patternCount-36,false,0.81,4173,999,4172,999,417718,0
patternCount-37,false,0.88,3668,999,3665,999,360882,0
patternCount-38,false,0.32,3746,572,3741,572,359770,0
patternCount-39,false,0.21,1346,316,1343,316,140006,0
patternCount-40,false,0.65,7240,940,7234,940,780298,0
patternCount-41,false,0.63,3552,815,3549,815,377455,0
patternCount-42,false,0.60,5818,999,5815,999,598590,0
patternCount-43,false,0.89,2330,999,2326,999,256423,0
patternCount-44,false,0.29,5031,589,5029,589,501370,0
patternCount-45,false,0.87,4201,999,4192,999,418752,0
patternCount-46,false,0.61,5273,999,5270,999,541242,0
patternCount-47,false,0.68,6195,999,6186,999,636576,0
patternCount-48,false,0.75,4788,999,4783,999,513772,0
patternCount-49,false,0.31,2525,541,2524,541,267180,0
patternCount-50,false,0.86,4601,999,4596,999,498914,0
patternCount-51,false,0.63,3595,988,3591,988,378223,0
patternCount-52,false,0.76,6964,999,6963,999,687926,0
patternCount-53,false,0.19,4494,405,4494,405,439537,0
patternCount-54,false,0.58,7871,999,7869,999,800203,0
patternCount-55,false,0.55,11679,988,11676,988,1149708,0
patternCount-56,false,0.70,6412,999,6406,999,636773,0
patternCount-57,false,0.46,2795,615,2794,615,271700,0
patternCount-58,true,1.00,3166,975,3161,968,329748,0
patternCount-59,false,0.77,4841,999,4834,999,500095,0
patternCount-60,false,0.28,1704,461,1703,461,182825,0
patternCount-61,false,0.80,4982,999,4976,999,478391,0
patternCount-62,false,0.23,2559,380,2557,380,252539,0
patternCount-63,false,1.00,2248,999,2241,999,249053,0
patternCount-64,false,0.77,4480,1008,4475,1008,476845,0
patternCount-65,false,0.88,4248,999,4244,999,428725,0
patternCount-66,false,0.79,6112,999,6107,999,625415,0
patternCount-67,false,0.16,335,195,334,195,39445,0
patternCount-68,false,0.86,3013,999,3004,999,309545,0
patternCount-69,false,0.77,3234,999,3229,999,350057,0
patternCount-70,false,0.84,4464,999,4454,999,544151,0
patternCount-71,false,0.87,4478,999,4475,999,447431,0
patternCount-72,false,0.66,6868,998,6860,998,687607,0
patternCount-73,false,0.70,5349,999,5346,999,521800,0
patternCount-74,false,0.54,3677,668,3674,668,384077,0
patternCount-75,false,0.37,5614,999,5608,999,620635,0
patternCount-76,false,0.79,5538,999,5531,999,579795,0
patternCount-77,false,0.37,6787,739,6782,739,653648,0
patternCount-78,false,0.86,4236,999,4227,999,462533,0
patternCount-79,false,0.75,6011,999,6004,999,638191,0
patternCount-80,false,0.64,8452,999,8447,999,823091,0
patternCount-81,true,1.00,3723,994,3719,987,379474,0
patternCount-82,true,1.00,4881,962,4870,955,494034,0
patternCount-83,false,0.39,3727,707,3725,707,357934,0
patternCount-84,false,0.25,865,394,863,394,104225,0
patternCount-85,false,0.06,359,132,359,132,46320,0
patternCount-86,true,1.00,2797,972,2786,965,298661,0
patternCount-87,false,0.77,4678,999,4671,999,493740,0
patternCount-88,false,0.71,8686,999,8683,999,920511,0
patternCount-89,false,0.74,6155,999,6147,999,617904,0
patternCount-90,true,1.00,2976,921,2971,914,320095,0
patternCount-91,false,0.64,3941,999,3937,999,406858,0
patternCount-92,false,0.88,4467,999,4463,999,444989,0
patternCount-93,false,0.37,2141,999,2135,999,259931,0
patternCount-94,false,0.25,2861,999,2854,999,323073,0
patternCount-95,false,0.73,7964,999,7954,999,800152,0
patternCount-96,false,0.17,678,244,678,244,71129,0
patternCount-97,true,1.00,5834,963,5830,958,565088,0
patternCount-98,false,0.57,4204,999,4194,999,461021,0
patternCount-99,false,0.74,4345,999,4340,999,442879,0
patternCount-100,true,1.00,2390,964,2382,957,258086,0
