NDW:0.0
TTFW:2.0
DFPT:2.0
DFPAP:3.0
DFPMP:10.0
RIGHT_WINDOW_BORDER_X:275.0
level,win/fail,% travelled,run time,game ticks,planning time,total plannings,nodes evaluated,most backtracked nodes
patternWeightCount-1,true,1.00,3291,565,3273,521,191759,0
patternWeightCount-2,true,1.00,1050,481,1033,448,58090,0
patternWeightCount-3,true,1.00,820,441,803,416,45556,0
patternWeightCount-4,true,1.00,1011,455,1002,430,56366,0
patternWeightCount-5,true,1.00,1798,508,1791,472,103675,0
patternWeightCount-6,true,1.00,2533,520,2518,494,146617,0
patternWeightCount-7,true,1.00,1381,484,1363,453,77251,0
patternWeightCount-8,true,1.00,811,411,793,386,38878,0
patternWeightCount-9,true,1.00,1556,519,1541,492,86665,0
patternWeightCount-10,true,1.00,1654,558,1639,533,91420,0
patternWeightCount-11,true,1.00,762,481,753,456,40794,0
patternWeightCount-12,true,1.00,1901,532,1891,504,103891,0
patternWeightCount-13,true,1.00,1368,430,1357,405,78917,0
patternWeightCount-14,true,1.00,1509,521,1499,490,82973,0
patternWeightCount-15,true,1.00,1844,438,1836,412,105259,0
patternWeightCount-16,true,1.00,3152,559,3140,522,180638,0
patternWeightCount-17,true,1.00,1156,517,1135,492,59002,0
patternWeightCount-18,true,1.00,1258,467,1241,442,68652,0
patternWeightCount-19,true,1.00,1026,506,1016,481,53029,0
patternWeightCount-20,false,0.74,3831,358,3822,358,207128,0
patternWeightCount-21,true,1.00,1006,545,988,519,48496,0
patternWeightCount-22,true,1.00,2907,574,2889,534,163958,0
patternWeightCount-23,true,1.00,1073,493,1065,457,55976,0
patternWeightCount-24,true,1.00,1471,430,1463,404,82324,0
patternWeightCount-25,true,1.00,2046,519,2037,494,113947,0
patternWeightCount-26,true,1.00,1701,483,1690,451,97224,0
patternWeightCount-27,true,1.00,2225,510,2206,469,127792,0
patternWeightCount-28,true,1.00,1380,483,1370,458,77249,0
patternWeightCount-29,true,1.00,1422,466,1412,441,81780,0
patternWeightCount-30,true,1.00,3490,526,3482,483,202309,0
patternWeightCount-31,true,1.00,1202,459,1181,434,65446,0
patternWeightCount-32,true,1.00,830,495,817,461,45080,0
patternWeightCount-33,true,1.00,985,499,972,474,56487,0
patternWeightCount-34,true,1.00,1349,453,1333,428,79426,0
patternWeightCount-35,true,1.00,3168,477,3155,452,159431,0
patternWeightCount-36,true,1.00,1643,486,1631,461,98090,0
patternWeightCount-37,true,1.00,945,473,936,448,53113,0
patternWeightCount-38,true,1.00,2827,504,2810,467,147590,0
patternWeightCount-39,true,1.00,1025,441,1014,411,57732,0
patternWeightCount-40,true,1.00,1353,494,1341,469,79812,0
patternWeightCount-41,true,1.00,1826,502,1814,464,108036,0
patternWeightCount-42,false,0.87,2849,421,2835,421,164145,0
patternWeightCount-43,true,1.00,1062,433,1051,408,61810,0
patternWeightCount-44,true,1.00,1585,550,1576,495,96208,0
patternWeightCount-45,true,1.00,3004,575,2984,529,175614,0
patternWeightCount-46,true,1.00,5154,569,5140,532,264173,0
patternWeightCount-47,true,1.00,816,446,805,421,44850,0
patternWeightCount-48,true,1.00,1263,456,1248,431,73702,0
patternWeightCount-49,true,1.00,1093,443,1080,418,63147,0
patternWeightCount-50,true,1.00,923,473,910,449,50577,0
patternWeightCount-51,true,1.00,1744,512,1721,467,104791,0
patternWeightCount-52,true,1.00,2037,515,2024,472,118400,0
patternWeightCount-53,true,1.00,2659,500,2647,472,155855,0
patternWeightCount-54,true,1.00,1588,505,1579,480,89689,0
patternWeightCount-55,true,1.00,1405,516,1391,491,80453,0
patternWeightCount-56,true,1.00,1419,497,1408,464,83145,0
patternWeightCount-57,true,1.00,924,452,912,427,53102,0
patternWeightCount-58,true,1.00,1505,496,1491,462,87243,0
patternWeightCount-59,true,1.00,696,462,688,437,37718,0
patternWeightCount-60,true,1.00,1499,571,1484,533,85003,0
patternWeightCount-61,true,1.00,1106,408,1093,383,63853,0
patternWeightCount-62,true,1.00,2713,516,2701,473,159294,0
patternWeightCount-63,true,1.00,1306,457,1297,432,78441,0
patternWeightCount-64,true,1.00,1956,488,1947,463,117111,0
patternWeightCount-65,true,1.00,1765,536,1756,500,104642,0
patternWeightCount-66,true,1.00,1224,479,1213,454,68940,0
patternWeightCount-67,true,1.00,1552,501,1540,476,84912,0
patternWeightCount-68,false,0.85,20554,999,20547,999,755098,0
patternWeightCount-69,true,1.00,2524,471,2517,422,145240,0
patternWeightCount-70,true,1.00,1265,529,1245,486,70278,0
patternWeightCount-71,true,1.00,1078,420,1062,393,61855,0
patternWeightCount-72,true,1.00,3985,494,3976,463,215451,0
patternWeightCount-73,true,1.00,5748,521,5739,477,336845,0
patternWeightCount-74,true,1.00,1295,513,1278,488,74052,0
patternWeightCount-75,true,1.00,1496,481,1488,456,85441,0
patternWeightCount-76,true,1.00,1167,488,1153,463,66204,0
patternWeightCount-77,true,1.00,1587,498,1571,473,92571,0
patternWeightCount-78,true,1.00,3555,534,3550,507,197329,0
patternWeightCount-79,true,1.00,1374,448,1362,423,81761,0
patternWeightCount-80,true,1.00,2285,556,2275,531,138025,0
patternWeightCount-81,true,1.00,3709,512,3702,481,211230,0
patternWeightCount-82,true,1.00,453,495,444,446,22421,0
patternWeightCount-83,true,1.00,953,458,943,432,55252,0
patternWeightCount-84,true,1.00,1392,527,1373,502,79495,0
patternWeightCount-85,true,1.00,1753,506,1737,481,104209,0
patternWeightCount-86,false,0.94,2497,453,2487,453,137389,0
patternWeightCount-87,true,1.00,5561,532,5550,496,310946,0
patternWeightCount-88,true,1.00,1349,464,1340,437,76917,0
patternWeightCount-89,true,1.00,1216,441,1203,416,71859,0
patternWeightCount-90,true,1.00,4302,538,4296,511,250075,0
patternWeightCount-91,true,1.00,1551,508,1541,481,88216,0
patternWeightCount-92,true,1.00,4088,592,4073,536,250087,0
patternWeightCount-93,true,1.00,3528,502,3514,477,206175,0
patternWeightCount-94,true,1.00,1413,507,1401,482,77639,0
patternWeightCount-95,true,1.00,1537,489,1528,464,90297,0
patternWeightCount-96,true,1.00,1795,508,1784,483,99828,0
patternWeightCount-97,true,1.00,1191,421,1188,395,71016,0
patternWeightCount-98,true,1.00,4465,490,4455,445,267833,0
patternWeightCount-99,true,1.00,1907,520,1898,494,115430,0
patternWeightCount-100,true,1.00,1549,469,1539,444,93372,0
