NDW:0.0
TTFW:0.4
DFPT:2.0
DFPAP:3.0
DFPMP:3.0
RIGHT_WINDOW_BORDER_X:155.0
level,win/fail,% travelled,run time,game ticks,planning time,total plannings,nodes evaluated,most backtracked nodes
patternOccur-1,true,1.00,1155,450,1151,436,104896,0
patternOccur-2,true,1.00,1412,471,1411,457,131447,0
patternOccur-3,true,1.00,2015,482,2012,468,185952,0
patternOccur-4,true,1.00,1997,466,1996,452,189158,0
patternOccur-5,true,1.00,936,392,933,378,89160,0
patternOccur-6,true,1.00,2164,471,2163,457,205440,0
patternOccur-7,true,1.00,2323,494,2318,480,212533,0
patternOccur-8,true,1.00,1958,433,1955,419,178825,0
patternOccur-9,true,1.00,1937,465,1932,451,178605,0
patternOccur-10,true,1.00,1061,423,1051,409,100916,0
patternOccur-11,false,0.87,6420,555,6419,555,554780,0
patternOccur-12,true,1.00,1628,475,1623,461,155316,0
patternOccur-13,true,1.00,1493,442,1491,428,144559,0
patternOccur-14,true,1.00,7486,580,7482,558,668524,0
patternOccur-15,true,1.00,2285,444,2281,430,211961,0
patternOccur-16,true,1.00,3748,490,3744,470,333474,0
patternOccur-17,true,1.00,1277,404,1273,390,120997,0
patternOccur-18,true,1.00,1220,429,1214,412,107788,0
patternOccur-19,false,0.83,4629,496,4628,496,438976,0
patternOccur-20,true,1.00,1729,461,1724,447,163936,0
patternOccur-21,true,1.00,1408,379,1405,365,142588,0
patternOccur-22,false,0.84,5615,514,5615,514,491212,0
patternOccur-23,true,1.00,2271,482,2271,468,204350,0
patternOccur-24,true,1.00,1213,465,1211,451,114422,0
patternOccur-25,true,1.00,1584,431,1582,417,147664,0
patternOccur-26,true,1.00,711,379,709,365,66597,0
patternOccur-27,false,0.89,2897,405,2894,405,258649,0
patternOccur-28,true,1.00,1504,460,1496,446,143473,0
patternOccur-29,true,1.00,1243,400,1240,382,116334,0
patternOccur-30,true,1.00,1406,441,1400,427,130966,0
patternOccur-31,false,0.77,5420,501,5420,501,482880,0
patternOccur-32,true,1.00,5258,507,5257,490,479272,0
patternOccur-33,true,1.00,1236,437,1236,423,114854,0
patternOccur-34,true,1.00,1894,464,1888,450,181579,0
patternOccur-35,true,1.00,1238,452,1236,438,113856,0
patternOccur-36,true,1.00,2808,470,2807,454,258452,0
patternOccur-37,false,0.96,6246,565,6240,565,554690,0
patternOccur-38,true,1.00,1086,423,1084,409,102463,0
patternOccur-39,false,0.79,6292,519,6287,519,559373,0
patternOccur-40,true,1.00,1659,418,1655,404,159672,0
patternOccur-41,true,1.00,1492,477,1490,453,140743,0
patternOccur-42,false,0.89,3902,482,3898,482,347394,0
patternOccur-43,true,1.00,1602,420,1596,406,152197,0
patternOccur-44,true,1.00,1644,444,1642,430,153864,0
patternOccur-45,true,1.00,4723,525,4719,510,417418,0
patternOccur-46,true,1.00,991,425,989,411,92236,0
patternOccur-47,true,1.00,3889,505,3886,471,353945,0
patternOccur-48,true,1.00,1136,364,1133,350,107724,0
patternOccur-49,true,1.00,1766,468,1762,454,162104,0
patternOccur-50,true,1.00,1862,452,1858,438,170688,0
patternOccur-51,true,1.00,2151,506,2148,492,204203,0
patternOccur-52,true,1.00,1488,431,1484,417,141521,0
patternOccur-53,true,1.00,1532,436,1530,422,142016,0
patternOccur-54,true,1.00,2313,438,2309,424,219009,0
patternOccur-55,true,1.00,1755,474,1751,460,165840,0
patternOccur-56,true,1.00,1665,474,1664,460,152725,0
patternOccur-57,true,1.00,2378,486,2374,470,221201,0
patternOccur-58,false,0.80,4152,486,4148,486,372098,0
patternOccur-59,true,1.00,1431,426,1429,412,135955,0
patternOccur-60,true,1.00,4433,500,4430,479,393234,0
patternOccur-61,true,1.00,1408,389,1404,375,136592,0
patternOccur-62,true,1.00,1246,410,1241,396,117755,0
patternOccur-63,true,1.00,1353,404,1350,390,136310,0
patternOccur-64,true,1.00,2288,503,2288,489,215970,0
patternOccur-65,true,1.00,1044,399,1042,385,97470,0
patternOccur-66,true,1.00,1560,482,1555,468,147080,0
patternOccur-67,true,1.00,1233,439,1231,425,119679,0
patternOccur-68,true,1.00,1076,419,1072,405,99781,0
patternOccur-69,false,0.86,5594,561,5591,561,466829,0
patternOccur-70,false,0.87,4150,442,4148,442,391478,0
patternOccur-71,true,1.00,3003,476,2997,462,290497,0
patternOccur-72,false,0.86,3836,496,3833,496,336499,0
patternOccur-73,true,1.00,6649,551,6647,530,584411,0
patternOccur-74,false,0.93,4646,545,4643,545,405875,0
patternOccur-75,true,1.00,2180,492,2176,476,195172,0
patternOccur-76,true,1.00,1524,427,1520,413,145877,0
patternOccur-77,true,1.00,643,423,642,409,60336,0
patternOccur-78,true,1.00,977,404,972,390,90965,0
patternOccur-79,true,1.00,1557,438,1555,424,148031,0
patternOccur-80,true,1.00,5370,582,5368,567,476330,0
patternOccur-81,false,0.90,3622,424,3622,424,331757,0
patternOccur-82,false,0.96,2514,507,2511,507,224004,0
patternOccur-83,true,1.00,1012,428,1008,414,95731,0
patternOccur-84,true,1.00,1226,403,1220,389,114203,0
patternOccur-85,true,1.00,4672,534,4671,513,400463,0
patternOccur-86,false,0.91,7333,606,7332,606,628068,0
patternOccur-87,true,1.00,1169,433,1168,419,111441,0
patternOccur-88,true,1.00,1730,430,1729,416,162880,0
patternOccur-89,true,1.00,1652,447,1651,433,154833,0
patternOccur-90,true,1.00,1627,464,1624,450,154261,0
patternOccur-91,true,1.00,2645,510,2641,496,244557,0
patternOccur-92,true,1.00,1127,406,1123,392,107568,0
patternOccur-93,true,1.00,1587,435,1582,421,146702,0
patternOccur-94,false,0.91,5857,525,5855,525,512507,0
patternOccur-95,true,1.00,1184,444,1182,430,114350,0
patternOccur-96,false,0.86,3708,460,3707,460,304792,0
patternOccur-97,true,1.00,2919,516,2916,502,284880,0
patternOccur-98,false,0.90,4181,496,4175,496,359024,0
patternOccur-99,true,1.00,879,407,876,393,83805,0
patternOccur-100,true,1.00,1590,455,1586,441,145893,0
