NDW:0.0
TTFW:0.8
DFPT:2.0
DFPAP:3.0
DFPMP:50.0
RIGHT_WINDOW_BORDER_X:295.0
level,win/fail,% travelled,run time,game ticks,planning time,total plannings,nodes evaluated,most backtracked nodes
Mario-1,true,1.00,334,357,332,314,27991,0
Mario-2,true,1.00,889,310,887,283,74732,0
Mario-3,true,1.00,1189,266,1188,217,124176,0
Mario-4,true,1.00,1187,391,1185,340,91049,0
Mario-5,true,1.00,1089,413,1089,385,88522,0
Mario-6,true,1.00,995,256,993,227,107527,0
Mario-7,true,1.00,913,406,910,359,73528,0
Mario-8,true,1.00,956,433,953,371,76188,0
Mario-9,true,1.00,502,346,502,300,41870,0
Mario-10,true,1.00,1663,307,1659,258,176658,0
Mario-11,true,1.00,1078,370,1075,325,88104,0
Mario-12,true,1.00,1327,642,1324,590,86965,0
Mario-13,true,1.00,1285,312,1283,281,129301,0
Mario-14,true,1.00,310,357,307,317,24359,0
Mario-15,true,1.00,2192,802,2186,754,173705,0
