NDW:0.0
TTFW:0.2
DFPT:2.0
DFPAP:3.0
DFPMP:20.0
RIGHT_WINDOW_BORDER_X:155.0
level,win/fail,% travelled,run time,game ticks,planning time,total plannings,nodes evaluated,most backtracked nodes
patternOccur-1,true,1.00,1986,425,1982,411,168126,0
patternOccur-2,true,1.00,2321,453,2320,439,197929,0
patternOccur-3,true,1.00,4575,522,4573,508,371186,0
patternOccur-4,true,1.00,3651,484,3649,470,314343,0
patternOccur-5,true,1.00,1496,395,1494,381,133512,0
patternOccur-6,true,1.00,3091,477,3086,463,264930,0
patternOccur-7,true,1.00,2264,436,2261,422,201156,0
patternOccur-8,true,1.00,2054,381,2054,367,183256,0
patternOccur-9,true,1.00,3834,513,3830,499,328184,0
patternOccur-10,true,1.00,1796,414,1791,400,159279,0
patternOccur-11,false,0.86,4738,450,4738,450,409603,0
patternOccur-12,true,1.00,3819,518,3816,504,326317,0
patternOccur-13,true,1.00,2524,469,2519,455,223981,0
patternOccur-14,true,1.00,7662,542,7659,525,677977,0
patternOccur-15,true,1.00,2353,406,2351,392,212852,0
patternOccur-16,true,1.00,6358,558,6351,544,581505,0
patternOccur-17,true,1.00,3062,466,3057,452,258538,0
patternOccur-18,true,1.00,2271,423,2269,409,196334,0
patternOccur-19,false,0.83,5095,463,5091,463,441348,0
patternOccur-20,true,1.00,3467,504,3464,490,297170,0
patternOccur-21,true,1.00,2874,456,2871,442,255224,0
patternOccur-22,false,0.84,6314,512,6310,512,523181,0
patternOccur-23,true,1.00,3582,487,3578,473,302340,0
patternOccur-24,true,1.00,2127,420,2125,406,185708,0
patternOccur-25,true,1.00,2712,429,2711,415,235489,0
patternOccur-26,true,1.00,1084,350,1082,336,94825,0
patternOccur-27,true,1.00,5183,462,5181,447,449415,0
patternOccur-28,true,1.00,3705,516,3704,502,317923,0
patternOccur-29,true,1.00,1762,409,1759,380,154935,0
patternOccur-30,true,1.00,1885,414,1884,400,162767,0
patternOccur-31,false,0.77,3728,363,3725,363,316446,0
patternOccur-32,false,0.92,5676,504,5673,504,485285,0
patternOccur-33,true,1.00,2254,422,2252,408,195285,0
patternOccur-34,true,1.00,2479,438,2474,424,226328,0
patternOccur-35,true,1.00,2469,449,2466,435,200963,0
patternOccur-36,true,1.00,4058,457,4053,440,344335,0
patternOccur-37,true,1.00,4806,485,4806,439,419149,0
patternOccur-38,true,1.00,2196,440,2190,426,189362,0
patternOccur-39,false,0.79,4877,410,4877,410,405701,0
patternOccur-40,true,1.00,2881,430,2877,416,248763,0
patternOccur-41,true,1.00,2878,458,2874,444,243896,0
patternOccur-42,false,0.88,5979,499,5975,499,500603,0
patternOccur-43,true,1.00,1461,366,1455,352,132709,0
patternOccur-44,true,1.00,2639,424,2636,410,233438,0
patternOccur-45,true,1.00,4353,459,4349,442,366126,0
patternOccur-46,true,1.00,2763,488,2757,474,231559,0
patternOccur-47,true,1.00,5065,519,5058,497,443160,0
patternOccur-48,true,1.00,1982,409,1975,395,173167,0
patternOccur-49,true,1.00,2521,434,2519,420,214992,0
patternOccur-50,true,1.00,2985,439,2982,425,260324,0
patternOccur-51,true,1.00,3432,486,3431,472,304902,0
patternOccur-52,true,1.00,2788,452,2786,438,244690,0
patternOccur-53,true,1.00,2856,438,2852,424,248032,0
patternOccur-54,true,1.00,4417,504,4413,490,388664,0
patternOccur-55,true,1.00,2657,411,2649,397,238150,0
patternOccur-56,true,1.00,2601,458,2600,444,223148,0
patternOccur-57,true,1.00,3633,501,3628,486,312331,0
patternOccur-58,true,1.00,9633,650,9630,610,816427,0
patternOccur-59,true,1.00,2784,452,2781,438,237500,0
patternOccur-60,false,0.92,3866,468,3863,468,324908,0
patternOccur-61,true,1.00,1998,394,1995,380,181974,0
patternOccur-62,true,1.00,3439,515,3436,501,290289,0
patternOccur-63,true,1.00,2405,437,2400,423,216203,0
patternOccur-64,true,1.00,3733,505,3730,491,322362,0
patternOccur-65,true,1.00,2301,424,2300,410,196028,0
patternOccur-66,true,1.00,2775,480,2774,466,244512,0
patternOccur-67,false,0.89,3585,413,3585,413,310551,0
patternOccur-68,true,1.00,2262,430,2261,416,193219,0
patternOccur-69,false,0.85,4813,445,4812,445,399578,0
patternOccur-70,false,0.87,5176,445,5175,445,457580,0
patternOccur-71,true,1.00,3612,488,3609,474,323420,0
patternOccur-72,false,0.86,4453,457,4452,457,379800,0
patternOccur-73,true,1.00,6515,563,6512,536,552743,0
patternOccur-74,true,1.00,5821,522,5818,505,494385,0
patternOccur-75,true,1.00,3775,495,3771,475,321329,0
patternOccur-76,true,1.00,2226,397,2224,383,199933,0
patternOccur-77,true,1.00,1442,390,1438,376,123420,0
patternOccur-78,true,1.00,1442,390,1439,376,118268,0
patternOccur-79,true,1.00,2618,435,2616,421,228320,0
patternOccur-80,true,1.00,4245,470,4242,450,362497,0
patternOccur-81,true,1.00,2118,398,2117,384,187341,0
patternOccur-82,false,0.95,4428,469,4422,469,361763,0
patternOccur-83,false,0.82,4500,435,4496,435,388761,0
patternOccur-84,true,1.00,2311,458,2310,444,197710,0
patternOccur-85,true,1.00,3773,494,3768,469,326755,0
patternOccur-86,false,0.91,5204,490,5200,490,440220,0
patternOccur-87,true,1.00,2197,439,2196,425,190835,0
patternOccur-88,true,1.00,3129,498,3126,484,273112,0
patternOccur-89,true,1.00,3127,464,3123,450,268365,0
patternOccur-90,true,1.00,2933,493,2928,478,255358,0
patternOccur-91,true,1.00,2452,441,2445,427,218270,0
patternOccur-92,true,1.00,2337,415,2337,401,206617,0
patternOccur-93,true,1.00,2700,441,2695,427,226147,0
patternOccur-94,false,0.90,6607,511,6602,511,567656,0
patternOccur-95,true,1.00,2187,443,2185,429,190103,0
patternOccur-96,false,0.86,4631,443,4630,443,381132,0
patternOccur-97,true,1.00,3270,478,3269,464,301444,0
patternOccur-98,false,0.90,4388,450,4385,450,369380,0
patternOccur-99,true,1.00,1550,430,1547,416,133063,0
patternOccur-100,true,1.00,2580,453,2579,439,217712,0
