NDW:0.0
TTFW:0.8
DFPT:2.0
DFPAP:3.0
DFPMP:20.0
RIGHT_WINDOW_BORDER_X:215.0
level,win/fail,% travelled,run time,game ticks,planning time,total plannings,nodes evaluated,most backtracked nodes
notchParam-1,true,1.00,850,314,848,295,81220,0
notchParam-2,true,1.00,725,306,723,287,67260,0
notchParam-3,true,1.00,589,314,588,295,58778,0
notchParam-4,true,1.00,525,316,522,297,50609,0
notchParam-5,true,1.00,546,312,543,292,53533,0
notchParam-6,true,1.00,651,326,648,307,63463,0
notchParam-7,true,1.00,738,312,737,293,74123,0
notchParam-8,true,1.00,1087,318,1085,299,108707,0
notchParam-9,true,1.00,573,330,571,311,55598,0
notchParam-10,true,1.00,1080,330,1078,311,103750,0
notchParam-11,true,1.00,524,321,520,298,51374,0
notchParam-12,true,1.00,1268,345,1268,326,127011,0
notchParam-13,true,1.00,186,314,186,295,17888,0
notchParam-14,true,1.00,178,304,176,285,16780,0
notchParam-15,true,1.00,735,300,735,281,70675,0
notchParam-16,true,1.00,739,308,737,289,75758,0
notchParam-17,true,1.00,761,304,760,285,73679,0
notchParam-18,true,1.00,232,336,230,317,22630,0
notchParam-19,true,1.00,212,309,210,290,20283,0
notchParam-20,true,1.00,182,308,179,289,17691,0
notchParam-21,true,1.00,182,304,182,285,16429,0
notchParam-22,true,1.00,201,316,197,297,20247,0
notchParam-23,true,1.00,1264,352,1261,333,126697,0
notchParam-24,true,1.00,1117,328,1114,309,112196,0
notchParam-25,true,1.00,1081,318,1079,299,103831,0
notchParam-26,true,1.00,1228,333,1225,314,121275,0
notchParam-27,true,1.00,181,313,179,294,17226,0
notchParam-28,true,1.00,565,317,561,298,55886,0
notchParam-29,true,1.00,549,323,548,304,53764,0
notchParam-30,true,1.00,179,308,179,289,16759,0
notchParam-31,true,1.00,979,338,979,319,92872,0
notchParam-32,true,1.00,734,308,730,289,73569,0
notchParam-33,true,1.00,180,302,177,283,16921,0
notchParam-34,true,1.00,764,306,761,287,73969,0
notchParam-35,true,1.00,1417,393,1416,374,134550,0
notchParam-36,true,1.00,748,300,747,281,74242,0
notchParam-37,true,1.00,173,298,171,279,14904,0
notchParam-38,true,1.00,180,304,178,285,17649,0
notchParam-39,true,1.00,868,318,866,299,81788,0
notchParam-40,true,1.00,554,312,551,293,53684,0
notchParam-41,true,1.00,527,322,524,303,51910,0
notchParam-42,true,1.00,221,312,220,293,22116,0
notchParam-43,true,1.00,1092,320,1092,301,105936,0
notchParam-44,true,1.00,1020,318,1017,299,103373,0
notchParam-45,true,1.00,1352,354,1350,326,138119,0
notchParam-46,true,1.00,1203,322,1201,303,113355,0
notchParam-47,true,1.00,220,304,219,285,22986,0
notchParam-48,true,1.00,261,317,258,298,26053,0
notchParam-49,true,1.00,203,327,203,303,19475,0
notchParam-50,true,1.00,329,336,328,317,27720,0
notchParam-51,true,1.00,174,306,174,287,16123,0
notchParam-52,true,1.00,783,306,782,287,78558,0
notchParam-53,true,1.00,809,332,805,313,84251,0
notchParam-54,true,1.00,1008,328,1004,309,91820,0
notchParam-55,true,1.00,386,343,385,324,33593,0
notchParam-56,true,1.00,181,304,181,285,17445,0
notchParam-57,true,1.00,1055,314,1053,295,107893,0
notchParam-58,true,1.00,576,329,575,310,55933,0
notchParam-59,true,1.00,1108,337,1106,318,108678,0
notchParam-60,true,1.00,512,332,509,313,48990,0
notchParam-61,true,1.00,1081,338,1081,319,108848,0
notchParam-62,true,1.00,780,304,778,285,72934,0
notchParam-63,true,1.00,534,322,532,303,51556,0
notchParam-64,true,1.00,585,328,583,309,58519,0
notchParam-65,true,1.00,646,322,645,303,63566,0
notchParam-66,true,1.00,564,336,561,317,56285,0
notchParam-67,true,1.00,789,318,787,299,77893,0
notchParam-68,true,1.00,864,314,864,294,79677,0
notchParam-69,true,1.00,736,298,735,279,67060,0
notchParam-70,true,1.00,821,310,818,291,78610,0
notchParam-71,true,1.00,659,354,658,335,67207,0
notchParam-72,true,1.00,544,335,543,315,56124,0
notchParam-73,true,1.00,550,312,548,293,53196,0
notchParam-74,true,1.00,632,337,626,318,61458,0
notchParam-75,true,1.00,565,317,560,298,59809,0
notchParam-76,true,1.00,1092,340,1090,321,108124,0
notchParam-77,true,1.00,728,338,726,319,71708,0
notchParam-78,true,1.00,1195,326,1194,307,118335,0
notchParam-79,true,1.00,522,320,522,301,52046,0
notchParam-80,true,1.00,227,324,226,305,22202,0
notchParam-81,true,1.00,529,332,527,313,54423,0
notchParam-82,true,1.00,215,305,212,286,20666,0
notchParam-83,true,1.00,193,304,193,285,19487,0
notchParam-84,true,1.00,725,304,724,285,69765,0
notchParam-85,true,1.00,1000,360,1000,341,93071,0
notchParam-86,true,1.00,1171,312,1169,293,114965,0
notchParam-87,true,1.00,182,314,179,295,18409,0
notchParam-88,true,1.00,248,306,247,287,23213,0
notchParam-89,true,1.00,178,304,175,285,16784,0
notchParam-90,true,1.00,179,300,176,281,17113,0
notchParam-91,true,1.00,1250,330,1249,311,116633,0
notchParam-92,true,1.00,981,308,978,289,93287,0
notchParam-93,true,1.00,1062,330,1059,305,104434,0
notchParam-94,true,1.00,1073,338,1070,319,108010,0
notchParam-95,true,1.00,1117,345,1114,326,111172,0
notchParam-96,true,1.00,585,316,580,297,61300,0
notchParam-97,true,1.00,544,312,542,293,50704,0
notchParam-98,true,1.00,216,310,215,291,20120,0
notchParam-99,true,1.00,1027,342,1026,323,94840,0
notchParam-100,true,1.00,750,298,749,279,73218,0
