NDW:0.0
TTFW:1.0
DFPT:2.0
DFPAP:3.0
DFPMP:1.0
RIGHT_WINDOW_BORDER_X:115.0
level,win/fail,% travelled,run time,game ticks,planning time,total plannings,nodes evaluated,most backtracked nodes
hopper-1,true,1.00,1984,383,1978,373,109137,0
hopper-2,true,1.00,1918,374,1910,364,100736,0
hopper-3,false,0.24,2124,136,2121,136,97806,0
hopper-4,false,0.26,2853,167,2852,167,146854,0
hopper-5,true,1.00,2496,395,2487,385,139807,0
hopper-6,true,1.00,1360,348,1351,336,75254,0
hopper-7,false,0.82,4997,397,4991,397,244718,0
hopper-8,false,0.41,2746,210,2743,210,131841,0
hopper-9,true,1.00,2253,380,2245,370,123444,0
hopper-10,true,1.00,1597,353,1595,343,94317,0
hopper-11,true,1.00,862,327,854,317,47896,0
hopper-12,true,1.00,1044,350,1038,340,58402,0
hopper-13,true,1.00,1978,383,1970,373,114672,0
hopper-14,true,1.00,1319,360,1307,350,73861,0
hopper-15,true,1.00,1616,359,1612,349,90607,0
hopper-16,false,0.54,2339,225,2335,225,112671,0
hopper-17,true,1.00,1734,386,1722,376,91363,0
hopper-18,true,1.00,1307,351,1295,341,68401,0
hopper-19,true,1.00,1132,339,1124,329,67021,0
hopper-20,true,1.00,1913,396,1905,386,102951,0
hopper-21,false,0.61,4065,298,4061,298,191712,0
hopper-22,false,0.32,2800,192,2798,192,129191,0
hopper-23,true,1.00,1463,350,1457,340,75301,0
hopper-24,true,1.00,708,325,702,315,37396,0
hopper-25,false,0.63,1280,234,1269,234,68708,0
hopper-26,true,1.00,2038,350,2029,340,108753,0
hopper-27,true,1.00,1029,325,1021,315,54486,0
hopper-28,false,0.85,4946,411,4940,411,242801,0
hopper-29,false,0.25,2952,166,2949,166,133743,0
hopper-30,true,1.00,1984,368,1980,352,106028,0
hopper-31,false,0.77,2445,315,2439,315,117782,0
hopper-32,true,1.00,3112,406,3103,396,164730,0
hopper-33,false,0.49,3869,274,3866,274,187904,0
hopper-34,false,0.31,2028,154,2026,154,94079,0
hopper-35,true,1.00,3551,445,3547,435,200171,0
hopper-36,true,1.00,923,353,915,343,49461,0
hopper-37,false,0.50,1613,197,1609,197,75705,0
hopper-38,false,0.52,2982,254,2978,254,149079,0
hopper-39,false,0.52,2385,226,2379,226,112735,0
hopper-40,true,1.00,1231,349,1223,339,63640,0
hopper-41,false,0.24,2124,136,2124,136,99604,0
hopper-42,true,1.00,1688,371,1679,361,88646,0
hopper-43,false,0.44,3202,225,3200,225,150695,0
hopper-44,true,1.00,1708,374,1695,364,90528,0
hopper-45,false,0.42,2704,222,2698,222,133405,0
hopper-46,false,0.66,4485,342,4477,342,238238,0
hopper-47,true,1.00,3101,404,3094,394,162759,0
hopper-48,true,1.00,1821,367,1816,357,97088,0
hopper-49,true,1.00,1782,363,1772,353,95519,0
hopper-50,false,0.61,25916,999,25910,999,1147645,0
hopper-51,false,0.33,3760,218,3759,218,175329,0
hopper-52,true,1.00,1263,363,1256,353,69285,0
hopper-53,false,0.63,5270,340,5267,340,250972,0
hopper-54,true,1.00,1054,334,1044,322,55150,0
hopper-55,true,1.00,2733,422,2728,411,150518,0
hopper-56,true,1.00,903,341,895,331,47736,0
hopper-57,true,1.00,1545,333,1536,323,77233,0
hopper-58,false,0.57,4613,314,4611,314,220415,0
hopper-59,true,1.00,1285,337,1277,327,70924,0
hopper-60,true,1.00,1616,377,1609,367,92464,0
hopper-61,false,0.82,4706,390,4702,390,244084,0
hopper-62,true,1.00,1938,367,1929,357,104177,0
hopper-63,false,0.23,2552,144,2549,144,123204,0
hopper-64,true,1.00,1298,353,1288,343,69250,0
hopper-65,true,1.00,1529,357,1520,346,85624,0
hopper-66,false,0.73,5010,390,5001,390,243707,0
hopper-67,true,1.00,1854,391,1848,381,104666,0
hopper-68,true,1.00,1039,360,1033,350,55519,0
hopper-69,false,0.83,5935,452,5929,452,290419,0
hopper-70,true,1.00,1590,355,1581,345,85493,0
hopper-71,true,1.00,692,323,682,313,36699,0
hopper-72,true,1.00,2132,372,2125,360,114049,0
hopper-73,true,1.00,1356,331,1348,321,71063,0
hopper-74,true,1.00,1703,369,1698,359,85971,0
hopper-75,true,1.00,1131,347,1126,337,58773,0
hopper-76,true,1.00,1570,372,1562,360,83299,0
hopper-77,true,1.00,948,348,937,338,47586,0
hopper-78,true,1.00,1837,389,1832,379,103143,0
hopper-79,true,1.00,1109,346,1100,334,60552,0
hopper-80,true,1.00,1265,355,1252,345,65561,0
hopper-81,false,0.39,3194,212,3188,212,151937,0
hopper-82,false,0.45,1790,185,1788,185,87795,0
hopper-83,true,1.00,1988,382,1978,372,103979,0
hopper-84,true,1.00,1488,353,1479,343,77560,0
hopper-85,true,1.00,1988,432,1977,420,102837,0
hopper-86,true,1.00,2710,394,2703,384,146954,0
hopper-87,true,1.00,1666,355,1656,345,87551,0
hopper-88,true,1.00,1101,370,1095,358,59897,0
hopper-89,true,1.00,1667,377,1661,367,93537,0
hopper-90,true,1.00,1628,368,1621,358,92215,0
hopper-91,true,1.00,1924,369,1916,359,102957,0
hopper-92,true,1.00,1662,357,1659,347,84712,0
hopper-93,true,1.00,1000,359,988,349,48227,0
hopper-94,false,0.63,25980,999,25977,999,1213645,0
hopper-95,true,1.00,1653,347,1645,337,86809,0
hopper-96,false,0.37,2433,181,2429,181,125091,0
hopper-97,true,1.00,2337,389,2326,379,123418,0
hopper-98,true,1.00,3264,426,3258,416,173230,0
hopper-99,false,0.72,5742,397,5736,397,301586,0
hopper-100,true,1.00,2286,404,2278,392,124424,0
