NDW:0.0
TTFW:0.2
DFPT:2.0
DFPAP:3.0
DFPMP:10.0
RIGHT_WINDOW_BORDER_X:155.0
level,win/fail,% travelled,run time,game ticks,planning time,total plannings,nodes evaluated,most backtracked nodes
notch-1,true,1.00,694,232,692,218,63553,0
notch-2,true,1.00,1435,271,1433,257,132362,0
notch-3,true,1.00,877,237,877,223,81020,0
notch-4,true,1.00,1008,231,1007,217,91593,0
notch-5,true,1.00,824,236,824,222,76103,0
notch-6,true,1.00,840,253,838,239,77961,0
notch-7,true,1.00,827,263,826,249,74722,0
notch-8,true,1.00,1206,291,1204,277,102525,0
notch-9,true,1.00,1288,256,1287,242,114726,0
notch-10,true,1.00,1066,261,1062,247,97045,0
notch-11,true,1.00,1177,260,1176,246,107994,0
notch-12,true,1.00,757,236,757,222,66333,0
notch-13,true,1.00,829,247,826,233,74614,0
notch-14,true,1.00,873,235,872,221,79205,0
notch-15,true,1.00,858,245,853,231,76611,0
notch-16,true,1.00,1343,267,1340,253,120986,0
notch-17,true,1.00,1111,248,1110,234,101422,0
notch-18,true,1.00,2306,306,2304,292,174720,0
notch-19,true,1.00,1260,251,1258,237,117708,0
notch-20,true,1.00,1313,281,1310,261,117999,0
notch-21,true,1.00,1185,274,1183,260,110694,0
notch-22,true,1.00,594,227,590,213,52960,0
notch-23,true,1.00,1276,256,1275,240,115380,0
notch-24,true,1.00,692,247,691,233,61809,0
notch-25,true,1.00,1495,267,1495,253,135390,0
notch-26,true,1.00,1097,263,1096,249,96235,0
notch-27,true,1.00,1724,268,1721,254,156525,0
notch-28,true,1.00,1815,295,1813,280,158953,0
notch-29,true,1.00,1361,273,1359,259,122023,0
notch-30,true,1.00,1222,251,1219,237,108783,0
notch-31,true,1.00,889,239,886,225,79724,0
notch-32,true,1.00,905,250,902,236,79686,0
notch-33,true,1.00,901,239,899,225,81224,0
notch-34,true,1.00,932,259,930,244,86263,0
notch-35,true,1.00,770,236,770,222,70607,0
notch-36,true,1.00,1520,311,1520,297,131782,0
notch-37,true,1.00,1775,290,1774,275,162519,0
notch-38,true,1.00,1482,305,1479,290,127144,0
notch-39,true,1.00,727,230,726,216,66190,0
notch-40,true,1.00,1410,277,1407,263,127797,0
notch-41,true,1.00,1349,272,1347,252,123583,0
notch-42,true,1.00,1326,252,1326,238,120243,0
notch-43,true,1.00,1068,256,1068,242,96299,0
notch-44,true,1.00,957,237,954,223,86009,0
notch-45,true,1.00,1322,263,1321,249,118215,0
notch-46,true,1.00,1002,267,1002,253,88869,0
notch-47,true,1.00,1301,263,1297,249,121591,0
notch-48,true,1.00,1397,257,1394,243,129030,0
notch-49,true,1.00,1881,309,1880,286,152870,0
notch-50,true,1.00,1604,278,1602,264,132640,0
notch-51,true,1.00,863,239,861,225,78107,0
notch-52,true,1.00,1003,270,1002,255,90578,0
notch-53,true,1.00,451,239,449,225,39394,0
notch-54,true,1.00,1413,290,1413,274,124833,0
notch-55,true,1.00,1897,318,1895,304,167123,0
notch-56,true,1.00,860,254,859,240,76232,0
notch-57,true,1.00,1069,264,1066,250,93231,0
notch-58,true,1.00,1894,305,1892,288,167236,0
notch-59,true,1.00,918,262,917,248,82177,0
notch-60,true,1.00,1237,264,1235,250,110542,0
notch-61,true,1.00,1077,235,1075,221,97441,0
notch-62,true,1.00,1805,281,1802,267,156528,0
notch-63,true,1.00,929,252,927,238,84942,0
notch-64,true,1.00,949,236,946,222,86652,0
notch-65,true,1.00,2211,315,2206,301,199574,0
notch-66,true,1.00,1927,309,1923,295,157843,0
notch-67,true,1.00,850,231,850,217,74026,0
notch-68,true,1.00,717,244,716,230,64840,0
notch-69,true,1.00,1864,288,1862,274,161945,0
notch-70,true,1.00,1098,261,1097,247,103069,0
notch-71,true,1.00,1150,242,1145,228,106698,0
notch-72,true,1.00,740,239,739,225,68516,0
notch-73,true,1.00,1216,266,1216,252,107382,0
notch-74,true,1.00,855,254,852,240,77582,0
notch-75,true,1.00,1708,281,1703,267,144707,0
notch-76,true,1.00,1328,277,1328,263,119546,0
notch-77,true,1.00,1034,256,1030,242,93330,0
notch-78,true,1.00,1482,261,1481,247,134507,0
notch-79,true,1.00,1207,263,1205,249,109302,0
notch-80,true,1.00,582,230,580,216,51263,0
notch-81,true,1.00,1268,246,1267,229,116164,0
notch-82,true,1.00,1294,280,1293,266,115463,0
notch-83,true,1.00,1424,271,1423,257,128113,0
notch-84,true,1.00,769,239,767,225,68465,0
notch-85,true,1.00,1014,270,1013,255,90328,0
notch-86,true,1.00,941,245,936,231,85533,0
notch-87,true,1.00,1141,253,1139,239,104056,0
notch-88,true,1.00,1891,285,1886,270,171677,0
notch-89,true,1.00,1457,275,1456,261,135747,0
notch-90,true,1.00,1398,251,1396,237,130312,0
notch-91,true,1.00,1591,282,1589,268,142377,0
notch-92,true,1.00,1226,262,1222,248,111968,0
notch-93,true,1.00,980,254,979,240,89722,0
notch-94,true,1.00,2496,328,2496,313,222156,0
notch-95,true,1.00,738,242,737,228,65832,0
notch-96,true,1.00,749,242,748,228,70635,0
notch-97,true,1.00,1540,279,1538,265,139953,0
notch-98,true,1.00,1335,257,1331,243,124399,0
notch-99,true,1.00,1399,267,1396,253,131604,0
notch-100,true,1.00,994,259,993,245,88960,0
