NDW:0.0
TTFW:0.8
DFPT:2.0
DFPAP:3.0
DFPMP:2.0
RIGHT_WINDOW_BORDER_X:115.0
level,win/fail,% travelled,run time,game ticks,planning time,total plannings,nodes evaluated,most backtracked nodes
patternOccur-1,true,1.00,1393,472,1383,462,84103,0
patternOccur-2,true,1.00,1169,477,1160,467,70901,0
patternOccur-3,true,1.00,3244,529,3235,519,196754,0
patternOccur-4,true,1.00,3396,546,3380,536,206899,0
patternOccur-5,true,1.00,1607,481,1597,471,100828,0
patternOccur-6,true,1.00,2153,468,2145,458,133929,0
patternOccur-7,true,1.00,1601,500,1592,489,97763,0
patternOccur-8,true,1.00,2312,485,2304,475,141757,0
patternOccur-9,true,1.00,1822,483,1807,473,108917,0
patternOccur-10,true,1.00,1448,462,1437,452,91369,0
patternOccur-11,false,0.85,5511,503,5506,503,317518,0
patternOccur-12,true,1.00,1576,472,1566,462,97978,0
patternOccur-13,true,1.00,2574,512,2567,502,159857,0
patternOccur-14,true,1.00,7135,608,7124,596,412285,0
patternOccur-15,true,1.00,1569,460,1562,450,95596,0
patternOccur-16,false,0.92,4198,500,4190,500,235972,0
patternOccur-17,true,1.00,1815,430,1807,420,109119,0
patternOccur-18,true,1.00,1067,418,1061,408,65568,0
patternOccur-19,false,0.82,6588,578,6575,578,419024,0
patternOccur-20,true,1.00,2697,497,2687,487,167141,0
patternOccur-21,true,1.00,2331,512,2317,502,144496,0
patternOccur-22,false,0.83,3569,475,3561,475,211934,0
patternOccur-23,true,1.00,2496,500,2487,490,151086,0
patternOccur-24,true,1.00,1192,489,1182,479,71807,0
patternOccur-25,true,1.00,1365,441,1358,431,82655,0
patternOccur-26,true,1.00,693,408,687,398,42084,0
patternOccur-27,false,0.97,7593,649,7578,649,426499,0
patternOccur-28,true,1.00,2199,519,2191,509,134295,0
patternOccur-29,true,1.00,1175,360,1170,346,71322,0
patternOccur-30,true,1.00,1200,495,1192,485,73089,0
patternOccur-31,false,0.77,4686,441,4683,441,280555,0
patternOccur-32,false,0.92,7961,648,7954,648,474805,0
patternOccur-33,true,1.00,2003,476,1995,466,122219,0
patternOccur-34,true,1.00,1731,485,1722,474,105900,0
patternOccur-35,true,1.00,2507,518,2496,508,150320,0
patternOccur-36,false,0.93,6176,595,6168,595,355140,0
patternOccur-37,false,0.89,5574,520,5551,520,307516,0
patternOccur-38,true,1.00,1311,423,1297,413,84495,0
patternOccur-39,false,0.79,5415,513,5408,513,333334,0
patternOccur-40,true,1.00,2176,469,2167,459,136766,0
patternOccur-41,true,1.00,2755,552,2744,530,168199,0
patternOccur-42,false,0.89,6139,549,6135,549,362689,0
patternOccur-43,true,1.00,1778,474,1767,464,108428,0
patternOccur-44,true,1.00,5120,567,5111,557,313653,0
patternOccur-45,false,0.93,5513,573,5500,573,324741,0
patternOccur-46,true,1.00,1357,468,1349,458,83699,0
patternOccur-47,true,1.00,7271,642,7259,608,413531,0
patternOccur-48,true,1.00,3212,522,3197,512,197970,0
patternOccur-49,true,1.00,937,419,926,409,56850,0
patternOccur-50,true,1.00,1812,425,1801,415,108775,0
patternOccur-51,true,1.00,1786,516,1776,506,109144,0
patternOccur-52,true,1.00,2422,514,2407,502,149029,0
patternOccur-53,true,1.00,2525,475,2516,465,150425,0
patternOccur-54,true,1.00,4871,639,4858,627,300734,0
patternOccur-55,true,1.00,1578,440,1571,430,96818,0
patternOccur-56,true,1.00,2615,538,2604,528,157933,0
patternOccur-57,true,1.00,3933,550,3926,539,237357,0
patternOccur-58,false,0.97,10575,729,10566,729,584882,0
patternOccur-59,true,1.00,2788,521,2776,511,165999,0
patternOccur-60,false,0.91,6985,610,6972,610,371275,0
patternOccur-61,true,1.00,2859,492,2851,482,177621,0
patternOccur-62,true,1.00,1329,455,1322,445,83979,0
patternOccur-63,true,1.00,1244,445,1235,434,80105,0
patternOccur-64,true,1.00,1976,489,1963,477,123649,0
patternOccur-65,true,1.00,888,418,877,408,56747,0
patternOccur-66,true,1.00,2509,513,2502,503,160688,0
patternOccur-67,true,1.00,1540,478,1532,468,95868,0
patternOccur-68,true,1.00,1005,486,997,476,61851,0
patternOccur-69,false,0.85,4622,487,4616,487,274128,0
patternOccur-70,false,0.86,20736,999,20729,999,1288911,0
patternOccur-71,true,1.00,4153,579,4140,569,266951,0
patternOccur-72,false,0.86,8661,627,8645,627,510619,0
patternOccur-73,true,1.00,7556,605,7547,589,438234,0
patternOccur-74,true,1.00,6625,614,6616,595,381668,0
patternOccur-75,false,0.97,3053,527,3049,527,181562,0
patternOccur-76,true,1.00,2096,508,2081,498,128942,0
patternOccur-77,true,1.00,1213,423,1202,413,74520,0
patternOccur-78,true,1.00,1246,430,1236,420,77426,0
patternOccur-79,true,1.00,2142,521,2131,511,132887,0
patternOccur-80,false,0.89,5382,516,5370,516,331531,0
patternOccur-81,false,0.90,7596,571,7591,571,439786,0
patternOccur-82,false,0.96,7079,630,7070,630,410505,0
patternOccur-83,true,1.00,1353,465,1349,455,85703,0
patternOccur-84,true,1.00,1619,445,1609,435,98620,0
patternOccur-85,false,0.92,4659,534,4646,534,276273,0
patternOccur-86,false,0.91,5392,521,5383,521,314877,0
patternOccur-87,true,1.00,1166,461,1156,451,73744,0
patternOccur-88,true,1.00,2257,493,2247,483,141246,0
patternOccur-89,true,1.00,1594,519,1583,509,96908,0
patternOccur-90,true,1.00,3048,536,3039,525,189482,0
patternOccur-91,true,1.00,1390,413,1380,403,85575,0
patternOccur-92,true,1.00,973,417,960,407,59022,0
patternOccur-93,true,1.00,1668,476,1656,466,99433,0
patternOccur-94,false,0.84,4417,467,4406,467,262293,0
patternOccur-95,true,1.00,1886,508,1879,498,117035,0
patternOccur-96,false,0.86,6196,564,6191,564,329469,0
patternOccur-97,true,1.00,3447,527,3435,517,210980,0
patternOccur-98,false,0.90,5531,535,5518,535,332655,0
patternOccur-99,true,1.00,839,400,831,390,51581,0
patternOccur-100,true,1.00,2121,489,2113,479,123266,0
