NDW:0.0
TTFW:0.4
DFPT:2.0
DFPAP:3.0
DFPMP:0.0
RIGHT_WINDOW_BORDER_X:255.0
level,win/fail,% travelled,run time,game ticks,planning time,total plannings,nodes evaluated,most backtracked nodes
notchParamRand-1,true,1.00,885,302,885,279,70768,0
notchParamRand-2,true,1.00,131,300,131,277,9972,0
notchParamRand-3,true,1.00,1115,308,1114,285,92929,0
notchParamRand-4,true,1.00,1530,306,1529,283,126225,0
notchParamRand-5,true,1.00,255,306,255,283,20484,0
notchParamRand-6,true,1.00,509,304,509,281,41679,0
notchParamRand-7,true,1.00,245,296,243,273,19211,0
notchParamRand-8,true,1.00,651,300,649,277,49229,0
notchParamRand-9,true,1.00,593,304,593,281,46497,0
notchParamRand-10,true,1.00,976,312,972,289,76677,0
notchParamRand-11,true,1.00,162,296,160,273,11999,0
notchParamRand-12,true,1.00,478,304,476,281,27135,0
notchParamRand-13,true,1.00,1788,312,1787,289,128257,0
notchParamRand-14,true,1.00,1002,308,1000,285,81198,0
notchParamRand-15,true,1.00,628,306,628,283,50893,0
notchParamRand-16,true,1.00,424,298,422,275,34958,0
notchParamRand-17,true,1.00,76,294,75,271,5083,0
notchParamRand-18,true,1.00,1802,339,1802,316,147064,0
notchParamRand-19,true,1.00,295,312,292,289,22032,0
notchParamRand-20,true,1.00,1836,337,1832,314,144761,0
notchParamRand-21,true,1.00,73,294,68,271,4525,0
notchParamRand-22,true,1.00,904,310,897,287,69049,0
notchParamRand-23,true,1.00,1519,319,1519,296,67156,0
notchParamRand-24,true,1.00,460,310,457,287,24448,0
notchParamRand-25,true,1.00,125,300,124,276,5838,0
notchParamRand-26,true,1.00,925,338,920,315,45522,0
notchParamRand-27,true,1.00,290,296,289,273,15251,0
notchParamRand-28,true,1.00,546,300,544,277,32949,0
notchParamRand-29,true,1.00,107,294,106,271,4144,0
notchParamRand-30,true,1.00,1713,306,1712,283,108160,0
notchParamRand-31,true,1.00,509,304,505,281,29388,0
notchParamRand-32,true,1.00,208,300,206,277,10055,0
notchParamRand-33,true,1.00,2106,314,2102,291,109110,0
notchParamRand-34,true,1.00,1090,306,1086,283,61781,0
notchParamRand-35,true,1.00,673,313,673,290,32668,0
notchParamRand-36,true,1.00,113,294,111,271,4048,0
notchParamRand-37,true,1.00,564,306,561,283,35029,0
notchParamRand-38,true,1.00,1911,312,1908,289,145669,0
notchParamRand-39,true,1.00,1650,310,1646,287,135284,0
notchParamRand-40,true,1.00,2300,332,2300,309,191152,0
notchParamRand-41,true,1.00,69,294,69,271,4037,0
notchParamRand-42,true,1.00,459,304,457,281,38489,0
notchParamRand-43,true,1.00,264,298,261,275,21417,0
notchParamRand-44,true,1.00,331,300,330,277,26625,0
notchParamRand-45,true,1.00,1036,310,1034,287,82168,0
notchParamRand-46,true,1.00,562,298,562,275,47890,0
notchParamRand-47,true,1.00,673,304,667,281,54430,0
notchParamRand-48,true,1.00,1411,310,1410,287,116669,0
notchParamRand-49,true,1.00,750,306,750,283,60979,0
notchParamRand-50,true,1.00,1231,312,1230,289,103804,0
notchParamRand-51,true,1.00,228,298,228,275,17957,0
notchParamRand-52,true,1.00,788,300,787,277,64872,0
notchParamRand-53,true,1.00,940,308,937,285,76796,0
notchParamRand-54,true,1.00,2245,328,2244,305,183106,0
notchParamRand-55,true,1.00,1775,308,1774,285,142849,0
notchParamRand-56,true,1.00,798,302,797,279,65713,0
notchParamRand-57,true,1.00,990,302,988,279,83140,0
notchParamRand-58,true,1.00,728,302,727,279,59539,0
notchParamRand-59,true,1.00,430,300,428,277,36196,0
notchParamRand-60,true,1.00,614,302,613,279,51844,0
notchParamRand-61,true,1.00,470,304,470,281,38354,0
notchParamRand-62,true,1.00,423,310,420,287,34147,0
notchParamRand-63,true,1.00,1452,314,1452,291,121608,0
notchParamRand-64,true,1.00,316,298,314,275,25306,0
notchParamRand-65,true,1.00,2178,322,2176,299,173320,0
notchParamRand-66,true,1.00,609,304,609,281,43699,0
notchParamRand-67,true,1.00,317,300,316,277,24588,0
notchParamRand-68,true,1.00,1429,306,1427,283,119246,0
notchParamRand-69,true,1.00,241,296,240,273,19720,0
notchParamRand-70,true,1.00,618,306,614,283,52945,0
notchParamRand-71,true,1.00,354,308,349,285,28424,0
notchParamRand-72,true,1.00,167,300,165,277,12393,0
notchParamRand-73,true,1.00,526,310,522,287,38711,0
notchParamRand-74,true,1.00,69,294,68,271,4269,0
notchParamRand-75,true,1.00,66,294,64,271,3714,0
notchParamRand-76,true,1.00,1122,308,1121,285,90464,0
notchParamRand-77,true,1.00,1734,318,1731,295,137875,0
notchParamRand-78,true,1.00,1032,306,1031,283,84817,0
notchParamRand-79,true,1.00,294,300,292,277,23024,0
notchParamRand-80,true,1.00,362,300,361,277,27669,0
notchParamRand-81,true,1.00,328,302,326,279,26723,0
notchParamRand-82,true,1.00,774,302,772,279,64972,0
notchParamRand-83,true,1.00,1658,331,1657,308,137922,0
notchParamRand-84,true,1.00,325,300,324,277,26658,0
notchParamRand-85,true,1.00,73,294,71,271,4626,0
notchParamRand-86,true,1.00,713,332,711,309,52988,0
notchParamRand-87,true,1.00,1694,310,1693,287,143084,0
notchParamRand-88,true,1.00,388,309,387,286,30225,0
notchParamRand-89,true,1.00,399,308,398,285,33395,0
notchParamRand-90,true,1.00,752,304,751,281,60705,0
notchParamRand-91,true,1.00,74,294,72,271,4474,0
notchParamRand-92,true,1.00,881,308,880,285,74144,0
notchParamRand-93,true,1.00,353,304,353,281,28509,0
notchParamRand-94,true,1.00,2169,329,2168,306,172133,0
notchParamRand-95,true,1.00,734,314,731,291,60694,0
notchParamRand-96,true,1.00,493,310,491,287,39794,0
notchParamRand-97,true,1.00,1336,310,1332,287,106404,0
notchParamRand-98,true,1.00,242,296,241,273,18268,0
notchParamRand-99,true,1.00,278,304,278,281,22559,0
notchParamRand-100,true,1.00,1634,316,1634,293,136236,0
