NDW:0.0
TTFW:1.4
DFPT:2.0
DFPAP:3.0
DFPMP:3.0
RIGHT_WINDOW_BORDER_X:275.0
level,win/fail,% travelled,run time,game ticks,planning time,total plannings,nodes evaluated,most backtracked nodes
patternCount-1,false,0.88,4762,462,4754,462,246335,0
patternCount-2,true,1.00,1229,424,1217,399,67737,0
patternCount-3,true,1.00,3389,475,3379,458,179788,0
patternCount-4,true,1.00,1463,447,1451,422,82341,0
patternCount-5,true,1.00,1076,431,1065,396,58398,0
patternCount-6,true,1.00,613,394,604,368,31451,0
patternCount-7,true,1.00,1286,422,1276,397,70345,0
patternCount-8,true,1.00,2902,461,2889,422,162015,0
patternCount-9,true,1.00,1531,434,1517,409,84210,0
patternCount-10,true,1.00,788,417,778,392,42080,0
patternCount-11,true,1.00,4786,567,4771,529,256548,0
patternCount-12,true,1.00,957,402,946,377,50602,0
patternCount-13,true,1.00,1043,429,1035,403,56171,0
patternCount-14,true,1.00,1564,437,1554,403,88860,0
patternCount-15,true,1.00,1588,480,1575,455,88243,0
patternCount-16,true,1.00,1208,427,1193,402,63379,0
patternCount-17,true,1.00,1777,540,1769,515,97598,0
patternCount-18,true,1.00,1407,441,1398,416,78319,0
patternCount-19,true,1.00,990,401,976,376,54589,0
patternCount-20,true,1.00,1167,437,1157,400,64480,0
patternCount-21,true,1.00,1289,469,1273,444,69521,0
patternCount-22,true,1.00,2776,468,2766,430,156853,0
patternCount-23,true,1.00,6491,545,6483,516,341955,0
patternCount-24,true,1.00,5659,488,5649,457,321783,0
patternCount-25,true,1.00,1366,440,1356,408,76956,0
patternCount-26,true,1.00,843,443,828,418,44251,0
patternCount-27,true,1.00,1050,440,1039,412,57479,0
patternCount-28,true,1.00,1254,506,1243,451,68151,0
patternCount-29,true,1.00,1180,431,1173,406,64601,0
patternCount-30,true,1.00,1197,482,1183,457,65373,0
patternCount-31,true,1.00,1517,452,1503,427,83488,0
patternCount-32,true,1.00,1979,502,1962,477,108900,0
patternCount-33,true,1.00,3616,485,3608,447,199236,0
patternCount-34,true,1.00,2529,508,2518,471,141951,0
patternCount-35,true,1.00,1130,432,1117,407,61647,0
patternCount-36,true,1.00,3112,548,3097,485,171230,0
patternCount-37,true,1.00,1332,412,1319,387,73797,0
patternCount-38,true,1.00,2905,480,2900,454,156635,0
patternCount-39,true,1.00,1032,453,1022,428,55396,0
patternCount-40,true,1.00,5631,563,5618,518,314299,0
patternCount-41,true,1.00,1825,458,1815,433,103240,0
patternCount-42,true,1.00,981,427,967,402,53369,0
patternCount-43,true,1.00,832,456,820,431,44477,0
patternCount-44,true,1.00,888,426,883,399,48556,0
patternCount-45,true,1.00,1228,443,1217,408,64411,0
patternCount-46,true,1.00,1548,449,1538,425,86391,0
patternCount-47,true,1.00,1779,441,1763,416,99145,0
patternCount-48,true,1.00,979,433,973,408,53024,0
patternCount-49,true,1.00,1220,410,1209,375,67707,0
patternCount-50,true,1.00,5548,594,5536,554,316446,0
patternCount-51,true,1.00,1192,445,1179,410,63106,0
patternCount-52,true,1.00,919,428,906,403,50374,0
patternCount-53,true,1.00,4106,437,4097,407,226693,0
patternCount-54,true,1.00,1970,527,1959,498,108778,0
patternCount-55,true,1.00,5681,417,5673,383,305883,0
patternCount-56,true,1.00,1539,445,1532,420,85796,0
patternCount-57,true,1.00,1029,451,1009,419,55507,0
patternCount-58,false,0.80,5284,461,5270,461,270995,0
patternCount-59,true,1.00,1229,448,1215,423,66618,0
patternCount-60,true,1.00,1318,459,1308,434,71799,0
patternCount-61,true,1.00,1316,448,1306,423,72591,0
patternCount-62,true,1.00,1411,453,1401,418,78128,0
patternCount-63,true,1.00,1099,436,1084,411,59759,0
patternCount-64,true,1.00,1028,422,1012,397,56194,0
patternCount-65,true,1.00,1382,449,1373,415,77251,0
patternCount-66,true,1.00,1814,492,1802,467,102103,0
patternCount-67,true,1.00,2016,463,2005,428,112625,0
patternCount-68,true,1.00,784,423,773,398,41263,0
patternCount-69,true,1.00,1090,437,1075,412,59407,0
patternCount-70,true,1.00,825,411,814,386,43887,0
patternCount-71,true,1.00,1393,459,1387,434,76940,0
patternCount-72,true,1.00,4842,456,4832,412,196255,0
patternCount-73,true,1.00,2692,506,2666,480,70274,0
patternCount-74,true,1.00,6005,489,5993,451,303954,0
patternCount-75,true,1.00,1345,472,1335,426,71394,0
patternCount-76,true,1.00,1273,422,1255,397,56044,0
patternCount-77,true,1.00,1856,443,1834,410,52962,0
patternCount-78,true,1.00,1464,490,1447,465,75118,0
patternCount-79,true,1.00,4602,498,4587,468,248879,0
patternCount-80,true,1.00,3265,539,3257,474,174244,0
patternCount-81,true,1.00,843,453,834,428,42614,0
patternCount-82,true,1.00,1052,424,1049,399,55281,0
patternCount-83,true,1.00,986,450,974,425,50739,0
patternCount-84,true,1.00,1042,433,1030,408,54978,0
patternCount-85,true,1.00,1182,478,1176,453,62401,0
patternCount-86,true,1.00,1573,441,1563,416,84649,0
patternCount-87,true,1.00,1388,467,1376,442,72673,0
patternCount-88,true,1.00,1711,483,1704,445,92940,0
patternCount-89,true,1.00,1359,466,1348,441,72651,0
patternCount-90,true,1.00,882,429,868,404,45546,0
patternCount-91,true,1.00,1878,461,1870,436,99681,0
patternCount-92,true,1.00,1379,416,1365,391,73608,0
patternCount-93,true,1.00,6168,507,6158,476,329753,0
patternCount-94,true,1.00,1635,446,1626,403,88569,0
patternCount-95,true,1.00,1724,441,1712,416,94323,0
patternCount-96,true,1.00,1266,461,1250,434,66575,0
patternCount-97,false,0.88,3920,390,3909,390,200973,0
patternCount-98,true,1.00,1275,466,1261,441,67171,0
patternCount-99,true,1.00,1194,494,1183,469,63091,0
patternCount-100,true,1.00,772,390,764,365,40084,0
