NDW:0.0
TTFW:1.8
DFPT:2.0
DFPAP:3.0
DFPMP:1.0
RIGHT_WINDOW_BORDER_X:255.0
level,win/fail,% travelled,run time,game ticks,planning time,total plannings,nodes evaluated,most backtracked nodes
ore-1,true,1.00,1539,400,1535,375,219075,0
ore-2,false,0.70,2690,339,2688,339,309947,0
ore-3,true,1.00,1413,467,1410,421,201570,0
ore-4,true,1.00,2196,491,2193,468,303337,0
ore-5,true,1.00,1902,424,1898,401,270740,0
ore-6,true,1.00,1257,446,1255,413,164806,0
ore-7,true,1.00,1528,419,1525,387,207892,0
ore-8,true,1.00,2921,474,2919,440,366756,0
ore-9,true,1.00,1173,439,1173,396,157987,0
ore-10,true,1.00,1454,437,1452,414,203245,0
ore-11,true,1.00,1286,512,1284,468,172464,0
ore-12,true,1.00,1585,552,1581,528,207700,0
ore-13,true,1.00,1478,516,1476,474,203669,0
ore-14,true,1.00,1671,433,1666,408,233089,0
ore-15,true,1.00,1668,422,1663,399,230763,0
ore-16,true,1.00,1729,458,1726,427,232638,0
ore-17,true,1.00,1553,499,1547,454,221236,0
ore-18,true,1.00,1199,449,1196,412,169936,0
ore-19,true,1.00,1526,423,1522,398,210823,0
ore-20,true,1.00,2387,459,2387,427,334869,0
ore-21,true,1.00,2953,519,2950,494,431245,0
ore-22,false,0.62,1582,292,1577,292,171236,0
ore-23,true,1.00,1762,453,1760,429,240708,0
ore-24,true,1.00,1540,492,1536,457,205738,0
ore-25,true,1.00,1273,387,1271,354,183648,0
ore-26,true,1.00,1766,430,1764,401,223584,0
ore-27,true,1.00,3063,488,3062,464,404151,0
ore-28,true,1.00,1231,413,1230,390,153127,0
ore-29,true,1.00,1820,439,1818,416,235379,0
ore-30,true,1.00,1094,442,1089,398,146697,0
ore-31,true,1.00,1509,445,1509,421,208092,0
ore-32,true,1.00,1476,426,1474,397,194028,0
ore-33,true,1.00,1506,492,1504,447,211296,0
ore-34,true,1.00,1959,505,1953,474,259622,0
ore-35,true,1.00,1474,406,1469,382,212087,0
ore-36,true,1.00,1254,439,1251,407,170710,0
ore-37,false,0.35,1150,125,1150,125,118544,0
ore-38,true,1.00,1069,415,1068,378,147799,0
ore-39,true,1.00,1979,444,1977,407,280524,0
ore-40,true,1.00,1531,422,1525,399,199634,0
ore-41,true,1.00,1534,453,1531,407,208900,0
ore-42,true,1.00,2400,522,2398,491,345781,0
ore-43,true,1.00,1780,474,1778,451,241553,0
ore-44,true,1.00,1805,432,1803,381,249768,0
ore-45,false,0.74,23131,999,23128,999,1645733,0
ore-46,false,0.12,801,53,801,53,76690,0
ore-47,true,1.00,2098,521,2095,492,283603,0
ore-48,true,1.00,1958,521,1955,498,269295,0
ore-49,true,1.00,1426,446,1423,397,195068,0
ore-50,true,1.00,1766,439,1762,414,235079,0
ore-51,true,1.00,1554,501,1550,452,216057,0
ore-52,true,1.00,1297,464,1296,427,179258,0
ore-53,true,1.00,1347,412,1342,384,178244,0
ore-54,false,0.72,2415,329,2410,329,272915,0
ore-55,true,1.00,1428,444,1424,410,203498,0
ore-56,true,1.00,1309,408,1308,380,177182,0
ore-57,true,1.00,1447,433,1444,392,205523,0
ore-58,true,1.00,1479,450,1478,427,204528,0
ore-59,true,1.00,1877,481,1873,458,267684,0
ore-60,true,1.00,1658,388,1656,365,221223,0
ore-61,true,1.00,1309,428,1306,381,172295,0
ore-62,true,1.00,1713,419,1710,396,230256,0
ore-63,true,1.00,2606,476,2604,438,316594,0
ore-64,true,1.00,1585,450,1584,425,207561,0
ore-65,true,1.00,1780,498,1771,464,243327,0
ore-66,true,1.00,2434,491,2431,450,297205,0
ore-67,true,1.00,2060,434,2059,411,271126,0
ore-68,true,1.00,1249,412,1247,388,171036,0
ore-69,true,1.00,2220,487,2217,461,302049,0
ore-70,false,0.96,2481,433,2479,433,323674,0
ore-71,true,1.00,1344,417,1343,393,188376,0
ore-72,true,1.00,1147,441,1145,406,158266,0
ore-73,true,1.00,1902,453,1899,423,263519,0
ore-74,true,1.00,2468,489,2466,464,295343,0
ore-75,true,1.00,1441,471,1436,446,188928,0
ore-76,true,1.00,1353,406,1349,371,195905,0
ore-77,true,1.00,1425,414,1419,377,200252,0
ore-78,true,1.00,1735,456,1733,433,247675,0
ore-79,true,1.00,1411,446,1407,394,199532,0
ore-80,true,1.00,1939,438,1938,393,263011,0
ore-81,true,1.00,1825,468,1819,444,250028,0
ore-82,true,1.00,1608,421,1608,386,223122,0
ore-83,true,1.00,1223,426,1220,403,164496,0
ore-84,true,1.00,2528,433,2525,409,307736,0
ore-85,true,1.00,1511,463,1510,431,203362,0
ore-86,true,1.00,2442,508,2440,469,336037,0
ore-87,true,1.00,1280,515,1274,475,167661,0
ore-88,true,1.00,2035,431,2033,406,273497,0
ore-89,true,1.00,2262,461,2260,438,309654,0
ore-90,true,1.00,3434,531,3427,484,491037,0
ore-91,true,1.00,1869,464,1868,440,243851,0
ore-92,true,1.00,1657,432,1655,406,230709,0
ore-93,false,0.14,2416,106,2416,106,206861,0
ore-94,true,1.00,1601,496,1599,464,223142,0
ore-95,true,1.00,1756,472,1752,433,237698,0
ore-96,true,1.00,2016,500,2015,465,280588,0
ore-97,true,1.00,2069,485,2069,427,261446,0
ore-98,true,1.00,1832,436,1831,411,248825,0
ore-99,true,1.00,2945,486,2945,455,413620,0
ore-100,true,1.00,1498,463,1496,428,223043,0
