NDW:0.0
TTFW:0.8
DFPT:2.0
DFPAP:3.0
DFPMP:0.0
RIGHT_WINDOW_BORDER_X:155.0
level,win/fail,% travelled,run time,game ticks,planning time,total plannings,nodes evaluated,most backtracked nodes
ge-1,true,1.00,602,230,589,206,14418,0
ge-2,true,1.00,588,230,581,216,16846,0
ge-3,true,1.00,205,203,199,189,5681,0
ge-4,true,1.00,1103,240,1101,225,52538,0
ge-5,true,1.00,42,199,32,185,1746,0
ge-6,true,1.00,367,231,358,217,19731,0
ge-7,true,1.00,125,212,119,198,6439,0
ge-8,true,1.00,163,209,159,195,8470,0
ge-9,true,1.00,610,240,606,226,34186,0
ge-10,true,1.00,67,199,50,185,1572,0
ge-11,true,1.00,211,209,208,195,8793,0
ge-12,true,1.00,41,199,36,185,1617,0
ge-13,true,1.00,360,235,353,221,18780,0
ge-14,true,1.00,173,214,169,192,9022,0
ge-15,true,1.00,890,225,885,211,50715,0
ge-16,true,1.00,473,279,468,265,23840,0
ge-17,true,1.00,278,207,270,193,15748,0
ge-18,true,1.00,794,244,783,230,44138,0
ge-19,true,1.00,1017,286,1012,272,53886,0
ge-20,true,1.00,301,211,294,197,16444,0
ge-21,true,1.00,210,201,206,187,11233,0
ge-22,true,1.00,294,206,292,192,16184,0
ge-23,true,1.00,542,203,540,189,30155,0
ge-24,true,1.00,372,212,367,198,21025,0
ge-25,true,1.00,308,201,303,187,17184,0
ge-26,true,1.00,207,205,198,191,11792,0
ge-27,true,1.00,57,207,50,193,2508,0
ge-28,true,1.00,442,201,436,187,24174,0
ge-29,true,1.00,217,211,209,185,11582,0
ge-30,true,1.00,893,217,888,203,50685,0
ge-31,true,1.00,551,219,544,205,31524,0
ge-32,true,1.00,177,209,174,195,6904,0
ge-33,true,1.00,154,216,150,191,6007,0
ge-34,true,1.00,725,218,722,203,41466,0
ge-35,true,1.00,907,247,900,233,49124,0
ge-36,true,1.00,647,230,645,207,37463,0
ge-37,true,1.00,212,204,208,189,11780,0
ge-38,true,1.00,1166,230,1160,216,65097,0
ge-39,true,1.00,283,214,280,200,15516,0
ge-40,true,1.00,39,199,33,185,1667,0
ge-41,true,1.00,205,199,199,185,11474,0
ge-42,true,1.00,572,260,562,246,31398,0
ge-43,true,1.00,304,219,299,205,16387,0
ge-44,true,1.00,480,209,475,195,26659,0
ge-45,true,1.00,517,221,511,207,28133,0
ge-46,true,1.00,650,239,640,225,36013,0
ge-47,true,1.00,681,234,673,220,38035,0
ge-48,true,1.00,267,221,258,207,14979,0
ge-49,true,1.00,142,200,141,186,7661,0
ge-50,true,1.00,669,229,667,215,36995,0
ge-51,true,1.00,128,208,124,194,6804,0
ge-52,true,1.00,420,256,415,232,22499,0
ge-53,true,1.00,198,217,197,203,10745,0
ge-54,true,1.00,404,230,394,216,22921,0
ge-55,true,1.00,308,213,302,199,16977,0
ge-56,true,1.00,574,248,573,225,30962,0
ge-57,true,1.00,565,213,560,198,32542,0
ge-58,true,1.00,170,216,164,202,8395,0
ge-59,true,1.00,677,207,675,193,38572,0
ge-60,true,1.00,610,211,603,197,33788,0
ge-61,true,1.00,214,203,209,189,12297,0
ge-62,true,1.00,484,217,481,203,27324,0
ge-63,true,1.00,672,216,666,197,38785,0
ge-64,true,1.00,477,234,473,209,25511,0
ge-65,true,1.00,525,213,522,199,30064,0
ge-66,true,1.00,508,214,501,199,29401,0
ge-67,true,1.00,214,246,209,232,10989,0
ge-68,true,1.00,156,221,148,207,7566,0
ge-69,true,1.00,208,199,203,185,11105,0
ge-70,true,1.00,284,203,279,189,16334,0
ge-71,true,1.00,746,222,740,208,42953,0
ge-72,true,1.00,214,231,208,217,11185,0
ge-73,true,1.00,358,214,355,198,19676,0
ge-74,true,1.00,594,229,592,215,33126,0
ge-75,true,1.00,218,221,213,199,11916,0
ge-76,true,1.00,786,221,779,207,43745,0
ge-77,true,1.00,1056,232,1051,218,58214,0
ge-78,true,1.00,570,230,565,213,30611,0
ge-79,true,1.00,184,217,181,203,9076,0
ge-80,true,1.00,95,210,84,195,4160,0
ge-81,true,1.00,71,209,65,195,3145,0
ge-82,true,1.00,173,227,169,197,6751,0
ge-83,true,1.00,821,248,816,217,44626,0
ge-84,true,1.00,704,220,698,206,39702,0
ge-85,true,1.00,251,205,249,191,13852,0
ge-86,true,1.00,670,204,666,189,36711,0
ge-87,true,1.00,484,211,480,197,27235,0
ge-88,true,1.00,487,222,486,207,26372,0
ge-89,true,1.00,307,248,303,234,14880,0
ge-90,true,1.00,41,199,37,185,1721,0
ge-91,true,1.00,237,199,232,185,13034,0
ge-92,true,1.00,48,205,45,191,2147,0
ge-93,true,1.00,553,213,545,199,31410,0
ge-94,true,1.00,380,208,376,194,21174,0
ge-95,true,1.00,157,232,154,218,7672,0
ge-96,true,1.00,660,236,656,221,36570,0
ge-97,true,1.00,1059,239,1056,225,60160,0
ge-98,true,1.00,41,199,37,185,1620,0
ge-99,true,1.00,137,199,132,185,6910,0
ge-100,true,1.00,258,213,254,199,14153,0
