NDW:0.0
TTFW:0.4
DFPT:2.0
DFPAP:3.0
DFPMP:3.0
RIGHT_WINDOW_BORDER_X:35.0
level,win/fail,% travelled,run time,game ticks,planning time,total plannings,nodes evaluated,most backtracked nodes
Mario-1,true,1.00,1680,875,1671,868,145432,0
Mario-2,false,0.95,4638,898,4635,898,371546,0
Mario-3,false,0.25,1560,258,1560,258,131092,0
Mario-4,false,0.52,1498,427,1494,427,126000,0
Mario-5,false,0.20,1316,265,1314,265,106201,0
Mario-6,false,0.28,811,201,811,201,77521,0
Mario-7,false,0.33,1564,349,1560,349,116707,0
Mario-8,true,1.00,7349,1196,7342,1192,549071,0
Mario-9,true,1.00,3908,792,3904,785,321650,0
Mario-10,false,0.26,2293,331,2291,331,194274,0
Mario-11,false,0.24,1020,236,1020,236,89806,0
Mario-12,false,0.52,325,573,304,573,31942,0
Mario-13,false,0.30,1506,358,1503,358,139190,0
Mario-14,false,0.39,313,261,313,261,28779,0
Mario-15,false,0.03,5,27,5,27,841,0
