NDW:0.0
TTFW:1.8
DFPT:2.0
DFPAP:3.0
DFPMP:1.0
RIGHT_WINDOW_BORDER_X:155.0
level,win/fail,% travelled,run time,game ticks,planning time,total plannings,nodes evaluated,most backtracked nodes
Mario-1,true,1.00,297,417,294,395,29702,0
Mario-2,true,1.00,983,388,981,369,100840,0
Mario-3,true,1.00,1479,308,1479,286,173637,0
Mario-4,true,1.00,709,522,704,500,67763,0
Mario-5,true,1.00,917,442,911,427,99009,0
Mario-6,true,1.00,1120,252,1119,238,134099,0
Mario-7,true,1.00,480,440,478,418,46427,0
Mario-8,true,1.00,1458,459,1457,440,149869,0
Mario-9,true,1.00,344,405,342,387,34737,0
Mario-10,true,1.00,2704,338,2703,316,317350,0
Mario-11,true,1.00,732,416,728,394,74846,0
Mario-12,true,1.00,1120,678,1115,656,103417,0
Mario-13,true,1.00,1457,341,1456,326,166512,0
Mario-14,true,1.00,183,401,182,380,19904,0
Mario-15,true,1.00,1984,867,1975,845,189763,0
