NDW:0.0
TTFW:0.8
DFPT:2.0
DFPAP:3.0
DFPMP:50.0
RIGHT_WINDOW_BORDER_X:15.0
level,win/fail,% travelled,run time,game ticks,planning time,total plannings,nodes evaluated,most backtracked nodes
patternOccur-1,false,0.25,1203,443,1191,443,62815,0
patternOccur-2,false,0.13,1404,262,1394,262,78621,0
patternOccur-3,false,0.08,2081,271,2076,271,110442,0
patternOccur-4,false,0.05,333,108,326,108,19061,0
patternOccur-5,false,0.04,212,89,211,89,12178,0
patternOccur-6,false,0.00,5,21,5,21,342,0
patternOccur-7,false,0.29,1785,674,1770,674,96770,0
patternOccur-8,false,0.29,1637,529,1628,529,88675,0
patternOccur-9,false,0.11,781,229,776,229,40678,0
patternOccur-10,false,0.01,183,85,179,85,11959,0
patternOccur-11,false,0.08,1819,281,1814,281,94982,0
patternOccur-12,false,0.04,596,151,595,151,34724,0
patternOccur-13,false,0.04,200,95,196,95,11288,0
patternOccur-14,false,0.09,1232,233,1227,233,67850,0
patternOccur-15,false,0.00,3080,999,3048,999,227355,0
patternOccur-16,false,0.04,568,156,566,156,37230,0
patternOccur-17,false,0.08,1430,200,1427,200,76897,0
patternOccur-18,false,0.44,4068,999,4040,999,214600,0
patternOccur-19,false,0.11,764,196,756,196,41772,0
patternOccur-20,false,0.04,94,65,94,65,6039,0
patternOccur-21,false,0.02,270,86,269,86,17784,0
patternOccur-22,false,0.08,25574,999,25568,999,1398718,0
patternOccur-23,false,0.06,710,128,708,128,39346,0
patternOccur-24,false,0.12,1267,310,1261,310,73059,0
patternOccur-25,false,0.15,1612,390,1606,390,83018,0
patternOccur-26,false,0.16,885,340,876,340,47585,0
patternOccur-27,false,0.28,1557,441,1548,441,82491,0
patternOccur-28,false,0.07,1002,174,998,174,56395,0
patternOccur-29,false,0.06,541,131,539,131,29189,0
patternOccur-30,false,0.02,149,65,149,65,10307,0
patternOccur-31,false,0.34,1422,613,1409,613,79965,0
patternOccur-32,false,0.02,884,126,884,126,55478,0
patternOccur-33,false,0.20,1278,447,1264,447,69785,0
patternOccur-34,false,0.10,1652,258,1641,258,89247,0
patternOccur-35,false,0.00,5,21,4,21,342,0
patternOccur-36,false,0.07,3310,999,3284,999,189792,0
patternOccur-37,false,0.19,2274,477,2263,477,122247,0
patternOccur-38,false,0.04,540,159,536,159,32666,0
patternOccur-39,false,0.13,2143,368,2138,368,115348,0
patternOccur-40,false,0.06,339,128,337,128,17771,0
patternOccur-41,false,0.05,203,119,200,119,11368,0
patternOccur-42,false,0.03,172,54,172,54,10100,0
patternOccur-43,false,0.01,125,57,122,57,8592,0
patternOccur-44,false,0.14,395,259,383,259,20079,0
patternOccur-45,false,0.06,975,193,971,193,53067,0
patternOccur-46,false,0.50,4528,943,4499,943,243414,0
patternOccur-47,false,0.07,897,177,891,177,50204,0
patternOccur-48,false,0.02,68,39,65,39,4713,0
patternOccur-49,false,0.18,815,377,808,377,45004,0
patternOccur-50,false,0.01,407,76,407,76,28373,0
patternOccur-51,false,0.25,1460,460,1448,460,77945,0
patternOccur-52,false,0.01,154,84,150,84,10483,0
patternOccur-53,false,0.06,383,137,382,137,24301,0
patternOccur-54,false,0.00,6,21,6,21,342,0
patternOccur-55,false,0.06,305,164,300,164,17891,0
patternOccur-56,false,0.07,662,186,657,186,33449,0
patternOccur-57,false,0.17,1229,350,1218,350,65268,0
patternOccur-58,false,0.22,2212,528,2201,528,118721,0
patternOccur-59,false,0.06,100,89,97,89,5904,0
patternOccur-60,false,0.01,147,84,147,84,10483,0
patternOccur-61,false,0.10,1100,226,1093,226,66072,0
patternOccur-62,false,0.21,2912,538,2903,538,158141,0
patternOccur-63,false,0.05,954,146,949,146,55753,0
patternOccur-64,false,0.01,149,62,143,62,10200,0
patternOccur-65,false,0.09,180,166,176,166,10619,0
patternOccur-66,false,0.03,486,148,483,148,30259,0
patternOccur-67,false,0.01,146,50,144,50,11133,0
patternOccur-68,false,0.23,2000,455,1989,455,111695,0
patternOccur-69,false,0.07,1619,264,1610,264,93831,0
patternOccur-70,false,0.06,731,153,726,153,44055,0
patternOccur-71,false,0.12,1393,269,1389,269,79986,0
patternOccur-72,false,0.16,1369,322,1358,322,78724,0
patternOccur-73,false,0.06,903,263,894,263,52495,0
patternOccur-74,false,0.03,174,92,173,92,11541,0
patternOccur-75,false,0.05,160,105,160,105,9027,0
patternOccur-76,false,0.07,1192,184,1185,184,68570,0
patternOccur-77,false,0.21,1748,1008,1718,1008,95030,0
patternOccur-78,false,0.11,672,265,664,265,38766,0
patternOccur-79,false,0.08,1534,354,1521,354,90949,0
patternOccur-80,false,0.03,508,128,507,128,32957,0
patternOccur-81,false,0.19,2534,592,2518,592,142312,0
patternOccur-82,false,0.34,4485,778,4468,778,253302,0
patternOccur-83,false,0.13,290,215,286,215,16415,0
patternOccur-84,false,0.05,576,161,568,161,36404,0
patternOccur-85,false,0.01,79,51,76,51,5739,0
patternOccur-86,false,0.14,725,237,718,237,40383,0
patternOccur-87,false,0.00,5,21,5,21,342,0
patternOccur-88,false,0.02,15523,999,15495,999,1010432,0
patternOccur-89,false,0.00,2997,999,2965,999,227355,0
patternOccur-90,false,0.06,227,130,223,130,13291,0
patternOccur-91,false,0.03,72,79,72,79,4605,0
patternOccur-92,false,0.20,649,299,641,299,36686,0
patternOccur-93,false,0.14,2330,444,2322,444,126480,0
patternOccur-94,false,0.07,1751,189,1748,189,97765,0
patternOccur-95,false,0.07,1117,219,1114,219,60881,0
patternOccur-96,false,0.08,1385,273,1375,273,78145,0
patternOccur-97,false,0.05,635,204,630,204,37909,0
patternOccur-98,false,0.05,297,119,295,119,17697,0
patternOccur-99,false,0.25,722,403,713,403,39336,0
patternOccur-100,false,0.07,115,107,113,107,6376,0
