NDW:0.0
TTFW:1.8
DFPT:2.0
DFPAP:3.0
DFPMP:1.0
RIGHT_WINDOW_BORDER_X:135.0
level,win/fail,% travelled,run time,game ticks,planning time,total plannings,nodes evaluated,most backtracked nodes
Mario-1,true,1.00,319,420,314,401,35816,0
Mario-2,true,1.00,623,347,622,334,70463,0
Mario-3,true,1.00,1522,298,1521,280,184664,0
Mario-4,true,1.00,609,523,608,504,69719,0
Mario-5,true,1.00,2657,487,2652,474,293094,0
Mario-6,true,1.00,1064,268,1063,256,136916,0
Mario-7,true,1.00,712,512,708,493,75186,0
Mario-8,true,1.00,1617,479,1615,459,172440,0
Mario-9,true,1.00,333,408,330,393,37939,0
Mario-10,true,1.00,3571,368,3570,350,456600,0
Mario-11,true,1.00,694,425,691,401,78016,0
Mario-12,true,1.00,940,719,938,701,104122,0
Mario-13,true,1.00,1883,358,1881,340,247029,0
Mario-14,true,1.00,161,432,159,416,18412,0
Mario-15,true,1.00,2210,876,2206,862,227339,0
