NDW:0.0
TTFW:1.4
DFPT:2.0
DFPAP:3.0
DFPMP:7.0
RIGHT_WINDOW_BORDER_X:235.0
level,win/fail,% travelled,run time,game ticks,planning time,total plannings,nodes evaluated,most backtracked nodes
Krys-1,true,1.00,6910,575,6896,547,290031,0
Krys-2,false,0.79,24774,999,24766,999,823822,0
Krys-3,true,1.00,6760,512,6746,466,307363,0
Krys-4,true,1.00,3766,457,3754,404,106424,0
Krys-5,true,1.00,1926,377,1916,340,104122,0
Krys-6,true,1.00,4765,472,4748,428,147021,0
Krys-7,true,1.00,510,368,502,324,23979,0
Krys-8,true,1.00,2831,496,2822,435,130030,0
Krys-9,true,1.00,2015,334,2009,292,112360,0
Krys-10,true,1.00,3398,429,3389,375,114509,0
Krys-11,true,1.00,443,378,429,346,14734,0
Krys-12,true,1.00,3314,383,3306,347,144713,0
Krys-13,true,1.00,4120,470,4111,412,218470,0
Krys-14,true,1.00,1793,364,1783,325,73540,0
Krys-15,true,1.00,4159,419,4150,373,204300,0
Krys-16,false,0.69,25407,999,25399,999,915417,0
Krys-17,true,1.00,2561,491,2548,445,115099,0
Krys-18,true,1.00,2374,426,2359,385,106709,0
Krys-19,true,1.00,3232,378,3223,341,159227,0
Krys-20,true,1.00,3916,473,3908,429,177070,0
Krys-21,true,1.00,1990,366,1981,321,113955,0
Krys-22,true,1.00,2221,364,2208,315,127167,0
Krys-23,true,1.00,2406,458,2396,403,109300,0
Krys-24,false,0.70,26345,999,26344,999,883090,0
Krys-25,true,1.00,2416,424,2405,364,106247,0
Krys-26,true,1.00,2951,343,2940,300,157693,0
Krys-27,true,1.00,3014,364,3003,322,102242,0
Krys-28,true,1.00,7841,576,7827,527,344980,0
Krys-29,true,1.00,1906,423,1893,392,78370,0
Krys-30,true,1.00,2508,488,2491,443,99721,0
Krys-31,true,1.00,1934,467,1918,426,90752,0
Krys-32,true,1.00,883,379,874,355,26822,0
Krys-33,true,1.00,608,382,597,327,28111,0
Krys-34,true,1.00,2436,407,2426,365,108414,0
Krys-35,true,1.00,2124,363,2114,326,109882,0
Krys-36,true,1.00,3837,420,3827,348,200007,0
Krys-37,true,1.00,4627,446,4618,416,226679,0
Krys-38,true,1.00,5251,479,5244,436,261727,0
Krys-39,false,0.91,25334,999,25324,999,907661,0
Krys-40,true,1.00,4716,463,4702,416,202994,0
Krys-41,true,1.00,4582,394,4574,357,234127,0
Krys-42,true,1.00,2365,391,2362,336,128874,0
Krys-43,true,1.00,2357,374,2348,338,132668,0
Krys-44,true,1.00,5428,469,5421,423,270223,0
Krys-45,true,1.00,1902,440,1886,407,75134,0
Krys-46,true,1.00,2174,464,2166,424,93173,0
Krys-47,true,1.00,1341,480,1326,424,63214,0
Krys-48,true,1.00,2126,370,2119,337,117559,0
Krys-49,true,1.00,1297,417,1289,377,57733,0
Krys-50,true,1.00,4621,430,4606,392,214735,0
Krys-51,true,1.00,3991,451,3983,397,198585,0
Krys-52,true,1.00,3589,554,3578,509,162733,0
Krys-53,true,1.00,2028,456,2015,411,83897,0
Krys-54,true,1.00,4449,457,4439,421,214125,0
Krys-55,true,1.00,3092,519,3071,470,132255,0
Krys-56,false,0.59,26060,999,26059,999,906485,0
Krys-57,true,1.00,2824,346,2817,310,147859,0
Krys-58,true,1.00,2474,437,2463,406,102582,0
Krys-59,false,0.89,22058,999,22051,999,793959,0
Krys-60,true,1.00,3180,433,3169,361,159281,0
Krys-61,true,1.00,2630,463,2611,424,109560,0
Krys-62,true,1.00,1857,462,1841,420,69972,0
Krys-63,true,1.00,4173,577,4154,528,170927,0
Krys-64,true,1.00,3087,498,3080,461,133995,0
Krys-65,true,1.00,2381,403,2373,372,95355,0
Krys-66,true,1.00,4165,507,4148,471,175231,0
Krys-67,true,1.00,2979,461,2968,409,129097,0
Krys-68,true,1.00,4025,356,4019,310,216565,0
Krys-69,true,1.00,8270,651,8253,619,306955,0
Krys-70,false,0.80,25568,999,25565,999,945271,0
Krys-71,true,1.00,2959,377,2952,334,163786,0
Krys-72,true,1.00,1542,494,1533,453,66324,0
Krys-73,true,1.00,4148,504,4132,457,182685,0
Krys-74,true,1.00,1772,381,1761,349,88632,0
Krys-75,true,1.00,961,449,947,386,35977,0
Krys-76,true,1.00,3563,340,3557,309,173223,0
Krys-77,true,1.00,1321,368,1309,311,72586,0
Krys-78,false,0.91,23941,999,23932,999,945135,0
Krys-79,true,1.00,1095,450,1079,382,44183,0
Krys-80,true,1.00,702,405,693,363,31094,0
Krys-81,true,1.00,1265,404,1257,368,62794,0
Krys-82,true,1.00,1122,381,1106,335,45333,0
Krys-83,false,0.91,23272,999,23259,999,884567,0
Krys-84,true,1.00,351,379,341,333,15774,0
Krys-85,true,1.00,2946,524,2932,461,129516,0
Krys-86,true,1.00,2567,418,2561,377,113565,0
Krys-87,true,1.00,1372,374,1364,350,56245,0
Krys-88,true,1.00,1616,434,1609,393,71629,0
Krys-89,true,1.00,2078,401,2071,360,100809,0
Krys-90,true,1.00,2915,345,2907,293,150917,0
Krys-91,true,1.00,525,439,512,394,23059,0
Krys-92,true,1.00,3695,444,3683,366,171594,0
Krys-93,true,1.00,2592,361,2582,325,129581,0
Krys-94,true,1.00,2186,399,2176,343,124209,0
Krys-95,true,1.00,1393,435,1377,372,58973,0
Krys-96,true,1.00,4920,420,4913,374,269574,0
Krys-97,true,1.00,1565,418,1557,377,75787,0
Krys-98,true,1.00,5705,583,5692,551,235817,0
Krys-99,true,1.00,1947,483,1931,428,75411,0
Krys-100,true,1.00,2385,381,2379,336,136265,0
