NDW:0.0
TTFW:0.4
DFPT:2.0
DFPAP:3.0
DFPMP:5.0
RIGHT_WINDOW_BORDER_X:275.0
level,win/fail,% travelled,run time,game ticks,planning time,total plannings,nodes evaluated,most backtracked nodes
Mario-1,true,1.00,1032,331,1031,295,66874,0
Mario-2,true,1.00,1965,314,1965,283,111643,0
Mario-3,true,1.00,1322,246,1321,221,107117,0
Mario-4,true,1.00,2690,378,2689,333,155526,0
Mario-5,true,1.00,2417,409,2413,383,141232,0
Mario-6,true,1.00,1118,246,1112,221,87463,0
Mario-7,true,1.00,2261,420,2258,379,139722,0
Mario-8,true,1.00,632,312,629,287,42178,0
Mario-9,true,1.00,1256,343,1256,311,75361,0
Mario-10,true,1.00,1918,257,1918,232,151268,0
Mario-11,true,1.00,2079,365,2077,324,124188,0
Mario-12,true,1.00,5356,626,5351,583,295117,0
Mario-13,true,1.00,1358,291,1357,267,107693,0
Mario-14,true,1.00,1366,372,1365,335,77542,0
Mario-15,true,1.00,6401,827,6393,793,368109,0
