NDW:0.0
TTFW:1.8
DFPT:2.0
DFPAP:3.0
DFPMP:10.0
RIGHT_WINDOW_BORDER_X:176.0
level,win/fail,% travelled,run time,game ticks,planning time,total plannings,nodes evaluated,most backtracked nodes
Mario-1,true,1.00,307,404,306,377,33285,0
Mario-2,true,1.00,820,360,818,338,94193,0
Mario-3,true,1.00,1661,302,1659,280,208231,0
Mario-4,true,1.00,614,486,609,461,68465,0
Mario-5,true,1.00,1120,477,1115,455,131453,0
Mario-6,true,1.00,1876,309,1874,292,232805,0
Mario-7,true,1.00,537,431,532,404,58047,0
Mario-8,true,1.00,1492,513,1488,469,156757,0
Mario-9,true,1.00,408,383,404,356,47954,0
Mario-10,true,1.00,2088,326,2086,304,263770,0
Mario-11,true,1.00,688,455,686,430,77206,0
Mario-12,true,1.00,1107,671,1100,643,116201,0
Mario-13,true,1.00,1287,341,1287,325,169920,0
Mario-14,true,1.00,178,389,176,367,20254,0
Mario-15,true,1.00,1717,847,1713,817,178580,0
