NDW:0.0
TTFW:1.0
DFPT:2.0
DFPAP:3.0
DFPMP:5.0
RIGHT_WINDOW_BORDER_X:195.0
level,win/fail,% travelled,run time,game ticks,planning time,total plannings,nodes evaluated,most backtracked nodes
patternOccur-1,true,1.00,1310,459,1291,442,51723,0
patternOccur-2,true,1.00,980,411,961,394,37679,0
patternOccur-3,true,1.00,1950,468,1930,451,77329,0
patternOccur-4,true,1.00,1685,452,1666,435,66970,0
patternOccur-5,true,1.00,1181,446,1170,428,46890,0
patternOccur-6,true,1.00,1488,445,1470,428,60076,0
patternOccur-7,true,1.00,1541,473,1521,454,62765,0
patternOccur-8,true,1.00,1865,431,1849,414,76863,0
patternOccur-9,true,1.00,2212,478,2197,460,91848,0
patternOccur-10,true,1.00,935,431,926,413,44576,0
patternOccur-11,false,0.87,2525,409,2513,409,118532,0
patternOccur-12,true,1.00,1848,514,1833,492,89224,0
patternOccur-13,true,1.00,940,450,931,433,45185,0
patternOccur-14,true,1.00,3828,448,3813,424,177313,0
patternOccur-15,true,1.00,1491,407,1474,390,71212,0
patternOccur-16,true,1.00,3624,472,3612,454,162900,0
patternOccur-17,true,1.00,1571,444,1552,427,72293,0
patternOccur-18,true,1.00,1032,423,1024,406,41368,0
patternOccur-19,false,0.83,6151,498,6140,498,236180,0
patternOccur-20,true,1.00,1232,464,1207,447,50543,0
patternOccur-21,true,1.00,1183,449,1164,430,46664,0
patternOccur-22,false,0.84,2866,401,2855,401,113589,0
patternOccur-23,true,1.00,1659,473,1648,456,66255,0
patternOccur-24,true,1.00,1410,465,1390,447,54736,0
patternOccur-25,true,1.00,1610,436,1589,418,63202,0
patternOccur-26,true,1.00,963,396,954,379,38543,0
patternOccur-27,true,1.00,3932,467,3923,443,160860,0
patternOccur-28,true,1.00,1794,483,1779,465,75525,0
patternOccur-29,true,1.00,1092,424,1076,397,44964,0
patternOccur-30,true,1.00,1350,433,1330,416,56753,0
patternOccur-31,true,1.00,6156,501,6139,477,237484,0
patternOccur-32,true,1.00,4365,504,4351,457,169104,0
patternOccur-33,true,1.00,1431,427,1418,409,54574,0
patternOccur-34,true,1.00,1890,445,1876,419,76078,0
patternOccur-35,true,1.00,1327,463,1311,445,52396,0
patternOccur-36,true,1.00,3011,429,2992,404,123983,0
patternOccur-37,true,1.00,3660,482,3641,442,138792,0
patternOccur-38,true,1.00,1803,447,1784,430,68440,0
patternOccur-39,false,0.79,23082,999,23076,999,783555,0
patternOccur-40,true,1.00,2003,435,1982,418,77617,0
patternOccur-41,true,1.00,1516,425,1503,398,58012,0
patternOccur-42,false,0.88,3320,434,3308,434,125958,0
patternOccur-43,true,1.00,1325,443,1312,426,54523,0
patternOccur-44,true,1.00,1364,413,1342,395,55498,0
patternOccur-45,true,1.00,2695,422,2685,397,111804,0
patternOccur-46,true,1.00,1087,457,1070,439,47096,0
patternOccur-47,true,1.00,3495,463,3484,433,150556,0
patternOccur-48,true,1.00,1468,414,1460,397,64904,0
patternOccur-49,true,1.00,1205,407,1193,390,52883,0
patternOccur-50,true,1.00,2044,442,2029,424,90373,0
patternOccur-51,true,1.00,1774,488,1764,467,80870,0
patternOccur-52,true,1.00,1417,417,1400,400,63629,0
patternOccur-53,true,1.00,1629,422,1614,405,73398,0
patternOccur-54,true,1.00,2839,469,2825,451,134929,0
patternOccur-55,true,1.00,1896,419,1885,402,86679,0
patternOccur-56,true,1.00,1581,503,1565,486,71463,0
patternOccur-57,true,1.00,1975,454,1958,424,92213,0
patternOccur-58,true,1.00,4236,543,4219,515,184714,0
patternOccur-59,true,1.00,1414,432,1400,414,62151,0
patternOccur-60,true,1.00,2687,470,2671,441,112159,0
patternOccur-61,true,1.00,1329,432,1317,413,56675,0
patternOccur-62,true,1.00,1643,425,1623,408,74553,0
patternOccur-63,true,1.00,1322,436,1309,412,61565,0
patternOccur-64,true,1.00,2236,469,2229,450,99937,0
patternOccur-65,true,1.00,1106,444,1090,427,46310,0
patternOccur-66,true,1.00,1673,441,1656,423,69740,0
patternOccur-67,false,0.88,2735,428,2722,428,101489,0
patternOccur-68,true,1.00,1365,460,1347,443,51665,0
patternOccur-69,true,1.00,3595,497,3584,440,139880,0
patternOccur-70,false,0.87,4695,461,4682,461,180828,0
patternOccur-71,true,1.00,1969,439,1951,422,88533,0
patternOccur-72,false,0.86,3035,437,3019,437,123743,0
patternOccur-73,true,1.00,3846,486,3828,459,181169,0
patternOccur-74,true,1.00,2621,429,2610,399,128116,0
patternOccur-75,true,1.00,1776,448,1759,430,87885,0
patternOccur-76,true,1.00,1618,435,1609,418,82211,0
patternOccur-77,true,1.00,1095,414,1084,397,53547,0
patternOccur-78,true,1.00,1096,413,1079,396,52312,0
patternOccur-79,true,1.00,1796,495,1779,478,79182,0
patternOccur-80,true,1.00,3254,503,3235,479,131555,0
patternOccur-81,true,1.00,3798,478,3785,460,149827,0
patternOccur-82,true,1.00,2093,490,2070,460,80482,0
patternOccur-83,false,0.82,4454,452,4437,452,161777,0
patternOccur-84,true,1.00,1258,413,1240,396,49432,0
patternOccur-85,false,0.93,2010,472,1984,472,76938,0
patternOccur-86,true,1.00,3926,455,3909,431,147991,0
patternOccur-87,true,1.00,1161,458,1143,441,45869,0
patternOccur-88,true,1.00,1730,432,1721,414,70883,0
patternOccur-89,true,1.00,1793,466,1779,448,75456,0
patternOccur-90,true,1.00,1812,498,1795,473,88895,0
patternOccur-91,true,1.00,1644,434,1640,412,77532,0
patternOccur-92,true,1.00,1127,441,1113,424,53048,0
patternOccur-93,true,1.00,1652,436,1641,418,76822,0
patternOccur-94,true,1.00,3868,475,3853,441,165622,0
patternOccur-95,true,1.00,1714,472,1705,454,75573,0
patternOccur-96,false,0.87,3464,456,3448,456,135545,0
patternOccur-97,true,1.00,1666,386,1653,369,76119,0
patternOccur-98,false,0.90,2303,433,2291,433,100935,0
patternOccur-99,true,1.00,833,387,818,370,36842,0
patternOccur-100,true,1.00,1704,470,1688,453,72526,0
