NDW:0.0
TTFW:1.0
DFPT:2.0
DFPAP:3.0
DFPMP:2.0
RIGHT_WINDOW_BORDER_X:215.0
level,win/fail,% travelled,run time,game ticks,planning time,total plannings,nodes evaluated,most backtracked nodes
patternCount-1,false,0.88,3725,394,3708,394,140702,0
patternCount-2,true,1.00,1180,410,1167,391,43490,0
patternCount-3,true,1.00,3591,465,3571,445,128592,0
patternCount-4,true,1.00,1368,439,1346,411,53795,0
patternCount-5,true,1.00,1297,424,1281,399,52823,0
patternCount-6,true,1.00,975,393,963,374,39671,0
patternCount-7,true,1.00,1334,405,1320,386,55038,0
patternCount-8,true,1.00,3171,471,3163,430,133341,0
patternCount-9,true,1.00,1690,427,1679,408,68915,0
patternCount-10,true,1.00,785,398,771,379,31741,0
patternCount-11,true,1.00,5834,524,5811,500,234496,0
patternCount-12,true,1.00,1000,401,981,371,40445,0
patternCount-13,true,1.00,975,432,961,412,38930,0
patternCount-14,true,1.00,1229,391,1212,361,49917,0
patternCount-15,true,1.00,1086,415,1070,396,43694,0
patternCount-16,true,1.00,1237,404,1220,385,48930,0
patternCount-17,true,1.00,1348,442,1326,423,56419,0
patternCount-18,true,1.00,1752,441,1739,413,72645,0
patternCount-19,true,1.00,953,388,937,369,37771,0
patternCount-20,true,1.00,1241,436,1231,407,49974,0
patternCount-21,true,1.00,1322,434,1305,415,55377,0
patternCount-22,true,1.00,2948,474,2932,437,124842,0
patternCount-23,true,1.00,7037,529,7022,508,295007,0
patternCount-24,true,1.00,5537,503,5522,477,253541,0
patternCount-25,true,1.00,1092,372,1077,353,50043,0
patternCount-26,true,1.00,746,411,735,392,32723,0
patternCount-27,true,1.00,1160,411,1149,391,52643,0
patternCount-28,true,1.00,1256,459,1240,419,55433,0
patternCount-29,true,1.00,1343,389,1327,370,58982,0
patternCount-30,true,1.00,945,457,928,438,39143,0
patternCount-31,true,1.00,1425,439,1408,420,62188,0
patternCount-32,true,1.00,1413,456,1393,437,62766,0
patternCount-33,true,1.00,3326,506,3312,473,145869,0
patternCount-34,true,1.00,2323,474,2304,433,102178,0
patternCount-35,true,1.00,1221,454,1209,435,52345,0
patternCount-36,true,1.00,2692,514,2673,479,116240,0
patternCount-37,true,1.00,1102,392,1084,373,48382,0
patternCount-38,true,1.00,3045,458,3021,438,138746,0
patternCount-39,true,1.00,1123,419,1102,400,50865,0
patternCount-40,true,1.00,5186,472,5172,443,232630,0
patternCount-41,true,1.00,2137,451,2120,432,97745,0
patternCount-42,true,1.00,1242,418,1225,399,54859,0
patternCount-43,true,1.00,1012,423,999,404,44541,0
patternCount-44,true,1.00,916,402,902,382,40280,0
patternCount-45,true,1.00,1463,459,1449,430,61148,0
patternCount-46,true,1.00,1597,415,1580,390,74877,0
patternCount-47,true,1.00,1626,448,1611,429,73149,0
patternCount-48,true,1.00,786,375,776,356,34124,0
patternCount-49,true,1.00,1423,411,1413,390,63746,0
patternCount-50,true,1.00,4942,540,4929,514,228293,0
patternCount-51,true,1.00,1010,408,995,388,44839,0
patternCount-52,true,1.00,1107,416,1096,397,50627,0
patternCount-53,true,1.00,4572,442,4558,417,207927,0
patternCount-54,true,1.00,1597,459,1576,439,73192,0
patternCount-55,true,1.00,7667,516,7659,485,330818,0
patternCount-56,true,1.00,1332,407,1319,388,59653,0
patternCount-57,true,1.00,940,407,924,387,41088,0
patternCount-58,false,0.69,2487,350,2471,350,103931,0
patternCount-59,true,1.00,1170,432,1162,413,52550,0
patternCount-60,true,1.00,1438,405,1428,386,65028,0
patternCount-61,true,1.00,1265,456,1251,431,55990,0
patternCount-62,true,1.00,1233,409,1220,386,55281,0
patternCount-63,true,1.00,1180,436,1165,417,46345,0
patternCount-64,true,1.00,919,381,904,362,37915,0
patternCount-65,true,1.00,1078,415,1066,392,43741,0
patternCount-66,true,1.00,1757,431,1744,412,71469,0
patternCount-67,true,1.00,1584,401,1572,382,64299,0
patternCount-68,true,1.00,1359,435,1343,416,55546,0
patternCount-69,true,1.00,1159,424,1138,405,47058,0
patternCount-70,true,1.00,875,415,861,396,38402,0
patternCount-71,true,1.00,1207,445,1194,426,54880,0
patternCount-72,true,1.00,5812,478,5796,457,252813,0
patternCount-73,true,1.00,2307,481,2288,462,103942,0
patternCount-74,true,1.00,7676,500,7670,478,332467,0
patternCount-75,true,1.00,1388,443,1374,421,60804,0
patternCount-76,true,1.00,1226,418,1211,399,55258,0
patternCount-77,true,1.00,1513,418,1501,389,68351,0
patternCount-78,true,1.00,1598,463,1585,444,72500,0
patternCount-79,true,1.00,4336,470,4324,444,197303,0
patternCount-80,true,1.00,3373,455,3355,428,150489,0
patternCount-81,true,1.00,1002,436,983,417,43125,0
patternCount-82,true,1.00,1248,417,1240,398,55277,0
patternCount-83,true,1.00,1043,427,1024,408,45367,0
patternCount-84,true,1.00,859,435,844,416,37708,0
patternCount-85,true,1.00,1068,413,1055,394,47344,0
patternCount-86,true,1.00,1128,434,1111,415,49389,0
patternCount-87,true,1.00,1274,435,1261,416,56771,0
patternCount-88,true,1.00,1557,448,1537,416,68808,0
patternCount-89,true,1.00,1154,400,1136,381,52248,0
patternCount-90,true,1.00,773,403,762,384,33127,0
patternCount-91,true,1.00,1738,459,1717,440,75995,0
patternCount-92,true,1.00,1101,427,1087,408,47378,0
patternCount-93,true,1.00,5844,503,5827,470,261995,0
patternCount-94,true,1.00,1618,405,1608,386,72945,0
patternCount-95,true,1.00,1569,437,1555,418,71823,0
patternCount-96,true,1.00,1133,435,1117,412,52134,0
patternCount-97,false,0.82,3185,398,3165,398,143619,0
patternCount-98,true,1.00,1281,398,1271,379,58903,0
patternCount-99,true,1.00,1151,430,1137,411,51193,0
patternCount-100,true,1.00,853,389,840,370,38076,0
