NDW:0.0
TTFW:0.2
DFPT:2.0
DFPAP:3.0
DFPMP:20.0
RIGHT_WINDOW_BORDER_X:195.0
level,win/fail,% travelled,run time,game ticks,planning time,total plannings,nodes evaluated,most backtracked nodes
hopper-1,true,1.00,1623,313,1619,296,133024,0
hopper-2,true,1.00,1563,305,1562,288,131287,0
hopper-3,false,0.24,1711,110,1711,110,127507,0
hopper-4,false,0.26,2351,139,2349,139,179831,0
hopper-5,true,1.00,1643,320,1642,303,134423,0
hopper-6,true,1.00,1576,313,1574,296,123390,0
hopper-7,false,0.83,1626,264,1626,264,124562,0
hopper-8,false,0.42,1916,161,1916,161,144263,0
hopper-9,true,1.00,1458,309,1457,292,119987,0
hopper-10,true,1.00,1350,305,1345,285,111703,0
hopper-11,true,1.00,975,299,970,282,78233,0
hopper-12,true,1.00,1459,313,1458,296,118105,0
hopper-13,false,0.40,1180,127,1180,127,92396,0
hopper-14,true,1.00,1406,309,1403,291,109391,0
hopper-15,true,1.00,1560,307,1559,290,124497,0
hopper-16,false,0.54,1389,176,1388,176,105494,0
hopper-17,true,1.00,1194,301,1193,284,94946,0
hopper-18,true,1.00,1470,307,1469,290,115917,0
hopper-19,true,1.00,1426,313,1421,296,115693,0
hopper-20,true,1.00,1678,315,1675,298,137561,0
hopper-21,false,0.62,1592,200,1589,200,122704,0
hopper-22,false,0.32,947,107,947,107,73811,0
hopper-23,true,1.00,1550,312,1547,295,127461,0
hopper-24,true,1.00,980,299,978,282,79003,0
hopper-25,true,1.00,1545,309,1544,292,124197,0
hopper-26,true,1.00,1371,299,1368,282,109525,0
hopper-27,true,1.00,1298,303,1297,286,103121,0
hopper-28,false,0.85,4713,361,4710,361,352264,0
hopper-29,false,0.26,1479,106,1477,106,108844,0
hopper-30,true,1.00,1499,317,1496,300,120228,0
hopper-31,false,0.77,2293,259,2291,259,176184,0
hopper-32,true,1.00,1983,319,1983,301,166947,0
hopper-33,false,0.49,2352,202,2352,202,174410,0
hopper-34,false,0.31,1567,122,1567,122,118954,0
hopper-35,true,1.00,1867,313,1865,296,155377,0
hopper-36,true,1.00,1068,305,1065,288,84232,0
hopper-37,false,0.51,1013,162,1013,162,77335,0
hopper-38,false,0.52,3228,227,3228,227,240717,0
hopper-39,false,0.52,1583,177,1582,177,123336,0
hopper-40,true,1.00,1714,321,1711,304,138008,0
hopper-41,true,1.00,2168,311,2165,294,180578,0
hopper-42,true,1.00,1652,327,1651,310,122203,0
hopper-43,false,0.45,1672,160,1671,160,131396,0
hopper-44,true,1.00,1898,319,1897,301,158044,0
hopper-45,false,0.43,2263,182,2263,182,171911,0
hopper-46,false,0.66,2126,231,2125,231,171603,0
hopper-47,true,1.00,2200,327,2200,310,182133,0
hopper-48,true,1.00,1634,313,1632,296,131214,0
hopper-49,true,1.00,1839,323,1838,306,151470,0
hopper-50,false,0.62,2290,224,2289,224,174724,0
hopper-51,false,0.33,1510,126,1510,126,113812,0
hopper-52,true,1.00,1238,305,1238,288,102694,0
hopper-53,false,0.63,2599,231,2599,231,202844,0
hopper-54,true,1.00,930,297,927,280,73244,0
hopper-55,true,1.00,1297,311,1294,294,106201,0
hopper-56,true,1.00,1294,309,1291,292,105820,0
hopper-57,true,1.00,1508,311,1507,294,116090,0
hopper-58,false,0.58,2237,209,2234,209,170059,0
hopper-59,true,1.00,1214,303,1212,286,98240,0
hopper-60,true,1.00,1719,325,1714,308,132548,0
hopper-61,false,0.82,2654,279,2654,279,202163,0
hopper-62,true,1.00,1361,299,1360,282,112666,0
hopper-63,false,0.23,1780,108,1780,108,129952,0
hopper-64,true,1.00,1330,303,1329,286,105784,0
hopper-65,true,1.00,1508,307,1508,289,123954,0
hopper-66,false,0.74,2091,253,2091,253,157391,0
hopper-67,true,1.00,1120,303,1117,286,90910,0
hopper-68,true,1.00,1300,311,1298,294,100947,0
hopper-69,true,1.00,1179,310,1178,287,91194,0
hopper-70,true,1.00,1907,323,1906,306,158777,0
hopper-71,true,1.00,1424,317,1423,300,107465,0
hopper-72,true,1.00,1772,313,1769,296,146314,0
hopper-73,true,1.00,1343,301,1342,284,108917,0
hopper-74,true,1.00,1080,299,1078,282,85360,0
hopper-75,true,1.00,1479,309,1477,292,121200,0
hopper-76,false,0.47,1561,161,1561,161,122540,0
hopper-77,true,1.00,1383,309,1382,292,107262,0
hopper-78,true,1.00,1744,309,1742,292,143649,0
hopper-79,true,1.00,1024,299,1024,282,83567,0
hopper-80,true,1.00,1071,301,1070,284,85224,0
hopper-81,false,0.39,1367,132,1365,132,109307,0
hopper-82,false,0.45,2260,177,2260,177,168592,0
hopper-83,true,1.00,1968,323,1964,306,164165,0
hopper-84,true,1.00,1631,307,1629,290,131809,0
hopper-85,true,1.00,2196,339,2192,321,166877,0
hopper-86,true,1.00,1967,337,1964,320,157588,0
hopper-87,true,1.00,1618,317,1617,300,130028,0
hopper-88,true,1.00,1295,324,1294,307,106472,0
hopper-89,true,1.00,1146,303,1145,286,94647,0
hopper-90,true,1.00,1401,313,1400,296,111396,0
hopper-91,true,1.00,1565,309,1564,289,129915,0
hopper-92,true,1.00,1713,317,1709,300,136377,0
hopper-93,true,1.00,1199,309,1199,292,96997,0
hopper-94,false,0.64,1707,211,1707,211,131671,0
hopper-95,true,1.00,1439,305,1434,288,119435,0
hopper-96,true,1.00,1643,303,1641,286,138497,0
hopper-97,true,1.00,1810,317,1807,300,144634,0
hopper-98,true,1.00,2173,325,2171,308,175951,0
hopper-99,false,0.72,3493,271,3493,271,272568,0
hopper-100,true,1.00,1685,313,1682,296,137602,0
