NDW:0.0
TTFW:1.0
DFPT:2.0
DFPAP:3.0
DFPMP:3.0
RIGHT_WINDOW_BORDER_X:176.0
level,win/fail,% travelled,run time,game ticks,planning time,total plannings,nodes evaluated,most backtracked nodes
notchParam-1,true,1.00,1039,320,1028,304,48943,0
notchParam-2,true,1.00,1226,328,1220,312,54842,0
notchParam-3,true,1.00,685,316,677,300,31636,0
notchParam-4,true,1.00,763,325,752,309,33398,0
notchParam-5,true,1.00,787,312,762,296,20898,0
notchParam-6,true,1.00,845,320,823,304,22911,0
notchParam-7,true,1.00,1054,316,1043,300,42118,0
notchParam-8,true,1.00,1300,336,1290,320,61797,0
notchParam-9,true,1.00,682,339,667,323,31427,0
notchParam-10,true,1.00,1200,322,1186,306,55701,0
notchParam-11,true,1.00,676,316,666,300,31919,0
notchParam-12,true,1.00,1281,333,1270,317,60426,0
notchParam-13,true,1.00,358,314,351,298,16026,0
notchParam-14,true,1.00,351,304,340,288,15535,0
notchParam-15,true,1.00,1020,312,1014,296,45115,0
notchParam-16,true,1.00,1692,346,1680,330,76677,0
notchParam-17,true,1.00,1417,334,1406,318,64128,0
notchParam-18,true,1.00,375,337,365,321,16985,0
notchParam-19,true,1.00,328,309,317,293,14185,0
notchParam-20,true,1.00,355,308,348,292,15913,0
notchParam-21,true,1.00,298,306,286,290,12912,0
notchParam-22,true,1.00,344,310,335,294,15109,0
notchParam-23,true,1.00,1402,364,1391,348,65298,0
notchParam-24,true,1.00,1374,334,1361,318,65992,0
notchParam-25,true,1.00,1242,318,1234,302,53034,0
notchParam-26,true,1.00,1231,348,1222,332,53469,0
notchParam-27,true,1.00,366,322,362,306,16692,0
notchParam-28,true,1.00,658,321,645,305,30766,0
notchParam-29,true,1.00,752,326,744,310,36740,0
notchParam-30,true,1.00,371,308,357,292,15084,0
notchParam-31,true,1.00,1067,325,1059,309,47882,0
notchParam-32,true,1.00,1465,344,1456,328,67804,0
notchParam-33,true,1.00,308,300,305,284,14596,0
notchParam-34,true,1.00,1024,310,1017,294,47945,0
notchParam-35,true,1.00,1158,328,1147,312,52200,0
notchParam-36,true,1.00,1170,323,1161,307,54290,0
notchParam-37,true,1.00,288,300,281,284,13783,0
notchParam-38,true,1.00,304,304,291,288,14622,0
notchParam-39,true,1.00,1197,327,1187,311,56598,0
notchParam-40,true,1.00,735,318,731,302,36611,0
notchParam-41,true,1.00,632,317,630,301,31515,0
notchParam-42,true,1.00,316,315,305,299,15023,0
notchParam-43,true,1.00,1182,320,1170,304,60803,0
notchParam-44,true,1.00,1129,328,1118,312,58322,0
notchParam-45,true,1.00,1201,340,1194,318,60537,0
notchParam-46,true,1.00,1209,316,1198,300,59577,0
notchParam-47,true,1.00,303,300,299,284,14623,0
notchParam-48,true,1.00,305,319,294,303,14527,0
notchParam-49,true,1.00,337,322,331,305,16064,0
notchParam-50,true,1.00,506,343,493,327,23393,0
notchParam-51,true,1.00,315,306,305,290,15099,0
notchParam-52,true,1.00,1061,330,1052,314,51635,0
notchParam-53,true,1.00,1257,330,1251,314,61540,0
notchParam-54,true,1.00,1375,335,1367,319,64427,0
notchParam-55,true,1.00,408,322,398,306,19345,0
notchParam-56,true,1.00,316,304,306,288,14774,0
notchParam-57,true,1.00,1249,333,1240,317,61572,0
notchParam-58,true,1.00,723,331,716,315,33623,0
notchParam-59,true,1.00,1365,356,1356,340,66648,0
notchParam-60,true,1.00,714,349,707,333,34677,0
notchParam-61,true,1.00,1263,338,1251,322,63792,0
notchParam-62,true,1.00,857,316,846,300,40910,0
notchParam-63,true,1.00,719,328,711,312,35948,0
notchParam-64,true,1.00,679,322,669,306,34283,0
notchParam-65,true,1.00,709,318,700,302,35562,0
notchParam-66,true,1.00,667,340,661,324,33448,0
notchParam-67,true,1.00,919,322,907,306,44217,0
notchParam-68,true,1.00,895,320,883,304,42946,0
notchParam-69,true,1.00,934,300,927,284,45398,0
notchParam-70,true,1.00,1424,342,1415,326,68440,0
notchParam-71,true,1.00,734,354,727,338,37171,0
notchParam-72,true,1.00,676,332,666,316,33971,0
notchParam-73,true,1.00,688,316,678,300,34672,0
notchParam-74,true,1.00,729,342,723,326,35849,0
notchParam-75,true,1.00,693,318,684,302,34191,0
notchParam-76,true,1.00,1271,332,1256,316,58029,0
notchParam-77,true,1.00,706,320,700,304,31568,0
notchParam-78,true,1.00,1277,328,1263,312,59121,0
notchParam-79,true,1.00,670,320,662,304,31772,0
notchParam-80,true,1.00,353,308,343,292,15521,0
notchParam-81,true,1.00,737,330,721,314,33869,0
notchParam-82,true,1.00,308,305,293,289,13270,0
notchParam-83,true,1.00,325,302,309,286,13795,0
notchParam-84,true,1.00,1031,314,1024,298,47792,0
notchParam-85,true,1.00,1293,342,1286,326,59209,0
notchParam-86,true,1.00,1162,321,1152,305,57482,0
notchParam-87,true,1.00,318,314,309,298,15615,0
notchParam-88,true,1.00,329,310,312,294,15536,0
notchParam-89,true,1.00,340,304,328,288,16119,0
notchParam-90,true,1.00,305,320,291,304,14896,0
notchParam-91,true,1.00,1326,338,1317,322,64172,0
notchParam-92,true,1.00,1209,310,1198,294,56083,0
notchParam-93,true,1.00,1473,344,1467,328,70931,0
notchParam-94,true,1.00,1337,342,1323,326,63382,0
notchParam-95,true,1.00,1382,346,1378,330,63119,0
notchParam-96,true,1.00,623,314,609,298,29472,0
notchParam-97,true,1.00,647,316,634,300,29793,0
notchParam-98,true,1.00,331,308,321,292,14422,0
notchParam-99,true,1.00,1087,321,1074,305,49066,0
notchParam-100,true,1.00,860,302,855,286,39486,0
