NDW:0.0
TTFW:0.8
DFPT:2.0
DFPAP:3.0
DFPMP:10.0
RIGHT_WINDOW_BORDER_X:400.0
level,win/fail,% travelled,run time,game ticks,planning time,total plannings,nodes evaluated,most backtracked nodes
hopper-1,true,1.00,1247,319,1245,283,117242,0
hopper-2,true,1.00,1368,317,1365,280,126669,0
hopper-3,false,0.25,1231,83,1231,83,91441,0
hopper-4,false,0.28,1242,94,1242,94,99651,0
hopper-5,true,1.00,1104,309,1101,273,100078,0
hopper-6,true,1.00,1033,307,1031,271,94253,0
hopper-7,false,0.84,2026,255,2026,255,158356,0
hopper-8,false,0.42,1655,139,1655,139,127913,0
hopper-9,true,1.00,1107,297,1106,261,106049,0
hopper-10,true,1.00,907,307,905,271,87365,0
hopper-11,true,1.00,852,313,849,276,76619,0
hopper-12,true,1.00,870,310,869,273,84724,0
hopper-13,true,1.00,2663,363,2661,326,216316,0
hopper-14,true,1.00,1039,309,1038,273,96481,0
hopper-15,true,1.00,1218,301,1215,265,107567,0
hopper-16,false,0.55,1926,175,1924,175,145589,0
hopper-17,true,1.00,792,309,788,273,73285,0
hopper-18,true,1.00,999,305,995,269,88219,0
hopper-19,true,1.00,779,311,777,274,84876,0
hopper-20,true,1.00,1324,319,1320,274,118195,0
hopper-21,false,0.62,1903,194,1902,194,148346,0
hopper-22,false,0.33,1508,108,1508,108,116455,0
hopper-23,true,1.00,1171,299,1169,263,109267,0
hopper-24,true,1.00,834,299,833,263,76744,0
hopper-25,true,1.00,1166,309,1165,273,121456,0
hopper-26,true,1.00,1257,301,1253,265,112237,0
hopper-27,true,1.00,1092,299,1089,263,97170,0
hopper-28,true,1.00,3730,378,3730,342,313417,0
hopper-29,false,0.26,1436,93,1436,93,105601,0
hopper-30,true,1.00,1025,311,1022,264,94060,0
hopper-31,false,0.77,2132,244,2129,244,176598,0
hopper-32,true,1.00,1282,299,1279,263,124167,0
hopper-33,false,0.50,1742,179,1740,179,130873,0
hopper-34,true,1.00,2803,353,2803,316,218845,0
hopper-35,true,1.00,1363,305,1363,267,132862,0
hopper-36,true,1.00,906,314,903,278,78126,0
hopper-37,false,0.51,1413,166,1410,166,104778,0
hopper-38,true,1.00,1740,309,1739,273,162997,0
hopper-39,true,1.00,3100,365,3096,329,237520,0
hopper-40,true,1.00,1067,309,1067,273,95421,0
hopper-41,true,1.00,1544,301,1541,265,144794,0
hopper-42,true,1.00,1096,305,1095,269,98953,0
hopper-43,false,0.45,2280,151,2279,151,176301,0
hopper-44,true,1.00,1107,315,1106,279,112135,0
hopper-45,false,0.43,1922,147,1920,147,147784,0
hopper-46,false,0.68,2149,234,2148,234,181556,0
hopper-47,true,1.00,1418,305,1417,269,135857,0
hopper-48,true,1.00,1229,303,1228,266,115008,0
hopper-49,true,1.00,1231,315,1230,279,118748,0
hopper-50,false,0.63,1896,201,1894,201,149982,0
hopper-51,false,0.34,1703,115,1703,115,127071,0
hopper-52,true,1.00,773,308,771,271,76704,0
hopper-53,false,0.64,2201,203,2201,203,174879,0
hopper-54,true,1.00,659,297,656,261,58697,0
hopper-55,true,1.00,981,323,979,277,91995,0
hopper-56,true,1.00,734,297,731,261,72485,0
hopper-57,true,1.00,928,303,927,267,86743,0
hopper-58,true,1.00,3359,357,3359,320,273794,0
hopper-59,true,1.00,890,297,888,261,84706,0
hopper-60,true,1.00,977,315,974,278,98528,0
hopper-61,true,1.00,3068,342,3065,306,243485,0
hopper-62,true,1.00,1377,323,1373,285,125740,0
hopper-63,true,1.00,2878,373,2877,335,222462,0
hopper-64,true,1.00,1195,315,1193,279,108491,0
hopper-65,true,1.00,1197,308,1194,261,111266,0
hopper-66,true,1.00,2783,360,2783,324,214531,0
hopper-67,true,1.00,778,313,773,277,73544,0
hopper-68,true,1.00,699,328,698,290,61241,0
hopper-69,false,0.84,2187,264,2185,264,172266,0
hopper-70,true,1.00,1269,313,1267,273,119005,0
hopper-71,true,1.00,669,303,669,267,60419,0
hopper-72,true,1.00,1391,301,1389,265,128306,0
hopper-73,true,1.00,1166,297,1163,261,102774,0
hopper-74,true,1.00,923,305,921,269,78314,0
hopper-75,true,1.00,1184,297,1183,261,107298,0
hopper-76,true,1.00,2414,347,2411,310,194273,0
hopper-77,true,1.00,1079,343,1076,290,97006,0
hopper-78,true,1.00,1104,308,1102,260,111707,0
hopper-79,true,1.00,960,313,960,261,86190,0
hopper-80,true,1.00,968,311,967,275,84611,0
hopper-81,false,0.39,1708,123,1708,123,133306,0
hopper-82,true,1.00,1924,309,1922,271,166668,0
hopper-83,true,1.00,1439,309,1437,273,135706,0
hopper-84,true,1.00,1269,303,1266,267,117837,0
hopper-85,true,1.00,1020,339,1017,303,93145,0
hopper-86,true,1.00,1161,303,1160,267,107464,0
hopper-87,true,1.00,1225,313,1225,277,117278,0
hopper-88,true,1.00,903,313,902,277,87455,0
hopper-89,true,1.00,1011,311,1008,274,91397,0
hopper-90,true,1.00,1212,323,1209,276,114802,0
hopper-91,true,1.00,1196,297,1192,261,112622,0
hopper-92,true,1.00,1168,313,1167,277,105480,0
hopper-93,true,1.00,743,313,742,276,69919,0
hopper-94,true,1.00,2770,352,2769,316,218973,0
hopper-95,true,1.00,928,297,926,261,84871,0
hopper-96,true,1.00,1418,297,1414,261,131876,0
hopper-97,true,1.00,1406,301,1404,265,125703,0
hopper-98,true,1.00,1555,329,1553,293,142778,0
hopper-99,true,1.00,2343,325,2340,289,208569,0
hopper-100,true,1.00,1305,326,1301,279,119880,0
