NDW:0.0
TTFW:0.8
DFPT:2.0
DFPAP:3.0
DFPMP:20.0
RIGHT_WINDOW_BORDER_X:15.0
level,win/fail,% travelled,run time,game ticks,planning time,total plannings,nodes evaluated,most backtracked nodes
notch-1,false,0.12,6,60,4,60,413,0
notch-2,false,0.10,7,52,4,52,374,0
notch-3,false,0.14,8,67,6,67,436,0
notch-4,false,0.11,661,157,657,157,33625,0
notch-5,false,0.24,424,160,421,160,22227,0
notch-6,false,0.10,7,53,6,53,383,0
notch-7,false,0.11,11,66,11,66,670,0
notch-8,false,0.11,583,122,582,122,28006,0
notch-9,false,0.20,1019,167,1015,167,52102,0
notch-10,false,0.11,549,104,548,104,29148,0
notch-11,false,0.18,318,122,314,122,16588,0
notch-12,false,0.31,491,221,483,221,24827,0
notch-13,false,0.24,884,239,879,239,46607,0
notch-14,false,0.11,8,57,8,57,402,0
notch-15,false,0.13,354,111,351,111,19438,0
notch-16,false,0.11,184,94,181,94,9751,0
notch-17,false,0.13,559,120,555,120,29439,0
notch-18,false,0.10,8,53,5,53,383,0
notch-19,false,0.12,519,113,517,113,26242,0
notch-20,false,0.11,7,57,4,57,402,0
notch-21,false,0.10,7,57,6,57,411,0
notch-22,false,0.23,11,108,11,108,587,0
notch-23,false,0.17,367,163,364,163,19568,0
notch-24,false,0.17,15,93,11,93,849,0
notch-25,false,0.19,22,124,21,124,1285,0
notch-26,false,0.18,285,120,283,120,13472,0
notch-27,false,0.12,285,109,284,109,16112,0
notch-28,false,0.09,316,96,311,96,17196,0
notch-29,false,0.11,7,53,7,53,385,0
notch-30,false,0.11,715,114,711,114,33317,0
notch-31,false,0.12,7,55,7,55,394,0
notch-32,false,0.28,606,233,596,233,32008,0
notch-33,false,0.24,1195,260,1189,260,55968,0
notch-34,false,0.10,14,56,12,56,403,0
notch-35,false,0.23,316,153,306,153,9247,0
notch-36,false,0.13,240,104,236,104,6742,0
notch-37,false,0.12,270,101,269,101,7647,0
notch-38,false,0.12,298,99,294,99,9311,0
notch-39,false,0.13,14,61,11,61,414,0
notch-40,false,0.11,622,109,619,109,24932,0
notch-41,false,0.25,504,176,496,176,25581,0
notch-42,false,0.10,7,55,6,55,410,0
notch-43,false,0.11,225,115,223,115,12364,0
notch-44,false,0.15,622,134,621,134,33770,0
notch-45,false,0.11,227,114,225,114,11967,0
notch-46,false,0.19,103,146,101,146,5646,0
notch-47,false,0.11,733,144,730,144,41392,0
notch-48,false,0.14,517,136,514,136,29585,0
notch-49,false,0.37,1535,290,1528,290,76829,0
notch-50,false,0.24,258,161,256,161,14579,0
notch-51,false,0.11,7,57,5,57,411,0
notch-52,false,0.21,185,138,183,138,10129,0
notch-53,false,0.09,278,79,276,79,15269,0
notch-54,false,0.13,215,98,213,98,11844,0
notch-55,false,0.13,184,101,183,101,9933,0
notch-56,false,0.12,458,144,454,144,25270,0
notch-57,false,0.15,756,138,754,138,36427,0
notch-58,false,0.18,491,170,488,170,27779,0
notch-59,false,0.13,223,136,221,136,12752,0
notch-60,false,0.11,714,114,713,114,34450,0
notch-61,false,0.14,252,111,250,111,13942,0
notch-62,false,0.12,283,105,282,105,15941,0
notch-63,false,0.09,6,55,6,55,410,0
notch-64,false,0.13,952,150,951,150,53394,0
notch-65,false,0.10,7,57,6,57,407,0
notch-66,false,0.16,251,122,247,122,14224,0
notch-67,false,0.12,226,114,224,114,11957,0
notch-68,false,0.14,185,105,182,105,9890,0
notch-69,false,0.13,221,100,220,100,12121,0
notch-70,false,0.12,218,100,212,100,12545,0
notch-71,false,0.11,253,110,250,110,13519,0
notch-72,false,0.07,5,40,4,40,344,0
notch-73,false,0.11,469,126,469,126,26796,0
notch-74,false,0.12,740,109,738,109,35417,0
notch-75,false,0.10,289,108,287,108,15526,0
notch-76,false,0.13,249,99,248,99,12981,0
notch-77,false,0.20,1111,244,1106,244,62752,0
notch-78,false,0.14,263,134,260,134,14680,0
notch-79,false,0.10,6,52,5,52,374,0
notch-80,false,0.17,9,85,6,85,536,0
notch-81,false,0.12,218,99,216,99,11537,0
notch-82,false,0.11,7,57,6,57,402,0
notch-83,false,0.20,1201,235,1194,235,66599,0
notch-84,false,0.12,184,95,181,95,10561,0
notch-85,false,0.17,710,152,702,152,36937,0
notch-86,false,0.18,412,106,410,106,19897,0
notch-87,false,0.10,283,80,279,80,14411,0
notch-88,false,0.12,593,120,592,120,29890,0
notch-89,false,0.17,514,145,511,145,20962,0
notch-90,false,0.10,560,137,558,137,30673,0
notch-91,false,0.14,1088,146,1086,146,52013,0
notch-92,false,0.11,7,57,7,57,411,0
notch-93,false,0.09,340,74,338,74,18573,0
notch-94,false,0.13,391,128,388,128,19821,0
notch-95,false,0.23,1627,263,1621,263,89416,0
notch-96,false,0.15,9,74,6,74,459,0
notch-97,false,0.09,889,136,887,136,49857,0
notch-98,false,0.12,223,113,222,113,11922,0
notch-99,false,0.11,216,90,213,90,11942,0
notch-100,false,0.12,518,117,514,117,27057,0
