NDW:0.0
TTFW:0.8
DFPT:2.0
DFPAP:3.0
DFPMP:10.0
RIGHT_WINDOW_BORDER_X:400.0
level,win/fail,% travelled,run time,game ticks,planning time,total plannings,nodes evaluated,most backtracked nodes
patternCount-1,false,0.91,6404,423,6401,423,562175,0
patternCount-2,true,1.00,1085,418,1082,382,103539,0
patternCount-3,true,1.00,2760,463,2755,411,231023,0
patternCount-4,true,1.00,1003,408,1001,364,96553,0
patternCount-5,true,1.00,890,412,886,362,83471,0
patternCount-6,true,1.00,558,385,557,348,50072,0
patternCount-7,true,1.00,980,383,974,339,91290,0
patternCount-8,true,1.00,2765,427,2763,358,269524,0
patternCount-9,true,1.00,697,368,693,323,66045,0
patternCount-10,true,1.00,348,348,346,307,33185,0
patternCount-11,true,1.00,3699,442,3697,381,342954,0
patternCount-12,true,1.00,671,404,668,357,59386,0
patternCount-13,true,1.00,404,386,402,350,36620,0
patternCount-14,true,1.00,1009,415,1006,369,92862,0
patternCount-15,true,1.00,925,398,922,362,85025,0
patternCount-16,true,1.00,829,393,829,357,74575,0
patternCount-17,true,1.00,855,402,851,358,78240,0
patternCount-18,true,1.00,889,354,886,318,83674,0
patternCount-19,true,1.00,869,384,868,348,81631,0
patternCount-20,true,1.00,717,388,716,342,65753,0
patternCount-21,true,1.00,973,403,972,367,87942,0
patternCount-22,true,1.00,2447,443,2444,390,232690,0
patternCount-23,true,1.00,5137,464,5137,388,467866,0
patternCount-24,true,1.00,4707,441,4705,397,466018,0
patternCount-25,true,1.00,705,380,701,344,67810,0
patternCount-26,true,1.00,620,407,616,371,54775,0
patternCount-27,true,1.00,1001,405,1000,369,92152,0
patternCount-28,true,1.00,1010,456,1009,402,91189,0
patternCount-29,true,1.00,889,395,885,359,80242,0
patternCount-30,true,1.00,808,387,805,345,75587,0
patternCount-31,true,1.00,1108,411,1103,375,102735,0
patternCount-32,true,1.00,1275,443,1271,402,116692,0
patternCount-33,true,1.00,2787,492,2787,438,258150,0
patternCount-34,true,1.00,2009,475,2007,419,191471,0
patternCount-35,true,1.00,1053,432,1052,396,97387,0
patternCount-36,true,1.00,1943,464,1938,409,181387,0
patternCount-37,true,1.00,741,358,737,322,68590,0
patternCount-38,true,1.00,2754,487,2749,434,256810,0
patternCount-39,true,1.00,724,410,722,374,70365,0
patternCount-40,true,1.00,4347,429,4346,379,394968,0
patternCount-41,true,1.00,1624,457,1619,421,160132,0
patternCount-42,true,1.00,937,395,933,359,84898,0
patternCount-43,true,1.00,770,405,767,369,68268,0
patternCount-44,true,1.00,636,383,631,347,63153,0
patternCount-45,true,1.00,860,455,857,419,75086,0
patternCount-46,true,1.00,1224,376,1223,335,117705,0
patternCount-47,true,1.00,1343,428,1342,392,125928,0
patternCount-48,true,1.00,781,376,778,339,72049,0
patternCount-49,true,1.00,1096,410,1096,372,102129,0
patternCount-50,true,1.00,4271,471,4267,413,420760,0
patternCount-51,true,1.00,923,431,922,384,82835,0
patternCount-52,true,1.00,561,370,556,334,53024,0
patternCount-53,true,1.00,2861,382,2856,330,256498,0
patternCount-54,true,1.00,1390,425,1389,379,129875,0
patternCount-55,true,1.00,5708,468,5708,418,495969,0
patternCount-56,true,1.00,1083,406,1077,370,102726,0
patternCount-57,true,1.00,688,401,684,360,59458,0
patternCount-58,false,0.80,5924,438,5923,438,448240,0
patternCount-59,true,1.00,891,367,886,331,82823,0
patternCount-60,true,1.00,1091,394,1087,357,103843,0
patternCount-61,true,1.00,835,427,828,383,77668,0
patternCount-62,true,1.00,808,380,803,333,78560,0
patternCount-63,true,1.00,634,401,632,364,59587,0
patternCount-64,true,1.00,581,394,578,358,54824,0
patternCount-65,true,1.00,653,389,650,353,60364,0
patternCount-66,true,1.00,1188,413,1187,369,111261,0
patternCount-67,true,1.00,1154,414,1152,365,109041,0
patternCount-68,true,1.00,714,389,711,352,66284,0
patternCount-69,true,1.00,765,403,761,361,69683,0
patternCount-70,true,1.00,822,397,819,361,74156,0
patternCount-71,true,1.00,1201,440,1196,404,114182,0
patternCount-72,true,1.00,4056,411,4054,363,361844,0
patternCount-73,true,1.00,1655,465,1652,420,155139,0
patternCount-74,true,1.00,4706,429,4702,368,415894,0
patternCount-75,true,1.00,1032,413,1031,364,94362,0
patternCount-76,true,1.00,1213,376,1211,340,117350,0
patternCount-77,true,1.00,1064,419,1062,362,95119,0
patternCount-78,true,1.00,1359,436,1354,399,125371,0
patternCount-79,true,1.00,3825,438,3823,395,373907,0
patternCount-80,true,1.00,2594,485,2591,398,241128,0
patternCount-81,true,1.00,837,399,836,363,74906,0
patternCount-82,true,1.00,1236,424,1234,388,119439,0
patternCount-83,true,1.00,713,460,710,424,63670,0
patternCount-84,true,1.00,911,421,910,385,83950,0
patternCount-85,true,1.00,610,426,606,390,54660,0
patternCount-86,true,1.00,774,384,771,348,71706,0
patternCount-87,true,1.00,1224,403,1222,362,114127,0
patternCount-88,true,1.00,1251,410,1248,360,120154,0
patternCount-89,true,1.00,701,378,697,342,64431,0
patternCount-90,true,1.00,696,399,691,363,58952,0
patternCount-91,true,1.00,1236,445,1232,408,113673,0
patternCount-92,true,1.00,846,387,844,351,79560,0
patternCount-93,true,1.00,5009,475,5003,426,446693,0
patternCount-94,true,1.00,803,380,797,334,76345,0
patternCount-95,true,1.00,1350,442,1345,400,128431,0
patternCount-96,true,1.00,865,478,856,433,79792,0
patternCount-97,false,0.82,6240,445,6238,445,509044,0
patternCount-98,true,1.00,876,396,873,359,84211,0
patternCount-99,true,1.00,835,447,828,411,77873,0
patternCount-100,true,1.00,541,371,539,335,49992,0
