NDW:0.0
TTFW:1.8
DFPT:2.0
DFPAP:3.0
DFPMP:7.0
RIGHT_WINDOW_BORDER_X:55.0
level,win/fail,% travelled,run time,game ticks,planning time,total plannings,nodes evaluated,most backtracked nodes
hopper-1,false,0.49,3428,325,3427,325,313053,0
hopper-2,false,0.22,1463,129,1463,129,125192,0
hopper-3,false,0.30,4157,278,4156,278,388795,0
hopper-4,false,0.34,3420,277,3417,277,340460,0
hopper-5,false,0.13,1554,111,1554,111,131020,0
hopper-6,false,0.53,6750,396,6748,396,604122,0
hopper-7,false,0.13,1554,111,1554,111,130980,0
hopper-8,true,1.00,1547,424,1545,419,137746,0
hopper-9,false,0.13,1555,111,1555,111,131053,0
hopper-10,false,0.68,5707,435,5706,435,520609,0
hopper-11,false,0.22,633,101,632,101,55075,0
hopper-12,false,0.40,2384,200,2384,200,210778,0
hopper-13,false,0.13,1554,111,1554,111,130931,0
hopper-14,false,0.30,3937,238,3936,238,337652,0
hopper-15,false,0.13,1554,111,1554,111,130918,0
hopper-16,false,0.13,1554,111,1554,111,131019,0
hopper-17,false,0.31,2187,198,2187,198,196303,0
hopper-18,false,0.27,29113,999,29111,999,2548840,0
hopper-19,false,0.58,2028,309,2026,309,188405,0
hopper-20,false,0.48,5924,365,5923,365,510548,0
hopper-21,false,0.13,1554,111,1554,111,130851,0
hopper-22,false,0.39,4420,349,4419,349,407217,0
hopper-23,false,0.13,1554,111,1554,111,130619,0
hopper-24,false,0.33,2293,219,2293,219,216060,0
hopper-25,false,0.31,3106,204,3106,204,269979,0
hopper-26,false,0.51,25679,999,25678,999,2227188,0
hopper-27,false,0.35,3386,246,3385,246,299652,0
hopper-28,false,0.19,1788,138,1788,138,167008,0
hopper-29,false,0.26,1744,158,1742,158,146047,0
hopper-30,false,0.13,1561,111,1560,111,129904,0
hopper-31,false,0.62,3266,344,3263,344,298093,0
hopper-32,false,0.33,3535,224,3535,224,311611,0
hopper-33,false,0.49,4099,293,4098,293,351890,0
hopper-34,false,0.47,4087,360,4087,360,374450,0
hopper-35,false,0.22,1464,129,1462,129,126347,0
hopper-36,false,0.13,1554,111,1554,111,130827,0
hopper-37,false,0.50,26550,999,26549,999,2210913,0
hopper-38,false,0.65,9519,633,9518,633,882779,0
hopper-39,false,0.38,2452,216,2451,216,212809,0
hopper-40,false,0.71,5229,440,5227,440,443933,0
hopper-41,false,0.73,2797,408,2794,408,266790,0
hopper-42,false,0.13,1554,111,1554,111,128931,0
hopper-43,false,0.13,1554,111,1554,111,130601,0
hopper-44,false,0.31,765,154,765,154,66057,0
hopper-45,false,0.42,5892,333,5889,333,509078,0
hopper-46,false,0.39,3289,274,3288,274,299178,0
hopper-47,false,0.32,3963,228,3961,228,335012,0
hopper-48,false,0.13,1554,111,1554,111,131010,0
hopper-49,false,0.21,2916,168,2915,168,258420,0
hopper-50,false,0.20,633,93,633,93,54708,0
hopper-51,false,0.39,4040,322,4038,322,387972,0
hopper-52,false,0.41,2164,237,2164,237,210728,0
hopper-53,false,0.13,1554,111,1554,111,131055,0
hopper-54,false,0.31,2446,187,2445,187,209095,0
hopper-55,false,0.85,4414,537,4412,537,423131,0
hopper-56,false,0.57,2261,268,2259,268,195447,0
hopper-57,false,0.67,23555,999,23550,999,1938486,0
hopper-58,false,0.39,5064,350,5063,350,459165,0
hopper-59,false,0.20,2813,174,2813,174,277841,0
hopper-60,false,0.36,4332,281,4332,281,465420,0
hopper-61,false,0.13,1554,111,1554,111,131180,0
hopper-62,false,0.13,1554,111,1553,111,130988,0
hopper-63,false,0.37,5071,338,5070,338,489522,0
hopper-64,false,0.13,1554,111,1554,111,131147,0
hopper-65,false,0.13,1555,111,1555,111,131163,0
hopper-66,true,1.00,3704,529,3702,524,363742,0
hopper-67,false,0.31,3106,204,3106,204,262392,0
hopper-68,false,0.66,8972,551,8970,551,771255,0
hopper-69,false,0.31,1755,163,1755,163,147533,0
hopper-70,false,0.37,1526,183,1525,183,123750,0
hopper-71,false,0.29,4558,241,4558,241,404769,0
hopper-72,false,0.22,5549,263,5549,263,460589,0
hopper-73,false,0.13,1554,111,1554,111,129824,0
hopper-74,false,0.50,6506,387,6505,387,544117,0
hopper-75,false,0.23,1463,132,1463,132,122243,0
hopper-76,false,0.13,1554,111,1553,111,129690,0
hopper-77,true,1.00,3246,479,3243,474,281613,0
hopper-78,false,0.29,28911,999,28911,999,2439923,0
hopper-79,false,0.20,1896,151,1895,151,167362,0
hopper-80,false,0.13,1555,111,1555,111,129034,0
hopper-81,false,0.65,5319,464,5319,464,467273,0
hopper-82,false,0.58,5358,495,5356,495,498291,0
hopper-83,false,0.43,3412,331,3409,331,327124,0
hopper-84,false,0.21,3219,251,3218,251,303058,0
hopper-85,false,0.29,28909,999,28907,999,2444277,0
hopper-86,false,0.22,2090,164,2090,164,182717,0
hopper-87,false,0.13,1557,111,1557,111,126710,0
hopper-88,false,0.22,2255,164,2255,164,205957,0
hopper-89,false,0.13,1554,111,1554,111,128894,0
hopper-90,false,0.75,4015,419,4014,419,360541,0
hopper-91,false,0.40,1725,210,1724,210,145553,0
hopper-92,false,0.19,2288,142,2288,142,196635,0
hopper-93,true,1.00,3602,470,3601,465,325679,0
hopper-94,false,0.43,736,189,734,189,62533,0
hopper-95,false,0.33,27216,999,27215,999,2418489,0
hopper-96,false,0.13,1555,111,1555,111,129126,0
hopper-97,false,0.20,3939,197,3939,197,342257,0
hopper-98,false,0.13,1555,111,1555,111,129169,0
hopper-99,false,0.21,29170,999,29169,999,2362129,0
hopper-100,false,0.21,1758,131,1758,131,146812,0
