NDW:0.0
TTFW:0.2
DFPT:2.0
DFPAP:3.0
DFPMP:0.0
RIGHT_WINDOW_BORDER_X:95.0
level,win/fail,% travelled,run time,game ticks,planning time,total plannings,nodes evaluated,most backtracked nodes
notchParamRand-1,false,0.28,20405,999,20399,999,1836655,0
notchParamRand-2,true,1.00,264,419,261,403,31673,0
notchParamRand-3,true,1.00,7066,628,7064,618,627296,0
notchParamRand-4,true,1.00,10407,773,10400,763,903127,0
notchParamRand-5,true,1.00,870,453,869,442,84521,0
notchParamRand-6,true,1.00,1348,444,1345,434,128225,0
notchParamRand-7,true,1.00,1463,474,1462,464,139478,0
notchParamRand-8,true,1.00,1417,444,1415,434,124951,0
notchParamRand-9,true,1.00,3835,555,3829,544,357631,0
notchParamRand-10,true,1.00,2410,501,2408,490,225352,0
notchParamRand-11,true,1.00,289,402,287,393,32772,0
notchParamRand-12,true,1.00,1796,487,1796,477,166769,0
notchParamRand-13,true,1.00,11870,771,11866,755,1036389,0
notchParamRand-14,true,1.00,5560,615,5559,605,485726,0
notchParamRand-15,true,1.00,3943,530,3941,520,342994,0
notchParamRand-16,true,1.00,2245,464,2238,455,215887,0
notchParamRand-17,true,1.00,150,400,146,391,20618,0
notchParamRand-18,false,0.20,4127,231,4127,231,380116,0
notchParamRand-19,true,1.00,424,434,420,424,46562,0
notchParamRand-20,true,1.00,8385,694,8383,680,740600,0
notchParamRand-21,true,1.00,186,427,184,411,24719,0
notchParamRand-22,true,1.00,3785,518,3781,509,341747,0
notchParamRand-23,true,1.00,9392,703,9385,694,799075,0
notchParamRand-24,true,1.00,792,450,790,440,74961,0
notchParamRand-25,true,1.00,162,402,157,393,20586,0
notchParamRand-26,true,1.00,1993,516,1990,504,171061,0
notchParamRand-27,true,1.00,1864,489,1863,479,183929,0
notchParamRand-28,true,1.00,1388,495,1386,485,128384,0
notchParamRand-29,true,1.00,165,408,163,399,22348,0
notchParamRand-30,false,0.44,9590,480,9588,480,799238,0
notchParamRand-31,true,1.00,822,441,821,431,83187,0
notchParamRand-32,true,1.00,251,406,247,396,30521,0
notchParamRand-33,true,1.00,15699,854,15695,842,1408516,0
notchParamRand-34,true,1.00,7656,643,7653,633,682128,0
notchParamRand-35,true,1.00,3162,547,3158,538,290165,0
notchParamRand-36,true,1.00,164,408,162,399,22259,0
notchParamRand-37,true,1.00,2717,501,2716,491,258468,0
notchParamRand-38,false,0.19,2362,156,2362,156,210169,0
notchParamRand-39,true,1.00,11395,858,11393,848,1017204,0
notchParamRand-40,false,0.38,22993,999,22990,999,2007570,0
notchParamRand-41,true,1.00,165,404,165,394,21729,0
notchParamRand-42,true,1.00,2516,528,2512,518,236585,0
notchParamRand-43,true,1.00,2033,458,2032,448,187353,0
notchParamRand-44,true,1.00,2476,481,2475,471,238875,0
notchParamRand-45,false,0.29,3106,221,3104,221,277533,0
notchParamRand-46,true,1.00,5546,587,5544,577,513987,0
notchParamRand-47,true,1.00,5130,580,5127,569,461744,0
notchParamRand-48,true,1.00,10040,750,10037,740,891027,0
notchParamRand-49,true,1.00,3320,503,3320,493,304051,0
notchParamRand-50,true,1.00,7560,653,7555,643,692155,0
notchParamRand-51,true,1.00,316,403,311,392,35462,0
notchParamRand-52,true,1.00,6045,624,6044,611,540694,0
notchParamRand-53,true,1.00,4163,533,4160,523,363930,0
notchParamRand-54,true,1.00,14675,890,14670,881,1315702,0
notchParamRand-55,false,0.56,10200,545,10199,545,871037,0
notchParamRand-56,false,0.67,6705,498,6705,498,588553,0
notchParamRand-57,true,1.00,5894,623,5890,613,529278,0
notchParamRand-58,true,1.00,4157,561,4154,550,379037,0
notchParamRand-59,true,1.00,2434,521,2430,511,230001,0
notchParamRand-60,true,1.00,4179,517,4176,507,383116,0
notchParamRand-61,true,1.00,954,446,951,436,93613,0
notchParamRand-62,true,1.00,1278,447,1275,437,119727,0
notchParamRand-63,true,1.00,8340,737,8337,727,733841,0
notchParamRand-64,true,1.00,626,434,624,424,62762,0
notchParamRand-65,false,0.45,8713,480,8712,480,757124,0
notchParamRand-66,true,1.00,1345,452,1344,442,123693,0
notchParamRand-67,true,1.00,507,420,505,410,51621,0
notchParamRand-68,true,1.00,9786,803,9782,793,874921,0
notchParamRand-69,true,1.00,1021,442,1020,432,101931,0
notchParamRand-70,true,1.00,3641,547,3639,538,340816,0
notchParamRand-71,true,1.00,1034,456,1030,446,99436,0
notchParamRand-72,true,1.00,290,416,286,406,34391,0
notchParamRand-73,true,1.00,2734,521,2729,511,243926,0
notchParamRand-74,true,1.00,149,404,146,394,21055,0
notchParamRand-75,true,1.00,181,421,179,405,24502,0
notchParamRand-76,true,1.00,6548,667,6547,645,589239,0
notchParamRand-77,false,0.68,12477,683,12474,683,1064805,0
notchParamRand-78,true,1.00,5489,614,5487,604,491403,0
notchParamRand-79,true,1.00,1150,450,1146,441,109807,0
notchParamRand-80,true,1.00,836,462,832,452,79054,0
notchParamRand-81,true,1.00,2319,474,2317,455,215586,0
notchParamRand-82,true,1.00,3141,504,3138,494,284606,0
notchParamRand-83,true,1.00,8721,687,8719,677,773181,0
notchParamRand-84,true,1.00,829,446,823,435,84801,0
notchParamRand-85,true,1.00,150,398,150,389,20842,0
notchParamRand-86,true,1.00,900,448,899,439,87201,0
notchParamRand-87,true,1.00,13529,872,13528,863,1221656,0
notchParamRand-88,true,1.00,1792,460,1789,450,174360,0
notchParamRand-89,true,1.00,3397,519,3395,508,309263,0
notchParamRand-90,true,1.00,5092,577,5090,568,449109,0
notchParamRand-91,true,1.00,183,423,179,408,24236,0
notchParamRand-92,true,1.00,3754,530,3749,519,337816,0
notchParamRand-93,true,1.00,2094,472,2092,462,198106,0
notchParamRand-94,true,1.00,11022,799,11020,789,972455,0
notchParamRand-95,true,1.00,3370,489,3367,478,292750,0
notchParamRand-96,true,1.00,3483,568,3477,558,312378,0
notchParamRand-97,true,1.00,5272,559,5271,548,441210,0
notchParamRand-98,true,1.00,981,436,979,426,97653,0
notchParamRand-99,true,1.00,717,432,714,422,72029,0
notchParamRand-100,false,0.21,3560,215,3560,215,317491,0
