NDW:0.0
TTFW:0.2
DFPT:2.0
DFPAP:3.0
DFPMP:0.0
RIGHT_WINDOW_BORDER_X:195.0
level,win/fail,% travelled,run time,game ticks,planning time,total plannings,nodes evaluated,most backtracked nodes
notchParam-1,true,1.00,1196,300,1196,283,101213,0
notchParam-2,true,1.00,1354,308,1354,291,107656,0
notchParam-3,true,1.00,1365,320,1363,303,112043,0
notchParam-4,true,1.00,1389,316,1388,299,112922,0
notchParam-5,true,1.00,1277,310,1275,293,106518,0
notchParam-6,true,1.00,1410,322,1408,305,116445,0
notchParam-7,true,1.00,1393,306,1392,289,117306,0
notchParam-8,true,1.00,2078,335,2076,318,175144,0
notchParam-9,true,1.00,1228,312,1227,295,102568,0
notchParam-10,true,1.00,1887,320,1887,303,158820,0
notchParam-11,true,1.00,1099,302,1097,285,93103,0
notchParam-12,true,1.00,2322,351,2319,334,191946,0
notchParam-13,true,1.00,596,294,594,277,46939,0
notchParam-14,true,1.00,613,294,610,277,48310,0
notchParam-15,true,1.00,1648,318,1646,301,133067,0
notchParam-16,true,1.00,2220,342,2218,325,176837,0
notchParam-17,true,1.00,1262,302,1260,285,108545,0
notchParam-18,true,1.00,1243,318,1242,301,94437,0
notchParam-19,true,1.00,923,312,920,295,73725,0
notchParam-20,true,1.00,701,300,700,283,55370,0
notchParam-21,true,1.00,607,296,607,279,47513,0
notchParam-22,true,1.00,1083,315,1081,298,82700,0
notchParam-23,true,1.00,2562,353,2560,336,204536,0
notchParam-24,true,1.00,1820,326,1818,309,154636,0
notchParam-25,true,1.00,1575,306,1574,289,133735,0
notchParam-26,true,1.00,2110,341,2105,324,175473,0
notchParam-27,true,1.00,712,302,710,285,56718,0
notchParam-28,true,1.00,1418,320,1416,303,117887,0
notchParam-29,true,1.00,1273,316,1271,299,105927,0
notchParam-30,true,1.00,595,294,595,277,47841,0
notchParam-31,true,1.00,2436,352,2433,335,195808,0
notchParam-32,true,1.00,1453,306,1452,289,123306,0
notchParam-33,true,1.00,647,294,646,277,51977,0
notchParam-34,true,1.00,1733,322,1732,305,140199,0
notchParam-35,true,1.00,1896,328,1893,311,148818,0
notchParam-36,true,1.00,1270,298,1267,281,110476,0
notchParam-37,true,1.00,821,313,818,291,63953,0
notchParam-38,true,1.00,734,302,731,285,59038,0
notchParam-39,true,1.00,1985,337,1984,320,158500,0
notchParam-40,true,1.00,1178,308,1177,291,98498,0
notchParam-41,true,1.00,1350,320,1348,303,110953,0
notchParam-42,true,1.00,908,308,904,291,72224,0
notchParam-43,true,1.00,1930,320,1929,303,160978,0
notchParam-44,true,1.00,2700,353,2697,336,219000,0
notchParam-45,true,1.00,1766,316,1760,299,152428,0
notchParam-46,true,1.00,1526,302,1525,285,131268,0
notchParam-47,true,1.00,972,314,970,297,76143,0
notchParam-48,true,1.00,793,304,789,287,62846,0
notchParam-49,true,1.00,1174,316,1173,299,90336,0
notchParam-50,true,1.00,1451,327,1450,310,106432,0
notchParam-51,true,1.00,555,294,553,277,44062,0
notchParam-52,true,1.00,1506,316,1505,299,128100,0
notchParam-53,true,1.00,2149,345,2146,328,170443,0
notchParam-54,true,1.00,2111,342,2110,325,167454,0
notchParam-55,true,1.00,1036,306,1034,289,80556,0
notchParam-56,true,1.00,988,314,985,297,77234,0
notchParam-57,true,1.00,2083,337,2079,320,173853,0
notchParam-58,true,1.00,1676,334,1674,317,132488,0
notchParam-59,true,1.00,2422,344,2419,327,196045,0
notchParam-60,true,1.00,1935,347,1934,330,154207,0
notchParam-61,true,1.00,2181,349,2180,332,181664,0
notchParam-62,true,1.00,1155,304,1152,287,96440,0
notchParam-63,true,1.00,1265,318,1264,301,104753,0
notchParam-64,true,1.00,1139,304,1136,287,97646,0
notchParam-65,true,1.00,1082,306,1082,289,91413,0
notchParam-66,true,1.00,1331,318,1330,301,108010,0
notchParam-67,true,1.00,1395,308,1393,291,114699,0
notchParam-68,true,1.00,1261,302,1259,285,104675,0
notchParam-69,true,1.00,1951,347,1950,330,147349,0
notchParam-70,true,1.00,1448,322,1446,305,122045,0
notchParam-71,true,1.00,1652,338,1651,321,135282,0
notchParam-72,true,1.00,1351,314,1350,297,113552,0
notchParam-73,true,1.00,1215,312,1213,295,102271,0
notchParam-74,true,1.00,1244,312,1241,295,102514,0
notchParam-75,true,1.00,1498,326,1497,309,121600,0
notchParam-76,true,1.00,2373,350,2372,333,193844,0
notchParam-77,true,1.00,1291,312,1290,295,108788,0
notchParam-78,true,1.00,1973,332,1972,315,166198,0
notchParam-79,true,1.00,1236,312,1233,295,103967,0
notchParam-80,true,1.00,971,302,968,285,77515,0
notchParam-81,true,1.00,1321,316,1321,299,111755,0
notchParam-82,true,1.00,746,300,743,283,59247,0
notchParam-83,true,1.00,825,304,825,287,66425,0
notchParam-84,true,1.00,1577,318,1575,301,128388,0
notchParam-85,true,1.00,2229,340,2226,323,176423,0
notchParam-86,true,1.00,1899,325,1898,308,157370,0
notchParam-87,true,1.00,661,296,660,279,53300,0
notchParam-88,true,1.00,782,304,778,287,62037,0
notchParam-89,true,1.00,634,296,630,279,49868,0
notchParam-90,true,1.00,743,304,741,287,59387,0
notchParam-91,true,1.00,2001,326,2000,309,163277,0
notchParam-92,true,1.00,1471,304,1469,287,124622,0
notchParam-93,true,1.00,1755,314,1754,297,151438,0
notchParam-94,true,1.00,1972,330,1971,313,164265,0
notchParam-95,true,1.00,2758,348,2756,331,219213,0
notchParam-96,true,1.00,1302,320,1301,303,107373,0
notchParam-97,true,1.00,1003,302,1003,285,81763,0
notchParam-98,true,1.00,892,319,891,302,68007,0
notchParam-99,true,1.00,2151,342,2151,325,171922,0
notchParam-100,true,1.00,1279,302,1278,285,107582,0
