NDW:0.0
TTFW:1.8
DFPT:2.0
DFPAP:3.0
DFPMP:5.0
RIGHT_WINDOW_BORDER_X:195.0
level,win/fail,% travelled,run time,game ticks,planning time,total plannings,nodes evaluated,most backtracked nodes
notch-1,true,1.00,993,296,993,278,115401,0
notch-2,true,1.00,1779,295,1779,278,221524,0
notch-3,true,1.00,840,267,840,250,99429,0
notch-4,true,1.00,1356,280,1352,252,161667,0
notch-5,true,1.00,827,258,824,239,93749,0
notch-6,true,1.00,851,293,848,275,101984,0
notch-7,true,1.00,780,288,777,271,97230,0
notch-8,true,1.00,646,344,646,311,76907,0
notch-9,true,1.00,973,283,969,265,113446,0
notch-10,true,1.00,939,279,935,262,114923,0
notch-11,true,1.00,931,262,928,244,108941,0
notch-12,true,1.00,673,266,671,249,76401,0
notch-13,true,1.00,704,263,704,246,83650,0
notch-14,true,1.00,781,263,781,245,90588,0
notch-15,true,1.00,811,270,810,253,96283,0
notch-16,true,1.00,905,290,904,267,108188,0
notch-17,true,1.00,835,287,835,269,100236,0
notch-18,true,1.00,765,305,761,286,97290,0
notch-19,true,1.00,1199,265,1197,242,148650,0
notch-20,true,1.00,826,275,824,258,103466,0
notch-21,true,1.00,772,310,771,293,97833,0
notch-22,true,1.00,623,258,620,240,69557,0
notch-23,true,1.00,999,255,997,236,117389,0
notch-24,true,1.00,552,263,551,246,66504,0
notch-25,true,1.00,1020,300,1018,277,125152,0
notch-26,true,1.00,750,266,747,247,87851,0
notch-27,true,1.00,1485,288,1483,270,187521,0
notch-28,true,1.00,948,268,946,248,118049,0
notch-29,true,1.00,1537,312,1536,294,180208,0
notch-30,true,1.00,874,260,873,242,97724,0
notch-31,true,1.00,785,275,785,256,91499,0
notch-32,true,1.00,646,285,646,261,76846,0
notch-33,true,1.00,680,241,679,224,80103,0
notch-34,true,1.00,674,251,673,234,86505,0
notch-35,true,1.00,838,294,836,276,103163,0
notch-36,true,1.00,1373,301,1369,283,166753,0
notch-37,true,1.00,1756,309,1755,286,216654,0
notch-38,true,1.00,883,323,879,280,104101,0
notch-39,true,1.00,576,232,574,213,65311,0
notch-40,true,1.00,989,295,986,274,119370,0
notch-41,true,1.00,1149,282,1149,265,135870,0
notch-42,true,1.00,784,258,784,240,94142,0
notch-43,true,1.00,684,252,682,234,81161,0
notch-44,true,1.00,802,251,801,234,94294,0
notch-45,true,1.00,670,250,668,233,80629,0
notch-46,true,1.00,633,253,631,236,75606,0
notch-47,true,1.00,1037,316,1037,297,124461,0
notch-48,true,1.00,1146,278,1146,260,141524,0
notch-49,true,1.00,785,298,783,274,93048,0
notch-50,true,1.00,731,289,730,270,88225,0
notch-51,true,1.00,776,256,776,234,95734,0
notch-52,true,1.00,874,270,873,252,104545,0
notch-53,true,1.00,396,284,395,262,44219,0
notch-54,true,1.00,900,300,900,281,109586,0
notch-55,true,1.00,1002,296,998,278,120040,0
notch-56,true,1.00,758,283,755,266,89930,0
notch-57,true,1.00,757,286,756,268,86061,0
notch-58,true,1.00,1103,305,1103,286,134344,0
notch-59,true,1.00,869,276,865,253,99711,0
notch-60,true,1.00,1074,281,1073,264,125629,0
notch-61,true,1.00,1031,254,1030,237,123740,0
notch-62,true,1.00,951,293,950,276,117393,0
notch-63,true,1.00,847,295,846,277,108161,0
notch-64,true,1.00,958,258,956,240,109822,0
notch-65,true,1.00,1284,308,1284,289,161630,0
notch-66,true,1.00,929,291,928,272,111305,0
notch-67,true,1.00,811,257,809,240,89984,0
notch-68,true,1.00,485,242,483,225,58596,0
notch-69,true,1.00,1349,296,1348,278,167120,0
notch-70,true,1.00,1131,312,1129,292,141062,0
notch-71,true,1.00,1128,249,1128,232,128977,0
notch-72,true,1.00,678,251,676,234,79320,0
notch-73,true,1.00,803,272,800,254,81001,0
notch-74,true,1.00,726,259,725,241,79934,0
notch-75,true,1.00,1435,314,1432,297,169160,0
notch-76,true,1.00,836,291,833,271,98295,0
notch-77,true,1.00,773,256,773,239,90015,0
notch-78,true,1.00,1013,281,1012,259,118491,0
notch-79,true,1.00,827,286,826,266,90469,0
notch-80,true,1.00,396,234,395,216,41368,0
notch-81,true,1.00,1348,271,1348,254,157653,0
notch-82,true,1.00,778,266,775,248,90172,0
notch-83,true,1.00,1155,286,1153,262,137124,0
notch-84,true,1.00,662,253,662,236,75697,0
notch-85,true,1.00,548,278,547,257,68524,0
notch-86,true,1.00,743,255,742,238,92374,0
notch-87,true,1.00,956,287,953,268,114184,0
notch-88,true,1.00,1035,301,1035,282,131271,0
notch-89,true,1.00,1995,305,1995,288,252472,0
notch-90,true,1.00,1544,296,1543,279,185356,0
notch-91,true,1.00,1346,298,1346,280,166378,0
notch-92,true,1.00,854,258,853,241,101909,0
notch-93,true,1.00,1121,283,1118,264,135519,0
notch-94,true,1.00,1707,306,1706,287,200448,0
notch-95,true,1.00,575,251,574,234,65541,0
notch-96,true,1.00,583,266,581,248,72461,0
notch-97,true,1.00,1129,292,1129,274,137186,0
notch-98,true,1.00,1485,307,1482,288,175591,0
notch-99,true,1.00,1256,281,1256,258,156632,0
notch-100,true,1.00,685,283,683,263,84707,0
