NDW:0.0
TTFW:1.2
DFPT:2.0
DFPAP:3.0
DFPMP:5.0
RIGHT_WINDOW_BORDER_X:215.0
level,win/fail,% travelled,run time,game ticks,planning time,total plannings,nodes evaluated,most backtracked nodes
hopper-1,true,1.00,1045,323,1043,304,110109,0
hopper-2,true,1.00,1301,333,1300,314,132742,0
hopper-3,true,1.00,1481,334,1478,315,159848,0
hopper-4,false,0.27,2132,136,2132,136,182094,0
hopper-5,true,1.00,792,324,789,305,82776,0
hopper-6,true,1.00,1141,320,1137,300,125943,0
hopper-7,true,1.00,926,329,923,310,95515,0
hopper-8,false,0.42,1322,152,1322,152,120641,0
hopper-9,true,1.00,941,320,939,296,101290,0
hopper-10,true,1.00,880,319,879,300,96877,0
hopper-11,true,1.00,621,321,620,302,65147,0
hopper-12,true,1.00,1226,320,1226,301,140081,0
hopper-13,true,1.00,1894,362,1893,343,199827,0
hopper-14,true,1.00,1027,328,1024,305,111080,0
hopper-15,true,1.00,971,310,966,287,99060,0
hopper-16,false,0.54,1336,180,1335,180,117802,0
hopper-17,true,1.00,843,315,842,296,86080,0
hopper-18,true,1.00,1068,310,1065,291,105253,0
hopper-19,true,1.00,879,320,877,297,100700,0
hopper-20,true,1.00,1074,338,1073,318,110822,0
hopper-21,true,1.00,900,327,898,308,92775,0
hopper-22,false,0.33,1222,122,1221,122,108049,0
hopper-23,true,1.00,1020,321,1018,302,117424,0
hopper-24,true,1.00,587,330,586,309,59978,0
hopper-25,true,1.00,1063,309,1060,290,115339,0
hopper-26,true,1.00,1026,301,1026,282,102715,0
hopper-27,true,1.00,836,299,833,280,89901,0
hopper-28,true,1.00,1620,355,1620,336,193404,0
hopper-29,false,0.26,1462,111,1462,111,118027,0
hopper-30,true,1.00,846,332,843,312,90864,0
hopper-31,false,0.77,2911,295,2911,295,259799,0
hopper-32,true,1.00,1257,299,1255,280,136691,0
hopper-33,false,0.50,950,169,950,169,87492,0
hopper-34,true,1.00,1460,338,1458,319,154239,0
hopper-35,true,1.00,1348,348,1344,328,154427,0
hopper-36,true,1.00,655,316,653,297,67012,0
hopper-37,false,0.51,801,166,800,166,71642,0
hopper-38,true,1.00,1824,339,1819,320,210826,0
hopper-39,true,1.00,1557,355,1556,330,179702,0
hopper-40,true,1.00,983,337,977,318,94283,0
hopper-41,true,1.00,1824,321,1824,302,181843,0
hopper-42,true,1.00,759,309,757,290,75755,0
hopper-43,false,0.45,1765,160,1764,160,153553,0
hopper-44,true,1.00,1205,313,1205,293,130546,0
hopper-45,false,0.42,1310,151,1310,151,117860,0
hopper-46,false,0.67,2766,270,2765,270,254809,0
hopper-47,true,1.00,1257,307,1256,288,133749,0
hopper-48,true,1.00,1037,305,1036,286,104815,0
hopper-49,true,1.00,1033,321,1030,302,113664,0
hopper-50,true,1.00,1183,339,1181,320,129199,0
hopper-51,false,0.33,1685,135,1685,135,133473,0
hopper-52,true,1.00,703,307,700,288,76644,0
hopper-53,false,0.63,2975,261,2974,261,258548,0
hopper-54,true,1.00,599,302,598,277,59614,0
hopper-55,true,1.00,751,326,751,303,84391,0
hopper-56,true,1.00,671,297,665,278,69761,0
hopper-57,true,1.00,937,307,936,288,91681,0
hopper-58,true,1.00,1272,327,1271,308,145615,0
hopper-59,true,1.00,697,297,694,278,76184,0
hopper-60,true,1.00,1121,343,1120,324,129186,0
hopper-61,true,1.00,1367,319,1367,300,146252,0
hopper-62,true,1.00,1100,330,1096,310,111044,0
hopper-63,true,1.00,1430,345,1429,326,158207,0
hopper-64,true,1.00,1333,321,1330,302,132147,0
hopper-65,true,1.00,940,324,936,300,102612,0
hopper-66,true,1.00,1406,356,1405,337,149159,0
hopper-67,true,1.00,810,327,807,308,84764,0
hopper-68,true,1.00,623,328,622,309,64519,0
hopper-69,true,1.00,1015,347,1012,328,107286,0
hopper-70,true,1.00,1071,312,1070,289,115777,0
hopper-71,true,1.00,608,305,605,286,60806,0
hopper-72,true,1.00,1334,330,1334,305,141697,0
hopper-73,true,1.00,875,299,873,280,90137,0
hopper-74,true,1.00,737,305,735,286,71809,0
hopper-75,true,1.00,1101,310,1099,291,117361,0
hopper-76,true,1.00,1601,353,1599,333,175934,0
hopper-77,true,1.00,922,355,922,336,94086,0
hopper-78,true,1.00,1029,310,1027,290,118803,0
hopper-79,true,1.00,704,316,703,286,72705,0
hopper-80,true,1.00,641,313,640,294,64193,0
hopper-81,false,0.39,1317,132,1317,132,119178,0
hopper-82,false,0.45,2901,203,2900,203,245077,0
hopper-83,true,1.00,1210,324,1208,305,131575,0
hopper-84,true,1.00,1136,307,1135,288,118321,0
hopper-85,true,1.00,1622,334,1620,315,168847,0
hopper-86,true,1.00,938,303,937,284,100003,0
hopper-87,true,1.00,975,315,974,296,101777,0
hopper-88,true,1.00,717,313,714,294,83465,0
hopper-89,true,1.00,767,344,763,324,82514,0
hopper-90,true,1.00,807,316,805,296,87986,0
hopper-91,true,1.00,940,322,937,303,103189,0
hopper-92,true,1.00,1070,319,1068,300,103705,0
hopper-93,true,1.00,710,317,705,298,76799,0
hopper-94,true,1.00,1390,336,1386,317,151604,0
hopper-95,true,1.00,894,297,891,278,92746,0
hopper-96,true,1.00,1243,307,1242,288,133270,0
hopper-97,true,1.00,1202,314,1200,295,122424,0
hopper-98,true,1.00,1268,321,1266,302,131517,0
hopper-99,true,1.00,2299,360,2297,341,244445,0
hopper-100,true,1.00,1050,332,1048,305,109290,0
