NDW:0.0
TTFW:1.4
DFPT:2.0
DFPAP:3.0
DFPMP:1.0
RIGHT_WINDOW_BORDER_X:255.0
level,win/fail,% travelled,run time,game ticks,planning time,total plannings,nodes evaluated,most backtracked nodes
Mario-1,true,1.00,533,393,525,347,26240,0
Mario-2,true,1.00,1139,348,1130,312,60248,0
Mario-3,true,1.00,1524,271,1517,222,86913,0
Mario-4,true,1.00,1631,441,1621,395,79431,0
Mario-5,true,1.00,965,428,956,405,48145,0
Mario-6,true,1.00,2002,278,1995,254,103257,0
Mario-7,true,1.00,704,413,699,367,34616,0
Mario-8,true,1.00,1184,455,1174,406,54803,0
Mario-9,true,1.00,566,410,556,364,28726,0
Mario-10,true,1.00,2493,345,2487,299,141548,0
Mario-11,true,1.00,938,428,925,382,47375,0
Mario-12,true,1.00,1576,625,1557,573,65243,0
Mario-13,true,1.00,2518,356,2508,332,130446,0
Mario-14,true,1.00,354,405,344,362,16111,0
Mario-15,true,1.00,2517,825,2502,771,127304,0
