NDW:0.0
TTFW:2.0
DFPT:2.0
DFPAP:3.0
DFPMP:3.0
RIGHT_WINDOW_BORDER_X:135.0
level,win/fail,% travelled,run time,game ticks,planning time,total plannings,nodes evaluated,most backtracked nodes
Krys-1,false,0.38,28712,999,28706,999,828982,0
Krys-2,false,0.79,22805,999,22788,999,733512,0
Krys-3,true,1.00,7629,601,7616,579,252948,0
Krys-4,true,1.00,2937,568,2920,552,125944,0
Krys-5,true,1.00,4616,453,4606,431,238093,0
Krys-6,true,1.00,1784,410,1771,395,81616,0
Krys-7,true,1.00,333,395,315,374,15279,0
Krys-8,true,1.00,2098,493,2086,468,99788,0
Krys-9,true,1.00,3571,433,3560,411,175010,0
Krys-10,false,0.28,28643,999,28641,999,931985,0
Krys-11,true,1.00,246,425,234,401,9046,0
Krys-12,false,0.70,23601,999,23592,999,762627,0
Krys-13,true,1.00,4512,496,4504,474,222819,0
Krys-14,false,0.79,23886,999,23877,999,735488,0
Krys-15,true,1.00,4498,462,4490,440,223755,0
Krys-16,false,0.69,22506,999,22498,999,716809,0
Krys-17,true,1.00,2842,487,2828,465,124830,0
Krys-18,true,1.00,2045,502,2029,480,96427,0
Krys-19,true,1.00,4893,488,4879,466,229659,0
Krys-20,true,1.00,3656,592,3636,565,164437,0
Krys-21,true,1.00,2362,418,2356,393,118117,0
Krys-22,true,1.00,2801,399,2791,368,145554,0
Krys-23,true,1.00,2315,500,2304,472,106873,0
Krys-24,false,0.70,22387,999,22373,999,687595,0
Krys-25,true,1.00,2444,438,2430,407,103876,0
Krys-26,true,1.00,6097,497,6084,475,271753,0
Krys-27,true,1.00,1925,417,1905,393,81719,0
Krys-28,true,1.00,6063,582,6046,551,218104,0
Krys-29,true,1.00,1603,485,1582,467,54635,0
Krys-30,true,1.00,2210,553,2192,526,83886,0
Krys-31,true,1.00,1373,492,1360,467,60737,0
Krys-32,true,1.00,532,435,513,423,20220,0
Krys-33,true,1.00,461,383,445,358,19164,0
Krys-34,true,1.00,2865,452,2849,433,112384,0
Krys-35,true,1.00,3983,419,3970,389,177856,0
Krys-36,false,0.28,29668,999,29660,999,890628,0
Krys-37,true,1.00,5387,471,5372,453,160133,0
Krys-38,true,1.00,5518,509,5504,478,248518,0
Krys-39,true,1.00,5792,527,5781,507,243818,0
Krys-40,true,1.00,4255,463,4240,448,189331,0
Krys-41,false,0.70,25584,999,25573,999,782814,0
Krys-42,true,1.00,4169,532,4143,510,174783,0
Krys-43,true,1.00,3135,406,3127,381,114322,0
Krys-44,true,1.00,4481,516,4459,494,137574,0
Krys-45,true,1.00,987,490,963,469,36532,0
Krys-46,true,1.00,2578,532,2557,507,106572,0
Krys-47,true,1.00,913,470,894,448,40573,0
Krys-48,true,1.00,3728,437,3720,416,179530,0
Krys-49,true,1.00,959,392,945,370,47001,0
Krys-50,true,1.00,5469,526,5458,501,257470,0
Krys-51,true,1.00,3782,456,3768,431,197188,0
Krys-52,true,1.00,1609,498,1590,473,68742,0
Krys-53,true,1.00,2129,446,2113,425,90327,0
Krys-54,true,1.00,4106,536,4092,511,198698,0
Krys-55,true,1.00,3343,518,3334,490,145609,0
Krys-56,false,0.59,24714,999,24711,999,779638,0
Krys-57,true,1.00,1702,378,1686,353,80885,0
Krys-58,true,1.00,3776,489,3767,477,159278,0
Krys-59,false,0.38,29137,999,29133,999,836244,0
Krys-60,true,1.00,3183,441,3164,421,141523,0
Krys-61,false,0.48,26204,999,26200,999,820540,0
Krys-62,true,1.00,1031,480,1011,456,39876,0
Krys-63,true,1.00,4721,612,4700,586,201950,0
Krys-64,true,1.00,2009,497,1987,483,93033,0
Krys-65,true,1.00,2984,530,2968,514,124798,0
Krys-66,true,1.00,3211,577,3197,549,132734,0
Krys-67,true,1.00,2323,553,2310,531,104404,0
Krys-68,true,1.00,3508,380,3500,358,170183,0
Krys-69,false,0.48,25442,999,25439,999,806163,0
Krys-70,true,1.00,4293,498,4278,472,185780,0
Krys-71,true,1.00,3327,397,3321,375,167334,0
Krys-72,true,1.00,1181,527,1162,507,53274,0
Krys-73,false,0.80,21158,999,21150,999,693794,0
Krys-74,true,1.00,2656,519,2641,497,118660,0
Krys-75,true,1.00,345,436,331,405,13865,0
Krys-76,true,1.00,3527,406,3517,390,166829,0
Krys-77,true,1.00,1828,424,1814,396,95227,0
Krys-78,false,0.91,22747,999,22736,999,808465,0
Krys-79,true,1.00,867,440,857,415,35257,0
Krys-80,true,1.00,548,417,537,396,21132,0
Krys-81,true,1.00,1343,444,1329,422,64010,0
Krys-82,true,1.00,1010,417,997,395,39603,0
Krys-83,true,1.00,4157,475,4141,452,184681,0
Krys-84,true,1.00,377,388,367,366,16914,0
Krys-85,true,1.00,3354,577,3344,546,150583,0
Krys-86,true,1.00,1751,416,1744,395,73204,0
Krys-87,true,1.00,569,374,557,362,21806,0
Krys-88,true,1.00,1657,431,1651,410,72924,0
Krys-89,true,1.00,1920,428,1906,415,89234,0
Krys-90,true,1.00,5621,460,5614,442,267304,0
Krys-91,true,1.00,332,411,321,398,15995,0
Krys-92,false,0.62,2368,374,2352,374,112263,0
Krys-93,true,1.00,2907,427,2897,400,143777,0
Krys-94,true,1.00,1854,411,1841,389,97144,0
Krys-95,true,1.00,1438,435,1419,408,64937,0
Krys-96,true,1.00,4102,478,4090,456,199732,0
Krys-97,true,1.00,2060,452,2043,427,94097,0
Krys-98,true,1.00,4517,625,4505,605,189125,0
Krys-99,true,1.00,1306,502,1288,471,51822,0
Krys-100,true,1.00,3382,402,3369,380,173301,0
