NDW:0.0
TTFW:1.2
DFPT:2.0
DFPAP:3.0
DFPMP:20.0
RIGHT_WINDOW_BORDER_X:115.0
level,win/fail,% travelled,run time,game ticks,planning time,total plannings,nodes evaluated,most backtracked nodes
hopper-1,true,1.00,1665,399,1663,389,159915,0
hopper-2,true,1.00,1773,369,1772,359,163519,0
hopper-3,true,1.00,1377,386,1374,376,138829,0
hopper-4,true,1.00,1095,361,1094,351,114941,0
hopper-5,true,1.00,2300,388,2295,378,214801,0
hopper-6,true,1.00,2141,383,2141,373,201360,0
hopper-7,true,1.00,1708,385,1703,375,154519,0
hopper-8,true,1.00,1145,377,1144,366,112157,0
hopper-9,true,1.00,2302,364,2299,354,217739,0
hopper-10,true,1.00,1284,361,1283,351,129311,0
hopper-11,true,1.00,1467,390,1465,380,143766,0
hopper-12,true,1.00,931,334,931,324,91076,0
hopper-13,true,1.00,2409,444,2406,434,249167,0
hopper-14,true,1.00,1755,394,1753,383,166404,0
hopper-15,true,1.00,1869,349,1868,339,173742,0
hopper-16,true,1.00,3115,441,3112,428,321896,0
hopper-17,true,1.00,1314,351,1312,341,122833,0
hopper-18,true,1.00,1654,352,1653,342,153366,0
hopper-19,true,1.00,1111,348,1109,337,119929,0
hopper-20,true,1.00,3089,383,3088,373,299683,0
hopper-21,true,1.00,1285,368,1284,358,118589,0
hopper-22,false,0.33,2282,173,2281,173,160092,0
hopper-23,true,1.00,2048,371,2046,361,179697,0
hopper-24,true,1.00,1238,379,1235,369,114670,0
hopper-25,true,1.00,2474,383,2473,373,247528,0
hopper-26,true,1.00,1970,374,1969,360,182644,0
hopper-27,true,1.00,2056,394,2056,384,200099,0
hopper-28,true,1.00,2101,421,2099,411,220410,0
hopper-29,false,0.25,1190,111,1189,111,97266,0
hopper-30,true,1.00,1745,382,1743,372,167592,0
hopper-31,true,1.00,1881,399,1878,389,187503,0
hopper-32,true,1.00,2618,390,2618,380,250508,0
hopper-33,false,0.49,1662,206,1662,206,144406,0
hopper-34,true,1.00,1516,375,1514,365,148427,0
hopper-35,true,1.00,4389,510,4387,500,458434,0
hopper-36,true,1.00,1281,349,1279,339,119814,0
hopper-37,false,0.51,2514,232,2513,232,217931,0
hopper-38,true,1.00,4463,510,4459,500,499642,0
hopper-39,true,1.00,1283,369,1283,359,135652,0
hopper-40,true,1.00,1783,381,1781,371,159021,0
hopper-41,true,1.00,3024,421,3023,411,294215,0
hopper-42,true,1.00,1485,365,1484,355,136675,0
hopper-43,false,0.44,3080,227,3080,227,258829,0
hopper-44,true,1.00,1647,353,1643,343,158508,0
hopper-45,false,0.41,27737,999,27737,999,2183500,0
hopper-46,false,0.41,1259,189,1258,189,133287,0
hopper-47,true,1.00,3524,413,3523,403,343820,0
hopper-48,true,1.00,2368,386,2366,376,223656,0
hopper-49,true,1.00,4077,436,4076,426,392078,0
hopper-50,true,1.00,1222,382,1219,372,118792,0
hopper-51,true,1.00,1768,400,1766,390,176423,0
hopper-52,true,1.00,880,331,880,321,87273,0
hopper-53,false,0.63,6048,398,6048,398,521619,0
hopper-54,true,1.00,696,344,694,331,66958,0
hopper-55,true,1.00,1594,386,1591,375,165067,0
hopper-56,true,1.00,1475,357,1474,347,148490,0
hopper-57,true,1.00,1044,321,1041,311,94529,0
hopper-58,true,1.00,1955,401,1951,391,208897,0
hopper-59,true,1.00,1314,346,1312,336,134907,0
hopper-60,true,1.00,1359,376,1358,366,138299,0
hopper-61,true,1.00,1964,373,1964,363,184868,0
hopper-62,true,1.00,1849,370,1846,360,172258,0
hopper-63,true,1.00,1049,367,1045,357,105629,0
hopper-64,true,1.00,1978,376,1976,366,182837,0
hopper-65,true,1.00,1944,394,1942,383,181763,0
hopper-66,true,1.00,928,379,927,369,91780,0
hopper-67,true,1.00,1115,362,1113,352,106860,0
hopper-68,true,1.00,1288,370,1286,360,128131,0
hopper-69,true,1.00,1370,395,1367,385,129053,0
hopper-70,true,1.00,1639,365,1636,355,157761,0
hopper-71,true,1.00,618,323,615,313,58993,0
hopper-72,true,1.00,1707,352,1707,340,159631,0
hopper-73,true,1.00,2073,379,2072,369,192936,0
hopper-74,true,1.00,847,327,845,317,77165,0
hopper-75,true,1.00,1672,355,1670,345,153334,0
hopper-76,true,1.00,1682,405,1680,391,162674,0
hopper-77,true,1.00,1421,397,1417,387,130854,0
hopper-78,true,1.00,3136,421,3135,411,328093,0
hopper-79,true,1.00,1865,392,1863,382,190504,0
hopper-80,true,1.00,1818,357,1817,347,163301,0
hopper-81,true,1.00,3950,515,3946,505,363625,0
hopper-82,false,0.45,4894,288,4894,288,408634,0
hopper-83,true,1.00,3078,450,3078,440,296884,0
hopper-84,true,1.00,2183,398,2183,388,208401,0
hopper-85,true,1.00,1428,397,1425,387,132748,0
hopper-86,true,1.00,1997,385,1995,375,184318,0
hopper-87,true,1.00,4421,455,4418,445,420221,0
hopper-88,true,1.00,1920,378,1918,368,193725,0
hopper-89,true,1.00,2041,379,2036,369,193464,0
hopper-90,true,1.00,2547,391,2546,381,256226,0
hopper-91,true,1.00,3402,421,3401,411,323427,0
hopper-92,true,1.00,2503,394,2500,384,227969,0
hopper-93,true,1.00,919,341,916,331,90408,0
hopper-94,true,1.00,2546,426,2544,416,252372,0
hopper-95,true,1.00,1245,325,1242,315,122955,0
hopper-96,false,0.37,5873,287,5873,287,523447,0
hopper-97,true,1.00,2583,396,2580,386,236334,0
hopper-98,true,1.00,3561,422,3560,412,327205,0
hopper-99,true,1.00,3632,448,3629,438,354589,0
hopper-100,true,1.00,1748,377,1746,367,168231,0
