NDW:0.0
TTFW:0.8
DFPT:2.0
DFPAP:3.0
DFPMP:5.0
RIGHT_WINDOW_BORDER_X:176.0
level,win/fail,% travelled,run time,game ticks,planning time,total plannings,nodes evaluated,most backtracked nodes
hopper-1,true,1.00,1207,337,1202,321,117346,0
hopper-2,true,1.00,1064,319,1063,303,102648,0
hopper-3,true,1.00,1220,343,1217,327,126783,0
hopper-4,true,1.00,1713,357,1711,341,185538,0
hopper-5,true,1.00,934,317,932,301,88874,0
hopper-6,true,1.00,905,320,904,302,84558,0
hopper-7,true,1.00,1006,346,1005,330,95587,0
hopper-8,true,1.00,898,343,895,327,87756,0
hopper-9,true,1.00,1025,309,1024,294,101101,0
hopper-10,true,1.00,946,317,945,301,97452,0
hopper-11,true,1.00,805,323,803,307,78829,0
hopper-12,true,1.00,1013,325,1012,308,97509,0
hopper-13,true,1.00,1436,350,1433,334,150682,0
hopper-14,true,1.00,1249,327,1248,310,121199,0
hopper-15,true,1.00,1032,311,1028,295,97709,0
hopper-16,true,1.00,1781,383,1778,356,179305,0
hopper-17,true,1.00,1036,317,1035,301,96032,0
hopper-18,true,1.00,1033,311,1032,295,97479,0
hopper-19,true,1.00,1193,348,1188,332,126527,0
hopper-20,true,1.00,1151,332,1150,316,111037,0
hopper-21,true,1.00,913,338,912,322,90111,0
hopper-22,true,1.00,1257,367,1252,349,125358,0
hopper-23,true,1.00,1066,311,1064,295,101204,0
hopper-24,true,1.00,599,305,599,289,57659,0
hopper-25,true,1.00,1168,317,1164,301,113165,0
hopper-26,true,1.00,1099,313,1097,297,104804,0
hopper-27,true,1.00,969,321,965,305,95746,0
hopper-28,true,1.00,1623,363,1622,347,172243,0
hopper-29,true,1.00,1813,371,1810,355,184486,0
hopper-30,true,1.00,1757,356,1756,330,173484,0
hopper-31,true,1.00,1177,343,1176,327,123691,0
hopper-32,true,1.00,1395,317,1394,301,138225,0
hopper-33,false,0.49,1875,201,1875,201,150575,0
hopper-34,true,1.00,1031,341,1029,325,110317,0
hopper-35,true,1.00,1312,319,1311,303,134841,0
hopper-36,true,1.00,809,322,806,306,76934,0
hopper-37,false,0.51,2197,212,2196,212,174853,0
hopper-38,true,1.00,2496,399,2493,383,276330,0
hopper-39,true,1.00,1070,339,1069,323,113604,0
hopper-40,true,1.00,1002,328,999,309,91516,0
hopper-41,true,1.00,1662,353,1662,337,163878,0
hopper-42,true,1.00,997,315,996,299,90226,0
hopper-43,false,0.45,1634,167,1632,167,141723,0
hopper-44,true,1.00,1397,321,1396,305,133120,0
hopper-45,false,0.42,1573,174,1572,174,133431,0
hopper-46,false,0.66,4712,355,4710,355,400558,0
hopper-47,true,1.00,1656,333,1655,317,158967,0
hopper-48,true,1.00,1227,313,1223,297,115217,0
hopper-49,true,1.00,1369,339,1366,323,132823,0
hopper-50,true,1.00,1164,349,1160,333,117963,0
hopper-51,true,1.00,1055,350,1052,334,103938,0
hopper-52,true,1.00,699,310,697,294,71518,0
hopper-53,false,0.63,3250,264,3249,264,253463,0
hopper-54,true,1.00,582,301,582,282,42746,0
hopper-55,true,1.00,825,323,823,306,70338,0
hopper-56,true,1.00,773,301,771,285,65936,0
hopper-57,true,1.00,1405,325,1396,309,113338,0
hopper-58,true,1.00,2132,370,2131,354,187543,0
hopper-59,true,1.00,1613,339,1613,323,161484,0
hopper-60,true,1.00,912,319,909,303,93503,0
hopper-61,true,1.00,1204,333,1201,317,120352,0
hopper-62,true,1.00,1179,335,1178,319,112368,0
hopper-63,true,1.00,1065,341,1063,325,111304,0
hopper-64,true,1.00,1181,337,1180,321,110550,0
hopper-65,true,1.00,1049,321,1048,303,104613,0
hopper-66,true,1.00,771,339,769,323,82603,0
hopper-67,true,1.00,738,311,737,295,71477,0
hopper-68,true,1.00,652,326,651,310,63715,0
hopper-69,true,1.00,1661,402,1659,376,157734,0
hopper-70,true,1.00,1825,362,1821,346,182767,0
hopper-71,true,1.00,640,305,637,289,60345,0
hopper-72,true,1.00,1826,342,1825,325,172260,0
hopper-73,true,1.00,1076,331,1075,315,103299,0
hopper-74,true,1.00,731,309,729,293,67027,0
hopper-75,true,1.00,1613,334,1612,318,154915,0
hopper-76,true,1.00,1344,355,1341,339,137052,0
hopper-77,true,1.00,1037,338,1033,322,96995,0
hopper-78,true,1.00,1147,317,1145,301,118027,0
hopper-79,true,1.00,836,333,833,311,83121,0
hopper-80,true,1.00,784,319,782,303,73543,0
hopper-81,true,1.00,1190,352,1187,336,117001,0
hopper-82,false,0.46,2547,200,2546,200,211713,0
hopper-83,true,1.00,1300,325,1300,309,127919,0
hopper-84,true,1.00,1198,315,1195,299,115964,0
hopper-85,true,1.00,1261,359,1260,343,116191,0
hopper-86,true,1.00,1102,315,1097,299,108046,0
hopper-87,true,1.00,1043,327,1041,311,98358,0
hopper-88,true,1.00,1137,337,1134,321,119418,0
hopper-89,true,1.00,908,317,906,301,88601,0
hopper-90,true,1.00,1461,334,1460,318,155074,0
hopper-91,true,1.00,1063,311,1063,295,106322,0
hopper-92,true,1.00,1759,345,1757,329,163670,0
hopper-93,true,1.00,713,323,712,307,71205,0
hopper-94,true,1.00,1244,351,1243,335,129046,0
hopper-95,true,1.00,898,301,896,285,88730,0
hopper-96,true,1.00,1810,332,1809,316,176669,0
hopper-97,true,1.00,1409,331,1406,315,131956,0
hopper-98,true,1.00,1595,341,1593,325,152449,0
hopper-99,true,1.00,1698,341,1698,325,166435,0
hopper-100,true,1.00,1310,342,1308,323,125848,0
