NDW:0.0
TTFW:1.4
DFPT:2.0
DFPAP:3.0
DFPMP:0.0
RIGHT_WINDOW_BORDER_X:15.0
level,win/fail,% travelled,run time,game ticks,planning time,total plannings,nodes evaluated,most backtracked nodes
ore-1,false,0.10,991,298,987,298,125787,0
ore-2,false,0.13,12,122,7,122,2375,0
ore-3,false,0.04,216,129,215,129,35426,0
ore-4,false,0.20,38,239,36,239,7445,0
ore-5,false,0.16,1900,400,1897,400,237707,0
ore-6,false,0.04,86,110,86,110,14935,0
ore-7,false,0.04,141,114,140,114,23128,0
ore-8,false,0.09,147,129,146,129,20682,0
ore-9,false,0.04,86,110,86,110,14935,0
ore-10,false,0.11,77,197,76,197,16785,0
ore-11,false,0.04,87,110,87,110,14935,0
ore-12,false,0.10,624,163,623,163,96545,0
ore-13,false,0.18,124,270,124,270,15946,0
ore-14,false,0.14,106,217,105,217,14308,0
ore-15,false,0.12,480,296,466,296,57486,0
ore-16,false,0.25,626,357,625,357,71105,0
ore-17,false,0.15,222,245,219,245,33058,0
ore-18,false,0.09,204,211,204,211,30681,0
ore-19,false,0.07,46,89,46,89,8126,0
ore-20,false,0.07,680,209,674,209,81166,0
ore-21,false,0.26,1784,373,1782,373,196567,0
ore-22,false,0.12,4,115,3,115,856,0
ore-23,false,0.05,180,107,180,107,28944,0
ore-24,false,0.15,955,323,954,323,112247,0
ore-25,false,0.08,77,132,77,132,10281,0
ore-26,false,0.08,88,129,88,129,17008,0
ore-27,false,0.04,69,148,67,148,13816,0
ore-28,false,0.09,334,265,333,265,44746,0
ore-29,false,0.03,4,54,4,54,1016,0
ore-30,false,0.11,16,108,3,108,933,0
ore-31,false,0.16,319,265,316,265,38994,0
ore-32,false,0.07,45,141,44,141,9405,0
ore-33,false,0.11,505,192,503,192,62829,0
ore-34,false,0.11,60,198,60,198,12337,0
ore-35,false,0.11,63,135,62,135,10302,0
ore-36,false,0.25,276,322,274,322,30981,0
ore-37,false,0.10,59,166,57,166,10005,0
ore-38,false,0.09,286,200,285,200,40604,0
ore-39,false,0.09,178,116,174,116,21081,0
ore-40,false,0.10,807,192,805,192,82598,0
ore-41,false,0.08,371,218,370,218,45783,0
ore-42,false,0.05,72,88,70,88,12211,0
ore-43,false,0.05,248,124,247,124,41560,0
ore-44,false,0.04,72,148,72,148,14185,0
ore-45,false,0.18,1156,298,1131,298,130179,0
ore-46,false,0.08,169,107,167,107,18950,0
ore-47,false,0.15,386,241,386,241,47393,0
ore-48,false,0.14,872,261,871,261,98559,0
ore-49,false,0.04,86,110,84,110,14935,0
ore-50,false,0.04,107,133,106,133,18361,0
ore-51,false,0.06,135,160,135,160,23325,0
ore-52,false,0.05,71,88,71,88,12211,0
ore-53,false,0.07,728,164,727,164,97052,0
ore-54,false,0.04,85,110,85,110,14935,0
ore-55,false,0.04,98,115,96,115,16636,0
ore-56,false,0.13,778,284,778,284,99020,0
ore-57,false,0.15,346,258,344,258,38775,0
ore-58,false,0.09,279,142,278,142,30878,0
ore-59,false,0.08,737,201,737,201,80305,0
ore-60,false,0.09,820,214,818,214,91507,0
ore-61,false,0.21,263,290,261,290,31313,0
ore-62,false,0.04,85,110,85,110,14935,0
ore-63,false,0.07,640,158,638,158,75693,0
ore-64,false,0.18,652,349,652,349,68742,0
ore-65,false,0.19,348,260,346,260,37461,0
ore-66,false,0.10,212,158,212,158,26654,0
ore-67,false,0.17,1800,285,1798,285,192262,0
ore-68,false,0.08,851,197,849,197,103034,0
ore-69,false,0.19,77,224,75,224,16599,0
ore-70,false,0.06,7,79,6,79,1917,0
ore-71,false,0.09,11,96,11,96,2530,0
ore-72,false,0.09,250,187,249,187,34251,0
ore-73,false,0.20,703,356,700,356,91481,0
ore-74,false,0.05,9,71,9,71,2473,0
ore-75,false,0.08,1532,248,1531,248,182205,0
ore-76,false,0.08,657,179,655,179,78499,0
ore-77,false,0.15,242,148,241,148,26261,0
ore-78,false,0.11,673,192,672,192,76538,0
ore-79,false,0.19,2440,441,2438,441,297196,0
ore-80,false,0.13,298,271,296,271,38956,0
ore-81,false,0.08,50,138,48,138,10642,0
ore-82,false,0.19,1861,362,1859,362,215147,0
ore-83,false,0.14,246,192,244,192,28695,0
ore-84,false,0.05,71,88,71,88,12211,0
ore-85,false,0.12,439,234,439,234,57328,0
ore-86,false,0.14,1112,321,1110,321,139559,0
ore-87,false,0.09,253,176,252,176,34812,0
ore-88,false,0.11,245,172,243,172,30480,0
ore-89,false,0.08,840,226,840,226,99045,0
ore-90,false,0.01,1,13,0,13,238,0
ore-91,false,0.05,83,115,82,115,14375,0
ore-92,false,0.04,69,148,69,148,13816,0
ore-93,false,0.10,482,213,479,213,57077,0
ore-94,false,0.10,2568,382,2567,382,283095,0
ore-95,false,0.16,990,291,989,291,110797,0
ore-96,false,0.21,1113,429,1109,429,118547,0
ore-97,false,0.11,708,184,707,184,70954,0
ore-98,false,0.10,148,149,147,149,16478,0
ore-99,false,0.26,553,398,553,398,71702,0
ore-100,false,0.04,107,133,107,133,18361,0
