NDW:0.0
TTFW:1.4
DFPT:2.0
DFPAP:3.0
DFPMP:7.0
RIGHT_WINDOW_BORDER_X:115.0
level,win/fail,% travelled,run time,game ticks,planning time,total plannings,nodes evaluated,most backtracked nodes
notch-1,true,1.00,960,311,952,301,51586,0
notch-2,true,1.00,1093,294,1084,284,60045,0
notch-3,true,1.00,1082,308,1070,298,58338,0
notch-4,true,1.00,1307,310,1301,297,70329,0
notch-5,true,1.00,771,257,769,245,41774,0
notch-6,true,1.00,983,312,979,302,55059,0
notch-7,true,1.00,595,312,592,301,32635,0
notch-8,true,1.00,692,307,683,295,37699,0
notch-9,true,1.00,1263,299,1255,289,67640,0
notch-10,true,1.00,975,281,971,271,52576,0
notch-11,true,1.00,984,278,973,268,53373,0
notch-12,true,1.00,674,282,667,272,35837,0
notch-13,true,1.00,872,301,863,290,45477,0
notch-14,true,1.00,1089,293,1083,283,55884,0
notch-15,true,1.00,1256,297,1250,287,65601,0
notch-16,true,1.00,922,293,917,280,48263,0
notch-17,true,1.00,1346,304,1338,294,71330,0
notch-18,true,1.00,957,360,948,349,52288,0
notch-19,true,1.00,1102,265,1096,254,60048,0
notch-20,true,1.00,1056,339,1047,329,58408,0
notch-21,true,1.00,1132,331,1125,321,62686,0
notch-22,true,1.00,720,257,714,247,38054,0
notch-23,true,1.00,1101,309,1090,299,59356,0
notch-24,true,1.00,631,267,622,257,33835,0
notch-25,true,1.00,1267,327,1259,316,70280,0
notch-26,true,1.00,965,311,957,299,53775,0
notch-27,true,1.00,1325,331,1322,321,76078,0
notch-28,true,1.00,1000,270,991,260,56240,0
notch-29,true,1.00,1075,337,1067,327,57955,0
notch-30,true,1.00,1037,279,1026,267,54599,0
notch-31,true,1.00,767,298,757,288,41626,0
notch-32,true,1.00,895,302,887,291,48282,0
notch-33,true,1.00,828,277,823,267,44858,0
notch-34,true,1.00,917,275,911,265,51407,0
notch-35,true,1.00,807,326,795,316,44498,0
notch-36,true,1.00,1155,334,1143,324,62392,0
notch-37,true,1.00,1403,320,1391,307,47581,0
notch-38,true,1.00,1284,380,1266,367,47921,0
notch-39,true,1.00,677,246,674,235,36943,0
notch-40,true,1.00,1123,289,1117,278,60270,0
notch-41,false,0.42,405,122,403,122,21049,0
notch-42,true,1.00,957,282,951,271,49921,0
notch-43,true,1.00,938,285,931,275,49016,0
notch-44,true,1.00,630,239,623,229,33203,0
notch-45,true,1.00,907,293,901,283,47024,0
notch-46,true,1.00,912,285,903,275,44475,0
notch-47,true,1.00,1191,287,1178,277,35219,0
notch-48,true,1.00,1467,289,1452,279,58063,0
notch-49,true,1.00,1027,302,1010,289,26997,0
notch-50,true,1.00,976,299,963,289,34559,0
notch-51,true,1.00,862,276,855,263,44595,0
notch-52,true,1.00,940,309,932,299,49618,0
notch-53,true,1.00,412,283,404,272,20477,0
notch-54,true,1.00,1084,326,1076,315,57111,0
notch-55,true,1.00,2033,311,2028,301,111024,0
notch-56,true,1.00,716,268,709,258,38823,0
notch-57,true,1.00,798,317,792,307,43523,0
notch-58,true,1.00,1433,359,1422,348,77505,0
notch-59,true,1.00,704,289,691,275,37980,0
notch-60,true,1.00,1034,306,1029,296,55497,0
notch-61,true,1.00,1075,259,1068,249,58843,0
notch-62,true,1.00,745,313,741,303,41001,0
notch-63,true,1.00,1483,358,1473,348,83940,0
notch-64,true,1.00,1385,300,1380,290,76384,0
notch-65,true,1.00,1419,372,1409,361,81094,0
notch-66,true,1.00,1163,318,1159,308,62180,0
notch-67,true,1.00,1370,298,1364,287,72027,0
notch-68,true,1.00,533,264,526,254,28111,0
notch-69,true,1.00,1365,305,1357,295,55091,0
notch-70,true,1.00,1188,318,1172,308,42708,0
notch-71,true,1.00,1268,293,1260,283,57366,0
notch-72,true,1.00,892,267,887,257,49291,0
notch-73,true,1.00,891,318,886,308,48092,0
notch-74,true,1.00,712,294,709,283,39138,0
notch-75,true,1.00,1524,326,1515,316,81338,0
notch-76,true,1.00,1251,326,1244,315,68671,0
notch-77,true,1.00,811,283,806,273,43811,0
notch-78,true,1.00,1012,300,1008,289,54165,0
notch-79,true,1.00,1022,342,1014,331,55169,0
notch-80,true,1.00,600,258,595,248,31560,0
notch-81,true,1.00,1179,280,1175,268,63283,0
notch-82,true,1.00,876,270,868,260,46270,0
notch-83,true,1.00,1167,327,1160,315,62111,0
notch-84,true,1.00,956,285,951,274,50176,0
notch-85,true,1.00,669,282,667,271,36461,0
notch-86,true,1.00,989,279,982,269,52395,0
notch-87,true,1.00,983,259,977,249,52146,0
notch-88,true,1.00,1237,325,1232,314,67655,0
notch-89,true,1.00,1093,296,1083,286,59558,0
notch-90,true,1.00,1430,302,1422,292,77678,0
notch-91,true,1.00,2330,395,2319,384,130045,0
notch-92,true,1.00,1070,325,1059,315,57823,0
notch-93,true,1.00,982,294,977,280,51823,0
notch-94,true,1.00,1552,341,1546,331,84605,0
notch-95,true,1.00,691,259,682,249,36044,0
notch-96,true,1.00,865,278,858,268,47585,0
notch-97,true,1.00,1191,289,1185,279,64297,0
notch-98,true,1.00,1385,331,1380,321,73241,0
notch-99,true,1.00,1287,356,1281,343,71739,0
notch-100,true,1.00,954,303,949,292,51021,0
