NDW:0.0
TTFW:0.2
DFPT:2.0
DFPAP:3.0
DFPMP:0.0
RIGHT_WINDOW_BORDER_X:55.0
level,win/fail,% travelled,run time,game ticks,planning time,total plannings,nodes evaluated,most backtracked nodes
notchParam-1,false,0.36,3161,400,3159,400,273535,0
notchParam-2,false,0.36,3964,365,3964,365,379012,0
notchParam-3,true,1.00,5678,850,5673,845,523879,0
notchParam-4,true,1.00,4923,865,4920,855,432557,0
notchParam-5,false,0.97,8607,999,8602,999,738559,0
notchParam-6,false,0.93,8321,999,8316,999,742422,0
notchParam-7,false,0.36,3783,367,3783,367,365336,0
notchParam-8,false,0.57,6287,635,6285,635,581191,0
notchParam-9,false,0.57,3942,638,3941,638,353361,0
notchParam-10,false,0.17,27333,999,27331,999,2142613,0
notchParam-11,false,0.94,6589,999,6582,999,574463,0
notchParam-12,false,0.18,2250,234,2249,234,198186,0
notchParam-13,true,1.00,1872,753,1866,740,178010,0
notchParam-14,true,1.00,2268,794,2267,787,209606,0
notchParam-15,false,0.36,2021,340,2018,340,175175,0
notchParam-16,false,0.36,2929,344,2928,344,279454,0
notchParam-17,false,0.36,3477,356,3476,356,311026,0
notchParam-18,true,1.00,2250,730,2249,722,218304,0
notchParam-19,true,1.00,2785,687,2782,680,262469,0
notchParam-20,true,1.00,2172,794,2169,781,200028,0
notchParam-21,true,1.00,2494,733,2492,726,208111,0
notchParam-22,false,0.67,1508,546,1503,546,148113,0
notchParam-23,false,0.44,8295,540,8292,540,796916,0
notchParam-24,false,0.18,2469,245,2467,245,234897,0
notchParam-25,false,0.31,9020,562,9019,562,733589,0
notchParam-26,false,0.44,5412,468,5409,468,478408,0
notchParam-27,true,1.00,1571,737,1566,730,158994,0
notchParam-28,true,1.00,5324,881,5322,874,477806,0
notchParam-29,false,0.97,8030,999,8027,999,704637,0
notchParam-30,true,1.00,1429,736,1425,729,138677,0
notchParam-31,false,0.36,2597,387,2595,387,228619,0
notchParam-32,false,0.36,3477,356,3475,356,311725,0
notchParam-33,false,0.67,3298,615,3292,615,293516,0
notchParam-34,false,0.36,1769,356,1768,356,157225,0
notchParam-35,false,0.35,24496,999,24492,999,2223673,0
notchParam-36,false,0.36,3473,358,3472,358,311385,0
notchParam-37,true,1.00,2654,772,2647,765,232101,0
notchParam-38,true,1.00,2588,765,2583,758,247449,0
notchParam-39,false,0.37,1768,308,1766,308,171587,0
notchParam-40,true,1.00,5111,994,5107,987,450309,0
notchParam-41,true,1.00,5193,947,5191,940,472126,0
notchParam-42,true,1.00,816,729,812,722,91968,0
notchParam-43,false,0.30,24435,999,24434,999,2063312,0
notchParam-44,false,0.17,26972,999,26971,999,2374066,0
notchParam-45,false,0.31,3638,327,3638,327,319185,0
notchParam-46,false,0.44,9074,557,9070,557,748114,0
notchParam-47,true,1.00,1269,623,1267,618,122553,0
notchParam-48,true,1.00,2095,747,2091,739,211597,0
notchParam-49,true,1.00,1805,768,1801,761,175496,0
notchParam-50,true,1.00,1936,781,1933,774,182213,0
notchParam-51,true,1.00,3263,801,3259,794,298368,0
notchParam-52,false,0.36,3128,363,3127,363,297988,0
notchParam-53,false,0.37,1830,365,1827,365,167876,0
notchParam-54,false,0.36,4032,399,4031,399,365882,0
notchParam-55,true,1.00,2145,760,2136,753,212597,0
notchParam-56,true,1.00,2168,763,2166,756,207028,0
notchParam-57,false,0.31,2717,332,2715,332,234137,0
notchParam-58,true,1.00,6039,928,6035,915,543730,0
notchParam-59,false,0.18,3768,266,3768,266,359562,0
notchParam-60,false,0.45,5492,556,5487,556,483845,0
notchParam-61,false,0.19,2194,228,2194,228,195537,0
notchParam-62,false,0.36,4202,406,4202,406,336359,0
notchParam-63,false,0.18,1115,200,1114,200,98550,0
notchParam-64,false,0.88,7200,999,7198,999,628115,0
notchParam-65,true,1.00,6937,984,6932,979,630349,0
notchParam-66,false,0.82,10424,997,10417,997,941777,0
notchParam-67,false,0.36,3597,365,3596,365,348131,0
notchParam-68,false,0.36,3941,391,3940,391,341504,0
notchParam-69,false,0.35,23623,999,23620,999,1844207,0
notchParam-70,false,0.36,4020,396,4019,396,366741,0
notchParam-71,true,1.00,7422,883,7420,876,694513,0
notchParam-72,true,1.00,5330,821,5328,813,493555,0
notchParam-73,true,1.00,5799,982,5793,975,518083,0
notchParam-74,true,1.00,6369,957,6367,950,557725,0
notchParam-75,true,1.00,5381,950,5377,943,502066,0
notchParam-76,false,0.31,4092,422,4088,422,370521,0
notchParam-77,true,1.00,7611,979,7606,966,689277,0
notchParam-78,false,0.43,22048,999,22047,999,1897289,0
notchParam-79,false,0.99,7076,999,7070,999,646779,0
notchParam-80,true,1.00,1581,719,1577,712,161708,0
notchParam-81,true,1.00,5665,936,5657,929,520121,0
notchParam-82,true,1.00,2416,758,2412,745,229326,0
notchParam-83,true,1.00,1925,743,1920,736,194316,0
notchParam-84,false,0.37,1315,315,1315,315,119459,0
notchParam-85,false,0.36,3959,365,3957,365,380278,0
notchParam-86,false,0.14,200,130,200,130,20070,0
notchParam-87,true,1.00,1577,748,1575,741,151882,0
notchParam-88,true,1.00,1994,732,1993,724,195016,0
notchParam-89,true,1.00,1849,737,1845,727,178393,0
notchParam-90,true,1.00,2441,774,2437,767,233619,0
notchParam-91,false,0.43,9445,610,9444,610,761532,0
notchParam-92,false,0.18,1012,194,1012,194,91618,0
notchParam-93,false,0.19,2122,225,2121,225,183221,0
notchParam-94,false,0.31,1998,334,1995,334,181311,0
notchParam-95,false,0.18,2902,232,2901,232,281931,0
notchParam-96,true,1.00,5399,959,5393,947,493659,0
notchParam-97,true,1.00,6762,816,6759,811,584179,0
notchParam-98,true,1.00,2257,806,2255,799,209715,0
notchParam-99,false,0.35,24431,999,24431,999,2214736,0
notchParam-100,false,0.37,1793,338,1793,338,161022,0
