NDW:0.0
TTFW:2.0
DFPT:2.0
DFPAP:3.0
DFPMP:20.0
RIGHT_WINDOW_BORDER_X:15.0
level,win/fail,% travelled,run time,game ticks,planning time,total plannings,nodes evaluated,most backtracked nodes
notch-1,false,0.12,8,60,7,60,306,0
notch-2,false,0.10,6,52,4,52,276,0
notch-3,false,0.14,9,67,8,67,328,0
notch-4,false,0.11,221,110,219,110,8755,0
notch-5,false,0.24,155,157,148,157,7019,0
notch-6,false,0.10,7,53,3,53,285,0
notch-7,false,0.11,12,66,10,66,446,0
notch-8,false,0.11,321,108,315,108,12301,0
notch-9,false,0.19,1643,195,1637,195,74140,0
notch-10,false,0.11,911,131,906,131,42222,0
notch-11,false,0.18,254,125,247,125,10873,0
notch-12,false,0.31,233,197,229,197,10190,0
notch-13,false,0.24,1038,226,1035,226,47482,0
notch-14,false,0.11,6,57,6,57,302,0
notch-15,false,0.12,653,151,650,151,31395,0
notch-16,false,0.12,218,108,216,108,10320,0
notch-17,false,0.12,621,142,617,142,29271,0
notch-18,false,0.10,8,53,5,53,285,0
notch-19,false,0.12,215,96,213,96,9580,0
notch-20,false,0.11,7,57,5,57,302,0
notch-21,false,0.10,9,57,8,57,311,0
notch-22,false,0.23,12,108,6,108,463,0
notch-23,false,0.18,629,188,622,188,29496,0
notch-24,false,0.17,12,88,10,88,539,0
notch-25,false,0.18,22,124,18,124,971,0
notch-26,false,0.18,246,108,242,108,10403,0
notch-27,false,0.12,286,109,281,109,13563,0
notch-28,false,0.09,313,96,309,96,14733,0
notch-29,false,0.11,7,53,4,53,284,0
notch-30,false,0.12,521,115,518,115,21482,0
notch-31,false,0.12,7,55,6,55,291,0
notch-32,false,0.15,12,80,7,80,508,0
notch-33,false,0.18,1100,223,1090,223,46967,0
notch-34,false,0.10,8,56,5,56,303,0
notch-35,false,0.23,286,139,284,139,12798,0
notch-36,false,0.13,186,99,181,99,8148,0
notch-37,false,0.12,249,101,247,101,10595,0
notch-38,false,0.11,816,151,812,151,37055,0
notch-39,false,0.13,8,61,5,61,307,0
notch-40,false,0.11,613,109,611,109,27547,0
notch-41,false,0.30,514,208,513,208,21541,0
notch-42,false,0.10,8,55,7,55,312,0
notch-43,false,0.15,251,115,249,115,11560,0
notch-44,false,0.06,9,43,8,43,366,0
notch-45,false,0.11,228,114,226,114,9605,0
notch-46,false,0.19,95,146,92,146,3705,0
notch-47,false,0.11,621,136,621,136,29592,0
notch-48,false,0.13,212,97,207,97,10311,0
notch-49,false,0.30,159,165,152,165,6716,0
notch-50,false,0.23,582,152,575,152,27575,0
notch-51,false,0.11,8,57,6,57,311,0
notch-52,false,0.21,622,176,615,176,28221,0
notch-53,false,0.09,278,79,276,79,12993,0
notch-54,false,0.13,215,98,211,98,9926,0
notch-55,false,0.13,184,101,180,101,8237,0
notch-56,false,0.10,217,105,213,105,10261,0
notch-57,false,0.14,1245,145,1242,145,51550,0
notch-58,false,0.14,16,96,11,96,654,0
notch-59,false,0.13,223,136,217,136,10363,0
notch-60,false,0.12,518,115,517,115,21693,0
notch-61,false,0.14,251,111,248,111,11630,0
notch-62,false,0.11,259,117,257,117,12278,0
notch-63,false,0.09,7,55,4,55,312,0
notch-64,false,0.12,648,142,646,142,30743,0
notch-65,false,0.10,7,57,6,57,307,0
notch-66,false,0.16,281,114,280,114,13218,0
notch-67,false,0.12,225,114,223,114,9928,0
notch-68,false,0.14,187,105,183,105,8061,0
notch-69,false,0.13,218,102,214,102,9648,0
notch-70,false,0.12,280,100,276,100,13196,0
notch-71,false,0.11,695,136,689,136,31779,0
notch-72,false,0.07,6,40,3,40,246,0
notch-73,false,0.10,620,134,619,134,29368,0
notch-74,false,0.13,243,84,239,84,9765,0
notch-75,false,0.10,284,108,279,108,12801,0
notch-76,false,0.13,190,97,185,97,7937,0
notch-77,false,0.13,621,136,617,136,27974,0
notch-78,false,0.14,259,134,254,134,11530,0
notch-79,false,0.10,7,52,7,52,276,0
notch-80,false,0.17,11,85,8,85,411,0
notch-81,false,0.12,220,99,216,99,9465,0
notch-82,false,0.11,9,57,4,57,302,0
notch-83,false,0.11,658,151,650,151,29697,0
notch-84,false,0.12,524,144,522,144,23738,0
notch-85,false,0.16,268,151,259,151,11456,0
notch-86,false,0.18,411,106,407,106,16714,0
notch-87,false,0.10,277,80,276,80,12205,0
notch-88,false,0.11,643,114,639,114,27737,0
notch-89,false,0.17,655,151,652,151,29345,0
notch-90,false,0.20,1197,228,1192,228,53363,0
notch-91,false,0.15,479,114,475,114,19845,0
notch-92,false,0.11,7,57,4,57,311,0
notch-93,false,0.09,294,82,292,82,13965,0
notch-94,false,0.14,286,111,285,111,12566,0
notch-95,false,0.17,657,172,656,172,30498,0
notch-96,false,0.15,9,74,8,74,353,0
notch-97,false,0.09,891,136,884,136,42150,0
notch-98,false,0.12,220,113,216,113,10187,0
notch-99,false,0.11,214,90,210,90,10396,0
notch-100,false,0.12,215,100,209,100,9873,0
