NDW:0.0
TTFW:2.0
DFPT:2.0
DFPAP:3.0
DFPMP:2.0
RIGHT_WINDOW_BORDER_X:15.0
level,win/fail,% travelled,run time,game ticks,planning time,total plannings,nodes evaluated,most backtracked nodes
ge-1,false,0.22,534,178,530,178,22088,0
ge-2,false,0.15,17,87,15,87,631,0
ge-3,false,0.50,33,223,26,223,1128,0
ge-4,false,0.09,166,88,160,88,7181,0
ge-5,false,0.43,22,166,18,166,863,0
ge-6,false,0.55,511,303,500,303,22713,0
ge-7,false,0.43,878,276,867,276,38298,0
ge-8,false,0.66,42,292,30,292,1538,0
ge-9,false,0.12,8,54,6,54,293,0
ge-10,false,0.07,5,38,4,38,237,0
ge-11,false,0.30,33,184,25,184,1211,0
ge-12,false,0.25,11,104,10,104,455,0
ge-13,false,0.20,16,98,16,98,536,0
ge-14,false,0.20,13,98,9,98,536,0
ge-15,false,0.37,261,189,259,189,11514,0
ge-16,false,0.08,5,44,4,44,271,0
ge-17,false,0.24,184,128,177,128,8131,0
ge-18,false,0.09,119,81,116,81,5162,0
ge-19,false,0.18,630,149,623,149,26992,0
ge-20,false,0.35,19,147,12,147,722,0
ge-21,false,0.35,559,190,554,190,22569,0
ge-22,false,0.67,34,258,23,258,1169,0
ge-23,false,0.31,324,173,317,173,13092,0
ge-24,false,0.45,29,205,22,205,1177,0
ge-25,false,0.12,10,56,8,56,303,0
ge-26,false,0.48,282,245,277,245,12629,0
ge-27,true,1.00,59,409,42,407,1910,0
ge-28,false,0.36,291,182,287,182,12273,0
ge-29,false,0.37,176,206,171,206,7380,0
ge-30,false,0.07,5,38,4,38,237,0
ge-31,false,0.24,185,132,182,132,7954,0
ge-32,false,0.80,591,398,579,398,23955,0
ge-33,false,0.78,252,350,241,350,10102,0
ge-34,false,0.12,156,100,154,100,7068,0
ge-35,false,0.17,1182,194,1178,194,48768,0
ge-36,false,0.10,316,107,315,107,13954,0
ge-37,false,0.90,853,450,833,450,38515,0
ge-38,false,0.21,14,98,12,98,624,0
ge-39,false,0.17,9,73,6,73,375,0
ge-40,true,1.00,37,373,26,371,1406,0
ge-41,false,0.18,12,84,10,84,555,0
ge-42,false,0.17,8,72,6,72,350,0
ge-43,false,0.08,8,44,5,44,271,0
ge-44,false,0.33,273,211,265,211,11876,0
ge-45,false,0.10,11,61,9,61,467,0
ge-46,false,0.13,6,57,3,57,302,0
ge-47,false,0.16,220,118,215,118,10353,0
ge-48,false,0.29,21,133,18,133,855,0
ge-49,false,0.61,23,229,15,229,856,0
ge-50,false,0.34,421,179,416,179,19396,0
ge-51,false,0.35,21,159,18,159,846,0
ge-52,false,0.12,8,54,7,54,293,0
ge-53,false,0.22,533,178,527,178,24084,0
ge-54,false,0.52,30,233,21,233,1397,0
ge-55,false,0.15,12,74,10,74,464,0
ge-56,false,0.12,1053,164,1046,164,47602,0
ge-57,false,0.06,4,30,3,30,209,0
ge-58,false,0.44,56,253,47,253,2465,0
ge-59,false,0.37,202,219,198,219,9761,0
ge-60,false,0.20,15,100,13,100,599,0
ge-61,false,0.20,12,94,8,94,521,0
ge-62,false,0.27,10,109,6,109,478,0
ge-63,false,0.20,14,83,8,83,381,0
ge-64,false,0.08,8,38,6,38,241,0
ge-65,false,0.38,269,222,263,222,12756,0
ge-66,false,0.24,10,95,7,95,421,0
ge-67,false,0.49,30,223,22,223,1164,0
ge-68,false,0.12,8,53,5,53,285,0
ge-69,false,0.06,5,30,5,30,215,0
ge-70,false,0.66,37,289,27,289,1573,0
ge-71,false,0.06,5,31,5,31,219,0
ge-72,false,0.56,29,230,24,230,1092,0
ge-73,false,0.15,214,97,212,97,10326,0
ge-74,false,0.23,27,110,25,110,1104,0
ge-75,false,0.17,8,74,5,74,356,0
ge-76,false,0.12,7,54,6,54,293,0
ge-77,false,0.11,250,90,243,90,11074,0
ge-78,false,0.56,376,303,365,303,17031,0
ge-79,false,0.30,13,117,8,117,484,0
ge-80,true,1.00,49,389,32,387,1822,0
ge-81,true,1.00,45,396,34,394,1834,0
ge-82,false,0.41,17,156,12,156,610,0
ge-83,false,0.09,111,77,107,77,5420,0
ge-84,false,0.12,8,54,7,54,293,0
ge-85,false,0.40,17,166,11,166,735,0
ge-86,false,0.36,259,176,254,176,11577,0
ge-87,false,0.12,6,56,4,56,303,0
ge-88,false,0.17,256,127,251,127,12518,0
ge-89,false,0.21,18,111,17,111,875,0
ge-90,false,0.83,36,316,29,316,1372,0
ge-91,false,0.87,262,415,250,415,11991,0
ge-92,false,0.81,43,333,30,333,1684,0
ge-93,false,0.40,162,210,154,210,7307,0
ge-94,false,0.16,13,85,10,85,542,0
ge-95,false,0.10,10,61,9,61,467,0
ge-96,false,0.07,6,38,5,38,237,0
ge-97,false,0.51,18,192,13,192,729,0
ge-98,true,1.00,38,373,26,371,1485,0
ge-99,false,0.18,11,77,6,77,464,0
ge-100,false,0.12,244,86,243,86,11563,0
