NDW:0.0
TTFW:0.8
DFPT:2.0
DFPAP:3.0
DFPMP:1.0
RIGHT_WINDOW_BORDER_X:255.0
level,win/fail,% travelled,run time,game ticks,planning time,total plannings,nodes evaluated,most backtracked nodes
Krys-1,true,1.00,7634,544,7630,503,499834,0
Krys-2,true,1.00,1461,368,1458,322,94556,0
Krys-3,true,1.00,6677,539,6672,501,486674,0
Krys-4,true,1.00,2745,517,2741,415,176474,0
Krys-5,true,1.00,1843,356,1842,310,166726,0
Krys-6,true,1.00,1102,361,1098,322,87748,0
Krys-7,true,1.00,346,323,344,283,27756,0
Krys-8,true,1.00,2465,463,2460,416,166210,0
Krys-9,true,1.00,1988,301,1986,266,184562,0
Krys-10,true,1.00,1810,340,1808,298,149575,0
Krys-11,true,1.00,451,374,448,331,29439,0
Krys-12,true,1.00,5601,493,5598,450,358883,0
Krys-13,true,1.00,2924,356,2921,304,246446,0
Krys-14,true,1.00,2023,396,2016,359,125337,0
Krys-15,true,1.00,4812,472,4809,423,418129,0
Krys-16,true,1.00,2597,404,2592,356,163759,0
Krys-17,true,1.00,1983,403,1980,357,130966,0
Krys-18,true,1.00,1328,431,1325,390,93464,0
Krys-19,true,1.00,2982,347,2978,308,243574,0
Krys-20,true,1.00,4513,559,4506,526,338624,0
Krys-21,true,1.00,1592,347,1591,303,156052,0
Krys-22,true,1.00,2258,311,2256,268,211386,0
Krys-23,true,1.00,1349,370,1345,328,89723,0
Krys-24,true,1.00,5816,416,5813,380,408729,0
Krys-25,true,1.00,3788,424,3786,376,262130,0
Krys-26,true,1.00,2335,290,2333,255,218816,0
Krys-27,true,1.00,3724,393,3721,357,284478,0
Krys-28,true,1.00,5001,487,4994,441,401165,0
Krys-29,true,1.00,2884,430,2880,395,180782,0
Krys-30,true,1.00,2625,451,2622,403,164792,0
Krys-31,true,1.00,1633,427,1629,381,111678,0
Krys-32,true,1.00,820,381,816,356,53335,0
Krys-33,true,1.00,496,327,493,286,36053,0
Krys-34,true,1.00,2776,412,2773,368,183224,0
Krys-35,true,1.00,1974,337,1972,298,170413,0
Krys-36,true,1.00,3480,380,3480,302,276944,0
Krys-37,true,1.00,4766,435,4764,403,378734,0
Krys-38,true,1.00,4799,470,4794,424,401267,0
Krys-39,true,1.00,3274,391,3271,320,253181,0
Krys-40,true,1.00,4082,426,4080,389,347586,0
Krys-41,false,0.70,26681,999,26680,999,1509693,0
Krys-42,true,1.00,2413,404,2412,363,222246,0
Krys-43,true,1.00,1750,344,1746,304,149213,0
Krys-44,true,1.00,7295,572,7294,523,556473,0
Krys-45,true,1.00,2315,419,2310,378,139031,0
Krys-46,true,1.00,1738,442,1738,399,113201,0
Krys-47,true,1.00,1670,426,1668,379,112817,0
Krys-48,true,1.00,1751,315,1751,272,162892,0
Krys-49,true,1.00,1662,408,1658,365,101704,0
Krys-50,true,1.00,6626,503,6624,463,452629,0
Krys-51,true,1.00,3677,402,3674,366,325382,0
Krys-52,true,1.00,2287,490,2280,454,142506,0
Krys-53,true,1.00,2036,475,2031,444,125440,0
Krys-54,true,1.00,3872,467,3871,430,316556,0
Krys-55,true,1.00,3391,458,3389,415,221778,0
Krys-56,true,1.00,549,332,546,292,43325,0
Krys-57,true,1.00,1814,306,1813,271,148364,0
Krys-58,true,1.00,2944,436,2942,391,185809,0
Krys-59,true,1.00,2824,404,2821,364,167576,0
Krys-60,true,1.00,2766,387,2764,316,214603,0
Krys-61,true,1.00,2666,403,2661,369,163092,0
Krys-62,true,1.00,2140,418,2137,370,117477,0
Krys-63,true,1.00,4970,607,4964,565,302486,0
Krys-64,true,1.00,3267,494,3265,454,222393,0
Krys-65,true,1.00,3379,508,3377,473,202390,0
Krys-66,true,1.00,2597,389,2592,356,150646,0
Krys-67,true,1.00,2644,459,2640,413,175325,0
Krys-68,true,1.00,3523,353,3522,317,299350,0
Krys-69,true,1.00,3547,478,3542,442,225636,0
Krys-70,false,0.80,25757,999,25756,999,1405469,0
Krys-71,true,1.00,3599,405,3598,358,323958,0
Krys-72,true,1.00,1414,473,1410,429,95177,0
Krys-73,false,0.80,24668,999,24665,999,1343954,0
Krys-74,true,1.00,2920,395,2915,354,204638,0
Krys-75,true,1.00,1242,414,1240,366,69341,0
Krys-76,true,1.00,4300,361,4296,324,350081,0
Krys-77,true,1.00,1549,371,1546,323,136159,0
Krys-78,true,1.00,6970,493,6967,459,442198,0
Krys-79,true,1.00,1335,390,1332,314,82483,0
Krys-80,true,1.00,615,385,613,341,42933,0
Krys-81,true,1.00,1320,394,1316,345,100414,0
Krys-82,true,1.00,1395,345,1392,311,84538,0
Krys-83,false,0.91,24531,999,24528,999,1391257,0
Krys-84,true,1.00,302,333,298,290,22911,0
Krys-85,true,1.00,3728,524,3723,478,239774,0
Krys-86,true,1.00,2113,376,2110,333,149570,0
Krys-87,true,1.00,1441,372,1438,347,84814,0
Krys-88,true,1.00,2378,423,2373,379,152947,0
Krys-89,true,1.00,2210,412,2205,372,144849,0
Krys-90,true,1.00,3005,323,3004,280,253112,0
Krys-91,true,1.00,423,341,421,301,30346,0
Krys-92,true,1.00,4824,497,4820,413,342198,0
Krys-93,true,1.00,1925,303,1922,269,174707,0
Krys-94,true,1.00,1408,352,1403,305,123209,0
Krys-95,true,1.00,1647,372,1641,319,96674,0
Krys-96,true,1.00,4736,409,4734,373,406945,0
Krys-97,false,0.70,2421,249,2419,249,160492,0
Krys-98,true,1.00,5515,539,5510,504,334123,0
Krys-99,true,1.00,1648,455,1645,414,99849,0
Krys-100,true,1.00,2228,333,2227,297,217261,0
