NDW:0.0
TTFW:0.4
DFPT:2.0
DFPAP:3.0
DFPMP:50.0
RIGHT_WINDOW_BORDER_X:15.0
level,win/fail,% travelled,run time,game ticks,planning time,total plannings,nodes evaluated,most backtracked nodes
hopper-1,false,0.13,213,121,213,121,16786,0
hopper-2,false,0.13,215,121,215,121,16868,0
hopper-3,false,0.31,300,254,297,254,25082,0
hopper-4,false,0.14,7,113,7,113,1538,0
hopper-5,false,0.13,214,121,214,121,16828,0
hopper-6,false,0.14,8,113,8,113,1538,0
hopper-7,false,0.13,215,121,213,121,16836,0
hopper-8,false,0.13,213,121,213,121,16772,0
hopper-9,false,0.13,215,121,213,121,16819,0
hopper-10,false,0.24,7,150,5,150,1323,0
hopper-11,false,0.13,215,121,215,121,16944,0
hopper-12,false,0.14,8,113,7,113,1538,0
hopper-13,false,0.13,215,121,214,121,16861,0
hopper-14,false,0.13,213,121,213,121,16753,0
hopper-15,false,0.13,214,121,214,121,16799,0
hopper-16,false,0.13,213,121,213,121,16773,0
hopper-17,false,0.14,8,113,6,113,1538,0
hopper-18,false,0.15,3,91,3,91,684,0
hopper-19,false,0.17,9,120,8,120,1695,0
hopper-20,false,0.13,213,121,213,121,16784,0
hopper-21,false,0.13,215,121,215,121,16817,0
hopper-22,false,0.12,3,74,1,74,588,0
hopper-23,false,0.13,215,121,215,121,16819,0
hopper-24,false,0.13,214,121,214,121,16826,0
hopper-25,false,0.31,986,298,986,298,73665,0
hopper-26,false,0.13,215,121,215,121,16804,0
hopper-27,false,0.13,213,121,213,121,16768,0
hopper-28,false,0.13,214,121,213,121,16811,0
hopper-29,false,0.31,443,271,439,271,34675,0
hopper-30,false,0.13,214,121,214,121,16821,0
hopper-31,false,0.13,214,121,213,121,16776,0
hopper-32,false,0.17,10,120,10,120,1695,0
hopper-33,false,0.15,3,91,2,91,680,0
hopper-34,false,0.13,214,121,214,121,16779,0
hopper-35,false,0.13,214,121,213,121,16773,0
hopper-36,false,0.13,214,121,212,121,16773,0
hopper-37,false,0.14,8,113,7,113,1538,0
hopper-38,false,0.13,341,130,341,130,25609,0
hopper-39,false,0.24,8,154,5,154,1402,0
hopper-40,false,0.13,214,121,213,121,16734,0
hopper-41,false,0.24,687,260,685,260,55357,0
hopper-42,false,0.13,214,121,214,121,16760,0
hopper-43,false,0.13,213,121,213,121,16773,0
hopper-44,false,0.24,8,154,6,154,1402,0
hopper-45,false,0.13,213,121,213,121,16736,0
hopper-46,false,0.13,214,121,213,121,16818,0
hopper-47,false,0.16,3,93,2,93,689,0
hopper-48,false,0.13,214,121,214,121,16808,0
hopper-49,false,0.13,215,121,214,121,16845,0
hopper-50,false,0.13,214,121,214,121,16766,0
hopper-51,false,0.13,215,121,215,121,16762,0
hopper-52,false,0.22,4,126,2,126,821,0
hopper-53,false,0.13,215,121,215,121,16775,0
hopper-54,false,0.26,5,151,3,151,887,0
hopper-55,false,0.13,214,121,213,121,16787,0
hopper-56,false,0.29,1137,232,1137,232,84191,0
hopper-57,false,0.18,4,104,2,104,749,0
hopper-58,false,0.13,215,121,215,121,16827,0
hopper-59,false,0.13,213,121,212,121,16736,0
hopper-60,false,0.14,8,113,6,113,1538,0
hopper-61,false,0.13,214,121,214,121,16803,0
hopper-62,false,0.13,214,121,214,121,16787,0
hopper-63,false,0.28,516,294,514,294,42757,0
hopper-64,false,0.13,215,121,213,121,16820,0
hopper-65,false,0.13,214,121,214,121,16729,0
hopper-66,false,0.15,3,91,2,91,684,0
hopper-67,false,0.14,8,113,5,113,1538,0
hopper-68,false,0.14,8,113,8,113,1538,0
hopper-69,false,0.13,214,121,213,121,16790,0
hopper-70,false,0.13,214,121,213,121,16818,0
hopper-71,false,0.17,10,123,9,123,1700,0
hopper-72,false,0.13,214,121,214,121,16750,0
hopper-73,false,0.13,214,121,212,121,16782,0
hopper-74,false,0.13,215,121,215,121,16829,0
hopper-75,false,0.13,215,121,214,121,16832,0
hopper-76,false,0.13,214,121,213,121,16769,0
hopper-77,false,0.13,214,121,214,121,16725,0
hopper-78,false,0.25,4,148,3,148,880,0
hopper-79,false,0.13,214,121,214,121,16811,0
hopper-80,false,0.13,213,121,213,121,16769,0
hopper-81,false,0.13,214,121,214,121,16804,0
hopper-82,false,0.13,214,121,212,121,16844,0
hopper-83,false,0.13,214,121,214,121,16806,0
hopper-84,false,0.13,213,121,213,121,16710,0
hopper-85,false,0.16,3,93,3,93,685,0
hopper-86,false,0.13,214,121,212,121,16811,0
hopper-87,false,0.13,213,121,212,121,16779,0
hopper-88,false,0.13,214,121,213,121,16793,0
hopper-89,false,0.13,214,121,211,121,16777,0
hopper-90,false,0.13,215,121,214,121,16813,0
hopper-91,false,0.13,214,121,214,121,16840,0
hopper-92,false,0.13,214,121,213,121,16837,0
hopper-93,false,0.14,8,113,7,113,1538,0
hopper-94,false,0.13,214,121,214,121,16802,0
hopper-95,false,0.28,544,214,541,214,40280,0
hopper-96,false,0.13,213,121,213,121,16751,0
hopper-97,false,0.13,214,121,212,121,16814,0
hopper-98,false,0.13,215,121,213,121,16809,0
hopper-99,false,0.13,214,121,211,121,16801,0
hopper-100,false,0.13,215,121,214,121,16860,0
