NDW:0.0
TTFW:0.8
DFPT:2.0
DFPAP:3.0
DFPMP:7.0
RIGHT_WINDOW_BORDER_X:95.0
level,win/fail,% travelled,run time,game ticks,planning time,total plannings,nodes evaluated,most backtracked nodes
notch-1,true,1.00,1247,334,1244,324,66643,0
notch-2,true,1.00,2986,386,2977,376,169072,0
notch-3,true,1.00,1374,353,1363,343,72954,0
notch-4,true,1.00,2167,364,2161,354,114388,0
notch-5,true,1.00,1552,353,1546,343,82188,0
notch-6,true,1.00,2129,393,2123,384,115845,0
notch-7,true,1.00,1425,357,1422,348,77292,0
notch-8,true,1.00,1003,357,993,348,55302,0
notch-9,true,1.00,1977,350,1964,340,104752,0
notch-10,true,1.00,1429,355,1419,345,76558,0
notch-11,true,1.00,2260,368,2254,358,119254,0
notch-12,true,1.00,972,319,963,309,50324,0
notch-13,true,1.00,1457,345,1450,336,77249,0
notch-14,true,1.00,1289,322,1277,312,68233,0
notch-15,true,1.00,1027,305,1018,296,54801,0
notch-16,true,1.00,1308,333,1299,323,71168,0
notch-17,true,1.00,1357,352,1346,342,73875,0
notch-18,true,1.00,1810,395,1805,385,98188,0
notch-19,true,1.00,2005,339,1999,329,109541,0
notch-20,true,1.00,2003,364,1998,355,108976,0
notch-21,true,1.00,2027,370,2019,360,114471,0
notch-22,true,1.00,1451,359,1441,349,77926,0
notch-23,true,1.00,2949,398,2939,389,162374,0
notch-24,true,1.00,968,346,961,337,51922,0
notch-25,true,1.00,1645,377,1642,367,88636,0
notch-26,true,1.00,1235,330,1227,321,66174,0
notch-27,true,1.00,2461,378,2455,367,139395,0
notch-28,true,1.00,1212,348,1205,339,67219,0
notch-29,true,1.00,2531,395,2527,386,136178,0
notch-30,true,1.00,1546,321,1543,311,80159,0
notch-31,true,1.00,1119,345,1107,335,59944,0
notch-32,true,1.00,3259,413,3250,403,173244,0
notch-33,true,1.00,2403,372,2396,362,128294,0
notch-34,true,1.00,1229,334,1217,322,68455,0
notch-35,true,1.00,2004,384,1994,375,108387,0
notch-36,true,1.00,2670,368,2665,359,143907,0
notch-37,true,1.00,2992,423,2985,413,166835,0
notch-38,true,1.00,2309,415,2302,406,125084,0
notch-39,true,1.00,2126,362,2117,352,114079,0
notch-40,true,1.00,1353,321,1350,312,75217,0
notch-41,true,1.00,2566,385,2562,375,140195,0
notch-42,true,1.00,2297,362,2288,352,126981,0
notch-43,true,1.00,2215,381,2208,372,118579,0
notch-44,true,1.00,1712,352,1705,343,91106,0
notch-45,true,1.00,1872,338,1866,329,99275,0
notch-46,true,1.00,1979,357,1976,348,107985,0
notch-47,true,1.00,1531,370,1526,360,82013,0
notch-48,true,1.00,2930,393,2919,383,151633,0
notch-49,true,1.00,1773,377,1765,367,94412,0
notch-50,true,1.00,1018,346,1007,337,55421,0
notch-51,true,1.00,1020,318,1014,308,56392,0
notch-52,true,1.00,2404,382,2399,372,133270,0
notch-53,true,1.00,1063,336,1054,326,57965,0
notch-54,true,1.00,1538,355,1532,345,85516,0
notch-55,true,1.00,2684,413,2672,400,145428,0
notch-56,true,1.00,2178,387,2163,378,117228,0
notch-57,true,1.00,1338,344,1332,334,71954,0
notch-58,true,1.00,2561,421,2555,411,138135,0
notch-59,true,1.00,1130,345,1123,336,58568,0
notch-60,true,1.00,2516,372,2508,362,134289,0
notch-61,true,1.00,2161,360,2153,347,115153,0
notch-62,true,1.00,1638,339,1630,329,88789,0
notch-63,true,1.00,2777,410,2768,400,155153,0
notch-64,true,1.00,2308,368,2304,358,122687,0
notch-65,true,1.00,2968,405,2962,395,168036,0
notch-66,true,1.00,3339,432,3328,422,179699,0
notch-67,true,1.00,1881,344,1874,334,96627,0
notch-68,true,1.00,1988,369,1981,356,105915,0
notch-69,true,1.00,2247,417,2238,407,121391,0
notch-70,true,1.00,1951,367,1940,353,109113,0
notch-71,true,1.00,2623,394,2617,381,139096,0
notch-72,true,1.00,2116,389,2104,375,116552,0
notch-73,true,1.00,1246,351,1239,342,66776,0
notch-74,true,1.00,821,306,809,297,45528,0
notch-75,true,1.00,3641,450,3632,440,191617,0
notch-76,true,1.00,1993,371,1982,361,107270,0
notch-77,true,1.00,1835,342,1828,333,98809,0
notch-78,true,1.00,2299,388,2290,379,125861,0
notch-79,true,1.00,1371,385,1363,371,74855,0
notch-80,true,1.00,1201,337,1191,327,62459,0
notch-81,true,1.00,2867,372,2863,363,154235,0
notch-82,true,1.00,1920,396,1911,388,102665,0
notch-83,true,1.00,3352,443,3348,433,179820,0
notch-84,true,1.00,1614,330,1610,320,86376,0
notch-85,true,1.00,895,318,888,308,48024,0
notch-86,true,1.00,2334,382,2325,372,119262,0
notch-87,true,1.00,1511,318,1504,308,80198,0
notch-88,true,1.00,2021,349,2012,340,108729,0
notch-89,true,1.00,4346,476,4335,467,227017,0
notch-90,true,1.00,2508,400,2502,391,134461,0
notch-91,true,1.00,2793,403,2788,394,146836,0
notch-92,true,1.00,2187,364,2179,355,115797,0
notch-93,true,1.00,2027,387,2019,378,107249,0
notch-94,true,1.00,2068,364,2056,354,109740,0
notch-95,true,1.00,1774,342,1763,333,92790,0
notch-96,true,1.00,2403,384,2396,370,127760,0
notch-97,true,1.00,1294,362,1284,352,69947,0
notch-98,true,1.00,3195,403,3189,393,166697,0
notch-99,true,1.00,2379,398,2370,388,130425,0
notch-100,true,1.00,1962,399,1952,390,104432,0
