NDW:0.0
TTFW:1.4
DFPT:2.0
DFPAP:3.0
DFPMP:7.0
RIGHT_WINDOW_BORDER_X:275.0
level,win/fail,% travelled,run time,game ticks,planning time,total plannings,nodes evaluated,most backtracked nodes
ore-1,true,1.00,2130,453,2122,425,121783,0
ore-2,false,0.70,2996,320,2990,320,161195,0
ore-3,true,1.00,1574,437,1564,392,91009,0
ore-4,true,1.00,2322,507,2305,481,126361,0
ore-5,true,1.00,1860,405,1847,368,106713,0
ore-6,true,1.00,1524,455,1513,419,86909,0
ore-7,true,1.00,2268,436,2257,405,131556,0
ore-8,false,0.13,1885,90,1882,90,94475,0
ore-9,true,1.00,1145,372,1131,348,65485,0
ore-10,true,1.00,2446,489,2436,449,132941,0
ore-11,true,1.00,1607,452,1593,413,89617,0
ore-12,false,0.46,1664,227,1662,227,84854,0
ore-13,true,1.00,1879,482,1872,434,106403,0
ore-14,true,1.00,1891,440,1881,415,107925,0
ore-15,true,1.00,1936,416,1931,386,111128,0
ore-16,true,1.00,2157,461,2152,424,120022,0
ore-17,true,1.00,1828,465,1820,417,106451,0
ore-18,true,1.00,1781,474,1762,436,100200,0
ore-19,true,1.00,1329,411,1314,385,74981,0
ore-20,true,1.00,2583,451,2579,418,149577,0
ore-21,true,1.00,2428,525,2413,495,137312,0
ore-22,false,0.62,1820,264,1811,264,92687,0
ore-23,true,1.00,2613,431,2604,400,146173,0
ore-24,true,1.00,2183,494,2174,445,125834,0
ore-25,true,1.00,1700,462,1683,423,98024,0
ore-26,true,1.00,2157,421,2146,392,115294,0
ore-27,false,0.24,1521,135,1517,135,74738,0
ore-28,true,1.00,1486,416,1473,390,80532,0
ore-29,false,0.48,2216,217,2209,217,57055,0
ore-30,true,1.00,1683,442,1666,396,51589,0
ore-31,true,1.00,1882,448,1874,406,106366,0
ore-32,true,1.00,2030,423,2020,398,111485,0
ore-33,true,1.00,1785,490,1774,464,99513,0
ore-34,true,1.00,1777,463,1761,420,100763,0
ore-35,true,1.00,1893,414,1881,387,110721,0
ore-36,true,1.00,1658,431,1650,396,96111,0
ore-37,false,0.34,1365,122,1362,122,68832,0
ore-38,true,1.00,1340,392,1320,367,75034,0
ore-39,true,1.00,2689,488,2679,448,157458,0
ore-40,true,1.00,1989,423,1977,394,110255,0
ore-41,true,1.00,1633,451,1624,405,95068,0
ore-42,true,1.00,2875,479,2865,454,163643,0
ore-43,true,1.00,2500,464,2491,438,134903,0
ore-44,true,1.00,2845,430,2837,376,165520,0
ore-45,false,0.74,23957,999,23948,999,894598,0
ore-46,false,0.12,869,53,869,53,43346,0
ore-47,false,0.85,3009,453,2996,453,163695,0
ore-48,true,1.00,3212,486,3199,459,179563,0
ore-49,true,1.00,1487,428,1478,379,85511,0
ore-50,true,1.00,2457,446,2448,419,139623,0
ore-51,true,1.00,1992,434,1980,391,110151,0
ore-52,true,1.00,1736,444,1728,400,95990,0
ore-53,true,1.00,1869,412,1859,380,104932,0
ore-54,false,0.72,2940,380,2929,380,155540,0
ore-55,true,1.00,1654,396,1646,356,97979,0
ore-56,true,1.00,1354,376,1348,351,76237,0
ore-57,true,1.00,1653,415,1643,377,94697,0
ore-58,true,1.00,1830,454,1823,429,105032,0
ore-59,true,1.00,2350,506,2338,478,136558,0
ore-60,true,1.00,2201,438,2189,406,122643,0
ore-61,true,1.00,1806,431,1796,401,97810,0
ore-62,false,0.78,2088,321,2079,321,109934,0
ore-63,false,0.32,2013,156,2008,156,98530,0
ore-64,true,1.00,1377,417,1367,390,78012,0
ore-65,true,1.00,2163,499,2145,465,117623,0
ore-66,true,1.00,2668,487,2650,440,124075,0
ore-67,true,1.00,2310,429,2300,394,102223,0
ore-68,true,1.00,1280,440,1272,405,69589,0
ore-69,true,1.00,3750,512,3739,483,188663,0
ore-70,false,0.95,3128,465,3121,465,170350,0
ore-71,true,1.00,1509,417,1497,391,86928,0
ore-72,true,1.00,1502,443,1489,406,85606,0
ore-73,true,1.00,1757,400,1747,362,98307,0
ore-74,true,1.00,2116,415,2102,373,116639,0
ore-75,true,1.00,1862,471,1852,444,105252,0
ore-76,true,1.00,1527,392,1517,362,88120,0
ore-77,true,1.00,1595,397,1585,358,93783,0
ore-78,true,1.00,1692,402,1686,377,98328,0
ore-79,true,1.00,1926,460,1912,408,107589,0
ore-80,true,1.00,1724,412,1717,366,99055,0
ore-81,true,1.00,1915,448,1905,420,110503,0
ore-82,true,1.00,1620,414,1614,379,92047,0
ore-83,true,1.00,1625,436,1610,411,92627,0
ore-84,true,1.00,5309,524,5303,498,252468,0
ore-85,true,1.00,2057,440,2050,406,119791,0
ore-86,false,0.60,2461,323,2456,323,140443,0
ore-87,true,1.00,1673,441,1663,407,94706,0
ore-88,true,1.00,2265,434,2255,406,131002,0
ore-89,true,1.00,2529,434,2521,409,137549,0
ore-90,true,1.00,3203,531,3195,475,187714,0
ore-91,true,1.00,2186,393,2174,360,125153,0
ore-92,true,1.00,1959,445,1950,415,112464,0
ore-93,false,0.13,1708,77,1707,77,78549,0
ore-94,true,1.00,1955,466,1946,434,108561,0
ore-95,true,1.00,2306,465,2294,432,129526,0
ore-96,true,1.00,2513,495,2501,458,141761,0
ore-97,true,1.00,2579,460,2566,427,145056,0
ore-98,true,1.00,2671,435,2665,404,159370,0
ore-99,true,1.00,2252,437,2242,399,128444,0
ore-100,true,1.00,1716,455,1701,416,100116,0
