NDW:0.0
TTFW:1.6
DFPT:2.0
DFPAP:3.0
DFPMP:5.0
RIGHT_WINDOW_BORDER_X:400.0
level,win/fail,% travelled,run time,game ticks,planning time,total plannings,nodes evaluated,most backtracked nodes
patternOccur-1,true,1.00,1148,507,1144,466,132621,0
patternOccur-2,true,1.00,864,448,861,409,92987,0
patternOccur-3,true,1.00,1633,499,1628,450,208394,0
patternOccur-4,true,1.00,1377,519,1375,482,169098,0
patternOccur-5,true,1.00,1137,511,1132,465,132175,0
patternOccur-6,true,1.00,1315,538,1313,501,158934,0
patternOccur-7,true,1.00,1464,552,1462,497,173995,0
patternOccur-8,true,1.00,1402,469,1400,431,176548,0
patternOccur-9,true,1.00,1470,488,1468,437,180734,0
patternOccur-10,true,1.00,1006,521,999,478,117863,0
patternOccur-11,true,1.00,2627,520,2623,466,296617,0
patternOccur-12,true,1.00,1366,520,1363,451,169687,0
patternOccur-13,true,1.00,651,446,651,409,74897,0
patternOccur-14,true,1.00,3155,477,3149,427,358963,0
patternOccur-15,true,1.00,1125,451,1121,415,135779,0
patternOccur-16,true,1.00,4205,546,4202,502,446681,0
patternOccur-17,true,1.00,1310,507,1306,469,156454,0
patternOccur-18,true,1.00,1115,506,1110,464,127928,0
patternOccur-19,false,0.83,3618,459,3617,459,405042,0
patternOccur-20,true,1.00,1407,509,1404,472,170193,0
patternOccur-21,true,1.00,743,477,736,431,89354,0
patternOccur-22,true,1.00,4035,533,4032,486,444594,0
patternOccur-23,true,1.00,1624,494,1619,452,191193,0
patternOccur-24,true,1.00,1330,499,1328,460,175925,0
patternOccur-25,true,1.00,1189,515,1186,470,143225,0
patternOccur-26,true,1.00,680,434,675,398,75799,0
patternOccur-27,true,1.00,3546,500,3544,442,394702,0
patternOccur-28,true,1.00,1135,480,1132,434,135177,0
patternOccur-29,true,1.00,829,418,823,373,100143,0
patternOccur-30,true,1.00,1068,519,1067,481,127813,0
patternOccur-31,false,0.80,2791,399,2790,399,343665,0
patternOccur-32,true,1.00,4537,536,4534,484,503060,0
patternOccur-33,true,1.00,982,512,978,465,111620,0
patternOccur-34,true,1.00,942,503,939,456,108671,0
patternOccur-35,true,1.00,833,493,831,437,92118,0
patternOccur-36,true,1.00,2145,503,2140,461,256245,0
patternOccur-37,true,1.00,3393,597,3390,504,381007,0
patternOccur-38,true,1.00,1464,516,1463,480,179921,0
patternOccur-39,true,1.00,2356,445,2354,400,263639,0
patternOccur-40,true,1.00,1363,494,1359,433,170406,0
patternOccur-41,true,1.00,1157,497,1151,449,154225,0
patternOccur-42,false,0.89,4409,482,4403,482,472302,0
patternOccur-43,true,1.00,1097,483,1096,447,138940,0
patternOccur-44,true,1.00,1398,458,1396,419,188753,0
patternOccur-45,true,1.00,1436,440,1432,404,162877,0
patternOccur-46,true,1.00,1016,453,1012,416,122614,0
patternOccur-47,true,1.00,2877,496,2872,435,333749,0
patternOccur-48,true,1.00,1431,460,1430,423,185473,0
patternOccur-49,true,1.00,1072,467,1068,430,126374,0
patternOccur-50,true,1.00,1834,515,1828,459,221006,0
patternOccur-51,true,1.00,1454,588,1452,518,181187,0
patternOccur-52,true,1.00,1391,477,1389,413,164210,0
patternOccur-53,true,1.00,1279,468,1277,431,154496,0
patternOccur-54,true,1.00,2028,500,2022,451,258555,0
patternOccur-55,true,1.00,1528,452,1522,416,186957,0
patternOccur-56,true,1.00,1035,481,1033,444,129245,0
patternOccur-57,true,1.00,1731,531,1729,485,210868,0
patternOccur-58,true,1.00,5645,598,5642,554,633057,0
patternOccur-59,true,1.00,1392,513,1392,466,172853,0
patternOccur-60,true,1.00,3450,513,3450,447,391394,0
patternOccur-61,true,1.00,937,461,933,424,114459,0
patternOccur-62,true,1.00,976,441,975,404,118634,0
patternOccur-63,true,1.00,1241,518,1239,448,152513,0
patternOccur-64,true,1.00,1884,575,1879,516,229327,0
patternOccur-65,true,1.00,1017,497,1015,458,122411,0
patternOccur-66,true,1.00,1506,514,1503,475,188512,0
patternOccur-67,true,1.00,3593,516,3587,475,396438,0
patternOccur-68,true,1.00,947,526,945,488,106255,0
patternOccur-69,true,1.00,4515,567,4513,514,467342,0
patternOccur-70,true,1.00,4538,540,4536,491,480956,0
patternOccur-71,true,1.00,1957,500,1955,443,261009,0
patternOccur-72,true,1.00,3472,521,3467,474,339992,0
patternOccur-73,true,1.00,4776,575,4773,514,546869,0
patternOccur-74,true,1.00,2871,481,2867,417,323983,0
patternOccur-75,true,1.00,2026,483,2025,442,229773,0
patternOccur-76,true,1.00,1576,513,1570,477,188899,0
patternOccur-77,true,1.00,773,470,769,434,85902,0
patternOccur-78,true,1.00,526,463,523,427,59242,0
patternOccur-79,true,1.00,1207,518,1205,480,156881,0
patternOccur-80,true,1.00,2825,545,2822,470,336439,0
patternOccur-81,true,1.00,3479,495,3476,430,409443,0
patternOccur-82,true,1.00,1957,493,1957,454,223895,0
patternOccur-83,false,0.82,3649,467,3646,467,369895,0
patternOccur-84,true,1.00,986,472,984,436,116100,0
patternOccur-85,true,1.00,1874,490,1870,454,229848,0
patternOccur-86,true,1.00,2768,459,2768,378,297546,0
patternOccur-87,true,1.00,888,498,886,452,108400,0
patternOccur-88,true,1.00,804,492,801,445,98992,0
patternOccur-89,true,1.00,1222,517,1219,477,146259,0
patternOccur-90,true,1.00,1755,532,1754,490,224523,0
patternOccur-91,true,1.00,1097,495,1093,444,128800,0
patternOccur-92,true,1.00,728,477,725,441,82974,0
patternOccur-93,true,1.00,953,471,948,418,115762,0
patternOccur-94,true,1.00,4987,545,4982,492,521133,0
patternOccur-95,true,1.00,1357,513,1355,474,164649,0
patternOccur-96,false,0.88,4881,525,4878,525,436376,0
patternOccur-97,true,1.00,1710,496,1708,441,213385,0
patternOccur-98,false,0.90,3916,536,3913,536,410678,0
patternOccur-99,true,1.00,649,505,646,453,76029,0
patternOccur-100,true,1.00,1375,498,1373,461,161610,0
