NDW:0.0
TTFW:0.2
DFPT:2.0
DFPAP:3.0
DFPMP:50.0
RIGHT_WINDOW_BORDER_X:55.0
level,win/fail,% travelled,run time,game ticks,planning time,total plannings,nodes evaluated,most backtracked nodes
Mario-1,true,1.00,1432,818,1428,810,143208,0
Mario-2,true,1.00,3532,809,3527,797,322123,0
Mario-3,false,0.34,3799,381,3796,381,392601,0
Mario-4,true,1.00,2878,922,2870,912,298542,0
Mario-5,true,1.00,6160,1009,6155,1004,584652,0
Mario-6,false,0.57,5696,496,5694,496,538381,0
Mario-7,false,0.33,3174,399,3172,399,260983,0
Mario-8,true,1.00,3209,806,3204,799,308038,0
Mario-9,true,1.00,3130,890,3124,883,295241,0
Mario-10,false,0.25,1772,233,1770,233,174668,0
Mario-11,true,1.00,5703,910,5696,903,553286,0
Mario-12,false,0.57,2178,661,2175,661,200803,0
Mario-13,false,0.31,2787,368,2786,368,266865,0
Mario-14,true,1.00,619,704,619,693,71125,0
Mario-15,false,0.58,3962,1045,3956,1045,353740,0
