NDW:0.0
TTFW:1.0
DFPT:2.0
DFPAP:3.0
DFPMP:0.0
RIGHT_WINDOW_BORDER_X:155.0
level,win/fail,% travelled,run time,game ticks,planning time,total plannings,nodes evaluated,most backtracked nodes
ore-1,true,1.00,1893,437,1877,423,84096,0
ore-2,false,0.70,4122,357,4112,357,168145,0
ore-3,true,1.00,2089,464,2072,446,93377,0
ore-4,true,1.00,1810,425,1795,411,78428,0
ore-5,true,1.00,1745,432,1731,416,74070,0
ore-6,true,1.00,1970,450,1953,423,84091,0
ore-7,true,1.00,1824,427,1814,412,74105,0
ore-8,false,0.13,2403,124,2396,124,87396,0
ore-9,true,1.00,1711,379,1697,364,70372,0
ore-10,true,1.00,2182,439,2155,422,91800,0
ore-11,true,1.00,2378,468,2351,450,97414,0
ore-12,false,0.46,1352,194,1347,194,55514,0
ore-13,true,1.00,2114,456,2101,429,88918,0
ore-14,true,1.00,1966,439,1953,425,80741,0
ore-15,true,1.00,2333,435,2319,417,97748,0
ore-16,true,1.00,1679,420,1667,405,72936,0
ore-17,true,1.00,2722,496,2706,475,127033,0
ore-18,true,1.00,1818,459,1805,436,85092,0
ore-19,true,1.00,1484,422,1474,407,68845,0
ore-20,true,1.00,2628,465,2609,450,118594,0
ore-21,true,1.00,2285,450,2273,434,107842,0
ore-22,false,0.58,3439,367,3431,367,143042,0
ore-23,true,1.00,1537,421,1521,407,72736,0
ore-24,true,1.00,1853,416,1840,392,89874,0
ore-25,true,1.00,2311,450,2297,429,104743,0
ore-26,false,0.40,3168,258,3160,258,109045,0
ore-27,false,0.23,3078,176,3076,176,115283,0
ore-28,true,1.00,2470,493,2453,479,100912,0
ore-29,false,0.47,2595,254,2586,254,102880,0
ore-30,true,1.00,1997,400,1985,381,86775,0
ore-31,true,1.00,1678,464,1659,435,73976,0
ore-32,true,1.00,1732,419,1720,402,78864,0
ore-33,true,1.00,1712,440,1702,426,79514,0
ore-34,true,1.00,2128,459,2117,440,95460,0
ore-35,true,1.00,1664,403,1651,388,73289,0
ore-36,true,1.00,1279,382,1267,367,56710,0
ore-37,false,0.34,1785,157,1781,157,69990,0
ore-38,true,1.00,1880,411,1869,387,83823,0
ore-39,true,1.00,1550,429,1534,414,67796,0
ore-40,true,1.00,2469,455,2451,440,110011,0
ore-41,true,1.00,2305,426,2293,410,107892,0
ore-42,true,1.00,2236,459,2222,434,104158,0
ore-43,true,1.00,2406,456,2391,441,109709,0
ore-44,true,1.00,1954,421,1929,396,92389,0
ore-45,false,0.74,23430,999,23422,999,702581,0
ore-46,false,0.12,534,49,533,49,21195,0
ore-47,false,0.85,7145,564,7127,564,239819,0
ore-48,true,1.00,1799,432,1787,417,66437,0
ore-49,true,1.00,1845,426,1826,409,66331,0
ore-50,true,1.00,1764,385,1752,371,75854,0
ore-51,true,1.00,2370,499,2352,482,99124,0
ore-52,true,1.00,2185,435,2170,412,92259,0
ore-53,true,1.00,2413,417,2398,402,105213,0
ore-54,false,0.71,4387,407,4374,407,168643,0
ore-55,true,1.00,2015,409,1994,394,93110,0
ore-56,true,1.00,1320,382,1308,360,57960,0
ore-57,true,1.00,1797,401,1785,385,75208,0
ore-58,true,1.00,2667,424,2647,410,110374,0
ore-59,true,1.00,2212,433,2199,419,93512,0
ore-60,true,1.00,2587,430,2569,414,105022,0
ore-61,true,1.00,2016,438,2006,422,80775,0
ore-62,true,1.00,1436,362,1428,348,60244,0
ore-63,true,1.00,1695,390,1681,367,70925,0
ore-64,true,1.00,1227,404,1216,390,52341,0
ore-65,true,1.00,2378,440,2361,425,104542,0
ore-66,true,1.00,2062,448,2047,433,88637,0
ore-67,true,1.00,1795,426,1781,400,73763,0
ore-68,true,1.00,1519,404,1506,387,59967,0
ore-69,true,1.00,3216,474,3200,458,131064,0
ore-70,false,0.95,6503,564,6487,564,252451,0
ore-71,true,1.00,1619,389,1572,375,68517,0
ore-72,true,1.00,1552,426,1536,410,70780,0
ore-73,true,1.00,2248,438,2237,422,100430,0
ore-74,true,1.00,2769,476,2752,442,116962,0
ore-75,true,1.00,2063,479,2045,465,86279,0
ore-76,false,0.38,799,139,793,139,33591,0
ore-77,true,1.00,1775,426,1760,411,73596,0
ore-78,true,1.00,1632,380,1615,366,68149,0
ore-79,true,1.00,2098,463,2084,448,84736,0
ore-80,true,1.00,1543,403,1532,388,63230,0
ore-81,true,1.00,2139,436,2128,422,90212,0
ore-82,true,1.00,2014,463,2002,444,90977,0
ore-83,true,1.00,1672,435,1662,421,78046,0
ore-84,false,0.13,587,65,581,65,21495,0
ore-85,true,1.00,1716,451,1699,435,76305,0
ore-86,false,0.62,3627,373,3613,373,146787,0
ore-87,true,1.00,1152,389,1135,375,48946,0
ore-88,true,1.00,1640,416,1628,402,71673,0
ore-89,true,1.00,2977,476,2961,462,121203,0
ore-90,true,1.00,2639,465,2620,450,114466,0
ore-91,true,1.00,1833,415,1816,401,78467,0
ore-92,true,1.00,1518,379,1507,363,64976,0
ore-93,false,0.13,3538,149,3537,149,129384,0
ore-94,true,1.00,2086,481,2070,465,93360,0
ore-95,true,1.00,1788,420,1778,404,78189,0
ore-96,true,1.00,2236,501,2221,485,100656,0
ore-97,false,0.78,1474,323,1465,323,63143,0
ore-98,true,1.00,2525,438,2514,424,114809,0
ore-99,true,1.00,2010,428,1997,413,88916,0
ore-100,true,1.00,1938,431,1932,412,89313,0
