NDW:0.0
TTFW:1.0
DFPT:2.0
DFPAP:3.0
DFPMP:7.0
RIGHT_WINDOW_BORDER_X:95.0
level,win/fail,% travelled,run time,game ticks,planning time,total plannings,nodes evaluated,most backtracked nodes
notchParam-1,false,0.36,4243,236,4241,236,231777,0
notchParam-2,false,0.36,2430,185,2429,185,150896,0
notchParam-3,true,1.00,662,353,653,345,40040,0
notchParam-4,true,1.00,706,334,697,326,41002,0
notchParam-5,true,1.00,751,348,742,340,43393,0
notchParam-6,true,1.00,731,334,723,326,42704,0
notchParam-7,false,0.36,4978,266,4973,266,305643,0
notchParam-8,false,0.57,2274,265,2272,265,134582,0
notchParam-9,true,1.00,679,338,672,330,39595,0
notchParam-10,true,1.00,3085,416,3071,408,171406,0
notchParam-11,true,1.00,682,352,675,344,39036,0
notchParam-12,true,1.00,3688,471,3679,463,217953,0
notchParam-13,true,1.00,594,332,592,324,34768,0
notchParam-14,true,1.00,219,306,216,298,12630,0
notchParam-15,false,0.35,28884,999,28882,999,1534714,0
notchParam-16,false,0.37,3023,204,3021,204,184498,0
notchParam-17,false,0.36,2922,199,2917,199,165462,0
notchParam-18,true,1.00,281,349,274,341,16769,0
notchParam-19,true,1.00,227,320,217,312,13529,0
notchParam-20,true,1.00,1039,338,1033,330,58735,0
notchParam-21,true,1.00,220,304,214,296,11606,0
notchParam-22,true,1.00,226,321,220,313,13847,0
notchParam-23,true,1.00,2979,468,2971,460,179765,0
notchParam-24,true,1.00,3717,444,3708,436,214956,0
notchParam-25,true,1.00,2513,397,2508,389,141051,0
notchParam-26,true,1.00,2416,392,2408,384,137783,0
notchParam-27,true,1.00,305,322,300,314,18073,0
notchParam-28,true,1.00,868,333,860,325,48711,0
notchParam-29,true,1.00,759,343,753,335,43989,0
notchParam-30,true,1.00,249,308,244,300,14054,0
notchParam-31,false,0.37,3059,213,3057,213,166696,0
notchParam-32,false,0.36,2925,199,2924,199,161842,0
notchParam-33,true,1.00,225,304,219,296,12678,0
notchParam-34,false,0.36,4242,236,4239,236,226590,0
notchParam-35,false,0.67,8354,448,8348,448,484172,0
notchParam-36,false,0.36,2925,199,2923,199,161351,0
notchParam-37,true,1.00,227,312,221,304,12191,0
notchParam-38,true,1.00,250,312,243,304,13890,0
notchParam-39,false,0.36,3318,210,3315,210,192483,0
notchParam-40,true,1.00,679,332,675,324,38247,0
notchParam-41,true,1.00,781,349,777,341,44603,0
notchParam-42,true,1.00,230,318,223,310,13146,0
notchParam-43,false,0.30,2318,186,2315,186,128164,0
notchParam-44,true,1.00,3836,450,3830,442,217912,0
notchParam-45,true,1.00,2578,402,2565,387,139274,0
notchParam-46,true,1.00,3814,421,3806,413,202896,0
notchParam-47,true,1.00,302,306,294,298,18089,0
notchParam-48,false,0.35,68,125,65,125,3875,0
notchParam-49,true,1.00,259,317,247,303,14004,0
notchParam-50,true,1.00,292,329,282,321,15133,0
notchParam-51,true,1.00,251,308,241,300,13523,0
notchParam-52,false,0.36,3321,210,3318,210,191559,0
notchParam-53,false,0.67,8535,461,8529,461,493713,0
notchParam-54,false,0.36,2166,177,2162,177,121025,0
notchParam-55,true,1.00,273,339,262,331,15915,0
notchParam-56,true,1.00,221,312,214,304,12380,0
notchParam-57,true,1.00,4388,489,4376,481,245705,0
notchParam-58,true,1.00,686,350,677,342,38989,0
notchParam-59,true,1.00,1659,387,1650,379,92645,0
notchParam-60,true,1.00,606,363,595,355,33648,0
notchParam-61,true,1.00,3357,471,3349,463,197775,0
notchParam-62,false,0.36,3153,203,3149,203,156361,0
notchParam-63,true,1.00,2522,432,2517,424,141532,0
notchParam-64,true,1.00,705,336,699,328,39754,0
notchParam-65,true,1.00,1640,374,1633,366,93903,0
notchParam-66,true,1.00,642,354,631,346,36909,0
notchParam-67,false,0.36,5435,276,5434,276,322970,0
notchParam-68,false,0.36,4243,236,4240,236,226782,0
notchParam-69,false,0.36,4474,241,4470,241,221705,0
notchParam-70,false,0.36,2165,177,2160,177,122276,0
notchParam-71,true,1.00,871,363,861,355,50709,0
notchParam-72,true,1.00,1580,369,1576,361,90321,0
notchParam-73,true,1.00,713,328,704,320,40982,0
notchParam-74,true,1.00,1312,370,1304,362,74304,0
notchParam-75,true,1.00,1901,380,1895,372,112518,0
notchParam-76,true,1.00,4804,497,4797,489,267508,0
notchParam-77,true,1.00,712,331,701,323,40186,0
notchParam-78,true,1.00,3880,456,3872,448,215630,0
notchParam-79,true,1.00,640,326,632,318,37175,0
notchParam-80,true,1.00,252,343,246,335,14494,0
notchParam-81,true,1.00,700,339,691,323,39801,0
notchParam-82,true,1.00,251,312,244,304,14200,0
notchParam-83,true,1.00,225,322,220,314,12933,0
notchParam-84,false,0.37,3236,214,3235,214,174266,0
notchParam-85,false,0.37,2763,198,2760,198,171522,0
notchParam-86,true,1.00,3968,446,3958,438,226336,0
notchParam-87,true,1.00,225,308,217,300,12541,0
notchParam-88,true,1.00,233,323,224,315,13362,0
notchParam-89,true,1.00,247,306,238,298,13744,0
notchParam-90,true,1.00,247,306,240,298,13698,0
notchParam-91,true,1.00,3350,435,3343,427,182031,0
notchParam-92,true,1.00,2200,401,2195,393,124166,0
notchParam-93,true,1.00,1795,368,1789,360,102277,0
notchParam-94,true,1.00,6643,549,6636,541,380359,0
notchParam-95,false,0.17,84,89,83,89,5038,0
notchParam-96,true,1.00,682,344,674,336,41522,0
notchParam-97,true,1.00,732,326,723,318,40937,0
notchParam-98,true,1.00,958,348,950,340,54209,0
notchParam-99,false,0.36,2163,177,2161,177,124050,0
notchParam-100,false,0.37,3063,219,3062,219,169793,0
