NDW:0.0
TTFW:0.2
DFPT:2.0
DFPAP:3.0
DFPMP:2.0
RIGHT_WINDOW_BORDER_X:235.0
level,win/fail,% travelled,run time,game ticks,planning time,total plannings,nodes evaluated,most backtracked nodes
patternWeightCount-1,true,1.00,7087,429,7086,399,463756,0
patternWeightCount-2,true,1.00,3895,371,3893,345,246384,0
patternWeightCount-3,true,1.00,3895,362,3892,339,244831,0
patternWeightCount-4,true,1.00,3934,354,3930,331,247768,0
patternWeightCount-5,true,1.00,4890,402,4884,380,300904,0
patternWeightCount-6,true,1.00,5087,408,5086,387,317780,0
patternWeightCount-7,true,1.00,5353,428,5352,407,324812,0
patternWeightCount-8,true,1.00,4594,415,4586,394,276160,0
patternWeightCount-9,true,1.00,5048,391,5046,370,312894,0
patternWeightCount-10,true,1.00,4244,371,4241,349,264870,0
patternWeightCount-11,true,1.00,3166,338,3163,317,199809,0
patternWeightCount-12,true,1.00,5964,436,5959,410,361930,0
patternWeightCount-13,true,1.00,3068,324,3067,303,201489,0
patternWeightCount-14,true,1.00,4915,406,4907,385,297975,0
patternWeightCount-15,true,1.00,5607,423,5605,402,351388,0
patternWeightCount-16,true,1.00,5362,374,5362,352,356019,0
patternWeightCount-17,true,1.00,4305,359,4301,338,270520,0
patternWeightCount-18,true,1.00,5080,406,5078,380,310860,0
patternWeightCount-19,true,1.00,3948,365,3942,344,246512,0
patternWeightCount-20,false,0.62,3487,245,3485,245,230338,0
patternWeightCount-21,true,1.00,3977,373,3974,351,237976,0
patternWeightCount-22,true,1.00,7078,461,7076,423,449095,0
patternWeightCount-23,true,1.00,4810,389,4808,367,305535,0
patternWeightCount-24,true,1.00,4252,370,4248,344,278474,0
patternWeightCount-25,true,1.00,7131,461,7125,435,439252,0
patternWeightCount-26,true,1.00,7018,456,7015,435,428956,0
patternWeightCount-27,true,1.00,5111,390,5109,369,325468,0
patternWeightCount-28,true,1.00,6184,418,6181,397,379164,0
patternWeightCount-29,true,1.00,4113,368,4106,347,254991,0
patternWeightCount-30,true,1.00,8408,478,8407,454,550209,0
patternWeightCount-31,true,1.00,3744,342,3742,321,239351,0
patternWeightCount-32,true,1.00,3810,346,3808,325,238550,0
patternWeightCount-33,true,1.00,4968,404,4967,378,317724,0
patternWeightCount-34,true,1.00,4913,393,4907,372,314380,0
patternWeightCount-35,false,0.27,29557,999,29557,999,1518851,0
patternWeightCount-36,true,1.00,4622,370,4622,349,295897,0
patternWeightCount-37,true,1.00,4778,383,4774,362,289769,0
patternWeightCount-38,true,1.00,5989,415,5987,378,373876,0
patternWeightCount-39,true,1.00,4159,358,4155,337,272210,0
patternWeightCount-40,true,1.00,3891,359,3884,337,246337,0
patternWeightCount-41,true,1.00,5041,400,5040,377,315043,0
patternWeightCount-42,true,1.00,4205,364,4198,338,266117,0
patternWeightCount-43,true,1.00,4302,368,4297,347,277009,0
patternWeightCount-44,true,1.00,7767,488,7751,457,463081,0
patternWeightCount-45,true,1.00,7287,456,7285,420,469921,0
patternWeightCount-46,true,1.00,7616,474,7611,435,483820,0
patternWeightCount-47,true,1.00,3835,361,3833,340,235857,0
patternWeightCount-48,true,1.00,3369,355,3365,332,212234,0
patternWeightCount-49,true,1.00,4418,370,4416,349,273121,0
patternWeightCount-50,true,1.00,4997,407,4995,381,307604,0
patternWeightCount-51,true,1.00,3988,369,3988,340,250160,0
patternWeightCount-52,true,1.00,4809,384,4806,356,297364,0
patternWeightCount-53,false,0.80,5546,335,5543,335,358877,0
patternWeightCount-54,true,1.00,4629,394,4628,373,291213,0
patternWeightCount-55,true,1.00,3815,362,3814,339,240892,0
patternWeightCount-56,true,1.00,4503,395,4501,369,285354,0
patternWeightCount-57,true,1.00,4626,380,4626,354,289070,0
patternWeightCount-58,true,1.00,4387,379,4383,358,274884,0
patternWeightCount-59,true,1.00,3291,334,3291,313,209730,0
patternWeightCount-60,true,1.00,5598,410,5592,386,350168,0
patternWeightCount-61,true,1.00,4738,378,4735,356,302867,0
patternWeightCount-62,true,1.00,4291,351,4287,321,282618,0
patternWeightCount-63,true,1.00,5087,398,5080,377,329070,0
patternWeightCount-64,true,1.00,5013,390,5012,369,320220,0
patternWeightCount-65,true,1.00,5349,395,5345,369,327517,0
patternWeightCount-66,true,1.00,5069,397,5068,376,312961,0
patternWeightCount-67,true,1.00,4087,369,4085,348,254300,0
patternWeightCount-68,false,0.85,24829,999,24827,999,1281087,0
patternWeightCount-69,true,1.00,5982,413,5979,390,372640,0
patternWeightCount-70,true,1.00,5154,415,5150,386,315488,0
patternWeightCount-71,true,1.00,3182,336,3181,315,212713,0
patternWeightCount-72,true,1.00,6927,418,6926,395,471141,0
patternWeightCount-73,true,1.00,7988,439,7988,402,559718,0
patternWeightCount-74,true,1.00,4777,394,4776,373,299677,0
patternWeightCount-75,true,1.00,5946,411,5943,385,371954,0
patternWeightCount-76,true,1.00,6106,426,6103,405,370345,0
patternWeightCount-77,true,1.00,6324,437,6321,416,393642,0
patternWeightCount-78,true,1.00,5525,402,5523,381,346239,0
patternWeightCount-79,true,1.00,3895,344,3894,324,250302,0
patternWeightCount-80,true,1.00,4572,387,4570,361,284828,0
patternWeightCount-81,true,1.00,5928,406,5926,384,387384,0
patternWeightCount-82,true,1.00,3776,371,3775,347,230425,0
patternWeightCount-83,true,1.00,3843,374,3840,352,242462,0
patternWeightCount-84,true,1.00,4229,373,4227,352,264413,0
patternWeightCount-85,true,1.00,4582,378,4580,357,297284,0
patternWeightCount-86,false,0.94,5116,355,5115,355,334433,0
patternWeightCount-87,true,1.00,8049,443,8047,408,544231,0
patternWeightCount-88,true,1.00,4812,381,4811,360,304729,0
patternWeightCount-89,true,1.00,5116,392,5110,371,322666,0
patternWeightCount-90,true,1.00,7668,449,7662,415,514954,0
patternWeightCount-91,true,1.00,4401,384,4398,362,274309,0
patternWeightCount-92,true,1.00,7596,444,7593,420,508212,0
patternWeightCount-93,true,1.00,5356,389,5351,357,355506,0
patternWeightCount-94,true,1.00,3812,348,3810,327,247217,0
patternWeightCount-95,true,1.00,6346,414,6345,392,396834,0
patternWeightCount-96,true,1.00,4091,377,4089,356,259475,0
patternWeightCount-97,true,1.00,2874,323,2872,302,184789,0
patternWeightCount-98,true,1.00,8746,467,8746,438,595237,0
patternWeightCount-99,true,1.00,4364,357,4361,336,275316,0
patternWeightCount-100,true,1.00,4600,385,4593,364,286383,0
