NDW:0.0
TTFW:1.8
DFPT:2.0
DFPAP:3.0
DFPMP:5.0
RIGHT_WINDOW_BORDER_X:155.0
level,win/fail,% travelled,run time,game ticks,planning time,total plannings,nodes evaluated,most backtracked nodes
patternWeightCount-1,true,1.00,3361,550,3360,523,333701,0
patternWeightCount-2,true,1.00,707,476,707,461,66879,0
patternWeightCount-3,true,1.00,436,409,431,395,51106,0
patternWeightCount-4,true,1.00,653,442,649,424,77153,0
patternWeightCount-5,true,1.00,1514,494,1511,480,128799,0
patternWeightCount-6,true,1.00,1845,521,1843,507,186267,0
patternWeightCount-7,true,1.00,1072,461,1066,447,116075,0
patternWeightCount-8,true,1.00,563,428,558,414,52702,0
patternWeightCount-9,true,1.00,1309,518,1303,504,171624,0
patternWeightCount-10,true,1.00,1006,547,1002,533,114100,0
patternWeightCount-11,true,1.00,446,461,443,447,54446,0
patternWeightCount-12,true,1.00,1412,518,1404,504,162972,0
patternWeightCount-13,true,1.00,832,447,828,433,97434,0
patternWeightCount-14,true,1.00,852,439,848,425,102575,0
patternWeightCount-15,true,1.00,1366,457,1362,443,173911,0
patternWeightCount-16,true,1.00,3159,564,3155,548,398606,0
patternWeightCount-17,true,1.00,659,529,657,515,84549,0
patternWeightCount-18,true,1.00,663,446,660,432,78373,0
patternWeightCount-19,true,1.00,417,506,416,492,48847,0
patternWeightCount-20,false,0.62,3972,385,3967,385,377970,0
patternWeightCount-21,true,1.00,495,548,491,534,60727,0
patternWeightCount-22,true,1.00,2924,542,2922,509,350360,0
patternWeightCount-23,true,1.00,925,518,922,486,110257,0
patternWeightCount-24,true,1.00,1264,453,1259,433,152137,0
patternWeightCount-25,true,1.00,2138,554,2136,540,250859,0
patternWeightCount-26,true,1.00,1329,474,1326,451,175458,0
patternWeightCount-27,true,1.00,2582,580,2577,548,325335,0
patternWeightCount-28,true,1.00,1358,577,1355,563,166578,0
patternWeightCount-29,true,1.00,942,447,935,433,118657,0
patternWeightCount-30,true,1.00,5451,608,5447,591,554906,0
patternWeightCount-31,true,1.00,1093,461,1084,447,128725,0
patternWeightCount-32,true,1.00,469,452,465,438,57825,0
patternWeightCount-33,true,1.00,1176,507,1175,493,142897,0
patternWeightCount-34,true,1.00,2031,431,2027,417,231202,0
patternWeightCount-35,true,1.00,2417,532,2413,518,276835,0
patternWeightCount-36,true,1.00,1420,481,1419,467,174192,0
patternWeightCount-37,true,1.00,568,459,566,445,63523,0
patternWeightCount-38,false,0.94,4497,546,4493,546,445784,0
patternWeightCount-39,true,1.00,1175,455,1172,441,128609,0
patternWeightCount-40,true,1.00,1026,458,1026,444,125213,0
patternWeightCount-41,true,1.00,1804,516,1798,501,218910,0
patternWeightCount-42,false,0.87,4726,519,4726,519,463746,0
patternWeightCount-43,true,1.00,1374,483,1370,469,158982,0
patternWeightCount-44,true,1.00,1493,561,1483,536,200654,0
patternWeightCount-45,true,1.00,5850,676,5843,649,613447,0
patternWeightCount-46,true,1.00,7013,606,7009,590,676143,0
patternWeightCount-47,true,1.00,899,450,897,436,107554,0
patternWeightCount-48,true,1.00,542,452,542,438,60583,0
patternWeightCount-49,true,1.00,833,444,827,430,99456,0
patternWeightCount-50,true,1.00,1489,475,1485,461,166956,0
patternWeightCount-51,true,1.00,1423,515,1419,491,151396,0
patternWeightCount-52,true,1.00,1512,551,1508,527,183671,0
patternWeightCount-53,true,1.00,4592,558,4589,544,474478,0
patternWeightCount-54,true,1.00,1107,503,1103,489,134258,0
patternWeightCount-55,true,1.00,1027,506,1027,492,111952,0
patternWeightCount-56,true,1.00,1106,493,1103,479,127482,0
patternWeightCount-57,true,1.00,358,449,355,435,40704,0
patternWeightCount-58,true,1.00,1333,487,1332,471,158634,0
patternWeightCount-59,true,1.00,278,440,276,426,35486,0
patternWeightCount-60,true,1.00,2999,611,2992,592,368847,0
patternWeightCount-61,true,1.00,787,408,785,389,95898,0
patternWeightCount-62,true,1.00,2741,556,2738,533,313692,0
patternWeightCount-63,true,1.00,1438,499,1428,485,174597,0
patternWeightCount-64,true,1.00,1463,483,1460,469,164081,0
patternWeightCount-65,true,1.00,1618,547,1611,533,192082,0
patternWeightCount-66,true,1.00,1404,529,1400,515,165515,0
patternWeightCount-67,true,1.00,1233,557,1227,543,138354,0
patternWeightCount-68,false,0.85,19412,999,19410,999,1075838,0
patternWeightCount-69,true,1.00,2162,469,2160,444,240667,0
patternWeightCount-70,true,1.00,1566,536,1563,521,192143,0
patternWeightCount-71,true,1.00,885,464,879,448,112522,0
patternWeightCount-72,false,0.80,4728,547,4725,547,530009,0
patternWeightCount-73,false,0.66,3894,413,3892,413,436871,0
patternWeightCount-74,true,1.00,1165,475,1163,461,152415,0
patternWeightCount-75,true,1.00,1404,502,1402,488,163191,0
patternWeightCount-76,true,1.00,895,515,891,501,103882,0
patternWeightCount-77,true,1.00,1010,469,1006,455,123968,0
patternWeightCount-78,true,1.00,2843,570,2838,556,318835,0
patternWeightCount-79,true,1.00,1378,408,1378,394,169989,0
patternWeightCount-80,true,1.00,2348,562,2346,548,282809,0
patternWeightCount-81,true,1.00,7581,662,7575,645,727341,0
patternWeightCount-82,true,1.00,187,447,185,430,25214,0
patternWeightCount-83,true,1.00,874,431,869,417,110603,0
patternWeightCount-84,true,1.00,1137,518,1135,504,136224,0
patternWeightCount-85,true,1.00,1324,513,1323,495,161057,0
patternWeightCount-86,false,0.93,3856,503,3850,503,406306,0
patternWeightCount-87,true,1.00,5655,519,5652,498,525474,0
patternWeightCount-88,true,1.00,1378,511,1374,497,168416,0
patternWeightCount-89,true,1.00,943,478,938,464,109450,0
patternWeightCount-90,true,1.00,6090,602,6086,574,674034,0
patternWeightCount-91,true,1.00,1506,549,1504,535,182420,0
patternWeightCount-92,true,1.00,3778,516,3774,494,420710,0
patternWeightCount-93,false,0.90,3970,533,3965,533,432456,0
patternWeightCount-94,true,1.00,1350,480,1349,466,158492,0
patternWeightCount-95,true,1.00,1852,496,1849,482,221426,0
patternWeightCount-96,true,1.00,1227,490,1221,476,140342,0
patternWeightCount-97,true,1.00,1100,417,1097,403,138153,0
patternWeightCount-98,true,1.00,6570,570,6567,557,709497,0
patternWeightCount-99,true,1.00,1164,495,1162,481,141829,0
patternWeightCount-100,true,1.00,704,452,699,438,77689,0
