NDW:0.0
TTFW:1.6
DFPT:2.0
DFPAP:3.0
DFPMP:3.0
RIGHT_WINDOW_BORDER_X:275.0
level,win/fail,% travelled,run time,game ticks,planning time,total plannings,nodes evaluated,most backtracked nodes
notchParamRand-1,true,1.00,857,312,855,287,98685,0
notchParamRand-2,true,1.00,156,306,156,281,20079,0
notchParamRand-3,true,1.00,885,306,882,281,112811,0
notchParamRand-4,true,1.00,1330,332,1328,307,163968,0
notchParamRand-5,true,1.00,281,306,278,281,33240,0
notchParamRand-6,true,1.00,378,314,376,289,45229,0
notchParamRand-7,true,1.00,248,294,245,269,32041,0
notchParamRand-8,true,1.00,489,306,486,281,56111,0
notchParamRand-9,true,1.00,556,340,555,315,68345,0
notchParamRand-10,true,1.00,748,350,746,325,94311,0
notchParamRand-11,true,1.00,141,294,140,269,17121,0
notchParamRand-12,true,1.00,290,306,289,281,35213,0
notchParamRand-13,true,1.00,1584,312,1582,287,180975,0
notchParamRand-14,true,1.00,944,312,942,287,108318,0
notchParamRand-15,true,1.00,576,308,575,283,71390,0
notchParamRand-16,true,1.00,418,300,417,275,57952,0
notchParamRand-17,true,1.00,89,303,88,278,12455,0
notchParamRand-18,true,1.00,1668,324,1667,299,205639,0
notchParamRand-19,true,1.00,192,328,190,303,24608,0
notchParamRand-20,true,1.00,1356,321,1353,296,170503,0
notchParamRand-21,true,1.00,84,296,83,271,12135,0
notchParamRand-22,true,1.00,871,314,871,289,106714,0
notchParamRand-23,true,1.00,954,325,951,300,118845,0
notchParamRand-24,true,1.00,199,325,199,300,25960,0
notchParamRand-25,true,1.00,81,308,80,280,11755,0
notchParamRand-26,true,1.00,428,334,425,309,51965,0
notchParamRand-27,true,1.00,251,300,247,275,36465,0
notchParamRand-28,true,1.00,513,315,511,290,59505,0
notchParamRand-29,true,1.00,91,298,88,273,14146,0
notchParamRand-30,true,1.00,1801,336,1800,311,215632,0
notchParamRand-31,true,1.00,407,316,404,291,50337,0
notchParamRand-32,true,1.00,154,294,154,269,22476,0
notchParamRand-33,true,1.00,1767,310,1766,285,209511,0
notchParamRand-34,true,1.00,921,318,919,293,110741,0
notchParamRand-35,true,1.00,510,318,508,293,62630,0
notchParamRand-36,true,1.00,78,300,76,272,10979,0
notchParamRand-37,true,1.00,393,310,390,285,50133,0
notchParamRand-38,true,1.00,1668,315,1666,290,193873,0
notchParamRand-39,true,1.00,1389,316,1389,291,165549,0
notchParamRand-40,true,1.00,1989,314,1987,289,232224,0
notchParamRand-41,true,1.00,87,294,87,269,13569,0
notchParamRand-42,true,1.00,444,316,442,291,54730,0
notchParamRand-43,true,1.00,252,300,252,275,34186,0
notchParamRand-44,true,1.00,284,302,282,277,36959,0
notchParamRand-45,true,1.00,910,316,908,291,100752,0
notchParamRand-46,true,1.00,487,311,486,286,59725,0
notchParamRand-47,true,1.00,712,314,711,289,85927,0
notchParamRand-48,true,1.00,1295,320,1293,295,153544,0
notchParamRand-49,true,1.00,671,306,668,281,79886,0
notchParamRand-50,true,1.00,1226,335,1225,310,147983,0
notchParamRand-51,true,1.00,189,315,186,290,23415,0
notchParamRand-52,true,1.00,684,304,683,279,80020,0
notchParamRand-53,true,1.00,865,326,865,301,102423,0
notchParamRand-54,true,1.00,1610,344,1606,319,185992,0
notchParamRand-55,true,1.00,1585,312,1582,287,175391,0
notchParamRand-56,true,1.00,643,325,642,300,77712,0
notchParamRand-57,true,1.00,874,312,872,287,109241,0
notchParamRand-58,true,1.00,846,323,845,298,103167,0
notchParamRand-59,true,1.00,389,311,387,286,49269,0
notchParamRand-60,true,1.00,721,311,719,286,89525,0
notchParamRand-61,true,1.00,470,306,470,281,56681,0
notchParamRand-62,true,1.00,423,320,422,295,49545,0
notchParamRand-63,true,1.00,1319,318,1316,293,156287,0
notchParamRand-64,true,1.00,287,296,284,271,38658,0
notchParamRand-65,true,1.00,2626,348,2624,323,300389,0
notchParamRand-66,true,1.00,240,318,238,293,29681,0
notchParamRand-67,true,1.00,296,300,294,275,35533,0
notchParamRand-68,true,1.00,1277,312,1273,287,154870,0
notchParamRand-69,true,1.00,253,309,251,284,34353,0
notchParamRand-70,true,1.00,613,326,613,301,76178,0
notchParamRand-71,true,1.00,325,326,322,301,38588,0
notchParamRand-72,true,1.00,147,294,145,269,19695,0
notchParamRand-73,true,1.00,406,308,404,283,45116,0
notchParamRand-74,true,1.00,90,296,89,271,13557,0
notchParamRand-75,true,1.00,90,294,86,269,13626,0
notchParamRand-76,true,1.00,1109,340,1106,315,127939,0
notchParamRand-77,true,1.00,1426,344,1424,319,159415,0
notchParamRand-78,true,1.00,890,310,889,285,106832,0
notchParamRand-79,true,1.00,279,298,277,273,34042,0
notchParamRand-80,true,1.00,281,302,280,277,33941,0
notchParamRand-81,true,1.00,291,298,289,273,39094,0
notchParamRand-82,true,1.00,713,312,710,287,86019,0
notchParamRand-83,true,1.00,1163,312,1161,287,135759,0
notchParamRand-84,true,1.00,260,300,256,275,33257,0
notchParamRand-85,true,1.00,90,294,86,269,14025,0
notchParamRand-86,true,1.00,528,338,527,313,60593,0
notchParamRand-87,true,1.00,1631,320,1628,295,197354,0
notchParamRand-88,true,1.00,291,300,290,275,39335,0
notchParamRand-89,true,1.00,362,300,361,275,47815,0
notchParamRand-90,true,1.00,560,310,559,285,66088,0
notchParamRand-91,true,1.00,83,294,81,269,12016,0
notchParamRand-92,true,1.00,817,332,817,307,99559,0
notchParamRand-93,true,1.00,282,316,281,283,35787,0
notchParamRand-94,true,1.00,1509,310,1507,285,176406,0
notchParamRand-95,true,1.00,677,316,677,291,79261,0
notchParamRand-96,true,1.00,392,325,390,300,46735,0
notchParamRand-97,true,1.00,1248,341,1245,316,140974,0
notchParamRand-98,true,1.00,245,294,245,269,36035,0
notchParamRand-99,true,1.00,287,310,286,285,34992,0
notchParamRand-100,true,1.00,1427,314,1425,289,167856,0
