NDW:0.0
TTFW:2.0
DFPT:2.0
DFPAP:3.0
DFPMP:1.0
RIGHT_WINDOW_BORDER_X:75.0
level,win/fail,% travelled,run time,game ticks,planning time,total plannings,nodes evaluated,most backtracked nodes
ge-1,false,0.22,910,85,908,85,38997,0
ge-2,true,1.00,461,249,454,242,21009,0
ge-3,true,1.00,282,253,277,245,12854,0
ge-4,false,0.37,4301,245,4299,245,191749,0
ge-5,true,1.00,63,203,57,196,2891,0
ge-6,true,1.00,1751,316,1736,309,77419,0
ge-7,true,1.00,182,234,174,227,8185,0
ge-8,true,1.00,210,221,202,214,9188,0
ge-9,true,1.00,1891,270,1881,263,87343,0
ge-10,true,1.00,61,199,54,192,2552,0
ge-11,true,1.00,216,231,212,224,9342,0
ge-12,true,1.00,63,209,55,202,2831,0
ge-13,true,1.00,554,268,545,261,24916,0
ge-14,true,1.00,227,251,222,244,9561,0
ge-15,true,1.00,1776,264,1773,258,79397,0
ge-16,true,1.00,1200,300,1197,293,55325,0
ge-17,true,1.00,443,227,435,220,19667,0
ge-18,true,1.00,3868,387,3859,380,129783,0
ge-19,true,1.00,1948,328,1938,321,82210,0
ge-20,true,1.00,524,236,508,230,22868,0
ge-21,true,1.00,1558,274,1550,268,68879,0
ge-22,true,1.00,391,214,385,207,16534,0
ge-23,false,0.75,2672,240,2667,240,86192,0
ge-24,true,1.00,1975,314,1958,307,82399,0
ge-25,false,0.63,1895,184,1893,184,83395,0
ge-26,true,1.00,925,227,920,220,41900,0
ge-27,true,1.00,86,221,76,215,3552,0
ge-28,false,0.53,3302,213,3295,213,138711,0
ge-29,true,1.00,820,267,810,243,37012,0
ge-30,false,0.36,4756,246,4747,246,221480,0
ge-31,false,0.22,152,62,151,62,7496,0
ge-32,true,1.00,173,235,167,229,8199,0
ge-33,true,1.00,137,237,130,213,6489,0
ge-34,true,1.00,1344,262,1335,255,64567,0
ge-35,false,0.84,706,275,696,275,32559,0
ge-36,false,0.76,6681,393,6677,393,335661,0
ge-37,true,1.00,1175,248,1173,240,53051,0
ge-38,false,0.75,4750,432,4744,432,230332,0
ge-39,true,1.00,1182,260,1173,253,57650,0
ge-40,true,1.00,68,207,62,200,3333,0
ge-41,true,1.00,346,227,337,221,16996,0
ge-42,true,1.00,648,244,639,238,29739,0
ge-43,true,1.00,366,239,356,232,17580,0
ge-44,false,0.69,3353,258,3344,258,153726,0
ge-45,true,1.00,1438,274,1434,268,69736,0
ge-46,false,0.29,29554,999,29553,999,1267024,0
ge-47,false,0.19,83,50,78,50,4025,0
ge-48,true,1.00,1884,320,1876,313,91299,0
ge-49,true,1.00,198,206,192,200,9072,0
ge-50,false,0.34,1984,139,1982,139,92360,0
ge-51,true,1.00,247,232,231,225,6314,0
ge-52,true,1.00,521,278,504,270,13588,0
ge-53,true,1.00,435,235,427,229,11287,0
ge-54,true,1.00,443,268,427,261,11836,0
ge-55,true,1.00,472,269,457,262,15491,0
ge-56,false,0.74,2331,224,2327,224,109257,0
ge-57,false,0.93,5011,378,5003,378,245432,0
ge-58,true,1.00,189,300,182,293,8943,0
ge-59,false,0.49,381,121,377,121,18347,0
ge-60,true,1.00,6124,383,6115,377,282269,0
ge-61,true,1.00,2258,288,2247,281,103594,0
ge-62,false,0.27,128,72,125,72,6081,0
ge-63,false,0.21,2765,135,2765,135,130545,0
ge-64,false,1.00,1351,299,1342,285,62447,0
ge-65,false,0.67,2974,248,2964,248,136825,0
ge-66,false,0.56,4539,254,4532,254,215593,0
ge-67,true,1.00,314,269,304,262,14572,0
ge-68,true,1.00,170,264,158,258,7588,0
ge-69,true,1.00,281,220,271,214,12945,0
ge-70,false,0.85,1902,234,1897,234,88434,0
ge-71,false,0.29,4555,220,4553,220,214970,0
ge-72,true,1.00,204,286,198,278,8964,0
ge-73,true,1.00,2904,289,2899,281,134504,0
ge-74,false,0.45,4105,242,4102,242,196176,0
ge-75,true,1.00,1042,274,1031,261,48008,0
ge-76,true,1.00,1479,264,1471,258,67240,0
ge-77,false,0.10,3440,131,3440,131,159442,0
ge-78,false,0.94,3037,348,3030,348,144803,0
ge-79,true,1.00,240,237,236,228,11439,0
ge-80,true,1.00,90,242,80,235,4353,0
ge-81,true,1.00,74,220,67,214,3524,0
ge-82,true,1.00,83,242,79,229,4012,0
ge-83,true,1.00,2505,350,2496,343,119284,0
ge-84,false,0.12,108,37,108,37,5230,0
ge-85,true,1.00,1355,244,1350,237,64654,0
ge-86,false,0.93,4758,372,4751,372,228830,0
ge-87,true,1.00,1528,261,1523,254,72678,0
ge-88,false,0.37,2770,171,2768,171,133158,0
ge-89,true,1.00,200,258,190,251,9840,0
ge-90,true,1.00,67,207,57,200,3211,0
ge-91,true,1.00,2917,300,2908,293,136088,0
ge-92,true,1.00,75,215,71,208,3455,0
ge-93,true,1.00,4089,365,4081,358,192556,0
ge-94,false,0.76,3557,265,3552,265,171880,0
ge-95,true,1.00,93,262,82,256,4387,0
ge-96,true,1.00,3598,351,3593,344,165072,0
ge-97,false,0.61,2224,192,2220,192,98875,0
ge-98,true,1.00,74,211,67,204,3550,0
ge-99,true,1.00,266,219,260,212,11905,0
ge-100,true,1.00,1441,264,1429,258,65908,0
