NDW:0.0
TTFW:0.8
DFPT:2.0
DFPAP:3.0
DFPMP:0.0
RIGHT_WINDOW_BORDER_X:275.0
level,win/fail,% travelled,run time,game ticks,planning time,total plannings,nodes evaluated,most backtracked nodes
notchParam-1,true,1.00,896,310,892,285,86702,0
notchParam-2,true,1.00,845,310,841,285,76302,0
notchParam-3,true,1.00,588,312,588,287,57396,0
notchParam-4,true,1.00,592,316,591,291,54964,0
notchParam-5,true,1.00,594,314,590,288,58125,0
notchParam-6,true,1.00,592,322,592,297,56128,0
notchParam-7,true,1.00,866,320,863,295,83152,0
notchParam-8,true,1.00,1029,312,1028,287,98749,0
notchParam-9,true,1.00,612,333,611,308,56442,0
notchParam-10,true,1.00,1084,318,1083,293,103009,0
notchParam-11,true,1.00,552,316,552,291,51412,0
notchParam-12,true,1.00,1072,319,1068,294,103628,0
notchParam-13,true,1.00,269,316,266,291,27111,0
notchParam-14,true,1.00,262,304,260,279,26199,0
notchParam-15,true,1.00,886,298,883,273,85054,0
notchParam-16,true,1.00,794,326,792,301,84073,0
notchParam-17,true,1.00,897,308,893,283,85582,0
notchParam-18,true,1.00,302,324,302,299,29405,0
notchParam-19,true,1.00,261,309,258,284,25747,0
notchParam-20,true,1.00,261,308,261,283,25892,0
notchParam-21,true,1.00,266,308,263,283,26438,0
notchParam-22,true,1.00,279,316,277,291,27809,0
notchParam-23,true,1.00,1338,349,1336,324,123954,0
notchParam-24,true,1.00,1066,320,1063,295,104670,0
notchParam-25,true,1.00,1096,318,1096,293,103457,0
notchParam-26,true,1.00,1113,326,1111,301,105315,0
notchParam-27,true,1.00,265,313,261,288,26593,0
notchParam-28,true,1.00,579,319,577,294,55206,0
notchParam-29,true,1.00,653,323,650,298,61728,0
notchParam-30,true,1.00,260,308,259,283,26039,0
notchParam-31,true,1.00,888,328,886,303,88380,0
notchParam-32,true,1.00,874,316,872,291,84584,0
notchParam-33,true,1.00,263,300,261,275,27507,0
notchParam-34,true,1.00,829,308,826,283,81332,0
notchParam-35,true,1.00,1336,358,1333,333,114854,0
notchParam-36,true,1.00,893,308,893,283,88943,0
notchParam-37,true,1.00,262,300,260,275,26863,0
notchParam-38,true,1.00,265,306,264,281,27295,0
notchParam-39,true,1.00,1073,335,1072,310,97034,0
notchParam-40,true,1.00,502,314,501,289,48255,0
notchParam-41,true,1.00,543,321,543,296,52223,0
notchParam-42,true,1.00,268,312,265,287,26908,0
notchParam-43,true,1.00,1004,316,1003,291,94987,0
notchParam-44,true,1.00,1113,318,1113,293,108495,0
notchParam-45,true,1.00,1092,326,1090,295,109298,0
notchParam-46,true,1.00,1087,314,1085,289,100071,0
notchParam-47,true,1.00,267,302,260,277,28605,0
notchParam-48,true,1.00,248,315,247,290,24314,0
notchParam-49,true,1.00,271,316,269,285,26709,0
notchParam-50,true,1.00,379,326,376,301,32113,0
notchParam-51,true,1.00,256,306,254,281,25369,0
notchParam-52,true,1.00,841,302,839,277,86247,0
notchParam-53,true,1.00,1119,327,1116,302,107235,0
notchParam-54,true,1.00,978,324,977,299,90202,0
notchParam-55,true,1.00,284,317,283,292,27679,0
notchParam-56,true,1.00,269,304,266,279,27111,0
notchParam-57,true,1.00,1111,322,1109,297,109707,0
notchParam-58,true,1.00,634,329,632,304,58268,0
notchParam-59,true,1.00,1221,339,1221,314,114660,0
notchParam-60,true,1.00,551,328,550,303,50875,0
notchParam-61,true,1.00,1123,329,1120,304,106944,0
notchParam-62,true,1.00,820,300,817,275,76872,0
notchParam-63,true,1.00,595,322,591,297,55138,0
notchParam-64,true,1.00,557,330,554,305,53906,0
notchParam-65,true,1.00,591,316,589,291,57123,0
notchParam-66,true,1.00,567,338,564,313,52740,0
notchParam-67,true,1.00,840,304,837,279,85483,0
notchParam-68,true,1.00,861,317,857,288,81837,0
notchParam-69,true,1.00,821,300,818,275,76854,0
notchParam-70,true,1.00,869,306,868,281,84995,0
notchParam-71,true,1.00,662,344,656,319,63330,0
notchParam-72,true,1.00,552,329,551,304,53541,0
notchParam-73,true,1.00,523,310,519,285,49844,0
notchParam-74,true,1.00,594,329,591,304,54502,0
notchParam-75,true,1.00,607,315,606,290,60550,0
notchParam-76,true,1.00,1228,332,1226,307,119553,0
notchParam-77,true,1.00,605,315,605,290,58904,0
notchParam-78,true,1.00,1075,316,1073,291,103908,0
notchParam-79,true,1.00,591,320,589,295,56186,0
notchParam-80,true,1.00,334,334,332,309,32290,0
notchParam-81,true,1.00,536,332,535,307,52512,0
notchParam-82,true,1.00,265,305,264,280,26658,0
notchParam-83,true,1.00,271,306,271,281,27986,0
notchParam-84,true,1.00,862,310,860,285,82236,0
notchParam-85,true,1.00,968,334,968,309,87891,0
notchParam-86,true,1.00,1098,310,1097,285,106014,0
notchParam-87,true,1.00,256,314,255,289,26111,0
notchParam-88,true,1.00,289,308,285,283,27771,0
notchParam-89,true,1.00,266,304,266,279,27093,0
notchParam-90,true,1.00,263,300,261,275,26856,0
notchParam-91,true,1.00,1036,324,1033,299,97319,0
notchParam-92,true,1.00,1057,308,1055,283,98520,0
notchParam-93,true,1.00,1108,329,1106,299,104401,0
notchParam-94,true,1.00,1061,334,1058,309,101867,0
notchParam-95,true,1.00,1267,359,1265,334,116178,0
notchParam-96,true,1.00,570,314,568,289,57704,0
notchParam-97,true,1.00,526,314,523,289,49440,0
notchParam-98,true,1.00,268,308,266,283,27187,0
notchParam-99,true,1.00,923,318,923,293,87099,0
notchParam-100,true,1.00,856,306,854,281,86946,0
