NDW:0.0
TTFW:0.4
DFPT:2.0
DFPAP:3.0
DFPMP:0.0
RIGHT_WINDOW_BORDER_X:235.0
level,win/fail,% travelled,run time,game ticks,planning time,total plannings,nodes evaluated,most backtracked nodes
notchParam-1,true,1.00,978,304,975,281,88613,0
notchParam-2,true,1.00,1306,316,1304,295,110051,0
notchParam-3,true,1.00,809,320,808,299,72136,0
notchParam-4,true,1.00,853,314,852,293,74402,0
notchParam-5,true,1.00,808,310,807,288,73438,0
notchParam-6,true,1.00,831,300,828,279,76114,0
notchParam-7,true,1.00,1148,311,1146,290,102542,0
notchParam-8,true,1.00,1300,318,1297,297,116232,0
notchParam-9,true,1.00,914,316,912,293,80035,0
notchParam-10,true,1.00,1293,312,1291,291,113290,0
notchParam-11,true,1.00,747,306,744,285,68049,0
notchParam-12,true,1.00,1253,306,1252,285,109593,0
notchParam-13,true,1.00,520,297,519,276,49867,0
notchParam-14,true,1.00,481,298,479,277,46364,0
notchParam-15,true,1.00,1101,304,1099,283,97266,0
notchParam-16,true,1.00,1406,320,1404,299,125314,0
notchParam-17,true,1.00,1220,314,1218,293,111427,0
notchParam-18,true,1.00,796,330,794,309,65699,0
notchParam-19,true,1.00,428,302,427,281,40389,0
notchParam-20,true,1.00,457,300,453,279,43935,0
notchParam-21,true,1.00,492,298,490,277,46458,0
notchParam-22,true,1.00,475,306,474,285,45000,0
notchParam-23,true,1.00,1545,330,1541,309,129910,0
notchParam-24,true,1.00,1332,314,1329,293,120167,0
notchParam-25,true,1.00,1337,328,1335,302,116904,0
notchParam-26,true,1.00,1339,320,1336,294,118780,0
notchParam-27,true,1.00,455,298,449,277,44297,0
notchParam-28,true,1.00,824,314,823,293,72360,0
notchParam-29,true,1.00,841,306,838,285,76689,0
notchParam-30,true,1.00,476,296,475,275,46994,0
notchParam-31,true,1.00,1299,335,1298,314,112324,0
notchParam-32,true,1.00,1263,318,1262,297,113960,0
notchParam-33,true,1.00,498,294,495,273,49362,0
notchParam-34,true,1.00,1178,320,1178,299,104078,0
notchParam-35,true,1.00,1355,350,1352,327,114564,0
notchParam-36,true,1.00,1208,314,1207,293,112150,0
notchParam-37,true,1.00,547,300,546,279,52609,0
notchParam-38,true,1.00,508,302,507,281,49455,0
notchParam-39,true,1.00,1217,318,1216,297,106052,0
notchParam-40,true,1.00,711,308,709,287,64050,0
notchParam-41,true,1.00,755,308,750,287,68603,0
notchParam-42,true,1.00,571,325,569,299,51996,0
notchParam-43,true,1.00,1246,302,1244,281,110805,0
notchParam-44,true,1.00,1568,330,1567,309,139804,0
notchParam-45,true,1.00,1312,304,1311,281,119200,0
notchParam-46,true,1.00,1254,304,1250,283,111828,0
notchParam-47,true,1.00,449,300,448,279,43133,0
notchParam-48,true,1.00,477,308,473,287,43693,0
notchParam-49,true,1.00,559,311,557,285,50994,0
notchParam-50,true,1.00,731,318,729,297,59624,0
notchParam-51,true,1.00,432,306,429,285,41835,0
notchParam-52,true,1.00,1050,316,1048,295,94996,0
notchParam-53,true,1.00,1563,369,1563,343,136167,0
notchParam-54,true,1.00,1344,341,1342,320,114435,0
notchParam-55,true,1.00,661,310,658,289,56111,0
notchParam-56,true,1.00,486,296,486,275,46912,0
notchParam-57,true,1.00,1288,324,1285,303,115991,0
notchParam-58,true,1.00,928,331,925,310,81260,0
notchParam-59,true,1.00,1527,325,1526,304,130064,0
notchParam-60,true,1.00,1075,340,1072,319,89603,0
notchParam-61,true,1.00,1318,338,1316,317,115000,0
notchParam-62,true,1.00,1071,308,1070,287,92415,0
notchParam-63,true,1.00,823,308,823,287,72738,0
notchParam-64,true,1.00,733,298,730,277,68136,0
notchParam-65,true,1.00,758,310,756,289,69133,0
notchParam-66,true,1.00,791,306,790,285,71097,0
notchParam-67,true,1.00,980,304,978,283,87255,0
notchParam-68,true,1.00,1164,318,1162,297,101395,0
notchParam-69,true,1.00,1076,303,1074,282,94175,0
notchParam-70,true,1.00,1176,320,1174,299,104106,0
notchParam-71,true,1.00,901,328,901,307,79969,0
notchParam-72,true,1.00,800,322,792,301,71112,0
notchParam-73,true,1.00,767,308,765,287,69356,0
notchParam-74,true,1.00,803,316,801,295,70860,0
notchParam-75,true,1.00,875,324,873,301,77540,0
notchParam-76,true,1.00,1391,326,1390,300,121564,0
notchParam-77,true,1.00,860,316,856,295,76816,0
notchParam-78,true,1.00,1337,318,1335,297,119142,0
notchParam-79,true,1.00,846,312,846,291,77245,0
notchParam-80,true,1.00,702,310,700,289,60046,0
notchParam-81,true,1.00,786,306,782,283,72636,0
notchParam-82,true,1.00,488,304,486,283,46455,0
notchParam-83,true,1.00,456,302,456,281,43992,0
notchParam-84,true,1.00,1117,311,1116,290,97746,0
notchParam-85,true,1.00,1166,315,1165,294,100704,0
notchParam-86,true,1.00,1307,308,1306,287,115318,0
notchParam-87,true,1.00,465,294,464,273,46105,0
notchParam-88,true,1.00,482,312,478,291,44498,0
notchParam-89,true,1.00,514,300,512,279,49255,0
notchParam-90,true,1.00,473,294,472,273,46217,0
notchParam-91,true,1.00,1381,316,1381,295,117546,0
notchParam-92,true,1.00,1369,304,1366,283,119934,0
notchParam-93,true,1.00,1294,316,1292,295,115219,0
notchParam-94,true,1.00,1627,330,1626,309,140870,0
notchParam-95,true,1.00,1904,370,1899,349,155520,0
notchParam-96,true,1.00,769,304,768,283,72932,0
notchParam-97,true,1.00,790,302,788,281,71619,0
notchParam-98,true,1.00,478,294,477,273,47187,0
notchParam-99,true,1.00,1354,341,1353,320,118025,0
notchParam-100,true,1.00,1065,300,1064,279,96548,0
