NDW:0.0
TTFW:2.0
DFPT:2.0
DFPAP:3.0
DFPMP:7.0
RIGHT_WINDOW_BORDER_X:400.0
level,win/fail,% travelled,run time,game ticks,planning time,total plannings,nodes evaluated,most backtracked nodes
ge-1,true,1.00,726,243,719,194,40262,0
ge-2,true,1.00,503,229,500,192,27091,0
ge-3,true,1.00,291,232,283,191,13474,0
ge-4,true,1.00,995,254,992,212,55267,0
ge-5,true,1.00,109,206,102,162,4164,0
ge-6,true,1.00,574,241,567,204,30626,0
ge-7,true,1.00,192,233,187,175,8383,0
ge-8,true,1.00,256,231,252,195,12474,0
ge-9,true,1.00,477,226,474,173,26642,0
ge-10,true,1.00,106,206,101,162,4054,0
ge-11,true,1.00,241,219,236,183,11817,0
ge-12,true,1.00,107,206,105,162,4096,0
ge-13,true,1.00,474,279,465,235,23873,0
ge-14,true,1.00,302,234,296,183,14820,0
ge-15,true,1.00,628,217,622,181,34641,0
ge-16,true,1.00,333,307,323,271,13027,0
ge-17,true,1.00,374,220,367,175,20073,0
ge-18,true,1.00,380,287,376,251,17033,0
ge-19,true,1.00,473,266,464,229,24939,0
ge-20,true,1.00,466,229,459,192,25442,0
ge-21,true,1.00,285,208,282,164,14659,0
ge-22,true,1.00,399,210,395,166,21390,0
ge-23,true,1.00,630,205,625,168,35244,0
ge-24,true,1.00,524,233,518,186,28504,0
ge-25,true,1.00,386,208,379,164,20960,0
ge-26,true,1.00,283,212,279,168,15328,0
ge-27,true,1.00,135,220,129,184,5321,0
ge-28,true,1.00,607,212,605,168,33987,0
ge-29,true,1.00,253,221,249,162,13159,0
ge-30,true,1.00,717,275,710,219,38772,0
ge-31,true,1.00,742,222,735,186,41782,0
ge-32,true,1.00,273,248,267,211,11620,0
ge-33,true,1.00,203,232,197,162,9217,0
ge-34,true,1.00,646,216,640,172,36679,0
ge-35,true,1.00,466,328,459,278,21505,0
ge-36,false,1.00,853,244,851,200,47736,0
ge-37,true,1.00,313,204,306,162,16933,0
ge-38,true,1.00,743,262,740,226,39284,0
ge-39,true,1.00,341,223,336,165,17737,0
ge-40,true,1.00,104,206,99,162,4124,0
ge-41,true,1.00,258,205,252,169,13601,0
ge-42,true,1.00,1784,261,1780,223,104614,0
ge-43,true,1.00,397,259,391,204,20472,0
ge-44,true,1.00,588,230,585,183,33084,0
ge-45,true,1.00,382,222,372,186,19261,0
ge-46,true,1.00,1263,274,1258,237,71175,0
ge-47,true,1.00,776,245,772,205,43766,0
ge-48,true,1.00,538,234,534,198,25818,0
ge-49,true,1.00,219,204,213,162,11066,0
ge-50,true,1.00,547,216,540,179,29959,0
ge-51,true,1.00,243,227,233,190,11190,0
ge-52,true,1.00,484,266,481,227,23603,0
ge-53,true,1.00,364,211,356,175,19501,0
ge-54,true,1.00,360,254,354,207,18020,0
ge-55,true,1.00,447,240,444,192,23463,0
ge-56,true,1.00,416,224,412,172,22041,0
ge-57,true,1.00,566,223,558,175,31367,0
ge-58,true,1.00,335,282,327,245,12927,0
ge-59,true,1.00,789,222,785,183,44091,0
ge-60,true,1.00,692,208,682,164,38777,0
ge-61,true,1.00,316,204,314,165,16856,0
ge-62,true,1.00,561,222,556,178,29913,0
ge-63,true,1.00,997,223,990,186,56261,0
ge-64,true,1.00,342,254,333,190,16526,0
ge-65,true,1.00,681,233,676,192,38405,0
ge-66,true,1.00,707,230,700,172,40756,0
ge-67,true,1.00,1112,274,1105,237,62458,0
ge-68,true,1.00,195,249,190,213,7430,0
ge-69,true,1.00,212,206,206,162,10921,0
ge-70,true,1.00,440,226,433,178,24066,0
ge-71,true,1.00,946,236,943,200,53571,0
ge-72,true,1.00,316,262,310,226,14028,0
ge-73,true,1.00,325,214,315,170,17490,0
ge-74,true,1.00,912,250,905,214,50337,0
ge-75,true,1.00,310,244,303,185,16414,0
ge-76,true,1.00,817,221,811,183,47598,0
ge-77,true,1.00,1127,232,1119,195,65900,0
ge-78,true,1.00,742,256,738,202,41259,0
ge-79,true,1.00,248,218,243,182,12293,0
ge-80,true,1.00,133,222,129,162,4975,0
ge-81,true,1.00,198,241,193,205,7117,0
ge-82,true,1.00,190,268,181,208,7455,0
ge-83,false,1.00,269,283,265,212,12163,0
ge-84,true,1.00,437,216,432,172,23762,0
ge-85,true,1.00,360,214,353,170,19481,0
ge-86,true,1.00,767,218,762,164,45742,0
ge-87,true,1.00,778,244,771,200,43956,0
ge-88,true,1.00,458,254,450,181,25067,0
ge-89,true,1.00,346,271,344,214,15337,0
ge-90,true,1.00,107,206,103,162,4225,0
ge-91,true,1.00,310,206,305,162,16729,0
ge-92,true,1.00,119,212,112,168,4983,0
ge-93,true,1.00,560,232,554,180,32249,0
ge-94,true,1.00,451,206,449,164,24909,0
ge-95,true,1.00,235,260,229,200,9614,0
ge-96,true,1.00,646,250,641,192,35179,0
ge-97,true,1.00,485,241,476,202,25578,0
ge-98,true,1.00,99,206,94,162,3968,0
ge-99,true,1.00,228,206,222,162,9501,0
ge-100,true,1.00,127,212,119,168,5301,0
