NDW:0.0
TTFW:0.4
DFPT:2.0
DFPAP:3.0
DFPMP:2.0
RIGHT_WINDOW_BORDER_X:400.0
level,win/fail,% travelled,run time,game ticks,planning time,total plannings,nodes evaluated,most backtracked nodes
patternWeightCount-1,true,1.00,4211,392,4211,348,285265,0
patternWeightCount-2,true,1.00,1221,370,1219,331,85038,0
patternWeightCount-3,true,1.00,1594,353,1592,317,102227,0
patternWeightCount-4,true,1.00,1439,336,1438,300,95998,0
patternWeightCount-5,true,1.00,2868,421,2865,383,161408,0
patternWeightCount-6,true,1.00,2670,391,2665,353,146207,0
patternWeightCount-7,true,1.00,1864,387,1862,351,104872,0
patternWeightCount-8,true,1.00,1315,366,1314,325,69548,0
patternWeightCount-9,true,1.00,2397,363,2395,322,124924,0
patternWeightCount-10,true,1.00,2226,383,2223,345,135720,0
patternWeightCount-11,true,1.00,1822,397,1819,361,113097,0
patternWeightCount-12,true,1.00,2865,408,2860,372,173776,0
patternWeightCount-13,true,1.00,1490,337,1489,296,98230,0
patternWeightCount-14,true,1.00,1572,359,1571,322,97722,0
patternWeightCount-15,true,1.00,2252,373,2249,337,143592,0
patternWeightCount-16,true,1.00,3890,417,3889,371,251351,0
patternWeightCount-17,true,1.00,2204,397,2199,360,132240,0
patternWeightCount-18,true,1.00,2353,388,2352,347,144034,0
patternWeightCount-19,true,1.00,1659,351,1656,315,103775,0
patternWeightCount-20,true,1.00,5770,402,5768,347,393574,0
patternWeightCount-21,true,1.00,1336,370,1334,329,81417,0
patternWeightCount-22,true,1.00,3785,392,3783,343,242295,0
patternWeightCount-23,true,1.00,2360,378,2357,341,150789,0
patternWeightCount-24,true,1.00,1853,375,1851,334,122337,0
patternWeightCount-25,true,1.00,3714,409,3712,368,228331,0
patternWeightCount-26,true,1.00,3758,459,3755,422,222968,0
patternWeightCount-27,true,1.00,3215,396,3213,349,203212,0
patternWeightCount-28,true,1.00,2609,423,2602,387,160858,0
patternWeightCount-29,true,1.00,2075,379,2070,343,128325,0
patternWeightCount-30,true,1.00,4573,421,4573,366,291194,0
patternWeightCount-31,true,1.00,2161,389,2158,353,137303,0
patternWeightCount-32,true,1.00,1969,342,1966,306,103409,0
patternWeightCount-33,true,1.00,2214,385,2208,349,137121,0
patternWeightCount-34,true,1.00,2113,364,2108,328,136227,0
patternWeightCount-35,true,1.00,2262,369,2261,333,149317,0
patternWeightCount-36,true,1.00,2406,379,2403,343,151717,0
patternWeightCount-37,true,1.00,1908,377,1904,341,117392,0
patternWeightCount-38,true,1.00,1994,353,1992,299,128112,0
patternWeightCount-39,true,1.00,1767,383,1766,347,115737,0
patternWeightCount-40,true,1.00,2667,406,2665,365,168101,0
patternWeightCount-41,true,1.00,2461,375,2459,326,135759,0
patternWeightCount-42,false,0.87,3778,319,3777,319,235694,0
patternWeightCount-43,true,1.00,2311,338,2308,302,111075,0
patternWeightCount-44,true,1.00,3228,398,3222,349,165724,0
patternWeightCount-45,true,1.00,3939,418,3936,371,235902,0
patternWeightCount-46,true,1.00,5505,448,5502,399,324796,0
patternWeightCount-47,true,1.00,2059,364,2055,328,99201,0
patternWeightCount-48,true,1.00,1206,324,1204,288,79563,0
patternWeightCount-49,true,1.00,1617,371,1615,335,99543,0
patternWeightCount-50,true,1.00,1479,378,1477,341,93342,0
patternWeightCount-51,true,1.00,2235,380,2232,332,137557,0
patternWeightCount-52,true,1.00,2866,386,2856,334,172720,0
patternWeightCount-53,true,1.00,6126,498,6123,443,399627,0
patternWeightCount-54,true,1.00,1689,374,1687,337,106017,0
patternWeightCount-55,true,1.00,1763,352,1762,316,115930,0
patternWeightCount-56,true,1.00,1541,356,1536,320,100436,0
patternWeightCount-57,true,1.00,1102,334,1100,298,72296,0
patternWeightCount-58,true,1.00,2061,378,2057,341,130626,0
patternWeightCount-59,true,1.00,2056,383,2052,347,125237,0
patternWeightCount-60,true,1.00,2567,402,2565,353,156154,0
patternWeightCount-61,true,1.00,2006,356,2006,320,128608,0
patternWeightCount-62,true,1.00,2944,381,2937,339,196779,0
patternWeightCount-63,true,1.00,1906,387,1902,346,127736,0
patternWeightCount-64,true,1.00,2595,372,2590,336,156445,0
patternWeightCount-65,true,1.00,3630,469,3629,422,213770,0
patternWeightCount-66,true,1.00,2408,393,2404,351,148053,0
patternWeightCount-67,true,1.00,1991,350,1987,314,125220,0
patternWeightCount-68,true,1.00,1203,408,1202,372,75062,0
patternWeightCount-69,true,1.00,3659,371,3659,328,221923,0
patternWeightCount-70,true,1.00,2664,373,2659,329,159404,0
patternWeightCount-71,true,1.00,1660,383,1657,342,108320,0
patternWeightCount-72,true,1.00,4037,371,4036,328,263961,0
patternWeightCount-73,true,1.00,5166,383,5166,337,344235,0
patternWeightCount-74,true,1.00,1893,357,1890,321,116454,0
patternWeightCount-75,true,1.00,2737,382,2735,346,169146,0
patternWeightCount-76,true,1.00,2621,408,2618,371,161610,0
patternWeightCount-77,true,1.00,2164,405,2158,369,135673,0
patternWeightCount-78,true,1.00,3844,493,3840,454,235174,0
patternWeightCount-79,true,1.00,1905,343,1901,307,117953,0
patternWeightCount-80,true,1.00,2462,434,2460,397,151845,0
patternWeightCount-81,true,1.00,3771,402,3763,356,244762,0
patternWeightCount-82,true,1.00,1286,334,1285,292,78642,0
patternWeightCount-83,true,1.00,1411,358,1409,322,90354,0
patternWeightCount-84,true,1.00,2140,396,2138,359,129598,0
patternWeightCount-85,true,1.00,2105,338,2103,302,137974,0
patternWeightCount-86,false,0.94,3269,344,3265,344,220841,0
patternWeightCount-87,true,1.00,5875,425,5872,370,380055,0
patternWeightCount-88,true,1.00,2651,393,2649,356,166158,0
patternWeightCount-89,true,1.00,1801,361,1797,325,114316,0
patternWeightCount-90,true,1.00,5686,417,5684,371,357928,0
patternWeightCount-91,true,1.00,1535,344,1531,301,95981,0
patternWeightCount-92,true,1.00,4753,439,4752,389,310822,0
patternWeightCount-93,true,1.00,3345,376,3340,338,211895,0
patternWeightCount-94,true,1.00,1952,370,1948,333,122358,0
patternWeightCount-95,true,1.00,2584,382,2580,346,159350,0
patternWeightCount-96,true,1.00,1694,387,1691,351,107023,0
patternWeightCount-97,true,1.00,1649,358,1648,322,103691,0
patternWeightCount-98,true,1.00,5177,414,5176,352,350755,0
patternWeightCount-99,true,1.00,2637,379,2634,342,159236,0
patternWeightCount-100,true,1.00,2202,361,2198,325,139816,0
