NDW:0.0
TTFW:0.4
DFPT:2.0
DFPAP:3.0
DFPMP:50.0
RIGHT_WINDOW_BORDER_X:350.0
level,win/fail,% travelled,run time,game ticks,planning time,total plannings,nodes evaluated,most backtracked nodes
patternOccur-1,true,1.00,1907,376,1906,344,123392,0
patternOccur-2,true,1.00,1711,380,1707,348,113102,0
patternOccur-3,true,1.00,2440,375,2437,343,160131,0
patternOccur-4,true,1.00,2760,399,2756,367,180602,0
patternOccur-5,true,1.00,1258,363,1254,330,84811,0
patternOccur-6,true,1.00,3035,418,3032,386,194238,0
patternOccur-7,true,1.00,1990,393,1990,352,131688,0
patternOccur-8,true,1.00,2132,382,2131,349,141616,0
patternOccur-9,true,1.00,2660,387,2659,355,174539,0
patternOccur-10,true,1.00,1280,344,1278,312,85754,0
patternOccur-11,true,1.00,3511,407,3509,363,240264,0
patternOccur-12,true,1.00,3488,417,3486,385,222439,0
patternOccur-13,true,1.00,2758,411,2754,379,172077,0
patternOccur-14,true,1.00,3862,384,3859,338,262308,0
patternOccur-15,true,1.00,1854,352,1852,320,121222,0
patternOccur-16,true,1.00,4822,436,4821,394,346038,0
patternOccur-17,true,1.00,2063,383,2063,351,132076,0
patternOccur-18,true,1.00,2299,388,2296,356,140877,0
patternOccur-19,true,1.00,4603,415,4601,369,300329,0
patternOccur-20,true,1.00,1640,383,1639,351,113602,0
patternOccur-21,true,1.00,1932,409,1929,371,126560,0
patternOccur-22,true,1.00,4188,398,4187,357,291070,0
patternOccur-23,true,1.00,3232,422,3228,390,199359,0
patternOccur-24,true,1.00,2614,416,2610,384,165691,0
patternOccur-25,true,1.00,2856,439,2849,407,187355,0
patternOccur-26,true,1.00,1220,340,1218,308,79509,0
patternOccur-27,true,1.00,3167,387,3163,342,205122,0
patternOccur-28,true,1.00,2796,372,2794,340,178532,0
patternOccur-29,true,1.00,1843,363,1840,331,118108,0
patternOccur-30,true,1.00,1647,376,1646,344,105088,0
patternOccur-31,true,1.00,5985,447,5980,414,429462,0
patternOccur-32,true,1.00,3613,416,3610,348,244373,0
patternOccur-33,true,1.00,1747,385,1744,353,117174,0
patternOccur-34,true,1.00,1745,379,1745,342,116828,0
patternOccur-35,true,1.00,1542,374,1542,342,98178,0
patternOccur-36,true,1.00,2331,355,2330,322,165885,0
patternOccur-37,true,1.00,4987,459,4982,408,326040,0
patternOccur-38,true,1.00,2102,390,2102,358,138071,0
patternOccur-39,true,1.00,4460,440,4458,408,293987,0
patternOccur-40,true,1.00,2622,398,2618,365,173149,0
patternOccur-41,true,1.00,2455,403,2449,369,158236,0
patternOccur-42,false,0.89,4610,390,4603,390,298297,0
patternOccur-43,true,1.00,1939,373,1936,341,127947,0
patternOccur-44,true,1.00,2491,410,2490,378,163666,0
patternOccur-45,true,1.00,2616,385,2611,351,178695,0
patternOccur-46,true,1.00,2432,449,2428,417,151884,0
patternOccur-47,true,1.00,4630,459,4626,409,305734,0
patternOccur-48,true,1.00,2513,441,2511,409,158593,0
patternOccur-49,true,1.00,1619,367,1616,335,104449,0
patternOccur-50,true,1.00,2624,413,2622,373,170448,0
patternOccur-51,true,1.00,2547,403,2537,369,167908,0
patternOccur-52,true,1.00,2350,394,2345,359,153651,0
patternOccur-53,true,1.00,2109,401,2107,369,137126,0
patternOccur-54,true,1.00,2899,384,2897,352,192984,0
patternOccur-55,true,1.00,3267,442,3265,410,206039,0
patternOccur-56,true,1.00,2804,410,2801,377,182087,0
patternOccur-57,true,1.00,3046,418,3038,386,197869,0
patternOccur-58,true,1.00,4669,415,4664,376,319267,0
patternOccur-59,true,1.00,2019,369,2017,337,134293,0
patternOccur-60,true,1.00,3712,442,3710,395,244261,0
patternOccur-61,true,1.00,1889,401,1887,369,130969,0
patternOccur-62,true,1.00,2033,376,2031,344,132824,0
patternOccur-63,true,1.00,2090,368,2083,336,135690,0
patternOccur-64,true,1.00,3164,412,3160,378,203839,0
patternOccur-65,true,1.00,2326,444,2323,412,147378,0
patternOccur-66,true,1.00,1907,365,1906,333,124492,0
patternOccur-67,true,1.00,2581,413,2579,381,174046,0
patternOccur-68,true,1.00,1830,392,1827,360,116028,0
patternOccur-69,true,1.00,3948,437,3944,388,274193,0
patternOccur-70,true,1.00,5035,465,5032,397,328512,0
patternOccur-71,true,1.00,3056,415,3051,383,200211,0
patternOccur-72,true,1.00,4318,438,4315,400,284603,0
patternOccur-73,true,1.00,3705,429,3700,386,248779,0
patternOccur-74,true,1.00,4436,468,4432,422,296457,0
patternOccur-75,true,1.00,3112,415,3108,380,214640,0
patternOccur-76,true,1.00,1830,353,1828,321,128168,0
patternOccur-77,true,1.00,2136,380,2134,348,133118,0
patternOccur-78,true,1.00,1376,337,1374,305,87824,0
patternOccur-79,true,1.00,2470,403,2469,371,157610,0
patternOccur-80,true,1.00,4730,469,4725,406,305198,0
patternOccur-81,true,1.00,4525,447,4523,401,320532,0
patternOccur-82,true,1.00,2942,407,2939,375,190287,0
patternOccur-83,true,1.00,2036,394,2030,362,131599,0
patternOccur-84,true,1.00,2019,386,2019,354,129859,0
patternOccur-85,true,1.00,2983,409,2983,375,206620,0
patternOccur-86,true,1.00,3078,395,3075,345,206495,0
patternOccur-87,true,1.00,1555,368,1550,336,101413,0
patternOccur-88,true,1.00,2047,391,2045,359,135618,0
patternOccur-89,true,1.00,2872,435,2869,403,186244,0
patternOccur-90,true,1.00,3506,447,3503,413,235670,0
patternOccur-91,true,1.00,2106,395,2104,363,136431,0
patternOccur-92,true,1.00,1587,366,1585,334,97481,0
patternOccur-93,true,1.00,2293,398,2290,360,146610,0
patternOccur-94,true,1.00,5301,434,5298,398,349820,0
patternOccur-95,true,1.00,2192,436,2187,403,139192,0
patternOccur-96,false,0.88,3677,362,3674,362,236324,0
patternOccur-97,true,1.00,1829,346,1826,314,121011,0
patternOccur-98,false,0.90,3556,389,3554,389,226376,0
patternOccur-99,true,1.00,1203,360,1202,328,79234,0
patternOccur-100,true,1.00,2419,409,2417,377,151216,0
