NDW:0.0
TTFW:1.4
DFPT:2.0
DFPAP:3.0
DFPMP:0.0
RIGHT_WINDOW_BORDER_X:115.0
level,win/fail,% travelled,run time,game ticks,planning time,total plannings,nodes evaluated,most backtracked nodes
notchParam-1,false,0.36,1806,173,1805,173,87691,0
notchParam-2,true,1.00,4121,440,4109,430,203034,0
notchParam-3,true,1.00,727,374,714,364,41018,0
notchParam-4,true,1.00,1060,366,1055,356,58128,0
notchParam-5,true,1.00,798,333,793,323,42480,0
notchParam-6,true,1.00,1000,346,993,336,53834,0
notchParam-7,false,0.67,3144,299,3140,299,169519,0
notchParam-8,true,1.00,3347,407,3338,397,185398,0
notchParam-9,true,1.00,808,345,803,335,43775,0
notchParam-10,true,1.00,2292,371,2288,361,118582,0
notchParam-11,true,1.00,679,353,670,343,35123,0
notchParam-12,true,1.00,2518,407,2512,397,138265,0
notchParam-13,true,1.00,401,326,391,316,21260,0
notchParam-14,true,1.00,390,314,381,304,20476,0
notchParam-15,true,1.00,7366,518,7356,508,344579,0
notchParam-16,false,0.67,6781,403,6779,403,357326,0
notchParam-17,false,0.36,2627,187,2624,187,111967,0
notchParam-18,true,1.00,232,361,220,351,12484,0
notchParam-19,true,1.00,218,309,210,299,11988,0
notchParam-20,true,1.00,250,304,236,294,13334,0
notchParam-21,true,1.00,250,302,242,292,12379,0
notchParam-22,true,1.00,301,335,296,325,16589,0
notchParam-23,true,1.00,3105,443,3094,433,170390,0
notchParam-24,true,1.00,2531,380,2524,370,134131,0
notchParam-25,true,1.00,2310,370,2304,360,121143,0
notchParam-26,true,1.00,3374,429,3364,419,182274,0
notchParam-27,true,1.00,224,305,214,295,11372,0
notchParam-28,true,1.00,967,363,958,353,51997,0
notchParam-29,true,1.00,836,338,828,328,45079,0
notchParam-30,true,1.00,440,328,436,318,22824,0
notchParam-31,false,0.36,2474,198,2472,198,115589,0
notchParam-32,false,0.36,2626,187,2623,187,131752,0
notchParam-33,true,1.00,250,300,245,290,12569,0
notchParam-34,false,0.37,3060,207,3058,207,140496,0
notchParam-35,false,0.67,6052,383,6046,383,306691,0
notchParam-36,false,0.67,4709,340,4703,340,217243,0
notchParam-37,true,1.00,220,300,209,290,10705,0
notchParam-38,true,1.00,329,327,321,317,17503,0
notchParam-39,false,0.36,1999,168,1994,168,106283,0
notchParam-40,true,1.00,1007,341,993,331,55156,0
notchParam-41,true,1.00,747,341,742,331,40107,0
notchParam-42,true,1.00,304,339,297,329,16151,0
notchParam-43,true,1.00,2043,379,2036,369,109625,0
notchParam-44,true,1.00,2418,394,2412,384,129660,0
notchParam-45,true,1.00,4334,437,4328,426,233528,0
notchParam-46,true,1.00,3274,408,3261,398,177177,0
notchParam-47,true,1.00,309,330,301,320,17052,0
notchParam-48,true,1.00,325,351,314,341,17692,0
notchParam-49,true,1.00,336,323,324,312,17915,0
notchParam-50,true,1.00,244,318,234,308,12351,0
notchParam-51,true,1.00,252,306,240,296,12852,0
notchParam-52,false,0.66,5013,355,5004,355,244868,0
notchParam-53,false,0.67,5114,376,5110,376,272164,0
notchParam-54,false,0.67,5225,368,5218,368,243890,0
notchParam-55,true,1.00,304,351,297,341,16336,0
notchParam-56,true,1.00,214,320,203,310,11469,0
notchParam-57,true,1.00,3096,401,3089,391,166278,0
notchParam-58,true,1.00,836,365,825,355,45333,0
notchParam-59,true,1.00,1890,387,1882,377,100283,0
notchParam-60,true,1.00,1015,370,1008,360,55977,0
notchParam-61,true,1.00,2061,375,2057,365,115088,0
notchParam-62,false,0.36,381,117,378,117,17712,0
notchParam-63,true,1.00,696,318,689,308,37292,0
notchParam-64,true,1.00,739,340,734,330,39891,0
notchParam-65,true,1.00,1202,395,1193,385,66562,0
notchParam-66,true,1.00,843,386,829,376,46267,0
notchParam-67,false,0.67,4206,322,4200,322,192839,0
notchParam-68,false,0.36,1129,141,1125,141,33433,0
notchParam-69,false,0.36,792,139,786,139,34929,0
notchParam-70,false,0.67,3414,305,3408,305,142711,0
notchParam-71,true,1.00,1000,364,988,354,54705,0
notchParam-72,true,1.00,778,385,765,375,42840,0
notchParam-73,true,1.00,830,332,822,322,44406,0
notchParam-74,true,1.00,1090,367,1084,357,56728,0
notchParam-75,true,1.00,839,364,831,354,45595,0
notchParam-76,true,1.00,2088,392,2076,382,109750,0
notchParam-77,true,1.00,946,346,938,336,51282,0
notchParam-78,true,1.00,3311,417,3298,407,175256,0
notchParam-79,true,1.00,901,366,890,356,48062,0
notchParam-80,true,1.00,244,322,236,312,12538,0
notchParam-81,true,1.00,748,325,742,313,39678,0
notchParam-82,true,1.00,690,324,681,314,36215,0
notchParam-83,true,1.00,307,340,292,330,15731,0
notchParam-84,true,1.00,6868,499,6862,489,325786,0
notchParam-85,false,0.35,28785,999,28778,999,1404166,0
notchParam-86,true,1.00,3196,417,3188,407,171299,0
notchParam-87,true,1.00,271,314,261,304,14121,0
notchParam-88,true,1.00,265,316,256,306,13707,0
notchParam-89,true,1.00,432,316,429,306,22335,0
notchParam-90,true,1.00,277,324,269,314,14276,0
notchParam-91,true,1.00,2411,395,2401,385,111010,0
notchParam-92,true,1.00,2648,375,2640,365,141678,0
notchParam-93,true,1.00,2402,408,2394,398,125345,0
notchParam-94,true,1.00,3381,411,3371,401,180583,0
notchParam-95,true,1.00,2458,417,2446,407,134594,0
notchParam-96,true,1.00,913,392,899,382,49812,0
notchParam-97,true,1.00,941,350,936,340,49162,0
notchParam-98,true,1.00,250,302,242,292,12704,0
notchParam-99,false,0.67,3253,303,3248,303,165914,0
notchParam-100,false,0.36,2499,198,2494,198,110473,0
