NDW:0.0
TTFW:1.0
DFPT:2.0
DFPAP:3.0
DFPMP:3.0
RIGHT_WINDOW_BORDER_X:95.0
level,win/fail,% travelled,run time,game ticks,planning time,total plannings,nodes evaluated,most backtracked nodes
Krys-1,true,1.00,5012,632,4991,622,242570,0
Krys-2,false,0.61,1868,348,1858,348,103930,0
Krys-3,true,1.00,6786,601,6776,591,368363,0
Krys-4,true,1.00,2354,553,2338,540,116416,0
Krys-5,false,0.64,3947,318,3939,318,224979,0
Krys-6,true,1.00,1263,399,1255,389,69753,0
Krys-7,true,1.00,686,364,678,353,40645,0
Krys-8,true,1.00,1779,526,1767,516,96948,0
Krys-9,false,0.73,9128,508,9122,508,565343,0
Krys-10,true,1.00,2814,502,2800,483,167324,0
Krys-11,true,1.00,155,368,146,359,8661,0
Krys-12,false,0.53,2873,329,2869,329,171503,0
Krys-13,true,1.00,5981,494,5975,484,331847,0
Krys-14,false,0.79,21801,999,21779,999,849936,0
Krys-15,false,0.53,1961,267,1959,267,121287,0
Krys-16,false,0.69,21622,999,21592,999,846706,0
Krys-17,true,1.00,2282,473,2276,463,123717,0
Krys-18,true,1.00,1869,491,1853,482,106555,0
Krys-19,false,0.11,3718,172,3718,172,200250,0
Krys-20,true,1.00,5624,693,5607,681,327504,0
Krys-21,false,0.31,28670,999,28665,999,1686562,0
Krys-22,true,1.00,6058,529,6043,519,370723,0
Krys-23,true,1.00,1808,507,1798,497,96442,0
Krys-24,false,0.70,25568,999,25561,999,1081581,0
Krys-25,true,1.00,2889,428,2877,412,154903,0
Krys-26,false,0.63,4658,323,4655,323,291320,0
Krys-27,false,0.52,226,201,219,201,11193,0
Krys-28,false,0.83,5564,584,5555,584,292670,0
Krys-29,true,1.00,1387,459,1374,450,68433,0
Krys-30,true,1.00,1960,527,1956,515,95920,0
Krys-31,true,1.00,2130,468,2115,458,119192,0
Krys-32,true,1.00,422,399,414,389,22055,0
Krys-33,true,1.00,595,327,585,317,34798,0
Krys-34,true,1.00,2913,511,2901,491,151773,0
Krys-35,true,1.00,7209,637,7201,619,447826,0
Krys-36,false,0.40,3243,260,3236,260,193325,0
Krys-37,false,0.32,2548,239,2539,239,141770,0
Krys-38,true,1.00,10022,703,10014,693,581087,0
Krys-39,true,1.00,8493,544,8483,528,490432,0
Krys-40,false,0.62,2874,329,2870,329,186117,0
Krys-41,false,0.91,9123,584,9115,584,540966,0
Krys-42,false,0.62,3970,369,3959,369,247972,0
Krys-43,false,0.83,3650,376,3645,376,229958,0
Krys-44,false,0.42,1353,222,1347,222,81765,0
Krys-45,true,1.00,571,427,549,410,27004,0
Krys-46,true,1.00,1541,480,1527,470,79639,0
Krys-47,true,1.00,2077,509,2065,499,125125,0
Krys-48,false,0.11,3718,172,3716,172,205321,0
Krys-49,true,1.00,915,404,903,388,53294,0
Krys-50,false,0.83,7004,529,6996,529,403218,0
Krys-51,false,0.44,970,163,966,163,54832,0
Krys-52,true,1.00,1535,506,1527,496,72190,0
Krys-53,true,1.00,1721,516,1707,506,81204,0
Krys-54,true,1.00,5105,562,5092,542,272639,0
Krys-55,true,1.00,2571,496,2557,485,126044,0
Krys-56,true,1.00,1172,391,1157,382,62314,0
Krys-57,false,0.72,2454,321,2451,321,131071,0
Krys-58,true,1.00,2019,505,2009,496,103887,0
Krys-59,false,0.89,19204,999,19181,999,784648,0
Krys-60,false,0.53,2080,244,2075,244,122260,0
Krys-61,false,0.48,26014,999,26011,999,1032597,0
Krys-62,true,1.00,802,429,789,420,38521,0
Krys-63,true,1.00,3160,594,3147,584,159433,0
Krys-64,true,1.00,3504,562,3490,552,194531,0
Krys-65,true,1.00,1054,417,1047,408,52939,0
Krys-66,true,1.00,2860,551,2853,539,142530,0
Krys-67,true,1.00,3052,572,3036,561,164851,0
Krys-68,false,0.63,5745,333,5740,333,335801,0
Krys-69,false,0.48,25949,999,25944,999,1004300,0
Krys-70,true,1.00,5670,580,5662,560,307573,0
Krys-71,false,0.73,9203,567,9197,567,572075,0
Krys-72,true,1.00,1122,507,1104,497,64108,0
Krys-73,true,1.00,4214,531,4204,518,247633,0
Krys-74,false,0.72,1293,309,1283,309,68217,0
Krys-75,true,1.00,404,391,391,375,21342,0
Krys-76,false,0.31,28682,999,28678,999,1723678,0
Krys-77,false,0.13,1107,82,1107,82,66392,0
Krys-78,false,0.20,2805,170,2804,170,174552,0
Krys-79,true,1.00,547,419,536,408,27430,0
Krys-80,true,1.00,273,405,263,389,16494,0
Krys-81,true,1.00,941,413,936,398,57212,0
Krys-82,true,1.00,764,378,755,367,40055,0
Krys-83,false,0.91,21417,999,21409,999,1021026,0
Krys-84,true,1.00,264,348,259,338,15580,0
Krys-85,true,1.00,2438,490,2426,479,131873,0
Krys-86,true,1.00,1211,388,1200,371,60958,0
Krys-87,true,1.00,472,372,464,364,22476,0
Krys-88,true,1.00,2100,435,2083,424,110125,0
Krys-89,true,1.00,1572,408,1560,399,86077,0
Krys-90,false,0.73,8975,470,8967,470,508604,0
Krys-91,true,1.00,328,398,314,379,19708,0
Krys-92,false,0.41,1514,290,1509,290,81299,0
Krys-93,true,1.00,4812,493,4802,484,305566,0
Krys-94,false,0.43,1214,176,1210,176,74455,0
Krys-95,true,1.00,1778,465,1763,456,93507,0
Krys-96,false,0.83,7488,519,7483,519,421465,0
Krys-97,true,1.00,1878,433,1873,423,109969,0
Krys-98,true,1.00,2529,570,2517,556,129654,0
Krys-99,true,1.00,1151,478,1139,467,60820,0
Krys-100,true,1.00,9178,637,9170,626,561415,0
