NDW:0.0
TTFW:0.4
DFPT:2.0
DFPAP:3.0
DFPMP:2.0
RIGHT_WINDOW_BORDER_X:95.0
level,win/fail,% travelled,run time,game ticks,planning time,total plannings,nodes evaluated,most backtracked nodes
ge-1,true,1.00,2290,371,2288,359,206791,0
ge-2,true,1.00,634,282,632,272,61985,0
ge-3,true,1.00,309,283,307,273,30667,0
ge-4,false,0.36,3261,228,3260,228,299852,0
ge-5,true,1.00,55,268,55,258,8105,0
ge-6,true,1.00,2979,382,2979,371,268945,0
ge-7,true,1.00,236,284,236,273,23375,0
ge-8,true,1.00,260,308,260,298,25712,0
ge-9,true,1.00,1593,314,1589,304,148077,0
ge-10,true,1.00,57,275,54,264,7872,0
ge-11,true,1.00,695,297,694,284,65708,0
ge-12,true,1.00,59,272,57,263,8572,0
ge-13,true,1.00,956,347,953,337,86817,0
ge-14,true,1.00,882,356,881,347,77369,0
ge-15,true,1.00,2806,369,2805,355,254077,0
ge-16,true,1.00,823,337,820,327,92097,0
ge-17,true,1.00,1575,357,1570,343,165873,0
ge-18,true,1.00,2023,362,2020,353,198566,0
ge-19,true,1.00,2888,384,2885,374,263731,0
ge-20,true,1.00,2059,357,2059,347,177979,0
ge-21,true,1.00,1151,305,1148,294,98860,0
ge-22,true,1.00,3016,392,3014,380,268530,0
ge-23,true,1.00,5536,445,5533,432,506655,0
ge-24,true,1.00,1358,310,1356,300,124019,0
ge-25,false,0.64,2712,259,2708,259,244824,0
ge-26,true,1.00,467,304,467,294,46949,0
ge-27,true,1.00,64,274,63,264,9080,0
ge-28,true,1.00,3277,374,3274,363,273088,0
ge-29,true,1.00,1531,336,1531,310,135986,0
ge-30,true,1.00,6052,485,6051,476,572832,0
ge-31,true,1.00,6394,533,6392,524,581270,0
ge-32,true,1.00,714,336,714,326,66946,0
ge-33,true,1.00,174,293,173,271,18736,0
ge-34,true,1.00,2953,372,2951,363,271126,0
ge-35,true,1.00,1094,341,1094,326,95285,0
ge-36,false,1.00,4767,449,4764,436,438379,0
ge-37,true,1.00,1968,352,1967,342,171982,0
ge-38,true,1.00,4923,465,4923,455,437537,0
ge-39,true,1.00,1911,343,1908,333,188019,0
ge-40,true,1.00,54,264,51,255,8257,0
ge-41,true,1.00,1144,310,1141,300,105518,0
ge-42,true,1.00,3507,435,3506,425,303957,0
ge-43,true,1.00,2040,388,2036,373,181959,0
ge-44,true,1.00,3893,426,3893,416,326949,0
ge-45,true,1.00,2860,434,2857,424,253132,0
ge-46,false,0.31,3578,212,3576,212,307473,0
ge-47,true,1.00,4024,415,4020,405,364894,0
ge-48,true,1.00,2174,376,2171,365,200743,0
ge-49,true,1.00,253,270,252,261,25031,0
ge-50,true,1.00,4948,437,4944,427,428776,0
ge-51,true,1.00,252,304,250,294,25567,0
ge-52,true,1.00,1249,354,1247,344,113750,0
ge-53,true,1.00,1097,312,1097,303,99097,0
ge-54,true,1.00,994,321,991,307,106137,0
ge-55,true,1.00,1541,342,1541,332,138951,0
ge-56,true,1.00,4446,418,4443,408,399399,0
ge-57,true,1.00,6343,463,6342,453,572908,0
ge-58,true,1.00,494,378,492,369,47987,0
ge-59,true,1.00,2959,393,2958,383,267246,0
ge-60,true,1.00,4632,441,4632,431,402873,0
ge-61,true,1.00,1481,314,1479,304,133390,0
ge-62,true,1.00,2901,380,2899,370,273521,0
ge-63,true,1.00,7183,513,7182,497,634926,0
ge-64,false,1.00,1028,342,1027,329,93925,0
ge-65,true,1.00,3865,406,3862,395,346425,0
ge-66,false,0.57,3976,266,3975,266,353590,0
ge-67,true,1.00,1224,332,1224,322,109425,0
ge-68,true,1.00,240,313,234,303,24845,0
ge-69,true,1.00,1028,305,1026,295,93685,0
ge-70,true,1.00,4736,426,4732,416,428231,0
ge-71,true,1.00,4969,421,4965,411,467704,0
ge-72,true,1.00,308,314,306,304,30614,0
ge-73,true,1.00,2078,329,2077,319,188473,0
ge-74,true,1.00,4857,476,4857,466,437747,0
ge-75,true,1.00,486,326,486,308,46643,0
ge-76,true,1.00,4792,422,4791,408,427165,0
ge-77,false,0.13,3505,157,3505,157,326004,0
ge-78,true,1.00,4558,472,4557,462,403773,0
ge-79,true,1.00,760,300,759,291,68682,0
ge-80,true,1.00,62,272,60,262,8957,0
ge-81,true,1.00,112,287,107,274,12980,0
ge-82,true,1.00,123,300,120,276,15075,0
ge-83,false,1.00,1218,363,1210,343,127555,0
ge-84,true,1.00,5488,452,5486,442,496445,0
ge-85,true,1.00,1562,321,1560,311,141023,0
ge-86,false,0.80,3196,318,3196,318,283013,0
ge-87,true,1.00,3541,433,3541,424,322537,0
ge-88,true,1.00,3219,413,3217,403,294382,0
ge-89,true,1.00,231,328,228,319,25946,0
ge-90,true,1.00,55,266,53,256,8314,0
ge-91,true,1.00,1407,338,1404,327,128716,0
ge-92,true,1.00,76,285,69,272,10040,0
ge-93,true,1.00,2599,397,2597,387,229753,0
ge-94,true,1.00,3190,375,3187,365,279619,0
ge-95,true,1.00,131,291,130,281,16401,0
ge-96,true,1.00,1647,341,1647,331,156875,0
ge-97,true,1.00,4738,469,4738,459,431082,0
ge-98,true,1.00,53,268,51,259,8052,0
ge-99,true,1.00,249,268,248,259,23753,0
ge-100,true,1.00,1252,306,1252,296,113664,0
