NDW:0.0
TTFW:1.6
DFPT:2.0
DFPAP:3.0
DFPMP:0.0
RIGHT_WINDOW_BORDER_X:195.0
level,win/fail,% travelled,run time,game ticks,planning time,total plannings,nodes evaluated,most backtracked nodes
notchParam-1,true,1.00,865,310,864,293,88685,0
notchParam-2,true,1.00,707,352,705,335,75538,0
notchParam-3,true,1.00,585,319,584,302,69406,0
notchParam-4,true,1.00,527,323,525,306,60081,0
notchParam-5,true,1.00,546,316,545,298,64250,0
notchParam-6,true,1.00,574,318,571,301,67607,0
notchParam-7,true,1.00,785,313,782,296,93748,0
notchParam-8,true,1.00,1067,328,1066,311,124367,0
notchParam-9,true,1.00,527,348,524,331,62981,0
notchParam-10,true,1.00,995,322,994,305,114376,0
notchParam-11,true,1.00,489,316,489,299,57950,0
notchParam-12,true,1.00,1022,327,1019,310,121490,0
notchParam-13,true,1.00,189,314,186,297,21217,0
notchParam-14,true,1.00,171,304,170,287,18238,0
notchParam-15,true,1.00,734,304,733,287,79314,0
notchParam-16,true,1.00,1137,322,1136,305,131187,0
notchParam-17,true,1.00,742,312,741,295,81679,0
notchParam-18,true,1.00,237,335,236,318,28049,0
notchParam-19,true,1.00,172,311,172,294,19665,0
notchParam-20,true,1.00,152,310,150,293,17704,0
notchParam-21,true,1.00,171,306,169,289,17725,0
notchParam-22,true,1.00,165,319,161,302,20771,0
notchParam-23,true,1.00,1173,360,1171,343,137674,0
notchParam-24,true,1.00,1050,332,1047,315,123763,0
notchParam-25,true,1.00,1073,330,1072,313,122080,0
notchParam-26,true,1.00,997,326,996,309,120227,0
notchParam-27,true,1.00,170,309,169,292,18758,0
notchParam-28,true,1.00,590,335,589,318,68808,0
notchParam-29,true,1.00,560,331,559,314,65703,0
notchParam-30,true,1.00,152,308,149,291,16903,0
notchParam-31,true,1.00,1063,335,1060,318,122702,0
notchParam-32,true,1.00,758,306,757,289,89485,0
notchParam-33,true,1.00,149,298,145,281,17135,0
notchParam-34,true,1.00,824,328,819,311,90709,0
notchParam-35,true,1.00,909,318,909,301,105568,0
notchParam-36,true,1.00,729,298,721,281,79166,0
notchParam-37,true,1.00,168,300,166,283,17186,0
notchParam-38,true,1.00,158,304,156,287,18604,0
notchParam-39,true,1.00,1023,351,1022,334,110561,0
notchParam-40,true,1.00,572,312,569,295,64666,0
notchParam-41,true,1.00,556,341,554,324,66336,0
notchParam-42,true,1.00,166,313,163,296,20133,0
notchParam-43,true,1.00,1026,320,1025,303,119136,0
notchParam-44,true,1.00,1094,346,1093,329,132155,0
notchParam-45,true,1.00,1006,348,1005,328,123087,0
notchParam-46,true,1.00,1074,318,1073,301,116418,0
notchParam-47,true,1.00,178,312,178,295,22677,0
notchParam-48,true,1.00,211,331,211,314,26279,0
notchParam-49,true,1.00,183,333,181,311,22707,0
notchParam-50,true,1.00,267,338,267,321,30088,0
notchParam-51,true,1.00,170,308,169,291,18498,0
notchParam-52,true,1.00,934,344,933,327,104269,0
notchParam-53,true,1.00,1049,351,1048,334,125847,0
notchParam-54,true,1.00,925,352,920,335,102925,0
notchParam-55,true,1.00,194,319,194,302,23847,0
notchParam-56,true,1.00,240,306,239,289,26558,0
notchParam-57,true,1.00,1148,337,1141,320,138985,0
notchParam-58,true,1.00,525,340,523,323,61050,0
notchParam-59,true,1.00,1229,352,1227,335,141868,0
notchParam-60,true,1.00,582,333,580,316,65166,0
notchParam-61,true,1.00,1097,346,1095,329,128299,0
notchParam-62,true,1.00,693,314,692,297,76957,0
notchParam-63,true,1.00,527,331,524,314,61114,0
notchParam-64,true,1.00,542,328,542,311,65124,0
notchParam-65,true,1.00,465,326,463,309,53660,0
notchParam-66,true,1.00,570,335,565,318,67328,0
notchParam-67,true,1.00,841,315,838,298,97185,0
notchParam-68,true,1.00,747,324,744,306,78435,0
notchParam-69,true,1.00,878,326,877,309,90721,0
notchParam-70,true,1.00,853,318,853,301,94051,0
notchParam-71,true,1.00,603,355,600,338,74970,0
notchParam-72,true,1.00,526,333,522,315,64170,0
notchParam-73,true,1.00,536,314,532,297,62303,0
notchParam-74,true,1.00,529,335,528,318,61944,0
notchParam-75,true,1.00,586,339,583,322,73700,0
notchParam-76,true,1.00,1200,350,1197,333,138831,0
notchParam-77,true,1.00,621,339,617,322,72778,0
notchParam-78,true,1.00,1090,330,1088,313,124735,0
notchParam-79,true,1.00,528,319,528,302,63120,0
notchParam-80,true,1.00,179,311,176,294,20866,0
notchParam-81,true,1.00,540,333,539,316,67177,0
notchParam-82,true,1.00,173,305,170,288,19132,0
notchParam-83,true,1.00,171,302,166,285,20693,0
notchParam-84,true,1.00,988,328,986,311,111166,0
notchParam-85,true,1.00,1204,392,1202,375,132062,0
notchParam-86,true,1.00,1251,327,1249,310,143233,0
notchParam-87,true,1.00,166,324,163,307,20967,0
notchParam-88,true,1.00,268,312,265,295,30184,0
notchParam-89,true,1.00,153,304,150,287,17590,0
notchParam-90,true,1.00,161,311,160,294,19106,0
notchParam-91,true,1.00,1109,330,1108,313,121267,0
notchParam-92,true,1.00,976,310,973,293,109863,0
notchParam-93,true,1.00,1141,328,1140,311,131374,0
notchParam-94,true,1.00,1039,335,1037,318,121170,0
notchParam-95,true,1.00,1083,356,1080,339,130375,0
notchParam-96,true,1.00,547,349,542,332,68461,0
notchParam-97,true,1.00,516,310,516,293,57091,0
notchParam-98,true,1.00,184,316,182,299,20401,0
notchParam-99,true,1.00,917,352,915,335,103558,0
notchParam-100,true,1.00,769,304,768,287,83640,0
