NDW:0.0
TTFW:0.2
DFPT:2.0
DFPAP:3.0
DFPMP:20.0
RIGHT_WINDOW_BORDER_X:235.0
level,win/fail,% travelled,run time,game ticks,planning time,total plannings,nodes evaluated,most backtracked nodes
Krys-1,true,1.00,12286,551,12283,522,736718,0
Krys-2,true,1.00,6260,385,6255,348,330982,0
Krys-3,true,1.00,11709,496,11706,471,717390,0
Krys-4,true,1.00,8312,415,8307,387,468713,0
Krys-5,true,1.00,3556,273,3552,246,230558,0
Krys-6,true,1.00,4654,315,4650,283,269127,0
Krys-7,true,1.00,4127,314,4122,280,233879,0
Krys-8,true,1.00,6575,371,6574,334,359803,0
Krys-9,true,1.00,4919,302,4917,273,309927,0
Krys-10,true,1.00,6219,326,6218,304,353971,0
Krys-11,true,1.00,5914,348,5913,312,311457,0
Krys-12,false,0.70,28766,999,28766,999,1666905,0
Krys-13,true,1.00,7338,364,7338,338,454322,0
Krys-14,true,1.00,3811,323,3810,290,208196,0
Krys-15,true,1.00,8911,422,8910,382,534347,0
Krys-16,true,1.00,6849,376,6848,342,363361,0
Krys-17,true,1.00,7443,411,7441,377,426494,0
Krys-18,true,1.00,6269,359,6268,324,340916,0
Krys-19,true,1.00,5159,302,5156,275,321521,0
Krys-20,true,1.00,10087,459,10084,435,567690,0
Krys-21,true,1.00,4492,302,4489,267,283568,0
Krys-22,true,1.00,6229,341,6226,304,387414,0
Krys-23,true,1.00,6301,355,6300,309,356718,0
Krys-24,false,0.70,28578,999,28578,999,1454105,0
Krys-25,true,1.00,7842,400,7841,360,451559,0
Krys-26,true,1.00,4653,308,4650,275,301408,0
Krys-27,true,1.00,6821,368,6821,339,397012,0
Krys-28,true,1.00,5503,311,5501,273,341209,0
Krys-29,true,1.00,7366,378,7363,353,405571,0
Krys-30,true,1.00,7530,382,7529,344,403934,0
Krys-31,true,1.00,5400,350,5397,317,298151,0
Krys-32,true,1.00,4536,308,4534,285,252344,0
Krys-33,true,1.00,4589,326,4585,288,243947,0
Krys-34,true,1.00,7390,420,7387,381,430741,0
Krys-35,true,1.00,4271,297,4267,270,261245,0
Krys-36,false,0.91,27414,999,27413,999,1597689,0
Krys-37,true,1.00,7454,379,7451,354,464780,0
Krys-38,true,1.00,7768,372,7766,337,512593,0
Krys-39,false,0.91,27849,999,27847,999,1631709,0
Krys-40,true,1.00,7842,387,7840,352,466857,0
Krys-41,false,0.70,29011,999,29008,999,1684809,0
Krys-42,true,1.00,6556,404,6554,369,405490,0
Krys-43,true,1.00,4102,315,4100,281,237993,0
Krys-44,true,1.00,6919,353,6918,319,428406,0
Krys-45,true,1.00,7022,371,7019,345,381344,0
Krys-46,true,1.00,9293,463,9292,432,511398,0
Krys-47,true,1.00,8241,406,8240,365,460248,0
Krys-48,true,1.00,4769,305,4766,275,289629,0
Krys-49,true,1.00,5872,360,5870,318,321699,0
Krys-50,false,0.70,28709,999,28709,999,1649167,0
Krys-51,true,1.00,7971,377,7970,355,454538,0
Krys-52,true,1.00,7913,393,7910,363,423549,0
Krys-53,true,1.00,6047,401,6045,363,342206,0
Krys-54,true,1.00,8667,396,8667,372,527992,0
Krys-55,true,1.00,8406,435,8404,398,481689,0
Krys-56,true,1.00,3561,310,3558,276,204883,0
Krys-57,true,1.00,4405,324,4404,295,276131,0
Krys-58,true,1.00,7092,413,7090,383,394679,0
Krys-59,true,1.00,6476,390,6476,356,350163,0
Krys-60,true,1.00,8406,425,8401,384,487849,0
Krys-61,true,1.00,6523,391,6522,358,364429,0
Krys-62,true,1.00,5875,348,5871,316,311470,0
Krys-63,true,1.00,11956,536,11955,499,669969,0
Krys-64,true,1.00,9367,453,9366,425,526135,0
Krys-65,true,1.00,5563,353,5561,331,312998,0
Krys-66,true,1.00,8016,415,8012,384,431194,0
Krys-67,true,1.00,10158,475,10156,454,582250,0
Krys-68,true,1.00,5732,351,5730,312,374253,0
Krys-69,true,1.00,14090,668,14086,626,808053,0
Krys-70,false,0.80,28119,999,28118,999,1484846,0
Krys-71,true,1.00,7132,353,7131,319,458296,0
Krys-72,true,1.00,5939,354,5937,325,322284,0
Krys-73,false,0.80,28591,999,28591,999,1630787,0
Krys-74,true,1.00,6386,398,6384,359,364401,0
Krys-75,true,1.00,4678,340,4676,304,251364,0
Krys-76,true,1.00,5560,319,5557,285,365894,0
Krys-77,true,1.00,4767,318,4764,278,282948,0
Krys-78,true,1.00,6009,344,6008,321,355687,0
Krys-79,true,1.00,5319,331,5317,296,287303,0
Krys-80,true,1.00,6151,347,6147,308,340242,0
Krys-81,true,1.00,5460,328,5460,293,312370,0
Krys-82,true,1.00,3522,302,3518,267,194876,0
Krys-83,false,0.91,27930,999,27929,999,1636311,0
Krys-84,true,1.00,4003,304,4000,265,229354,0
Krys-85,true,1.00,8447,424,8446,387,473832,0
Krys-86,true,1.00,5083,338,5081,305,282555,0
Krys-87,true,1.00,3890,301,3889,280,213852,0
Krys-88,true,1.00,7269,424,7266,389,410690,0
Krys-89,true,1.00,5617,358,5614,330,308475,0
Krys-90,true,1.00,5778,330,5778,307,380174,0
Krys-91,true,1.00,4881,341,4881,305,270547,0
Krys-92,false,0.91,28152,999,28148,999,1526008,0
Krys-93,true,1.00,5344,328,5343,297,307995,0
Krys-94,true,1.00,6331,332,6327,300,383130,0
Krys-95,true,1.00,5214,352,5212,313,279372,0
Krys-96,true,1.00,5400,326,5399,293,353307,0
Krys-97,true,1.00,7408,397,7405,363,420116,0
Krys-98,true,1.00,9962,431,9961,407,533359,0
Krys-99,true,1.00,6698,383,6697,345,351195,0
Krys-100,true,1.00,4397,307,4395,272,281197,0
