NDW:0.0
TTFW:1.8
DFPT:2.0
DFPAP:3.0
DFPMP:2.0
RIGHT_WINDOW_BORDER_X:176.0
level,win/fail,% travelled,run time,game ticks,planning time,total plannings,nodes evaluated,most backtracked nodes
Krys-1,false,0.38,20319,999,20312,999,1336055,0
Krys-2,true,1.00,1238,441,1235,411,117497,0
Krys-3,true,1.00,4797,538,4794,510,452457,0
Krys-4,true,1.00,2239,526,2235,502,197989,0
Krys-5,true,1.00,4487,479,4481,445,502521,0
Krys-6,true,1.00,1018,402,1014,371,104900,0
Krys-7,true,1.00,148,392,146,356,16538,0
Krys-8,true,1.00,1325,485,1323,455,143116,0
Krys-9,true,1.00,3994,435,3991,402,489088,0
Krys-10,true,1.00,1413,460,1410,423,157056,0
Krys-11,true,1.00,113,410,111,379,10847,0
Krys-12,true,1.00,2051,416,2047,385,176197,0
Krys-13,true,1.00,4659,451,4656,417,460300,0
Krys-14,true,1.00,684,398,681,369,44224,0
Krys-15,true,1.00,4801,471,4798,437,555659,0
Krys-16,true,1.00,899,511,898,469,81222,0
Krys-17,true,1.00,1881,461,1877,433,165019,0
Krys-18,true,1.00,1308,500,1303,472,139230,0
Krys-19,true,1.00,4869,474,4867,448,509753,0
Krys-20,true,1.00,4339,538,4334,508,482118,0
Krys-21,true,1.00,2277,409,2276,375,285805,0
Krys-22,true,1.00,2420,389,2418,355,317767,0
Krys-23,true,1.00,1472,496,1469,463,144616,0
Krys-24,true,1.00,5268,475,5265,441,477942,0
Krys-25,true,1.00,2248,433,2246,396,199087,0
Krys-26,true,1.00,4391,410,4388,379,487341,0
Krys-27,true,1.00,2596,429,2593,394,227450,0
Krys-28,true,1.00,6038,650,6035,616,581877,0
Krys-29,true,1.00,1752,498,1749,480,139261,0
Krys-30,true,1.00,1819,527,1815,497,152055,0
Krys-31,true,1.00,1952,502,1948,466,224539,0
Krys-32,true,1.00,338,412,337,394,28633,0
Krys-33,true,1.00,313,375,312,352,32871,0
Krys-34,true,1.00,2444,401,2442,373,218513,0
Krys-35,true,1.00,3093,378,3092,348,373943,0
Krys-36,true,1.00,3851,457,3850,435,387545,0
Krys-37,true,1.00,4963,545,4957,527,474009,0
Krys-38,true,1.00,4936,503,4933,466,561202,0
Krys-39,true,1.00,7034,517,7032,489,695419,0
Krys-40,true,1.00,4717,468,4709,442,447092,0
Krys-41,true,1.00,5968,522,5966,491,592771,0
Krys-42,true,1.00,1989,414,1987,391,224838,0
Krys-43,true,1.00,1887,365,1885,320,220457,0
Krys-44,true,1.00,6624,545,6623,511,691647,0
Krys-45,true,1.00,636,458,629,430,44127,0
Krys-46,true,1.00,1614,545,1609,505,135676,0
Krys-47,true,1.00,533,493,531,459,58436,0
Krys-48,true,1.00,3822,420,3821,392,436240,0
Krys-49,true,1.00,561,386,559,352,56490,0
Krys-50,true,1.00,6162,556,6155,525,612562,0
Krys-51,true,1.00,4867,507,4867,470,572650,0
Krys-52,true,1.00,1604,506,1603,472,151577,0
Krys-53,true,1.00,1244,449,1242,418,96604,0
Krys-54,true,1.00,4716,516,4710,486,534110,0
Krys-55,true,1.00,2169,509,2167,478,208687,0
Krys-56,true,1.00,1072,416,1070,388,107163,0
Krys-57,true,1.00,5156,472,5155,441,498016,0
Krys-58,true,1.00,2242,466,2235,448,211280,0
Krys-59,true,1.00,1168,492,1163,458,80735,0
Krys-60,true,1.00,3532,453,3528,425,336712,0
Krys-61,false,0.48,18880,999,18875,999,1244061,0
Krys-62,true,1.00,973,478,969,448,69832,0
Krys-63,true,1.00,3122,619,3119,582,233951,0
Krys-64,true,1.00,2144,553,2141,530,191264,0
Krys-65,true,1.00,1384,439,1380,421,105489,0
Krys-66,true,1.00,2546,529,2541,495,215498,0
Krys-67,true,1.00,1679,518,1676,481,144676,0
Krys-68,true,1.00,6365,445,6364,411,624771,0
Krys-69,true,1.00,5545,695,5540,658,370129,0
Krys-70,true,1.00,5671,550,5667,511,539538,0
Krys-71,true,1.00,5374,476,5372,445,615407,0
Krys-72,true,1.00,974,486,972,452,107789,0
Krys-73,true,1.00,2325,534,2321,492,216031,0
Krys-74,true,1.00,1799,449,1796,412,158935,0
Krys-75,true,1.00,424,473,419,439,31535,0
Krys-76,true,1.00,4505,393,4503,375,457729,0
Krys-77,true,1.00,1407,432,1406,395,174468,0
Krys-78,true,1.00,5642,530,5638,506,620994,0
Krys-79,true,1.00,466,433,463,410,38045,0
Krys-80,true,1.00,204,433,201,407,18677,0
Krys-81,true,1.00,1111,437,1110,406,121170,0
Krys-82,true,1.00,696,428,693,394,57934,0
Krys-83,true,1.00,4663,501,4660,472,444822,0
Krys-84,true,1.00,138,387,136,350,15219,0
Krys-85,true,1.00,2474,518,2469,481,222000,0
Krys-86,true,1.00,1148,415,1144,389,96929,0
Krys-87,true,1.00,458,386,453,368,32588,0
Krys-88,true,1.00,1673,436,1671,400,149358,0
Krys-89,true,1.00,1419,478,1415,447,145640,0
Krys-90,true,1.00,6702,519,6696,494,675359,0
Krys-91,true,1.00,376,421,368,391,45344,0
Krys-92,true,1.00,5249,491,5247,464,468553,0
Krys-93,true,1.00,3012,429,3009,400,369222,0
Krys-94,true,1.00,1616,394,1613,360,201087,0
Krys-95,true,1.00,989,520,986,484,77372,0
Krys-96,true,1.00,5126,447,5126,413,543002,0
Krys-97,true,1.00,1207,397,1199,363,129351,0
Krys-98,true,1.00,3359,602,3355,577,268304,0
Krys-99,true,1.00,1105,476,1102,437,87909,0
Krys-100,true,1.00,5598,438,5596,411,657526,0
