NDW:0.0
TTFW:0.4
DFPT:2.0
DFPAP:3.0
DFPMP:5.0
RIGHT_WINDOW_BORDER_X:135.0
level,win/fail,% travelled,run time,game ticks,planning time,total plannings,nodes evaluated,most backtracked nodes
patternCount-1,false,0.67,2881,391,2880,391,246201,0
patternCount-2,true,1.00,2191,547,2187,534,212155,0
patternCount-3,false,0.91,4254,567,4250,567,359551,0
patternCount-4,true,1.00,1482,451,1478,429,140039,0
patternCount-5,true,1.00,1573,442,1569,430,145757,0
patternCount-6,true,1.00,864,446,859,434,88346,0
patternCount-7,true,1.00,2325,507,2317,490,218337,0
patternCount-8,false,0.94,5876,594,5871,594,549616,0
patternCount-9,true,1.00,2356,578,2351,566,219379,0
patternCount-10,true,1.00,920,447,914,435,86484,0
patternCount-11,false,0.75,22351,999,22351,999,2069847,0
patternCount-12,true,1.00,1166,500,1165,487,112683,0
patternCount-13,true,1.00,932,492,930,480,88759,0
patternCount-14,true,1.00,3896,509,3894,491,349481,0
patternCount-15,true,1.00,1077,428,1074,416,103852,0
patternCount-16,true,1.00,1349,487,1348,475,135723,0
patternCount-17,true,1.00,1122,424,1119,407,104336,0
patternCount-18,true,1.00,1520,467,1516,451,141165,0
patternCount-19,true,1.00,1629,440,1622,428,150317,0
patternCount-20,true,1.00,1517,434,1515,422,140936,0
patternCount-21,true,1.00,1578,472,1574,460,146020,0
patternCount-22,false,0.91,19311,999,19303,999,1711916,0
patternCount-23,false,0.84,8467,601,8464,601,760651,0
patternCount-24,true,1.00,11967,780,11963,763,1119422,0
patternCount-25,true,1.00,2429,519,2427,506,232388,0
patternCount-26,true,1.00,1233,496,1226,483,115285,0
patternCount-27,true,1.00,1520,497,1518,485,143680,0
patternCount-28,true,1.00,1659,466,1653,447,154811,0
patternCount-29,true,1.00,1942,528,1940,511,176587,0
patternCount-30,true,1.00,1512,457,1510,445,154602,0
patternCount-31,true,1.00,2222,534,2220,522,210413,0
patternCount-32,true,1.00,3172,565,3162,553,276828,0
patternCount-33,true,1.00,4688,653,4681,637,367806,0
patternCount-34,true,1.00,3467,714,3461,698,313329,0
patternCount-35,true,1.00,1264,446,1260,434,124603,0
patternCount-36,true,1.00,4692,708,4688,688,422623,0
patternCount-37,true,1.00,1529,461,1524,449,146923,0
patternCount-38,true,1.00,5682,713,5680,701,515070,0
patternCount-39,true,1.00,1344,480,1339,463,123835,0
patternCount-40,false,0.96,11705,805,11705,805,1094212,0
patternCount-41,true,1.00,2094,463,2092,451,203502,0
patternCount-42,true,1.00,1213,444,1213,431,120936,0
patternCount-43,true,1.00,1454,505,1453,488,139401,0
patternCount-44,true,1.00,996,437,992,425,98635,0
patternCount-45,true,1.00,1285,513,1283,500,117197,0
patternCount-46,true,1.00,2015,528,2014,516,195289,0
patternCount-47,true,1.00,2268,515,2266,503,217910,0
patternCount-48,true,1.00,1760,499,1760,487,158906,0
patternCount-49,true,1.00,1638,495,1635,475,150672,0
patternCount-50,false,0.89,6594,588,6592,588,621805,0
patternCount-51,true,1.00,1344,523,1342,511,128702,0
patternCount-52,true,1.00,1333,517,1328,505,125229,0
patternCount-53,false,0.88,6180,522,6176,522,561863,0
patternCount-54,true,1.00,1989,509,1985,497,192939,0
patternCount-55,false,0.56,5980,440,5977,440,546680,0
patternCount-56,true,1.00,2075,472,2073,458,191155,0
patternCount-57,true,1.00,989,420,988,403,91116,0
patternCount-58,true,1.00,1457,501,1455,484,138844,0
patternCount-59,true,1.00,1187,428,1185,411,112118,0
patternCount-60,true,1.00,2440,526,2437,512,219287,0
patternCount-61,true,1.00,1371,512,1365,498,127261,0
patternCount-62,true,1.00,1611,443,1608,431,156860,0
patternCount-63,true,1.00,891,458,889,446,90684,0
patternCount-64,true,1.00,1208,453,1207,441,119082,0
patternCount-65,true,1.00,1071,422,1069,410,99418,0
patternCount-66,true,1.00,1453,452,1452,440,141952,0
patternCount-67,true,1.00,1662,449,1659,433,156698,0
patternCount-68,true,1.00,980,503,973,491,102247,0
patternCount-69,true,1.00,1041,439,1037,422,102095,0
patternCount-70,true,1.00,1410,434,1408,422,131088,0
patternCount-71,true,1.00,1630,489,1628,469,154010,0
patternCount-72,false,0.82,6718,617,6715,617,601627,0
patternCount-73,true,1.00,3117,564,3112,552,291680,0
patternCount-74,false,0.82,10719,673,10715,673,963631,0
patternCount-75,true,1.00,2338,578,2330,566,209318,0
patternCount-76,true,1.00,1444,444,1441,432,141644,0
patternCount-77,true,1.00,1830,494,1825,482,168602,0
patternCount-78,true,1.00,2212,493,2211,479,224897,0
patternCount-79,false,0.91,7093,618,7088,618,658075,0
patternCount-80,true,1.00,5616,681,5615,664,501933,0
patternCount-81,true,1.00,1047,449,1043,437,99490,0
patternCount-82,true,1.00,1257,431,1253,419,115607,0
patternCount-83,true,1.00,1575,528,1572,516,145081,0
patternCount-84,true,1.00,1025,466,1022,454,97955,0
patternCount-85,true,1.00,960,432,959,420,90871,0
patternCount-86,true,1.00,1439,513,1436,501,144968,0
patternCount-87,true,1.00,1295,469,1290,452,124692,0
patternCount-88,true,1.00,3220,549,3212,535,294953,0
patternCount-89,true,1.00,1888,462,1884,450,173044,0
patternCount-90,true,1.00,1066,438,1064,426,102683,0
patternCount-91,true,1.00,2343,538,2340,526,227650,0
patternCount-92,true,1.00,1003,413,1002,401,93431,0
patternCount-93,true,1.00,8636,686,8631,668,773420,0
patternCount-94,true,1.00,1568,440,1566,428,147774,0
patternCount-95,true,1.00,2343,492,2339,475,224235,0
patternCount-96,true,1.00,1395,486,1392,473,129718,0
patternCount-97,true,1.00,1536,434,1530,422,153546,0
patternCount-98,true,1.00,1469,508,1469,496,141526,0
patternCount-99,true,1.00,1256,493,1252,479,123307,0
patternCount-100,true,1.00,905,440,900,428,88612,0
