NDW:0.0
TTFW:0.8
DFPT:2.0
DFPAP:3.0
DFPMP:10.0
RIGHT_WINDOW_BORDER_X:255.0
level,win/fail,% travelled,run time,game ticks,planning time,total plannings,nodes evaluated,most backtracked nodes
Krys-1,true,1.00,7626,544,7623,503,503422,0
Krys-2,true,1.00,1448,368,1447,322,94788,0
Krys-3,true,1.00,6658,539,6655,501,488712,0
Krys-4,true,1.00,2737,517,2732,415,177593,0
Krys-5,true,1.00,1841,356,1839,310,167745,0
Krys-6,true,1.00,1093,361,1089,322,87515,0
Krys-7,true,1.00,344,323,339,283,27476,0
Krys-8,true,1.00,2455,463,2451,416,167035,0
Krys-9,true,1.00,1984,301,1982,266,186512,0
Krys-10,true,1.00,1809,340,1805,298,150074,0
Krys-11,true,1.00,448,374,446,331,29439,0
Krys-12,true,1.00,5587,493,5585,450,358884,0
Krys-13,true,1.00,2922,356,2920,304,246838,0
Krys-14,true,1.00,2009,396,2009,359,125598,0
Krys-15,true,1.00,4815,474,4811,425,421984,0
Krys-16,true,1.00,2581,404,2577,356,163990,0
Krys-17,true,1.00,1971,403,1969,357,131563,0
Krys-18,true,1.00,1295,431,1293,390,94997,0
Krys-19,true,1.00,2976,347,2973,308,245719,0
Krys-20,true,1.00,4435,559,4432,526,336516,0
Krys-21,true,1.00,1588,347,1585,303,156676,0
Krys-22,true,1.00,2257,311,2255,268,212238,0
Krys-23,true,1.00,1348,370,1345,328,89909,0
Krys-24,true,1.00,5813,416,5810,380,411598,0
Krys-25,true,1.00,3774,424,3772,376,264135,0
Krys-26,true,1.00,2333,290,2332,255,219482,0
Krys-27,true,1.00,3722,393,3720,357,287291,0
Krys-28,true,1.00,5454,504,5450,458,431545,0
Krys-29,true,1.00,2879,430,2875,395,180507,0
Krys-30,true,1.00,2621,451,2618,403,165192,0
Krys-31,true,1.00,1627,427,1624,381,112190,0
Krys-32,true,1.00,817,381,816,356,53343,0
Krys-33,true,1.00,495,327,493,286,36240,0
Krys-34,true,1.00,2771,412,2767,368,183838,0
Krys-35,true,1.00,1968,337,1965,298,171034,0
Krys-36,true,1.00,4083,396,4079,318,334937,0
Krys-37,true,1.00,4778,435,4775,403,366815,0
Krys-38,true,1.00,4769,470,4765,424,408162,0
Krys-39,true,1.00,3227,391,3225,320,264156,0
Krys-40,true,1.00,4077,426,4075,389,351129,0
Krys-41,false,0.70,26676,999,26675,999,1539655,0
Krys-42,true,1.00,2513,354,2511,313,224927,0
Krys-43,true,1.00,1441,331,1438,301,124767,0
Krys-44,true,1.00,7290,572,7286,523,559762,0
Krys-45,true,1.00,2317,419,2312,378,139226,0
Krys-46,true,1.00,1736,442,1735,399,113734,0
Krys-47,true,1.00,1637,426,1634,379,112585,0
Krys-48,true,1.00,1733,315,1732,272,163771,0
Krys-49,true,1.00,1667,408,1663,365,102187,0
Krys-50,true,1.00,6594,503,6593,463,460154,0
Krys-51,true,1.00,3611,402,3605,366,338843,0
Krys-52,true,1.00,2270,490,2265,454,142551,0
Krys-53,true,1.00,2027,475,2021,444,126702,0
Krys-54,true,1.00,3852,467,3852,430,319387,0
Krys-55,true,1.00,3717,511,3712,450,246900,0
Krys-56,true,1.00,543,332,540,292,43390,0
Krys-57,true,1.00,1808,306,1806,271,149675,0
Krys-58,true,1.00,2941,436,2937,391,187458,0
Krys-59,true,1.00,2809,404,2806,364,168639,0
Krys-60,true,1.00,2754,387,2753,316,217225,0
Krys-61,true,1.00,2648,403,2644,369,163946,0
Krys-62,true,1.00,2125,418,2122,370,117853,0
Krys-63,true,1.00,4928,607,4926,565,304008,0
Krys-64,true,1.00,3252,494,3251,454,223467,0
Krys-65,true,1.00,3367,508,3365,473,203600,0
Krys-66,true,1.00,2578,389,2572,356,152305,0
Krys-67,true,1.00,2658,459,2654,413,176845,0
Krys-68,true,1.00,3515,353,3514,317,303336,0
Krys-69,true,1.00,3528,478,3523,442,227655,0
Krys-70,false,0.80,25743,999,25741,999,1434860,0
Krys-71,true,1.00,3592,405,3589,358,326928,0
Krys-72,true,1.00,1410,473,1406,429,95330,0
Krys-73,false,0.80,24670,999,24667,999,1356463,0
Krys-74,true,1.00,2910,395,2910,354,208911,0
Krys-75,true,1.00,1226,414,1223,366,69536,0
Krys-76,true,1.00,3662,318,3661,287,300320,0
Krys-77,true,1.00,1549,371,1546,323,137575,0
Krys-78,true,1.00,6912,493,6908,459,456600,0
Krys-79,true,1.00,1328,390,1325,314,83345,0
Krys-80,true,1.00,607,385,601,341,43095,0
Krys-81,true,1.00,1308,394,1304,345,101103,0
Krys-82,true,1.00,1411,346,1407,312,89396,0
Krys-83,false,0.91,24506,999,24503,999,1422243,0
Krys-84,true,1.00,301,333,297,290,23043,0
Krys-85,true,1.00,3799,530,3797,488,246456,0
Krys-86,true,1.00,2110,376,2107,333,151416,0
Krys-87,true,1.00,1431,372,1427,347,85651,0
Krys-88,true,1.00,2370,423,2369,379,155054,0
Krys-89,true,1.00,2195,412,2192,372,145713,0
Krys-90,true,1.00,2996,323,2993,280,254962,0
Krys-91,true,1.00,421,341,419,301,30620,0
Krys-92,true,1.00,4822,497,4821,413,345748,0
Krys-93,true,1.00,1917,303,1916,269,176000,0
Krys-94,true,1.00,1403,352,1399,305,124166,0
Krys-95,true,1.00,1551,379,1548,331,96282,0
Krys-96,true,1.00,4726,409,4724,373,415133,0
Krys-97,false,0.70,2420,249,2418,249,163136,0
Krys-98,true,1.00,5488,539,5487,504,339297,0
Krys-99,true,1.00,1623,455,1621,414,100232,0
Krys-100,true,1.00,2225,333,2222,297,221281,0
