NDW:0.0
TTFW:1.4
DFPT:2.0
DFPAP:3.0
DFPMP:7.0
RIGHT_WINDOW_BORDER_X:95.0
level,win/fail,% travelled,run time,game ticks,planning time,total plannings,nodes evaluated,most backtracked nodes
notchParamRand-1,false,0.51,4221,325,4216,325,241025,0
notchParamRand-2,true,1.00,84,306,80,298,4526,0
notchParamRand-3,false,0.80,7560,494,7551,494,445122,0
notchParamRand-4,true,1.00,3859,459,3850,451,225790,0
notchParamRand-5,true,1.00,174,312,168,304,9847,0
notchParamRand-6,true,1.00,449,316,441,308,25751,0
notchParamRand-7,true,1.00,407,308,403,300,23277,0
notchParamRand-8,true,1.00,1405,361,1399,353,74704,0
notchParamRand-9,true,1.00,3431,460,3424,452,204234,0
notchParamRand-10,true,1.00,3691,466,3679,458,220632,0
notchParamRand-11,true,1.00,87,306,78,298,4718,0
notchParamRand-12,true,1.00,310,304,306,296,17629,0
notchParamRand-13,false,0.85,3196,368,3194,368,179808,0
notchParamRand-14,true,1.00,3179,458,3171,450,181357,0
notchParamRand-15,true,1.00,656,326,649,318,37466,0
notchParamRand-16,true,1.00,846,319,842,311,52013,0
notchParamRand-17,true,1.00,36,294,27,286,1749,0
notchParamRand-18,true,1.00,17789,939,17776,931,1011857,0
notchParamRand-19,true,1.00,197,332,185,324,10989,0
notchParamRand-20,true,1.00,8618,638,8609,630,495576,0
notchParamRand-21,true,1.00,40,296,35,288,1912,0
notchParamRand-22,true,1.00,1746,362,1735,354,90111,0
notchParamRand-23,false,0.44,849,184,842,184,30694,0
notchParamRand-24,true,1.00,206,322,194,314,9982,0
notchParamRand-25,true,1.00,54,308,47,300,2563,0
notchParamRand-26,true,1.00,532,376,523,368,31192,0
notchParamRand-27,true,1.00,210,304,203,296,13396,0
notchParamRand-28,true,1.00,402,324,398,316,24023,0
notchParamRand-29,true,1.00,42,298,37,290,2197,0
notchParamRand-30,false,0.19,2816,145,2814,145,165339,0
notchParamRand-31,true,1.00,363,326,357,318,22189,0
notchParamRand-32,true,1.00,84,306,81,298,4844,0
notchParamRand-33,true,1.00,12367,722,12353,714,750322,0
notchParamRand-34,true,1.00,4868,487,4858,479,291844,0
notchParamRand-35,true,1.00,1732,367,1716,359,104502,0
notchParamRand-36,true,1.00,41,300,33,292,2127,0
notchParamRand-37,true,1.00,445,310,441,302,27430,0
notchParamRand-38,false,0.31,3996,241,3993,241,235348,0
notchParamRand-39,true,1.00,4875,497,4862,489,285526,0
notchParamRand-40,false,0.30,5176,294,5172,294,292534,0
notchParamRand-41,true,1.00,35,294,30,286,1569,0
notchParamRand-42,true,1.00,453,320,444,312,26667,0
notchParamRand-43,true,1.00,239,302,233,294,13553,0
notchParamRand-44,true,1.00,285,314,275,306,16862,0
notchParamRand-45,true,1.00,4374,451,4368,443,242313,0
notchParamRand-46,true,1.00,3716,423,3710,415,203848,0
notchParamRand-47,true,1.00,945,342,929,334,30713,0
notchParamRand-48,true,1.00,5358,525,5354,517,291995,0
notchParamRand-49,true,1.00,1440,358,1433,350,84810,0
notchParamRand-50,true,1.00,2664,429,2655,421,152165,0
notchParamRand-51,true,1.00,1313,354,1306,346,74333,0
notchParamRand-52,false,0.75,3621,334,3620,334,207216,0
notchParamRand-53,true,1.00,3301,410,3294,402,188525,0
notchParamRand-54,true,1.00,8493,626,8482,618,491533,0
notchParamRand-55,false,0.19,1599,110,1595,110,89867,0
notchParamRand-56,true,1.00,4112,440,4100,432,225749,0
notchParamRand-57,true,1.00,4392,445,4387,437,251161,0
notchParamRand-58,true,1.00,1789,366,1780,358,107215,0
notchParamRand-59,true,1.00,445,312,438,304,25591,0
notchParamRand-60,true,1.00,1442,349,1430,341,83427,0
notchParamRand-61,true,1.00,576,352,564,344,33375,0
notchParamRand-62,true,1.00,434,330,429,322,25121,0
notchParamRand-63,true,1.00,7479,558,7473,550,428155,0
notchParamRand-64,true,1.00,1124,334,1122,326,67210,0
notchParamRand-65,true,1.00,13253,765,13250,757,729034,0
notchParamRand-66,true,1.00,343,346,335,338,18990,0
notchParamRand-67,true,1.00,310,306,301,298,16761,0
notchParamRand-68,true,1.00,5020,497,5012,489,287676,0
notchParamRand-69,true,1.00,281,313,273,305,16258,0
notchParamRand-70,true,1.00,700,336,692,328,40956,0
notchParamRand-71,true,1.00,325,314,316,306,18603,0
notchParamRand-72,true,1.00,74,296,71,288,4094,0
notchParamRand-73,true,1.00,648,320,634,312,35492,0
notchParamRand-74,true,1.00,39,296,30,288,1899,0
notchParamRand-75,true,1.00,41,298,35,290,1986,0
notchParamRand-76,true,1.00,5441,545,5432,537,314606,0
notchParamRand-77,false,0.52,3828,312,3819,312,210755,0
notchParamRand-78,true,1.00,6051,523,6044,515,352239,0
notchParamRand-79,true,1.00,225,308,222,300,13118,0
notchParamRand-80,true,1.00,338,311,330,303,18132,0
notchParamRand-81,true,1.00,327,316,321,308,19901,0
notchParamRand-82,true,1.00,863,328,854,320,49877,0
notchParamRand-83,true,1.00,4278,458,4271,450,243446,0
notchParamRand-84,true,1.00,357,310,347,302,21222,0
notchParamRand-85,true,1.00,34,294,25,286,1505,0
notchParamRand-86,true,1.00,931,359,921,351,54254,0
notchParamRand-87,true,1.00,8340,622,8333,614,489394,0
notchParamRand-88,true,1.00,713,320,707,312,44073,0
notchParamRand-89,true,1.00,3229,427,3221,419,185744,0
notchParamRand-90,true,1.00,5621,492,5609,484,312495,0
notchParamRand-91,true,1.00,36,296,34,287,1798,0
notchParamRand-92,true,1.00,2712,418,2704,410,160425,0
notchParamRand-93,true,1.00,298,308,291,300,17354,0
notchParamRand-94,true,1.00,8223,577,8217,569,475836,0
notchParamRand-95,true,1.00,781,322,774,314,44677,0
notchParamRand-96,true,1.00,1004,364,997,356,60823,0
notchParamRand-97,true,1.00,5035,482,5025,474,289504,0
notchParamRand-98,true,1.00,973,322,968,314,61396,0
notchParamRand-99,true,1.00,286,310,283,302,16223,0
notchParamRand-100,false,0.21,1267,106,1266,106,73206,0
