NDW:0.0
TTFW:1.2
DFPT:2.0
DFPAP:3.0
DFPMP:2.0
RIGHT_WINDOW_BORDER_X:235.0
level,win/fail,% travelled,run time,game ticks,planning time,total plannings,nodes evaluated,most backtracked nodes
Mario-1,true,1.00,358,393,355,351,32912,0
Mario-2,true,1.00,797,341,795,320,73039,0
Mario-3,true,1.00,1346,297,1345,242,151629,0
Mario-4,true,1.00,775,381,772,339,69270,0
Mario-5,true,1.00,1005,396,1003,374,97638,0
Mario-6,true,1.00,1125,255,1122,232,125976,0
Mario-7,true,1.00,652,414,647,364,58645,0
Mario-8,true,1.00,1047,430,1044,374,95604,0
Mario-9,true,1.00,432,403,429,363,41410,0
Mario-10,true,1.00,1680,332,1679,289,193813,0
Mario-11,true,1.00,692,426,688,379,60928,0
Mario-12,true,1.00,1099,693,1089,656,79089,0
Mario-13,true,1.00,1345,333,1344,312,149489,0
Mario-14,true,1.00,216,389,214,352,18798,0
Mario-15,true,1.00,1953,822,1944,790,172399,0
