NDW:0.0
TTFW:0.4
DFPT:2.0
DFPAP:3.0
DFPMP:20.0
RIGHT_WINDOW_BORDER_X:55.0
level,win/fail,% travelled,run time,game ticks,planning time,total plannings,nodes evaluated,most backtracked nodes
notch-1,false,0.58,3506,487,3505,487,304037,0
notch-2,true,1.00,8615,832,8612,827,804854,0
notch-3,false,0.29,2915,291,2915,291,242986,0
notch-4,false,0.30,1391,188,1390,188,118250,0
notch-5,true,1.00,4531,751,4529,744,395172,0
notch-6,true,1.00,5357,826,5351,821,493633,0
notch-7,true,1.00,2686,763,2679,756,247471,0
notch-8,false,0.16,506,125,504,125,46089,0
notch-9,false,0.32,4621,348,4620,348,390225,0
notch-10,false,0.67,4710,574,4703,574,415930,0
notch-11,false,0.18,918,167,917,167,76080,0
notch-12,true,1.00,5925,848,5922,841,500932,0
notch-13,true,1.00,5882,883,5878,878,514913,0
notch-14,true,1.00,7542,832,7540,827,640998,0
notch-15,true,1.00,4944,732,4941,724,434502,0
notch-16,false,0.57,8749,809,8745,809,773576,0
notch-17,false,0.60,4101,443,4100,443,372461,0
notch-18,true,1.00,5345,845,5339,840,493601,0
notch-19,true,1.00,9271,978,9266,971,841423,0
notch-20,false,0.75,7411,751,7406,751,687636,0
notch-21,true,1.00,7076,936,7073,929,644577,0
notch-22,true,1.00,5207,735,5206,725,441890,0
notch-23,true,1.00,8979,950,8976,943,782961,0
notch-24,false,0.45,1242,326,1239,326,108729,0
notch-25,false,0.52,6453,635,6449,635,577717,0
notch-26,true,1.00,8934,844,8927,836,777323,0
notch-27,false,0.35,6204,423,6203,423,602160,0
notch-28,false,0.40,2354,279,2352,279,227295,0
notch-29,false,0.75,5114,644,5112,644,457010,0
notch-30,false,0.42,8453,638,8448,638,683924,0
notch-31,false,0.24,626,170,626,170,51206,0
notch-32,true,1.00,5933,885,5928,872,504583,0
notch-33,true,1.00,7532,825,7527,818,645929,0
notch-34,true,1.00,6567,811,6564,798,585482,0
notch-35,true,1.00,6539,807,6538,799,597070,0
notch-36,false,0.93,7996,999,7991,999,694598,0
notch-37,false,0.50,6756,578,6755,578,621103,0
notch-38,true,1.00,6081,803,6075,796,525173,0
notch-39,false,0.85,4301,666,4297,666,367315,0
notch-40,false,0.92,9706,999,9700,999,879425,0
notch-41,false,0.96,8259,999,8253,999,750443,0
notch-42,false,0.42,3710,408,3707,408,342035,0
notch-43,false,0.46,3727,382,3727,382,310781,0
notch-44,false,0.27,1453,199,1453,199,121986,0
notch-45,true,1.00,8050,923,8048,916,705540,0
notch-46,true,1.00,6217,889,6215,879,550004,0
notch-47,true,1.00,6576,835,6573,827,587802,0
notch-48,false,0.63,4785,601,4780,601,439068,0
notch-49,true,1.00,6853,781,6851,774,604229,0
notch-50,true,1.00,7174,803,7171,790,646234,0
notch-51,false,0.20,1627,241,1627,241,157411,0
notch-52,false,0.65,3609,588,3603,588,316952,0
notch-53,true,1.00,3232,719,3223,712,273603,0
notch-54,true,1.00,7726,889,7723,882,692924,0
notch-55,true,1.00,7685,907,7680,899,678649,0
notch-56,true,1.00,5578,791,5572,781,481799,0
notch-57,false,0.63,3418,530,3416,530,295334,0
notch-58,false,0.91,10462,999,10457,999,963860,0
notch-59,true,1.00,5033,716,5028,708,423590,0
notch-60,false,0.83,12879,999,12879,999,1079270,0
notch-61,false,0.27,2250,280,2248,280,195814,0
notch-62,true,1.00,3229,811,3223,803,301908,0
notch-63,false,0.54,4311,609,4306,609,412187,0
notch-64,true,1.00,6315,846,6312,839,546247,0
notch-65,true,1.00,8601,872,8596,867,816051,0
notch-66,true,1.00,10855,904,10852,897,991472,0
notch-67,true,1.00,9711,908,9707,898,777345,0
notch-68,true,1.00,4095,771,4092,763,360567,0
notch-69,false,0.79,5907,775,5900,775,525531,0
notch-70,true,1.00,6995,839,6990,834,641058,0
notch-71,true,1.00,7353,949,7351,941,648192,0
notch-72,true,1.00,4854,826,4852,819,446012,0
notch-73,true,1.00,7263,887,7258,882,649020,0
notch-74,true,1.00,3761,686,3755,679,353795,0
notch-75,false,0.91,10299,999,10296,999,924816,0
notch-76,false,0.62,4083,580,4080,580,360046,0
notch-77,true,1.00,6385,877,6378,870,577799,0
notch-78,false,0.84,7580,786,7575,786,662020,0
notch-79,false,0.37,2968,340,2965,340,268180,0
notch-80,false,0.77,3206,705,3205,705,273914,0
notch-81,true,1.00,7837,761,7832,756,696558,0
notch-82,false,0.41,4074,421,4072,421,354141,0
notch-83,false,0.64,6925,663,6922,663,629497,0
notch-84,false,0.35,2557,332,2557,332,225737,0
notch-85,true,1.00,2846,774,2843,767,263561,0
notch-86,false,0.50,3132,464,3130,464,255586,0
notch-87,false,0.71,5209,626,5207,626,442453,0
notch-88,false,0.24,2294,248,2293,248,193709,0
notch-89,false,0.35,2903,371,2902,371,282695,0
notch-90,false,0.43,4831,377,4831,377,438074,0
notch-91,false,0.69,6276,645,6274,645,564773,0
notch-92,false,0.51,3537,554,3533,554,318752,0
notch-93,false,0.31,2992,346,2989,346,287676,0
notch-94,false,0.90,11006,999,11000,999,992017,0
notch-95,true,1.00,2442,637,2439,630,223551,0
notch-96,false,0.79,2844,568,2840,568,251113,0
notch-97,true,1.00,9178,882,9174,874,831354,0
notch-98,true,1.00,10169,993,10162,983,931195,0
notch-99,true,1.00,11423,951,11421,938,1053304,0
notch-100,true,1.00,5513,843,5506,836,501893,0
