NDW:0.0
TTFW:0.8
DFPT:2.0
DFPAP:3.0
DFPMP:20.0
RIGHT_WINDOW_BORDER_X:176.0
level,win/fail,% travelled,run time,game ticks,planning time,total plannings,nodes evaluated,most backtracked nodes
notch-1,true,1.00,767,262,766,246,78488,0
notch-2,true,1.00,1768,298,1766,282,193394,0
notch-3,true,1.00,1103,271,1103,255,112399,0
notch-4,true,1.00,1010,264,1008,243,104368,0
notch-5,true,1.00,757,244,754,227,77066,0
notch-6,true,1.00,1077,297,1076,281,114364,0
notch-7,true,1.00,617,278,612,262,65882,0
notch-8,true,1.00,631,275,629,258,66827,0
notch-9,true,1.00,947,260,946,244,96151,0
notch-10,true,1.00,1013,298,1012,282,104508,0
notch-11,true,1.00,805,260,804,244,82817,0
notch-12,true,1.00,539,245,539,229,55188,0
notch-13,true,1.00,654,264,653,248,66952,0
notch-14,true,1.00,803,257,801,241,82467,0
notch-15,true,1.00,704,252,702,236,70825,0
notch-16,true,1.00,938,272,935,245,98809,0
notch-17,true,1.00,1112,290,1112,274,117865,0
notch-18,true,1.00,1289,307,1287,290,135753,0
notch-19,true,1.00,1131,253,1130,237,119524,0
notch-20,true,1.00,851,280,850,264,90164,0
notch-21,true,1.00,846,280,845,264,88361,0
notch-22,true,1.00,542,249,542,233,55053,0
notch-23,true,1.00,977,254,975,238,101732,0
notch-24,true,1.00,839,263,837,247,87209,0
notch-25,true,1.00,1149,289,1149,273,119299,0
notch-26,true,1.00,710,267,710,251,72588,0
notch-27,true,1.00,1388,294,1387,278,149373,0
notch-28,true,1.00,906,278,905,261,97214,0
notch-29,true,1.00,920,280,919,264,96282,0
notch-30,true,1.00,844,247,842,231,85341,0
notch-31,true,1.00,702,268,701,252,71187,0
notch-32,true,1.00,682,275,679,253,71352,0
notch-33,true,1.00,704,247,704,231,72194,0
notch-34,true,1.00,594,247,593,231,63438,0
notch-35,true,1.00,1075,291,1072,275,114361,0
notch-36,true,1.00,882,282,880,266,91315,0
notch-37,true,1.00,1110,277,1110,255,119156,0
notch-38,true,1.00,927,305,927,265,94992,0
notch-39,true,1.00,605,234,603,217,62875,0
notch-40,true,1.00,1327,287,1325,269,141652,0
notch-41,true,1.00,1173,292,1172,273,122769,0
notch-42,true,1.00,904,260,904,244,94341,0
notch-43,true,1.00,711,256,711,240,75611,0
notch-44,true,1.00,731,245,730,229,76433,0
notch-45,true,1.00,842,258,839,242,87875,0
notch-46,true,1.00,669,251,669,235,70235,0
notch-47,true,1.00,907,263,907,247,96631,0
notch-48,true,1.00,1073,265,1071,249,112053,0
notch-49,true,1.00,825,275,823,253,83589,0
notch-50,true,1.00,693,308,692,288,71225,0
notch-51,true,1.00,796,255,795,234,83009,0
notch-52,true,1.00,722,266,722,250,78582,0
notch-53,true,1.00,357,264,356,246,36587,0
notch-54,true,1.00,1370,297,1369,280,146719,0
notch-55,true,1.00,1019,291,1018,275,105128,0
notch-56,true,1.00,656,277,655,261,68276,0
notch-57,true,1.00,775,285,773,269,78436,0
notch-58,true,1.00,1001,283,1001,261,105609,0
notch-59,true,1.00,650,281,649,254,64904,0
notch-60,true,1.00,932,257,930,241,95090,0
notch-61,true,1.00,730,233,729,217,76358,0
notch-62,true,1.00,967,304,967,288,100619,0
notch-63,true,1.00,781,281,780,260,83927,0
notch-64,true,1.00,895,249,893,233,90930,0
notch-65,true,1.00,2938,365,2937,345,334534,0
notch-66,true,1.00,970,296,969,280,102127,0
notch-67,true,1.00,958,253,954,237,92222,0
notch-68,true,1.00,506,254,503,238,52796,0
notch-69,true,1.00,1694,287,1694,271,176074,0
notch-70,true,1.00,1054,299,1053,282,114079,0
notch-71,true,1.00,993,246,993,230,101975,0
notch-72,true,1.00,796,253,796,237,84983,0
notch-73,true,1.00,745,264,744,248,77219,0
notch-74,true,1.00,567,245,566,229,62767,0
notch-75,true,1.00,1251,306,1248,288,128130,0
notch-76,true,1.00,912,279,910,262,93561,0
notch-77,true,1.00,738,261,735,245,76751,0
notch-78,true,1.00,977,268,976,250,101671,0
notch-79,true,1.00,878,274,875,258,92366,0
notch-80,true,1.00,364,232,364,216,37123,0
notch-81,true,1.00,1782,273,1782,257,185068,0
notch-82,true,1.00,796,250,796,234,81586,0
notch-83,true,1.00,1467,290,1464,271,151349,0
notch-84,true,1.00,935,260,934,244,89249,0
notch-85,true,1.00,620,276,618,258,65082,0
notch-86,true,1.00,834,251,834,235,87662,0
notch-87,true,1.00,1000,251,999,235,104163,0
notch-88,true,1.00,1042,264,1040,247,111858,0
notch-89,true,1.00,1115,295,1115,279,116840,0
notch-90,true,1.00,1126,255,1124,239,117743,0
notch-91,true,1.00,1347,286,1345,270,141708,0
notch-92,true,1.00,977,271,977,255,102903,0
notch-93,true,1.00,990,280,987,264,104804,0
notch-94,true,1.00,1342,284,1340,267,138200,0
notch-95,true,1.00,598,248,598,232,61121,0
notch-96,true,1.00,543,256,543,240,58930,0
notch-97,true,1.00,952,274,952,258,101130,0
notch-98,true,1.00,1069,253,1066,236,111017,0
notch-99,true,1.00,1549,297,1548,276,168866,0
notch-100,true,1.00,779,278,777,262,81043,0
