NDW:0.0
TTFW:1.2
DFPT:2.0
DFPAP:3.0
DFPMP:7.0
RIGHT_WINDOW_BORDER_X:235.0
level,win/fail,% travelled,run time,game ticks,planning time,total plannings,nodes evaluated,most backtracked nodes
Mario-1,true,1.00,358,393,354,351,32908,0
Mario-2,true,1.00,799,341,796,320,73072,0
Mario-3,true,1.00,1349,297,1348,242,150803,0
Mario-4,true,1.00,777,381,774,339,68994,0
Mario-5,true,1.00,1006,396,1004,374,97198,0
Mario-6,true,1.00,1128,255,1126,232,125737,0
Mario-7,true,1.00,653,414,650,364,58426,0
Mario-8,true,1.00,1048,430,1045,374,95092,0
Mario-9,true,1.00,433,403,430,363,41262,0
Mario-10,true,1.00,1683,332,1681,289,193263,0
Mario-11,true,1.00,694,426,690,379,61180,0
Mario-12,true,1.00,1098,693,1091,656,79073,0
Mario-13,true,1.00,1346,333,1346,312,149693,0
Mario-14,true,1.00,215,389,209,352,18690,0
Mario-15,true,1.00,1952,822,1947,790,172762,0
