NDW:0.0
TTFW:1.6
DFPT:2.0
DFPAP:3.0
DFPMP:20.0
RIGHT_WINDOW_BORDER_X:255.0
level,win/fail,% travelled,run time,game ticks,planning time,total plannings,nodes evaluated,most backtracked nodes
ge-1,true,1.00,498,257,498,217,55794,0
ge-2,true,1.00,349,231,349,208,39593,0
ge-3,true,1.00,173,230,171,207,16626,0
ge-4,true,1.00,908,245,906,222,105870,0
ge-5,true,1.00,33,199,33,176,2391,0
ge-6,true,1.00,327,255,326,221,36246,0
ge-7,true,1.00,124,228,121,204,12338,0
ge-8,true,1.00,190,233,190,210,20131,0
ge-9,true,1.00,609,220,609,196,69090,0
ge-10,true,1.00,33,199,32,176,2268,0
ge-11,true,1.00,148,228,147,205,15414,0
ge-12,true,1.00,33,199,32,176,2205,0
ge-13,true,1.00,325,279,320,251,36232,0
ge-14,true,1.00,151,238,150,199,15027,0
ge-15,true,1.00,516,221,515,198,54818,0
ge-16,true,1.00,105,255,104,232,9640,0
ge-17,true,1.00,241,209,239,186,28315,0
ge-18,true,1.00,183,271,181,248,18072,0
ge-19,true,1.00,506,263,503,240,61788,0
ge-20,true,1.00,352,233,348,210,38271,0
ge-21,true,1.00,170,203,168,180,17182,0
ge-22,true,1.00,305,206,305,180,32434,0
ge-23,true,1.00,515,208,513,181,58549,0
ge-24,true,1.00,421,233,419,203,45265,0
ge-25,true,1.00,305,203,301,180,34419,0
ge-26,true,1.00,199,207,198,184,23030,0
ge-27,true,1.00,48,226,44,203,3995,0
ge-28,true,1.00,416,203,415,180,46626,0
ge-29,true,1.00,196,218,195,176,20087,0
ge-30,true,1.00,480,250,478,209,54335,0
ge-31,true,1.00,540,226,540,202,62452,0
ge-32,true,1.00,97,225,93,202,8898,0
ge-33,true,1.00,114,233,113,193,10839,0
ge-34,true,1.00,546,212,545,186,64393,0
ge-35,true,1.00,298,266,294,242,33180,0
ge-36,true,1.00,544,242,543,211,61128,0
ge-37,true,1.00,196,204,196,175,23171,0
ge-38,true,1.00,568,235,566,212,66236,0
ge-39,true,1.00,243,228,242,204,27249,0
ge-40,true,1.00,31,199,29,176,2312,0
ge-41,true,1.00,200,210,200,184,22977,0
ge-42,true,1.00,555,244,555,221,62479,0
ge-43,true,1.00,290,231,289,204,32202,0
ge-44,true,1.00,473,212,473,190,54587,0
ge-45,true,1.00,369,224,369,201,38783,0
ge-46,true,1.00,626,243,625,220,69187,0
ge-47,true,1.00,731,228,729,205,83480,0
ge-48,true,1.00,266,223,266,200,28082,0
ge-49,true,1.00,132,204,131,175,14853,0
ge-50,true,1.00,475,212,474,189,53079,0
ge-51,true,1.00,92,235,91,211,9460,0
ge-52,true,1.00,488,278,486,255,49860,0
ge-53,true,1.00,209,217,208,194,24346,0
ge-54,true,1.00,316,249,313,219,41057,0
ge-55,true,1.00,290,234,290,205,32357,0
ge-56,true,1.00,335,250,335,212,36848,0
ge-57,true,1.00,452,217,450,189,51571,0
ge-58,true,1.00,180,289,175,264,17921,0
ge-59,true,1.00,708,218,708,195,85342,0
ge-60,true,1.00,446,203,445,180,50405,0
ge-61,true,1.00,233,203,232,180,27628,0
ge-62,true,1.00,543,213,543,190,64271,0
ge-63,true,1.00,676,219,675,196,84566,0
ge-64,false,1.00,289,240,289,205,29407,0
ge-65,true,1.00,521,239,520,216,61503,0
ge-66,true,1.00,511,228,510,185,59682,0
ge-67,true,1.00,181,238,181,215,18369,0
ge-68,true,1.00,131,225,126,202,12373,0
ge-69,true,1.00,136,199,135,176,14492,0
ge-70,true,1.00,314,216,314,192,35259,0
ge-71,true,1.00,1107,232,1107,209,132894,0
ge-72,true,1.00,161,255,159,232,17313,0
ge-73,true,1.00,331,225,331,185,40459,0
ge-74,true,1.00,716,254,713,231,76970,0
ge-75,true,1.00,180,241,178,197,21673,0
ge-76,true,1.00,773,217,772,194,89842,0
ge-77,true,1.00,959,238,959,215,110907,0
ge-78,true,1.00,546,247,546,224,62784,0
ge-79,true,1.00,147,222,145,199,16066,0
ge-80,true,1.00,49,214,47,177,3307,0
ge-81,true,1.00,55,216,53,193,4512,0
ge-82,true,1.00,57,242,55,196,4551,0
ge-83,false,1.00,140,251,139,213,15141,0
ge-84,true,1.00,623,209,622,186,71479,0
ge-85,true,1.00,245,209,241,186,27085,0
ge-86,true,1.00,683,208,680,180,79042,0
ge-87,true,1.00,461,231,461,208,53641,0
ge-88,true,1.00,434,251,431,213,54105,0
ge-89,true,1.00,314,261,312,237,33282,0
ge-90,true,1.00,33,199,33,176,2411,0
ge-91,true,1.00,231,199,230,176,25378,0
ge-92,true,1.00,35,205,35,182,2492,0
ge-93,true,1.00,546,213,546,190,65339,0
ge-94,true,1.00,360,208,359,183,42040,0
ge-95,true,1.00,101,284,100,259,9023,0
ge-96,true,1.00,500,243,498,203,58739,0
ge-97,true,1.00,327,217,324,194,37720,0
ge-98,true,1.00,32,199,32,176,2221,0
ge-99,true,1.00,131,199,129,176,12207,0
ge-100,true,1.00,203,205,203,182,22752,0
