NDW:0.0
TTFW:0.6
DFPT:2.0
DFPAP:3.0
DFPMP:1.0
RIGHT_WINDOW_BORDER_X:275.0
level,win/fail,% travelled,run time,game ticks,planning time,total plannings,nodes evaluated,most backtracked nodes
patternWeightCount-1,true,1.00,2857,406,2847,366,164701,0
patternWeightCount-2,true,1.00,607,346,602,321,34520,0
patternWeightCount-3,true,1.00,749,365,744,338,42554,0
patternWeightCount-4,true,1.00,859,346,853,321,48701,0
patternWeightCount-5,true,1.00,1656,414,1643,389,92241,0
patternWeightCount-6,true,1.00,1984,393,1971,367,113464,0
patternWeightCount-7,true,1.00,951,387,943,362,52933,0
patternWeightCount-8,true,1.00,818,377,807,352,44145,0
patternWeightCount-9,true,1.00,1014,372,1008,347,58539,0
patternWeightCount-10,true,1.00,1005,364,997,339,56730,0
patternWeightCount-11,true,1.00,581,353,574,328,32143,0
patternWeightCount-12,true,1.00,1636,404,1626,379,90975,0
patternWeightCount-13,true,1.00,826,351,818,326,49219,0
patternWeightCount-14,true,1.00,994,397,985,366,57370,0
patternWeightCount-15,true,1.00,1409,398,1402,373,80925,0
patternWeightCount-16,true,1.00,2858,411,2854,374,171185,0
patternWeightCount-17,true,1.00,801,396,793,371,44124,0
patternWeightCount-18,true,1.00,1180,376,1175,351,68841,0
patternWeightCount-19,true,1.00,726,384,720,359,40142,0
patternWeightCount-20,true,1.00,6562,463,6554,425,370870,0
patternWeightCount-21,true,1.00,616,358,609,333,33618,0
patternWeightCount-22,true,1.00,2791,419,2786,393,164585,0
patternWeightCount-23,true,1.00,772,374,763,349,43236,0
patternWeightCount-24,true,1.00,1071,361,1057,335,63348,0
patternWeightCount-25,true,1.00,1551,411,1541,386,87799,0
patternWeightCount-26,true,1.00,1319,384,1315,359,74716,0
patternWeightCount-27,true,1.00,1944,390,1940,365,109301,0
patternWeightCount-28,true,1.00,1219,375,1209,350,69157,0
patternWeightCount-29,true,1.00,1009,370,1004,345,55897,0
patternWeightCount-30,true,1.00,3741,404,3735,378,208038,0
patternWeightCount-31,true,1.00,795,338,789,313,45626,0
patternWeightCount-32,true,1.00,853,359,846,334,47550,0
patternWeightCount-33,true,1.00,938,386,928,361,53247,0
patternWeightCount-34,true,1.00,1314,384,1307,359,74673,0
patternWeightCount-35,true,1.00,1928,424,1920,399,106959,0
patternWeightCount-36,true,1.00,1544,410,1536,385,85953,0
patternWeightCount-37,true,1.00,982,387,973,362,53297,0
patternWeightCount-38,true,1.00,2500,380,2487,349,135394,0
patternWeightCount-39,true,1.00,1043,354,1037,329,59436,0
patternWeightCount-40,true,1.00,1162,370,1156,345,67065,0
patternWeightCount-41,true,1.00,1333,382,1320,357,76313,0
patternWeightCount-42,true,1.00,1278,375,1272,350,72998,0
patternWeightCount-43,true,1.00,935,344,930,319,53737,0
patternWeightCount-44,true,1.00,1351,390,1344,357,77398,0
patternWeightCount-45,true,1.00,3662,505,3651,470,206970,0
patternWeightCount-46,true,1.00,4949,499,4939,462,262927,0
patternWeightCount-47,true,1.00,791,355,785,330,44114,0
patternWeightCount-48,true,1.00,742,344,737,319,41201,0
patternWeightCount-49,true,1.00,1142,368,1137,343,63506,0
patternWeightCount-50,true,1.00,911,365,902,340,51612,0
patternWeightCount-51,true,1.00,1019,375,1012,338,59609,0
patternWeightCount-52,true,1.00,1282,368,1271,332,72018,0
patternWeightCount-53,true,1.00,3768,459,3759,431,213034,0
patternWeightCount-54,true,1.00,866,360,858,335,49131,0
patternWeightCount-55,true,1.00,1185,369,1178,338,67339,0
patternWeightCount-56,true,1.00,1243,372,1236,347,70682,0
patternWeightCount-57,true,1.00,563,345,555,320,31887,0
patternWeightCount-58,true,1.00,951,349,942,324,55194,0
patternWeightCount-59,true,1.00,571,387,562,362,31171,0
patternWeightCount-60,true,1.00,1323,410,1321,378,74828,0
patternWeightCount-61,true,1.00,1208,374,1204,349,68922,0
patternWeightCount-62,true,1.00,1774,365,1769,331,105879,0
patternWeightCount-63,true,1.00,1019,385,1013,360,59348,0
patternWeightCount-64,true,1.00,1512,356,1504,331,88132,0
patternWeightCount-65,true,1.00,1489,389,1483,364,82075,0
patternWeightCount-66,true,1.00,1043,375,1036,350,58122,0
patternWeightCount-67,true,1.00,911,389,898,364,50840,0
patternWeightCount-68,true,1.00,508,355,503,329,27756,0
patternWeightCount-69,true,1.00,2006,389,1999,348,113827,0
patternWeightCount-70,true,1.00,1171,397,1163,365,64923,0
patternWeightCount-71,true,1.00,896,352,886,317,50296,0
patternWeightCount-72,true,1.00,5247,479,5238,454,282907,0
patternWeightCount-73,true,1.00,4807,497,4800,452,274943,0
patternWeightCount-74,true,1.00,858,378,853,353,48734,0
patternWeightCount-75,true,1.00,981,373,973,348,54545,0
patternWeightCount-76,true,1.00,957,359,952,334,54910,0
patternWeightCount-77,true,1.00,1052,371,1044,346,60775,0
patternWeightCount-78,true,1.00,3063,495,3054,469,158438,0
patternWeightCount-79,true,1.00,1158,353,1149,328,48139,0
patternWeightCount-80,true,1.00,1204,383,1197,358,67320,0
patternWeightCount-81,true,1.00,2924,404,2920,373,166415,0
patternWeightCount-82,true,1.00,315,333,311,308,16981,0
patternWeightCount-83,true,1.00,924,348,911,323,35979,0
patternWeightCount-84,true,1.00,1188,371,1178,346,34849,0
patternWeightCount-85,true,1.00,1293,355,1279,330,69024,0
patternWeightCount-86,false,0.93,2662,372,2654,372,143052,0
patternWeightCount-87,true,1.00,5111,423,5103,385,263217,0
patternWeightCount-88,true,1.00,1518,398,1514,372,80902,0
patternWeightCount-89,true,1.00,800,344,791,319,43604,0
patternWeightCount-90,true,1.00,5106,466,5098,439,270517,0
patternWeightCount-91,true,1.00,851,340,843,314,46053,0
patternWeightCount-92,true,1.00,3339,414,3330,375,129717,0
patternWeightCount-93,false,0.90,2815,378,2808,378,159143,0
patternWeightCount-94,true,1.00,1138,390,1132,365,62918,0
patternWeightCount-95,true,1.00,1340,358,1329,333,75122,0
patternWeightCount-96,true,1.00,952,387,944,362,51507,0
patternWeightCount-97,true,1.00,900,334,896,309,50919,0
patternWeightCount-98,true,1.00,4300,458,4293,411,250724,0
patternWeightCount-99,true,1.00,1433,405,1422,380,80844,0
patternWeightCount-100,true,1.00,951,352,945,327,53928,0
