NDW:0.0
TTFW:0.8
DFPT:2.0
DFPAP:3.0
DFPMP:1.0
RIGHT_WINDOW_BORDER_X:275.0
level,win/fail,% travelled,run time,game ticks,planning time,total plannings,nodes evaluated,most backtracked nodes
ge-1,true,1.00,501,229,501,193,44895,0
ge-2,true,1.00,546,222,544,197,55905,0
ge-3,true,1.00,207,203,206,178,19446,0
ge-4,true,1.00,991,241,991,211,93939,0
ge-5,true,1.00,65,199,64,174,7209,0
ge-6,true,1.00,452,232,450,207,37340,0
ge-7,true,1.00,142,218,141,192,13104,0
ge-8,true,1.00,232,209,232,184,20573,0
ge-9,true,1.00,433,211,433,186,44527,0
ge-10,true,1.00,64,199,61,174,6688,0
ge-11,true,1.00,199,209,198,184,19077,0
ge-12,true,1.00,67,199,67,174,7745,0
ge-13,true,1.00,420,236,419,211,34491,0
ge-14,true,1.00,196,216,192,180,18426,0
ge-15,true,1.00,551,211,548,186,52215,0
ge-16,true,1.00,522,289,521,264,34572,0
ge-17,true,1.00,268,211,263,178,25376,0
ge-18,true,1.00,327,238,327,214,24870,0
ge-19,true,1.00,595,250,591,225,58208,0
ge-20,true,1.00,398,213,395,188,36770,0
ge-21,true,1.00,228,201,226,176,21917,0
ge-22,true,1.00,299,208,297,177,28077,0
ge-23,true,1.00,550,209,550,179,51644,0
ge-24,true,1.00,376,218,373,187,34234,0
ge-25,true,1.00,333,201,332,176,33481,0
ge-26,true,1.00,230,205,229,180,24516,0
ge-27,true,1.00,75,207,74,182,7340,0
ge-28,true,1.00,496,203,496,178,47579,0
ge-29,true,1.00,236,209,234,174,23528,0
ge-30,true,1.00,660,239,656,204,58329,0
ge-31,true,1.00,683,252,681,225,64456,0
ge-32,true,1.00,209,221,207,196,18012,0
ge-33,true,1.00,140,216,138,179,12977,0
ge-34,true,1.00,527,216,526,185,51943,0
ge-35,true,1.00,369,233,366,208,32174,0
ge-36,true,1.00,628,228,625,194,59542,0
ge-37,true,1.00,257,199,257,174,27319,0
ge-38,true,1.00,530,215,530,190,54001,0
ge-39,true,1.00,389,217,389,191,35470,0
ge-40,true,1.00,65,199,65,174,7891,0
ge-41,true,1.00,227,199,223,174,23187,0
ge-42,true,1.00,611,217,608,192,54034,0
ge-43,true,1.00,335,224,335,197,29371,0
ge-44,true,1.00,448,217,445,192,45458,0
ge-45,true,1.00,542,219,540,194,45797,0
ge-46,true,1.00,682,227,681,202,62373,0
ge-47,true,1.00,796,232,795,207,75667,0
ge-48,true,1.00,381,238,380,213,32812,0
ge-49,true,1.00,164,199,163,174,17549,0
ge-50,true,1.00,497,205,497,180,47108,0
ge-51,true,1.00,149,208,149,182,13566,0
ge-52,true,1.00,590,290,587,264,46001,0
ge-53,true,1.00,245,216,244,191,24205,0
ge-54,true,1.00,592,225,592,200,59375,0
ge-55,true,1.00,416,218,413,193,38022,0
ge-56,true,1.00,376,244,375,206,35025,0
ge-57,true,1.00,478,221,478,186,47295,0
ge-58,true,1.00,323,247,320,214,23692,0
ge-59,true,1.00,662,207,662,182,67787,0
ge-60,true,1.00,525,201,525,176,51117,0
ge-61,true,1.00,262,203,261,178,27724,0
ge-62,true,1.00,506,207,506,182,50585,0
ge-63,true,1.00,721,209,721,184,77737,0
ge-64,true,1.00,295,243,294,207,26600,0
ge-65,true,1.00,556,217,556,192,53021,0
ge-66,true,1.00,525,220,524,184,52431,0
ge-67,true,1.00,270,243,267,218,22199,0
ge-68,true,1.00,181,233,180,208,14971,0
ge-69,true,1.00,163,199,163,174,16137,0
ge-70,true,1.00,329,202,327,177,32104,0
ge-71,true,1.00,876,234,875,209,87813,0
ge-72,true,1.00,238,247,237,217,19695,0
ge-73,true,1.00,397,211,395,186,42226,0
ge-74,true,1.00,776,248,775,223,72159,0
ge-75,true,1.00,254,225,253,190,24415,0
ge-76,true,1.00,673,226,672,201,64576,0
ge-77,true,1.00,695,225,691,200,65682,0
ge-78,true,1.00,601,238,598,202,55830,0
ge-79,true,1.00,179,209,179,179,17034,0
ge-80,true,1.00,145,216,142,175,12314,0
ge-81,true,1.00,122,209,121,184,10517,0
ge-82,true,1.00,229,247,229,202,16902,0
ge-83,false,1.00,211,248,207,194,17317,0
ge-84,true,1.00,563,211,557,186,55638,0
ge-85,true,1.00,276,209,276,184,30175,0
ge-86,true,1.00,662,212,658,176,65364,0
ge-87,true,1.00,506,211,503,186,49386,0
ge-88,true,1.00,560,228,555,190,55107,0
ge-89,true,1.00,351,242,347,216,27344,0
ge-90,true,1.00,64,199,64,174,7332,0
ge-91,true,1.00,266,199,266,174,26656,0
ge-92,true,1.00,61,205,58,180,6257,0
ge-93,true,1.00,570,205,568,180,56402,0
ge-94,true,1.00,399,208,398,181,39487,0
ge-95,true,1.00,225,255,223,228,15823,0
ge-96,true,1.00,602,244,601,198,56942,0
ge-97,true,1.00,555,245,554,220,53271,0
ge-98,true,1.00,63,199,63,174,7350,0
ge-99,true,1.00,164,199,161,174,16350,0
ge-100,true,1.00,71,205,68,180,8102,0
