NDW:0.0
TTFW:0.6
DFPT:2.0
DFPAP:3.0
DFPMP:20.0
RIGHT_WINDOW_BORDER_X:400.0
level,win/fail,% travelled,run time,game ticks,planning time,total plannings,nodes evaluated,most backtracked nodes
patternWeightCount-1,true,1.00,3212,405,3201,361,155673,0
patternWeightCount-2,true,1.00,815,356,803,315,37851,0
patternWeightCount-3,true,1.00,699,357,685,318,31023,0
patternWeightCount-4,true,1.00,1013,364,1005,328,45904,0
patternWeightCount-5,true,1.00,2258,423,2246,384,101347,0
patternWeightCount-6,true,1.00,1942,406,1925,350,90023,0
patternWeightCount-7,true,1.00,1244,382,1233,345,55830,0
patternWeightCount-8,true,1.00,1035,378,1022,342,42415,0
patternWeightCount-9,true,1.00,1130,374,1123,336,51232,0
patternWeightCount-10,true,1.00,1118,392,1109,356,49819,0
patternWeightCount-11,true,1.00,779,356,769,320,33960,0
patternWeightCount-12,true,1.00,1704,390,1691,354,74503,0
patternWeightCount-13,true,1.00,1006,348,994,312,48250,0
patternWeightCount-14,true,1.00,1209,412,1200,366,52978,0
patternWeightCount-15,true,1.00,1435,361,1424,325,68033,0
patternWeightCount-16,true,1.00,2405,394,2396,343,116378,0
patternWeightCount-17,true,1.00,1207,381,1198,345,52716,0
patternWeightCount-18,true,1.00,1308,370,1299,334,59594,0
patternWeightCount-19,true,1.00,881,402,871,366,38418,0
patternWeightCount-20,true,1.00,4765,399,4758,339,217356,0
patternWeightCount-21,true,1.00,952,359,944,322,40719,0
patternWeightCount-22,true,1.00,2380,424,2369,371,113534,0
patternWeightCount-23,true,1.00,1344,375,1337,336,60976,0
patternWeightCount-24,true,1.00,1471,369,1462,319,70543,0
patternWeightCount-25,true,1.00,1902,374,1892,337,88542,0
patternWeightCount-26,true,1.00,1618,392,1609,355,72661,0
patternWeightCount-27,true,1.00,2278,396,2270,342,107033,0
patternWeightCount-28,true,1.00,1462,383,1457,347,66693,0
patternWeightCount-29,true,1.00,1253,361,1244,325,55735,0
patternWeightCount-30,true,1.00,2835,374,2824,319,129565,0
patternWeightCount-31,true,1.00,1599,365,1585,329,70823,0
patternWeightCount-32,true,1.00,962,367,955,331,43436,0
patternWeightCount-33,true,1.00,1119,380,1110,344,50233,0
patternWeightCount-34,true,1.00,1619,371,1611,335,73812,0
patternWeightCount-35,true,1.00,2034,377,2028,341,93494,0
patternWeightCount-36,true,1.00,1756,376,1746,339,79945,0
patternWeightCount-37,true,1.00,982,352,969,316,43102,0
patternWeightCount-38,true,1.00,2054,380,2041,315,90531,0
patternWeightCount-39,true,1.00,1239,376,1232,334,56742,0
patternWeightCount-40,true,1.00,1409,381,1401,345,64239,0
patternWeightCount-41,true,1.00,1514,390,1501,341,70290,0
patternWeightCount-42,false,0.88,3077,328,3067,328,136206,0
patternWeightCount-43,true,1.00,1431,362,1422,326,66321,0
patternWeightCount-44,true,1.00,1697,380,1690,327,77060,0
patternWeightCount-45,true,1.00,3054,417,3047,369,136015,0
patternWeightCount-46,true,1.00,5016,472,5005,423,216663,0
patternWeightCount-47,true,1.00,1078,364,1067,328,48423,0
patternWeightCount-48,true,1.00,918,351,908,315,41692,0
patternWeightCount-49,true,1.00,1179,357,1174,321,53306,0
patternWeightCount-50,true,1.00,845,356,837,319,38253,0
patternWeightCount-51,true,1.00,1336,384,1326,331,62282,0
patternWeightCount-52,true,1.00,1541,378,1526,336,70624,0
patternWeightCount-53,true,1.00,3311,463,3295,404,156768,0
patternWeightCount-54,true,1.00,1239,398,1229,361,55211,0
patternWeightCount-55,true,1.00,1359,375,1351,338,64309,0
patternWeightCount-56,true,1.00,1198,362,1189,325,56662,0
patternWeightCount-57,true,1.00,728,340,716,304,32915,0
patternWeightCount-58,true,1.00,1155,355,1145,312,53402,0
patternWeightCount-59,true,1.00,791,368,789,330,34998,0
patternWeightCount-60,true,1.00,1716,438,1705,394,74938,0
patternWeightCount-61,true,1.00,1311,375,1303,331,59610,0
patternWeightCount-62,true,1.00,1993,369,1984,320,97515,0
patternWeightCount-63,true,1.00,1283,369,1272,333,60882,0
patternWeightCount-64,true,1.00,1383,362,1375,326,65505,0
patternWeightCount-65,true,1.00,1411,384,1401,333,61820,0
patternWeightCount-66,true,1.00,1256,385,1237,344,55973,0
patternWeightCount-67,true,1.00,1115,364,1106,328,49637,0
patternWeightCount-68,false,0.85,22633,999,22625,999,792226,0
patternWeightCount-69,true,1.00,1974,362,1964,304,91514,0
patternWeightCount-70,true,1.00,1330,400,1322,351,60437,0
patternWeightCount-71,true,1.00,994,387,982,337,45868,0
patternWeightCount-72,true,1.00,3807,377,3803,338,171199,0
patternWeightCount-73,true,1.00,4786,422,4776,366,222813,0
patternWeightCount-74,true,1.00,1073,367,1064,331,49092,0
patternWeightCount-75,true,1.00,1271,369,1263,333,57413,0
patternWeightCount-76,true,1.00,1206,357,1198,320,56278,0
patternWeightCount-77,true,1.00,1387,384,1383,348,65689,0
patternWeightCount-78,true,1.00,3090,463,3077,424,135398,0
patternWeightCount-79,true,1.00,819,366,813,330,37156,0
patternWeightCount-80,true,1.00,1267,380,1260,343,59077,0
patternWeightCount-81,true,1.00,3849,413,3846,367,178065,0
patternWeightCount-82,true,1.00,562,359,553,311,24103,0
patternWeightCount-83,true,1.00,1023,376,1013,338,48289,0
patternWeightCount-84,true,1.00,1058,388,1054,352,46971,0
patternWeightCount-85,true,1.00,1471,363,1462,325,70889,0
patternWeightCount-86,false,0.94,2776,340,2769,340,131215,0
patternWeightCount-87,true,1.00,4424,414,4408,359,200557,0
patternWeightCount-88,true,1.00,1846,386,1840,350,84330,0
patternWeightCount-89,true,1.00,1236,359,1225,323,55028,0
patternWeightCount-90,true,1.00,5880,450,5870,402,261135,0
patternWeightCount-91,true,1.00,1026,356,1018,313,46674,0
patternWeightCount-92,true,1.00,3340,414,3338,359,160414,0
patternWeightCount-93,true,1.00,2890,373,2878,337,135247,0
patternWeightCount-94,true,1.00,1427,389,1417,352,63482,0
patternWeightCount-95,true,1.00,1468,360,1460,324,65384,0
patternWeightCount-96,true,1.00,1151,403,1143,366,50019,0
patternWeightCount-97,true,1.00,1138,332,1129,296,53229,0
patternWeightCount-98,true,1.00,4183,463,4175,398,198273,0
patternWeightCount-99,true,1.00,1725,376,1717,339,79188,0
patternWeightCount-100,true,1.00,1149,352,1138,316,52449,0
