NDW:0.0
TTFW:1.6
DFPT:2.0
DFPAP:3.0
DFPMP:2.0
RIGHT_WINDOW_BORDER_X:195.0
level,win/fail,% travelled,run time,game ticks,planning time,total plannings,nodes evaluated,most backtracked nodes
notchParamRand-1,true,1.00,891,330,889,313,95376,0
notchParamRand-2,true,1.00,77,308,74,291,7833,0
notchParamRand-3,true,1.00,911,308,910,291,107712,0
notchParamRand-4,true,1.00,1395,356,1390,339,166694,0
notchParamRand-5,true,1.00,144,306,142,289,15945,0
notchParamRand-6,true,1.00,304,312,302,295,36170,0
notchParamRand-7,true,1.00,200,296,195,279,21912,0
notchParamRand-8,true,1.00,437,316,436,299,44518,0
notchParamRand-9,true,1.00,523,319,518,302,62543,0
notchParamRand-10,true,1.00,677,367,674,350,82218,0
notchParamRand-11,true,1.00,66,294,66,277,5979,0
notchParamRand-12,true,1.00,240,306,240,289,26371,0
notchParamRand-13,true,1.00,1582,314,1580,297,173375,0
notchParamRand-14,true,1.00,901,312,898,295,97204,0
notchParamRand-15,true,1.00,474,316,473,299,56510,0
notchParamRand-16,true,1.00,304,300,303,283,40005,0
notchParamRand-17,true,1.00,38,303,37,286,2967,0
notchParamRand-18,true,1.00,2465,347,2464,330,283789,0
notchParamRand-19,true,1.00,127,328,127,311,14782,0
notchParamRand-20,true,1.00,1454,331,1452,314,174035,0
notchParamRand-21,true,1.00,35,296,33,279,2622,0
notchParamRand-22,true,1.00,869,337,865,320,99831,0
notchParamRand-23,true,1.00,967,356,965,339,117079,0
notchParamRand-24,true,1.00,148,326,144,309,16931,0
notchParamRand-25,true,1.00,38,308,37,290,3618,0
notchParamRand-26,true,1.00,394,344,392,327,45395,0
notchParamRand-27,true,1.00,167,300,166,283,21968,0
notchParamRand-28,true,1.00,323,317,322,300,36842,0
notchParamRand-29,true,1.00,35,298,35,281,2799,0
notchParamRand-30,true,1.00,1597,312,1596,295,184609,0
notchParamRand-31,true,1.00,249,319,243,302,29367,0
notchParamRand-32,true,1.00,65,294,61,277,6782,0
notchParamRand-33,true,1.00,1856,342,1851,325,210207,0
notchParamRand-34,true,1.00,939,333,938,316,107507,0
notchParamRand-35,true,1.00,511,318,510,301,59391,0
notchParamRand-36,true,1.00,34,302,33,283,2716,0
notchParamRand-37,true,1.00,287,310,286,293,35671,0
notchParamRand-38,true,1.00,1717,331,1716,314,186821,0
notchParamRand-39,true,1.00,1375,322,1374,305,155583,0
notchParamRand-40,true,1.00,2084,335,2084,318,233925,0
notchParamRand-41,true,1.00,32,294,32,277,2198,0
notchParamRand-42,true,1.00,359,316,358,299,43764,0
notchParamRand-43,true,1.00,167,300,163,283,19821,0
notchParamRand-44,true,1.00,248,302,247,285,30368,0
notchParamRand-45,true,1.00,807,322,807,305,86732,0
notchParamRand-46,true,1.00,448,311,444,294,52837,0
notchParamRand-47,true,1.00,688,318,687,301,77148,0
notchParamRand-48,true,1.00,1338,324,1337,307,148680,0
notchParamRand-49,true,1.00,640,308,639,291,73779,0
notchParamRand-50,true,1.00,1331,335,1329,318,154468,0
notchParamRand-51,true,1.00,142,315,136,298,14908,0
notchParamRand-52,true,1.00,971,320,971,303,113504,0
notchParamRand-53,true,1.00,939,326,938,309,103606,0
notchParamRand-54,true,1.00,2034,362,2032,345,227909,0
notchParamRand-55,true,1.00,1652,322,1648,305,175814,0
notchParamRand-56,true,1.00,599,329,597,312,69427,0
notchParamRand-57,true,1.00,940,318,938,301,111027,0
notchParamRand-58,true,1.00,683,325,682,308,80760,0
notchParamRand-59,true,1.00,474,313,473,296,53939,0
notchParamRand-60,true,1.00,578,323,573,306,68935,0
notchParamRand-61,true,1.00,396,310,392,293,46093,0
notchParamRand-62,true,1.00,370,322,368,305,42661,0
notchParamRand-63,true,1.00,1327,310,1326,293,149868,0
notchParamRand-64,true,1.00,229,298,225,281,27468,0
notchParamRand-65,true,1.00,1819,349,1817,332,203418,0
notchParamRand-66,true,1.00,222,331,221,314,22763,0
notchParamRand-67,true,1.00,234,300,232,283,24409,0
notchParamRand-68,true,1.00,1449,326,1448,309,166360,0
notchParamRand-69,true,1.00,173,309,173,292,20977,0
notchParamRand-70,true,1.00,670,326,666,309,82934,0
notchParamRand-71,true,1.00,318,330,317,313,35311,0
notchParamRand-72,true,1.00,66,294,64,277,6683,0
notchParamRand-73,true,1.00,468,308,465,291,50069,0
notchParamRand-74,true,1.00,36,296,34,279,2951,0
notchParamRand-75,true,1.00,34,294,33,277,2275,0
notchParamRand-76,true,1.00,1111,348,1110,331,124644,0
notchParamRand-77,true,1.00,1508,354,1507,337,162515,0
notchParamRand-78,true,1.00,1016,320,1015,303,118185,0
notchParamRand-79,true,1.00,138,300,136,283,15380,0
notchParamRand-80,true,1.00,229,296,228,279,23179,0
notchParamRand-81,true,1.00,217,298,215,281,27334,0
notchParamRand-82,true,1.00,696,330,696,313,81500,0
notchParamRand-83,true,1.00,1222,334,1220,317,138106,0
notchParamRand-84,true,1.00,248,300,247,283,29032,0
notchParamRand-85,true,1.00,33,294,31,277,2210,0
notchParamRand-86,true,1.00,437,345,437,328,51163,0
notchParamRand-87,true,1.00,1535,316,1534,299,179438,0
notchParamRand-88,true,1.00,213,300,212,283,27034,0
notchParamRand-89,true,1.00,268,306,266,289,31567,0
notchParamRand-90,true,1.00,542,312,539,295,58205,0
notchParamRand-91,true,1.00,33,294,33,277,2347,0
notchParamRand-92,true,1.00,755,324,751,307,89943,0
notchParamRand-93,true,1.00,219,319,218,292,26285,0
notchParamRand-94,true,1.00,1512,314,1510,297,165900,0
notchParamRand-95,true,1.00,660,316,658,299,75334,0
notchParamRand-96,true,1.00,377,339,376,322,43041,0
notchParamRand-97,true,1.00,1313,350,1312,333,144581,0
notchParamRand-98,true,1.00,164,294,162,277,20491,0
notchParamRand-99,true,1.00,144,310,144,293,16160,0
notchParamRand-100,true,1.00,1418,318,1417,301,158510,0
