NDW:0.0
TTFW:1.0
DFPT:2.0
DFPAP:3.0
DFPMP:3.0
RIGHT_WINDOW_BORDER_X:295.0
level,win/fail,% travelled,run time,game ticks,planning time,total plannings,nodes evaluated,most backtracked nodes
ore-1,true,1.00,1424,397,1415,359,80169,0
ore-2,false,0.70,2177,282,2170,282,117090,0
ore-3,true,1.00,1659,474,1646,441,93463,0
ore-4,true,1.00,2109,393,2092,366,114762,0
ore-5,true,1.00,1593,374,1578,336,90509,0
ore-6,true,1.00,1675,472,1665,433,91911,0
ore-7,true,1.00,1617,432,1607,394,90046,0
ore-8,true,1.00,3296,394,3292,357,178043,0
ore-9,true,1.00,1214,388,1206,356,68869,0
ore-10,true,1.00,1844,432,1834,405,102960,0
ore-11,true,1.00,1823,460,1810,423,100524,0
ore-12,false,0.46,2170,231,2166,231,106637,0
ore-13,true,1.00,1691,437,1681,407,94994,0
ore-14,true,1.00,1976,421,1967,376,114049,0
ore-15,true,1.00,2024,403,2012,376,115305,0
ore-16,true,1.00,1704,386,1687,351,95993,0
ore-17,true,1.00,2010,478,1997,431,114785,0
ore-18,true,1.00,1525,425,1511,382,86192,0
ore-19,true,1.00,1612,408,1606,381,92499,0
ore-20,true,1.00,2191,417,2184,381,124919,0
ore-21,true,1.00,1894,424,1885,397,110199,0
ore-22,false,0.62,1781,278,1775,278,90090,0
ore-23,true,1.00,1838,418,1823,384,103612,0
ore-24,true,1.00,1619,464,1608,412,90274,0
ore-25,true,1.00,1826,440,1818,403,104771,0
ore-26,true,1.00,1564,423,1553,383,80179,0
ore-27,false,0.24,1412,120,1410,120,68495,0
ore-28,true,1.00,1525,417,1517,385,81098,0
ore-29,false,0.48,1716,210,1707,210,79614,0
ore-30,true,1.00,1488,401,1480,355,83287,0
ore-31,true,1.00,1771,468,1760,428,99153,0
ore-32,true,1.00,1743,403,1733,376,96404,0
ore-33,true,1.00,1841,451,1829,422,102706,0
ore-34,true,1.00,1862,435,1849,402,104580,0
ore-35,true,1.00,1623,398,1616,369,93338,0
ore-36,true,1.00,1575,428,1565,390,88656,0
ore-37,false,0.34,1799,139,1797,139,88469,0
ore-38,true,1.00,1359,404,1347,357,76372,0
ore-39,true,1.00,2214,443,2202,396,125577,0
ore-40,true,1.00,2344,411,2335,378,127281,0
ore-41,true,1.00,1436,388,1424,362,82922,0
ore-42,true,1.00,2964,481,2956,435,163255,0
ore-43,true,1.00,2275,415,2272,388,121531,0
ore-44,true,1.00,2094,391,2087,348,120099,0
ore-45,true,1.00,3302,467,3292,427,174049,0
ore-46,false,0.13,836,48,835,48,42343,0
ore-47,false,0.85,2800,377,2793,377,150552,0
ore-48,true,1.00,3064,457,3052,424,175639,0
ore-49,true,1.00,1471,430,1460,374,83588,0
ore-50,true,1.00,2745,408,2740,379,158485,0
ore-51,true,1.00,2336,405,2327,367,126049,0
ore-52,true,1.00,1913,419,1903,392,103515,0
ore-53,true,1.00,1787,424,1779,379,99368,0
ore-54,false,0.72,2564,316,2557,316,132355,0
ore-55,true,1.00,1606,398,1596,362,94013,0
ore-56,true,1.00,1617,381,1611,354,92464,0
ore-57,true,1.00,1845,431,1831,387,103787,0
ore-58,true,1.00,1670,397,1662,370,94806,0
ore-59,true,1.00,1950,425,1944,393,110683,0
ore-60,true,1.00,2204,373,2193,340,119395,0
ore-61,true,1.00,2734,413,2725,381,151547,0
ore-62,true,1.00,2240,418,2223,389,129121,0
ore-63,false,0.32,2141,199,2139,199,108222,0
ore-64,true,1.00,1234,395,1225,365,68626,0
ore-65,true,1.00,2025,423,2012,390,114014,0
ore-66,true,1.00,1948,435,1935,407,111752,0
ore-67,true,1.00,1895,415,1883,383,106732,0
ore-68,true,1.00,1379,403,1369,367,74606,0
ore-69,true,1.00,4132,529,4121,486,207668,0
ore-70,false,0.96,3315,410,3304,410,180233,0
ore-71,true,1.00,1601,388,1589,360,90680,0
ore-72,true,1.00,1498,396,1490,367,85468,0
ore-73,true,1.00,1862,418,1850,378,106675,0
ore-74,true,1.00,3165,469,3157,426,161590,0
ore-75,true,1.00,2086,452,2074,423,119740,0
ore-76,true,1.00,1403,359,1395,326,80544,0
ore-77,true,1.00,1681,419,1665,371,95811,0
ore-78,true,1.00,1945,413,1932,386,110333,0
ore-79,true,1.00,2102,416,2088,389,121760,0
ore-80,true,1.00,1621,386,1614,358,93093,0
ore-81,true,1.00,1822,413,1812,384,103115,0
ore-82,true,1.00,1776,398,1768,364,100800,0
ore-83,true,1.00,1575,399,1569,372,89793,0
ore-84,true,1.00,4007,454,3993,420,193697,0
ore-85,true,1.00,1817,400,1808,364,103911,0
ore-86,false,0.60,2304,284,2297,284,124499,0
ore-87,true,1.00,1381,376,1374,350,74662,0
ore-88,true,1.00,2230,439,2221,409,128825,0
ore-89,true,1.00,2082,405,2076,378,112457,0
ore-90,true,1.00,2588,477,2581,426,146116,0
ore-91,true,1.00,2211,401,2201,373,125016,0
ore-92,true,1.00,1605,416,1595,387,90873,0
ore-93,false,0.14,1706,76,1706,76,79811,0
ore-94,true,1.00,2142,457,2128,422,118013,0
ore-95,true,1.00,2476,454,2461,415,134793,0
ore-96,true,1.00,2264,454,2253,425,125482,0
ore-97,true,1.00,2096,452,2087,412,115483,0
ore-98,true,1.00,1734,449,1728,415,99093,0
ore-99,true,1.00,2480,431,2472,402,139666,0
ore-100,true,1.00,1729,406,1722,378,98612,0
