NDW:0.0
TTFW:0.8
DFPT:2.0
DFPAP:3.0
DFPMP:2.0
RIGHT_WINDOW_BORDER_X:55.0
level,win/fail,% travelled,run time,game ticks,planning time,total plannings,nodes evaluated,most backtracked nodes
Mario-1,true,1.00,2648,797,2629,789,136474,0
Mario-2,true,1.00,3353,749,3340,743,178811,0
Mario-3,false,0.34,7619,467,7619,467,396884,0
Mario-4,true,1.00,2838,886,2821,879,154038,0
Mario-5,true,1.00,4272,1002,4254,994,235477,0
Mario-6,false,0.57,3083,395,3075,395,171353,0
Mario-7,true,1.00,8189,1109,8170,1099,399858,0
Mario-8,false,0.66,5662,697,5653,697,299532,0
Mario-9,true,1.00,4120,862,4100,855,227755,0
Mario-10,false,0.26,1969,256,1964,256,107016,0
Mario-11,true,1.00,5245,835,5226,829,275997,0
Mario-12,false,0.53,2258,673,2241,673,115781,0
Mario-13,false,0.31,1054,262,1051,262,60728,0
Mario-14,true,1.00,505,660,486,652,28548,0
Mario-15,false,0.58,5362,1092,5344,1092,266313,0
