NDW:0.0
TTFW:1.2
DFPT:2.0
DFPAP:3.0
DFPMP:5.0
RIGHT_WINDOW_BORDER_X:400.0
level,win/fail,% travelled,run time,game ticks,planning time,total plannings,nodes evaluated,most backtracked nodes
notch-1,true,1.00,787,287,784,248,91282,0
notch-2,true,1.00,919,272,919,235,111701,0
notch-3,true,1.00,914,251,913,215,103376,0
notch-4,true,1.00,747,243,745,206,85903,0
notch-5,true,1.00,682,258,681,215,79758,0
notch-6,true,1.00,768,283,766,240,90735,0
notch-7,true,1.00,485,275,484,234,56015,0
notch-8,true,1.00,608,280,605,230,68896,0
notch-9,true,1.00,1039,246,1035,210,117681,0
notch-10,true,1.00,784,273,784,235,92659,0
notch-11,true,1.00,983,256,981,217,112407,0
notch-12,true,1.00,645,247,645,210,71444,0
notch-13,true,1.00,694,270,692,234,81275,0
notch-14,true,1.00,753,266,751,215,87578,0
notch-15,true,1.00,920,263,919,226,109473,0
notch-16,true,1.00,1225,286,1221,238,142469,0
notch-17,true,1.00,916,277,913,235,109817,0
notch-18,true,1.00,981,303,979,256,110492,0
notch-19,true,1.00,900,245,898,201,106982,0
notch-20,true,1.00,1030,287,1028,251,122229,0
notch-21,true,1.00,810,298,804,260,98545,0
notch-22,true,1.00,606,241,605,202,65733,0
notch-23,true,1.00,970,247,969,210,112717,0
notch-24,true,1.00,662,269,662,233,78804,0
notch-25,true,1.00,1047,302,1047,260,121366,0
notch-26,true,1.00,893,269,893,221,97611,0
notch-27,true,1.00,1152,286,1151,241,136591,0
notch-28,true,1.00,953,266,950,215,112292,0
notch-29,true,1.00,977,275,973,232,114491,0
notch-30,true,1.00,793,260,792,207,88288,0
notch-31,true,1.00,730,279,730,233,82591,0
notch-32,true,1.00,705,274,704,227,80490,0
notch-33,true,1.00,620,256,618,212,69807,0
notch-34,true,1.00,678,257,671,221,84067,0
notch-35,true,1.00,616,282,615,244,72560,0
notch-36,true,1.00,876,269,874,225,99330,0
notch-37,true,1.00,1154,298,1152,256,140123,0
notch-38,true,1.00,905,271,904,228,103144,0
notch-39,true,1.00,619,228,617,192,71465,0
notch-40,true,1.00,704,261,703,218,87290,0
notch-41,true,1.00,1024,303,1022,260,122678,0
notch-42,true,1.00,591,274,590,227,66998,0
notch-43,true,1.00,658,252,658,213,76916,0
notch-44,true,1.00,554,247,553,199,62131,0
notch-45,true,1.00,581,244,580,208,65787,0
notch-46,true,1.00,803,263,803,227,92620,0
notch-47,true,1.00,769,273,768,229,89452,0
notch-48,true,1.00,1151,265,1151,220,136086,0
notch-49,true,1.00,710,280,708,225,79975,0
notch-50,true,1.00,831,318,829,264,95459,0
notch-51,true,1.00,655,245,654,209,76221,0
notch-52,true,1.00,729,277,726,236,83552,0
notch-53,true,1.00,291,269,288,204,31247,0
notch-54,true,1.00,876,298,874,253,101398,0
notch-55,true,1.00,917,286,914,247,110197,0
notch-56,true,1.00,692,267,689,228,77915,0
notch-57,true,1.00,723,279,720,228,83055,0
notch-58,true,1.00,1359,290,1358,248,152215,0
notch-59,true,1.00,751,292,743,250,81635,0
notch-60,true,1.00,851,274,849,238,98320,0
notch-61,true,1.00,702,247,700,211,78212,0
notch-62,true,1.00,570,280,570,244,61285,0
notch-63,true,1.00,818,297,816,261,99395,0
notch-64,true,1.00,754,250,752,214,84056,0
notch-65,true,1.00,1345,331,1344,268,165728,0
notch-66,true,1.00,1228,297,1227,250,144274,0
notch-67,true,1.00,739,247,738,205,81550,0
notch-68,true,1.00,380,252,376,216,43765,0
notch-69,true,1.00,1178,285,1177,243,136596,0
notch-70,true,1.00,1050,321,1048,261,127040,0
notch-71,true,1.00,1068,247,1066,211,121495,0
notch-72,true,1.00,713,251,713,215,84678,0
notch-73,true,1.00,668,285,667,237,73929,0
notch-74,true,1.00,532,246,531,202,63672,0
notch-75,true,1.00,1250,301,1248,264,148105,0
notch-76,true,1.00,774,286,772,239,87051,0
notch-77,true,1.00,729,276,728,228,84915,0
notch-78,true,1.00,807,270,807,222,94787,0
notch-79,true,1.00,852,281,850,225,101491,0
notch-80,true,1.00,450,230,450,194,50696,0
notch-81,true,1.00,1066,259,1066,212,122904,0
notch-82,true,1.00,625,260,622,221,69987,0
notch-83,true,1.00,851,268,850,225,99365,0
notch-84,true,1.00,485,259,484,216,51632,0
notch-85,true,1.00,538,278,537,224,63220,0
notch-86,true,1.00,755,245,753,208,84289,0
notch-87,true,1.00,730,243,726,205,58827,0
notch-88,true,1.00,1331,279,1330,236,137126,0
notch-89,true,1.00,1278,304,1276,250,128815,0
notch-90,true,1.00,1043,289,1041,252,102951,0
notch-91,true,1.00,1037,272,1035,225,104734,0
notch-92,true,1.00,1316,266,1310,230,125398,0
notch-93,true,1.00,726,286,724,236,81736,0
notch-94,true,1.00,1020,278,1020,224,121717,0
notch-95,true,1.00,554,258,552,216,61348,0
notch-96,true,1.00,551,273,548,228,63654,0
notch-97,true,1.00,655,298,649,254,74881,0
notch-98,true,1.00,835,263,832,203,98520,0
notch-99,true,1.00,1362,301,1361,245,163533,0
notch-100,true,1.00,697,259,696,223,81462,0
