NDW:0.0
TTFW:1.0
DFPT:2.0
DFPAP:3.0
DFPMP:7.0
RIGHT_WINDOW_BORDER_X:215.0
level,win/fail,% travelled,run time,game ticks,planning time,total plannings,nodes evaluated,most backtracked nodes
patternWeightCount-1,true,1.00,3249,492,3232,461,150755,0
patternWeightCount-2,true,1.00,692,384,676,358,30656,0
patternWeightCount-3,true,1.00,697,395,691,375,29304,0
patternWeightCount-4,true,1.00,1077,400,1067,381,47091,0
patternWeightCount-5,true,1.00,1649,448,1627,429,72331,0
patternWeightCount-6,true,1.00,1628,409,1616,389,70937,0
patternWeightCount-7,true,1.00,1033,456,1023,436,44515,0
patternWeightCount-8,true,1.00,815,404,796,385,32757,0
patternWeightCount-9,true,1.00,1383,443,1366,423,61095,0
patternWeightCount-10,true,1.00,1294,428,1278,408,56764,0
patternWeightCount-11,true,1.00,781,421,766,402,32628,0
patternWeightCount-12,true,1.00,1243,424,1229,405,54649,0
patternWeightCount-13,true,1.00,933,415,915,396,44139,0
patternWeightCount-14,true,1.00,969,401,958,379,43005,0
patternWeightCount-15,true,1.00,1489,373,1478,354,63027,0
patternWeightCount-16,true,1.00,2929,480,2916,448,120077,0
patternWeightCount-17,true,1.00,1095,453,1076,434,36109,0
patternWeightCount-18,true,1.00,1150,411,1134,392,40247,0
patternWeightCount-19,true,1.00,925,448,907,429,29421,0
patternWeightCount-20,false,0.62,3554,335,3540,335,115278,0
patternWeightCount-21,true,1.00,1075,438,1060,418,34037,0
patternWeightCount-22,true,1.00,2761,495,2740,466,100182,0
patternWeightCount-23,true,1.00,1323,459,1300,429,53252,0
patternWeightCount-24,true,1.00,1284,431,1263,411,51169,0
patternWeightCount-25,true,1.00,2019,431,1997,412,83590,0
patternWeightCount-26,true,1.00,1407,460,1386,441,56186,0
patternWeightCount-27,true,1.00,1989,451,1974,423,80122,0
patternWeightCount-28,true,1.00,1613,463,1592,444,62952,0
patternWeightCount-29,true,1.00,1542,430,1535,410,62427,0
patternWeightCount-30,true,1.00,3254,442,3238,404,132960,0
patternWeightCount-31,true,1.00,1496,400,1489,381,66288,0
patternWeightCount-32,true,1.00,749,413,738,388,33261,0
patternWeightCount-33,true,1.00,868,435,845,416,38526,0
patternWeightCount-34,true,1.00,1439,400,1430,381,67221,0
patternWeightCount-35,true,1.00,2282,456,2267,437,100426,0
patternWeightCount-36,true,1.00,1619,445,1605,426,74692,0
patternWeightCount-37,true,1.00,707,406,693,387,30743,0
patternWeightCount-38,true,1.00,2280,449,2267,418,102810,0
patternWeightCount-39,true,1.00,958,389,948,368,43352,0
patternWeightCount-40,true,1.00,1470,457,1448,438,68441,0
patternWeightCount-41,true,1.00,1539,486,1520,461,69482,0
patternWeightCount-42,false,0.87,2295,418,2282,418,101323,0
patternWeightCount-43,true,1.00,1114,382,1102,363,51324,0
patternWeightCount-44,true,1.00,1551,459,1535,427,71195,0
patternWeightCount-45,true,1.00,3432,502,3424,472,154268,0
patternWeightCount-46,true,1.00,4869,519,4856,488,203669,0
patternWeightCount-47,true,1.00,954,437,943,418,40663,0
patternWeightCount-48,true,1.00,927,423,907,404,41050,0
patternWeightCount-49,true,1.00,885,386,875,367,38928,0
patternWeightCount-50,true,1.00,1087,398,1073,379,47770,0
patternWeightCount-51,true,1.00,1283,428,1262,395,58990,0
patternWeightCount-52,true,1.00,1921,434,1902,406,91382,0
patternWeightCount-53,true,1.00,2924,466,2912,446,137385,0
patternWeightCount-54,true,1.00,970,431,959,412,44462,0
patternWeightCount-55,true,1.00,1170,432,1151,409,55141,0
patternWeightCount-56,true,1.00,1302,418,1296,388,61360,0
patternWeightCount-57,true,1.00,601,383,594,364,27916,0
patternWeightCount-58,true,1.00,1833,433,1819,414,88144,0
patternWeightCount-59,true,1.00,529,390,508,369,23234,0
patternWeightCount-60,true,1.00,1674,474,1661,445,80008,0
patternWeightCount-61,true,1.00,994,395,987,376,48200,0
patternWeightCount-62,true,1.00,1878,447,1871,407,89299,0
patternWeightCount-63,true,1.00,1427,448,1410,429,68075,0
patternWeightCount-64,true,1.00,1771,455,1758,436,85683,0
patternWeightCount-65,true,1.00,1390,465,1381,435,63867,0
patternWeightCount-66,true,1.00,1308,433,1294,414,58863,0
patternWeightCount-67,true,1.00,1011,451,991,432,43907,0
patternWeightCount-68,false,0.85,22115,999,22102,999,636850,0
patternWeightCount-69,true,1.00,1839,425,1819,393,79041,0
patternWeightCount-70,true,1.00,1233,470,1212,445,53161,0
patternWeightCount-71,true,1.00,987,421,975,396,42037,0
patternWeightCount-72,true,1.00,4529,472,4518,453,190794,0
patternWeightCount-73,true,1.00,5880,508,5869,471,273504,0
patternWeightCount-74,true,1.00,1070,429,1063,410,49600,0
patternWeightCount-75,true,1.00,1197,412,1188,393,54504,0
patternWeightCount-76,true,1.00,1321,479,1303,460,59158,0
patternWeightCount-77,true,1.00,1120,404,1106,385,51346,0
patternWeightCount-78,true,1.00,2193,429,2176,409,87217,0
patternWeightCount-79,true,1.00,890,409,871,390,34512,0
patternWeightCount-80,true,1.00,1415,474,1396,455,56804,0
patternWeightCount-81,true,1.00,3057,456,3042,431,125994,0
patternWeightCount-82,true,1.00,443,412,433,378,17208,0
patternWeightCount-83,true,1.00,1246,436,1233,416,53994,0
patternWeightCount-84,true,1.00,962,427,947,408,44134,0
patternWeightCount-85,true,1.00,1439,420,1426,389,69884,0
patternWeightCount-86,false,0.93,2641,428,2634,428,123113,0
patternWeightCount-87,true,1.00,4310,451,4299,417,184176,0
patternWeightCount-88,true,1.00,1933,457,1922,437,82054,0
patternWeightCount-89,true,1.00,915,407,905,388,38177,0
patternWeightCount-90,true,1.00,4091,484,4077,450,173932,0
patternWeightCount-91,true,1.00,1118,419,1109,399,47464,0
patternWeightCount-92,true,1.00,3769,499,3756,471,174590,0
patternWeightCount-93,true,1.00,3384,438,3370,410,155474,0
patternWeightCount-94,true,1.00,1695,463,1680,444,76697,0
patternWeightCount-95,true,1.00,1280,426,1265,407,57519,0
patternWeightCount-96,true,1.00,975,455,961,434,42800,0
patternWeightCount-97,true,1.00,1022,379,1008,359,46297,0
patternWeightCount-98,true,1.00,4725,474,4715,449,216529,0
patternWeightCount-99,true,1.00,1577,404,1561,383,72558,0
patternWeightCount-100,true,1.00,983,427,970,408,44236,0
