NDW:0.0
TTFW:1.6
DFPT:2.0
DFPAP:3.0
DFPMP:0.0
RIGHT_WINDOW_BORDER_X:215.0
level,win/fail,% travelled,run time,game ticks,planning time,total plannings,nodes evaluated,most backtracked nodes
notch-1,true,1.00,976,263,976,244,111900,0
notch-2,true,1.00,1064,264,1064,245,133968,0
notch-3,true,1.00,772,255,771,236,90172,0
notch-4,true,1.00,1258,269,1256,249,151320,0
notch-5,true,1.00,666,246,665,225,77463,0
notch-6,true,1.00,817,291,812,271,100076,0
notch-7,true,1.00,418,268,417,249,52300,0
notch-8,true,1.00,582,308,578,274,69464,0
notch-9,true,1.00,1039,276,1039,257,120829,0
notch-10,true,1.00,885,273,884,254,108430,0
notch-11,true,1.00,778,262,777,243,91906,0
notch-12,true,1.00,1178,279,1177,260,138313,0
notch-13,true,1.00,834,261,834,242,100864,0
notch-14,true,1.00,836,265,834,245,94682,0
notch-15,true,1.00,978,268,977,249,117982,0
notch-16,true,1.00,918,299,915,268,113667,0
notch-17,true,1.00,795,278,793,258,93022,0
notch-18,true,1.00,818,325,818,302,102172,0
notch-19,true,1.00,997,263,996,241,117015,0
notch-20,true,1.00,888,289,887,270,109100,0
notch-21,true,1.00,783,290,782,271,97156,0
notch-22,true,1.00,568,241,566,222,64032,0
notch-23,true,1.00,1132,253,1126,231,132460,0
notch-24,true,1.00,684,263,678,244,83834,0
notch-25,true,1.00,1000,289,998,270,122893,0
notch-26,true,1.00,718,255,717,236,83835,0
notch-27,true,1.00,1714,296,1714,276,218550,0
notch-28,true,1.00,1175,300,1175,277,150451,0
notch-29,true,1.00,1136,281,1135,258,134169,0
notch-30,true,1.00,879,260,878,236,99580,0
notch-31,true,1.00,754,261,753,241,89512,0
notch-32,true,1.00,628,269,628,244,74867,0
notch-33,true,1.00,712,240,711,219,82756,0
notch-34,true,1.00,682,268,681,249,85012,0
notch-35,true,1.00,521,272,521,253,64213,0
notch-36,true,1.00,932,282,931,263,110773,0
notch-37,true,1.00,1180,288,1175,263,143303,0
notch-38,true,1.00,864,296,862,259,100317,0
notch-39,true,1.00,661,236,659,214,74771,0
notch-40,true,1.00,1081,273,1080,248,132703,0
notch-41,true,1.00,1071,278,1070,259,130273,0
notch-42,true,1.00,820,254,820,234,97496,0
notch-43,true,1.00,685,244,683,225,80096,0
notch-44,true,1.00,723,247,720,228,87264,0
notch-45,true,1.00,667,244,665,225,80098,0
notch-46,true,1.00,914,267,912,248,107476,0
notch-47,true,1.00,1086,277,1084,257,130343,0
notch-48,true,1.00,1072,257,1070,237,132476,0
notch-49,true,1.00,680,295,677,268,82049,0
notch-50,true,1.00,767,289,767,268,90347,0
notch-51,true,1.00,698,250,696,226,85757,0
notch-52,true,1.00,743,269,743,248,88105,0
notch-53,true,1.00,376,270,376,236,41670,0
notch-54,true,1.00,888,295,887,273,109827,0
notch-55,true,1.00,911,288,911,269,108575,0
notch-56,true,1.00,655,281,652,262,76850,0
notch-57,true,1.00,719,283,718,263,81406,0
notch-58,true,1.00,1225,296,1225,277,151313,0
notch-59,true,1.00,944,267,943,248,109268,0
notch-60,true,1.00,1108,269,1108,250,130491,0
notch-61,true,1.00,694,248,692,229,83879,0
notch-62,true,1.00,819,302,818,283,101321,0
notch-63,true,1.00,897,293,896,269,117534,0
notch-64,true,1.00,1191,289,1191,269,139826,0
notch-65,true,1.00,1304,313,1301,292,168123,0
notch-66,true,1.00,1371,303,1367,282,167587,0
notch-67,true,1.00,818,263,817,244,91359,0
notch-68,true,1.00,502,242,500,223,59166,0
notch-69,true,1.00,1067,301,1066,282,134760,0
notch-70,true,1.00,981,292,980,270,124112,0
notch-71,true,1.00,1082,254,1081,235,124923,0
notch-72,true,1.00,684,245,681,226,82923,0
notch-73,true,1.00,1138,288,1138,269,136376,0
notch-74,true,1.00,511,259,505,240,62852,0
notch-75,true,1.00,1461,308,1460,285,178020,0
notch-76,true,1.00,820,286,820,264,99371,0
notch-77,true,1.00,650,258,649,239,77640,0
notch-78,true,1.00,1079,260,1077,241,129834,0
notch-79,true,1.00,947,286,947,263,112326,0
notch-80,true,1.00,399,232,398,213,45414,0
notch-81,true,1.00,1116,257,1115,233,131835,0
notch-82,true,1.00,790,274,790,255,92273,0
notch-83,true,1.00,1176,295,1174,268,139110,0
notch-84,true,1.00,772,252,767,233,86997,0
notch-85,true,1.00,490,282,489,257,61087,0
notch-86,true,1.00,706,251,706,232,85013,0
notch-87,true,1.00,951,250,949,227,111685,0
notch-88,true,1.00,1396,315,1395,293,173177,0
notch-89,true,1.00,1215,292,1212,272,149951,0
notch-90,true,1.00,1332,296,1332,277,159708,0
notch-91,true,1.00,1415,283,1415,264,175236,0
notch-92,true,1.00,872,252,870,233,104981,0
notch-93,true,1.00,782,278,779,258,93095,0
notch-94,true,1.00,1353,306,1351,283,161089,0
notch-95,true,1.00,614,257,611,237,70252,0
notch-96,true,1.00,568,279,566,260,70122,0
notch-97,true,1.00,1025,280,1025,261,127753,0
notch-98,true,1.00,1357,303,1355,282,159480,0
notch-99,true,1.00,1068,283,1067,252,135067,0
notch-100,true,1.00,722,289,720,264,90296,0
