NDW:0.0
TTFW:1.4
DFPT:2.0
DFPAP:3.0
DFPMP:7.0
RIGHT_WINDOW_BORDER_X:15.0
level,win/fail,% travelled,run time,game ticks,planning time,total plannings,nodes evaluated,most backtracked nodes
hopper-1,false,0.13,698,173,697,173,57042,0
hopper-2,false,0.13,698,173,697,173,58678,0
hopper-3,false,0.30,1008,298,1007,298,90935,0
hopper-4,false,0.14,4,122,4,122,1058,0
hopper-5,false,0.13,697,173,695,173,58554,0
hopper-6,false,0.14,5,122,4,122,1058,0
hopper-7,false,0.13,698,173,696,173,56469,0
hopper-8,false,0.13,697,173,696,173,57692,0
hopper-9,false,0.13,697,173,696,173,58592,0
hopper-10,false,0.14,3,99,3,99,598,0
hopper-11,false,0.13,698,173,698,173,58544,0
hopper-12,false,0.14,5,122,5,122,1058,0
hopper-13,false,0.13,698,173,698,173,58894,0
hopper-14,false,0.13,698,173,697,173,58609,0
hopper-15,false,0.13,698,173,698,173,58406,0
hopper-16,false,0.13,699,173,698,173,56008,0
hopper-17,false,0.14,5,122,4,122,1058,0
hopper-18,false,0.14,2,99,1,99,598,0
hopper-19,false,0.14,2,101,1,101,613,0
hopper-20,false,0.13,698,173,698,173,55898,0
hopper-21,false,0.13,697,173,697,173,55930,0
hopper-22,false,0.13,896,146,895,146,73088,0
hopper-23,false,0.13,698,173,698,173,58928,0
hopper-24,false,0.13,697,173,696,173,58827,0
hopper-25,false,0.14,2,101,1,101,613,0
hopper-26,false,0.13,697,173,697,173,58031,0
hopper-27,false,0.13,697,173,697,173,58655,0
hopper-28,false,0.13,697,173,695,173,58851,0
hopper-29,false,0.30,3003,424,3001,424,283070,0
hopper-30,false,0.13,697,173,696,173,58915,0
hopper-31,false,0.13,698,173,698,173,59071,0
hopper-32,false,0.14,3,101,3,101,613,0
hopper-33,false,0.28,1395,257,1394,257,118512,0
hopper-34,false,0.13,698,173,697,173,58936,0
hopper-35,false,0.13,698,173,697,173,58816,0
hopper-36,false,0.13,699,173,699,173,58458,0
hopper-37,false,0.14,5,122,5,122,1058,0
hopper-38,false,0.13,1160,165,1160,165,91596,0
hopper-39,false,0.14,3,99,1,99,598,0
hopper-40,false,0.13,698,173,697,173,55790,0
hopper-41,false,0.24,452,277,451,277,41424,0
hopper-42,false,0.13,698,173,697,173,55838,0
hopper-43,false,0.13,698,173,696,173,55834,0
hopper-44,false,0.14,3,99,2,99,598,0
hopper-45,false,0.13,698,173,698,173,55849,0
hopper-46,false,0.13,698,173,698,173,55816,0
hopper-47,false,0.14,3,99,3,99,598,0
hopper-48,false,0.13,698,173,696,173,57291,0
hopper-49,false,0.13,698,173,698,173,58613,0
hopper-50,false,0.13,698,173,697,173,58032,0
hopper-51,false,0.13,698,173,698,173,58817,0
hopper-52,false,0.17,3,110,3,110,629,0
hopper-53,false,0.13,698,173,697,173,58675,0
hopper-54,false,0.14,3,99,3,99,598,0
hopper-55,false,0.13,697,173,696,173,58657,0
hopper-56,false,0.17,3,112,2,112,641,0
hopper-57,false,0.14,2,99,2,99,598,0
hopper-58,false,0.13,697,173,697,173,59034,0
hopper-59,false,0.13,697,173,697,173,58976,0
hopper-60,false,0.14,4,122,4,122,1058,0
hopper-61,false,0.13,697,173,696,173,58796,0
hopper-62,false,0.13,698,173,698,173,57140,0
hopper-63,false,0.28,342,275,340,275,30407,0
hopper-64,false,0.13,697,173,696,173,58180,0
hopper-65,false,0.13,698,173,698,173,58779,0
hopper-66,false,0.14,3,99,3,99,598,0
hopper-67,false,0.14,5,122,4,122,1058,0
hopper-68,false,0.14,4,122,4,122,1058,0
hopper-69,false,0.13,697,173,697,173,58696,0
hopper-70,false,0.13,698,173,698,173,58856,0
hopper-71,false,0.14,3,101,3,101,613,0
hopper-72,false,0.13,698,173,697,173,59107,0
hopper-73,false,0.13,699,173,699,173,58833,0
hopper-74,false,0.13,697,173,695,173,58598,0
hopper-75,false,0.13,698,173,698,173,59204,0
hopper-76,false,0.13,698,173,697,173,58720,0
hopper-77,false,0.13,698,173,698,173,58523,0
hopper-78,false,0.14,3,99,3,99,598,0
hopper-79,false,0.13,698,173,696,173,58759,0
hopper-80,false,0.13,697,173,696,173,58657,0
hopper-81,false,0.13,697,173,696,173,58768,0
hopper-82,false,0.13,698,173,697,173,58742,0
hopper-83,false,0.13,699,173,699,173,58816,0
hopper-84,false,0.13,698,173,697,173,58926,0
hopper-85,false,0.31,569,246,567,246,48057,0
hopper-86,false,0.13,698,173,697,173,58571,0
hopper-87,false,0.13,709,173,708,173,56997,0
hopper-88,false,0.13,697,173,696,173,58622,0
hopper-89,false,0.13,699,173,699,173,58750,0
hopper-90,false,0.13,698,173,698,173,58703,0
hopper-91,false,0.13,699,173,699,173,58766,0
hopper-92,false,0.13,698,173,697,173,58725,0
hopper-93,false,0.14,5,122,5,122,1058,0
hopper-94,false,0.13,698,173,698,173,58664,0
hopper-95,false,0.14,3,99,3,99,598,0
hopper-96,false,0.13,697,173,696,173,58266,0
hopper-97,false,0.13,697,173,696,173,58771,0
hopper-98,false,0.13,697,173,696,173,59072,0
hopper-99,false,0.13,699,173,699,173,58883,0
hopper-100,false,0.13,698,173,698,173,58862,0
