NDW:0.0
TTFW:0.4
DFPT:2.0
DFPAP:3.0
DFPMP:7.0
RIGHT_WINDOW_BORDER_X:275.0
level,win/fail,% travelled,run time,game ticks,planning time,total plannings,nodes evaluated,most backtracked nodes
Krys-1,true,1.00,9366,489,9364,451,541550,0
Krys-2,true,1.00,4183,409,4179,369,214270,0
Krys-3,true,1.00,8577,487,8576,450,547159,0
Krys-4,true,1.00,5605,474,5602,416,320015,0
Krys-5,true,1.00,2354,298,2352,261,171415,0
Krys-6,true,1.00,2081,300,2079,266,127048,0
Krys-7,true,1.00,2403,354,2397,304,135607,0
Krys-8,true,1.00,5693,457,5687,404,303385,0
Krys-9,true,1.00,3599,332,3598,290,238997,0
Krys-10,true,1.00,4073,359,4071,320,234232,0
Krys-11,true,1.00,3272,348,3268,290,167056,0
Krys-12,true,1.00,5700,420,5694,377,325073,0
Krys-13,true,1.00,5064,350,5060,307,313600,0
Krys-14,true,1.00,2633,315,2630,284,140687,0
Krys-15,true,1.00,5596,431,5592,391,359987,0
Krys-16,true,1.00,3579,351,3576,311,190751,0
Krys-17,true,1.00,6339,433,6336,383,360151,0
Krys-18,true,1.00,4782,413,4780,373,264712,0
Krys-19,true,1.00,4911,377,4906,340,324250,0
Krys-20,true,1.00,7939,534,7935,486,433622,0
Krys-21,true,1.00,2792,315,2790,277,182538,0
Krys-22,true,1.00,3814,376,3811,333,241928,0
Krys-23,true,1.00,3756,341,3751,299,207871,0
Krys-24,false,0.70,27692,999,27688,999,1549015,0
Krys-25,false,0.18,31308,999,31305,999,1609141,0
Krys-26,true,1.00,4227,324,4226,293,306029,0
Krys-27,true,1.00,5967,418,5963,387,382656,0
Krys-28,true,1.00,6194,406,6193,368,371370,0
Krys-29,true,1.00,5042,443,5041,394,275628,0
Krys-30,true,1.00,6062,423,6061,382,321952,0
Krys-31,true,1.00,4227,409,4222,371,222321,0
Krys-32,true,1.00,3803,390,3798,364,210090,0
Krys-33,true,1.00,2422,334,2420,287,126919,0
Krys-34,true,1.00,4997,422,4994,370,292016,0
Krys-35,true,1.00,2853,305,2851,273,186064,0
Krys-36,true,1.00,7338,486,7335,422,445898,0
Krys-37,true,1.00,7515,473,7514,447,470395,0
Krys-38,true,1.00,5390,393,5389,351,375807,0
Krys-39,true,1.00,6595,431,6595,387,399070,0
Krys-40,true,1.00,6843,425,6843,385,424711,0
Krys-41,true,1.00,5647,402,5644,363,338518,0
Krys-42,true,1.00,3492,342,3489,292,227453,0
Krys-43,true,1.00,1934,288,1931,253,119709,0
Krys-44,true,1.00,7294,476,7293,432,462605,0
Krys-45,true,1.00,4989,360,4985,333,261651,0
Krys-46,true,1.00,5778,522,5773,481,316558,0
Krys-47,true,1.00,5615,473,5613,430,315604,0
Krys-48,true,1.00,3024,303,3021,265,199093,0
Krys-49,true,1.00,4866,385,4865,342,249400,0
Krys-50,false,0.70,23863,999,23858,999,1415961,0
Krys-51,true,1.00,5152,387,5148,347,319179,0
Krys-52,true,1.00,6278,469,6275,434,320661,0
Krys-53,true,1.00,5004,451,4997,412,279574,0
Krys-54,true,1.00,8100,512,8098,475,481723,0
Krys-55,true,1.00,4917,429,4910,384,280139,0
Krys-56,true,1.00,1520,313,1516,280,92815,0
Krys-57,true,1.00,2730,359,2725,317,177397,0
Krys-58,true,1.00,5384,498,5378,471,298027,0
Krys-59,true,1.00,5194,477,5190,428,268405,0
Krys-60,true,1.00,4501,390,4496,320,267524,0
Krys-61,true,1.00,4010,410,4007,372,222824,0
Krys-62,true,1.00,3899,373,3896,336,199473,0
Krys-63,true,1.00,8965,506,8962,462,500935,0
Krys-64,true,1.00,6225,457,6225,423,348136,0
Krys-65,true,1.00,4772,420,4770,388,259666,0
Krys-66,true,1.00,6904,450,6902,425,364506,0
Krys-67,true,1.00,8395,526,8395,489,475081,0
Krys-68,true,1.00,3382,359,3376,315,231146,0
Krys-69,true,1.00,5855,464,5851,422,331231,0
Krys-70,true,1.00,8622,487,8618,433,500288,0
Krys-71,true,1.00,5069,408,5067,374,333053,0
Krys-72,true,1.00,3891,453,3889,382,205028,0
Krys-73,true,1.00,7476,409,7472,375,414070,0
Krys-74,true,1.00,3659,347,3655,303,215413,0
Krys-75,true,1.00,2660,348,2658,302,137214,0
Krys-76,true,1.00,5235,359,5234,315,350828,0
Krys-77,true,1.00,3467,343,3465,297,213203,0
Krys-78,true,1.00,3731,332,3728,300,221660,0
Krys-79,true,1.00,3512,369,3508,304,185811,0
Krys-80,true,1.00,4117,379,4114,334,224331,0
Krys-81,true,1.00,3814,354,3811,296,211965,0
Krys-82,true,1.00,2227,330,2224,281,123220,0
Krys-83,true,1.00,6517,454,6515,377,375356,0
Krys-84,true,1.00,1497,294,1494,252,85719,0
Krys-85,true,1.00,8286,546,8285,503,464353,0
Krys-86,true,1.00,3795,360,3793,322,229822,0
Krys-87,true,1.00,2861,334,2860,308,156895,0
Krys-88,true,1.00,4987,436,4986,386,285042,0
Krys-89,true,1.00,3928,351,3925,318,207632,0
Krys-90,true,1.00,3378,304,3375,264,237745,0
Krys-91,true,1.00,1973,319,1972,286,107227,0
Krys-92,false,0.91,25982,999,25981,999,1240305,0
Krys-93,true,1.00,3863,348,3861,313,239633,0
Krys-94,true,1.00,3737,328,3735,286,233433,0
Krys-95,true,1.00,2996,326,2995,284,156801,0
Krys-96,true,1.00,4926,349,4922,305,339310,0
Krys-97,true,1.00,3679,351,3678,306,202998,0
Krys-98,true,1.00,10166,545,10165,520,538009,0
Krys-99,true,1.00,3912,395,3910,354,203736,0
Krys-100,true,1.00,2938,332,2936,289,203770,0
