NDW:0.0
TTFW:1.2
DFPT:2.0
DFPAP:3.0
DFPMP:3.0
RIGHT_WINDOW_BORDER_X:15.0
level,win/fail,% travelled,run time,game ticks,planning time,total plannings,nodes evaluated,most backtracked nodes
patternOccur-1,false,0.25,1172,459,1160,459,65365,0
patternOccur-2,false,0.13,653,215,648,215,38934,0
patternOccur-3,false,0.08,1598,266,1591,266,58786,0
patternOccur-4,false,0.04,890,145,883,145,33120,0
patternOccur-5,false,0.15,1638,352,1630,352,92667,0
patternOccur-6,false,0.00,5,21,4,21,342,0
patternOccur-7,false,0.03,204,90,202,90,12948,0
patternOccur-8,false,0.27,1632,441,1623,441,95395,0
patternOccur-9,false,0.11,748,175,744,175,42393,0
patternOccur-10,false,0.11,2082,334,2074,334,123569,0
patternOccur-11,false,0.08,1573,246,1570,246,90695,0
patternOccur-12,false,0.18,1465,441,1453,441,82869,0
patternOccur-13,false,0.04,404,109,403,109,23484,0
patternOccur-14,false,0.05,643,140,638,140,39741,0
patternOccur-15,false,0.01,127,62,125,62,9833,0
patternOccur-16,false,0.04,551,156,548,156,38288,0
patternOccur-17,false,0.08,853,188,849,188,48880,0
patternOccur-18,false,0.30,2484,655,2464,655,143278,0
patternOccur-19,false,0.11,1128,274,1127,274,64132,0
patternOccur-20,false,0.03,79,59,77,59,5098,0
patternOccur-21,false,0.02,280,86,279,86,18818,0
patternOccur-22,false,0.07,24707,999,24700,999,1427214,0
patternOccur-23,false,0.06,514,127,506,127,30065,0
patternOccur-24,false,0.04,338,129,334,129,22073,0
patternOccur-25,false,0.16,1033,375,1021,375,58713,0
patternOccur-26,false,0.24,1409,535,1397,535,81374,0
patternOccur-27,false,0.26,2272,514,2262,514,130165,0
patternOccur-28,false,0.13,1260,392,1251,392,73328,0
patternOccur-29,false,0.06,519,131,515,131,29151,0
patternOccur-30,false,0.02,154,64,151,64,10867,0
patternOccur-31,false,0.10,418,196,417,196,23363,0
patternOccur-32,false,0.02,193,82,189,82,13110,0
patternOccur-33,false,0.20,1193,437,1179,437,69649,0
patternOccur-34,false,0.06,660,139,656,139,38774,0
patternOccur-35,false,0.00,5,21,4,21,342,0
patternOccur-36,false,0.08,1069,245,1060,245,63360,0
patternOccur-37,false,0.10,1301,267,1296,267,73718,0
patternOccur-38,false,0.04,541,149,537,149,35335,0
patternOccur-39,false,0.09,463,206,456,206,28610,0
patternOccur-40,false,0.05,297,133,293,133,18282,0
patternOccur-41,false,0.05,384,143,382,143,23627,0
patternOccur-42,false,0.03,203,79,201,79,13190,0
patternOccur-43,false,0.01,70,40,68,40,5295,0
patternOccur-44,false,0.14,896,271,890,271,48142,0
patternOccur-45,false,0.08,776,199,774,199,45608,0
patternOccur-46,false,0.43,2459,687,2438,687,140004,0
patternOccur-47,false,0.07,794,175,793,175,46485,0
patternOccur-48,false,0.02,68,39,66,39,4987,0
patternOccur-49,false,0.10,643,258,636,258,38307,0
patternOccur-50,false,0.02,97,39,95,39,6861,0
patternOccur-51,false,0.25,1550,520,1539,520,70796,0
patternOccur-52,false,0.02,261,62,258,62,9142,0
patternOccur-53,false,0.03,370,69,368,69,12102,0
patternOccur-54,false,0.00,11,21,9,21,342,0
patternOccur-55,false,0.06,402,117,396,117,12636,0
patternOccur-56,false,0.08,2679,250,2672,250,127345,0
patternOccur-57,false,0.11,284,182,280,182,15915,0
patternOccur-58,false,0.23,2134,538,2122,538,114418,0
patternOccur-59,false,0.06,96,89,92,89,5528,0
patternOccur-60,false,0.02,135,62,131,62,9142,0
patternOccur-61,false,0.04,1113,147,1111,147,68904,0
patternOccur-62,false,0.12,917,229,912,229,49750,0
patternOccur-63,false,0.04,379,101,377,101,21287,0
patternOccur-64,false,0.13,426,211,420,211,25575,0
patternOccur-65,false,0.12,581,283,574,283,32186,0
patternOccur-66,false,0.07,1756,236,1749,236,99957,0
patternOccur-67,false,0.11,1116,263,1111,263,67082,0
patternOccur-68,false,0.08,414,149,412,149,23304,0
patternOccur-69,false,0.07,983,193,976,193,56968,0
patternOccur-70,false,0.06,382,124,377,124,22416,0
patternOccur-71,false,0.12,2092,409,2082,409,115940,0
patternOccur-72,false,0.04,340,91,338,91,19330,0
patternOccur-73,false,0.42,3427,861,3409,861,186968,0
patternOccur-74,false,0.03,29146,999,29141,999,1736852,0
patternOccur-75,false,0.05,95,105,91,105,4914,0
patternOccur-76,false,0.14,1733,350,1726,350,95364,0
patternOccur-77,false,0.21,1782,1008,1761,1008,95910,0
patternOccur-78,false,0.11,650,257,637,257,37498,0
patternOccur-79,false,0.07,545,305,534,305,33690,0
patternOccur-80,false,0.02,205,96,203,96,12916,0
patternOccur-81,false,0.03,320,141,318,141,20672,0
patternOccur-82,false,0.40,5782,999,5758,999,317025,0
patternOccur-83,false,0.53,3156,1008,3133,1008,161633,0
patternOccur-84,false,0.06,383,115,379,115,23330,0
patternOccur-85,false,0.00,4930,999,4901,999,349686,0
patternOccur-86,false,0.09,413,1008,383,1008,23214,0
patternOccur-87,false,0.00,6,21,6,21,342,0
patternOccur-88,false,0.02,19533,999,19497,999,1180513,0
patternOccur-89,false,0.01,137,62,135,62,9833,0
patternOccur-90,false,0.53,3512,999,3495,999,189841,0
patternOccur-91,false,0.03,87,81,79,81,5220,0
patternOccur-92,false,0.23,2274,533,2255,533,125634,0
patternOccur-93,false,0.03,280,117,276,117,17451,0
patternOccur-94,false,0.07,641,130,635,130,35099,0
patternOccur-95,false,0.07,944,213,939,213,29424,0
patternOccur-96,false,0.02,216,41,212,41,7805,0
patternOccur-97,false,0.01,443,116,437,116,15802,0
patternOccur-98,false,0.04,857,101,855,101,35925,0
patternOccur-99,false,0.17,380,257,371,257,22117,0
patternOccur-100,false,0.14,2067,345,2062,345,109135,0
