NDW:0.0
TTFW:1.0
DFPT:2.0
DFPAP:3.0
DFPMP:10.0
RIGHT_WINDOW_BORDER_X:215.0
level,win/fail,% travelled,run time,game ticks,planning time,total plannings,nodes evaluated,most backtracked nodes
notchParam-1,true,1.00,889,314,880,295,41030,0
notchParam-2,true,1.00,896,313,882,294,39155,0
notchParam-3,true,1.00,676,310,668,291,30660,0
notchParam-4,true,1.00,655,318,639,299,29327,0
notchParam-5,true,1.00,632,312,623,292,28675,0
notchParam-6,true,1.00,665,322,653,303,29173,0
notchParam-7,true,1.00,1424,360,1409,341,60677,0
notchParam-8,true,1.00,1186,316,1176,297,54317,0
notchParam-9,true,1.00,699,340,687,321,31922,0
notchParam-10,true,1.00,1163,318,1150,299,53408,0
notchParam-11,true,1.00,627,319,618,296,28010,0
notchParam-12,true,1.00,1196,325,1184,306,53874,0
notchParam-13,true,1.00,279,314,269,295,11283,0
notchParam-14,true,1.00,245,304,227,285,10014,0
notchParam-15,true,1.00,757,294,745,275,33251,0
notchParam-16,true,1.00,875,308,866,289,38348,0
notchParam-17,true,1.00,1040,310,1030,291,44119,0
notchParam-18,true,1.00,366,326,347,307,14328,0
notchParam-19,true,1.00,293,309,285,290,11631,0
notchParam-20,true,1.00,273,310,263,291,10659,0
notchParam-21,true,1.00,259,304,249,285,10102,0
notchParam-22,true,1.00,312,316,306,297,12555,0
notchParam-23,true,1.00,1327,352,1316,333,58939,0
notchParam-24,true,1.00,1145,320,1140,301,52818,0
notchParam-25,true,1.00,1149,318,1139,299,51651,0
notchParam-26,true,1.00,1342,350,1331,331,59073,0
notchParam-27,true,1.00,253,309,243,290,10021,0
notchParam-28,true,1.00,710,329,703,310,30468,0
notchParam-29,true,1.00,662,323,646,304,28330,0
notchParam-30,true,1.00,267,308,257,289,10365,0
notchParam-31,true,1.00,825,306,809,287,36471,0
notchParam-32,true,1.00,1100,323,1082,304,45749,0
notchParam-33,true,1.00,262,300,251,281,9977,0
notchParam-34,true,1.00,925,310,912,291,39520,0
notchParam-35,true,1.00,1132,322,1121,303,46316,0
notchParam-36,true,1.00,1021,308,1010,289,43973,0
notchParam-37,true,1.00,265,300,250,281,9937,0
notchParam-38,true,1.00,272,304,264,285,11002,0
notchParam-39,true,1.00,831,314,819,295,35325,0
notchParam-40,true,1.00,657,314,645,295,27353,0
notchParam-41,true,1.00,695,324,684,305,29964,0
notchParam-42,true,1.00,296,321,281,292,11769,0
notchParam-43,true,1.00,1198,316,1190,297,53515,0
notchParam-44,true,1.00,1165,324,1157,305,52076,0
notchParam-45,true,1.00,1139,338,1130,310,51943,0
notchParam-46,true,1.00,1193,314,1184,295,53047,0
notchParam-47,true,1.00,284,300,276,281,10865,0
notchParam-48,true,1.00,370,320,361,301,14943,0
notchParam-49,true,1.00,316,326,311,302,12890,0
notchParam-50,true,1.00,446,326,436,307,17031,0
notchParam-51,true,1.00,254,306,246,287,9839,0
notchParam-52,true,1.00,795,300,784,281,34345,0
notchParam-53,true,1.00,1149,330,1134,311,48128,0
notchParam-54,true,1.00,1008,316,993,297,42525,0
notchParam-55,true,1.00,368,320,361,301,15310,0
notchParam-56,true,1.00,262,304,247,285,10587,0
notchParam-57,true,1.00,1272,322,1264,303,56074,0
notchParam-58,true,1.00,693,332,683,313,30297,0
notchParam-59,true,1.00,1229,349,1220,330,54057,0
notchParam-60,true,1.00,664,337,651,318,28232,0
notchParam-61,true,1.00,1195,338,1183,319,51392,0
notchParam-62,true,1.00,774,298,764,279,33312,0
notchParam-63,true,1.00,697,326,684,307,29870,0
notchParam-64,true,1.00,654,324,644,305,29057,0
notchParam-65,true,1.00,655,316,637,297,28624,0
notchParam-66,true,1.00,665,336,655,317,29109,0
notchParam-67,true,1.00,859,304,853,285,37099,0
notchParam-68,true,1.00,917,312,903,292,40339,0
notchParam-69,true,1.00,810,298,802,279,35225,0
notchParam-70,true,1.00,885,308,881,289,38944,0
notchParam-71,true,1.00,728,335,712,316,31590,0
notchParam-72,true,1.00,682,332,666,312,28952,0
notchParam-73,true,1.00,651,310,639,291,28572,0
notchParam-74,true,1.00,681,332,672,313,30138,0
notchParam-75,true,1.00,698,320,687,301,30265,0
notchParam-76,true,1.00,1227,330,1213,311,54212,0
notchParam-77,true,1.00,726,316,716,297,32321,0
notchParam-78,true,1.00,1212,316,1196,297,53211,0
notchParam-79,true,1.00,633,318,623,299,28021,0
notchParam-80,true,1.00,320,308,311,289,12669,0
notchParam-81,true,1.00,637,326,630,307,28961,0
notchParam-82,true,1.00,290,305,280,286,11770,0
notchParam-83,true,1.00,284,302,268,283,11157,0
notchParam-84,true,1.00,877,313,868,294,38872,0
notchParam-85,true,1.00,1351,343,1344,324,58708,0
notchParam-86,true,1.00,1094,304,1085,285,51656,0
notchParam-87,true,1.00,276,314,264,295,11875,0
notchParam-88,true,1.00,322,306,308,287,13625,0
notchParam-89,true,1.00,246,304,235,285,9952,0
notchParam-90,true,1.00,292,309,283,290,12485,0
notchParam-91,true,1.00,1302,334,1297,315,60731,0
notchParam-92,true,1.00,1097,308,1088,289,51566,0
notchParam-93,true,1.00,1216,336,1211,311,56664,0
notchParam-94,true,1.00,1213,328,1204,309,55211,0
notchParam-95,true,1.00,1493,386,1477,367,65148,0
notchParam-96,true,1.00,686,314,676,295,31411,0
notchParam-97,true,1.00,630,310,620,291,27086,0
notchParam-98,true,1.00,285,304,280,285,11808,0
notchParam-99,true,1.00,999,316,992,297,42788,0
notchParam-100,true,1.00,826,298,820,279,37017,0
