NDW:0.0
TTFW:0.4
DFPT:2.0
DFPAP:3.0
DFPMP:5.0
RIGHT_WINDOW_BORDER_X:350.0
level,win/fail,% travelled,run time,game ticks,planning time,total plannings,nodes evaluated,most backtracked nodes
ore-1,true,1.00,1684,376,1681,344,119872,0
ore-2,false,0.70,1987,242,1986,242,142330,0
ore-3,true,1.00,1499,364,1498,326,104108,0
ore-4,true,1.00,2407,390,2405,356,163024,0
ore-5,true,1.00,1581,333,1581,299,116510,0
ore-6,true,1.00,2948,407,2946,369,185895,0
ore-7,true,1.00,1605,346,1604,314,118551,0
ore-8,true,1.00,2889,396,2885,364,214839,0
ore-9,true,1.00,1407,331,1404,294,102308,0
ore-10,true,1.00,2843,454,2841,422,196417,0
ore-11,true,1.00,1833,367,1831,335,129729,0
ore-12,true,1.00,1397,335,1396,297,101297,0
ore-13,true,1.00,2107,414,2104,380,150148,0
ore-14,true,1.00,2225,389,2221,357,151150,0
ore-15,true,1.00,2395,348,2391,316,174768,0
ore-16,true,1.00,1369,351,1365,319,102043,0
ore-17,true,1.00,1244,309,1244,277,95904,0
ore-18,true,1.00,1307,354,1305,322,94129,0
ore-19,true,1.00,2022,392,2021,354,140373,0
ore-20,true,1.00,1707,349,1703,317,115555,0
ore-21,true,1.00,1222,317,1222,285,93074,0
ore-22,true,1.00,1631,323,1628,291,120143,0
ore-23,true,1.00,1364,337,1361,305,106779,0
ore-24,true,1.00,1401,325,1398,288,103584,0
ore-25,true,1.00,1766,363,1765,331,126096,0
ore-26,true,1.00,1982,357,1979,322,129305,0
ore-27,true,1.00,1562,329,1557,297,116303,0
ore-28,true,1.00,1527,384,1525,352,108887,0
ore-29,true,1.00,1851,355,1845,323,131113,0
ore-30,true,1.00,1442,348,1440,316,104553,0
ore-31,true,1.00,1430,348,1428,316,107162,0
ore-32,true,1.00,1923,338,1921,297,126080,0
ore-33,true,1.00,3059,435,3053,403,197945,0
ore-34,true,1.00,2289,432,2286,394,165040,0
ore-35,true,1.00,1710,341,1709,307,123573,0
ore-36,true,1.00,1903,386,1898,354,135359,0
ore-37,false,0.35,2417,147,2415,147,162519,0
ore-38,true,1.00,1227,326,1225,288,91445,0
ore-39,true,1.00,1653,356,1650,324,118439,0
ore-40,true,1.00,2455,361,2454,321,171461,0
ore-41,true,1.00,1413,346,1413,311,104942,0
ore-42,true,1.00,1515,341,1512,309,110303,0
ore-43,true,1.00,1582,339,1578,307,117026,0
ore-44,true,1.00,1802,363,1799,320,139921,0
ore-45,true,1.00,1885,349,1883,317,136490,0
ore-46,false,0.13,1037,48,1037,48,78906,0
ore-47,true,1.00,2361,368,2355,336,168226,0
ore-48,true,1.00,2659,480,2656,448,183129,0
ore-49,true,1.00,1516,322,1512,288,110599,0
ore-50,true,1.00,1656,338,1651,306,117444,0
ore-51,true,1.00,1384,332,1380,300,107725,0
ore-52,true,1.00,1350,336,1348,304,93711,0
ore-53,true,1.00,1221,335,1221,297,85089,0
ore-54,true,1.00,1571,342,1569,310,115970,0
ore-55,true,1.00,1478,365,1474,329,111538,0
ore-56,true,1.00,1183,318,1181,285,88313,0
ore-57,true,1.00,1818,337,1815,305,125083,0
ore-58,true,1.00,1959,377,1958,338,145527,0
ore-59,true,1.00,2015,356,2013,324,139061,0
ore-60,true,1.00,2290,412,2285,380,156159,0
ore-61,true,1.00,1702,351,1697,314,121297,0
ore-62,true,1.00,1351,339,1346,305,101306,0
ore-63,true,1.00,2125,357,2120,325,154476,0
ore-64,true,1.00,1753,362,1751,330,124612,0
ore-65,true,1.00,1594,351,1593,319,116715,0
ore-66,true,1.00,1616,335,1615,297,121470,0
ore-67,true,1.00,1808,355,1807,317,129648,0
ore-68,true,1.00,1099,327,1095,290,78863,0
ore-69,true,1.00,1845,346,1841,314,127675,0
ore-70,true,1.00,1481,334,1476,302,108415,0
ore-71,true,1.00,2914,419,2909,387,206209,0
ore-72,true,1.00,1305,337,1303,305,94075,0
ore-73,true,1.00,1563,327,1560,289,114381,0
ore-74,true,1.00,1887,345,1885,310,129740,0
ore-75,true,1.00,2162,405,2158,372,149221,0
ore-76,true,1.00,2061,376,2059,344,156463,0
ore-77,true,1.00,1960,367,1957,335,134837,0
ore-78,true,1.00,1288,321,1287,289,101158,0
ore-79,true,1.00,2427,379,2424,347,168272,0
ore-80,true,1.00,1574,328,1572,296,116034,0
ore-81,true,1.00,1766,353,1764,321,126917,0
ore-82,true,1.00,2396,378,2392,346,160013,0
ore-83,true,1.00,1558,326,1557,294,118221,0
ore-84,true,1.00,3119,376,3116,344,207529,0
ore-85,true,1.00,2164,390,2160,352,155022,0
ore-86,true,1.00,1622,337,1620,305,125885,0
ore-87,true,1.00,1118,331,1117,299,80747,0
ore-88,true,1.00,1641,346,1637,314,121327,0
ore-89,true,1.00,2350,348,2349,316,154120,0
ore-90,true,1.00,2269,361,2263,329,157679,0
ore-91,true,1.00,2306,395,2303,363,167577,0
ore-92,true,1.00,1796,350,1791,315,129550,0
ore-93,true,1.00,1715,356,1713,319,125471,0
ore-94,true,1.00,1936,362,1931,330,136355,0
ore-95,true,1.00,1894,361,1892,328,133518,0
ore-96,true,1.00,1951,354,1950,322,142237,0
ore-97,true,1.00,1824,369,1820,338,130835,0
ore-98,true,1.00,1756,335,1756,303,128443,0
ore-99,true,1.00,1436,335,1435,303,105204,0
ore-100,true,1.00,1456,343,1455,310,107667,0
