NDW:0.0
TTFW:1.8
DFPT:2.0
DFPAP:3.0
DFPMP:0.0
RIGHT_WINDOW_BORDER_X:275.0
level,win/fail,% travelled,run time,game ticks,planning time,total plannings,nodes evaluated,most backtracked nodes
patternOccur-1,true,1.00,1164,522,1145,497,62090,0
patternOccur-2,true,1.00,1194,463,1187,438,62705,0
patternOccur-3,true,1.00,2491,503,2483,478,146540,0
patternOccur-4,true,1.00,2039,541,2021,516,117387,0
patternOccur-5,true,1.00,1081,491,1068,465,58158,0
patternOccur-6,true,1.00,2030,531,2020,506,116578,0
patternOccur-7,true,1.00,2317,546,2301,511,130472,0
patternOccur-8,true,1.00,2269,477,2260,452,134506,0
patternOccur-9,true,1.00,1874,515,1863,485,107933,0
patternOccur-10,true,1.00,1349,526,1333,495,74920,0
patternOccur-11,true,1.00,4600,543,4589,516,240966,0
patternOccur-12,true,1.00,2165,527,2152,492,125447,0
patternOccur-13,true,1.00,1035,480,1019,455,55273,0
patternOccur-14,true,1.00,3799,553,3777,482,211666,0
patternOccur-15,true,1.00,1630,477,1620,452,92979,0
patternOccur-16,true,1.00,4097,521,4085,489,218734,0
patternOccur-17,true,1.00,2087,562,2072,522,120457,0
patternOccur-18,true,1.00,1939,512,1933,487,107176,0
patternOccur-19,false,0.83,3365,455,3357,455,183358,0
patternOccur-20,true,1.00,1735,545,1723,520,94386,0
patternOccur-21,true,1.00,1421,487,1409,460,81032,0
patternOccur-22,false,0.84,3886,499,3876,499,209053,0
patternOccur-23,true,1.00,2268,512,2255,487,128548,0
patternOccur-24,true,1.00,1235,496,1222,465,67165,0
patternOccur-25,true,1.00,2149,492,2139,467,120895,0
patternOccur-26,true,1.00,1341,450,1329,425,75348,0
patternOccur-27,true,1.00,3566,508,3559,459,196072,0
patternOccur-28,true,1.00,1958,537,1952,510,109116,0
patternOccur-29,true,1.00,1091,437,1080,402,60380,0
patternOccur-30,true,1.00,1538,528,1526,503,83761,0
patternOccur-31,true,1.00,4027,515,4020,482,226382,0
patternOccur-32,true,1.00,4577,533,4569,493,252127,0
patternOccur-33,true,1.00,1356,538,1341,512,74432,0
patternOccur-34,true,1.00,1513,520,1504,485,86251,0
patternOccur-35,true,1.00,1215,494,1208,468,66281,0
patternOccur-36,true,1.00,2616,488,2605,445,151750,0
patternOccur-37,true,1.00,3164,518,3152,481,180158,0
patternOccur-38,true,1.00,1382,488,1369,463,78447,0
patternOccur-39,true,1.00,3162,497,3154,457,183187,0
patternOccur-40,true,1.00,2125,517,2112,491,122697,0
patternOccur-41,true,1.00,2049,516,2033,480,117242,0
patternOccur-42,false,0.89,4044,481,4033,481,210039,0
patternOccur-43,true,1.00,1786,494,1769,469,103853,0
patternOccur-44,true,1.00,1595,455,1585,430,92925,0
patternOccur-45,true,1.00,1810,473,1798,412,102138,0
patternOccur-46,true,1.00,1383,486,1376,461,77981,0
patternOccur-47,true,1.00,3648,499,3641,462,207859,0
patternOccur-48,true,1.00,1624,476,1613,451,93870,0
patternOccur-49,true,1.00,1698,511,1689,486,98018,0
patternOccur-50,true,1.00,2341,570,2331,543,132411,0
patternOccur-51,true,1.00,2212,563,2200,526,131186,0
patternOccur-52,true,1.00,2175,570,2164,533,123845,0
patternOccur-53,true,1.00,1740,505,1728,480,100016,0
patternOccur-54,true,1.00,2578,531,2564,497,155506,0
patternOccur-55,true,1.00,2003,452,1990,427,116042,0
patternOccur-56,true,1.00,1821,542,1801,517,105640,0
patternOccur-57,true,1.00,2358,524,2342,475,135935,0
patternOccur-58,true,1.00,6124,608,6120,553,349541,0
patternOccur-59,true,1.00,1749,495,1733,469,103789,0
patternOccur-60,true,1.00,3708,517,3693,471,204805,0
patternOccur-61,true,1.00,1889,523,1880,487,107954,0
patternOccur-62,true,1.00,1726,481,1713,456,98053,0
patternOccur-63,true,1.00,1765,485,1752,448,102631,0
patternOccur-64,true,1.00,2116,561,2100,523,122197,0
patternOccur-65,true,1.00,1183,494,1169,469,63975,0
patternOccur-66,true,1.00,1549,466,1539,441,89788,0
patternOccur-67,false,0.88,3381,473,3371,473,187768,0
patternOccur-68,true,1.00,1213,519,1203,494,67269,0
patternOccur-69,true,1.00,4073,543,4064,507,216469,0
patternOccur-70,true,1.00,4762,494,4753,465,261145,0
patternOccur-71,true,1.00,2233,559,2219,534,133322,0
patternOccur-72,false,0.87,3176,482,3166,482,165501,0
patternOccur-73,true,1.00,3915,568,3907,531,218897,0
patternOccur-74,true,1.00,3100,491,3081,444,176370,0
patternOccur-75,true,1.00,2243,492,2230,467,128885,0
patternOccur-76,true,1.00,2741,544,2733,519,164266,0
patternOccur-77,true,1.00,1449,492,1436,467,82826,0
patternOccur-78,true,1.00,1184,423,1171,398,67940,0
patternOccur-79,true,1.00,1921,553,1908,528,113443,0
patternOccur-80,true,1.00,3101,563,3084,526,176615,0
patternOccur-81,true,1.00,4573,533,4563,489,249971,0
patternOccur-82,true,1.00,2453,522,2441,497,142152,0
patternOccur-83,false,0.82,3186,467,3175,467,169673,0
patternOccur-84,true,1.00,1520,497,1509,472,87126,0
patternOccur-85,true,1.00,2441,462,2429,437,141864,0
patternOccur-86,true,1.00,3793,465,3781,432,205798,0
patternOccur-87,true,1.00,1494,517,1480,483,87292,0
patternOccur-88,true,1.00,1898,487,1886,462,113510,0
patternOccur-89,true,1.00,1510,508,1499,483,85549,0
patternOccur-90,true,1.00,1776,549,1768,503,102841,0
patternOccur-91,true,1.00,1373,489,1367,453,77296,0
patternOccur-92,true,1.00,1582,458,1572,433,93323,0
patternOccur-93,true,1.00,1746,504,1739,478,100995,0
patternOccur-94,true,1.00,3687,504,3673,469,201759,0
patternOccur-95,true,1.00,1787,498,1772,473,105105,0
patternOccur-96,false,0.87,3004,498,2988,498,163419,0
patternOccur-97,true,1.00,1683,444,1676,419,94639,0
patternOccur-98,false,0.90,2747,458,2740,458,145991,0
patternOccur-99,true,1.00,868,486,858,461,47370,0
patternOccur-100,true,1.00,1792,474,1781,449,101101,0
