NDW:0.0
TTFW:1.6
DFPT:2.0
DFPAP:3.0
DFPMP:50.0
RIGHT_WINDOW_BORDER_X:215.0
level,win/fail,% travelled,run time,game ticks,planning time,total plannings,nodes evaluated,most backtracked nodes
patternWeightCount-1,true,1.00,2976,566,2974,534,381927,0
patternWeightCount-2,true,1.00,540,457,538,435,68028,0
patternWeightCount-3,true,1.00,438,409,437,390,56791,0
patternWeightCount-4,true,1.00,634,418,631,399,82522,0
patternWeightCount-5,true,1.00,1247,492,1240,472,162583,0
patternWeightCount-6,true,1.00,1620,521,1619,501,208444,0
patternWeightCount-7,true,1.00,689,443,688,423,87690,0
patternWeightCount-8,true,1.00,652,439,649,420,76449,0
patternWeightCount-9,true,1.00,1105,502,1103,482,149254,0
patternWeightCount-10,true,1.00,1092,491,1085,472,136344,0
patternWeightCount-11,true,1.00,385,478,381,459,49188,0
patternWeightCount-12,true,1.00,964,488,962,468,120976,0
patternWeightCount-13,true,1.00,769,456,767,437,91822,0
patternWeightCount-14,true,1.00,727,483,726,461,93949,0
patternWeightCount-15,true,1.00,1032,426,1030,407,130686,0
patternWeightCount-16,true,1.00,2518,513,2516,485,333620,0
patternWeightCount-17,true,1.00,610,492,603,473,77230,0
patternWeightCount-18,true,1.00,638,420,638,401,81219,0
patternWeightCount-19,true,1.00,410,478,407,459,49135,0
patternWeightCount-20,false,0.64,2744,343,2741,343,293667,0
patternWeightCount-21,true,1.00,482,545,480,525,60906,0
patternWeightCount-22,true,1.00,1889,536,1887,505,258177,0
patternWeightCount-23,true,1.00,811,487,805,457,112317,0
patternWeightCount-24,true,1.00,1501,453,1498,433,190257,0
patternWeightCount-25,true,1.00,1583,502,1579,483,201803,0
patternWeightCount-26,true,1.00,957,460,953,431,132375,0
patternWeightCount-27,true,1.00,1394,521,1393,477,185594,0
patternWeightCount-28,true,1.00,1276,506,1274,487,178433,0
patternWeightCount-29,true,1.00,787,460,787,440,105597,0
patternWeightCount-30,true,1.00,4167,572,4163,538,451659,0
patternWeightCount-31,true,1.00,853,491,853,472,103196,0
patternWeightCount-32,true,1.00,531,493,528,465,68738,0
patternWeightCount-33,true,1.00,593,497,590,478,74926,0
patternWeightCount-34,true,1.00,1162,438,1157,419,150863,0
patternWeightCount-35,true,1.00,1304,428,1303,409,171160,0
patternWeightCount-36,true,1.00,1491,476,1487,457,203433,0
patternWeightCount-37,true,1.00,504,456,501,437,63653,0
patternWeightCount-38,true,1.00,2219,512,2215,478,260715,0
patternWeightCount-39,true,1.00,886,438,882,417,104589,0
patternWeightCount-40,true,1.00,1161,496,1160,477,152971,0
patternWeightCount-41,true,1.00,1086,521,1083,496,139937,0
patternWeightCount-42,false,0.87,2249,445,2248,445,271498,0
patternWeightCount-43,true,1.00,815,428,814,409,104073,0
patternWeightCount-44,true,1.00,1225,499,1222,459,176226,0
patternWeightCount-45,true,1.00,2577,502,2575,470,302474,0
patternWeightCount-46,true,1.00,4048,541,4045,513,436381,0
patternWeightCount-47,true,1.00,692,459,690,440,89151,0
patternWeightCount-48,true,1.00,598,465,594,446,77857,0
patternWeightCount-49,true,1.00,514,434,512,415,67007,0
patternWeightCount-50,true,1.00,870,464,866,436,105893,0
patternWeightCount-51,true,1.00,866,455,863,422,115881,0
patternWeightCount-52,true,1.00,1280,460,1279,432,165060,0
patternWeightCount-53,true,1.00,2706,510,2704,490,308359,0
patternWeightCount-54,true,1.00,751,495,747,476,94149,0
patternWeightCount-55,true,1.00,1033,503,1030,480,121195,0
patternWeightCount-56,true,1.00,848,465,842,435,105313,0
patternWeightCount-57,true,1.00,444,417,444,398,58981,0
patternWeightCount-58,true,1.00,1943,476,1941,448,258541,0
patternWeightCount-59,true,1.00,345,427,344,406,43053,0
patternWeightCount-60,true,1.00,1811,517,1807,486,238418,0
patternWeightCount-61,true,1.00,758,439,757,420,99236,0
patternWeightCount-62,true,1.00,1608,498,1606,477,202227,0
patternWeightCount-63,true,1.00,797,446,796,427,100477,0
patternWeightCount-64,true,1.00,1489,440,1484,421,193205,0
patternWeightCount-65,true,1.00,1227,524,1226,494,157355,0
patternWeightCount-66,true,1.00,970,474,968,455,127438,0
patternWeightCount-67,true,1.00,805,504,801,485,95576,0
patternWeightCount-68,true,1.00,1135,518,1134,499,115196,0
patternWeightCount-69,true,1.00,1777,452,1775,417,217769,0
patternWeightCount-70,true,1.00,741,480,739,455,97967,0
patternWeightCount-71,true,1.00,620,431,616,396,82441,0
patternWeightCount-72,true,1.00,4542,507,4540,471,499681,0
patternWeightCount-73,true,1.00,5673,575,5666,538,680708,0
patternWeightCount-74,true,1.00,1025,495,1022,476,127074,0
patternWeightCount-75,true,1.00,1136,470,1135,451,111011,0
patternWeightCount-76,true,1.00,1178,497,1178,476,123188,0
patternWeightCount-77,true,1.00,897,489,894,470,88306,0
patternWeightCount-78,true,1.00,1962,496,1959,476,223769,0
patternWeightCount-79,true,1.00,654,433,654,414,58012,0
patternWeightCount-80,true,1.00,1404,581,1399,562,130235,0
patternWeightCount-81,true,1.00,3793,495,3788,476,350252,0
patternWeightCount-82,true,1.00,174,425,171,391,19606,0
patternWeightCount-83,true,1.00,541,441,538,421,70616,0
patternWeightCount-84,true,1.00,777,509,771,490,95370,0
patternWeightCount-85,true,1.00,1560,466,1559,447,198140,0
patternWeightCount-86,false,0.93,2230,424,2225,424,251680,0
patternWeightCount-87,true,1.00,5960,554,5960,520,632514,0
patternWeightCount-88,true,1.00,1255,500,1252,480,162854,0
patternWeightCount-89,true,1.00,719,459,717,440,96783,0
patternWeightCount-90,true,1.00,4602,519,4601,499,573722,0
patternWeightCount-91,true,1.00,987,460,987,439,131942,0
patternWeightCount-92,true,1.00,3464,562,3459,534,438313,0
patternWeightCount-93,true,1.00,4070,549,4069,491,489969,0
patternWeightCount-94,true,1.00,1386,517,1383,498,180013,0
patternWeightCount-95,true,1.00,1040,472,1034,453,135766,0
patternWeightCount-96,true,1.00,631,473,630,454,77510,0
patternWeightCount-97,true,1.00,1080,400,1077,380,144179,0
patternWeightCount-98,true,1.00,6427,603,6424,544,758657,0
patternWeightCount-99,true,1.00,1281,509,1279,489,170028,0
patternWeightCount-100,true,1.00,924,436,923,417,114535,0
