NDW:0.0
TTFW:1.8
DFPT:2.0
DFPAP:3.0
DFPMP:1.0
RIGHT_WINDOW_BORDER_X:400.0
level,win/fail,% travelled,run time,game ticks,planning time,total plannings,nodes evaluated,most backtracked nodes
Krys-1,true,1.00,9836,555,9817,441,249079,0
Krys-2,true,1.00,3315,406,3297,315,83147,0
Krys-3,false,0.79,8849,443,8846,443,277393,0
Krys-4,true,1.00,4256,432,4245,346,136857,0
Krys-5,true,1.00,2304,355,2295,288,93901,0
Krys-6,true,1.00,2301,349,2289,298,77728,0
Krys-7,true,1.00,790,387,774,323,26459,0
Krys-8,true,1.00,3719,420,3704,340,125076,0
Krys-9,true,1.00,2614,414,2602,318,106328,0
Krys-10,true,1.00,5492,459,5480,375,170213,0
Krys-11,true,1.00,662,418,651,355,18685,0
Krys-12,true,1.00,5766,454,5757,372,175509,0
Krys-13,true,1.00,3911,418,3889,345,167107,0
Krys-14,false,0.79,26536,999,26526,999,741364,0
Krys-15,false,0.79,4679,332,4673,332,144338,0
Krys-16,true,1.00,4453,511,4444,434,143781,0
Krys-17,true,1.00,3039,505,3023,411,118038,0
Krys-18,true,1.00,4658,453,4645,383,175468,0
Krys-19,true,1.00,3641,407,3628,340,147523,0
Krys-20,true,1.00,8536,591,8525,498,304964,0
Krys-21,true,1.00,2162,353,2153,297,102733,0
Krys-22,true,1.00,2113,367,2108,300,104986,0
Krys-23,true,1.00,3482,494,3472,409,134335,0
Krys-24,true,1.00,4996,471,4985,377,185986,0
Krys-25,true,1.00,3662,448,3648,366,91258,0
Krys-26,true,1.00,4429,379,4419,320,182157,0
Krys-27,true,1.00,2782,413,2765,334,91331,0
Krys-28,true,1.00,6391,495,6376,425,227250,0
Krys-29,true,1.00,3418,447,3402,362,116472,0
Krys-30,true,1.00,4700,516,4685,423,147068,0
Krys-31,true,1.00,3969,492,3958,417,139834,0
Krys-32,true,1.00,1044,432,1032,362,34526,0
Krys-33,true,1.00,642,390,629,299,21296,0
Krys-34,true,1.00,3405,465,3391,384,124175,0
Krys-35,true,1.00,4725,437,4709,366,147608,0
Krys-36,true,1.00,5910,423,5899,348,224459,0
Krys-37,true,1.00,5281,470,5265,414,230397,0
Krys-38,true,1.00,4594,436,4582,331,214575,0
Krys-39,true,1.00,3700,413,3692,322,164910,0
Krys-40,true,1.00,5375,429,5367,364,216422,0
Krys-41,true,1.00,5440,447,5427,372,219548,0
Krys-42,true,1.00,3652,498,3635,410,173315,0
Krys-43,true,1.00,1622,345,1614,283,76823,0
Krys-44,true,1.00,5565,545,5554,418,249346,0
Krys-45,true,1.00,2776,429,2762,355,87777,0
Krys-46,true,1.00,3437,484,3420,423,127022,0
Krys-47,true,1.00,3591,511,3572,440,146430,0
Krys-48,true,1.00,2228,390,2215,319,113453,0
Krys-49,true,1.00,1262,396,1251,335,46631,0
Krys-50,false,0.79,7697,394,7693,394,267102,0
Krys-51,true,1.00,4978,438,4970,357,200939,0
Krys-52,true,1.00,4127,433,4118,350,151413,0
Krys-53,true,1.00,2809,432,2795,386,99227,0
Krys-54,true,1.00,7836,495,7822,440,301334,0
Krys-55,true,1.00,4202,452,4182,340,152602,0
Krys-56,false,0.59,27391,999,27381,999,876864,0
Krys-57,true,1.00,1523,362,1513,308,59894,0
Krys-58,true,1.00,3506,481,3491,396,121846,0
Krys-59,false,0.38,30315,999,30308,999,897036,0
Krys-60,true,1.00,4229,406,4219,330,156229,0
Krys-61,true,1.00,4734,483,4714,401,130972,0
Krys-62,true,1.00,3896,489,3875,406,97656,0
Krys-63,true,1.00,6235,547,6221,429,179967,0
Krys-64,true,1.00,4535,528,4522,434,167198,0
Krys-65,true,1.00,3589,440,3574,378,118936,0
Krys-66,true,1.00,5025,452,5006,355,162916,0
Krys-67,true,1.00,3960,465,3951,371,137968,0
Krys-68,true,1.00,2590,345,2582,275,110123,0
Krys-69,true,1.00,11084,667,11071,549,342129,0
Krys-70,true,1.00,7434,471,7420,397,257938,0
Krys-71,true,1.00,3070,355,3063,309,140570,0
Krys-72,true,1.00,2860,511,2843,428,99840,0
Krys-73,true,1.00,5660,585,5651,474,205950,0
Krys-74,true,1.00,2242,459,2230,398,93443,0
Krys-75,true,1.00,2533,485,2515,398,71455,0
Krys-76,true,1.00,3930,345,3924,293,139726,0
Krys-77,true,1.00,1377,409,1363,325,51407,0
Krys-78,false,0.91,26795,999,26789,999,881123,0
Krys-79,true,1.00,1722,450,1711,359,56915,0
Krys-80,true,1.00,977,415,964,349,32332,0
Krys-81,true,1.00,1943,419,1928,343,76844,0
Krys-82,true,1.00,3097,417,3079,355,96460,0
Krys-83,true,1.00,4745,461,4725,367,171065,0
Krys-84,true,1.00,610,409,588,342,21561,0
Krys-85,true,1.00,3982,530,3969,443,145108,0
Krys-86,true,1.00,2603,418,2582,335,92692,0
Krys-87,true,1.00,1786,383,1772,316,53349,0
Krys-88,true,1.00,2199,461,2184,392,82118,0
Krys-89,true,1.00,2093,460,2075,376,76749,0
Krys-90,true,1.00,4335,367,4332,294,167741,0
Krys-91,true,1.00,846,420,828,355,26869,0
Krys-92,true,1.00,6317,396,6306,306,207314,0
Krys-93,true,1.00,3623,350,3615,298,125561,0
Krys-94,true,1.00,1924,394,1912,317,82475,0
Krys-95,true,1.00,3235,478,3222,385,109140,0
Krys-96,true,1.00,4176,415,4166,365,180517,0
Krys-97,true,1.00,2359,422,2346,364,86747,0
Krys-98,true,1.00,8422,565,8412,519,283623,0
Krys-99,true,1.00,3880,469,3860,387,121616,0
Krys-100,true,1.00,2532,335,2526,279,112190,0
