NDW:0.0
TTFW:0.4
DFPT:2.0
DFPAP:3.0
DFPMP:3.0
RIGHT_WINDOW_BORDER_X:95.0
level,win/fail,% travelled,run time,game ticks,planning time,total plannings,nodes evaluated,most backtracked nodes
hopper-1,true,1.00,4677,537,4673,527,414502,0
hopper-2,true,1.00,4395,522,4390,512,387156,0
hopper-3,true,1.00,3397,544,3395,533,308774,0
hopper-4,false,0.58,1659,314,1658,314,149819,0
hopper-5,true,1.00,3801,561,3799,550,328578,0
hopper-6,true,1.00,3272,518,3271,508,283307,0
hopper-7,true,1.00,2497,527,2489,517,210580,0
hopper-8,true,1.00,2171,513,2169,503,196378,0
hopper-9,true,1.00,5402,612,5397,602,481333,0
hopper-10,true,1.00,6097,590,6089,580,563807,0
hopper-11,true,1.00,4898,574,4895,564,429884,0
hopper-12,true,1.00,4143,539,4143,528,364056,0
hopper-13,true,1.00,5381,601,5377,591,495687,0
hopper-14,true,1.00,5114,574,5112,564,455724,0
hopper-15,true,1.00,4210,543,4204,534,359349,0
hopper-16,true,1.00,4618,588,4613,578,414181,0
hopper-17,true,1.00,1928,444,1926,434,167939,0
hopper-18,true,1.00,2612,460,2609,450,224393,0
hopper-19,true,1.00,2252,467,2250,457,208508,0
hopper-20,true,1.00,4650,535,4649,525,397135,0
hopper-21,true,1.00,2128,518,2126,508,180022,0
hopper-22,true,1.00,2692,515,2689,506,244890,0
hopper-23,true,1.00,2940,501,2938,491,252754,0
hopper-24,true,1.00,1607,482,1603,473,149407,0
hopper-25,true,1.00,3308,511,3304,501,309072,0
hopper-26,true,1.00,4638,593,4635,583,404291,0
hopper-27,true,1.00,1995,463,1993,449,184218,0
hopper-28,true,1.00,6967,663,6963,653,669422,0
hopper-29,true,1.00,4303,579,4300,570,405021,0
hopper-30,true,1.00,5185,579,5183,568,462052,0
hopper-31,true,1.00,2847,524,2844,514,267322,0
hopper-32,true,1.00,6121,630,6119,620,545332,0
hopper-33,false,0.50,3150,297,3150,297,260778,0
hopper-34,true,1.00,1968,515,1965,501,176650,0
hopper-35,true,1.00,5004,579,5000,569,453541,0
hopper-36,true,1.00,2861,505,2855,495,251602,0
hopper-37,false,0.50,2799,279,2798,279,223954,0
hopper-38,true,1.00,6738,666,6736,656,628429,0
hopper-39,true,1.00,4646,599,4641,588,427882,0
hopper-40,true,1.00,1738,477,1734,467,148537,0
hopper-41,true,1.00,4779,567,4777,557,431959,0
hopper-42,true,1.00,5571,584,5567,572,464815,0
hopper-43,false,0.45,3782,314,3781,314,304199,0
hopper-44,true,1.00,4535,562,4529,552,387381,0
hopper-45,false,0.41,26829,999,26828,999,2042540,0
hopper-46,false,0.65,21803,999,21798,999,1781676,0
hopper-47,true,1.00,6383,591,6382,581,557600,0
hopper-48,true,1.00,5048,581,5047,571,435890,0
hopper-49,true,1.00,8692,735,8690,725,766940,0
hopper-50,true,1.00,2629,521,2627,511,231748,0
hopper-51,true,1.00,2356,512,2352,501,215745,0
hopper-52,true,1.00,2844,496,2842,486,261146,0
hopper-53,false,0.63,6797,494,6793,494,564245,0
hopper-54,true,1.00,2377,479,2375,470,208676,0
hopper-55,true,1.00,2968,495,2962,486,271024,0
hopper-56,true,1.00,3695,539,3693,525,340968,0
hopper-57,true,1.00,1840,445,1838,434,155683,0
hopper-58,true,1.00,4815,614,4812,603,445568,0
hopper-59,true,1.00,2251,468,2248,457,209887,0
hopper-60,true,1.00,4485,543,4483,534,411446,0
hopper-61,true,1.00,3663,553,3662,543,314994,0
hopper-62,true,1.00,4249,555,4247,545,370936,0
hopper-63,true,1.00,1830,492,1828,482,166520,0
hopper-64,true,1.00,5861,595,5858,585,510038,0
hopper-65,true,1.00,4878,594,4876,584,429304,0
hopper-66,true,1.00,1567,472,1564,462,144611,0
hopper-67,true,1.00,4619,557,4616,547,415095,0
hopper-68,true,1.00,2552,498,2550,488,216369,0
hopper-69,true,1.00,3079,538,3077,528,264200,0
hopper-70,true,1.00,2433,500,2430,490,218804,0
hopper-71,true,1.00,2242,470,2242,460,190892,0
hopper-72,true,1.00,5925,618,5921,609,513029,0
hopper-73,true,1.00,5009,561,5007,551,428608,0
hopper-74,true,1.00,2133,447,2132,437,178965,0
hopper-75,true,1.00,4042,545,4042,535,348515,0
hopper-76,true,1.00,2446,508,2442,498,212024,0
hopper-77,true,1.00,2244,473,2242,463,191724,0
hopper-78,true,1.00,6181,589,6177,579,577412,0
hopper-79,true,1.00,1437,454,1434,445,132477,0
hopper-80,true,1.00,3207,539,3200,529,273049,0
hopper-81,true,1.00,2972,510,2969,500,265912,0
hopper-82,false,0.46,2889,355,2885,355,258271,0
hopper-83,true,1.00,4811,571,4805,561,428509,0
hopper-84,true,1.00,3903,513,3900,503,345766,0
hopper-85,true,1.00,4458,605,4456,593,384898,0
hopper-86,true,1.00,6054,637,6053,627,525059,0
hopper-87,true,1.00,6282,597,6278,588,534823,0
hopper-88,true,1.00,3725,582,3720,571,352927,0
hopper-89,true,1.00,2250,491,2246,481,196342,0
hopper-90,true,1.00,3123,497,3119,487,279308,0
hopper-91,true,1.00,5887,623,5883,613,521525,0
hopper-92,true,1.00,2701,506,2698,496,234272,0
hopper-93,true,1.00,3398,491,3396,481,304111,0
hopper-94,true,1.00,5186,601,5185,591,468417,0
hopper-95,true,1.00,3256,516,3253,506,289552,0
hopper-96,false,0.37,5019,311,5018,311,422621,0
hopper-97,true,1.00,3219,515,3217,505,277157,0
hopper-98,true,1.00,5775,590,5773,578,494530,0
hopper-99,false,0.24,847,115,847,115,71875,0
hopper-100,true,1.00,3443,584,3441,574,303046,0
