NDW:0.0
TTFW:1.6
DFPT:2.0
DFPAP:3.0
DFPMP:10.0
RIGHT_WINDOW_BORDER_X:400.0
level,win/fail,% travelled,run time,game ticks,planning time,total plannings,nodes evaluated,most backtracked nodes
Krys-1,true,1.00,9161,576,9160,478,666939,0
Krys-2,true,1.00,4142,462,4138,371,271588,0
Krys-3,true,1.00,10831,646,10828,552,897453,0
Krys-4,true,1.00,3389,417,3382,353,252956,0
Krys-5,true,1.00,1804,338,1803,271,222339,0
Krys-6,true,1.00,1730,359,1729,308,148972,0
Krys-7,true,1.00,405,394,403,325,36397,0
Krys-8,true,1.00,2775,472,2773,368,233741,0
Krys-9,true,1.00,1954,397,1951,304,241721,0
Krys-10,true,1.00,2677,428,2672,344,234817,0
Krys-11,true,1.00,296,439,295,347,19247,0
Krys-12,true,1.00,5082,414,5082,344,358752,0
Krys-13,true,1.00,3174,411,3169,332,335947,0
Krys-14,true,1.00,2388,355,2387,300,151736,0
Krys-15,true,1.00,4104,435,4102,362,425456,0
Krys-16,true,1.00,2936,422,2933,351,185341,0
Krys-17,true,1.00,2656,504,2653,410,206239,0
Krys-18,true,1.00,2578,445,2577,372,230566,0
Krys-19,true,1.00,3455,436,3454,369,363585,0
Krys-20,true,1.00,4304,527,4301,434,331559,0
Krys-21,true,1.00,1818,398,1815,331,225631,0
Krys-22,true,1.00,1695,358,1695,291,219214,0
Krys-23,true,1.00,2187,416,2184,331,181467,0
Krys-24,false,0.70,27612,999,27612,999,1840083,0
Krys-25,true,1.00,3041,437,3039,353,250525,0
Krys-26,true,1.00,2700,353,2698,286,312846,0
Krys-27,true,1.00,3098,367,3095,301,275979,0
Krys-28,true,1.00,4299,460,4298,390,372433,0
Krys-29,true,1.00,2758,466,2756,384,209965,0
Krys-30,true,1.00,3148,523,3145,430,215380,0
Krys-31,true,1.00,2256,470,2249,403,202443,0
Krys-32,true,1.00,497,413,495,346,36169,0
Krys-33,true,1.00,326,390,324,299,26843,0
Krys-34,true,1.00,2308,463,2304,382,187997,0
Krys-35,true,1.00,3131,391,3129,320,338940,0
Krys-36,true,1.00,5062,440,5059,365,474372,0
Krys-37,true,1.00,4609,512,4606,430,436078,0
Krys-38,true,1.00,3876,426,3875,318,445833,0
Krys-39,true,1.00,3633,412,3630,330,370427,0
Krys-40,true,1.00,3849,421,3847,356,388030,0
Krys-41,true,1.00,4770,433,4767,355,426221,0
Krys-42,true,1.00,3251,514,3249,417,367428,0
Krys-43,true,1.00,1466,409,1466,322,170268,0
Krys-44,true,1.00,4719,452,4717,355,489527,0
Krys-45,true,1.00,1706,460,1701,385,104981,0
Krys-46,true,1.00,2382,431,2379,376,179966,0
Krys-47,true,1.00,2106,490,2103,413,252103,0
Krys-48,true,1.00,1336,361,1334,286,188254,0
Krys-49,true,1.00,815,398,811,337,67365,0
Krys-50,true,1.00,6775,533,6774,452,518522,0
Krys-51,true,1.00,3454,450,3451,366,381088,0
Krys-52,true,1.00,3030,443,3026,360,220761,0
Krys-53,true,1.00,2475,465,2471,416,176068,0
Krys-54,true,1.00,5617,475,5614,420,496558,0
Krys-55,true,1.00,3373,501,3372,365,255719,0
Krys-56,true,1.00,1681,422,1678,335,121729,0
Krys-57,true,1.00,1258,380,1255,322,116464,0
Krys-58,true,1.00,3221,503,3218,421,256603,0
Krys-59,true,1.00,3920,395,3918,325,238544,0
Krys-60,true,1.00,3357,413,3356,331,359199,0
Krys-61,true,1.00,2897,443,2896,383,213006,0
Krys-62,true,1.00,2022,458,2019,389,129435,0
Krys-63,true,1.00,5855,560,5851,460,413944,0
Krys-64,true,1.00,3450,512,3446,457,305036,0
Krys-65,true,1.00,2691,462,2687,371,181915,0
Krys-66,true,1.00,3331,384,3330,332,223688,0
Krys-67,true,1.00,3166,545,3162,454,271540,0
Krys-68,true,1.00,2149,331,2146,261,231939,0
Krys-69,true,1.00,6983,532,6982,441,507546,0
Krys-70,true,1.00,7275,541,7274,427,621524,0
Krys-71,true,1.00,2202,337,2200,289,274523,0
Krys-72,true,1.00,1426,476,1424,393,125010,0
Krys-73,true,1.00,5486,534,5480,438,445836,0
Krys-74,true,1.00,2020,464,2016,403,205674,0
Krys-75,true,1.00,1612,492,1609,405,95913,0
Krys-76,true,1.00,3695,360,3695,302,344862,0
Krys-77,true,1.00,702,386,699,302,78849,0
Krys-78,false,0.70,27160,999,27158,999,1924556,0
Krys-79,true,1.00,1558,442,1555,354,102591,0
Krys-80,true,1.00,599,440,594,374,42141,0
Krys-81,true,1.00,1386,473,1384,397,141313,0
Krys-82,true,1.00,1715,425,1714,360,117515,0
Krys-83,true,1.00,3774,457,3770,363,317550,0
Krys-84,true,1.00,265,427,261,366,19779,0
Krys-85,true,1.00,3183,556,3180,478,260169,0
Krys-86,true,1.00,2545,455,2544,366,189385,0
Krys-87,true,1.00,1500,411,1499,344,92239,0
Krys-88,true,1.00,1701,433,1698,364,144192,0
Krys-89,true,1.00,1373,477,1369,407,103458,0
Krys-90,true,1.00,3231,361,3230,279,346014,0
Krys-91,true,1.00,398,407,398,342,32493,0
Krys-92,true,1.00,5327,419,5323,329,448632,0
Krys-93,true,1.00,2991,386,2988,334,323171,0
Krys-94,true,1.00,1771,414,1770,343,231232,0
Krys-95,true,1.00,2200,454,2199,361,167178,0
Krys-96,true,1.00,3394,432,3388,362,392966,0
Krys-97,true,1.00,2740,427,2736,369,242226,0
Krys-98,true,1.00,5807,514,5806,466,415521,0
Krys-99,true,1.00,2431,484,2428,402,174073,0
Krys-100,true,1.00,2084,335,2084,279,285995,0
