NDW:0.0
TTFW:0.8
DFPT:2.0
DFPAP:3.0
DFPMP:10.0
RIGHT_WINDOW_BORDER_X:75.0
level,win/fail,% travelled,run time,game ticks,planning time,total plannings,nodes evaluated,most backtracked nodes
ore-1,false,0.78,4168,554,4155,554,238210,0
ore-2,false,0.70,8400,635,8388,635,450517,0
ore-3,true,1.00,3278,591,3265,584,187602,0
ore-4,true,1.00,4500,650,4486,643,256145,0
ore-5,true,1.00,6931,719,6913,711,387394,0
ore-6,true,1.00,6237,687,6225,679,348734,0
ore-7,true,1.00,3134,541,3121,534,178765,0
ore-8,false,0.59,4519,478,4508,478,235809,0
ore-9,true,1.00,3863,585,3853,577,212435,0
ore-10,false,0.66,1998,385,1987,385,118291,0
ore-11,true,1.00,5514,765,5488,758,308434,0
ore-12,true,1.00,5783,748,5765,741,339710,0
ore-13,true,1.00,8223,868,8207,858,451823,0
ore-14,true,1.00,7707,822,7687,814,451435,0
ore-15,true,1.00,7610,704,7599,697,412503,0
ore-16,true,1.00,5266,689,5250,681,313014,0
ore-17,true,1.00,6189,713,6181,703,365242,0
ore-18,true,1.00,3635,598,3620,588,200530,0
ore-19,true,1.00,8108,787,8095,780,464852,0
ore-20,false,0.38,1754,260,1750,260,99717,0
ore-21,true,1.00,4485,634,4469,624,265978,0
ore-22,false,0.58,4694,452,4683,452,249081,0
ore-23,true,1.00,4481,619,4467,611,255545,0
ore-24,true,1.00,5516,728,5501,721,313446,0
ore-25,true,1.00,7113,705,7094,694,418968,0
ore-26,true,1.00,3381,605,3374,598,191910,0
ore-27,false,0.62,2970,518,2960,518,172610,0
ore-28,true,1.00,3235,580,3222,572,179610,0
ore-29,true,1.00,3547,595,3543,588,195937,0
ore-30,true,1.00,7267,715,7255,708,396506,0
ore-31,true,1.00,6621,735,6599,727,379339,0
ore-32,true,1.00,4567,608,4552,600,263319,0
ore-33,true,1.00,3616,601,3599,594,211433,0
ore-34,true,1.00,4665,647,4653,640,259461,0
ore-35,true,1.00,4539,583,4528,576,261307,0
ore-36,true,1.00,4488,606,4481,598,255778,0
ore-37,false,0.34,3830,353,3819,353,195308,0
ore-38,true,1.00,6822,794,6804,786,390803,0
ore-39,true,1.00,8073,812,8057,803,466915,0
ore-40,false,0.89,4128,596,4115,596,237955,0
ore-41,true,1.00,5145,647,5131,639,285964,0
ore-42,false,0.28,1452,199,1446,199,75646,0
ore-43,true,1.00,4462,651,4448,643,251394,0
ore-44,false,0.33,26331,999,26326,999,1429321,0
ore-45,false,0.74,20481,999,20472,999,869921,0
ore-46,false,0.12,3055,160,3055,160,168818,0
ore-47,true,1.00,5169,768,5152,761,302333,0
ore-48,true,1.00,4210,602,4199,593,247170,0
ore-49,false,0.98,3677,571,3667,571,219643,0
ore-50,false,0.67,4145,486,4137,486,240217,0
ore-51,true,1.00,3929,610,3920,603,229945,0
ore-52,true,1.00,6273,745,6259,738,374272,0
ore-53,true,1.00,5902,686,5889,679,332045,0
ore-54,false,0.71,7055,608,7045,608,387348,0
ore-55,false,0.48,2906,315,2895,315,120664,0
ore-56,true,1.00,3876,637,3854,629,163035,0
ore-57,true,1.00,5316,656,5306,648,316020,0
ore-58,false,0.75,2958,470,2936,470,122131,0
ore-59,false,0.50,1522,314,1509,314,47288,0
ore-60,true,1.00,4667,623,4653,616,267282,0
ore-61,true,1.00,4432,636,4412,628,263216,0
ore-62,true,1.00,4219,604,4208,597,255053,0
ore-63,true,1.00,6705,759,6690,751,387834,0
ore-64,true,1.00,5364,686,5349,678,320139,0
ore-65,true,1.00,6806,742,6795,734,408808,0
ore-66,true,1.00,6556,790,6543,782,395123,0
ore-67,true,1.00,8256,780,8239,773,436288,0
ore-68,true,1.00,2924,581,2915,573,178085,0
ore-69,true,1.00,5657,821,5641,813,346676,0
ore-70,false,0.92,7579,786,7562,786,463050,0
ore-71,true,1.00,6051,708,6042,701,359261,0
ore-72,false,0.50,4355,465,4347,465,274285,0
ore-73,true,1.00,4580,603,4568,595,278645,0
ore-74,true,1.00,5189,685,5177,671,273535,0
ore-75,false,0.88,4544,632,4529,632,270874,0
ore-76,true,1.00,5311,660,5296,652,328290,0
ore-77,true,1.00,4837,638,4826,631,294785,0
ore-78,true,1.00,5270,718,5250,711,307680,0
ore-79,true,1.00,6827,710,6814,703,385941,0
ore-80,true,1.00,4618,648,4608,639,278342,0
ore-81,false,0.36,1311,220,1306,220,83571,0
ore-82,true,1.00,5661,715,5642,708,336804,0
ore-83,true,1.00,5860,625,5850,618,350037,0
ore-84,false,0.12,3195,147,3195,147,157809,0
ore-85,true,1.00,5430,626,5417,619,321403,0
ore-86,true,1.00,4750,615,4744,607,297034,0
ore-87,true,1.00,4794,620,4786,613,285991,0
ore-88,true,1.00,4237,676,4223,668,258941,0
ore-89,true,1.00,5045,635,5030,628,302481,0
ore-90,true,1.00,3954,623,3944,615,243728,0
ore-91,true,1.00,5214,643,5207,636,323091,0
ore-92,true,1.00,5290,608,5286,601,312086,0
ore-93,false,0.13,2998,178,2998,178,160192,0
ore-94,true,1.00,2726,546,2718,539,160190,0
ore-95,false,0.98,8110,812,8098,812,465174,0
ore-96,true,1.00,4485,690,4476,682,278494,0
ore-97,true,1.00,7327,845,7310,838,441761,0
ore-98,true,1.00,5564,676,5555,669,340495,0
ore-99,true,1.00,5012,706,5001,689,300876,0
ore-100,true,1.00,4742,632,4725,625,297161,0
