NDW:0.0
TTFW:1.6
DFPT:2.0
DFPAP:3.0
DFPMP:1.0
RIGHT_WINDOW_BORDER_X:135.0
level,win/fail,% travelled,run time,game ticks,planning time,total plannings,nodes evaluated,most backtracked nodes
Mario-1,true,1.00,247,405,244,387,28336,0
Mario-2,true,1.00,623,343,621,330,68960,0
Mario-3,true,1.00,1397,286,1396,268,169133,0
Mario-4,true,1.00,1056,491,1054,472,120973,0
Mario-5,true,1.00,2024,523,2022,510,233506,0
Mario-6,true,1.00,1225,274,1223,262,155678,0
Mario-7,true,1.00,742,520,740,501,77478,0
Mario-8,true,1.00,1717,510,1713,483,175668,0
Mario-9,true,1.00,329,400,326,384,38137,0
Mario-10,true,1.00,3883,390,3882,372,484947,0
Mario-11,true,1.00,696,422,690,402,75426,0
Mario-12,true,1.00,1061,747,1060,729,107180,0
Mario-13,true,1.00,1789,359,1787,341,228903,0
Mario-14,true,1.00,163,413,161,397,18903,0
Mario-15,true,1.00,3148,905,3143,891,318026,0
