NDW:0.0
TTFW:0.2
DFPT:2.0
DFPAP:3.0
DFPMP:3.0
RIGHT_WINDOW_BORDER_X:35.0
level,win/fail,% travelled,run time,game ticks,planning time,total plannings,nodes evaluated,most backtracked nodes
patternCount-1,false,0.50,3457,650,3451,650,364183,0
patternCount-2,false,0.32,2324,601,2320,601,252436,0
patternCount-3,false,0.06,241,122,241,122,35005,0
patternCount-4,false,0.13,1577,256,1577,256,171924,0
patternCount-5,false,0.17,1276,197,1274,197,122210,0
patternCount-6,false,0.30,2255,435,2252,435,227230,0
patternCount-7,false,0.53,8011,882,8008,882,796853,0
patternCount-8,false,0.08,496,161,496,161,56674,0
patternCount-9,false,0.07,1402,196,1400,196,161285,0
patternCount-10,false,0.67,3350,999,3346,999,350303,0
patternCount-11,false,0.69,6645,999,6639,999,640889,0
patternCount-12,false,0.03,451,120,451,120,90840,0
patternCount-13,false,0.06,180,111,178,111,28929,0
patternCount-14,false,0.13,1324,215,1322,215,160490,0
patternCount-15,false,0.65,6444,994,6442,994,657199,0
patternCount-16,false,0.13,889,310,886,310,105180,0
patternCount-17,false,0.62,5635,999,5629,999,559507,0
patternCount-18,false,0.11,1443,999,1435,999,180483,0
patternCount-19,false,0.05,161,101,161,101,26953,0
patternCount-20,false,0.10,1465,145,1464,145,154376,0
patternCount-21,false,0.58,4986,999,4982,999,533108,0
patternCount-22,false,0.07,490,179,489,179,69290,0
patternCount-23,false,0.51,3535,670,3533,670,363394,0
patternCount-24,false,0.05,161,101,161,101,26953,0
patternCount-25,false,0.26,19941,999,19938,999,1847122,0
patternCount-26,false,0.05,160,101,160,101,26953,0
patternCount-27,false,0.08,262,152,257,152,36972,0
patternCount-28,false,0.11,730,209,728,209,79115,0
patternCount-29,false,0.18,2836,405,2836,405,298652,0
patternCount-30,false,0.63,4940,933,4935,933,515075,0
patternCount-31,false,0.50,4358,889,4348,889,462203,0
patternCount-32,false,0.05,160,101,160,101,26953,0
patternCount-33,false,0.05,162,101,162,101,26953,0
patternCount-34,false,0.44,6332,805,6324,805,567098,0
patternCount-35,false,0.05,199,100,199,100,21392,0
patternCount-36,false,0.05,137,100,136,100,21878,0
patternCount-37,false,0.11,26019,999,26016,999,2217507,0
patternCount-38,false,0.05,162,101,161,101,26953,0
patternCount-39,false,0.25,1653,419,1652,419,178451,0
patternCount-40,false,0.65,5622,999,5614,999,583013,0
patternCount-41,false,0.43,2433,615,2426,615,261859,0
patternCount-42,false,0.04,555,157,554,157,97923,0
patternCount-43,false,0.10,959,276,956,276,117569,0
patternCount-44,false,0.41,5045,706,5040,706,502803,0
patternCount-45,false,0.26,3044,552,3044,552,298493,0
patternCount-46,false,0.04,107,95,107,95,20650,0
patternCount-47,false,0.10,25204,999,25202,999,2302388,0
patternCount-48,false,0.14,2178,319,2176,319,226998,0
patternCount-49,false,0.32,16684,999,16679,999,1521853,0
patternCount-50,false,0.04,93,78,93,78,15354,0
patternCount-51,false,0.01,25,33,24,33,5800,0
patternCount-52,false,0.17,1553,316,1553,316,170066,0
patternCount-53,false,0.05,1224,162,1223,162,152772,0
patternCount-54,false,0.18,2320,329,2315,329,239329,0
patternCount-55,false,0.48,4650,836,4647,836,464594,0
patternCount-56,false,0.12,2141,251,2139,251,259653,0
patternCount-57,false,0.52,2733,728,2728,728,280698,0
patternCount-58,false,0.39,2335,646,2332,646,253899,0
patternCount-59,false,0.25,3652,570,3648,570,358519,0
patternCount-60,false,0.06,287,121,287,121,40148,0
patternCount-61,false,0.06,440,159,437,159,60208,0
patternCount-62,false,0.20,1849,325,1846,325,188163,0
patternCount-63,false,0.18,1467,301,1467,301,160132,0
patternCount-64,false,0.24,1342,362,1340,362,157710,0
patternCount-65,false,0.20,1948,397,1944,397,203060,0
patternCount-66,false,0.12,1718,246,1717,246,193383,0
patternCount-67,false,0.37,1920,552,1916,552,204322,0
patternCount-68,false,0.41,3008,600,3007,600,316642,0
patternCount-69,false,0.45,2615,575,2614,575,271976,0
patternCount-70,false,0.34,3957,646,3955,646,467088,0
patternCount-71,false,0.14,1649,362,1643,362,191829,0
patternCount-72,false,0.28,2386,355,2384,355,234174,0
patternCount-73,false,0.13,512,211,511,211,56043,0
patternCount-74,false,0.51,4018,713,4010,713,400063,0
patternCount-75,false,0.31,1806,500,1803,500,188856,0
patternCount-76,false,0.72,7478,999,7470,999,765640,0
patternCount-77,false,0.29,18704,999,18700,999,1657611,0
patternCount-78,false,0.04,2660,262,2660,262,364499,0
patternCount-79,false,0.15,1640,271,1637,271,185349,0
patternCount-80,false,0.28,4016,525,4014,525,385093,0
patternCount-81,false,0.67,4245,999,4240,999,443337,0
patternCount-82,false,0.70,6806,999,6800,999,696516,0
patternCount-83,false,0.08,413,130,411,130,53762,0
patternCount-84,false,0.38,3127,724,3123,724,324651,0
patternCount-85,false,0.05,399,131,399,131,57153,0
patternCount-86,false,0.51,4568,895,4564,895,477113,0
patternCount-87,false,0.10,678,214,676,214,86935,0
patternCount-88,false,0.23,2510,557,2508,557,256815,0
patternCount-89,false,0.08,4050,256,4049,256,418680,0
patternCount-90,false,0.42,2193,551,2190,551,236031,0
patternCount-91,false,0.09,407,192,407,192,50440,0
patternCount-92,false,0.71,5659,999,5653,999,562229,0
patternCount-93,false,0.41,3528,651,3521,651,366343,0
patternCount-94,false,0.12,1535,205,1534,205,153475,0
patternCount-95,false,0.19,22045,1008,22042,1008,2093788,0
patternCount-96,false,0.13,24380,999,24378,999,2177724,0
patternCount-97,false,0.27,1601,361,1599,361,172952,0
patternCount-98,false,0.18,586,225,584,225,70120,0
patternCount-99,false,0.17,1129,360,1128,360,140596,0
patternCount-100,false,0.34,1994,549,1992,549,211417,0
