NDW:0.0
TTFW:0.4
DFPT:2.0
DFPAP:3.0
DFPMP:1.0
RIGHT_WINDOW_BORDER_X:75.0
level,win/fail,% travelled,run time,game ticks,planning time,total plannings,nodes evaluated,most backtracked nodes
Mario-1,true,1.00,2115,971,2107,958,211672,0
Mario-2,true,1.00,1510,579,1508,565,143014,0
Mario-3,false,0.25,576,311,576,311,63396,0
Mario-4,true,1.00,1801,867,1799,855,193530,0
Mario-5,true,1.00,2325,782,2320,775,230917,0
Mario-6,false,0.35,913,262,912,262,101607,0
Mario-7,true,1.00,2061,1159,2054,1147,196230,0
Mario-8,true,1.00,4295,1185,4286,1176,404092,0
Mario-9,true,1.00,1567,669,1562,656,159021,0
Mario-10,false,0.57,5272,499,5271,499,559448,0
Mario-11,true,1.00,2907,844,2902,835,291280,0
Mario-12,true,1.00,737,910,731,896,86657,0
Mario-13,true,1.00,4805,798,4802,791,514235,0
Mario-14,true,1.00,580,644,568,634,66692,0
Mario-15,false,0.58,3954,1337,3947,1337,355446,0
