NDW:0.0
TTFW:1.0
DFPT:2.0
DFPAP:3.0
DFPMP:5.0
RIGHT_WINDOW_BORDER_X:350.0
level,win/fail,% travelled,run time,game ticks,planning time,total plannings,nodes evaluated,most backtracked nodes
patternWeightCount-1,true,1.00,3338,474,3330,430,177455,0
patternWeightCount-2,true,1.00,931,387,915,344,46692,0
patternWeightCount-3,true,1.00,859,376,844,344,41951,0
patternWeightCount-4,true,1.00,1110,414,1096,373,54694,0
patternWeightCount-5,true,1.00,1856,441,1852,408,96105,0
patternWeightCount-6,true,1.00,1945,440,1934,406,99795,0
patternWeightCount-7,true,1.00,967,427,955,384,46800,0
patternWeightCount-8,true,1.00,958,395,951,363,39060,0
patternWeightCount-9,true,1.00,1351,452,1330,418,67444,0
patternWeightCount-10,true,1.00,1063,466,1040,433,51622,0
patternWeightCount-11,true,1.00,838,421,831,388,40217,0
patternWeightCount-12,true,1.00,1451,455,1443,413,70209,0
patternWeightCount-13,true,1.00,1145,415,1135,383,58506,0
patternWeightCount-14,true,1.00,1131,456,1120,415,55349,0
patternWeightCount-15,true,1.00,1518,387,1509,355,79415,0
patternWeightCount-16,true,1.00,2540,468,2524,424,137129,0
patternWeightCount-17,true,1.00,1411,488,1396,456,69928,0
patternWeightCount-18,true,1.00,1074,409,1060,377,53965,0
patternWeightCount-19,true,1.00,803,428,793,396,36237,0
patternWeightCount-20,true,1.00,4783,411,4773,361,238909,0
patternWeightCount-21,true,1.00,899,470,891,435,38106,0
patternWeightCount-22,true,1.00,2810,499,2798,444,149207,0
patternWeightCount-23,true,1.00,1355,476,1340,426,50338,0
patternWeightCount-24,true,1.00,1331,409,1320,372,57927,0
patternWeightCount-25,true,1.00,2133,465,2117,433,90097,0
patternWeightCount-26,true,1.00,2121,457,2099,426,76022,0
patternWeightCount-27,true,1.00,2666,440,2654,394,136342,0
patternWeightCount-28,true,1.00,1332,412,1326,380,69643,0
patternWeightCount-29,true,1.00,1419,427,1408,395,73088,0
patternWeightCount-30,true,1.00,3292,477,3281,425,162224,0
patternWeightCount-31,true,1.00,1268,426,1255,394,60936,0
patternWeightCount-32,true,1.00,1017,413,1009,376,51842,0
patternWeightCount-33,true,1.00,1075,439,1060,407,54802,0
patternWeightCount-34,true,1.00,1504,397,1498,365,79069,0
patternWeightCount-35,true,1.00,1974,430,1965,398,104032,0
patternWeightCount-36,true,1.00,1311,418,1304,386,65768,0
patternWeightCount-37,true,1.00,951,409,940,377,46805,0
patternWeightCount-38,true,1.00,2105,467,2090,414,104463,0
patternWeightCount-39,true,1.00,902,378,889,346,45069,0
patternWeightCount-40,true,1.00,1614,488,1599,456,86005,0
patternWeightCount-41,true,1.00,1519,477,1510,424,80546,0
patternWeightCount-42,false,0.87,3384,424,3372,424,170373,0
patternWeightCount-43,true,1.00,1045,382,1032,350,55372,0
patternWeightCount-44,true,1.00,1732,452,1725,397,96857,0
patternWeightCount-45,true,1.00,3244,503,3233,446,178436,0
patternWeightCount-46,true,1.00,3964,488,3950,443,204369,0
patternWeightCount-47,true,1.00,819,402,805,370,40340,0
patternWeightCount-48,true,1.00,967,415,955,384,50889,0
patternWeightCount-49,true,1.00,1108,396,1095,364,60198,0
patternWeightCount-50,true,1.00,988,413,976,376,51914,0
patternWeightCount-51,true,1.00,1264,442,1254,388,68934,0
patternWeightCount-52,true,1.00,1645,418,1637,375,90356,0
patternWeightCount-53,true,1.00,3078,463,3067,417,167520,0
patternWeightCount-54,true,1.00,1157,431,1150,399,58813,0
patternWeightCount-55,true,1.00,1468,419,1448,387,78339,0
patternWeightCount-56,true,1.00,1411,444,1400,402,76132,0
patternWeightCount-57,true,1.00,637,368,625,336,32357,0
patternWeightCount-58,true,1.00,1588,432,1578,391,86569,0
patternWeightCount-59,true,1.00,668,422,656,384,32741,0
patternWeightCount-60,true,1.00,1810,510,1801,460,97363,0
patternWeightCount-61,true,1.00,1086,405,1071,368,58891,0
patternWeightCount-62,true,1.00,2443,461,2435,418,136580,0
patternWeightCount-63,true,1.00,1388,443,1381,411,75865,0
patternWeightCount-64,true,1.00,1731,435,1717,403,94958,0
patternWeightCount-65,true,1.00,1441,495,1432,451,75758,0
patternWeightCount-66,true,1.00,1163,425,1155,393,60479,0
patternWeightCount-67,true,1.00,1206,431,1195,400,59474,0
patternWeightCount-68,false,0.85,22580,999,22574,999,815261,0
patternWeightCount-69,true,1.00,2353,441,2343,388,130160,0
patternWeightCount-70,true,1.00,1129,479,1123,424,57728,0
patternWeightCount-71,true,1.00,972,424,967,374,49909,0
patternWeightCount-72,true,1.00,4338,491,4320,435,216771,0
patternWeightCount-73,true,1.00,4566,459,4556,414,248077,0
patternWeightCount-74,true,1.00,1128,388,1115,356,60486,0
patternWeightCount-75,true,1.00,1124,406,1114,374,57612,0
patternWeightCount-76,true,1.00,1177,465,1167,433,61719,0
patternWeightCount-77,true,1.00,997,398,987,366,52965,0
patternWeightCount-78,true,1.00,2834,531,2818,490,143664,0
patternWeightCount-79,true,1.00,881,400,874,368,45206,0
patternWeightCount-80,true,1.00,1455,437,1447,405,78773,0
patternWeightCount-81,true,1.00,3690,461,3680,424,200049,0
patternWeightCount-82,true,1.00,391,403,382,348,17425,0
patternWeightCount-83,true,1.00,801,383,793,345,42458,0
patternWeightCount-84,true,1.00,1075,436,1065,404,56632,0
patternWeightCount-85,true,1.00,1557,421,1540,389,87471,0
patternWeightCount-86,false,0.94,2822,409,2807,409,142295,0
patternWeightCount-87,true,1.00,4959,474,4953,419,258768,0
patternWeightCount-88,true,1.00,1608,416,1597,382,86610,0
patternWeightCount-89,true,1.00,999,408,987,376,52366,0
patternWeightCount-90,true,1.00,4315,470,4300,436,232994,0
patternWeightCount-91,true,1.00,1153,409,1143,368,59923,0
patternWeightCount-92,true,1.00,3591,486,3583,432,203816,0
patternWeightCount-93,false,0.90,3335,380,3323,380,184774,0
patternWeightCount-94,true,1.00,1479,449,1468,417,77884,0
patternWeightCount-95,true,1.00,1196,437,1184,405,61219,0
patternWeightCount-96,true,1.00,1035,463,1020,421,52043,0
patternWeightCount-97,true,1.00,1066,373,1055,326,57757,0
patternWeightCount-98,true,1.00,4461,472,4454,420,250673,0
patternWeightCount-99,true,1.00,1405,410,1391,368,76553,0
patternWeightCount-100,true,1.00,1067,422,1057,390,55751,0
