NDW:0.0
TTFW:0.6
DFPT:2.0
DFPAP:3.0
DFPMP:10.0
RIGHT_WINDOW_BORDER_X:95.0
level,win/fail,% travelled,run time,game ticks,planning time,total plannings,nodes evaluated,most backtracked nodes
notchParamRand-1,true,1.00,7673,677,7671,667,619569,0
notchParamRand-2,true,1.00,408,410,407,401,39181,0
notchParamRand-3,true,1.00,6529,608,6527,598,569932,0
notchParamRand-4,true,1.00,10869,776,10865,766,951628,0
notchParamRand-5,true,1.00,912,424,910,414,79152,0
notchParamRand-6,true,1.00,1478,442,1477,431,127902,0
notchParamRand-7,true,1.00,1086,458,1084,442,97165,0
notchParamRand-8,true,1.00,1158,422,1156,414,91369,0
notchParamRand-9,true,1.00,3556,523,3554,513,313762,0
notchParamRand-10,true,1.00,2706,547,2703,531,233287,0
notchParamRand-11,true,1.00,251,408,250,397,24738,0
notchParamRand-12,true,1.00,1378,459,1374,449,120335,0
notchParamRand-13,false,0.85,10048,655,10045,655,847957,0
notchParamRand-14,false,0.22,29302,1008,29301,1008,2489202,0
notchParamRand-15,true,1.00,2865,514,2865,503,248419,0
notchParamRand-16,true,1.00,2074,453,2070,443,206855,0
notchParamRand-17,true,1.00,53,399,51,389,8634,0
notchParamRand-18,false,0.19,2508,198,2508,198,225730,0
notchParamRand-19,true,1.00,241,438,237,428,24563,0
notchParamRand-20,true,1.00,11951,837,11949,823,1027706,0
notchParamRand-21,true,1.00,52,404,50,393,8416,0
notchParamRand-22,true,1.00,5556,592,5553,582,487535,0
notchParamRand-23,true,1.00,6046,609,6042,599,520551,0
notchParamRand-24,true,1.00,963,456,961,444,88568,0
notchParamRand-25,true,1.00,49,401,43,392,7997,0
notchParamRand-26,true,1.00,691,433,689,422,62602,0
notchParamRand-27,true,1.00,1814,448,1814,438,184978,0
notchParamRand-28,true,1.00,1234,463,1230,454,108545,0
notchParamRand-29,true,1.00,49,395,46,385,8250,0
notchParamRand-30,false,0.45,10343,545,10340,545,870167,0
notchParamRand-31,true,1.00,438,407,437,398,42569,0
notchParamRand-32,true,1.00,150,399,148,389,17311,0
notchParamRand-33,false,0.19,2319,141,2319,141,202624,0
notchParamRand-34,true,1.00,7004,643,7003,632,592724,0
notchParamRand-35,true,1.00,1561,455,1560,445,135922,0
notchParamRand-36,true,1.00,48,391,44,381,7957,0
notchParamRand-37,true,1.00,2059,469,2056,460,192516,0
notchParamRand-38,false,0.70,13489,693,13486,693,1092472,0
notchParamRand-39,true,1.00,10526,778,10524,764,924333,0
notchParamRand-40,false,0.28,5481,297,5481,297,456154,0
notchParamRand-41,true,1.00,49,393,47,383,7938,0
notchParamRand-42,true,1.00,1373,457,1368,448,123640,0
notchParamRand-43,true,1.00,817,438,815,428,73648,0
notchParamRand-44,true,1.00,2728,503,2725,493,251594,0
notchParamRand-45,false,0.30,2801,215,2800,215,239648,0
notchParamRand-46,true,1.00,3067,499,3067,490,272038,0
notchParamRand-47,true,1.00,2901,532,2899,522,255664,0
notchParamRand-48,true,1.00,10505,755,10503,745,878612,0
notchParamRand-49,true,1.00,4604,553,4603,543,395179,0
notchParamRand-50,true,1.00,10157,785,10154,774,910400,0
notchParamRand-51,true,1.00,689,430,685,414,62726,0
notchParamRand-52,true,1.00,3900,535,3898,525,333410,0
notchParamRand-53,true,1.00,7944,691,7941,681,668045,0
notchParamRand-54,true,1.00,10745,836,10742,826,925528,0
notchParamRand-55,false,0.18,4272,206,4272,206,362179,0
notchParamRand-56,false,0.67,5997,440,5997,440,493134,0
notchParamRand-57,true,1.00,5722,602,5720,592,490424,0
notchParamRand-58,true,1.00,4407,560,4404,550,385277,0
notchParamRand-59,true,1.00,2241,488,2237,476,204079,0
notchParamRand-60,true,1.00,3874,554,3870,540,341037,0
notchParamRand-61,true,1.00,1561,474,1554,464,135827,0
notchParamRand-62,true,1.00,1173,463,1171,453,103866,0
notchParamRand-63,true,1.00,8567,730,8564,720,727850,0
notchParamRand-64,true,1.00,911,425,909,416,81433,0
notchParamRand-65,true,1.00,15446,877,15443,867,1271165,0
notchParamRand-66,true,1.00,1022,433,1021,423,88897,0
notchParamRand-67,true,1.00,1049,460,1047,450,90310,0
notchParamRand-68,true,1.00,11839,865,11837,855,1000678,0
notchParamRand-69,true,1.00,1475,447,1469,438,135137,0
notchParamRand-70,true,1.00,3031,509,3025,499,269971,0
notchParamRand-71,false,0.41,565,210,565,210,50292,0
notchParamRand-72,true,1.00,466,443,462,429,45765,0
notchParamRand-73,true,1.00,993,443,990,434,87019,0
notchParamRand-74,true,1.00,48,393,43,383,8059,0
notchParamRand-75,true,1.00,54,396,52,386,8740,0
notchParamRand-76,true,1.00,4745,619,4738,609,408233,0
notchParamRand-77,true,1.00,11419,772,11416,762,917451,0
notchParamRand-78,true,1.00,6470,645,6467,635,551818,0
notchParamRand-79,true,1.00,252,411,250,401,26013,0
notchParamRand-80,true,1.00,344,399,344,389,30460,0
notchParamRand-81,true,1.00,1950,474,1944,465,190522,0
notchParamRand-82,true,1.00,2284,492,2280,481,198544,0
notchParamRand-83,true,1.00,6653,682,6648,671,563827,0
notchParamRand-84,true,1.00,645,413,642,403,60290,0
notchParamRand-85,true,1.00,55,399,53,389,8833,0
notchParamRand-86,true,1.00,1287,494,1283,484,109316,0
notchParamRand-87,true,1.00,11707,806,11703,797,1001725,0
notchParamRand-88,true,1.00,1745,493,1742,483,172050,0
notchParamRand-89,true,1.00,3501,535,3499,525,312109,0
notchParamRand-90,true,1.00,4406,564,4403,554,361574,0
notchParamRand-91,true,1.00,53,403,51,392,8480,0
notchParamRand-92,true,1.00,4400,552,4398,536,375876,0
notchParamRand-93,true,1.00,446,403,442,393,41432,0
notchParamRand-94,true,1.00,10045,736,10039,727,841141,0
notchParamRand-95,true,1.00,3887,523,3885,513,322854,0
notchParamRand-96,true,1.00,3320,558,3318,545,293131,0
notchParamRand-97,true,1.00,8352,703,8348,687,697562,0
notchParamRand-98,true,1.00,2137,469,2135,460,199927,0
notchParamRand-99,true,1.00,381,403,377,393,35386,0
notchParamRand-100,true,1.00,15957,951,15956,941,1321677,0
