NDW:0.0
TTFW:2.0
DFPT:2.0
DFPAP:3.0
DFPMP:2.0
RIGHT_WINDOW_BORDER_X:400.0
level,win/fail,% travelled,run time,game ticks,planning time,total plannings,nodes evaluated,most backtracked nodes
Mario-1,true,1.00,706,412,698,354,34164,0
Mario-2,true,1.00,863,379,853,319,44633,0
Mario-3,true,1.00,1439,291,1427,218,82795,0
Mario-4,true,1.00,1172,505,1152,420,56477,0
Mario-5,true,1.00,1350,466,1338,402,70260,0
Mario-6,true,1.00,2232,265,2227,207,117277,0
Mario-7,true,1.00,823,462,811,392,40640,0
Mario-8,true,1.00,1836,552,1822,478,92161,0
Mario-9,true,1.00,641,417,635,350,33284,0
Mario-10,true,1.00,1763,317,1754,244,102491,0
Mario-11,true,1.00,1033,423,1027,353,54119,0
Mario-12,true,1.00,1983,699,1963,625,85046,0
Mario-13,true,1.00,1993,337,1985,282,112700,0
Mario-14,true,1.00,432,418,418,342,18630,0
Mario-15,true,1.00,2041,824,2016,763,101554,0
