NDW:0.0
TTFW:0.8
DFPT:2.0
DFPAP:3.0
DFPMP:1.0
RIGHT_WINDOW_BORDER_X:55.0
level,win/fail,% travelled,run time,game ticks,planning time,total plannings,nodes evaluated,most backtracked nodes
ge-1,true,1.00,5934,675,5918,668,262752,0
ge-2,true,1.00,4247,662,4231,657,188170,0
ge-3,true,1.00,568,476,558,469,29303,0
ge-4,false,0.37,3418,319,3409,319,176238,0
ge-5,true,1.00,148,433,132,423,8699,0
ge-6,false,0.55,1871,358,1862,358,96506,0
ge-7,true,1.00,503,473,494,466,27161,0
ge-8,true,1.00,1676,553,1660,546,87812,0
ge-9,false,0.75,3336,517,3324,517,177161,0
ge-10,true,1.00,142,438,127,428,8229,0
ge-11,true,1.00,1671,360,1657,350,75102,0
ge-12,true,1.00,178,429,159,419,8527,0
ge-13,false,0.38,1356,259,1352,259,60726,0
ge-14,true,1.00,1177,522,1160,515,59206,0
ge-15,false,0.77,6027,597,6017,597,306607,0
ge-16,true,1.00,1143,594,1125,587,62147,0
ge-17,true,1.00,3730,490,3721,483,202303,0
ge-18,false,0.09,1115,104,1114,104,59015,0
ge-19,false,0.46,4045,364,4039,364,206911,0
ge-20,false,0.51,1367,285,1363,285,68868,0
ge-21,false,0.35,945,190,941,190,46719,0
ge-22,false,0.68,20367,999,20357,999,967917,0
ge-23,false,0.76,3884,379,3879,379,205644,0
ge-24,false,0.71,2873,452,2862,452,147896,0
ge-25,false,0.63,2019,370,2013,370,103723,0
ge-26,false,0.48,2632,310,2625,310,142882,0
ge-27,true,1.00,148,443,134,436,8669,0
ge-28,false,0.37,3197,301,3192,301,162767,0
ge-29,true,1.00,1881,399,1868,378,94736,0
ge-30,false,0.09,745,63,745,63,33809,0
ge-31,false,0.24,4022,276,4018,276,186923,0
ge-32,true,1.00,982,482,968,477,49957,0
ge-33,false,0.57,295,284,287,284,15595,0
ge-34,false,0.13,940,115,938,115,48269,0
ge-35,false,0.85,3492,533,3489,533,173046,0
ge-36,false,0.43,2254,346,2244,346,118933,0
ge-37,false,0.90,1236,470,1227,470,62901,0
ge-38,false,0.54,2958,375,2951,375,155399,0
ge-39,false,0.19,1412,162,1410,162,72185,0
ge-40,true,1.00,148,441,133,431,8828,0
ge-41,false,0.51,2076,285,2071,285,108424,0
ge-42,false,0.18,2452,190,2451,190,126862,0
ge-43,true,1.00,1696,597,1685,587,86572,0
ge-44,false,0.34,2468,292,2465,292,127063,0
ge-45,false,0.55,3992,376,3985,376,208401,0
ge-46,false,0.30,2473,250,2466,250,127508,0
ge-47,false,0.51,3160,290,3153,290,169630,0
ge-48,false,0.62,1948,392,1938,392,103875,0
ge-49,true,1.00,1041,480,1034,475,55132,0
ge-50,false,0.33,2295,256,2270,256,114818,0
ge-51,true,1.00,830,485,821,477,45097,0
ge-52,false,0.14,1412,113,1411,113,73854,0
ge-53,true,1.00,1632,502,1621,495,84097,0
ge-54,true,1.00,1516,526,1503,519,86661,0
ge-55,true,1.00,3260,648,3243,640,175410,0
ge-56,false,0.12,1669,182,1666,182,87417,0
ge-57,false,0.51,22819,999,22811,999,1185902,0
ge-58,true,1.00,379,533,361,526,21520,0
ge-59,false,0.50,3260,338,3254,338,175039,0
ge-60,false,0.21,28727,999,28724,999,1451448,0
ge-61,false,0.80,1249,414,1239,414,66687,0
ge-62,false,0.29,2755,231,2751,231,152035,0
ge-63,false,0.22,1167,155,1162,155,65993,0
ge-64,false,0.70,2543,433,2536,433,132572,0
ge-65,false,0.66,3592,476,3586,476,196372,0
ge-66,false,0.24,3412,247,3408,247,187686,0
ge-67,true,1.00,1575,560,1563,553,84770,0
ge-68,true,1.00,800,490,788,482,41159,0
ge-69,true,1.00,1763,489,1748,483,94574,0
ge-70,false,0.86,1423,461,1411,461,77737,0
ge-71,false,0.29,2418,259,2414,259,133937,0
ge-72,true,1.00,736,544,725,537,40509,0
ge-73,false,0.95,4697,625,4687,625,253525,0
ge-74,false,0.45,1678,247,1677,247,92047,0
ge-75,true,1.00,3439,608,3423,601,188522,0
ge-76,false,0.60,3920,432,3915,432,207605,0
ge-77,false,0.11,956,118,955,118,50818,0
ge-78,false,0.56,3185,395,3180,395,169556,0
ge-79,true,1.00,822,489,810,480,43827,0
ge-80,true,1.00,205,469,195,462,11120,0
ge-81,true,1.00,156,439,151,432,9423,0
ge-82,true,1.00,287,499,271,492,16505,0
ge-83,false,0.09,682,73,682,73,36844,0
ge-84,false,0.12,1567,127,1567,127,86701,0
ge-85,false,0.40,2648,278,2643,278,145512,0
ge-86,false,0.76,1667,449,1659,449,89071,0
ge-87,false,0.79,3550,461,3542,461,190715,0
ge-88,false,0.17,2144,168,2141,168,122280,0
ge-89,true,1.00,387,546,372,539,22003,0
ge-90,true,1.00,137,439,128,431,8507,0
ge-91,false,0.87,4035,535,4027,535,216702,0
ge-92,true,1.00,200,516,191,506,11879,0
ge-93,false,0.39,3604,308,3597,308,188225,0
ge-94,false,0.75,2294,496,2287,496,122423,0
ge-95,true,1.00,254,492,234,485,14998,0
ge-96,false,0.32,2129,248,2124,248,112080,0
ge-97,false,0.61,4323,482,4316,482,228667,0
ge-98,true,1.00,139,437,127,427,8742,0
ge-99,false,0.31,966,164,963,164,47747,0
ge-100,false,0.12,806,78,805,78,43008,0
