NDW:0.0
TTFW:1.6
DFPT:2.0
DFPAP:3.0
DFPMP:2.0
RIGHT_WINDOW_BORDER_X:55.0
level,win/fail,% travelled,run time,game ticks,planning time,total plannings,nodes evaluated,most backtracked nodes
patternOccur-1,false,0.58,2825,561,2812,561,168102,0
patternOccur-2,true,1.00,3053,844,3032,833,182943,0
patternOccur-3,true,1.00,7661,915,7639,910,456409,0
patternOccur-4,true,1.00,6326,953,6305,946,379297,0
patternOccur-5,true,1.00,1450,630,1438,624,86966,0
patternOccur-6,true,1.00,4150,846,4135,840,250322,0
patternOccur-7,false,0.91,6122,999,6092,999,369126,0
patternOccur-8,true,1.00,6567,887,6551,880,388764,0
patternOccur-9,false,0.69,3853,601,3830,601,229370,0
patternOccur-10,true,1.00,5096,962,5074,955,300600,0
patternOccur-11,false,0.06,1327,186,1323,186,84891,0
patternOccur-12,false,1.00,5189,999,5178,999,316128,0
patternOccur-13,false,0.04,536,76,532,76,33211,0
patternOccur-14,false,0.82,8633,997,8612,997,502199,0
patternOccur-15,false,0.59,4777,579,4769,579,279786,0
patternOccur-16,false,0.84,10661,978,10645,978,574766,0
patternOccur-17,true,1.00,4894,872,4866,865,262046,0
patternOccur-18,false,0.45,1854,378,1840,378,81690,0
patternOccur-19,false,0.82,10124,999,10109,999,638292,0
patternOccur-20,true,1.00,5806,930,5789,924,351874,0
patternOccur-21,true,1.00,8241,943,8223,938,506299,0
patternOccur-22,false,0.33,5857,469,5850,469,339342,0
patternOccur-23,true,1.00,8504,971,8479,964,499211,0
patternOccur-24,false,0.49,1134,406,1120,406,69626,0
patternOccur-25,true,1.00,2978,852,2959,845,179877,0
patternOccur-26,true,1.00,1108,711,1094,704,67189,0
patternOccur-27,false,0.77,4431,682,4418,682,261958,0
patternOccur-28,true,1.00,5112,851,5095,844,309359,0
patternOccur-29,true,1.00,3686,767,3674,760,211924,0
patternOccur-30,false,0.13,13682,999,13662,999,876946,0
patternOccur-31,false,0.77,9724,909,9711,909,595470,0
patternOccur-32,false,0.85,6294,999,6278,999,382497,0
patternOccur-33,true,1.00,6388,937,6367,930,384406,0
patternOccur-34,true,1.00,5093,834,5073,828,308006,0
patternOccur-35,true,1.00,2885,739,2865,732,174365,0
patternOccur-36,false,0.88,7945,999,7917,999,483198,0
patternOccur-37,false,0.61,1859,503,1850,503,111388,0
patternOccur-38,false,0.33,2571,368,2561,368,162019,0
patternOccur-39,false,0.29,6050,406,6047,406,367434,0
patternOccur-40,false,0.89,7690,999,7663,999,459259,0
patternOccur-41,true,1.00,4865,840,4852,828,295891,0
patternOccur-42,false,0.87,9809,993,9790,993,566157,0
patternOccur-43,true,1.00,3324,852,3313,844,197266,0
patternOccur-44,false,0.21,2689,206,2686,206,151792,0
patternOccur-45,false,0.93,5393,798,5374,798,309456,0
patternOccur-46,true,1.00,3401,821,3384,816,200410,0
patternOccur-47,false,0.34,3087,1008,3065,1008,191812,0
patternOccur-48,false,0.61,7194,719,7182,719,428593,0
patternOccur-49,false,0.93,7268,999,7241,999,420171,0
patternOccur-50,false,0.84,8691,854,8680,854,431567,0
patternOccur-51,false,0.88,5523,999,5507,999,333596,0
patternOccur-52,false,0.88,7124,999,7111,999,377306,0
patternOccur-53,false,0.15,1404,184,1399,184,82796,0
patternOccur-54,false,0.18,1891,206,1884,206,115533,0
patternOccur-55,false,0.36,3614,368,3606,368,220582,0
patternOccur-56,false,0.76,5910,803,5889,803,360722,0
patternOccur-57,true,1.00,5685,833,5671,826,330331,0
patternOccur-58,false,0.74,5453,673,5438,673,235608,0
patternOccur-59,true,1.00,6286,934,6270,926,361428,0
patternOccur-60,false,0.87,3973,754,3958,754,229858,0
patternOccur-61,false,0.60,6120,666,6106,666,363222,0
patternOccur-62,true,1.00,5268,882,5249,877,262284,0
patternOccur-63,false,0.04,699,66,697,66,43963,0
patternOccur-64,true,1.00,6134,936,6113,929,369563,0
patternOccur-65,true,1.00,3443,797,3425,791,194628,0
patternOccur-66,true,1.00,4177,859,4153,852,253625,0
patternOccur-67,true,1.00,5421,913,5401,906,321021,0
patternOccur-68,true,1.00,2645,744,2627,739,107698,0
patternOccur-69,false,0.03,1094,91,1092,91,59648,0
patternOccur-70,false,0.86,9717,903,9701,903,536348,0
patternOccur-71,false,0.16,1270,205,1267,205,76812,0
patternOccur-72,false,0.86,9700,996,9681,996,567504,0
patternOccur-73,false,0.43,1672,412,1661,412,98556,0
patternOccur-74,false,0.85,8110,913,8085,913,500573,0
patternOccur-75,false,0.95,7604,999,7580,999,427592,0
patternOccur-76,true,1.00,3825,860,3818,853,225833,0
patternOccur-77,true,1.00,1582,703,1568,697,95209,0
patternOccur-78,true,1.00,3287,824,3258,819,193848,0
patternOccur-79,false,0.88,6615,999,6596,999,395750,0
patternOccur-80,false,0.90,7103,830,7093,830,438680,0
patternOccur-81,false,0.57,4884,606,4869,606,290993,0
patternOccur-82,false,0.69,4518,667,4502,667,263413,0
patternOccur-83,true,1.00,2457,853,2442,843,152042,0
patternOccur-84,true,1.00,5825,935,5808,928,348065,0
patternOccur-85,false,0.27,4522,382,4515,382,272434,0
patternOccur-86,false,0.74,4870,700,4854,700,288192,0
patternOccur-87,false,0.75,1435,532,1415,532,86721,0
patternOccur-88,false,0.81,9064,999,9050,999,538704,0
patternOccur-89,true,1.00,4308,936,4286,929,251816,0
patternOccur-90,false,0.66,7261,728,7237,728,383858,0
patternOccur-91,true,1.00,5669,870,5646,863,294167,0
patternOccur-92,false,0.65,3358,600,3351,600,197645,0
patternOccur-93,true,1.00,3798,836,3784,828,213681,0
patternOccur-94,false,0.81,7762,843,7744,843,468637,0
patternOccur-95,false,0.17,3749,290,3748,290,226818,0
patternOccur-96,false,0.87,5295,902,5281,902,295648,0
patternOccur-97,true,1.00,7119,898,7103,892,415281,0
patternOccur-98,false,0.90,7226,969,7209,969,441206,0
patternOccur-99,true,1.00,2377,747,2360,742,139219,0
patternOccur-100,true,1.00,4611,729,4598,724,252878,0
