NDW:0.0
TTFW:1.2
DFPT:2.0
DFPAP:3.0
DFPMP:0.0
RIGHT_WINDOW_BORDER_X:350.0
level,win/fail,% travelled,run time,game ticks,planning time,total plannings,nodes evaluated,most backtracked nodes
ge-1,true,1.00,555,255,554,203,54751,0
ge-2,true,1.00,376,231,375,199,40833,0
ge-3,true,1.00,194,219,192,187,17029,0
ge-4,true,1.00,1036,240,1035,207,120346,0
ge-5,true,1.00,44,199,43,167,2823,0
ge-6,true,1.00,410,241,410,209,40059,0
ge-7,true,1.00,140,225,140,185,12315,0
ge-8,true,1.00,173,217,172,185,16533,0
ge-9,true,1.00,367,226,364,185,43704,0
ge-10,true,1.00,78,199,78,167,2644,0
ge-11,true,1.00,193,207,193,175,15565,0
ge-12,true,1.00,43,199,42,167,2609,0
ge-13,true,1.00,811,248,809,216,83926,0
ge-14,true,1.00,211,234,211,191,19749,0
ge-15,true,1.00,1297,228,1296,196,135324,0
ge-16,true,1.00,197,259,195,227,14235,0
ge-17,true,1.00,258,207,257,175,28280,0
ge-18,true,1.00,236,241,235,209,20692,0
ge-19,true,1.00,956,254,951,222,111126,0
ge-20,true,1.00,386,227,382,195,40142,0
ge-21,true,1.00,213,201,213,169,20147,0
ge-22,true,1.00,282,203,282,171,29568,0
ge-23,true,1.00,544,208,544,172,58799,0
ge-24,true,1.00,423,227,420,190,43234,0
ge-25,true,1.00,325,201,325,169,33885,0
ge-26,true,1.00,178,203,178,171,19164,0
ge-27,true,1.00,65,220,65,188,4362,0
ge-28,true,1.00,477,205,476,173,51264,0
ge-29,true,1.00,179,218,178,167,17465,0
ge-30,true,1.00,667,246,666,198,70745,0
ge-31,true,1.00,724,254,721,216,80212,0
ge-32,true,1.00,217,224,216,191,14256,0
ge-33,true,1.00,137,239,129,193,8434,0
ge-34,true,1.00,558,207,555,175,61862,0
ge-35,true,1.00,417,250,415,217,43641,0
ge-36,true,1.00,619,250,617,209,64226,0
ge-37,true,1.00,206,199,205,167,22716,0
ge-38,true,1.00,564,245,560,213,60768,0
ge-39,true,1.00,359,221,358,186,36496,0
ge-40,true,1.00,44,199,44,167,2717,0
ge-41,true,1.00,180,208,177,173,19011,0
ge-42,true,1.00,760,268,757,235,77984,0
ge-43,true,1.00,281,240,280,188,29850,0
ge-44,true,1.00,461,212,456,181,51717,0
ge-45,true,1.00,904,220,902,188,88179,0
ge-46,true,1.00,1335,263,1335,231,133103,0
ge-47,true,1.00,642,228,642,196,66732,0
ge-48,true,1.00,335,217,335,185,32232,0
ge-49,true,1.00,145,199,144,167,14626,0
ge-50,true,1.00,465,212,465,180,49572,0
ge-51,true,1.00,132,231,131,199,11052,0
ge-52,true,1.00,288,266,285,231,23896,0
ge-53,true,1.00,274,226,273,194,27953,0
ge-54,true,1.00,271,242,271,204,27847,0
ge-55,true,1.00,365,222,363,191,37394,0
ge-56,true,1.00,308,249,306,179,32023,0
ge-57,true,1.00,469,217,468,180,51407,0
ge-58,true,1.00,580,286,578,227,55464,0
ge-59,true,1.00,723,217,721,185,83377,0
ge-60,true,1.00,487,201,486,169,51354,0
ge-61,true,1.00,214,203,213,171,23995,0
ge-62,true,1.00,438,207,437,175,46339,0
ge-63,true,1.00,731,226,730,188,86423,0
ge-64,false,1.00,214,244,212,191,21089,0
ge-65,true,1.00,560,234,559,202,61936,0
ge-66,true,1.00,563,224,561,181,62405,0
ge-67,true,1.00,271,242,268,210,24559,0
ge-68,true,1.00,204,240,202,208,15857,0
ge-69,true,1.00,148,199,148,167,13782,0
ge-70,true,1.00,325,204,325,171,34182,0
ge-71,true,1.00,722,241,721,209,86766,0
ge-72,true,1.00,223,253,221,221,18306,0
ge-73,true,1.00,246,209,246,177,27788,0
ge-74,true,1.00,668,235,668,203,70298,0
ge-75,true,1.00,236,246,234,192,25517,0
ge-76,true,1.00,678,219,676,186,77277,0
ge-77,true,1.00,695,228,695,196,77303,0
ge-78,true,1.00,612,236,610,204,64551,0
ge-79,true,1.00,176,222,174,190,16779,0
ge-80,true,1.00,98,219,97,167,5850,0
ge-81,true,1.00,93,216,92,184,6126,0
ge-82,true,1.00,95,241,92,187,6609,0
ge-83,false,1.00,145,252,141,190,13037,0
ge-84,true,1.00,287,209,285,177,29245,0
ge-85,true,1.00,262,209,261,177,28056,0
ge-86,true,1.00,658,206,658,169,74328,0
ge-87,true,1.00,519,223,516,191,56891,0
ge-88,true,1.00,496,248,494,182,56842,0
ge-89,true,1.00,226,261,218,224,16995,0
ge-90,true,1.00,45,199,44,167,2852,0
ge-91,true,1.00,243,199,243,167,24461,0
ge-92,true,1.00,49,205,47,173,3243,0
ge-93,true,1.00,501,227,501,181,54922,0
ge-94,true,1.00,368,206,368,168,40593,0
ge-95,true,1.00,164,259,162,210,11854,0
ge-96,true,1.00,667,232,666,189,71997,0
ge-97,true,1.00,341,217,339,184,35529,0
ge-98,true,1.00,43,199,39,167,2584,0
ge-99,true,1.00,143,199,142,167,12037,0
ge-100,true,1.00,51,205,48,173,3389,0
