NDW:0.0
TTFW:2.0
DFPT:2.0
DFPAP:3.0
DFPMP:0.0
RIGHT_WINDOW_BORDER_X:235.0
level,win/fail,% travelled,run time,game ticks,planning time,total plannings,nodes evaluated,most backtracked nodes
patternCount-1,false,0.88,5446,464,5435,464,290913,0
patternCount-2,true,1.00,1324,461,1313,440,77884,0
patternCount-3,true,1.00,3467,485,3459,468,196399,0
patternCount-4,true,1.00,1478,479,1469,449,87237,0
patternCount-5,true,1.00,1695,500,1678,467,100213,0
patternCount-6,true,1.00,1072,431,1058,409,62234,0
patternCount-7,true,1.00,1616,433,1602,412,96675,0
patternCount-8,true,1.00,2902,475,2894,424,172342,0
patternCount-9,true,1.00,1505,458,1487,436,88688,0
patternCount-10,true,1.00,488,401,481,373,27736,0
patternCount-11,true,1.00,5319,600,5311,560,297140,0
patternCount-12,true,1.00,1093,437,1080,399,63095,0
patternCount-13,true,1.00,871,413,857,391,49817,0
patternCount-14,true,1.00,1337,405,1332,369,78791,0
patternCount-15,true,1.00,1790,505,1780,484,103428,0
patternCount-16,true,1.00,1062,398,1056,377,58037,0
patternCount-17,true,1.00,1851,568,1840,547,107050,0
patternCount-18,true,1.00,1733,474,1724,453,101573,0
patternCount-19,true,1.00,1095,389,1082,368,62926,0
patternCount-20,true,1.00,1283,466,1273,434,75184,0
patternCount-21,true,1.00,1363,453,1348,432,76762,0
patternCount-22,true,1.00,3481,518,3469,479,205429,0
patternCount-23,true,1.00,5845,558,5835,535,319449,0
patternCount-24,true,1.00,5691,457,5688,435,337846,0
patternCount-25,true,1.00,1505,490,1494,465,88070,0
patternCount-26,true,1.00,934,467,922,446,52360,0
patternCount-27,true,1.00,1312,399,1302,376,76741,0
patternCount-28,true,1.00,1526,483,1509,443,87801,0
patternCount-29,true,1.00,1744,455,1727,434,99953,0
patternCount-30,true,1.00,1295,486,1275,465,75532,0
patternCount-31,true,1.00,1395,456,1387,435,81173,0
patternCount-32,true,1.00,2297,505,2293,484,131620,0
patternCount-33,true,1.00,4003,543,3989,508,231455,0
patternCount-34,true,1.00,2909,543,2897,503,168047,0
patternCount-35,true,1.00,1635,491,1624,470,92640,0
patternCount-36,true,1.00,3489,572,3482,531,195892,0
patternCount-37,true,1.00,1078,401,1068,380,61035,0
patternCount-38,true,1.00,2885,491,2880,469,163716,0
patternCount-39,true,1.00,1458,481,1441,455,82628,0
patternCount-40,true,1.00,5423,517,5383,480,306505,0
patternCount-41,true,1.00,2469,490,2461,469,143582,0
patternCount-42,true,1.00,1625,455,1614,434,91665,0
patternCount-43,true,1.00,776,443,765,422,42578,0
patternCount-44,true,1.00,884,452,872,430,48680,0
patternCount-45,true,1.00,1934,483,1927,452,100733,0
patternCount-46,true,1.00,2593,470,2580,449,147627,0
patternCount-47,true,1.00,2232,502,2219,481,125105,0
patternCount-48,true,1.00,946,495,932,474,50866,0
patternCount-49,true,1.00,1628,456,1617,434,91089,0
patternCount-50,true,1.00,5211,567,5201,526,304956,0
patternCount-51,true,1.00,994,412,978,390,52014,0
patternCount-52,true,1.00,1094,452,1085,431,61748,0
patternCount-53,true,1.00,4681,512,4653,484,260575,0
patternCount-54,true,1.00,2030,536,2017,514,118052,0
patternCount-55,true,1.00,7112,514,7102,481,374554,0
patternCount-56,true,1.00,1668,438,1657,417,94729,0
patternCount-57,true,1.00,1018,472,1007,438,56119,0
patternCount-58,false,0.81,6694,522,6679,522,342890,0
patternCount-59,true,1.00,1390,457,1381,436,78546,0
patternCount-60,true,1.00,1575,475,1558,454,88661,0
patternCount-61,true,1.00,1539,459,1528,426,86321,0
patternCount-62,true,1.00,1706,499,1695,461,97480,0
patternCount-63,true,1.00,1148,448,1138,427,64886,0
patternCount-64,true,1.00,1156,441,1142,420,65171,0
patternCount-65,true,1.00,1459,437,1451,411,84057,0
patternCount-66,true,1.00,2279,499,2267,478,129191,0
patternCount-67,true,1.00,1662,471,1653,435,95117,0
patternCount-68,true,1.00,1021,444,1011,423,54745,0
patternCount-69,true,1.00,1380,491,1371,461,78404,0
patternCount-70,true,1.00,888,414,882,393,49310,0
patternCount-71,true,1.00,1541,519,1525,497,86802,0
patternCount-72,true,1.00,6855,511,6852,481,357303,0
patternCount-73,true,1.00,2514,530,2498,508,142372,0
patternCount-74,true,1.00,6476,509,6456,476,352181,0
patternCount-75,true,1.00,1434,499,1419,476,76920,0
patternCount-76,true,1.00,1672,472,1655,451,95532,0
patternCount-77,true,1.00,1494,399,1487,367,83117,0
patternCount-78,true,1.00,1607,477,1592,456,89347,0
patternCount-79,true,1.00,5225,540,5212,508,296054,0
patternCount-80,true,1.00,3526,493,3518,457,198792,0
patternCount-81,true,1.00,1476,454,1467,433,82964,0
patternCount-82,true,1.00,1254,428,1241,407,70774,0
patternCount-83,true,1.00,1253,487,1246,466,67898,0
patternCount-84,true,1.00,1012,456,1001,435,53629,0
patternCount-85,true,1.00,1263,440,1257,419,71846,0
patternCount-86,true,1.00,1085,437,1076,416,60542,0
patternCount-87,true,1.00,1505,469,1493,440,85205,0
patternCount-88,true,1.00,1534,462,1522,427,88193,0
patternCount-89,true,1.00,1212,434,1199,413,68454,0
patternCount-90,true,1.00,937,428,927,407,52489,0
patternCount-91,true,1.00,2287,498,2275,477,117918,0
patternCount-92,true,1.00,1150,500,1129,479,61506,0
patternCount-93,true,1.00,6852,569,6842,536,341475,0
patternCount-94,true,1.00,1772,467,1756,442,101181,0
patternCount-95,true,1.00,2261,456,2250,435,129121,0
patternCount-96,true,1.00,1231,475,1223,454,67962,0
patternCount-97,false,0.82,4253,426,4243,426,221831,0
patternCount-98,true,1.00,1755,487,1741,465,98325,0
patternCount-99,true,1.00,1300,440,1286,419,73939,0
patternCount-100,true,1.00,971,425,962,404,52613,0
