NDW:0.0
TTFW:1.8
DFPT:2.0
DFPAP:3.0
DFPMP:1.0
RIGHT_WINDOW_BORDER_X:95.0
level,win/fail,% travelled,run time,game ticks,planning time,total plannings,nodes evaluated,most backtracked nodes
patternCount-1,false,0.67,3167,503,3161,503,305472,0
patternCount-2,true,1.00,1606,509,1605,501,169008,0
patternCount-3,false,0.91,4533,584,4531,584,398166,0
patternCount-4,true,1.00,1824,510,1818,485,174496,0
patternCount-5,true,1.00,2050,537,2045,528,199522,0
patternCount-6,true,1.00,984,505,977,497,105358,0
patternCount-7,true,1.00,2416,550,2412,542,252771,0
patternCount-8,false,0.84,2512,438,2510,438,257692,0
patternCount-9,true,1.00,1839,584,1836,576,190211,0
patternCount-10,true,1.00,385,430,382,422,45399,0
patternCount-11,false,0.83,6338,713,6332,713,653473,0
patternCount-12,true,1.00,855,480,852,470,90380,0
patternCount-13,true,1.00,611,453,609,445,63638,0
patternCount-14,true,1.00,2125,567,2123,555,235448,0
patternCount-15,true,1.00,1732,571,1730,563,184218,0
patternCount-16,true,1.00,1578,503,1578,495,161445,0
patternCount-17,true,1.00,1722,598,1717,590,175899,0
patternCount-18,false,0.98,3847,579,3846,579,336787,0
patternCount-19,true,1.00,988,470,987,462,97660,0
patternCount-20,true,1.00,2294,556,2293,547,243457,0
patternCount-21,true,1.00,845,468,841,460,93431,0
patternCount-22,true,1.00,7103,750,7103,725,710385,0
patternCount-23,false,0.67,4546,501,4543,501,410388,0
patternCount-24,false,0.87,15003,999,15001,999,1524795,0
patternCount-25,true,1.00,1291,510,1289,501,131941,0
patternCount-26,true,1.00,759,514,756,505,78482,0
patternCount-27,true,1.00,2389,525,2384,517,238792,0
patternCount-28,true,1.00,1252,520,1252,508,134349,0
patternCount-29,true,1.00,2011,557,2009,549,200762,0
patternCount-30,true,1.00,702,475,700,467,83311,0
patternCount-31,true,1.00,2577,634,2571,626,268731,0
patternCount-32,true,1.00,1963,590,1960,582,190169,0
patternCount-33,false,0.82,5167,569,5164,569,472483,0
patternCount-34,true,1.00,4351,693,4350,683,441888,0
patternCount-35,true,1.00,1454,536,1450,528,154429,0
patternCount-36,true,1.00,3508,643,3505,625,335505,0
patternCount-37,true,1.00,1127,443,1122,435,111859,0
patternCount-38,true,1.00,9099,819,9095,811,888851,0
patternCount-39,true,1.00,1208,523,1204,515,121505,0
patternCount-40,false,0.71,5391,582,5390,582,621830,0
patternCount-41,false,0.62,1841,433,1835,433,206466,0
patternCount-42,true,1.00,1856,607,1852,597,210530,0
patternCount-43,true,1.00,808,549,807,541,95369,0
patternCount-44,true,1.00,914,476,913,468,96463,0
patternCount-45,true,1.00,1454,615,1447,605,142688,0
patternCount-46,true,1.00,2277,558,2273,550,233200,0
patternCount-47,true,1.00,2417,580,2413,572,248290,0
patternCount-48,true,1.00,1647,568,1645,560,179486,0
patternCount-49,true,1.00,1895,592,1894,573,190978,0
patternCount-50,false,0.89,7469,681,7466,681,747570,0
patternCount-51,true,1.00,934,476,931,468,94799,0
patternCount-52,true,1.00,1278,487,1276,479,137401,0
patternCount-53,false,0.75,6284,999,6276,999,648836,0
patternCount-54,true,1.00,1749,526,1746,518,186749,0
patternCount-55,false,0.55,5263,443,5258,443,512927,0
patternCount-56,true,1.00,1695,541,1692,533,177483,0
patternCount-57,true,1.00,872,461,867,452,89964,0
patternCount-58,true,1.00,803,488,798,480,100914,0
patternCount-59,true,1.00,2057,574,2052,566,212562,0
patternCount-60,true,1.00,1377,491,1373,483,136284,0
patternCount-61,true,1.00,1490,517,1486,508,145125,0
patternCount-62,true,1.00,2025,590,2020,576,212997,0
patternCount-63,true,1.00,1090,524,1089,516,125910,0
patternCount-64,true,1.00,843,448,840,440,95792,0
patternCount-65,true,1.00,1866,487,1863,478,195838,0
patternCount-66,true,1.00,1634,522,1629,514,170070,0
patternCount-67,true,1.00,2479,578,2475,547,258002,0
patternCount-68,true,1.00,841,436,839,428,92219,0
patternCount-69,true,1.00,1673,557,1669,549,178174,0
patternCount-70,true,1.00,1312,487,1309,479,155283,0
patternCount-71,true,1.00,1834,581,1832,573,193798,0
patternCount-72,false,0.69,20084,999,20081,999,1930616,0
patternCount-73,true,1.00,3104,663,3100,655,326755,0
patternCount-74,false,0.65,3645,500,3644,500,375726,0
patternCount-75,true,1.00,1441,493,1440,485,143040,0
patternCount-76,true,1.00,1974,537,1967,529,211970,0
patternCount-77,true,1.00,1470,537,1467,527,146388,0
patternCount-78,true,1.00,2699,572,2697,564,302878,0
patternCount-79,false,0.74,4445,528,4440,528,471488,0
patternCount-80,false,0.93,6497,701,6495,701,598204,0
patternCount-81,true,1.00,1555,517,1552,509,151906,0
patternCount-82,true,1.00,1260,518,1257,510,138755,0
patternCount-83,true,1.00,1058,492,1057,484,111726,0
patternCount-84,true,1.00,1071,487,1068,479,114014,0
patternCount-85,true,1.00,2181,485,2177,477,227924,0
patternCount-86,true,1.00,1208,531,1206,523,128380,0
patternCount-87,true,1.00,1505,528,1502,515,161489,0
patternCount-88,true,1.00,3061,554,3057,544,325473,0
patternCount-89,true,1.00,1701,558,1700,550,178386,0
patternCount-90,true,1.00,715,469,713,461,80575,0
patternCount-91,true,1.00,2981,602,2976,594,288479,0
patternCount-92,true,1.00,1078,532,1075,524,114976,0
patternCount-93,false,0.82,5338,566,5332,566,528777,0
patternCount-94,true,1.00,3145,554,3143,545,321793,0
patternCount-95,true,1.00,3648,565,3647,557,407855,0
patternCount-96,true,1.00,1255,519,1252,511,123848,0
patternCount-97,false,0.80,11319,705,11317,705,1114664,0
patternCount-98,true,1.00,1811,564,1809,556,189891,0
patternCount-99,true,1.00,1684,549,1679,541,186778,0
patternCount-100,true,1.00,819,507,818,499,93121,0
