NDW:0.0
TTFW:1.8
DFPT:2.0
DFPAP:3.0
DFPMP:2.0
RIGHT_WINDOW_BORDER_X:295.0
level,win/fail,% travelled,run time,game ticks,planning time,total plannings,nodes evaluated,most backtracked nodes
hopper-1,true,1.00,1075,321,1068,294,61578,0
hopper-2,true,1.00,1198,317,1192,290,68478,0
hopper-3,false,0.25,918,83,916,83,45888,0
hopper-4,false,0.28,928,94,926,94,48855,0
hopper-5,true,1.00,983,316,973,289,56844,0
hopper-6,true,1.00,1032,313,1025,282,59827,0
hopper-7,false,0.84,1483,255,1480,255,78260,0
hopper-8,false,0.42,1191,141,1190,141,61534,0
hopper-9,true,1.00,1224,317,1211,290,70094,0
hopper-10,true,1.00,929,315,923,288,55363,0
hopper-11,true,1.00,740,314,736,288,42042,0
hopper-12,true,1.00,1082,325,1078,293,61797,0
hopper-13,false,0.40,1952,146,1951,146,96341,0
hopper-14,true,1.00,968,328,965,290,56916,0
hopper-15,true,1.00,1039,301,1030,274,60702,0
hopper-16,false,0.55,1266,169,1264,169,66084,0
hopper-17,true,1.00,935,315,925,288,53989,0
hopper-18,true,1.00,1020,310,1015,283,58864,0
hopper-19,true,1.00,830,311,818,284,49682,0
hopper-20,true,1.00,1218,332,1213,304,70792,0
hopper-21,false,0.62,1414,199,1410,199,75098,0
hopper-22,false,0.33,1030,108,1030,108,53132,0
hopper-23,true,1.00,1018,310,1013,283,60103,0
hopper-24,true,1.00,680,311,671,283,39114,0
hopper-25,true,1.00,970,309,964,282,58091,0
hopper-26,true,1.00,1106,301,1101,274,64215,0
hopper-27,true,1.00,933,299,926,272,55238,0
hopper-28,false,0.86,2065,288,2061,288,115827,0
hopper-29,false,0.26,918,87,915,87,46380,0
hopper-30,true,1.00,889,336,882,307,50762,0
hopper-31,false,0.77,1701,242,1699,242,90396,0
hopper-32,true,1.00,1258,299,1250,272,74595,0
hopper-33,false,0.50,1103,173,1100,173,55935,0
hopper-34,false,0.32,1088,102,1087,102,55158,0
hopper-35,true,1.00,1499,330,1491,302,87483,0
hopper-36,true,1.00,708,314,696,288,38283,0
hopper-37,false,0.51,1109,166,1106,166,53721,0
hopper-38,false,0.53,1121,172,1116,172,60570,0
hopper-39,false,0.53,1278,171,1278,171,66634,0
hopper-40,true,1.00,1105,324,1095,292,62088,0
hopper-41,true,1.00,1674,301,1668,274,96641,0
hopper-42,true,1.00,871,317,864,290,47951,0
hopper-43,false,0.45,1508,142,1508,142,79710,0
hopper-44,true,1.00,1275,315,1265,287,74193,0
hopper-45,false,0.43,1190,150,1188,150,61798,0
hopper-46,false,0.67,1680,226,1677,226,92862,0
hopper-47,true,1.00,1462,305,1457,278,85732,0
hopper-48,true,1.00,1256,327,1249,300,72725,0
hopper-49,true,1.00,1226,331,1224,304,69886,0
hopper-50,false,0.63,1410,201,1404,201,74424,0
hopper-51,false,0.34,1024,109,1024,109,51789,0
hopper-52,true,1.00,759,307,754,280,44538,0
hopper-53,false,0.63,2117,222,2116,222,113539,0
hopper-54,true,1.00,624,297,614,270,35936,0
hopper-55,true,1.00,873,342,866,305,51173,0
hopper-56,true,1.00,746,297,738,270,43853,0
hopper-57,true,1.00,1186,325,1178,299,67135,0
hopper-58,false,0.58,1379,180,1376,180,73085,0
hopper-59,true,1.00,760,306,752,280,43185,0
hopper-60,true,1.00,1100,321,1092,294,64838,0
hopper-61,false,0.83,1843,250,1839,250,101054,0
hopper-62,true,1.00,1247,330,1239,303,71841,0
hopper-63,false,0.23,1457,95,1455,95,70023,0
hopper-64,true,1.00,1053,321,1046,294,59786,0
hopper-65,true,1.00,1000,328,993,289,58835,0
hopper-66,false,0.75,1432,251,1425,251,74757,0
hopper-67,true,1.00,980,326,976,299,55924,0
hopper-68,true,1.00,881,326,872,299,46828,0
hopper-69,false,0.84,1657,269,1648,269,83698,0
hopper-70,true,1.00,1207,310,1199,283,65468,0
hopper-71,true,1.00,706,303,700,276,37459,0
hopper-72,true,1.00,1231,305,1221,278,61000,0
hopper-73,true,1.00,1036,315,1032,288,57317,0
hopper-74,true,1.00,854,305,845,278,46125,0
hopper-75,true,1.00,1262,317,1258,291,71061,0
hopper-76,false,0.48,1342,149,1339,149,69798,0
hopper-77,true,1.00,957,339,945,302,51540,0
hopper-78,true,1.00,1095,308,1089,279,63871,0
hopper-79,true,1.00,823,316,816,279,47020,0
hopper-80,true,1.00,756,315,744,288,41906,0
hopper-81,false,0.39,1227,123,1222,123,62810,0
hopper-82,false,0.46,2534,183,2534,183,123005,0
hopper-83,true,1.00,1432,328,1425,302,84824,0
hopper-84,true,1.00,1167,303,1160,276,68122,0
hopper-85,true,1.00,1148,345,1143,318,65730,0
hopper-86,true,1.00,1065,315,1060,288,61828,0
hopper-87,true,1.00,1069,313,1063,286,61974,0
hopper-88,true,1.00,830,327,819,300,47735,0
hopper-89,true,1.00,906,338,898,311,53146,0
hopper-90,true,1.00,937,316,933,288,54271,0
hopper-91,true,1.00,1111,322,1103,296,65228,0
hopper-92,true,1.00,1209,319,1199,292,69155,0
hopper-93,true,1.00,780,313,774,286,45621,0
hopper-94,false,0.65,1540,211,1534,211,82751,0
hopper-95,true,1.00,1268,309,1264,282,74884,0
hopper-96,true,1.00,1223,297,1217,270,73278,0
hopper-97,true,1.00,1212,312,1203,285,70798,0
hopper-98,true,1.00,1456,323,1447,296,83970,0
hopper-99,true,1.00,1863,326,1858,291,105539,0
hopper-100,true,1.00,1156,328,1147,290,67074,0
