NDW:0.0
TTFW:0.8
DFPT:2.0
DFPAP:3.0
DFPMP:2.0
RIGHT_WINDOW_BORDER_X:295.0
level,win/fail,% travelled,run time,game ticks,planning time,total plannings,nodes evaluated,most backtracked nodes
patternWeightCount-1,true,1.00,3014,469,3010,417,306091,0
patternWeightCount-2,true,1.00,477,402,476,368,46860,0
patternWeightCount-3,true,1.00,654,398,652,371,59221,0
patternWeightCount-4,true,1.00,455,381,451,355,42427,0
patternWeightCount-5,true,1.00,1546,451,1544,413,149631,0
patternWeightCount-6,true,1.00,1490,402,1486,374,152655,0
patternWeightCount-7,true,1.00,831,427,829,400,77460,0
patternWeightCount-8,true,1.00,451,359,449,332,38125,0
patternWeightCount-9,true,1.00,1338,427,1335,400,136025,0
patternWeightCount-10,true,1.00,819,441,813,413,77118,0
patternWeightCount-11,true,1.00,469,387,468,360,42967,0
patternWeightCount-12,true,1.00,1062,425,1058,398,99768,0
patternWeightCount-13,true,1.00,598,348,595,321,60473,0
patternWeightCount-14,true,1.00,613,396,611,357,61916,0
patternWeightCount-15,true,1.00,1142,368,1138,342,113836,0
patternWeightCount-16,true,1.00,2498,453,2497,411,263712,0
patternWeightCount-17,true,1.00,609,420,607,393,58343,0
patternWeightCount-18,true,1.00,672,389,669,363,66837,0
patternWeightCount-19,true,1.00,544,405,540,379,48297,0
patternWeightCount-20,true,1.00,5921,450,5920,405,526014,0
patternWeightCount-21,true,1.00,451,400,450,372,39705,0
patternWeightCount-22,true,1.00,1932,450,1931,414,201528,0
patternWeightCount-23,true,1.00,582,401,581,374,54657,0
patternWeightCount-24,true,1.00,782,368,782,341,78271,0
patternWeightCount-25,true,1.00,1264,400,1255,373,123368,0
patternWeightCount-26,true,1.00,1513,404,1512,365,154456,0
patternWeightCount-27,true,1.00,1465,436,1460,404,144857,0
patternWeightCount-28,true,1.00,917,374,917,348,89379,0
patternWeightCount-29,true,1.00,1053,405,1050,378,99270,0
patternWeightCount-30,true,1.00,3086,473,3084,423,266268,0
patternWeightCount-31,true,1.00,1630,427,1628,401,138855,0
patternWeightCount-32,true,1.00,593,394,589,367,52096,0
patternWeightCount-33,true,1.00,591,387,589,360,50866,0
patternWeightCount-34,true,1.00,869,381,868,354,85787,0
patternWeightCount-35,true,1.00,1818,425,1816,398,167215,0
patternWeightCount-36,true,1.00,1128,406,1125,380,111746,0
patternWeightCount-37,true,1.00,539,385,535,359,48453,0
patternWeightCount-38,true,1.00,2146,412,2144,374,197599,0
patternWeightCount-39,true,1.00,755,393,754,355,73155,0
patternWeightCount-40,true,1.00,955,415,953,388,92551,0
patternWeightCount-41,true,1.00,1421,435,1421,397,140870,0
patternWeightCount-42,false,0.88,2552,401,2550,401,233788,0
patternWeightCount-43,true,1.00,822,395,819,369,78476,0
patternWeightCount-44,true,1.00,1017,444,1013,398,103131,0
patternWeightCount-45,true,1.00,2333,448,2330,401,220348,0
patternWeightCount-46,true,1.00,5022,515,5022,475,420435,0
patternWeightCount-47,true,1.00,596,394,594,368,56485,0
patternWeightCount-48,true,1.00,620,405,616,378,59273,0
patternWeightCount-49,true,1.00,905,395,903,368,86562,0
patternWeightCount-50,true,1.00,980,410,975,383,91364,0
patternWeightCount-51,true,1.00,886,392,883,350,87790,0
patternWeightCount-52,true,1.00,1079,393,1075,353,107701,0
patternWeightCount-53,true,1.00,2323,413,2321,378,221290,0
patternWeightCount-54,true,1.00,782,464,780,437,73646,0
patternWeightCount-55,true,1.00,1106,405,1106,378,102892,0
patternWeightCount-56,true,1.00,1277,417,1276,390,127248,0
patternWeightCount-57,true,1.00,353,367,350,340,35390,0
patternWeightCount-58,true,1.00,924,402,923,367,92203,0
patternWeightCount-59,true,1.00,412,378,403,351,37754,0
patternWeightCount-60,true,1.00,1138,474,1135,436,107751,0
patternWeightCount-61,true,1.00,818,377,816,350,82872,0
patternWeightCount-62,true,1.00,1698,424,1690,385,172412,0
patternWeightCount-63,true,1.00,969,409,969,382,93849,0
patternWeightCount-64,true,1.00,1336,423,1332,396,134641,0
patternWeightCount-65,true,1.00,1075,437,1072,410,101741,0
patternWeightCount-66,true,1.00,790,401,787,374,72912,0
patternWeightCount-67,true,1.00,803,384,802,358,73985,0
patternWeightCount-68,true,1.00,932,445,928,418,65555,0
patternWeightCount-69,true,1.00,1556,415,1554,362,148476,0
patternWeightCount-70,true,1.00,902,416,900,376,88728,0
patternWeightCount-71,true,1.00,828,405,826,370,78820,0
patternWeightCount-72,true,1.00,3521,448,3517,397,301108,0
patternWeightCount-73,true,1.00,4913,443,4908,402,448857,0
patternWeightCount-74,true,1.00,650,382,647,356,63464,0
patternWeightCount-75,true,1.00,871,406,871,380,81658,0
patternWeightCount-76,true,1.00,904,439,901,412,88542,0
patternWeightCount-77,true,1.00,835,395,833,369,82639,0
patternWeightCount-78,true,1.00,2422,485,2421,456,209015,0
patternWeightCount-79,true,1.00,516,401,513,375,50521,0
patternWeightCount-80,true,1.00,1226,448,1224,421,119947,0
patternWeightCount-81,true,1.00,2939,416,2936,381,262156,0
patternWeightCount-82,true,1.00,244,394,238,350,20786,0
patternWeightCount-83,true,1.00,684,387,682,359,67934,0
patternWeightCount-84,true,1.00,669,394,668,367,62123,0
patternWeightCount-85,true,1.00,1377,415,1376,384,142795,0
patternWeightCount-86,false,0.94,2317,395,2317,395,211050,0
patternWeightCount-87,true,1.00,4544,436,4543,397,385114,0
patternWeightCount-88,true,1.00,1059,403,1054,374,103306,0
patternWeightCount-89,true,1.00,565,372,562,345,56862,0
patternWeightCount-90,true,1.00,4043,439,4039,408,371853,0
patternWeightCount-91,true,1.00,993,399,993,370,97690,0
patternWeightCount-92,true,1.00,3602,495,3601,447,361835,0
patternWeightCount-93,true,1.00,3526,420,3525,381,314533,0
patternWeightCount-94,true,1.00,1145,419,1143,392,109670,0
patternWeightCount-95,true,1.00,1259,415,1256,389,118064,0
patternWeightCount-96,true,1.00,629,401,627,374,59027,0
patternWeightCount-97,true,1.00,748,343,746,317,71793,0
patternWeightCount-98,true,1.00,3889,452,3889,415,374031,0
patternWeightCount-99,true,1.00,1003,443,1001,410,98928,0
patternWeightCount-100,true,1.00,775,379,772,353,74708,0
