NDW:0.0
TTFW:0.2
DFPT:2.0
DFPAP:3.0
DFPMP:20.0
RIGHT_WINDOW_BORDER_X:195.0
level,win/fail,% travelled,run time,game ticks,planning time,total plannings,nodes evaluated,most backtracked nodes
Krys-1,true,1.00,11137,580,11134,549,783037,0
Krys-2,true,1.00,5207,430,5202,410,320479,0
Krys-3,false,0.70,27595,999,27594,999,1705794,0
Krys-4,true,1.00,8003,504,8001,485,534937,0
Krys-5,true,1.00,5094,380,5092,356,392151,0
Krys-6,true,1.00,3779,360,3776,337,259169,0
Krys-7,true,1.00,2762,336,2762,311,185687,0
Krys-8,true,1.00,5682,404,5678,367,369415,0
Krys-9,true,1.00,5209,385,5206,364,385466,0
Krys-10,true,1.00,3875,342,3873,314,270456,0
Krys-11,true,1.00,3775,391,3773,359,233299,0
Krys-12,false,0.70,26318,999,26316,999,1654732,0
Krys-13,true,1.00,7376,454,7372,417,557152,0
Krys-14,true,1.00,2854,351,2850,320,180622,0
Krys-15,true,1.00,8008,499,8005,462,581436,0
Krys-16,true,1.00,5118,405,5113,380,314191,0
Krys-17,true,1.00,6059,426,6057,394,412400,0
Krys-18,true,1.00,6094,473,6092,439,392851,0
Krys-19,true,1.00,4286,344,4285,315,320989,0
Krys-20,true,1.00,8456,507,8452,487,563189,0
Krys-21,true,1.00,3728,326,3725,296,289196,0
Krys-22,true,1.00,4500,347,4498,317,346875,0
Krys-23,true,1.00,4611,387,4608,350,304909,0
Krys-24,true,1.00,7166,419,7163,384,518529,0
Krys-25,true,1.00,4866,371,4866,343,331082,0
Krys-26,true,1.00,4215,320,4215,295,343642,0
Krys-27,true,1.00,5672,416,5668,389,399472,0
Krys-28,true,1.00,9622,521,9621,482,656084,0
Krys-29,true,1.00,5738,405,5738,383,374583,0
Krys-30,true,1.00,6319,430,6317,408,409135,0
Krys-31,true,1.00,6506,440,6504,410,413625,0
Krys-32,true,1.00,4868,378,4867,360,313412,0
Krys-33,true,1.00,2788,328,2783,300,176447,0
Krys-34,true,1.00,7286,469,7284,428,499139,0
Krys-35,true,1.00,3969,348,3966,320,289388,0
Krys-36,false,0.91,24200,999,24197,999,1584932,0
Krys-37,true,1.00,7519,451,7517,431,541905,0
Krys-38,true,1.00,8526,472,8526,437,700046,0
Krys-39,false,0.91,26088,999,26087,999,1643739,0
Krys-40,true,1.00,7534,439,7531,413,535226,0
Krys-41,false,0.70,26671,999,26667,999,1743537,0
Krys-42,true,1.00,4904,361,4903,340,355130,0
Krys-43,true,1.00,2497,281,2496,250,175798,0
Krys-44,true,1.00,9106,486,9105,455,640273,0
Krys-45,true,1.00,4646,383,4645,362,286968,0
Krys-46,true,1.00,6458,462,6456,429,411901,0
Krys-47,true,1.00,6322,436,6318,401,414989,0
Krys-48,true,1.00,3544,303,3543,282,268359,0
Krys-49,true,1.00,5611,411,5608,378,359145,0
Krys-50,false,0.70,26301,999,26297,999,1712842,0
Krys-51,true,1.00,6012,393,6008,373,423093,0
Krys-52,true,1.00,7523,460,7520,440,454959,0
Krys-53,true,1.00,4874,397,4871,370,307326,0
Krys-54,true,1.00,7638,468,7634,443,537201,0
Krys-55,true,1.00,6097,427,6092,394,399989,0
Krys-56,false,0.59,27710,999,27706,999,1672008,0
Krys-57,true,1.00,5589,414,5585,388,434809,0
Krys-58,true,1.00,5080,421,5078,399,338421,0
Krys-59,true,1.00,7243,502,7241,465,438893,0
Krys-60,false,0.91,25280,999,25276,999,1684631,0
Krys-61,true,1.00,5381,430,5378,396,352856,0
Krys-62,true,1.00,4025,383,4023,347,249541,0
Krys-63,true,1.00,8775,560,8766,526,574926,0
Krys-64,true,1.00,6702,442,6699,405,453311,0
Krys-65,true,1.00,6121,441,6117,421,400293,0
Krys-66,false,0.78,4967,296,4965,296,307216,0
Krys-67,false,0.70,5993,326,5992,326,393272,0
Krys-68,true,1.00,5137,386,5136,349,394855,0
Krys-69,true,1.00,12539,729,12532,698,834971,0
Krys-70,true,1.00,8744,511,8742,483,610516,0
Krys-71,true,1.00,7027,428,7026,402,537340,0
Krys-72,true,1.00,7224,485,7222,464,451549,0
Krys-73,true,1.00,8388,490,8387,459,549377,0
Krys-74,true,1.00,3835,377,3832,340,257485,0
Krys-75,true,1.00,3418,375,3414,348,213697,0
Krys-76,true,1.00,5303,374,5298,352,418198,0
Krys-77,true,1.00,5467,389,5465,362,383490,0
Krys-78,false,0.91,26068,999,26065,999,1717373,0
Krys-79,true,1.00,5686,413,5683,392,350848,0
Krys-80,true,1.00,3333,352,3330,331,215501,0
Krys-81,true,1.00,4996,372,4994,346,337288,0
Krys-82,true,1.00,2502,317,2499,290,163540,0
Krys-83,true,1.00,6353,397,6348,377,441503,0
Krys-84,true,1.00,1949,316,1944,275,130446,0
Krys-85,true,1.00,8049,508,8048,481,508187,0
Krys-86,true,1.00,4296,363,4291,341,280467,0
Krys-87,true,1.00,3780,384,3779,363,237383,0
Krys-88,true,1.00,5584,425,5581,393,370505,0
Krys-89,true,1.00,4659,370,4657,339,298974,0
Krys-90,true,1.00,5789,376,5787,355,447130,0
Krys-91,true,1.00,2200,315,2198,283,147501,0
Krys-92,true,1.00,7637,433,7634,412,515689,0
Krys-93,true,1.00,3952,353,3949,324,278477,0
Krys-94,true,1.00,3887,336,3883,309,288599,0
Krys-95,true,1.00,3129,338,3126,311,201036,0
Krys-96,true,1.00,8003,473,8002,433,656402,0
Krys-97,true,1.00,5281,437,5279,405,342286,0
Krys-98,true,1.00,10187,544,10184,521,642621,0
Krys-99,true,1.00,6532,463,6526,440,395781,0
Krys-100,true,1.00,5850,379,5841,346,443292,0
