NDW:0.0
TTFW:1.0
DFPT:2.0
DFPAP:3.0
DFPMP:1.0
RIGHT_WINDOW_BORDER_X:75.0
level,win/fail,% travelled,run time,game ticks,planning time,total plannings,nodes evaluated,most backtracked nodes
patternCount-1,false,0.67,4093,647,4086,647,372133,0
patternCount-2,true,1.00,3170,832,3164,823,326702,0
patternCount-3,false,0.92,5016,831,5011,831,456103,0
patternCount-4,false,0.98,5320,731,5319,731,477621,0
patternCount-5,true,1.00,1992,670,1987,662,194097,0
patternCount-6,true,1.00,1725,618,1722,611,169502,0
patternCount-7,true,1.00,2538,716,2537,701,251804,0
patternCount-8,false,0.86,4860,720,4854,720,467103,0
patternCount-9,false,0.08,1439,151,1439,151,152002,0
patternCount-10,true,1.00,697,543,694,536,78924,0
patternCount-11,false,0.77,6972,735,6967,735,759953,0
patternCount-12,true,1.00,1619,724,1617,716,195054,0
patternCount-13,true,1.00,1329,647,1328,640,132094,0
patternCount-14,true,1.00,4128,805,4126,748,384945,0
patternCount-15,true,1.00,1853,612,1850,605,189205,0
patternCount-16,true,1.00,2202,658,2172,651,212946,0
patternCount-17,true,1.00,1873,549,1873,542,179296,0
patternCount-18,false,0.98,3729,640,3726,640,350517,0
patternCount-19,true,1.00,1278,620,1276,613,126937,0
patternCount-20,true,1.00,2992,743,2987,735,288604,0
patternCount-21,true,1.00,2680,712,2674,705,266510,0
patternCount-22,false,0.80,5497,759,5492,759,531975,0
patternCount-23,false,0.67,3316,456,3313,456,289710,0
patternCount-24,false,0.63,9097,816,9093,816,889815,0
patternCount-25,true,1.00,1531,562,1525,554,145824,0
patternCount-26,true,1.00,1138,589,1133,581,112160,0
patternCount-27,true,1.00,1929,631,1927,624,194978,0
patternCount-28,true,1.00,2872,748,2871,741,279198,0
patternCount-29,true,1.00,2142,707,2137,699,215269,0
patternCount-30,true,1.00,1595,653,1589,646,164893,0
patternCount-31,true,1.00,3518,748,3515,740,333518,0
patternCount-32,false,0.64,3619,999,3611,999,330575,0
patternCount-33,false,0.64,16613,999,16613,999,1443469,0
patternCount-34,true,1.00,6556,984,6555,976,615311,0
patternCount-35,true,1.00,1507,601,1505,593,150237,0
patternCount-36,true,1.00,5327,859,5323,815,469050,0
patternCount-37,true,1.00,2455,717,2452,710,231200,0
patternCount-38,true,1.00,7628,969,7625,962,715843,0
patternCount-39,true,1.00,1495,662,1491,653,151111,0
patternCount-40,false,0.65,4227,614,4222,614,431597,0
patternCount-41,false,0.61,2335,999,2330,999,240438,0
patternCount-42,true,1.00,1194,593,1191,585,124528,0
patternCount-43,true,1.00,2333,656,2330,648,235283,0
patternCount-44,true,1.00,1667,691,1664,684,172016,0
patternCount-45,true,1.00,3535,881,3527,874,336113,0
patternCount-46,true,1.00,3545,780,3538,773,348445,0
patternCount-47,true,1.00,5779,802,5773,794,543050,0
patternCount-48,true,1.00,2616,640,2613,633,292067,0
patternCount-49,true,1.00,3860,835,3856,827,359451,0
patternCount-50,false,0.89,8227,895,8225,895,823722,0
patternCount-51,true,1.00,2551,673,2548,665,262369,0
patternCount-52,true,1.00,1623,590,1620,582,159147,0
patternCount-53,false,0.77,7206,728,7205,728,658680,0
patternCount-54,true,1.00,4676,681,4673,674,481428,0
patternCount-55,false,0.55,3445,485,3445,485,336779,0
patternCount-56,true,1.00,3419,740,3415,733,345648,0
patternCount-57,true,1.00,1436,651,1435,644,141397,0
patternCount-58,false,0.80,3720,690,3715,690,381820,0
patternCount-59,true,1.00,2059,587,2055,580,202021,0
patternCount-60,true,1.00,2668,664,2666,657,247408,0
patternCount-61,true,1.00,2704,716,2702,709,252821,0
patternCount-62,true,1.00,3288,680,3285,669,320838,0
patternCount-63,true,1.00,1499,685,1489,677,167775,0
patternCount-64,true,1.00,1484,661,1483,653,170819,0
patternCount-65,true,1.00,1430,568,1429,561,144766,0
patternCount-66,true,1.00,3392,614,3389,607,334180,0
patternCount-67,true,1.00,7612,841,7611,816,666839,0
patternCount-68,true,1.00,1302,660,1295,653,136064,0
patternCount-69,true,1.00,1441,623,1440,616,153725,0
patternCount-70,true,1.00,1951,659,1948,652,227869,0
patternCount-71,true,1.00,3158,750,3156,737,337929,0
patternCount-72,false,0.66,6216,662,6211,662,611788,0
patternCount-73,true,1.00,4713,847,4711,840,432630,0
patternCount-74,false,0.57,4288,432,4285,432,402837,0
patternCount-75,true,1.00,3240,768,3234,750,314106,0
patternCount-76,true,1.00,1973,553,1970,546,196826,0
patternCount-77,true,1.00,2201,648,2199,641,212863,0
patternCount-78,true,1.00,2122,691,2118,684,238205,0
patternCount-79,false,0.75,4893,668,4887,668,487283,0
patternCount-80,false,0.64,3264,514,3261,514,325151,0
patternCount-81,true,1.00,1951,727,1945,720,198337,0
patternCount-82,true,1.00,2523,631,2521,624,266898,0
patternCount-83,true,1.00,1768,671,1765,663,171739,0
patternCount-84,true,1.00,1776,662,1774,654,180949,0
patternCount-85,true,1.00,2432,799,2426,792,252764,0
patternCount-86,true,1.00,1793,623,1790,616,187301,0
patternCount-87,true,1.00,2719,678,2716,671,277651,0
patternCount-88,true,1.00,4546,837,4542,830,504183,0
patternCount-89,true,1.00,2835,677,2832,670,275986,0
patternCount-90,true,1.00,974,504,969,495,104076,0
patternCount-91,true,1.00,3854,749,3854,742,358588,0
patternCount-92,true,1.00,1188,604,1186,596,122667,0
patternCount-93,false,0.57,3454,470,3453,470,342043,0
patternCount-94,true,1.00,3645,806,3633,799,367210,0
patternCount-95,true,1.00,6206,756,6201,749,584738,0
patternCount-96,true,1.00,3642,808,3639,801,335960,0
patternCount-97,true,1.00,2537,623,2534,616,239712,0
patternCount-98,true,1.00,2229,687,2223,680,230807,0
patternCount-99,true,1.00,2458,776,2455,769,260784,0
patternCount-100,true,1.00,2252,643,2249,636,218331,0
