NDW:0.0
TTFW:1.0
DFPT:2.0
DFPAP:3.0
DFPMP:0.0
RIGHT_WINDOW_BORDER_X:75.0
level,win/fail,% travelled,run time,game ticks,planning time,total plannings,nodes evaluated,most backtracked nodes
ore-1,true,1.00,5138,713,5132,704,548349,0
ore-2,false,0.70,5923,603,5919,603,582575,0
ore-3,true,1.00,4897,649,4896,642,504836,0
ore-4,true,1.00,5227,628,5226,620,563481,0
ore-5,true,1.00,5224,625,5220,618,538709,0
ore-6,true,1.00,7606,866,7605,858,753812,0
ore-7,true,1.00,4456,679,4452,672,452960,0
ore-8,false,0.59,3179,457,3177,457,299992,0
ore-9,true,1.00,5000,630,4999,623,476037,0
ore-10,false,0.47,2371,383,2368,383,262645,0
ore-11,false,0.16,954,115,951,115,92245,0
ore-12,true,1.00,4498,662,4494,655,479723,0
ore-13,true,1.00,3980,723,3969,714,422048,0
ore-14,true,1.00,6279,709,6277,699,676831,0
ore-15,true,1.00,7151,781,7150,774,679983,0
ore-16,false,0.94,4067,626,4064,626,453839,0
ore-17,true,1.00,4287,676,4285,668,462180,0
ore-18,true,1.00,4363,648,4361,639,443262,0
ore-19,true,1.00,5293,675,5288,668,537758,0
ore-20,false,0.34,3471,417,3471,417,379651,0
ore-21,true,1.00,2805,566,2797,558,318854,0
ore-22,false,0.58,2897,397,2896,397,265053,0
ore-23,false,0.77,1312,417,1309,417,141386,0
ore-24,false,0.40,2141,292,2137,292,220559,0
ore-25,true,1.00,4616,632,4615,625,504856,0
ore-26,true,1.00,3385,641,3384,634,348667,0
ore-27,false,0.24,788,248,788,248,81969,0
ore-28,true,1.00,2964,657,2963,649,307591,0
ore-29,false,0.48,2004,452,1998,452,197323,0
ore-30,true,1.00,3811,666,3803,658,362122,0
ore-31,true,1.00,3643,595,3635,585,390225,0
ore-32,true,1.00,3609,702,3603,695,374071,0
ore-33,true,1.00,5620,858,5611,850,607099,0
ore-34,false,0.91,6369,813,6366,813,625720,0
ore-35,false,0.34,1151,245,1149,245,123177,0
ore-36,true,1.00,5086,698,5083,688,534635,0
ore-37,false,0.34,1894,272,1893,272,170789,0
ore-38,true,1.00,4200,721,4197,714,418830,0
ore-39,true,1.00,5392,726,5389,719,610305,0
ore-40,false,0.89,4622,644,4621,644,495360,0
ore-41,true,1.00,5439,770,5435,763,541074,0
ore-42,true,1.00,4601,682,4598,675,472659,0
ore-43,false,0.49,1268,324,1265,324,144248,0
ore-44,false,0.43,23067,999,23064,999,2786032,0
ore-45,false,0.74,18069,999,18066,999,1166524,0
ore-46,false,0.11,2459,166,2459,166,232844,0
ore-47,true,1.00,4039,763,4037,756,431977,0
ore-48,true,1.00,4022,619,4017,611,422657,0
ore-49,true,1.00,7901,795,7899,786,786274,0
ore-50,true,1.00,3108,630,3101,617,304362,0
ore-51,true,1.00,3777,601,3777,594,404589,0
ore-52,true,1.00,6058,695,6053,688,672792,0
ore-53,true,1.00,3178,576,3175,568,335178,0
ore-54,true,1.00,5215,710,5212,702,547229,0
ore-55,true,1.00,5327,732,5322,725,569881,0
ore-56,true,1.00,3127,563,3120,556,326478,0
ore-57,true,1.00,1623,556,1620,549,182050,0
ore-58,false,0.95,9453,805,9450,805,932850,0
ore-59,true,1.00,5559,805,5554,797,629962,0
ore-60,true,1.00,5146,782,5143,775,541276,0
ore-61,true,1.00,4044,674,4040,664,404012,0
ore-62,false,0.86,3422,592,3417,592,341805,0
ore-63,false,0.07,745,114,745,114,75513,0
ore-64,true,1.00,3354,558,3350,551,345581,0
ore-65,true,1.00,5976,810,5973,802,618733,0
ore-66,true,1.00,6088,800,6082,789,655875,0
ore-67,false,0.13,215,66,214,66,22403,0
ore-68,true,1.00,4686,603,4684,595,484915,0
ore-69,false,0.30,1464,240,1463,240,159747,0
ore-70,false,0.08,4,43,2,43,721,0
ore-71,true,1.00,6627,762,6623,755,649250,0
ore-72,false,0.51,2905,390,2902,390,295523,0
ore-73,true,1.00,8107,871,8106,862,795157,0
ore-74,true,1.00,4111,716,4105,706,428518,0
ore-75,false,0.90,3447,643,3438,643,334097,0
ore-76,true,1.00,5988,767,5982,759,651526,0
ore-77,true,1.00,4866,627,4862,620,510639,0
ore-78,true,1.00,8231,809,8227,802,857093,0
ore-79,true,1.00,5803,734,5801,727,604767,0
ore-80,true,1.00,2916,593,2913,577,287817,0
ore-81,false,0.36,994,223,992,223,103594,0
ore-82,true,1.00,4768,657,4764,650,505273,0
ore-83,false,0.92,5267,631,5265,631,533126,0
ore-84,false,0.13,3971,189,3970,189,294747,0
ore-85,true,1.00,4630,696,4624,685,466856,0
ore-86,true,1.00,5530,787,5526,778,590490,0
ore-87,true,1.00,2482,601,2480,592,247856,0
ore-88,true,1.00,5515,669,5510,661,565339,0
ore-89,true,1.00,5312,703,5311,696,571118,0
ore-90,false,0.20,1327,204,1326,204,154773,0
ore-91,true,1.00,5748,780,5743,773,616025,0
ore-92,true,1.00,4484,620,4482,612,458908,0
ore-93,true,1.00,5089,846,5085,836,542620,0
ore-94,true,1.00,3972,673,3969,666,427627,0
ore-95,false,0.65,4567,545,4561,545,484671,0
ore-96,false,0.83,4234,688,4227,688,436558,0
ore-97,false,0.53,3069,412,3067,412,290032,0
ore-98,true,1.00,4358,659,4352,651,450963,0
ore-99,false,0.58,3392,524,3388,524,369342,0
ore-100,true,1.00,2315,544,2312,536,258882,0
