NDW:0.0
TTFW:0.6
DFPT:2.0
DFPAP:3.0
DFPMP:10.0
RIGHT_WINDOW_BORDER_X:400.0
level,win/fail,% travelled,run time,game ticks,planning time,total plannings,nodes evaluated,most backtracked nodes
patternWeightCount-1,true,1.00,3182,405,3174,361,159297,0
patternWeightCount-2,true,1.00,793,356,782,315,38105,0
patternWeightCount-3,true,1.00,677,357,666,318,31245,0
patternWeightCount-4,true,1.00,996,364,984,328,46542,0
patternWeightCount-5,true,1.00,2223,423,2214,384,102908,0
patternWeightCount-6,true,1.00,1921,406,1910,350,92426,0
patternWeightCount-7,true,1.00,1221,382,1204,345,56801,0
patternWeightCount-8,true,1.00,1006,378,998,342,42695,0
patternWeightCount-9,true,1.00,1110,374,1102,336,51872,0
patternWeightCount-10,true,1.00,1092,392,1076,356,50490,0
patternWeightCount-11,true,1.00,753,356,744,320,34222,0
patternWeightCount-12,true,1.00,1671,390,1662,354,75459,0
patternWeightCount-13,true,1.00,980,348,975,312,48825,0
patternWeightCount-14,true,1.00,1174,412,1162,366,53755,0
patternWeightCount-15,true,1.00,1417,361,1408,325,69656,0
patternWeightCount-16,true,1.00,2382,394,2370,343,118738,0
patternWeightCount-17,true,1.00,1178,381,1165,345,52861,0
patternWeightCount-18,true,1.00,1287,370,1279,334,59938,0
patternWeightCount-19,true,1.00,869,402,854,366,38663,0
patternWeightCount-20,true,1.00,4908,405,4900,345,229274,0
patternWeightCount-21,true,1.00,933,359,926,322,40779,0
patternWeightCount-22,true,1.00,2361,421,2355,370,115727,0
patternWeightCount-23,true,1.00,1317,375,1305,336,61460,0
patternWeightCount-24,true,1.00,1450,369,1443,319,71097,0
patternWeightCount-25,true,1.00,1885,374,1879,337,90068,0
patternWeightCount-26,true,1.00,1595,392,1586,355,73900,0
patternWeightCount-27,true,1.00,2268,396,2255,342,108461,0
patternWeightCount-28,true,1.00,1453,383,1445,347,67215,0
patternWeightCount-29,true,1.00,1250,361,1239,325,56139,0
patternWeightCount-30,true,1.00,2825,374,2816,319,131115,0
patternWeightCount-31,true,1.00,1571,365,1567,329,71394,0
patternWeightCount-32,true,1.00,936,367,928,331,43838,0
patternWeightCount-33,true,1.00,1099,380,1090,344,51067,0
patternWeightCount-34,true,1.00,1593,371,1588,335,74927,0
patternWeightCount-35,true,1.00,2010,377,2001,341,94594,0
patternWeightCount-36,true,1.00,1885,395,1874,359,88369,0
patternWeightCount-37,true,1.00,968,352,961,316,43722,0
patternWeightCount-38,true,1.00,2037,380,2024,315,92175,0
patternWeightCount-39,true,1.00,1223,376,1214,334,57833,0
patternWeightCount-40,true,1.00,1397,381,1387,345,64569,0
patternWeightCount-41,true,1.00,1498,390,1483,341,71191,0
patternWeightCount-42,false,0.88,2943,332,2935,332,133815,0
patternWeightCount-43,true,1.00,1406,362,1397,326,67715,0
patternWeightCount-44,true,1.00,1661,380,1653,327,79256,0
patternWeightCount-45,true,1.00,2973,417,2963,369,140205,0
patternWeightCount-46,true,1.00,4972,472,4965,423,224008,0
patternWeightCount-47,true,1.00,1065,364,1055,328,48911,0
patternWeightCount-48,true,1.00,906,351,901,315,41897,0
patternWeightCount-49,true,1.00,1169,357,1162,321,53831,0
patternWeightCount-50,true,1.00,836,356,831,319,38273,0
patternWeightCount-51,true,1.00,1328,384,1318,331,63722,0
patternWeightCount-52,true,1.00,1532,378,1519,336,71115,0
patternWeightCount-53,true,1.00,3287,463,3273,404,159348,0
patternWeightCount-54,true,1.00,1219,398,1211,361,55759,0
patternWeightCount-55,true,1.00,1343,375,1331,338,65543,0
patternWeightCount-56,true,1.00,1181,362,1177,325,57431,0
patternWeightCount-57,true,1.00,712,340,705,304,33129,0
patternWeightCount-58,true,1.00,1137,355,1130,312,54070,0
patternWeightCount-59,true,1.00,771,368,761,330,35001,0
patternWeightCount-60,true,1.00,1691,438,1683,394,76068,0
patternWeightCount-61,true,1.00,1294,375,1291,331,60825,0
patternWeightCount-62,true,1.00,1970,369,1964,320,99303,0
patternWeightCount-63,true,1.00,1272,369,1266,333,61584,0
patternWeightCount-64,true,1.00,1366,362,1360,326,66237,0
patternWeightCount-65,true,1.00,1438,393,1425,348,64305,0
patternWeightCount-66,true,1.00,1238,385,1231,344,56771,0
patternWeightCount-67,true,1.00,1085,364,1073,328,50033,0
patternWeightCount-68,false,0.85,22620,999,22606,999,801967,0
patternWeightCount-69,true,1.00,1971,362,1963,304,91866,0
patternWeightCount-70,true,1.00,1331,400,1320,351,60800,0
patternWeightCount-71,true,1.00,992,387,982,337,46181,0
patternWeightCount-72,true,1.00,3788,377,3778,338,172737,0
patternWeightCount-73,true,1.00,4763,422,4755,366,224635,0
patternWeightCount-74,true,1.00,1055,367,1045,331,49252,0
patternWeightCount-75,true,1.00,1260,369,1247,333,57936,0
patternWeightCount-76,true,1.00,1185,357,1176,320,56514,0
patternWeightCount-77,true,1.00,1371,384,1362,348,66629,0
patternWeightCount-78,true,1.00,3051,463,3038,424,136583,0
patternWeightCount-79,true,1.00,816,366,808,330,37437,0
patternWeightCount-80,true,1.00,1257,380,1243,343,59469,0
patternWeightCount-81,true,1.00,3838,413,3831,367,179643,0
patternWeightCount-82,true,1.00,552,359,542,311,24147,0
patternWeightCount-83,true,1.00,1020,376,1013,338,48658,0
patternWeightCount-84,true,1.00,1049,388,1035,352,47343,0
patternWeightCount-85,true,1.00,1458,363,1450,325,71537,0
patternWeightCount-86,false,0.94,2768,340,2756,340,134060,0
patternWeightCount-87,true,1.00,4407,414,4397,359,204128,0
patternWeightCount-88,true,1.00,1852,388,1845,352,85662,0
patternWeightCount-89,true,1.00,1203,359,1196,323,55305,0
patternWeightCount-90,true,1.00,5855,450,5844,402,267615,0
patternWeightCount-91,true,1.00,1006,356,988,313,47297,0
patternWeightCount-92,true,1.00,3260,411,3247,357,160342,0
patternWeightCount-93,true,1.00,3064,401,3056,363,145642,0
patternWeightCount-94,true,1.00,1409,389,1401,352,64490,0
patternWeightCount-95,true,1.00,1469,360,1461,324,64712,0
patternWeightCount-96,true,1.00,1144,403,1136,366,50328,0
patternWeightCount-97,true,1.00,1124,332,1119,296,53914,0
patternWeightCount-98,true,1.00,4173,463,4160,398,199146,0
patternWeightCount-99,true,1.00,1728,376,1720,339,79376,0
patternWeightCount-100,true,1.00,1144,352,1137,316,52576,0
