NDW:0.0
TTFW:1.8
DFPT:2.0
DFPAP:3.0
DFPMP:20.0
RIGHT_WINDOW_BORDER_X:295.0
level,win/fail,% travelled,run time,game ticks,planning time,total plannings,nodes evaluated,most backtracked nodes
notchParamRand-1,true,1.00,931,312,923,285,50631,0
notchParamRand-2,true,1.00,198,306,194,280,8501,0
notchParamRand-3,true,1.00,1009,306,997,280,57029,0
notchParamRand-4,true,1.00,1530,334,1523,307,86188,0
notchParamRand-5,true,1.00,330,306,321,280,16447,0
notchParamRand-6,true,1.00,523,312,518,286,28497,0
notchParamRand-7,true,1.00,275,294,265,268,13448,0
notchParamRand-8,true,1.00,480,306,474,280,25105,0
notchParamRand-9,true,1.00,656,335,648,308,36489,0
notchParamRand-10,true,1.00,809,332,803,306,45687,0
notchParamRand-11,true,1.00,176,294,169,268,7578,0
notchParamRand-12,true,1.00,368,328,364,302,18449,0
notchParamRand-13,true,1.00,1707,314,1700,287,98855,0
notchParamRand-14,true,1.00,1022,312,1017,286,57616,0
notchParamRand-15,true,1.00,660,308,652,282,36837,0
notchParamRand-16,true,1.00,480,300,473,274,21861,0
notchParamRand-17,true,1.00,146,303,134,277,4129,0
notchParamRand-18,true,1.00,1784,326,1778,299,102800,0
notchParamRand-19,true,1.00,280,330,274,304,13773,0
notchParamRand-20,true,1.00,1527,336,1521,310,89111,0
notchParamRand-21,true,1.00,112,296,103,270,3887,0
notchParamRand-22,true,1.00,1009,314,999,287,57976,0
notchParamRand-23,true,1.00,1252,335,1238,308,73122,0
notchParamRand-24,true,1.00,278,344,269,317,13157,0
notchParamRand-25,true,1.00,115,308,110,277,4287,0
notchParamRand-26,true,1.00,484,332,471,306,25637,0
notchParamRand-27,true,1.00,274,298,264,272,14179,0
notchParamRand-28,true,1.00,597,315,589,288,32641,0
notchParamRand-29,true,1.00,118,298,113,272,4006,0
notchParamRand-30,true,1.00,1823,326,1817,299,101999,0
notchParamRand-31,true,1.00,488,316,480,289,25532,0
notchParamRand-32,true,1.00,182,294,174,268,7642,0
notchParamRand-33,true,1.00,1825,322,1818,295,101814,0
notchParamRand-34,true,1.00,950,316,940,289,51949,0
notchParamRand-35,true,1.00,600,318,590,291,32443,0
notchParamRand-36,true,1.00,107,300,99,269,3669,0
notchParamRand-37,true,1.00,516,310,505,284,27338,0
notchParamRand-38,true,1.00,1723,315,1716,288,95811,0
notchParamRand-39,true,1.00,1562,316,1554,289,87272,0
notchParamRand-40,true,1.00,2095,314,2088,288,117683,0
notchParamRand-41,true,1.00,136,294,126,268,3577,0
notchParamRand-42,true,1.00,550,316,545,289,28389,0
notchParamRand-43,true,1.00,288,300,279,274,13635,0
notchParamRand-44,true,1.00,418,302,410,276,18081,0
notchParamRand-45,true,1.00,990,318,983,292,45891,0
notchParamRand-46,true,1.00,646,311,640,285,34847,0
notchParamRand-47,true,1.00,812,314,807,288,45663,0
notchParamRand-48,true,1.00,1435,324,1430,297,73058,0
notchParamRand-49,true,1.00,801,306,791,279,42543,0
notchParamRand-50,true,1.00,1367,337,1358,310,76074,0
notchParamRand-51,true,1.00,278,315,260,288,11332,0
notchParamRand-52,true,1.00,811,304,798,278,42596,0
notchParamRand-53,true,1.00,991,328,977,302,55811,0
notchParamRand-54,true,1.00,1743,342,1736,315,99151,0
notchParamRand-55,true,1.00,1730,312,1723,286,97598,0
notchParamRand-56,true,1.00,737,333,731,307,40432,0
notchParamRand-57,true,1.00,984,312,974,286,57029,0
notchParamRand-58,true,1.00,1017,335,1014,308,56624,0
notchParamRand-59,true,1.00,503,311,491,284,26969,0
notchParamRand-60,true,1.00,835,311,827,285,46769,0
notchParamRand-61,true,1.00,574,306,568,279,31205,0
notchParamRand-62,true,1.00,530,320,523,293,28224,0
notchParamRand-63,true,1.00,1422,312,1411,286,81236,0
notchParamRand-64,true,1.00,378,296,365,270,19952,0
notchParamRand-65,true,1.00,2782,349,2773,322,159725,0
notchParamRand-66,true,1.00,324,311,315,285,15644,0
notchParamRand-67,true,1.00,370,300,361,274,18758,0
notchParamRand-68,true,1.00,1400,312,1394,285,80289,0
notchParamRand-69,true,1.00,297,309,290,283,15043,0
notchParamRand-70,true,1.00,704,326,697,299,39497,0
notchParamRand-71,true,1.00,409,324,402,297,21241,0
notchParamRand-72,true,1.00,177,294,172,268,7700,0
notchParamRand-73,true,1.00,470,320,461,294,23719,0
notchParamRand-74,true,1.00,112,296,103,270,3964,0
notchParamRand-75,true,1.00,105,294,98,268,3539,0
notchParamRand-76,true,1.00,1326,349,1319,323,74548,0
notchParamRand-77,true,1.00,1548,364,1540,337,83695,0
notchParamRand-78,true,1.00,957,310,949,284,53535,0
notchParamRand-79,true,1.00,329,298,325,272,16144,0
notchParamRand-80,true,1.00,328,302,319,276,15861,0
notchParamRand-81,true,1.00,392,298,382,272,20672,0
notchParamRand-82,true,1.00,819,312,814,286,45379,0
notchParamRand-83,true,1.00,1470,336,1466,309,82791,0
notchParamRand-84,true,1.00,363,300,359,274,19037,0
notchParamRand-85,true,1.00,107,294,100,268,3549,0
notchParamRand-86,true,1.00,1071,338,1065,311,58871,0
notchParamRand-87,true,1.00,1747,318,1744,292,100692,0
notchParamRand-88,true,1.00,391,300,385,274,20574,0
notchParamRand-89,true,1.00,401,300,394,274,20820,0
notchParamRand-90,true,1.00,721,323,710,297,38072,0
notchParamRand-91,true,1.00,110,294,100,268,3730,0
notchParamRand-92,true,1.00,965,330,958,303,54056,0
notchParamRand-93,true,1.00,378,317,377,281,19703,0
notchParamRand-94,true,1.00,1648,308,1641,281,93972,0
notchParamRand-95,true,1.00,821,316,810,289,46134,0
notchParamRand-96,true,1.00,486,329,474,303,25078,0
notchParamRand-97,true,1.00,1458,343,1451,316,79161,0
notchParamRand-98,true,1.00,282,294,271,268,14073,0
notchParamRand-99,true,1.00,359,310,354,284,17349,0
notchParamRand-100,true,1.00,1593,314,1584,287,87930,0
