NDW:0.0
TTFW:2.0
DFPT:2.0
DFPAP:3.0
DFPMP:5.0
RIGHT_WINDOW_BORDER_X:15.0
level,win/fail,% travelled,run time,game ticks,planning time,total plannings,nodes evaluated,most backtracked nodes
ore-1,false,0.09,782,160,777,160,33028,0
ore-2,false,0.13,139,170,134,170,6271,0
ore-3,false,0.10,896,214,889,214,38820,0
ore-4,false,0.20,166,236,159,236,7607,0
ore-5,false,0.03,46,46,45,46,2176,0
ore-6,false,0.04,208,115,204,115,10633,0
ore-7,false,0.13,912,212,905,212,40047,0
ore-8,false,0.09,1144,212,1134,212,49616,0
ore-9,false,0.04,252,115,249,115,10311,0
ore-10,false,0.23,437,313,420,313,20486,0
ore-11,false,0.04,182,120,175,120,8814,0
ore-12,false,0.04,535,102,532,102,24329,0
ore-13,false,0.19,1443,395,1431,395,61014,0
ore-14,false,0.11,318,157,314,157,12811,0
ore-15,false,0.12,1428,330,1416,330,60043,0
ore-16,false,0.24,465,252,456,252,18766,0
ore-17,false,0.04,426,111,424,111,20866,0
ore-18,false,0.09,543,209,536,209,25086,0
ore-19,false,0.12,644,237,635,237,28756,0
ore-20,false,0.12,442,195,435,195,20204,0
ore-21,false,0.11,348,159,341,159,15319,0
ore-22,false,0.11,25,111,21,111,1140,0
ore-23,false,0.04,212,67,211,67,9496,0
ore-24,false,0.14,1689,290,1683,290,75663,0
ore-25,false,0.08,1003,201,996,201,44420,0
ore-26,false,0.08,225,136,225,136,10720,0
ore-27,false,0.07,276,121,268,121,13405,0
ore-28,false,0.03,284,113,280,113,13337,0
ore-29,false,0.03,23,51,16,51,1014,0
ore-30,false,0.11,24,108,20,108,893,0
ore-31,false,0.16,1222,197,1216,197,56093,0
ore-32,false,0.03,292,113,287,113,13387,0
ore-33,false,0.03,285,113,277,113,13311,0
ore-34,false,0.18,1592,280,1583,280,70399,0
ore-35,false,0.23,354,228,346,228,16087,0
ore-36,false,0.09,249,136,246,136,13016,0
ore-37,false,0.14,958,301,947,301,45791,0
ore-38,false,0.08,406,167,401,167,19259,0
ore-39,false,0.11,1206,272,1196,272,60200,0
ore-40,false,0.10,933,219,926,219,44161,0
ore-41,false,0.08,942,200,936,200,43397,0
ore-42,false,0.14,509,219,506,219,25460,0
ore-43,false,0.04,219,94,216,94,11003,0
ore-44,false,0.07,246,133,244,133,13468,0
ore-45,false,0.11,727,158,723,158,37949,0
ore-46,false,0.08,277,95,274,95,13636,0
ore-47,false,0.15,953,239,946,239,48299,0
ore-48,false,0.03,256,113,254,113,14104,0
ore-49,false,0.04,206,115,201,115,11004,0
ore-50,false,0.04,338,114,333,114,18072,0
ore-51,false,0.07,448,163,442,163,22566,0
ore-52,false,0.08,481,156,478,156,22854,0
ore-53,false,0.06,864,140,860,140,43166,0
ore-54,false,0.14,880,204,872,204,43601,0
ore-55,false,0.15,524,182,514,182,26632,0
ore-56,false,0.13,721,215,714,215,36254,0
ore-57,false,0.13,645,209,639,209,32059,0
ore-58,false,0.07,1189,181,1182,181,57248,0
ore-59,false,0.08,1300,183,1297,183,62899,0
ore-60,false,0.09,406,162,400,162,18437,0
ore-61,false,0.16,101,238,94,238,4565,0
ore-62,false,0.04,283,115,278,115,14068,0
ore-63,false,0.10,2420,332,2410,332,115711,0
ore-64,false,0.03,290,113,285,113,14789,0
ore-65,false,0.16,79,178,75,178,3874,0
ore-66,false,0.11,66,127,61,127,3276,0
ore-67,false,0.12,641,186,631,186,30342,0
ore-68,false,0.09,1104,163,1101,163,52942,0
ore-69,false,0.22,569,284,562,284,28072,0
ore-70,false,0.04,23,49,22,49,1217,0
ore-71,false,0.09,57,102,54,102,3169,0
ore-72,false,0.03,256,113,256,113,13628,0
ore-73,false,0.19,1303,346,1293,346,65159,0
ore-74,false,0.05,48,71,46,71,2978,0
ore-75,false,0.03,255,113,251,113,13862,0
ore-76,false,0.07,1329,191,1322,191,65032,0
ore-77,false,0.18,1383,303,1376,303,65820,0
ore-78,false,0.11,304,146,299,146,14040,0
ore-79,false,0.05,251,114,249,114,13006,0
ore-80,false,0.08,260,112,257,112,13034,0
ore-81,false,0.10,263,119,258,119,12893,0
ore-82,false,0.12,2459,304,2449,304,114018,0
ore-83,false,0.14,1564,228,1559,228,76192,0
ore-84,false,0.14,393,181,386,181,17989,0
ore-85,false,0.12,1728,324,1721,324,76778,0
ore-86,false,0.14,949,253,944,253,45007,0
ore-87,false,0.10,966,227,959,227,40322,0
ore-88,false,0.10,680,165,678,165,28500,0
ore-89,false,0.03,266,113,263,113,13847,0
ore-90,false,0.11,1215,219,1209,219,57037,0
ore-91,false,0.12,452,196,447,196,19598,0
ore-92,false,0.22,508,277,497,277,23274,0
ore-93,false,0.10,712,208,706,208,33459,0
ore-94,false,0.05,201,106,200,106,10312,0
ore-95,false,0.16,830,273,820,273,37672,0
ore-96,false,0.21,611,394,594,394,28003,0
ore-97,false,0.11,1760,273,1748,273,78823,0
ore-98,false,0.10,270,163,263,163,12779,0
ore-99,false,0.02,5,19,5,19,179,0
ore-100,false,0.04,344,114,341,114,16398,0
