NDW:0.0
TTFW:0.8
DFPT:2.0
DFPAP:3.0
DFPMP:5.0
RIGHT_WINDOW_BORDER_X:295.0
level,win/fail,% travelled,run time,game ticks,planning time,total plannings,nodes evaluated,most backtracked nodes
patternWeightCount-1,true,1.00,3007,469,3006,417,306827,0
patternWeightCount-2,true,1.00,477,402,474,368,46799,0
patternWeightCount-3,true,1.00,651,398,648,371,58943,0
patternWeightCount-4,true,1.00,453,381,451,355,42403,0
patternWeightCount-5,true,1.00,1543,451,1540,413,150427,0
patternWeightCount-6,true,1.00,1517,409,1516,381,155017,0
patternWeightCount-7,true,1.00,831,427,829,400,77222,0
patternWeightCount-8,true,1.00,457,359,453,332,38027,0
patternWeightCount-9,true,1.00,1356,427,1354,400,134564,0
patternWeightCount-10,true,1.00,821,441,818,413,76390,0
patternWeightCount-11,true,1.00,468,387,465,360,42672,0
patternWeightCount-12,true,1.00,1060,425,1056,398,99613,0
patternWeightCount-13,true,1.00,595,348,595,321,60533,0
patternWeightCount-14,true,1.00,615,396,612,357,61517,0
patternWeightCount-15,true,1.00,1142,368,1139,342,113272,0
patternWeightCount-16,true,1.00,2501,453,2501,411,260432,0
patternWeightCount-17,true,1.00,623,420,621,393,57654,0
patternWeightCount-18,true,1.00,675,389,672,363,66227,0
patternWeightCount-19,true,1.00,545,405,543,379,48281,0
patternWeightCount-20,true,1.00,6518,460,6516,431,567765,0
patternWeightCount-21,true,1.00,447,400,441,372,39710,0
patternWeightCount-22,true,1.00,1929,450,1923,414,200556,0
patternWeightCount-23,true,1.00,583,401,581,374,54651,0
patternWeightCount-24,true,1.00,782,368,780,341,79078,0
patternWeightCount-25,true,1.00,1263,400,1261,373,123639,0
patternWeightCount-26,true,1.00,1516,404,1513,365,155300,0
patternWeightCount-27,true,1.00,1465,436,1463,404,145086,0
patternWeightCount-28,true,1.00,914,374,910,348,90023,0
patternWeightCount-29,true,1.00,1047,405,1046,378,100454,0
patternWeightCount-30,true,1.00,3040,473,3037,423,268900,0
patternWeightCount-31,true,1.00,1593,427,1589,401,146434,0
patternWeightCount-32,true,1.00,544,394,540,367,53796,0
patternWeightCount-33,true,1.00,558,387,555,360,53717,0
patternWeightCount-34,true,1.00,865,381,863,354,86014,0
patternWeightCount-35,true,1.00,1814,425,1810,398,167220,0
patternWeightCount-36,true,1.00,1134,406,1130,380,111983,0
patternWeightCount-37,true,1.00,538,385,537,359,48771,0
patternWeightCount-38,true,1.00,2139,412,2135,374,199431,0
patternWeightCount-39,true,1.00,756,393,754,355,72922,0
patternWeightCount-40,true,1.00,953,415,951,388,92909,0
patternWeightCount-41,true,1.00,1420,435,1415,397,141048,0
patternWeightCount-42,false,0.88,2550,401,2545,401,233781,0
patternWeightCount-43,true,1.00,822,395,819,369,78436,0
patternWeightCount-44,true,1.00,1018,444,1015,398,103114,0
patternWeightCount-45,true,1.00,2323,448,2319,401,220325,0
patternWeightCount-46,true,1.00,5022,515,5019,475,421441,0
patternWeightCount-47,true,1.00,596,394,596,368,56334,0
patternWeightCount-48,true,1.00,620,405,618,378,59416,0
patternWeightCount-49,true,1.00,911,395,908,368,86510,0
patternWeightCount-50,true,1.00,981,410,977,383,91226,0
patternWeightCount-51,true,1.00,884,392,882,350,87435,0
patternWeightCount-52,true,1.00,1078,393,1072,353,107452,0
patternWeightCount-53,true,1.00,2323,413,2322,378,220382,0
patternWeightCount-54,true,1.00,782,464,777,437,73406,0
patternWeightCount-55,true,1.00,1110,405,1107,378,101125,0
patternWeightCount-56,true,1.00,1278,417,1278,390,127317,0
patternWeightCount-57,true,1.00,350,367,350,340,35328,0
patternWeightCount-58,true,1.00,921,402,913,367,92163,0
patternWeightCount-59,true,1.00,412,378,408,351,37892,0
patternWeightCount-60,true,1.00,1141,474,1137,436,107551,0
patternWeightCount-61,true,1.00,820,377,818,350,82987,0
patternWeightCount-62,true,1.00,1705,424,1702,385,172711,0
patternWeightCount-63,true,1.00,970,409,966,382,94431,0
patternWeightCount-64,true,1.00,1335,423,1333,396,134983,0
patternWeightCount-65,true,1.00,1075,437,1070,410,101903,0
patternWeightCount-66,true,1.00,787,401,787,374,72822,0
patternWeightCount-67,true,1.00,799,384,799,358,74157,0
patternWeightCount-68,true,1.00,930,445,924,418,65906,0
patternWeightCount-69,true,1.00,1554,415,1552,362,148987,0
patternWeightCount-70,true,1.00,901,416,897,376,88773,0
patternWeightCount-71,true,1.00,827,405,826,370,78943,0
patternWeightCount-72,true,1.00,3516,448,3513,397,303234,0
patternWeightCount-73,true,1.00,4913,443,4911,402,452087,0
patternWeightCount-74,true,1.00,643,382,640,356,63803,0
patternWeightCount-75,true,1.00,870,406,867,380,81735,0
patternWeightCount-76,true,1.00,906,439,899,412,88849,0
patternWeightCount-77,true,1.00,835,395,831,369,83008,0
patternWeightCount-78,true,1.00,2462,485,2458,456,206529,0
patternWeightCount-79,true,1.00,518,401,516,375,50305,0
patternWeightCount-80,true,1.00,1225,448,1215,421,120078,0
patternWeightCount-81,true,1.00,2943,416,2938,381,261720,0
patternWeightCount-82,true,1.00,242,394,240,350,20791,0
patternWeightCount-83,true,1.00,683,387,681,359,67847,0
patternWeightCount-84,true,1.00,669,394,668,367,62208,0
patternWeightCount-85,true,1.00,1377,415,1375,384,142776,0
patternWeightCount-86,false,0.94,2313,395,2311,395,211665,0
patternWeightCount-87,true,1.00,4544,436,4543,397,385983,0
patternWeightCount-88,true,1.00,1059,403,1058,374,104003,0
patternWeightCount-89,true,1.00,565,372,563,345,56868,0
patternWeightCount-90,true,1.00,4043,439,4040,408,372702,0
patternWeightCount-91,true,1.00,993,399,991,370,97879,0
patternWeightCount-92,true,1.00,3605,495,3602,447,361918,0
patternWeightCount-93,true,1.00,3526,420,3525,381,312768,0
patternWeightCount-94,true,1.00,1159,419,1158,392,108795,0
patternWeightCount-95,true,1.00,1261,415,1260,389,117020,0
patternWeightCount-96,true,1.00,635,401,629,374,58798,0
patternWeightCount-97,true,1.00,745,343,740,317,71457,0
patternWeightCount-98,true,1.00,4270,457,4268,416,392141,0
patternWeightCount-99,true,1.00,1003,443,997,410,99116,0
patternWeightCount-100,true,1.00,777,379,777,353,74829,0
