NDW:0.0
TTFW:1.4
DFPT:2.0
DFPAP:3.0
DFPMP:0.0
RIGHT_WINDOW_BORDER_X:295.0
level,win/fail,% travelled,run time,game ticks,planning time,total plannings,nodes evaluated,most backtracked nodes
notch-1,true,1.00,1163,280,1149,253,35241,0
notch-2,true,1.00,1157,282,1148,255,60004,0
notch-3,true,1.00,960,251,953,225,53102,0
notch-4,true,1.00,885,265,883,236,49510,0
notch-5,true,1.00,819,250,815,224,45544,0
notch-6,true,1.00,798,287,777,254,43892,0
notch-7,true,1.00,896,293,889,261,51147,0
notch-8,true,1.00,1071,289,1063,248,59849,0
notch-9,true,1.00,1013,256,1009,230,57285,0
notch-10,true,1.00,862,279,856,252,48789,0
notch-11,true,1.00,859,262,853,229,48010,0
notch-12,true,1.00,750,260,746,233,41102,0
notch-13,true,1.00,785,272,778,246,44049,0
notch-14,true,1.00,928,261,925,230,51532,0
notch-15,true,1.00,691,269,687,242,38027,0
notch-16,true,1.00,971,290,961,251,54633,0
notch-17,true,1.00,886,278,874,247,47632,0
notch-18,true,1.00,1344,326,1332,288,72909,0
notch-19,true,1.00,936,253,930,219,51439,0
notch-20,true,1.00,880,307,871,280,47004,0
notch-21,true,1.00,1031,297,1025,270,58173,0
notch-22,true,1.00,614,251,611,224,32732,0
notch-23,true,1.00,1027,257,1020,225,56990,0
notch-24,true,1.00,845,275,840,249,45657,0
notch-25,true,1.00,1400,291,1392,264,78856,0
notch-26,true,1.00,878,272,873,245,49343,0
notch-27,true,1.00,1100,294,1093,265,62573,0
notch-28,true,1.00,865,256,861,214,47496,0
notch-29,true,1.00,968,291,962,259,53942,0
notch-30,true,1.00,827,256,820,219,45834,0
notch-31,true,1.00,800,281,792,252,43388,0
notch-32,true,1.00,908,284,897,243,50108,0
notch-33,true,1.00,691,245,682,218,38200,0
notch-34,true,1.00,694,257,689,231,39285,0
notch-35,true,1.00,715,280,708,253,39462,0
notch-36,true,1.00,1140,300,1132,263,63583,0
notch-37,true,1.00,1267,263,1265,236,73164,0
notch-38,true,1.00,1119,308,1108,250,62721,0
notch-39,true,1.00,629,228,624,202,34662,0
notch-40,true,1.00,981,259,977,229,55939,0
notch-41,true,1.00,1022,277,1014,250,57202,0
notch-42,true,1.00,850,264,835,226,46831,0
notch-43,true,1.00,718,250,710,223,39889,0
notch-44,true,1.00,729,235,723,208,40418,0
notch-45,true,1.00,660,244,656,217,37299,0
notch-46,true,1.00,764,257,763,231,42953,0
notch-47,true,1.00,967,279,961,250,53131,0
notch-48,true,1.00,1225,259,1219,231,70039,0
notch-49,true,1.00,966,268,960,241,53605,0
notch-50,true,1.00,932,290,925,252,52316,0
notch-51,true,1.00,679,243,672,216,38599,0
notch-52,true,1.00,809,272,802,244,45014,0
notch-53,true,1.00,308,254,299,214,15560,0
notch-54,true,1.00,1140,304,1134,270,64730,0
notch-55,true,1.00,1211,288,1202,260,68899,0
notch-56,true,1.00,620,268,617,241,34338,0
notch-57,true,1.00,855,296,850,266,47077,0
notch-58,true,1.00,1101,303,1095,277,60321,0
notch-59,true,1.00,865,284,858,258,47793,0
notch-60,true,1.00,1124,285,1117,258,63253,0
notch-61,true,1.00,861,237,855,210,48094,0
notch-62,true,1.00,806,287,800,261,43976,0
notch-63,true,1.00,955,292,949,265,52346,0
notch-64,true,1.00,1002,260,991,232,56847,0
notch-65,true,1.00,1374,318,1366,276,78154,0
notch-66,true,1.00,1090,276,1084,241,61172,0
notch-67,true,1.00,790,241,782,215,43795,0
notch-68,true,1.00,678,252,668,226,29250,0
notch-69,true,1.00,1786,292,1778,265,53190,0
notch-70,true,1.00,1140,324,1132,282,60086,0
notch-71,true,1.00,962,259,956,233,54291,0
notch-72,true,1.00,776,245,770,218,43995,0
notch-73,true,1.00,897,276,891,250,49467,0
notch-74,true,1.00,606,276,603,250,33203,0
notch-75,true,1.00,1238,296,1234,269,70299,0
notch-76,true,1.00,1166,286,1157,242,66204,0
notch-77,true,1.00,840,260,833,233,46927,0
notch-78,true,1.00,1144,279,1133,241,64155,0
notch-79,true,1.00,849,285,839,247,47351,0
notch-80,true,1.00,511,235,505,204,27908,0
notch-81,true,1.00,998,252,992,225,56095,0
notch-82,true,1.00,927,276,923,248,51798,0
notch-83,true,1.00,897,268,891,236,49602,0
notch-84,true,1.00,594,254,592,227,31812,0
notch-85,true,1.00,751,278,741,244,39848,0
notch-86,true,1.00,790,245,787,218,43937,0
notch-87,true,1.00,950,243,948,216,53857,0
notch-88,true,1.00,1228,287,1222,256,69365,0
notch-89,true,1.00,1109,294,1099,268,62649,0
notch-90,true,1.00,1059,264,1057,237,59772,0
notch-91,true,1.00,1242,293,1232,254,68635,0
notch-92,true,1.00,1064,268,1059,241,60120,0
notch-93,true,1.00,760,271,753,242,41486,0
notch-94,true,1.00,1562,294,1556,255,88976,0
notch-95,true,1.00,719,253,715,225,39290,0
notch-96,true,1.00,716,268,708,240,40470,0
notch-97,true,1.00,955,295,945,267,52520,0
notch-98,true,1.00,959,262,953,232,53432,0
notch-99,true,1.00,1112,299,1106,259,62680,0
notch-100,true,1.00,740,271,729,245,40390,0
