NDW:0.0
TTFW:2.0
DFPT:2.0
DFPAP:3.0
DFPMP:2.0
RIGHT_WINDOW_BORDER_X:176.0
level,win/fail,% travelled,run time,game ticks,planning time,total plannings,nodes evaluated,most backtracked nodes
ore-1,true,1.00,1733,426,1712,408,78945,0
ore-2,false,0.70,3188,330,3178,330,129914,0
ore-3,true,1.00,1928,476,1914,450,86269,0
ore-4,true,1.00,2249,496,2228,479,97823,0
ore-5,true,1.00,2690,477,2671,461,121733,0
ore-6,true,1.00,2120,465,2105,434,94909,0
ore-7,true,1.00,2582,499,2567,482,112831,0
ore-8,false,0.13,2477,127,2477,127,95491,0
ore-9,true,1.00,1394,385,1379,369,63505,0
ore-10,false,0.55,665,248,661,248,29297,0
ore-11,true,1.00,2565,467,2549,448,119418,0
ore-12,false,0.46,2538,234,2531,234,104393,0
ore-13,true,1.00,2678,520,2660,487,125015,0
ore-14,true,1.00,1607,400,1590,382,73673,0
ore-15,true,1.00,2641,440,2628,424,121232,0
ore-16,false,0.84,2903,423,2892,423,116100,0
ore-17,true,1.00,1729,473,1716,448,79883,0
ore-18,true,1.00,2733,480,2712,458,117221,0
ore-19,true,1.00,2121,451,2104,434,86827,0
ore-20,true,1.00,2334,482,2319,465,93735,0
ore-21,true,1.00,2609,541,2593,522,110086,0
ore-22,false,0.61,3030,314,3019,314,107976,0
ore-23,true,1.00,2081,473,2062,457,85331,0
ore-24,true,1.00,1766,554,1743,531,70058,0
ore-25,true,1.00,2415,476,2399,452,104139,0
ore-26,false,0.40,28388,999,28371,999,761250,0
ore-27,false,0.24,1683,171,1680,171,58156,0
ore-28,true,1.00,2142,443,2122,427,77892,0
ore-29,false,0.47,2510,226,2500,226,80937,0
ore-30,true,1.00,2081,448,2061,426,64865,0
ore-31,true,1.00,1786,455,1768,428,71011,0
ore-32,false,0.46,2703,246,2694,246,95293,0
ore-33,true,1.00,2114,480,2098,456,83419,0
ore-34,true,1.00,1933,455,1920,430,81091,0
ore-35,true,1.00,2065,404,2057,388,91773,0
ore-36,true,1.00,1502,417,1484,401,64909,0
ore-37,false,0.34,902,124,897,124,36602,0
ore-38,true,1.00,1487,422,1472,396,63656,0
ore-39,true,1.00,2322,527,2301,510,95839,0
ore-40,true,1.00,1928,434,1903,416,77415,0
ore-41,true,1.00,1963,443,1943,424,87233,0
ore-42,false,0.62,2886,335,2879,335,117541,0
ore-43,true,1.00,2652,462,2637,446,114565,0
ore-44,true,1.00,2565,442,2550,412,112161,0
ore-45,false,0.74,24038,999,24026,999,720082,0
ore-46,false,0.12,668,51,665,51,25312,0
ore-47,false,0.84,3152,433,3140,433,115156,0
ore-48,true,1.00,2436,476,2416,460,95621,0
ore-49,true,1.00,1686,441,1670,418,75236,0
ore-50,true,1.00,3457,444,3442,428,140660,0
ore-51,true,1.00,1901,438,1891,404,74883,0
ore-52,true,1.00,2295,440,2272,423,75123,0
ore-53,true,1.00,1978,431,1957,414,64419,0
ore-54,false,0.72,2623,355,2603,355,111120,0
ore-55,true,1.00,1541,431,1516,413,67932,0
ore-56,true,1.00,1458,391,1447,368,62721,0
ore-57,true,1.00,2294,471,2276,440,99363,0
ore-58,true,1.00,2248,459,2230,443,98314,0
ore-59,true,1.00,2352,483,2337,465,100858,0
ore-60,true,1.00,2909,390,2902,371,122874,0
ore-61,true,1.00,1839,415,1826,386,77399,0
ore-62,false,0.78,3290,390,3279,390,129903,0
ore-63,false,0.31,2195,175,2190,175,89197,0
ore-64,true,1.00,1455,398,1442,382,61419,0
ore-65,true,1.00,2052,459,2034,437,89875,0
ore-66,false,0.29,3005,196,2998,196,109084,0
ore-67,true,1.00,1694,431,1680,415,71003,0
ore-68,true,1.00,2040,438,2023,421,89641,0
ore-69,false,0.05,1718,62,1716,62,66277,0
ore-70,false,0.94,3233,456,3224,456,143758,0
ore-71,true,1.00,1491,385,1467,369,71718,0
ore-72,true,1.00,1522,445,1505,425,73961,0
ore-73,true,1.00,1747,461,1732,442,81977,0
ore-74,true,1.00,2374,476,2355,459,110650,0
ore-75,true,1.00,1673,470,1655,454,79110,0
ore-76,true,1.00,1640,417,1624,401,78626,0
ore-77,true,1.00,1593,450,1575,431,77737,0
ore-78,true,1.00,1731,468,1712,452,83544,0
ore-79,true,1.00,1993,496,1977,479,93165,0
ore-80,true,1.00,1579,433,1565,404,75667,0
ore-81,true,1.00,1896,476,1881,460,93964,0
ore-82,true,1.00,1786,442,1772,426,87904,0
ore-83,true,1.00,1884,410,1870,394,91172,0
ore-84,false,0.18,649,77,648,77,24226,0
ore-85,true,1.00,1886,471,1862,446,91098,0
ore-86,false,0.62,2674,386,2656,386,129858,0
ore-87,true,1.00,1640,434,1623,410,79501,0
ore-88,true,1.00,1619,440,1609,420,81292,0
ore-89,false,0.56,2373,265,2365,265,89436,0
ore-90,true,1.00,3201,488,3179,472,153066,0
ore-91,true,1.00,2219,454,2201,438,108296,0
ore-92,true,1.00,1499,405,1482,389,73989,0
ore-93,false,0.13,3524,154,3519,154,96449,0
ore-94,true,1.00,2365,441,2341,416,77682,0
ore-95,true,1.00,2357,474,2335,457,112558,0
ore-96,true,1.00,2538,524,2520,508,123420,0
ore-97,false,0.78,2281,411,2270,411,105883,0
ore-98,true,1.00,1881,414,1866,397,92690,0
ore-99,true,1.00,2902,520,2866,503,116389,0
ore-100,true,1.00,2372,471,2350,453,93985,0
