NDW:0.0
TTFW:0.8
DFPT:2.0
DFPAP:3.0
DFPMP:50.0
RIGHT_WINDOW_BORDER_X:75.0
level,win/fail,% travelled,run time,game ticks,planning time,total plannings,nodes evaluated,most backtracked nodes
ge-1,true,1.00,1715,362,1709,346,93044,0
ge-2,true,1.00,979,320,975,313,53879,0
ge-3,true,1.00,309,290,304,282,17158,0
ge-4,false,0.36,2081,164,2079,164,114155,0
ge-5,true,1.00,36,238,29,231,2049,0
ge-6,false,0.54,169,171,160,171,8615,0
ge-7,true,1.00,426,285,419,278,23549,0
ge-8,true,1.00,793,282,787,274,43909,0
ge-9,true,1.00,1571,315,1562,308,85783,0
ge-10,true,1.00,39,240,37,232,2113,0
ge-11,true,1.00,979,287,973,280,56439,0
ge-12,true,1.00,41,244,35,237,2334,0
ge-13,true,1.00,1535,349,1530,342,84693,0
ge-14,true,1.00,869,316,861,306,46628,0
ge-15,false,0.77,2619,309,2615,309,145309,0
ge-16,true,1.00,430,332,424,325,25134,0
ge-17,true,1.00,1256,289,1250,282,78683,0
ge-18,false,0.09,3539,133,3538,133,202036,0
ge-19,true,1.00,3477,388,3472,379,189605,0
ge-20,true,1.00,1688,335,1682,328,92976,0
ge-21,true,1.00,916,279,913,272,48720,0
ge-22,true,1.00,2321,361,2311,354,127277,0
ge-23,false,0.75,1851,277,1849,277,105686,0
ge-24,false,0.71,2228,284,2219,284,124716,0
ge-25,false,0.63,3504,277,3501,277,194511,0
ge-26,true,1.00,2649,334,2641,327,156992,0
ge-27,true,1.00,64,274,58,267,3699,0
ge-28,false,0.53,3844,278,3841,278,200416,0
ge-29,true,1.00,1112,320,1105,297,61145,0
ge-30,false,0.37,4871,248,4869,248,281785,0
ge-31,false,0.23,108,65,106,65,6109,0
ge-32,true,1.00,433,278,427,271,23561,0
ge-33,true,1.00,120,258,111,242,6661,0
ge-34,false,0.11,41,36,40,36,2375,0
ge-35,true,1.00,1687,363,1679,355,90880,0
ge-36,false,0.74,23452,999,23445,999,1345344,0
ge-37,true,1.00,2630,359,2625,352,140261,0
ge-38,false,0.73,25605,999,25595,999,1353518,0
ge-39,true,1.00,997,301,990,294,56087,0
ge-40,true,1.00,38,238,34,231,2153,0
ge-41,true,1.00,2320,335,2312,328,131151,0
ge-42,true,1.00,3122,446,3115,438,170879,0
ge-43,true,1.00,740,313,735,306,42320,0
ge-44,false,0.69,3754,321,3750,321,196188,0
ge-45,true,1.00,2694,386,2686,379,147417,0
ge-46,false,0.30,2833,183,2831,183,151451,0
ge-47,false,0.51,4280,274,4279,274,236947,0
ge-48,false,0.62,1813,251,1808,251,100715,0
ge-49,true,1.00,1103,294,1098,287,59814,0
ge-50,false,0.34,2168,168,2164,168,117946,0
ge-51,true,1.00,199,268,193,260,11066,0
ge-52,true,1.00,567,305,565,297,31470,0
ge-53,true,1.00,1106,299,1097,292,59396,0
ge-54,true,1.00,1391,299,1382,291,87870,0
ge-55,true,1.00,1041,321,1039,313,57683,0
ge-56,false,0.73,3285,290,3280,290,182337,0
ge-57,false,0.93,2116,310,2109,310,116551,0
ge-58,true,1.00,191,321,183,308,10972,0
ge-59,false,0.50,2795,247,2794,247,156249,0
ge-60,false,0.22,2821,159,2821,159,151525,0
ge-61,false,0.80,3162,324,3157,324,172780,0
ge-62,false,0.40,3563,273,3560,273,202024,0
ge-63,false,0.19,30175,999,30173,999,1625803,0
ge-64,false,1.00,1438,335,1431,321,72307,0
ge-65,false,0.67,4345,322,4341,322,228826,0
ge-66,false,0.24,3349,171,3347,171,186769,0
ge-67,true,1.00,1930,351,1924,344,104436,0
ge-68,true,1.00,193,300,186,293,10533,0
ge-69,true,1.00,305,248,301,241,16529,0
ge-70,false,0.86,2158,296,2152,296,120803,0
ge-71,false,0.29,1984,153,1980,153,114025,0
ge-72,true,1.00,229,293,221,285,12671,0
ge-73,true,1.00,2231,364,2224,356,124265,0
ge-74,false,0.45,1967,204,1963,204,112381,0
ge-75,true,1.00,2047,347,2040,339,115550,0
ge-76,false,0.60,5232,338,5226,338,282496,0
ge-77,false,0.11,1495,85,1493,85,82824,0
ge-78,false,0.55,66,153,62,153,3736,0
ge-79,true,1.00,681,286,677,277,36264,0
ge-80,true,1.00,64,261,61,254,3662,0
ge-81,true,1.00,59,254,51,246,3413,0
ge-82,true,1.00,77,268,70,255,4327,0
ge-83,false,1.00,2180,380,2165,369,122347,0
ge-84,false,0.12,2700,132,2699,132,155757,0
ge-85,true,1.00,2357,341,2350,333,135201,0
ge-86,false,0.93,7705,540,7701,540,428835,0
ge-87,true,1.00,4000,377,3994,370,221143,0
ge-88,false,0.38,3286,198,3280,198,185496,0
ge-89,true,1.00,232,308,223,301,13319,0
ge-90,true,1.00,37,238,35,231,2077,0
ge-91,false,0.87,1953,278,1947,278,107777,0
ge-92,true,1.00,42,238,40,231,2383,0
ge-93,true,1.00,3442,437,3431,430,189399,0
ge-94,true,1.00,2293,344,2287,336,128721,0
ge-95,true,1.00,135,317,124,310,7979,0
ge-96,false,0.32,2878,199,2876,199,157452,0
ge-97,false,0.62,2179,229,2175,229,120941,0
ge-98,true,1.00,37,238,35,231,2059,0
ge-99,true,1.00,603,253,596,246,31544,0
ge-100,true,1.00,1596,303,1588,296,87797,0
