NDW:0.0
TTFW:0.8
DFPT:2.0
DFPAP:3.0
DFPMP:20.0
RIGHT_WINDOW_BORDER_X:35.0
level,win/fail,% travelled,run time,game ticks,planning time,total plannings,nodes evaluated,most backtracked nodes
patternWeightCount-1,false,0.03,948,106,945,106,59727,0
patternWeightCount-2,false,0.92,3586,995,3563,995,196416,0
patternWeightCount-3,false,0.11,1557,231,1549,231,85038,0
patternWeightCount-4,true,1.00,3483,901,3465,896,187467,0
patternWeightCount-5,false,0.21,3867,397,3859,397,215647,0
patternWeightCount-6,false,0.49,6371,772,6361,772,351866,0
patternWeightCount-7,false,0.43,17812,999,17799,999,954589,0
patternWeightCount-8,true,1.00,2118,930,2099,925,113307,0
patternWeightCount-9,false,0.27,2500,372,2489,372,139822,0
patternWeightCount-10,false,0.56,5832,794,5810,794,313918,0
patternWeightCount-11,false,0.91,4000,999,3975,999,226271,0
patternWeightCount-12,false,0.44,6474,640,6461,640,353775,0
patternWeightCount-13,false,0.37,4012,673,3999,673,218541,0
patternWeightCount-14,false,0.12,1604,156,1602,156,89724,0
patternWeightCount-15,false,0.14,2081,207,2077,207,121470,0
patternWeightCount-16,false,0.73,6089,999,6065,999,346395,0
patternWeightCount-17,false,0.39,4126,536,4109,536,237492,0
patternWeightCount-18,false,0.01,6,21,5,21,422,0
patternWeightCount-19,true,1.00,3194,907,3181,903,174812,0
patternWeightCount-20,false,0.58,7668,926,7643,926,427438,0
patternWeightCount-21,true,1.00,2510,990,2489,985,143342,0
patternWeightCount-22,false,0.31,3528,496,3518,496,196214,0
patternWeightCount-23,false,0.07,1858,151,1857,151,100558,0
patternWeightCount-24,false,0.10,1797,220,1792,220,103799,0
patternWeightCount-25,false,0.06,989,119,983,119,54942,0
patternWeightCount-26,false,0.19,2578,372,2573,372,147436,0
patternWeightCount-27,false,0.13,2926,236,2921,236,169624,0
patternWeightCount-28,false,0.05,489,81,487,81,29391,0
patternWeightCount-29,false,0.29,2931,438,2927,438,163762,0
patternWeightCount-30,false,0.24,543,265,537,265,33760,0
patternWeightCount-31,false,0.19,1601,241,1595,241,94765,0
patternWeightCount-32,true,1.00,2867,915,2844,911,164714,0
patternWeightCount-33,true,1.00,3387,911,3365,907,199881,0
patternWeightCount-34,false,0.18,5070,411,5065,411,298948,0
patternWeightCount-35,false,0.64,7364,969,7340,969,416981,0
patternWeightCount-36,false,0.70,4460,999,4442,999,254328,0
patternWeightCount-37,false,0.04,282,131,275,131,18606,0
patternWeightCount-38,false,0.10,587,122,583,122,34285,0
patternWeightCount-39,false,0.12,4820,369,4809,369,282083,0
patternWeightCount-40,false,0.56,2169,616,2157,616,124314,0
patternWeightCount-41,false,0.11,2423,201,2420,201,132912,0
patternWeightCount-42,false,0.39,3776,572,3760,572,206972,0
patternWeightCount-43,false,0.21,3018,296,3014,296,165580,0
patternWeightCount-44,false,0.13,845,200,838,200,51050,0
patternWeightCount-45,false,0.18,1489,259,1484,259,81424,0
patternWeightCount-46,false,0.27,2868,325,2863,325,153539,0
patternWeightCount-47,false,0.17,440,154,437,154,24700,0
patternWeightCount-48,true,1.00,3985,947,3964,943,223247,0
patternWeightCount-49,false,0.99,5137,999,5113,999,297233,0
patternWeightCount-50,false,0.45,4546,617,4534,617,251471,0
patternWeightCount-51,false,0.18,3278,296,3274,296,185947,0
patternWeightCount-52,false,0.63,3663,743,3653,743,209740,0
patternWeightCount-53,false,0.28,2384,339,2376,339,128140,0
patternWeightCount-54,false,0.02,300,51,299,51,20905,0
patternWeightCount-55,false,0.92,5068,999,5045,999,291695,0
patternWeightCount-56,false,0.19,3903,389,3899,389,222770,0
patternWeightCount-57,true,1.00,4144,949,4129,945,236941,0
patternWeightCount-58,false,0.46,3281,639,3267,639,181288,0
patternWeightCount-59,true,1.00,3156,879,3134,875,189314,0
patternWeightCount-60,false,0.01,681,86,680,86,47931,0
patternWeightCount-61,false,0.00,5540,999,5517,999,412373,0
patternWeightCount-62,false,0.85,5329,999,5307,999,293477,0
patternWeightCount-63,false,0.02,997,999,975,999,60564,0
patternWeightCount-64,false,0.68,9169,999,9147,999,507663,0
patternWeightCount-65,false,0.83,6772,999,6754,999,378742,0
patternWeightCount-66,false,0.98,4598,999,4572,999,261350,0
patternWeightCount-67,false,0.40,2069,446,2059,446,115359,0
patternWeightCount-68,false,0.85,4382,999,4360,999,247511,0
patternWeightCount-69,false,0.82,3510,865,3487,865,197049,0
patternWeightCount-70,false,0.74,5118,999,5100,999,288739,0
patternWeightCount-71,false,0.21,26596,999,26590,999,1523529,0
patternWeightCount-72,false,0.75,5728,999,5706,999,328645,0
patternWeightCount-73,false,0.07,2003,164,2000,164,113482,0
patternWeightCount-74,false,0.85,5496,999,5474,999,318561,0
patternWeightCount-75,false,0.26,2401,339,2392,339,137025,0
patternWeightCount-76,false,0.06,367,79,366,79,20927,0
patternWeightCount-77,false,0.12,3128,244,3126,244,180498,0
patternWeightCount-78,false,0.05,1131,150,1127,150,71756,0
patternWeightCount-79,false,0.09,2279,161,2275,161,135261,0
patternWeightCount-80,false,0.71,6720,999,6700,999,372559,0
patternWeightCount-81,false,0.41,3349,578,3339,578,188284,0
patternWeightCount-82,true,1.00,812,833,787,829,48477,0
patternWeightCount-83,false,0.19,4527,414,4516,414,266948,0
patternWeightCount-84,false,0.41,4014,485,4005,485,221215,0
patternWeightCount-85,false,0.24,1703,272,1695,272,97546,0
patternWeightCount-86,false,0.40,1734,424,1729,424,101821,0
patternWeightCount-87,false,0.71,10725,999,10706,999,581658,0
patternWeightCount-88,false,0.08,2416,236,2411,236,133897,0
patternWeightCount-89,false,0.45,2754,567,2738,567,152363,0
patternWeightCount-90,false,0.10,954,168,949,168,55283,0
patternWeightCount-91,false,0.04,641,75,640,75,35258,0
patternWeightCount-92,false,0.60,5123,756,5111,756,282269,0
patternWeightCount-93,false,0.29,3563,429,3555,429,200708,0
patternWeightCount-94,false,0.67,8585,1008,8569,1008,482300,0
patternWeightCount-95,false,0.10,1386,147,1385,147,85626,0
patternWeightCount-96,false,0.68,5379,836,5358,836,300708,0
patternWeightCount-97,false,0.24,2185,372,2176,372,128166,0
patternWeightCount-98,false,0.64,6763,893,6746,893,376172,0
patternWeightCount-99,false,0.13,1174,203,1171,203,67787,0
patternWeightCount-100,true,1.00,6540,961,6526,957,368461,0
