NDW:0.0
TTFW:0.4
DFPT:2.0
DFPAP:3.0
DFPMP:10.0
RIGHT_WINDOW_BORDER_X:135.0
level,win/fail,% travelled,run time,game ticks,planning time,total plannings,nodes evaluated,most backtracked nodes
Krys-1,true,1.00,6790,610,6788,594,550845,0
Krys-2,false,0.79,12615,999,12603,999,839157,0
Krys-3,true,1.00,9199,670,9194,653,862437,0
Krys-4,true,1.00,3752,535,3748,518,315267,0
Krys-5,true,1.00,4610,472,4610,450,442022,0
Krys-6,true,1.00,1436,411,1430,391,134754,0
Krys-7,true,1.00,437,322,432,307,43652,0
Krys-8,true,1.00,2082,522,2080,500,187989,0
Krys-9,true,1.00,5948,533,5946,512,587945,0
Krys-10,true,1.00,1714,392,1712,379,166998,0
Krys-11,true,1.00,884,378,878,365,69249,0
Krys-12,false,0.70,25026,999,25025,999,1711603,0
Krys-13,false,0.62,1388,247,1387,247,130669,0
Krys-14,false,0.79,13419,999,13406,999,869415,0
Krys-15,true,1.00,7656,586,7654,570,780236,0
Krys-16,false,0.69,12794,999,12785,999,847560,0
Krys-17,true,1.00,3290,466,3289,445,274342,0
Krys-18,true,1.00,2637,535,2632,519,207904,0
Krys-19,false,0.83,4654,433,4651,433,429953,0
Krys-20,true,1.00,6254,685,6250,658,563771,0
Krys-21,true,1.00,5028,479,5025,463,507777,0
Krys-22,true,1.00,5878,511,5876,489,600129,0
Krys-23,true,1.00,2618,525,2616,503,205760,0
Krys-24,false,0.70,24832,999,24829,999,1616240,0
Krys-25,true,1.00,2465,401,2465,371,210906,0
Krys-26,false,0.62,4483,320,4483,320,462534,0
Krys-27,true,1.00,4986,554,4980,532,443654,0
Krys-28,true,1.00,4014,523,4009,503,365512,0
Krys-29,true,1.00,3388,570,3384,557,266935,0
Krys-30,true,1.00,2788,580,2783,557,216154,0
Krys-31,true,1.00,1866,438,1865,423,162670,0
Krys-32,true,1.00,667,360,666,348,56099,0
Krys-33,true,1.00,595,353,595,335,53314,0
Krys-34,true,1.00,3685,561,3681,537,300317,0
Krys-35,true,1.00,5920,500,5919,486,613508,0
Krys-36,true,1.00,5933,483,5929,470,545283,0
Krys-37,false,0.75,8844,563,8842,563,781329,0
Krys-38,true,1.00,9033,618,9031,599,904905,0
Krys-39,false,0.21,2756,198,2756,198,252264,0
Krys-40,true,1.00,4815,593,4810,571,466070,0
Krys-41,true,1.00,7571,506,7569,492,712604,0
Krys-42,true,1.00,4884,516,4881,498,494148,0
Krys-43,true,1.00,4659,410,4659,396,389405,0
Krys-44,false,0.62,6055,442,6052,442,553689,0
Krys-45,true,1.00,1657,397,1653,384,117735,0
Krys-46,true,1.00,3069,537,3064,508,239350,0
Krys-47,true,1.00,1813,452,1812,430,151476,0
Krys-48,true,1.00,6149,523,6149,510,599924,0
Krys-49,true,1.00,2533,490,2529,470,210051,0
Krys-50,false,0.70,22541,999,22536,999,1557214,0
Krys-51,true,1.00,8459,638,8458,625,812990,0
Krys-52,true,1.00,2628,595,2620,578,194209,0
Krys-53,true,1.00,2306,438,2299,422,181426,0
Krys-54,true,1.00,3232,443,3230,429,296203,0
Krys-55,true,1.00,3276,463,3275,443,265869,0
Krys-56,true,1.00,1374,405,1372,383,106103,0
Krys-57,true,1.00,3059,377,3055,363,261908,0
Krys-58,true,1.00,3987,528,3979,516,315178,0
Krys-59,false,0.89,12150,999,12137,999,801747,0
Krys-60,true,1.00,5832,529,5829,511,551596,0
Krys-61,true,1.00,2789,412,2788,400,216691,0
Krys-62,true,1.00,1825,404,1823,390,129954,0
Krys-63,true,1.00,4912,643,4909,623,381177,0
Krys-64,true,1.00,3533,551,3531,535,286733,0
Krys-65,true,1.00,3402,470,3400,458,254302,0
Krys-66,true,1.00,2549,493,2545,471,192536,0
Krys-67,true,1.00,1769,441,1767,421,151282,0
Krys-68,false,0.82,7823,577,7818,577,720474,0
Krys-69,true,1.00,5753,646,5744,626,415912,0
Krys-70,true,1.00,4234,564,4231,549,367303,0
Krys-71,true,1.00,6726,605,6725,584,696457,0
Krys-72,true,1.00,2404,495,2399,482,201976,0
Krys-73,true,1.00,6385,540,6378,525,565426,0
Krys-74,true,1.00,2117,371,2114,351,175139,0
Krys-75,true,1.00,693,355,692,335,56137,0
Krys-76,false,0.52,4653,347,4653,347,453427,0
Krys-77,true,1.00,4125,469,4121,439,408918,0
Krys-78,true,1.00,7080,616,7077,603,675744,0
Krys-79,true,1.00,1353,376,1352,363,103588,0
Krys-80,true,1.00,800,399,798,386,66670,0
Krys-81,true,1.00,1822,371,1819,351,159324,0
Krys-82,true,1.00,1040,370,1037,352,81067,0
Krys-83,true,1.00,5300,517,5298,494,480948,0
Krys-84,true,1.00,316,339,314,310,30501,0
Krys-85,true,1.00,4622,550,4619,530,396653,0
Krys-86,true,1.00,2120,375,2120,359,162825,0
Krys-87,true,1.00,960,371,958,359,74948,0
Krys-88,true,1.00,3122,419,3122,398,251659,0
Krys-89,true,1.00,2667,389,2663,374,225855,0
Krys-90,true,1.00,9536,566,9535,553,892727,0
Krys-91,true,1.00,469,373,463,346,44114,0
Krys-92,true,1.00,7551,675,7547,650,642669,0
Krys-93,true,1.00,5217,479,5215,464,536179,0
Krys-94,true,1.00,2414,416,2410,396,244931,0
Krys-95,true,1.00,2500,399,2496,386,191473,0
Krys-96,false,0.82,4858,406,4855,406,463482,0
Krys-97,true,1.00,2722,413,2720,393,238515,0
Krys-98,true,1.00,3678,574,3676,557,296546,0
Krys-99,true,1.00,1711,449,1709,436,128174,0
Krys-100,false,0.62,4005,330,4004,330,403680,0
