NDW:0.0
TTFW:1.8
DFPT:2.0
DFPAP:3.0
DFPMP:50.0
RIGHT_WINDOW_BORDER_X:75.0
level,win/fail,% travelled,run time,game ticks,planning time,total plannings,nodes evaluated,most backtracked nodes
notch-1,true,1.00,1444,328,1443,321,148246,0
notch-2,true,1.00,3185,460,3183,454,357790,0
notch-3,true,1.00,1887,341,1886,334,200523,0
notch-4,true,1.00,972,308,970,301,100586,0
notch-5,true,1.00,906,287,905,278,93834,0
notch-6,true,1.00,1436,322,1434,315,158349,0
notch-7,true,1.00,550,332,546,325,61458,0
notch-8,true,1.00,994,378,993,371,112344,0
notch-9,true,1.00,2756,420,2754,410,290036,0
notch-10,true,1.00,1160,350,1159,344,123499,0
notch-11,true,1.00,2266,377,2262,371,231305,0
notch-12,true,1.00,1495,377,1494,370,157010,0
notch-13,false,0.12,70,44,69,44,7211,0
notch-14,true,1.00,922,323,921,317,94977,0
notch-15,true,1.00,1575,345,1573,338,173690,0
notch-16,true,1.00,1217,381,1212,375,131735,0
notch-17,true,1.00,898,320,895,313,96873,0
notch-18,true,1.00,1811,406,1809,399,209647,0
notch-19,true,1.00,2096,388,2095,381,223872,0
notch-20,true,1.00,2617,425,2615,419,290255,0
notch-21,false,0.39,1793,216,1793,216,201752,0
notch-22,true,1.00,1143,336,1142,330,113319,0
notch-23,true,1.00,2913,396,2912,389,305751,0
notch-24,true,1.00,694,307,694,301,75128,0
notch-25,true,1.00,3159,424,3157,418,335373,0
notch-26,true,1.00,1969,328,1967,320,212807,0
notch-27,true,1.00,3599,451,3598,444,419078,0
notch-28,true,1.00,1666,325,1665,318,179347,0
notch-29,true,1.00,2022,405,2021,398,214381,0
notch-30,true,1.00,2550,407,2549,400,258197,0
notch-31,true,1.00,1513,368,1511,361,160727,0
notch-32,true,1.00,1362,393,1360,386,146067,0
notch-33,true,1.00,1743,309,1740,303,183807,0
notch-34,true,1.00,1422,369,1421,363,156139,0
notch-35,true,1.00,819,316,818,309,90441,0
notch-36,true,1.00,1755,373,1753,366,183633,0
notch-37,false,0.71,2010,322,2010,322,224389,0
notch-38,true,1.00,2580,420,2579,413,265517,0
notch-39,true,1.00,1115,334,1113,327,117834,0
notch-40,true,1.00,1534,405,1532,398,167676,0
notch-41,true,1.00,2015,378,2013,371,215267,0
notch-42,false,0.10,68,37,68,37,7164,0
notch-43,true,1.00,1298,347,1297,341,146409,0
notch-44,true,1.00,1409,323,1405,316,152570,0
notch-45,true,1.00,883,323,882,316,93979,0
notch-46,true,1.00,1558,394,1555,388,173961,0
notch-47,true,1.00,2337,437,2334,430,251911,0
notch-48,true,1.00,2419,350,2417,343,258895,0
notch-49,true,1.00,2240,363,2237,356,229262,0
notch-50,true,1.00,2781,489,2780,482,311026,0
notch-51,true,1.00,1138,343,1136,336,122908,0
notch-52,true,1.00,1164,345,1162,338,123135,0
notch-53,true,1.00,415,294,413,287,42061,0
notch-54,true,1.00,2178,408,2178,401,238513,0
notch-55,true,1.00,3377,487,3376,480,352376,0
notch-56,true,1.00,1249,375,1247,368,128307,0
notch-57,true,1.00,849,323,847,317,89809,0
notch-58,true,1.00,3995,498,3995,491,470628,0
notch-59,true,1.00,921,358,918,350,93804,0
notch-60,true,1.00,1189,322,1185,316,121145,0
notch-61,true,1.00,1645,352,1642,345,182725,0
notch-62,true,1.00,905,330,902,324,97859,0
notch-63,true,1.00,1578,419,1577,412,182470,0
notch-64,true,1.00,1353,326,1350,319,139414,0
notch-65,true,1.00,3164,464,3160,457,368426,0
notch-66,true,1.00,2573,469,2569,462,279264,0
notch-67,true,1.00,1875,351,1875,344,186879,0
notch-68,true,1.00,593,296,592,289,62715,0
notch-69,false,0.81,2144,353,2141,353,242156,0
notch-70,true,1.00,1752,369,1748,362,193285,0
notch-71,true,1.00,2614,416,2611,409,269393,0
notch-72,true,1.00,949,299,948,292,100156,0
notch-73,true,1.00,1092,331,1090,325,119922,0
notch-74,true,1.00,1052,369,1051,362,120482,0
notch-75,true,1.00,1438,343,1437,336,152411,0
notch-76,true,1.00,2152,414,2148,407,223905,0
notch-77,true,1.00,1850,369,1847,363,204025,0
notch-78,true,1.00,1319,345,1316,338,145043,0
notch-79,true,1.00,1593,415,1592,408,166835,0
notch-80,true,1.00,647,287,647,281,65037,0
notch-81,true,1.00,1700,361,1699,355,178923,0
notch-82,true,1.00,3176,419,3175,412,338546,0
notch-83,true,1.00,2157,433,2153,426,236278,0
notch-84,true,1.00,712,279,711,272,71677,0
notch-85,true,1.00,764,308,763,301,82175,0
notch-86,true,1.00,1868,349,1868,342,207971,0
notch-87,true,1.00,2968,443,2965,437,321169,0
notch-88,false,0.60,2636,338,2635,338,286827,0
notch-89,true,1.00,3315,452,3313,445,367455,0
notch-90,true,1.00,2717,400,2715,394,296118,0
notch-91,true,1.00,3302,457,3301,450,352543,0
notch-92,true,1.00,1667,340,1666,333,178176,0
notch-93,true,1.00,1790,375,1789,368,192316,0
notch-94,true,1.00,1938,358,1934,351,210051,0
notch-95,true,1.00,1708,359,1707,353,170180,0
notch-96,true,1.00,843,306,840,300,91890,0
notch-97,true,1.00,991,297,990,291,106549,0
notch-98,true,1.00,3086,460,3083,453,334263,0
notch-99,true,1.00,1127,359,1124,352,124802,0
notch-100,true,1.00,1579,373,1578,366,175197,0
