NDW:0.0
TTFW:1.6
DFPT:2.0
DFPAP:3.0
DFPMP:20.0
RIGHT_WINDOW_BORDER_X:215.0
level,win/fail,% travelled,run time,game ticks,planning time,total plannings,nodes evaluated,most backtracked nodes
Mario-1,true,1.00,657,410,653,373,66128,0
Mario-2,true,1.00,868,363,866,335,100092,0
Mario-3,true,1.00,1676,283,1676,240,205935,0
Mario-4,true,1.00,908,471,901,441,94708,0
Mario-5,true,1.00,984,476,981,430,105078,0
Mario-6,true,1.00,1746,282,1743,262,191393,0
Mario-7,true,1.00,550,423,548,380,53608,0
Mario-8,true,1.00,920,451,917,402,94428,0
Mario-9,true,1.00,361,409,360,366,42077,0
Mario-10,true,1.00,2121,338,2119,295,267062,0
Mario-11,true,1.00,880,438,878,402,97199,0
Mario-12,true,1.00,1018,711,1010,673,87246,0
Mario-13,true,1.00,1677,329,1675,308,205027,0
Mario-14,true,1.00,165,391,163,357,16234,0
Mario-15,true,1.00,1931,865,1927,829,202586,0
