NDW:0.0
TTFW:1.0
DFPT:2.0
DFPAP:3.0
DFPMP:20.0
RIGHT_WINDOW_BORDER_X:215.0
level,win/fail,% travelled,run time,game ticks,planning time,total plannings,nodes evaluated,most backtracked nodes
Krys-1,true,1.00,7353,575,7344,533,269114,0
Krys-2,true,1.00,2558,433,2537,410,92000,0
Krys-3,false,0.70,26641,999,26635,999,852626,0
Krys-4,true,1.00,3719,477,3705,427,129808,0
Krys-5,true,1.00,1636,343,1622,306,71096,0
Krys-6,true,1.00,1409,359,1399,321,57756,0
Krys-7,true,1.00,514,349,503,307,20090,0
Krys-8,true,1.00,2518,460,2503,411,98731,0
Krys-9,true,1.00,2448,337,2440,306,108960,0
Krys-10,true,1.00,2214,333,2202,301,90317,0
Krys-11,true,1.00,535,362,525,341,18017,0
Krys-12,false,0.70,26194,999,26177,999,807437,0
Krys-13,true,1.00,3104,394,3087,344,124106,0
Krys-14,true,1.00,1635,391,1618,349,52855,0
Krys-15,true,1.00,3968,410,3961,367,160931,0
Krys-16,false,0.39,27890,999,27880,999,846511,0
Krys-17,true,1.00,2633,389,2622,364,96788,0
Krys-18,true,1.00,1642,431,1631,393,60514,0
Krys-19,true,1.00,2995,368,2985,337,123605,0
Krys-20,true,1.00,4522,574,4509,537,185827,0
Krys-21,true,1.00,1797,318,1788,293,85451,0
Krys-22,true,1.00,2419,356,2409,304,118381,0
Krys-23,true,1.00,2219,436,2204,387,89420,0
Krys-24,true,1.00,4876,412,4864,369,189441,0
Krys-25,true,1.00,2609,371,2598,335,88365,0
Krys-26,true,1.00,2508,311,2497,268,111275,0
Krys-27,true,1.00,3195,400,3184,364,120916,0
Krys-28,true,1.00,7796,552,7775,509,280759,0
Krys-29,true,1.00,2437,420,2422,395,89896,0
Krys-30,true,1.00,2935,490,2921,448,108624,0
Krys-31,true,1.00,2481,432,2468,393,105708,0
Krys-32,true,1.00,895,444,888,405,32609,0
Krys-33,true,1.00,583,339,562,304,21691,0
Krys-34,true,1.00,4020,494,4008,454,155535,0
Krys-35,true,1.00,2433,351,2423,320,108924,0
Krys-36,false,0.91,24822,999,24810,999,783019,0
Krys-37,true,1.00,4525,427,4512,402,194408,0
Krys-38,true,1.00,4735,420,4726,383,219814,0
Krys-39,true,1.00,5216,427,5209,391,219644,0
Krys-40,true,1.00,3724,391,3715,356,166635,0
Krys-41,false,0.70,26792,999,26785,999,889733,0
Krys-42,true,1.00,2271,347,2264,309,96504,0
Krys-43,true,1.00,1877,331,1870,297,84722,0
Krys-44,true,1.00,5051,419,5039,376,208604,0
Krys-45,false,0.39,28688,999,28679,999,858597,0
Krys-46,true,1.00,2876,480,2859,443,100687,0
Krys-47,true,1.00,2060,480,2050,439,76626,0
Krys-48,true,1.00,1867,311,1858,281,84852,0
Krys-49,true,1.00,1323,386,1301,340,47008,0
Krys-50,true,1.00,4663,476,4643,445,169188,0
Krys-51,true,1.00,2890,361,2880,328,122904,0
Krys-52,true,1.00,3408,520,3393,482,121673,0
Krys-53,true,1.00,2431,407,2416,382,86620,0
Krys-54,true,1.00,3938,419,3923,385,155314,0
Krys-55,true,1.00,3221,469,3209,435,119934,0
Krys-56,false,0.59,27349,999,27339,999,810367,0
Krys-57,true,1.00,2269,342,2264,304,97464,0
Krys-58,true,1.00,2376,367,2366,342,83929,0
Krys-59,false,0.38,29155,999,29153,999,877827,0
Krys-60,true,1.00,3265,389,3256,353,119219,0
Krys-61,false,0.48,27488,999,27483,999,822367,0
Krys-62,true,1.00,2034,409,2018,379,63609,0
Krys-63,true,1.00,5667,620,5646,574,193603,0
Krys-64,true,1.00,3467,543,3452,506,129170,0
Krys-65,true,1.00,3069,429,3052,404,106574,0
Krys-66,true,1.00,2777,417,2768,380,96573,0
Krys-67,true,1.00,3953,503,3939,478,139630,0
Krys-68,true,1.00,3140,336,3137,293,137758,0
Krys-69,true,1.00,9126,705,9105,668,298694,0
Krys-70,false,0.80,24758,999,24754,999,770089,0
Krys-71,true,1.00,3061,374,3052,331,143620,0
Krys-72,true,1.00,1827,451,1813,413,73244,0
Krys-73,false,0.80,25179,999,25170,999,801929,0
Krys-74,true,1.00,1824,382,1811,336,65013,0
Krys-75,true,1.00,1047,339,1037,303,31408,0
Krys-76,true,1.00,3855,402,3838,374,145217,0
Krys-77,true,1.00,1382,382,1369,345,59256,0
Krys-78,false,0.91,23928,999,23890,999,814591,0
Krys-79,true,1.00,1717,412,1706,361,57607,0
Krys-80,true,1.00,807,400,798,362,27499,0
Krys-81,true,1.00,1888,412,1871,373,70379,0
Krys-82,true,1.00,1336,377,1322,334,42979,0
Krys-83,false,0.91,24223,999,24212,999,728681,0
Krys-84,true,1.00,425,345,412,305,14954,0
Krys-85,true,1.00,4461,501,4445,464,151707,0
Krys-86,true,1.00,3502,441,3492,403,121316,0
Krys-87,true,1.00,1283,368,1271,346,39221,0
Krys-88,true,1.00,3257,457,3242,424,114981,0
Krys-89,true,1.00,2357,398,2345,365,84043,0
Krys-90,true,1.00,3738,363,3730,308,158670,0
Krys-91,true,1.00,446,367,438,333,17726,0
Krys-92,false,0.91,23714,999,23703,999,725737,0
Krys-93,true,1.00,2980,349,2968,315,125899,0
Krys-94,true,1.00,1610,381,1594,340,69115,0
Krys-95,true,1.00,1887,373,1875,331,62946,0
Krys-96,true,1.00,4476,420,4465,388,198198,0
Krys-97,true,1.00,2337,364,2328,326,89898,0
Krys-98,true,1.00,5399,503,5386,477,180202,0
Krys-99,true,1.00,1826,482,1812,433,61248,0
Krys-100,true,1.00,2784,335,2779,306,129228,0
