NDW:0.0
TTFW:2.0
DFPT:2.0
DFPAP:3.0
DFPMP:3.0
RIGHT_WINDOW_BORDER_X:155.0
level,win/fail,% travelled,run time,game ticks,planning time,total plannings,nodes evaluated,most backtracked nodes
hopper-1,true,1.00,1113,323,1097,309,46275,0
hopper-2,true,1.00,1074,315,1058,301,44394,0
hopper-3,false,0.25,515,83,512,83,20449,0
hopper-4,false,0.27,525,94,520,94,22130,0
hopper-5,true,1.00,1095,326,1087,312,50259,0
hopper-6,true,1.00,929,313,919,299,46108,0
hopper-7,false,0.83,2056,286,2050,286,89485,0
hopper-8,false,0.41,1784,167,1783,167,75016,0
hopper-9,true,1.00,845,297,838,283,40862,0
hopper-10,true,1.00,820,315,812,301,41488,0
hopper-11,true,1.00,683,321,677,307,33770,0
hopper-12,true,1.00,988,321,982,306,48527,0
hopper-13,false,0.40,863,131,860,131,40196,0
hopper-14,true,1.00,1091,324,1084,309,53503,0
hopper-15,true,1.00,986,301,976,287,47205,0
hopper-16,false,0.54,864,171,857,171,39181,0
hopper-17,true,1.00,1053,313,1044,299,49555,0
hopper-18,true,1.00,1054,312,1042,298,49083,0
hopper-19,true,1.00,801,311,796,297,37967,0
hopper-20,true,1.00,1267,341,1255,327,59748,0
hopper-21,false,0.61,955,200,948,200,43780,0
hopper-22,false,0.32,654,109,652,109,28464,0
hopper-23,true,1.00,1180,320,1170,306,55579,0
hopper-24,true,1.00,666,337,653,323,30734,0
hopper-25,true,1.00,1094,309,1085,295,52479,0
hopper-26,true,1.00,1030,301,1020,287,48544,0
hopper-27,true,1.00,909,299,898,285,42653,0
hopper-28,false,0.86,1794,292,1786,292,85775,0
hopper-29,false,0.26,2065,135,2063,135,81918,0
hopper-30,true,1.00,1070,330,1059,316,49552,0
hopper-31,false,0.77,1236,247,1229,247,55090,0
hopper-32,true,1.00,1236,301,1226,287,58744,0
hopper-33,false,0.50,714,169,710,169,32371,0
hopper-34,false,0.31,654,102,649,102,28825,0
hopper-35,true,1.00,1240,330,1227,316,58779,0
hopper-36,true,1.00,755,316,743,302,34850,0
hopper-37,false,0.51,703,169,700,169,29194,0
hopper-38,false,0.52,1735,196,1728,196,70531,0
hopper-39,false,0.52,1807,201,1803,201,74637,0
hopper-40,true,1.00,996,351,984,336,45506,0
hopper-41,false,0.25,514,83,513,83,22364,0
hopper-42,true,1.00,952,329,944,315,43667,0
hopper-43,false,0.45,1986,170,1981,170,81797,0
hopper-44,true,1.00,1340,315,1327,301,63710,0
hopper-45,false,0.43,844,154,841,154,37404,0
hopper-46,false,0.67,1186,234,1179,234,56903,0
hopper-47,true,1.00,1378,315,1372,301,65867,0
hopper-48,false,0.25,241,90,239,90,11397,0
hopper-49,true,1.00,1154,352,1137,338,55372,0
hopper-50,false,0.63,982,203,975,203,45226,0
hopper-51,false,0.33,2205,157,2203,157,85569,0
hopper-52,true,1.00,746,307,737,293,35535,0
hopper-53,false,0.63,2410,253,2403,253,101198,0
hopper-54,true,1.00,616,306,602,284,28440,0
hopper-55,true,1.00,821,345,809,330,38702,0
hopper-56,true,1.00,744,303,734,289,35263,0
hopper-57,true,1.00,1024,319,1015,305,45967,0
hopper-58,false,0.58,1985,211,1983,211,80008,0
hopper-59,true,1.00,815,309,803,295,37886,0
hopper-60,true,1.00,1027,333,1022,319,47768,0
hopper-61,false,0.82,1386,254,1376,254,62418,0
hopper-62,true,1.00,1332,338,1324,324,60705,0
hopper-63,false,0.23,545,80,541,80,23113,0
hopper-64,true,1.00,1061,319,1055,305,49094,0
hopper-65,true,1.00,1002,331,991,317,47521,0
hopper-66,false,0.74,936,253,923,253,41557,0
hopper-67,true,1.00,869,334,859,320,39474,0
hopper-68,true,1.00,891,326,877,312,43620,0
hopper-69,false,0.84,2773,324,2766,324,117480,0
hopper-70,true,1.00,1116,310,1108,296,54060,0
hopper-71,true,1.00,712,305,702,291,33549,0
hopper-72,true,1.00,1147,301,1138,287,49360,0
hopper-73,true,1.00,1035,315,1024,301,45417,0
hopper-74,true,1.00,782,305,765,291,33147,0
hopper-75,true,1.00,988,317,977,303,42746,0
hopper-76,false,0.47,936,149,931,149,39176,0
hopper-77,true,1.00,1160,351,1147,337,49296,0
hopper-78,true,1.00,1079,310,1070,296,48901,0
hopper-79,true,1.00,784,307,772,293,35434,0
hopper-80,true,1.00,675,311,660,297,29647,0
hopper-81,false,0.39,795,123,791,123,33340,0
hopper-82,false,0.45,930,147,928,147,40339,0
hopper-83,true,1.00,1359,324,1347,310,64793,0
hopper-84,true,1.00,1187,311,1181,297,54722,0
hopper-85,true,1.00,1240,345,1225,331,57362,0
hopper-86,true,1.00,971,316,962,302,46404,0
hopper-87,true,1.00,1105,315,1096,301,52651,0
hopper-88,true,1.00,749,339,735,325,36177,0
hopper-89,true,1.00,851,341,832,327,40453,0
hopper-90,true,1.00,895,314,883,300,43023,0
hopper-91,true,1.00,1062,322,1055,308,51690,0
hopper-92,true,1.00,1146,313,1136,299,53832,0
hopper-93,true,1.00,659,315,650,301,31301,0
hopper-94,false,0.64,2107,243,2099,243,89236,0
hopper-95,true,1.00,912,309,905,295,42125,0
hopper-96,true,1.00,1168,298,1159,284,52581,0
hopper-97,true,1.00,1247,312,1237,298,56657,0
hopper-98,true,1.00,1427,331,1417,317,65172,0
hopper-99,false,0.73,2170,262,2167,262,93784,0
hopper-100,true,1.00,1132,325,1125,311,51373,0
