NDW:0.0
TTFW:1.8
DFPT:2.0
DFPAP:3.0
DFPMP:1.0
RIGHT_WINDOW_BORDER_X:55.0
level,win/fail,% travelled,run time,game ticks,planning time,total plannings,nodes evaluated,most backtracked nodes
patternOccur-1,true,1.00,1769,607,1765,602,190049,0
patternOccur-2,true,1.00,1390,658,1387,647,176297,0
patternOccur-3,true,1.00,5419,959,5417,954,578832,0
patternOccur-4,true,1.00,2951,830,2945,825,333505,0
patternOccur-5,true,1.00,3503,826,3501,821,384290,0
patternOccur-6,false,0.05,1131,109,1131,109,151639,0
patternOccur-7,false,0.94,5321,999,5319,999,589468,0
patternOccur-8,false,0.37,21723,999,21719,999,2217904,0
patternOccur-9,true,1.00,6726,991,6724,986,700101,0
patternOccur-10,true,1.00,2933,821,2930,816,332965,0
patternOccur-11,false,0.86,5529,817,5527,817,619091,0
patternOccur-12,true,1.00,2865,761,2862,756,316142,0
patternOccur-13,false,0.04,329,76,329,76,40597,0
patternOccur-14,false,0.79,5581,806,5575,806,540922,0
patternOccur-15,true,1.00,6515,893,6513,888,674660,0
patternOccur-16,false,0.81,3830,742,3829,742,420096,0
patternOccur-17,true,1.00,5108,888,5103,883,534284,0
patternOccur-18,true,1.00,2006,769,2002,764,248458,0
patternOccur-19,false,0.82,8166,989,8159,989,948241,0
patternOccur-20,true,1.00,4442,801,4440,796,482756,0
patternOccur-21,true,1.00,5183,863,5178,858,628859,0
patternOccur-22,false,0.34,4781,477,4780,477,510847,0
patternOccur-23,false,0.92,9137,999,9131,999,939926,0
patternOccur-24,true,1.00,2738,864,2733,859,367670,0
patternOccur-25,true,1.00,3277,859,3274,854,369439,0
patternOccur-26,true,1.00,1883,703,1880,698,215978,0
patternOccur-27,false,0.89,7342,921,7337,921,696936,0
patternOccur-28,true,1.00,4596,799,4592,794,489768,0
patternOccur-29,true,1.00,2689,728,2686,721,301616,0
patternOccur-30,true,1.00,3906,886,3902,881,399565,0
patternOccur-31,false,0.78,5147,747,5143,747,594775,0
patternOccur-32,false,0.88,4834,822,4829,822,588327,0
patternOccur-33,true,1.00,4549,892,4545,887,503800,0
patternOccur-34,true,1.00,5261,940,5258,935,592766,0
patternOccur-35,false,0.51,3150,486,3148,486,355478,0
patternOccur-36,false,0.89,6854,978,6849,978,740167,0
patternOccur-37,false,0.83,8094,767,8090,767,859230,0
patternOccur-38,true,1.00,3244,863,3241,858,436545,0
patternOccur-39,false,0.80,8192,793,8189,793,853461,0
patternOccur-40,true,1.00,5076,954,5071,949,585561,0
patternOccur-41,false,0.11,1599,139,1599,139,173890,0
patternOccur-42,false,0.86,7929,932,7925,932,837471,0
patternOccur-43,false,0.75,3918,677,3915,677,443932,0
patternOccur-44,false,0.21,3819,257,3819,257,389756,0
patternOccur-45,false,0.93,5212,756,5204,756,560823,0
patternOccur-46,true,1.00,3455,829,3451,824,378268,0
patternOccur-47,false,0.37,6186,471,6183,471,621427,0
patternOccur-48,false,0.60,3541,606,3537,606,382485,0
patternOccur-49,true,1.00,4552,962,4551,957,489420,0
patternOccur-50,false,0.83,7720,918,7711,918,777880,0
patternOccur-51,true,1.00,5070,903,5064,898,564214,0
patternOccur-52,true,1.00,3948,745,3943,740,435375,0
patternOccur-53,true,1.00,5340,826,5339,821,582772,0
patternOccur-54,false,0.18,2268,210,2266,210,238650,0
patternOccur-55,false,0.35,2798,396,2796,396,310486,0
patternOccur-56,true,1.00,5682,954,5678,949,617666,0
patternOccur-57,false,0.22,27406,999,27406,999,2814691,0
patternOccur-58,false,0.73,17281,999,17276,999,1713484,0
patternOccur-59,true,1.00,4421,881,4420,876,488711,0
patternOccur-60,false,0.87,5891,867,5884,867,585790,0
patternOccur-61,false,0.19,1756,190,1754,190,174024,0
patternOccur-62,true,1.00,3262,788,3259,783,364648,0
patternOccur-63,true,1.00,3188,827,3183,822,359125,0
patternOccur-64,true,1.00,4670,850,4667,845,504703,0
patternOccur-65,false,0.51,2796,434,2794,434,314490,0
patternOccur-66,true,1.00,4238,775,4236,770,470237,0
patternOccur-67,true,1.00,2318,775,2315,770,272297,0
patternOccur-68,true,1.00,2606,683,2603,678,279076,0
patternOccur-69,false,0.85,8678,953,8673,953,956250,0
patternOccur-70,false,0.86,10247,932,10245,932,1197679,0
patternOccur-71,false,0.28,3128,330,3125,330,339115,0
patternOccur-72,false,0.83,7499,872,7491,872,763141,0
patternOccur-73,false,0.86,9593,999,9589,999,1016527,0
patternOccur-74,false,0.75,5912,999,5907,999,809603,0
patternOccur-75,false,0.97,4803,865,4798,865,495537,0
patternOccur-76,true,1.00,3943,758,3937,753,430871,0
patternOccur-77,true,1.00,1566,630,1558,625,173579,0
patternOccur-78,true,1.00,2134,714,2129,709,235641,0
patternOccur-79,true,1.00,4479,954,4470,949,527908,0
patternOccur-80,false,0.89,5420,762,5417,762,684862,0
patternOccur-81,false,0.58,5988,658,5986,658,659007,0
patternOccur-82,false,0.95,3441,771,3434,771,348459,0
patternOccur-83,true,1.00,2079,723,2071,718,246473,0
patternOccur-84,true,1.00,3655,772,3653,767,418134,0
patternOccur-85,false,0.27,2733,308,2732,308,308345,0
patternOccur-86,false,0.85,6951,998,6946,998,783928,0
patternOccur-87,true,1.00,1560,650,1557,645,177540,0
patternOccur-88,true,1.00,7460,942,7454,937,788441,0
patternOccur-89,true,1.00,2404,796,2400,791,284026,0
patternOccur-90,false,0.66,5104,747,5101,747,596249,0
patternOccur-91,false,0.66,4435,661,4433,661,487889,0
patternOccur-92,true,1.00,2790,647,2788,639,314648,0
patternOccur-93,true,1.00,3276,762,3274,757,347084,0
patternOccur-94,false,0.78,4525,1008,4520,1008,554835,0
patternOccur-95,true,1.00,4090,825,4083,820,459652,0
patternOccur-96,false,0.87,5506,914,5501,914,583470,0
patternOccur-97,false,0.60,6078,766,6073,766,734345,0
patternOccur-98,false,0.90,4676,869,4671,869,526607,0
patternOccur-99,true,1.00,690,567,689,562,81953,0
patternOccur-100,true,1.00,3020,756,3015,751,304950,0
