NDW:0.0
TTFW:0.6
DFPT:2.0
DFPAP:3.0
DFPMP:10.0
RIGHT_WINDOW_BORDER_X:55.0
level,win/fail,% travelled,run time,game ticks,planning time,total plannings,nodes evaluated,most backtracked nodes
Mario-1,true,1.00,2728,841,2725,834,253354,0
Mario-2,true,1.00,3963,747,3955,741,370552,0
Mario-3,false,0.24,843,253,841,253,83448,0
Mario-4,true,1.00,2722,888,2717,878,272190,0
Mario-5,true,1.00,4222,989,4215,982,399979,0
Mario-6,false,0.35,1200,299,1200,299,135278,0
Mario-7,true,1.00,2820,954,2817,944,244121,0
Mario-8,false,0.09,2019,123,2018,123,169105,0
Mario-9,true,1.00,3272,856,3268,849,305557,0
Mario-10,false,0.26,1269,297,1268,297,124083,0
Mario-11,true,1.00,4787,910,4784,903,435176,0
Mario-12,true,1.00,586,1015,579,1007,72161,0
Mario-13,false,0.31,1075,281,1073,281,117634,0
Mario-14,true,1.00,483,704,482,697,51889,0
Mario-15,false,0.58,186208,6666,186195,6666,14557156,0
