NDW:0.0
TTFW:0.4
DFPT:2.0
DFPAP:3.0
DFPMP:50.0
RIGHT_WINDOW_BORDER_X:55.0
level,win/fail,% travelled,run time,game ticks,planning time,total plannings,nodes evaluated,most backtracked nodes
notch-1,false,0.58,3509,487,3509,487,302340,0
notch-2,true,1.00,8617,832,8614,827,800901,0
notch-3,false,0.29,2915,291,2911,291,239716,0
notch-4,false,0.30,1390,188,1390,188,116769,0
notch-5,true,1.00,4535,751,4534,744,391316,0
notch-6,true,1.00,5362,826,5355,821,490230,0
notch-7,true,1.00,2690,763,2685,756,246081,0
notch-8,false,0.16,508,125,505,125,45955,0
notch-9,false,0.32,4622,348,4620,348,388261,0
notch-10,false,0.67,4711,574,4710,574,414087,0
notch-11,false,0.18,919,167,919,167,75776,0
notch-12,true,1.00,5926,848,5918,841,498805,0
notch-13,true,1.00,5883,883,5883,878,512939,0
notch-14,true,1.00,7546,832,7543,827,637379,0
notch-15,true,1.00,4947,732,4943,724,433089,0
notch-16,false,0.57,8751,809,8747,809,772971,0
notch-17,false,0.60,4101,443,4100,443,370854,0
notch-18,true,1.00,5749,788,5746,781,525619,0
notch-19,true,1.00,9273,978,9271,971,840466,0
notch-20,false,0.75,7409,751,7405,751,686704,0
notch-21,true,1.00,7080,936,7079,929,642250,0
notch-22,true,1.00,5207,735,5201,725,440294,0
notch-23,true,1.00,8982,950,8979,943,778199,0
notch-24,false,0.45,1244,326,1241,326,108369,0
notch-25,false,0.52,6459,635,6457,635,575859,0
notch-26,true,1.00,8934,844,8930,836,772474,0
notch-27,false,0.35,6208,423,6205,423,597978,0
notch-28,false,0.40,2366,279,2366,279,226962,0
notch-29,false,0.75,5118,644,5111,644,455224,0
notch-30,false,0.42,8460,638,8455,638,682607,0
notch-31,false,0.24,627,170,627,170,51118,0
notch-32,true,1.00,5933,885,5928,872,502416,0
notch-33,true,1.00,7536,825,7535,818,643012,0
notch-34,true,1.00,6572,811,6568,798,583655,0
notch-35,true,1.00,6539,807,6536,799,595138,0
notch-36,false,0.93,7998,999,7992,999,692866,0
notch-37,false,0.50,6756,578,6756,578,618613,0
notch-38,true,1.00,6084,803,6079,796,523713,0
notch-39,false,0.85,4299,666,4296,666,365819,0
notch-40,false,0.92,9702,999,9696,999,879161,0
notch-41,false,0.96,8260,999,8252,999,748691,0
notch-42,false,0.42,3714,408,3711,408,339943,0
notch-43,false,0.46,3729,382,3729,382,310084,0
notch-44,false,0.27,1452,199,1451,199,121596,0
notch-45,true,1.00,8049,923,8042,916,703888,0
notch-46,true,1.00,6218,889,6214,879,548579,0
notch-47,true,1.00,6576,835,6573,827,585392,0
notch-48,false,0.63,4789,601,4786,601,438208,0
notch-49,true,1.00,6858,781,6855,774,602532,0
notch-50,true,1.00,7174,803,7171,790,643658,0
notch-51,false,0.20,1629,241,1629,241,157192,0
notch-52,false,0.65,3608,588,3608,588,316381,0
notch-53,true,1.00,3236,719,3233,712,272953,0
notch-54,true,1.00,7729,889,7727,882,689951,0
notch-55,true,1.00,7687,907,7683,899,676593,0
notch-56,true,1.00,5582,791,5574,781,480468,0
notch-57,false,0.63,3419,530,3414,530,294631,0
notch-58,false,0.91,10466,999,10464,999,962595,0
notch-59,true,1.00,5033,716,5031,708,422173,0
notch-60,false,0.83,12887,999,12882,999,1073565,0
notch-61,false,0.27,2249,280,2249,280,194416,0
notch-62,true,1.00,3233,811,3231,803,299642,0
notch-63,false,0.54,4316,609,4316,609,408778,0
notch-64,true,1.00,6316,846,6314,839,543505,0
notch-65,true,1.00,8601,872,8597,867,814680,0
notch-66,true,1.00,10855,904,10849,897,988911,0
notch-67,true,1.00,9713,908,9712,898,775288,0
notch-68,true,1.00,4096,771,4092,763,359349,0
notch-69,false,0.79,5908,775,5903,775,525899,0
notch-70,true,1.00,6996,839,6994,834,640601,0
notch-71,true,1.00,7353,949,7350,941,647597,0
notch-72,true,1.00,4858,826,4856,819,444005,0
notch-73,true,1.00,7266,887,7263,882,647405,0
notch-74,true,1.00,3763,686,3760,679,353017,0
notch-75,false,0.91,10300,999,10295,999,921826,0
notch-76,false,0.62,4086,580,4083,580,359365,0
notch-77,true,1.00,6387,877,6383,870,575762,0
notch-78,false,0.84,7582,786,7581,786,661108,0
notch-79,false,0.37,2971,340,2968,340,267128,0
notch-80,false,0.77,3207,705,3202,705,273049,0
notch-81,true,1.00,7838,761,7836,756,693879,0
notch-82,false,0.41,4075,421,4075,421,352670,0
notch-83,false,0.64,6934,663,6934,663,623728,0
notch-84,false,0.35,2558,332,2557,332,224547,0
notch-85,true,1.00,2850,774,2845,767,262105,0
notch-86,false,0.50,3134,464,3132,464,254266,0
notch-87,false,0.71,5217,626,5212,626,441878,0
notch-88,false,0.24,2296,248,2295,248,192082,0
notch-89,false,0.35,2903,371,2901,371,280793,0
notch-90,false,0.43,4836,377,4834,377,434911,0
notch-91,true,1.00,9393,929,9389,916,842777,0
notch-92,false,0.51,3539,554,3537,554,317554,0
notch-93,false,0.31,3017,346,3016,346,287195,0
notch-94,false,0.90,11007,999,11001,999,985887,0
notch-95,true,1.00,2445,637,2441,630,222417,0
notch-96,false,0.79,2847,568,2843,568,247840,0
notch-97,true,1.00,9184,882,9176,874,824579,0
notch-98,true,1.00,10176,993,10171,983,920982,0
notch-99,true,1.00,11426,951,11423,938,1044544,0
notch-100,true,1.00,5518,843,5511,836,497969,0
