NDW:0.0
TTFW:0.6
DFPT:2.0
DFPAP:3.0
DFPMP:0.0
RIGHT_WINDOW_BORDER_X:135.0
level,win/fail,% travelled,run time,game ticks,planning time,total plannings,nodes evaluated,most backtracked nodes
Mario-1,true,1.00,800,374,774,360,19552,0
Mario-2,true,1.00,1459,363,1417,350,47490,0
Mario-3,true,1.00,1842,302,1819,285,96138,0
Mario-4,true,1.00,1566,455,1484,443,44121,0
Mario-5,true,1.00,4120,541,4075,529,215571,0
Mario-6,true,1.00,1289,275,1277,260,77875,0
Mario-7,true,1.00,1242,518,1207,505,53771,0
Mario-8,true,1.00,3225,535,3213,503,169121,0
Mario-9,true,1.00,1017,357,1003,340,38143,0
Mario-10,true,1.00,1819,293,1797,276,97830,0
Mario-11,true,1.00,985,390,969,377,48896,0
Mario-12,true,1.00,1413,584,1391,571,66088,0
Mario-13,true,1.00,1314,304,1308,290,75409,0
Mario-14,true,1.00,242,310,225,297,11920,0
Mario-15,true,1.00,3399,862,3308,849,148270,0
