NDW:0.0
TTFW:1.2
DFPT:2.0
DFPAP:3.0
DFPMP:1.0
RIGHT_WINDOW_BORDER_X:400.0
level,win/fail,% travelled,run time,game ticks,planning time,total plannings,nodes evaluated,most backtracked nodes
Krys-1,true,1.00,8414,534,8413,422,560798,0
Krys-2,true,1.00,3585,419,3582,344,212321,0
Krys-3,true,1.00,6113,493,6110,411,468470,0
Krys-4,true,1.00,3525,396,3523,332,243856,0
Krys-5,true,1.00,1891,392,1888,295,204878,0
Krys-6,true,1.00,1719,370,1718,313,136362,0
Krys-7,true,1.00,367,354,364,290,29962,0
Krys-8,true,1.00,2463,475,2461,380,211578,0
Krys-9,true,1.00,1946,389,1944,307,211370,0
Krys-10,true,1.00,3790,420,3787,336,292906,0
Krys-11,true,1.00,407,419,404,340,25372,0
Krys-12,true,1.00,5392,442,5387,369,368505,0
Krys-13,true,1.00,3115,401,3109,333,308454,0
Krys-14,true,1.00,2184,386,2182,328,129836,0
Krys-15,true,1.00,4483,440,4480,367,449149,0
Krys-16,true,1.00,4084,485,4078,414,235017,0
Krys-17,true,1.00,2970,442,2966,360,212719,0
Krys-18,true,1.00,4028,505,4025,429,335256,0
Krys-19,true,1.00,2526,451,2523,337,209509,0
Krys-20,true,1.00,4203,491,4200,401,294392,0
Krys-21,true,1.00,1812,346,1810,296,206692,0
Krys-22,true,1.00,1609,374,1604,274,178506,0
Krys-23,true,1.00,2974,490,2971,402,221593,0
Krys-24,false,0.70,27442,999,27441,999,1705346,0
Krys-25,true,1.00,2926,387,2926,314,221806,0
Krys-26,true,1.00,2857,332,2855,265,307219,0
Krys-27,true,1.00,2584,383,2580,305,205039,0
Krys-28,true,1.00,3502,388,3500,318,300152,0
Krys-29,true,1.00,3314,476,3310,420,233680,0
Krys-30,true,1.00,3453,495,3449,413,219878,0
Krys-31,true,1.00,1448,402,1446,335,123872,0
Krys-32,true,1.00,580,426,579,359,40496,0
Krys-33,true,1.00,391,344,389,259,28331,0
Krys-34,true,1.00,2865,428,2862,343,231725,0
Krys-35,true,1.00,2823,380,2821,312,271552,0
Krys-36,true,1.00,5114,432,5112,354,425010,0
Krys-37,true,1.00,4554,436,4551,385,392991,0
Krys-38,true,1.00,5707,456,5706,332,533562,0
Krys-39,true,1.00,4319,408,4318,332,379599,0
Krys-40,true,1.00,4122,484,4119,408,378789,0
Krys-41,true,1.00,5062,413,5061,344,400783,0
Krys-42,true,1.00,2458,409,2455,324,257630,0
Krys-43,true,1.00,1387,334,1383,275,151190,0
Krys-44,true,1.00,5191,434,5190,361,473124,0
Krys-45,true,1.00,2792,473,2788,396,161696,0
Krys-46,true,1.00,3183,521,3177,453,223433,0
Krys-47,true,1.00,2039,434,2036,363,179599,0
Krys-48,true,1.00,1424,364,1424,293,178430,0
Krys-49,true,1.00,1442,406,1440,345,112481,0
Krys-50,true,1.00,6022,509,6019,420,465405,0
Krys-51,true,1.00,3913,410,3911,326,356646,0
Krys-52,true,1.00,2932,454,2927,377,187427,0
Krys-53,true,1.00,3499,456,3497,407,235151,0
Krys-54,true,1.00,5291,508,5286,453,493987,0
Krys-55,true,1.00,3782,478,3778,378,275034,0
Krys-56,true,1.00,1356,343,1353,290,94202,0
Krys-57,true,1.00,1119,324,1117,265,100872,0
Krys-58,true,1.00,3839,452,3838,370,276061,0
Krys-59,true,1.00,4699,407,4697,343,267353,0
Krys-60,false,0.91,25493,999,25493,999,1727662,0
Krys-61,true,1.00,3269,466,3267,393,233806,0
Krys-62,true,1.00,3307,476,3300,407,187982,0
Krys-63,true,1.00,6475,598,6472,483,422789,0
Krys-64,true,1.00,3923,552,3919,474,309125,0
Krys-65,true,1.00,2285,364,2283,293,137016,0
Krys-66,true,1.00,4093,402,4088,347,257041,0
Krys-67,true,1.00,3747,492,3743,408,267399,0
Krys-68,true,1.00,2281,374,2280,283,230949,0
Krys-69,true,1.00,5240,473,5239,358,350178,0
Krys-70,true,1.00,8275,520,8270,435,621687,0
Krys-71,true,1.00,2596,389,2593,322,297989,0
Krys-72,true,1.00,1183,455,1179,375,93831,0
Krys-73,true,1.00,5917,540,5915,457,435782,0
Krys-74,true,1.00,2061,397,2060,330,192740,0
Krys-75,true,1.00,1357,371,1356,304,74212,0
Krys-76,true,1.00,3636,347,3633,286,315245,0
Krys-77,true,1.00,767,385,765,312,71319,0
Krys-78,true,1.00,6572,433,6571,382,486084,0
Krys-79,true,1.00,953,382,950,297,64249,0
Krys-80,true,1.00,589,403,587,335,41005,0
Krys-81,true,1.00,1233,398,1227,322,110930,0
Krys-82,true,1.00,2028,373,2026,308,133580,0
Krys-83,true,1.00,4043,463,4041,375,314193,0
Krys-84,true,1.00,256,375,253,314,18465,0
Krys-85,true,1.00,2791,524,2789,451,216283,0
Krys-86,true,1.00,2373,410,2372,333,164506,0
Krys-87,true,1.00,1573,383,1572,319,92559,0
Krys-88,true,1.00,2620,436,2616,364,190504,0
Krys-89,true,1.00,1278,393,1274,327,91986,0
Krys-90,true,1.00,3832,385,3832,302,357416,0
Krys-91,true,1.00,544,419,542,354,38236,0
Krys-92,true,1.00,5241,428,5240,335,394124,0
Krys-93,true,1.00,3297,380,3296,328,280201,0
Krys-94,true,1.00,1444,392,1443,315,160338,0
Krys-95,true,1.00,2528,441,2520,359,182386,0
Krys-96,true,1.00,3217,407,3215,313,337633,0
Krys-97,true,1.00,2602,407,2600,349,198468,0
Krys-98,true,1.00,6164,565,6156,502,413658,0
Krys-99,true,1.00,2749,463,2743,375,185296,0
Krys-100,true,1.00,2028,336,2025,284,242400,0
