NDW:0.0
TTFW:1.0
DFPT:2.0
DFPAP:3.0
DFPMP:20.0
RIGHT_WINDOW_BORDER_X:155.0
level,win/fail,% travelled,run time,game ticks,planning time,total plannings,nodes evaluated,most backtracked nodes
notch-1,true,1.00,852,266,848,252,41906,0
notch-2,true,1.00,1161,270,1155,256,57276,0
notch-3,true,1.00,1050,265,1041,251,50437,0
notch-4,true,1.00,1255,278,1250,262,61084,0
notch-5,true,1.00,707,244,701,230,34800,0
notch-6,true,1.00,754,276,743,262,37767,0
notch-7,true,1.00,766,269,760,255,38823,0
notch-8,true,1.00,712,275,703,261,34126,0
notch-9,true,1.00,1086,267,1078,253,53294,0
notch-10,true,1.00,963,281,951,267,48365,0
notch-11,true,1.00,937,264,928,250,47136,0
notch-12,true,1.00,608,257,601,243,29559,0
notch-13,true,1.00,665,258,656,244,32891,0
notch-14,true,1.00,816,255,806,241,40327,0
notch-15,true,1.00,803,266,796,252,39447,0
notch-16,true,1.00,1236,278,1224,257,59290,0
notch-17,true,1.00,895,278,890,264,42402,0
notch-18,true,1.00,1043,314,1040,299,48595,0
notch-19,true,1.00,1248,251,1247,237,59630,0
notch-20,true,1.00,892,273,887,259,43080,0
notch-21,true,1.00,974,287,959,273,46283,0
notch-22,true,1.00,515,235,508,221,23541,0
notch-23,true,1.00,1000,251,996,237,45837,0
notch-24,true,1.00,747,263,738,249,31454,0
notch-25,true,1.00,1161,285,1150,270,50142,0
notch-26,true,1.00,814,257,805,242,34849,0
notch-27,true,1.00,1399,287,1387,273,61065,0
notch-28,true,1.00,1056,254,1043,240,46584,0
notch-29,true,1.00,985,262,973,248,43616,0
notch-30,true,1.00,882,242,874,228,39139,0
notch-31,true,1.00,705,255,697,241,31759,0
notch-32,true,1.00,856,274,849,259,39132,0
notch-33,true,1.00,824,251,816,237,37018,0
notch-34,true,1.00,815,259,810,245,37375,0
notch-35,true,1.00,656,269,651,255,29212,0
notch-36,true,1.00,1230,295,1222,281,54903,0
notch-37,true,1.00,1225,264,1217,249,55623,0
notch-38,true,1.00,962,288,959,271,43726,0
notch-39,true,1.00,716,238,708,223,31839,0
notch-40,true,1.00,995,267,982,252,45248,0
notch-41,true,1.00,1251,280,1243,266,57291,0
notch-42,true,1.00,1165,262,1159,248,55855,0
notch-43,true,1.00,698,246,691,232,32344,0
notch-44,true,1.00,753,243,748,229,34851,0
notch-45,true,1.00,1481,278,1466,264,67862,0
notch-46,true,1.00,848,257,837,243,39464,0
notch-47,true,1.00,1212,292,1204,278,57163,0
notch-48,true,1.00,1341,261,1336,247,62567,0
notch-49,true,1.00,887,275,879,256,39292,0
notch-50,true,1.00,829,288,823,274,36661,0
notch-51,true,1.00,774,248,771,234,34970,0
notch-52,true,1.00,676,258,667,244,29955,0
notch-53,true,1.00,409,261,403,245,17113,0
notch-54,true,1.00,1101,303,1093,288,49823,0
notch-55,true,1.00,1299,303,1289,289,56950,0
notch-56,true,1.00,690,264,683,250,30984,0
notch-57,true,1.00,790,287,781,273,35234,0
notch-58,true,1.00,1114,318,1093,303,49712,0
notch-59,true,1.00,1178,280,1172,253,52874,0
notch-60,true,1.00,1053,261,1040,247,49579,0
notch-61,true,1.00,872,231,866,217,40194,0
notch-62,true,1.00,1067,283,1059,269,50051,0
notch-63,true,1.00,1249,300,1248,286,59027,0
notch-64,true,1.00,995,252,988,238,45750,0
notch-65,true,1.00,1621,310,1612,296,76653,0
notch-66,true,1.00,1017,286,1004,272,46827,0
notch-67,true,1.00,964,247,953,233,44395,0
notch-68,true,1.00,606,264,596,250,28199,0
notch-69,true,1.00,1389,299,1384,285,62502,0
notch-70,true,1.00,1504,299,1498,284,69846,0
notch-71,true,1.00,1095,251,1087,237,49388,0
notch-72,true,1.00,858,259,851,245,40185,0
notch-73,true,1.00,875,266,872,252,39421,0
notch-74,true,1.00,647,243,641,229,28782,0
notch-75,true,1.00,1260,289,1248,274,56187,0
notch-76,true,1.00,1277,288,1256,273,33322,0
notch-77,true,1.00,850,268,836,254,24267,0
notch-78,true,1.00,941,250,935,231,42059,0
notch-79,true,1.00,990,267,980,253,45879,0
notch-80,true,1.00,438,236,434,222,19868,0
notch-81,true,1.00,1560,276,1552,258,71596,0
notch-82,true,1.00,969,262,963,248,43570,0
notch-83,true,1.00,1070,285,1066,263,46086,0
notch-84,true,1.00,795,264,785,250,34738,0
notch-85,true,1.00,814,286,801,271,36469,0
notch-86,true,1.00,894,253,890,239,39064,0
notch-87,true,1.00,1095,273,1081,259,49156,0
notch-88,true,1.00,1298,292,1292,277,60324,0
notch-89,true,1.00,1157,271,1150,257,50889,0
notch-90,true,1.00,1012,245,1008,231,44402,0
notch-91,true,1.00,1308,296,1300,282,57150,0
notch-92,true,1.00,1133,259,1116,245,33399,0
notch-93,true,1.00,973,256,962,242,24524,0
notch-94,true,1.00,1382,272,1375,258,55169,0
notch-95,true,1.00,711,242,699,228,29929,0
notch-96,true,1.00,670,256,664,242,29690,0
notch-97,true,1.00,1626,302,1621,288,71237,0
notch-98,true,1.00,1183,257,1176,243,51574,0
notch-99,true,1.00,1081,274,1073,258,49655,0
notch-100,true,1.00,838,277,826,261,37821,0
