NDW:0.0
TTFW:1.0
DFPT:2.0
DFPAP:3.0
DFPMP:3.0
RIGHT_WINDOW_BORDER_X:350.0
level,win/fail,% travelled,run time,game ticks,planning time,total plannings,nodes evaluated,most backtracked nodes
notchParam-1,true,1.00,1153,312,1146,280,60947,0
notchParam-2,true,1.00,953,312,950,280,48013,0
notchParam-3,true,1.00,579,310,571,278,30386,0
notchParam-4,true,1.00,669,322,662,290,34468,0
notchParam-5,true,1.00,690,308,681,276,36902,0
notchParam-6,true,1.00,716,322,709,290,37950,0
notchParam-7,true,1.00,1022,318,1004,286,52363,0
notchParam-8,true,1.00,1182,316,1173,284,65067,0
notchParam-9,true,1.00,902,341,894,309,47246,0
notchParam-10,true,1.00,1128,318,1123,286,61832,0
notchParam-11,true,1.00,682,316,673,284,36392,0
notchParam-12,true,1.00,1270,325,1259,293,70433,0
notchParam-13,true,1.00,323,314,316,282,15318,0
notchParam-14,true,1.00,304,304,294,272,14296,0
notchParam-15,true,1.00,890,298,880,266,47314,0
notchParam-16,true,1.00,916,307,906,275,48632,0
notchParam-17,true,1.00,990,302,987,270,52678,0
notchParam-18,true,1.00,409,328,401,296,19133,0
notchParam-19,true,1.00,311,309,304,277,15021,0
notchParam-20,true,1.00,341,308,336,276,16284,0
notchParam-21,true,1.00,295,304,290,272,13532,0
notchParam-22,true,1.00,358,316,346,284,17053,0
notchParam-23,true,1.00,1466,363,1457,331,79326,0
notchParam-24,true,1.00,1276,322,1266,290,71094,0
notchParam-25,true,1.00,1240,318,1232,286,67332,0
notchParam-26,true,1.00,1428,341,1415,309,77969,0
notchParam-27,true,1.00,347,309,338,277,16981,0
notchParam-28,true,1.00,746,331,738,299,38789,0
notchParam-29,true,1.00,704,317,702,285,37913,0
notchParam-30,true,1.00,350,308,342,276,17037,0
notchParam-31,true,1.00,945,310,938,278,51292,0
notchParam-32,true,1.00,1044,316,1037,284,54478,0
notchParam-33,true,1.00,302,300,295,268,14330,0
notchParam-34,true,1.00,982,308,977,276,51889,0
notchParam-35,true,1.00,1355,316,1345,284,67264,0
notchParam-36,true,1.00,911,302,902,270,49768,0
notchParam-37,true,1.00,292,300,289,268,13462,0
notchParam-38,true,1.00,300,304,296,272,14210,0
notchParam-39,true,1.00,863,304,861,272,45201,0
notchParam-40,true,1.00,716,314,714,282,37250,0
notchParam-41,true,1.00,670,323,666,291,35392,0
notchParam-42,true,1.00,331,313,322,281,15654,0
notchParam-43,true,1.00,1199,316,1187,284,66402,0
notchParam-44,true,1.00,1223,328,1215,296,68198,0
notchParam-45,true,1.00,1314,328,1303,297,75579,0
notchParam-46,true,1.00,1299,314,1290,282,71434,0
notchParam-47,true,1.00,304,300,292,268,14527,0
notchParam-48,true,1.00,374,321,361,289,17766,0
notchParam-49,true,1.00,351,333,345,290,16387,0
notchParam-50,true,1.00,397,325,382,293,16988,0
notchParam-51,true,1.00,301,306,301,274,14205,0
notchParam-52,true,1.00,991,304,985,272,53229,0
notchParam-53,true,1.00,942,302,938,270,50649,0
notchParam-54,true,1.00,1124,320,1116,288,57177,0
notchParam-55,true,1.00,358,320,350,288,16416,0
notchParam-56,true,1.00,313,304,307,272,14499,0
notchParam-57,true,1.00,1262,322,1253,290,70618,0
notchParam-58,true,1.00,792,333,785,301,40916,0
notchParam-59,true,1.00,1470,337,1458,305,79418,0
notchParam-60,true,1.00,805,350,790,318,41642,0
notchParam-61,true,1.00,1251,325,1241,293,68660,0
notchParam-62,true,1.00,802,298,789,266,42604,0
notchParam-63,true,1.00,691,329,686,297,35778,0
notchParam-64,true,1.00,801,328,796,296,43559,0
notchParam-65,true,1.00,677,316,675,284,36821,0
notchParam-66,true,1.00,727,328,723,296,38400,0
notchParam-67,true,1.00,1056,308,1049,276,56759,0
notchParam-68,true,1.00,944,308,933,274,47683,0
notchParam-69,true,1.00,815,298,812,266,42798,0
notchParam-70,true,1.00,971,306,965,274,50101,0
notchParam-71,true,1.00,811,340,804,308,43802,0
notchParam-72,true,1.00,745,338,736,304,39350,0
notchParam-73,true,1.00,703,310,693,278,37353,0
notchParam-74,true,1.00,733,332,724,300,39138,0
notchParam-75,true,1.00,746,320,738,288,39921,0
notchParam-76,true,1.00,1165,328,1157,296,63585,0
notchParam-77,true,1.00,730,317,719,285,38743,0
notchParam-78,true,1.00,1293,316,1283,284,71652,0
notchParam-79,true,1.00,709,318,703,286,37792,0
notchParam-80,true,1.00,346,308,338,276,15892,0
notchParam-81,true,1.00,748,327,738,295,40345,0
notchParam-82,true,1.00,316,305,303,273,14828,0
notchParam-83,true,1.00,307,302,300,270,14534,0
notchParam-84,true,1.00,1021,316,1015,284,52215,0
notchParam-85,true,1.00,1447,349,1442,317,70430,0
notchParam-86,true,1.00,1159,304,1151,272,64156,0
notchParam-87,true,1.00,309,316,300,284,14861,0
notchParam-88,true,1.00,336,308,324,276,16035,0
notchParam-89,true,1.00,309,304,299,272,14531,0
notchParam-90,true,1.00,293,309,289,277,13536,0
notchParam-91,true,1.00,1181,330,1178,298,63364,0
notchParam-92,true,1.00,1228,308,1227,276,67165,0
notchParam-93,true,1.00,1321,322,1312,290,72244,0
notchParam-94,true,1.00,1262,328,1255,296,69434,0
notchParam-95,true,1.00,1701,379,1689,347,88557,0
notchParam-96,true,1.00,693,316,685,284,37852,0
notchParam-97,true,1.00,598,310,591,278,30879,0
notchParam-98,true,1.00,322,304,312,272,14572,0
notchParam-99,true,1.00,1129,320,1121,288,56627,0
notchParam-100,true,1.00,961,302,950,270,50735,0
