NDW:0.0
TTFW:0.6
DFPT:2.0
DFPAP:3.0
DFPMP:1.0
RIGHT_WINDOW_BORDER_X:75.0
level,win/fail,% travelled,run time,game ticks,planning time,total plannings,nodes evaluated,most backtracked nodes
ore-1,false,0.59,4177,601,4175,601,421228,0
ore-2,false,0.69,5893,660,5890,660,548845,0
ore-3,true,1.00,7064,825,7062,818,681546,0
ore-4,true,1.00,5009,722,5006,714,514483,0
ore-5,true,1.00,6391,814,6387,807,617818,0
ore-6,true,1.00,7963,910,7955,901,769804,0
ore-7,true,1.00,5649,774,5646,765,551270,0
ore-8,false,0.13,2985,226,2985,226,252539,0
ore-9,true,1.00,5240,729,5237,720,477098,0
ore-10,false,0.47,977,328,973,328,110183,0
ore-11,true,1.00,6238,882,6235,872,614900,0
ore-12,true,1.00,3830,840,3825,833,371925,0
ore-13,true,1.00,4875,818,4870,806,460878,0
ore-14,false,0.52,3304,459,3301,459,345630,0
ore-15,true,1.00,5963,919,5959,910,618969,0
ore-16,true,1.00,5355,701,5350,692,570027,0
ore-17,false,0.98,8361,999,8357,999,856885,0
ore-18,false,0.61,2464,503,2460,503,263810,0
ore-19,true,1.00,7682,990,7676,983,740535,0
ore-20,false,0.82,4891,799,4884,799,479566,0
ore-21,true,1.00,5627,802,5620,794,586642,0
ore-22,false,0.59,5769,625,5768,625,522354,0
ore-23,true,1.00,3275,703,3272,696,335290,0
ore-24,true,1.00,5923,772,5918,765,598434,0
ore-25,true,1.00,7171,757,7168,750,754267,0
ore-26,true,1.00,6886,929,6884,920,656793,0
ore-27,false,0.24,2217,293,2214,293,212596,0
ore-28,true,1.00,3496,742,3491,734,340731,0
ore-29,true,1.00,5187,834,5184,826,508066,0
ore-30,true,1.00,4644,752,4640,744,428563,0
ore-31,true,1.00,5366,803,5360,794,527239,0
ore-32,false,0.74,3612,603,3609,603,341269,0
ore-33,true,1.00,3861,858,3854,851,391811,0
ore-34,true,1.00,7114,931,7109,924,666892,0
ore-35,true,1.00,3383,692,3374,683,335073,0
ore-36,true,1.00,4781,729,4779,719,485024,0
ore-37,false,0.33,24107,999,24104,999,1887030,0
ore-38,true,1.00,4290,732,4284,725,425284,0
ore-39,false,0.77,4429,648,4425,648,466124,0
ore-40,true,1.00,6497,798,6491,789,652060,0
ore-41,false,0.97,7870,999,7862,999,750356,0
ore-42,true,1.00,4103,777,4097,769,391871,0
ore-43,true,1.00,4659,795,4654,781,456303,0
ore-44,true,1.00,6376,894,6366,885,684332,0
ore-45,false,0.74,15820,999,15817,999,1177087,0
ore-46,false,0.12,2829,182,2829,182,261185,0
ore-47,true,1.00,6236,921,6229,911,630261,0
ore-48,true,1.00,5752,729,5750,720,592365,0
ore-49,false,0.21,2333,224,2331,224,236250,0
ore-50,true,1.00,8206,824,8205,814,799759,0
ore-51,false,0.41,2577,390,2575,390,266287,0
ore-52,true,1.00,5666,826,5657,818,595346,0
ore-53,true,1.00,6460,855,6457,848,649889,0
ore-54,true,1.00,6058,787,6055,780,631460,0
ore-55,false,0.80,5797,767,5792,767,590032,0
ore-56,false,0.53,4225,477,4224,477,423381,0
ore-57,true,1.00,5799,810,5797,800,591529,0
ore-58,true,1.00,4355,729,4350,720,421217,0
ore-59,true,1.00,5087,977,5082,968,522126,0
ore-60,false,0.84,5192,870,5186,870,519526,0
ore-61,true,1.00,3355,628,3349,620,322399,0
ore-62,true,1.00,6216,896,6211,887,592943,0
ore-63,true,1.00,6010,790,6005,782,589608,0
ore-64,false,0.83,3902,698,3900,698,376246,0
ore-65,false,0.33,2352,324,2352,324,228000,0
ore-66,true,1.00,5747,857,5740,847,593372,0
ore-67,true,1.00,6116,920,6114,911,585848,0
ore-68,true,1.00,6484,832,6478,823,634807,0
ore-69,true,1.00,6034,831,6032,823,615456,0
ore-70,false,0.92,8534,990,8528,990,857302,0
ore-71,true,1.00,8536,946,8527,932,846207,0
ore-72,true,1.00,6583,841,6576,833,675863,0
ore-73,false,0.36,1661,319,1658,319,181212,0
ore-74,true,1.00,4592,894,4586,884,488478,0
ore-75,true,1.00,3811,788,3811,779,368375,0
ore-76,true,1.00,6936,810,6930,801,718054,0
ore-77,true,1.00,6042,755,6039,746,615309,0
ore-78,true,1.00,6007,837,6003,829,605769,0
ore-79,true,1.00,4159,711,4158,704,404933,0
ore-80,true,1.00,8050,899,8044,890,761868,0
ore-81,false,0.36,1490,255,1490,255,149771,0
ore-82,true,1.00,5269,871,5259,862,537466,0
ore-83,false,0.31,2685,382,2679,382,277337,0
ore-84,false,0.60,4993,526,4988,526,515213,0
ore-85,true,1.00,5757,798,5754,791,549132,0
ore-86,false,0.62,4189,647,4183,647,428374,0
ore-87,false,0.13,555,143,554,143,49291,0
ore-88,false,0.70,16077,999,16073,999,1598791,0
ore-89,true,1.00,5343,739,5338,732,555089,0
ore-90,true,1.00,5249,748,5243,734,552815,0
ore-91,true,1.00,6962,798,6961,790,692464,0
ore-92,false,0.73,4913,552,4913,552,465013,0
ore-93,false,0.93,6014,846,6010,846,595209,0
ore-94,true,1.00,5696,811,5688,802,570692,0
ore-95,false,0.97,4375,799,4371,799,437542,0
ore-96,true,1.00,4970,767,4969,759,523930,0
ore-97,false,0.89,6654,793,6649,793,650291,0
ore-98,true,1.00,5607,774,5603,767,560136,0
ore-99,false,0.57,4250,482,4247,482,437278,0
ore-100,true,1.00,8253,843,8248,834,849401,0
