NDW:0.0
TTFW:1.4
DFPT:2.0
DFPAP:3.0
DFPMP:50.0
RIGHT_WINDOW_BORDER_X:176.0
level,win/fail,% travelled,run time,game ticks,planning time,total plannings,nodes evaluated,most backtracked nodes
ge-1,true,1.00,532,249,529,218,30855,0
ge-2,true,1.00,452,238,446,222,26980,0
ge-3,true,1.00,212,215,208,199,11768,0
ge-4,true,1.00,1040,272,1032,251,61277,0
ge-5,true,1.00,66,199,60,183,3159,0
ge-6,true,1.00,384,249,374,231,21695,0
ge-7,true,1.00,169,231,164,215,8995,0
ge-8,true,1.00,207,233,203,217,11295,0
ge-9,true,1.00,490,216,482,200,29637,0
ge-10,true,1.00,60,199,55,183,2750,0
ge-11,true,1.00,183,209,178,193,10303,0
ge-12,true,1.00,64,199,53,183,2949,0
ge-13,true,1.00,346,251,341,234,20080,0
ge-14,true,1.00,254,237,247,213,14250,0
ge-15,true,1.00,553,217,546,201,32587,0
ge-16,true,1.00,466,273,461,257,26636,0
ge-17,true,1.00,334,207,329,191,20251,0
ge-18,true,1.00,583,278,577,261,34854,0
ge-19,true,1.00,540,280,536,254,32066,0
ge-20,true,1.00,386,231,378,215,22773,0
ge-21,true,1.00,243,201,239,185,14028,0
ge-22,true,1.00,314,206,310,189,17994,0
ge-23,true,1.00,580,217,574,201,34254,0
ge-24,true,1.00,442,235,438,214,26131,0
ge-25,true,1.00,375,203,371,187,22507,0
ge-26,true,1.00,219,205,215,189,13307,0
ge-27,true,1.00,90,215,84,199,4614,0
ge-28,true,1.00,569,211,563,195,33373,0
ge-29,true,1.00,251,235,244,197,14908,0
ge-30,true,1.00,825,227,819,212,50312,0
ge-31,true,1.00,675,228,671,212,40648,0
ge-32,true,1.00,145,221,140,205,7764,0
ge-33,true,1.00,157,231,149,203,8427,0
ge-34,true,1.00,809,216,804,199,48107,0
ge-35,true,1.00,372,249,368,233,21115,0
ge-36,true,1.00,867,264,865,234,51756,0
ge-37,true,1.00,253,200,250,184,15262,0
ge-38,true,1.00,935,246,928,230,53736,0
ge-39,true,1.00,286,234,280,218,16588,0
ge-40,true,1.00,64,199,60,183,3179,0
ge-41,true,1.00,240,211,231,189,14376,0
ge-42,true,1.00,618,236,608,220,35860,0
ge-43,true,1.00,337,228,332,211,20054,0
ge-44,true,1.00,472,209,468,193,29066,0
ge-45,true,1.00,398,216,389,200,23009,0
ge-46,true,1.00,610,261,603,245,35660,0
ge-47,true,1.00,709,238,701,222,41467,0
ge-48,true,1.00,335,227,332,211,19049,0
ge-49,true,1.00,165,200,161,184,9122,0
ge-50,true,1.00,492,212,490,196,29101,0
ge-51,true,1.00,149,231,145,215,8074,0
ge-52,true,1.00,449,293,442,272,23891,0
ge-53,true,1.00,271,229,264,213,15313,0
ge-54,true,1.00,318,250,311,234,17798,0
ge-55,true,1.00,364,224,358,206,20188,0
ge-56,true,1.00,502,236,500,210,28518,0
ge-57,true,1.00,633,215,632,197,37834,0
ge-58,true,1.00,200,235,194,219,10483,0
ge-59,true,1.00,748,221,738,205,44936,0
ge-60,true,1.00,681,211,677,195,39304,0
ge-61,true,1.00,266,201,262,185,15905,0
ge-62,true,1.00,498,209,485,193,29734,0
ge-63,true,1.00,737,221,730,205,44918,0
ge-64,true,1.00,386,239,381,208,22035,0
ge-65,true,1.00,594,239,594,223,35749,0
ge-66,true,1.00,561,226,557,193,33309,0
ge-67,true,1.00,241,249,234,232,12448,0
ge-68,true,1.00,171,220,166,204,8781,0
ge-69,true,1.00,231,199,227,183,12748,0
ge-70,true,1.00,333,204,331,188,19331,0
ge-71,true,1.00,870,249,859,233,51042,0
ge-72,true,1.00,226,253,220,233,12015,0
ge-73,true,1.00,325,208,321,192,19145,0
ge-74,true,1.00,828,250,822,234,46897,0
ge-75,true,1.00,261,249,254,211,15009,0
ge-76,true,1.00,834,223,830,207,49641,0
ge-77,true,1.00,1041,228,1037,212,61401,0
ge-78,true,1.00,641,248,634,224,37289,0
ge-79,true,1.00,197,212,190,196,11177,0
ge-80,true,1.00,99,219,94,202,4585,0
ge-81,true,1.00,108,213,105,197,5448,0
ge-82,true,1.00,123,238,118,200,6372,0
ge-83,false,1.00,488,252,483,223,28272,0
ge-84,true,1.00,615,203,613,187,36051,0
ge-85,true,1.00,295,207,292,191,16730,0
ge-86,true,1.00,833,218,831,196,49249,0
ge-87,true,1.00,601,231,594,215,35914,0
ge-88,true,1.00,545,266,540,246,31728,0
ge-89,true,1.00,224,242,216,226,11866,0
ge-90,true,1.00,66,199,61,183,3230,0
ge-91,true,1.00,280,212,275,196,15645,0
ge-92,true,1.00,83,205,79,189,4354,0
ge-93,true,1.00,518,205,513,189,31374,0
ge-94,true,1.00,438,232,434,216,25244,0
ge-95,true,1.00,164,249,161,233,8293,0
ge-96,true,1.00,971,246,962,229,55642,0
ge-97,true,1.00,429,215,426,199,23585,0
ge-98,true,1.00,67,199,60,183,3147,0
ge-99,true,1.00,159,199,152,183,8185,0
ge-100,true,1.00,283,217,277,201,15404,0
