NDW:0.0
TTFW:2.0
DFPT:2.0
DFPAP:3.0
DFPMP:10.0
RIGHT_WINDOW_BORDER_X:115.0
level,win/fail,% travelled,run time,game ticks,planning time,total plannings,nodes evaluated,most backtracked nodes
hopper-1,true,1.00,1465,377,1450,367,68997,0
hopper-2,true,1.00,1554,354,1548,344,73810,0
hopper-3,false,0.24,2227,138,2224,138,90660,0
hopper-4,false,0.26,1043,111,1039,111,47686,0
hopper-5,true,1.00,1275,340,1265,330,60414,0
hopper-6,true,1.00,1347,344,1338,332,67398,0
hopper-7,false,0.83,3897,365,3884,365,167249,0
hopper-8,false,0.41,3034,217,3030,217,128253,0
hopper-9,true,1.00,1537,350,1523,340,76276,0
hopper-10,true,1.00,1360,361,1347,350,69947,0
hopper-11,true,1.00,807,343,800,333,39170,0
hopper-12,true,1.00,1063,342,1055,332,53166,0
hopper-13,false,0.39,2767,194,2765,194,118896,0
hopper-14,true,1.00,1184,346,1171,336,58833,0
hopper-15,true,1.00,1546,362,1535,352,75984,0
hopper-16,false,0.54,2515,231,2514,231,109890,0
hopper-17,true,1.00,1540,353,1529,343,78229,0
hopper-18,true,1.00,1262,329,1256,319,63047,0
hopper-19,true,1.00,956,338,946,328,47569,0
hopper-20,true,1.00,2314,409,2302,399,112776,0
hopper-21,false,0.61,3089,273,3083,273,131720,0
hopper-22,false,0.32,2168,159,2165,159,97234,0
hopper-23,true,1.00,1422,353,1414,343,72317,0
hopper-24,true,1.00,997,338,990,328,51791,0
hopper-25,true,1.00,1041,336,1034,326,55445,0
hopper-26,true,1.00,1456,340,1448,330,71699,0
hopper-27,true,1.00,1352,368,1343,358,72905,0
hopper-28,false,0.85,5256,412,5248,412,254488,0
hopper-29,false,0.26,1897,133,1892,133,85126,0
hopper-30,true,1.00,1199,350,1190,340,60375,0
hopper-31,false,0.77,3450,336,3440,336,118462,0
hopper-32,true,1.00,1543,365,1533,355,80494,0
hopper-33,false,0.49,1537,198,1532,198,70198,0
hopper-34,false,0.31,1909,156,1907,156,84622,0
hopper-35,true,1.00,2299,414,2288,404,118820,0
hopper-36,true,1.00,887,330,876,320,43923,0
hopper-37,false,0.51,563,167,555,167,25730,0
hopper-38,false,0.52,3092,251,3086,251,141538,0
hopper-39,false,0.52,3015,250,3011,250,135661,0
hopper-40,true,1.00,1177,367,1167,357,56396,0
hopper-41,false,0.24,2225,138,2223,138,93396,0
hopper-42,true,1.00,1201,371,1190,361,58739,0
hopper-43,false,0.45,2628,212,2625,212,117498,0
hopper-44,true,1.00,1386,352,1378,342,69549,0
hopper-45,false,0.43,2980,234,2972,234,131754,0
hopper-46,false,0.66,5364,376,5356,376,262647,0
hopper-47,true,1.00,2427,382,2414,372,122542,0
hopper-48,false,0.23,403,100,402,100,19358,0
hopper-49,true,1.00,2342,404,2331,394,118394,0
hopper-50,false,0.62,3018,287,3012,287,141596,0
hopper-51,false,0.33,2962,201,2961,201,133273,0
hopper-52,true,1.00,973,335,958,325,51264,0
hopper-53,false,0.63,4774,345,4768,345,219822,0
hopper-54,true,1.00,788,314,778,302,39758,0
hopper-55,true,1.00,1281,387,1271,376,64749,0
hopper-56,true,1.00,1252,352,1241,342,63704,0
hopper-57,true,1.00,1328,357,1317,347,63584,0
hopper-58,false,0.57,4168,298,4160,298,185062,0
hopper-59,true,1.00,996,334,982,324,48163,0
hopper-60,true,1.00,1097,362,1086,352,54326,0
hopper-61,false,0.82,4153,373,4147,373,191129,0
hopper-62,true,1.00,1480,354,1472,344,72497,0
hopper-63,false,0.22,3081,160,3080,160,132055,0
hopper-64,true,1.00,1358,363,1352,353,68542,0
hopper-65,true,1.00,1314,361,1304,351,68301,0
hopper-66,false,0.74,3396,348,3391,348,153701,0
hopper-67,true,1.00,1116,367,1105,357,57466,0
hopper-68,true,1.00,1294,361,1285,351,63069,0
hopper-69,false,0.83,2437,331,2431,331,109198,0
hopper-70,true,1.00,1538,361,1525,351,74825,0
hopper-71,true,1.00,755,321,745,311,37085,0
hopper-72,true,1.00,1754,354,1745,342,87881,0
hopper-73,true,1.00,1825,364,1816,354,95254,0
hopper-74,true,1.00,1167,345,1162,335,60159,0
hopper-75,true,1.00,1940,376,1929,366,100589,0
hopper-76,false,0.46,2874,220,2867,220,121838,0
hopper-77,true,1.00,1524,417,1510,407,72936,0
hopper-78,true,1.00,1606,361,1600,351,79491,0
hopper-79,true,1.00,1077,358,1072,348,51707,0
hopper-80,true,1.00,1334,365,1319,355,62120,0
hopper-81,false,0.39,929,151,927,151,41329,0
hopper-82,false,0.45,2543,224,2535,224,109482,0
hopper-83,true,1.00,1945,378,1934,368,95453,0
hopper-84,true,1.00,1388,367,1374,357,66090,0
hopper-85,true,1.00,1403,378,1394,368,67040,0
hopper-86,true,1.00,2446,409,2436,399,115257,0
hopper-87,true,1.00,1430,347,1424,337,68654,0
hopper-88,true,1.00,2082,446,2068,432,107249,0
hopper-89,true,1.00,1658,374,1650,364,82885,0
hopper-90,true,1.00,1891,390,1879,380,94563,0
hopper-91,true,1.00,1548,352,1535,342,74665,0
hopper-92,true,1.00,1372,349,1363,339,64619,0
hopper-93,true,1.00,837,329,825,319,40906,0
hopper-94,false,0.64,3148,283,3141,283,138111,0
hopper-95,true,1.00,1030,319,1017,309,48286,0
hopper-96,false,0.36,2179,172,2178,172,100030,0
hopper-97,true,1.00,2166,388,2156,378,102016,0
hopper-98,true,1.00,2442,383,2431,373,112953,0
hopper-99,false,0.72,3716,340,3710,340,167390,0
hopper-100,true,1.00,1270,355,1266,345,64110,0
