NDW:0.0
TTFW:1.4
DFPT:2.0
DFPAP:3.0
DFPMP:10.0
RIGHT_WINDOW_BORDER_X:115.0
level,win/fail,% travelled,run time,game ticks,planning time,total plannings,nodes evaluated,most backtracked nodes
notch-1,true,1.00,969,311,963,301,52286,0
notch-2,true,1.00,1084,294,1076,284,61596,0
notch-3,true,1.00,1077,308,1068,298,58601,0
notch-4,true,1.00,1164,308,1161,295,59848,0
notch-5,true,1.00,768,257,764,245,42291,0
notch-6,true,1.00,821,319,810,309,45282,0
notch-7,true,1.00,591,312,581,301,34058,0
notch-8,true,1.00,681,307,675,295,38930,0
notch-9,true,1.00,1261,299,1253,289,70175,0
notch-10,true,1.00,967,281,959,271,57100,0
notch-11,true,1.00,975,278,969,268,56532,0
notch-12,true,1.00,668,282,664,272,38671,0
notch-13,true,1.00,849,301,840,290,50746,0
notch-14,true,1.00,1046,291,1041,281,61838,0
notch-15,true,1.00,1237,297,1228,287,74865,0
notch-16,true,1.00,898,293,893,280,54184,0
notch-17,true,1.00,1235,325,1230,315,74774,0
notch-18,true,1.00,939,360,929,349,55375,0
notch-19,true,1.00,1098,265,1095,254,62794,0
notch-20,true,1.00,1053,339,1045,329,60017,0
notch-21,true,1.00,1124,331,1114,321,65994,0
notch-22,true,1.00,717,257,710,247,40283,0
notch-23,true,1.00,1087,309,1082,299,62884,0
notch-24,true,1.00,627,267,622,257,35899,0
notch-25,true,1.00,1256,327,1248,316,73627,0
notch-26,true,1.00,958,311,954,299,54961,0
notch-27,true,1.00,1324,331,1320,321,76358,0
notch-28,true,1.00,997,270,993,260,55829,0
notch-29,true,1.00,1086,338,1076,328,59110,0
notch-30,true,1.00,1032,279,1029,267,54783,0
notch-31,true,1.00,763,298,757,288,41529,0
notch-32,true,1.00,894,302,886,291,48200,0
notch-33,true,1.00,824,277,822,267,45378,0
notch-34,true,1.00,913,275,908,265,51416,0
notch-35,true,1.00,805,326,798,316,44736,0
notch-36,true,1.00,1157,334,1154,324,62994,0
notch-37,true,1.00,1293,308,1284,296,72900,0
notch-38,true,1.00,1134,368,1125,355,62164,0
notch-39,true,1.00,670,246,665,235,38370,0
notch-40,true,1.00,1149,291,1144,280,64142,0
notch-41,false,0.42,402,122,399,122,22031,0
notch-42,true,1.00,946,282,936,271,52811,0
notch-43,true,1.00,926,285,921,275,50968,0
notch-44,true,1.00,626,239,617,229,33745,0
notch-45,true,1.00,946,292,942,282,52055,0
notch-46,true,1.00,885,285,878,275,50377,0
notch-47,true,1.00,1113,297,1101,287,67191,0
notch-48,true,1.00,1414,289,1410,279,85707,0
notch-49,true,1.00,825,311,815,298,48461,0
notch-50,true,1.00,761,327,752,316,45013,0
notch-51,true,1.00,843,276,836,263,49996,0
notch-52,true,1.00,914,309,911,299,54695,0
notch-53,true,1.00,401,283,398,272,22347,0
notch-54,true,1.00,1066,326,1059,315,64192,0
notch-55,true,1.00,2014,311,2007,301,119912,0
notch-56,true,1.00,706,268,700,258,41077,0
notch-57,true,1.00,823,319,812,309,48657,0
notch-58,true,1.00,1073,347,1061,336,64698,0
notch-59,true,1.00,696,289,692,275,40307,0
notch-60,true,1.00,1210,310,1204,300,71560,0
notch-61,true,1.00,1023,259,1019,249,59573,0
notch-62,true,1.00,738,313,729,303,43394,0
notch-63,true,1.00,1190,369,1180,358,71644,0
notch-64,true,1.00,1343,302,1338,292,79653,0
notch-65,true,1.00,1824,373,1819,363,113271,0
notch-66,true,1.00,1134,316,1125,306,67730,0
notch-67,true,1.00,1344,298,1340,287,78537,0
notch-68,true,1.00,525,264,520,254,30806,0
notch-69,true,1.00,1289,304,1286,294,74486,0
notch-70,true,1.00,1065,316,1058,306,64352,0
notch-71,true,1.00,1482,310,1477,300,86223,0
notch-72,true,1.00,878,267,872,257,53468,0
notch-73,true,1.00,889,318,879,308,52737,0
notch-74,true,1.00,704,294,699,283,42780,0
notch-75,true,1.00,1500,326,1494,316,88461,0
notch-76,true,1.00,1232,326,1223,315,73572,0
notch-77,true,1.00,767,281,765,271,45549,0
notch-78,true,1.00,998,300,993,289,59435,0
notch-79,true,1.00,1118,342,1113,331,66356,0
notch-80,true,1.00,590,258,586,248,34368,0
notch-81,true,1.00,1174,280,1169,268,67603,0
notch-82,true,1.00,869,270,862,260,50539,0
notch-83,true,1.00,1156,327,1148,315,67185,0
notch-84,true,1.00,944,285,937,274,53740,0
notch-85,true,1.00,658,282,652,271,39058,0
notch-86,true,1.00,978,279,974,269,56498,0
notch-87,true,1.00,1013,271,1006,261,58682,0
notch-88,true,1.00,1220,325,1215,314,73210,0
notch-89,true,1.00,1078,296,1074,286,64750,0
notch-90,true,1.00,1772,314,1765,304,104253,0
notch-91,true,1.00,2334,407,2320,396,141980,0
notch-92,true,1.00,1052,325,1042,315,61933,0
notch-93,true,1.00,973,294,967,280,56166,0
notch-94,true,1.00,1535,341,1528,331,91487,0
notch-95,true,1.00,1094,279,1091,269,63061,0
notch-96,true,1.00,852,278,845,268,51744,0
notch-97,true,1.00,1184,291,1181,281,70251,0
notch-98,true,1.00,1507,337,1502,327,88777,0
notch-99,true,1.00,1272,356,1267,343,77636,0
notch-100,true,1.00,946,303,937,292,55706,0
