NDW:0.0
TTFW:1.6
DFPT:2.0
DFPAP:3.0
DFPMP:10.0
RIGHT_WINDOW_BORDER_X:275.0
level,win/fail,% travelled,run time,game ticks,planning time,total plannings,nodes evaluated,most backtracked nodes
patternCount-1,false,0.90,8524,595,8523,595,953199,0
patternCount-2,true,1.00,895,449,892,424,114003,0
patternCount-3,true,1.00,3313,482,3306,456,352955,0
patternCount-4,true,1.00,1099,444,1097,419,142034,0
patternCount-5,true,1.00,1006,456,1001,421,123153,0
patternCount-6,true,1.00,493,441,489,415,58189,0
patternCount-7,true,1.00,926,449,923,424,119249,0
patternCount-8,true,1.00,2552,478,2546,439,317266,0
patternCount-9,true,1.00,1117,473,1117,447,139350,0
patternCount-10,true,1.00,495,404,492,379,63152,0
patternCount-11,true,1.00,4999,588,4998,551,578486,0
patternCount-12,true,1.00,563,399,561,368,66970,0
patternCount-13,true,1.00,619,431,615,405,76779,0
patternCount-14,true,1.00,1131,439,1127,399,142682,0
patternCount-15,true,1.00,1258,483,1258,458,161639,0
patternCount-16,true,1.00,868,445,864,420,103574,0
patternCount-17,true,1.00,1381,544,1377,519,173021,0
patternCount-18,true,1.00,966,432,965,407,120758,0
patternCount-19,true,1.00,671,386,668,361,79715,0
patternCount-20,true,1.00,830,438,826,401,110682,0
patternCount-21,true,1.00,882,474,878,449,111791,0
patternCount-22,true,1.00,2563,493,2560,452,311721,0
patternCount-23,true,1.00,5667,578,5663,529,622586,0
patternCount-24,true,1.00,5203,475,5202,444,651987,0
patternCount-25,true,1.00,877,444,873,412,112350,0
patternCount-26,true,1.00,462,442,459,417,54344,0
patternCount-27,true,1.00,731,422,728,394,90961,0
patternCount-28,true,1.00,931,492,924,437,113896,0
patternCount-29,true,1.00,986,446,982,421,120901,0
patternCount-30,true,1.00,875,472,873,447,114403,0
patternCount-31,true,1.00,1132,450,1128,425,133621,0
patternCount-32,true,1.00,1274,513,1270,488,153373,0
patternCount-33,true,1.00,4002,515,3998,477,475642,0
patternCount-34,true,1.00,2073,537,2071,497,267054,0
patternCount-35,true,1.00,716,433,713,408,91372,0
patternCount-36,true,1.00,2322,515,2319,476,271954,0
patternCount-37,true,1.00,884,409,882,384,109447,0
patternCount-38,true,1.00,2431,516,2429,490,286858,0
patternCount-39,true,1.00,702,434,700,409,86511,0
patternCount-40,true,1.00,5238,553,5233,514,639348,0
patternCount-41,true,1.00,2015,486,2012,461,265935,0
patternCount-42,true,1.00,689,442,688,417,89114,0
patternCount-43,true,1.00,577,481,572,456,69330,0
patternCount-44,true,1.00,550,426,546,399,69781,0
patternCount-45,true,1.00,764,459,760,424,90374,0
patternCount-46,true,1.00,1276,470,1273,437,162947,0
patternCount-47,true,1.00,1539,466,1538,441,193593,0
patternCount-48,true,1.00,699,429,697,404,90353,0
patternCount-49,true,1.00,992,440,991,405,121652,0
patternCount-50,true,1.00,4830,579,4827,544,623497,0
patternCount-51,true,1.00,478,386,477,360,58652,0
patternCount-52,true,1.00,637,422,634,397,79077,0
patternCount-53,true,1.00,4182,480,4180,439,475575,0
patternCount-54,true,1.00,1489,541,1485,512,193710,0
patternCount-55,true,1.00,5308,472,5306,438,598226,0
patternCount-56,true,1.00,1190,446,1188,421,152047,0
patternCount-57,true,1.00,714,462,711,430,88235,0
patternCount-58,false,0.80,7733,519,7733,519,803191,0
patternCount-59,true,1.00,927,467,924,442,116669,0
patternCount-60,true,1.00,1039,457,1037,432,130859,0
patternCount-61,true,1.00,887,442,884,417,111948,0
patternCount-62,true,1.00,1111,496,1109,455,141812,0
patternCount-63,true,1.00,559,438,557,413,76111,0
patternCount-64,true,1.00,740,422,738,397,97055,0
patternCount-65,true,1.00,963,440,958,406,123395,0
patternCount-66,true,1.00,1312,489,1306,464,170345,0
patternCount-67,true,1.00,1546,489,1542,455,196031,0
patternCount-68,true,1.00,458,423,450,398,58467,0
patternCount-69,true,1.00,792,439,791,414,102426,0
patternCount-70,true,1.00,574,421,572,396,70619,0
patternCount-71,true,1.00,1085,486,1078,461,133873,0
patternCount-72,true,1.00,5235,505,5233,448,589820,0
patternCount-73,true,1.00,1651,510,1649,484,203839,0
patternCount-74,true,1.00,6686,548,6685,510,731145,0
patternCount-75,true,1.00,1073,513,1070,461,131318,0
patternCount-76,true,1.00,1150,461,1148,436,145488,0
patternCount-77,true,1.00,960,429,960,396,118124,0
patternCount-78,true,1.00,1115,506,1112,481,137027,0
patternCount-79,true,1.00,4227,519,4225,482,514524,0
patternCount-80,true,1.00,2380,491,2378,461,282740,0
patternCount-81,true,1.00,584,446,580,421,71782,0
patternCount-82,true,1.00,830,440,826,415,105177,0
patternCount-83,true,1.00,519,438,517,413,64754,0
patternCount-84,true,1.00,678,452,673,427,84000,0
patternCount-85,true,1.00,712,472,705,447,91169,0
patternCount-86,true,1.00,1104,440,1102,415,139302,0
patternCount-87,true,1.00,981,456,978,427,128091,0
patternCount-88,true,1.00,994,449,990,411,126694,0
patternCount-89,true,1.00,1022,455,1020,430,131309,0
patternCount-90,true,1.00,507,413,505,388,63970,0
patternCount-91,true,1.00,1426,475,1422,450,176182,0
patternCount-92,true,1.00,915,467,910,442,113299,0
patternCount-93,true,1.00,6361,546,6360,501,727591,0
patternCount-94,true,1.00,1327,456,1325,416,170866,0
patternCount-95,true,1.00,1349,458,1349,433,176394,0
patternCount-96,true,1.00,810,442,807,417,99487,0
patternCount-97,false,0.83,4319,406,4316,406,494760,0
patternCount-98,true,1.00,926,466,926,439,116393,0
patternCount-99,true,1.00,688,478,682,453,87363,0
patternCount-100,true,1.00,535,398,535,373,69424,0
