NDW:0.0
TTFW:1.2
DFPT:2.0
DFPAP:3.0
DFPMP:5.0
RIGHT_WINDOW_BORDER_X:155.0
level,win/fail,% travelled,run time,game ticks,planning time,total plannings,nodes evaluated,most backtracked nodes
notchParamRand-1,true,1.00,758,320,757,306,75363,0
notchParamRand-2,true,1.00,96,310,96,296,9889,0
notchParamRand-3,true,1.00,991,318,989,304,109358,0
notchParamRand-4,true,1.00,1967,360,1966,346,214215,0
notchParamRand-5,true,1.00,260,312,260,298,26363,0
notchParamRand-6,true,1.00,332,314,331,300,35241,0
notchParamRand-7,true,1.00,190,294,189,280,19051,0
notchParamRand-8,true,1.00,457,302,454,288,42880,0
notchParamRand-9,true,1.00,581,336,578,322,66423,0
notchParamRand-10,true,1.00,707,332,702,318,80304,0
notchParamRand-11,true,1.00,91,294,90,280,8990,0
notchParamRand-12,true,1.00,230,310,229,296,24492,0
notchParamRand-13,true,1.00,1682,320,1682,306,170927,0
notchParamRand-14,true,1.00,924,310,923,296,90977,0
notchParamRand-15,true,1.00,530,318,529,304,57640,0
notchParamRand-16,true,1.00,357,302,355,288,42358,0
notchParamRand-17,true,1.00,26,294,26,280,2420,0
notchParamRand-18,true,1.00,2509,345,2508,331,264857,0
notchParamRand-19,true,1.00,140,334,139,320,15682,0
notchParamRand-20,true,1.00,2196,361,2195,347,241374,0
notchParamRand-21,true,1.00,27,296,24,282,2333,0
notchParamRand-22,true,1.00,802,322,800,308,87310,0
notchParamRand-23,true,1.00,1003,339,1002,325,110741,0
notchParamRand-24,true,1.00,104,323,101,309,11498,0
notchParamRand-25,true,1.00,30,306,29,292,2915,0
notchParamRand-26,true,1.00,242,331,241,317,26703,0
notchParamRand-27,true,1.00,191,304,191,290,23764,0
notchParamRand-28,true,1.00,364,314,364,300,37882,0
notchParamRand-29,true,1.00,29,298,29,284,2545,0
notchParamRand-30,true,1.00,1709,362,1706,348,177947,0
notchParamRand-31,true,1.00,362,322,362,308,38313,0
notchParamRand-32,true,1.00,90,294,90,280,9321,0
notchParamRand-33,true,1.00,1832,316,1829,302,193035,0
notchParamRand-34,true,1.00,792,316,790,302,83644,0
notchParamRand-35,true,1.00,463,308,462,294,49540,0
notchParamRand-36,true,1.00,26,300,23,286,2404,0
notchParamRand-37,true,1.00,330,314,329,300,36184,0
notchParamRand-38,true,1.00,1555,323,1555,309,158253,0
notchParamRand-39,true,1.00,1989,388,1986,374,214618,0
notchParamRand-40,true,1.00,2574,348,2574,334,268664,0
notchParamRand-41,true,1.00,25,294,22,280,1967,0
notchParamRand-42,true,1.00,364,318,363,304,39792,0
notchParamRand-43,true,1.00,191,302,188,288,21054,0
notchParamRand-44,true,1.00,262,314,261,300,30341,0
notchParamRand-45,true,1.00,921,312,921,298,91462,0
notchParamRand-46,true,1.00,535,315,535,301,58121,0
notchParamRand-47,true,1.00,626,314,624,300,65054,0
notchParamRand-48,true,1.00,1336,332,1336,318,137906,0
notchParamRand-49,true,1.00,620,306,618,292,65374,0
notchParamRand-50,true,1.00,1400,358,1397,344,154395,0
notchParamRand-51,true,1.00,100,315,99,301,10616,0
notchParamRand-52,true,1.00,759,316,757,302,79787,0
notchParamRand-53,true,1.00,863,316,861,302,88138,0
notchParamRand-54,true,1.00,1801,353,1800,339,184549,0
notchParamRand-55,true,1.00,1595,314,1593,300,159691,0
notchParamRand-56,true,1.00,569,323,566,309,58590,0
notchParamRand-57,true,1.00,854,314,854,300,94099,0
notchParamRand-58,true,1.00,668,328,668,314,73422,0
notchParamRand-59,true,1.00,391,309,390,295,41625,0
notchParamRand-60,true,1.00,522,302,520,288,54607,0
notchParamRand-61,true,1.00,333,302,332,288,37622,0
notchParamRand-62,true,1.00,367,324,366,310,38793,0
notchParamRand-63,true,1.00,1326,316,1323,302,136822,0
notchParamRand-64,true,1.00,224,296,224,282,24734,0
notchParamRand-65,true,1.00,1830,337,1827,323,187349,0
notchParamRand-66,true,1.00,206,309,204,295,21019,0
notchParamRand-67,true,1.00,224,302,224,288,22229,0
notchParamRand-68,true,1.00,1686,327,1686,313,176318,0
notchParamRand-69,true,1.00,232,319,230,305,25333,0
notchParamRand-70,true,1.00,574,332,573,318,63634,0
notchParamRand-71,true,1.00,196,312,196,298,20675,0
notchParamRand-72,true,1.00,91,294,88,280,9139,0
notchParamRand-73,true,1.00,556,316,553,302,54420,0
notchParamRand-74,true,1.00,27,296,25,282,2396,0
notchParamRand-75,true,1.00,25,294,22,280,2134,0
notchParamRand-76,true,1.00,1126,348,1125,334,117737,0
notchParamRand-77,true,1.00,1621,332,1619,318,158496,0
notchParamRand-78,true,1.00,1421,333,1418,319,152022,0
notchParamRand-79,true,1.00,225,298,224,284,23137,0
notchParamRand-80,true,1.00,255,298,250,284,24121,0
notchParamRand-81,true,1.00,225,298,224,284,26018,0
notchParamRand-82,true,1.00,653,330,653,316,72200,0
notchParamRand-83,true,1.00,1127,331,1124,317,112175,0
notchParamRand-84,true,1.00,230,300,230,286,23679,0
notchParamRand-85,true,1.00,25,294,25,280,2035,0
notchParamRand-86,true,1.00,410,338,409,324,44804,0
notchParamRand-87,true,1.00,1732,326,1731,312,184504,0
notchParamRand-88,true,1.00,226,296,224,282,25097,0
notchParamRand-89,true,1.00,271,327,271,313,30063,0
notchParamRand-90,true,1.00,492,310,491,296,48883,0
notchParamRand-91,true,1.00,25,294,24,280,2089,0
notchParamRand-92,true,1.00,803,327,800,313,85645,0
notchParamRand-93,true,1.00,241,316,239,302,26088,0
notchParamRand-94,true,1.00,2012,328,2010,314,201460,0
notchParamRand-95,true,1.00,623,316,621,302,64858,0
notchParamRand-96,true,1.00,412,327,409,313,45804,0
notchParamRand-97,true,1.00,1327,345,1326,331,134200,0
notchParamRand-98,true,1.00,188,294,187,280,21946,0
notchParamRand-99,true,1.00,228,312,227,298,24027,0
notchParamRand-100,true,1.00,1295,310,1295,296,132507,0
