NDW:0.0
TTFW:0.2
DFPT:2.0
DFPAP:3.0
DFPMP:5.0
RIGHT_WINDOW_BORDER_X:235.0
level,win/fail,% travelled,run time,game ticks,planning time,total plannings,nodes evaluated,most backtracked nodes
patternWeightCount-1,true,1.00,6260,395,6258,371,417842,0
patternWeightCount-2,true,1.00,3905,371,3904,345,246021,0
patternWeightCount-3,true,1.00,4039,363,4037,342,251758,0
patternWeightCount-4,true,1.00,3948,354,3942,331,247242,0
patternWeightCount-5,true,1.00,4965,396,4961,374,309332,0
patternWeightCount-6,true,1.00,5093,408,5090,387,317857,0
patternWeightCount-7,true,1.00,4935,404,4932,383,299645,0
patternWeightCount-8,true,1.00,4609,415,4604,394,275680,0
patternWeightCount-9,true,1.00,5068,391,5064,370,312503,0
patternWeightCount-10,true,1.00,4262,371,4260,349,264599,0
patternWeightCount-11,true,1.00,3173,338,3173,317,199718,0
patternWeightCount-12,true,1.00,5035,386,5034,365,307560,0
patternWeightCount-13,true,1.00,3224,324,3222,303,209108,0
patternWeightCount-14,true,1.00,4936,406,4934,385,297480,0
patternWeightCount-15,true,1.00,5626,423,5619,402,350917,0
patternWeightCount-16,true,1.00,5767,404,5762,375,373211,0
patternWeightCount-17,true,1.00,4319,359,4318,338,270250,0
patternWeightCount-18,true,1.00,5067,406,5064,380,310771,0
patternWeightCount-19,true,1.00,3964,365,3963,344,246115,0
patternWeightCount-20,false,0.62,3485,245,3484,245,227608,0
patternWeightCount-21,true,1.00,4002,373,3999,351,237890,0
patternWeightCount-22,true,1.00,7434,460,7432,430,470350,0
patternWeightCount-23,true,1.00,4826,389,4824,367,305057,0
patternWeightCount-24,true,1.00,4256,370,4254,344,278102,0
patternWeightCount-25,true,1.00,5888,416,5883,395,364149,0
patternWeightCount-26,true,1.00,7028,456,7021,435,428545,0
patternWeightCount-27,true,1.00,5116,390,5114,369,324161,0
patternWeightCount-28,true,1.00,5558,394,5553,373,342730,0
patternWeightCount-29,true,1.00,4102,368,4098,347,254807,0
patternWeightCount-30,true,1.00,7800,449,7800,424,515478,0
patternWeightCount-31,true,1.00,3752,342,3748,321,239472,0
patternWeightCount-32,true,1.00,3814,346,3811,325,238575,0
patternWeightCount-33,true,1.00,4968,404,4966,378,317706,0
patternWeightCount-34,true,1.00,4915,393,4914,372,314745,0
patternWeightCount-35,false,0.27,29557,999,29557,999,1517163,0
patternWeightCount-36,true,1.00,4632,370,4632,349,295842,0
patternWeightCount-37,true,1.00,4754,383,4750,362,290104,0
patternWeightCount-38,true,1.00,5488,401,5487,364,340954,0
patternWeightCount-39,true,1.00,4167,358,4164,337,271862,0
patternWeightCount-40,true,1.00,4204,367,4202,346,263734,0
patternWeightCount-41,true,1.00,5254,410,5251,384,328672,0
patternWeightCount-42,false,0.87,5610,354,5606,354,356546,0
patternWeightCount-43,true,1.00,4318,368,4314,347,276370,0
patternWeightCount-44,true,1.00,7811,487,7808,458,463887,0
patternWeightCount-45,true,1.00,7666,456,7664,432,499023,0
patternWeightCount-46,true,1.00,8362,491,8358,456,517020,0
patternWeightCount-47,true,1.00,4373,382,4367,356,266427,0
patternWeightCount-48,true,1.00,3379,355,3377,332,212510,0
patternWeightCount-49,true,1.00,4427,370,4424,349,272797,0
patternWeightCount-50,true,1.00,5021,407,5018,381,307244,0
patternWeightCount-51,true,1.00,4010,369,4006,340,250165,0
patternWeightCount-52,true,1.00,4778,382,4771,354,294241,0
patternWeightCount-53,false,0.80,5555,335,5551,335,358026,0
patternWeightCount-54,true,1.00,4404,398,4403,377,275689,0
patternWeightCount-55,true,1.00,3816,362,3814,339,240133,0
patternWeightCount-56,true,1.00,4532,395,4527,369,283023,0
patternWeightCount-57,true,1.00,4304,382,4301,356,265933,0
patternWeightCount-58,true,1.00,4474,383,4471,362,279067,0
patternWeightCount-59,true,1.00,3294,334,3290,313,209978,0
patternWeightCount-60,true,1.00,5612,410,5608,386,349655,0
patternWeightCount-61,true,1.00,4820,404,4818,372,305161,0
patternWeightCount-62,true,1.00,4793,367,4790,344,317481,0
patternWeightCount-63,true,1.00,5097,398,5092,377,328667,0
patternWeightCount-64,true,1.00,5042,388,5040,367,321306,0
patternWeightCount-65,true,1.00,5349,395,5347,369,327614,0
patternWeightCount-66,true,1.00,5063,397,5062,376,312795,0
patternWeightCount-67,true,1.00,4100,369,4094,348,254262,0
patternWeightCount-68,false,0.85,24834,999,24831,999,1275892,0
patternWeightCount-69,true,1.00,5991,413,5988,390,372481,0
patternWeightCount-70,true,1.00,5082,400,5080,374,308238,0
patternWeightCount-71,true,1.00,3191,336,3189,315,212443,0
patternWeightCount-72,true,1.00,6940,418,6939,395,470559,0
patternWeightCount-73,true,1.00,8001,439,7998,402,557901,0
patternWeightCount-74,true,1.00,4717,376,4714,355,296066,0
patternWeightCount-75,true,1.00,5953,411,5952,385,371851,0
patternWeightCount-76,true,1.00,6132,427,6127,406,372378,0
patternWeightCount-77,true,1.00,5795,417,5793,396,359653,0
patternWeightCount-78,true,1.00,5529,402,5529,381,346269,0
patternWeightCount-79,true,1.00,3894,344,3890,324,250219,0
patternWeightCount-80,true,1.00,4580,387,4578,361,285215,0
patternWeightCount-81,true,1.00,5904,406,5901,384,387670,0
patternWeightCount-82,true,1.00,3914,367,3911,343,237587,0
patternWeightCount-83,true,1.00,3857,374,3853,352,242360,0
patternWeightCount-84,true,1.00,3654,338,3652,317,230952,0
patternWeightCount-85,true,1.00,5240,389,5237,368,333391,0
patternWeightCount-86,false,0.94,5130,355,5128,355,334112,0
patternWeightCount-87,true,1.00,8056,443,8055,408,542716,0
patternWeightCount-88,true,1.00,4794,379,4791,358,303377,0
patternWeightCount-89,true,1.00,4986,389,4983,368,313551,0
patternWeightCount-90,true,1.00,7677,449,7674,415,516102,0
patternWeightCount-91,true,1.00,4402,384,4401,362,274438,0
patternWeightCount-92,true,1.00,7590,444,7589,420,509789,0
patternWeightCount-93,true,1.00,5082,380,5080,358,332871,0
patternWeightCount-94,true,1.00,3816,348,3813,327,247026,0
patternWeightCount-95,true,1.00,5777,398,5773,372,364867,0
patternWeightCount-96,true,1.00,4095,377,4091,356,259663,0
patternWeightCount-97,true,1.00,2879,323,2878,302,184457,0
patternWeightCount-98,true,1.00,8759,467,8758,438,592302,0
patternWeightCount-99,true,1.00,4367,357,4365,336,275604,0
patternWeightCount-100,true,1.00,4608,385,4605,364,286643,0
