NDW:0.0
TTFW:2.0
DFPT:2.0
DFPAP:3.0
DFPMP:10.0
RIGHT_WINDOW_BORDER_X:75.0
level,win/fail,% travelled,run time,game ticks,planning time,total plannings,nodes evaluated,most backtracked nodes
hopper-1,false,0.48,1840,252,1835,252,101843,0
hopper-2,true,1.00,5352,517,5341,511,240663,0
hopper-3,false,0.24,1735,127,1735,127,52623,0
hopper-4,false,0.26,1533,131,1529,131,59629,0
hopper-5,true,1.00,4727,512,4718,506,238174,0
hopper-6,true,1.00,5413,478,5402,471,224366,0
hopper-7,false,0.82,23092,999,23086,999,957036,0
hopper-8,false,0.42,3461,248,3457,248,171696,0
hopper-9,true,1.00,6391,536,6377,530,302836,0
hopper-10,true,1.00,2754,427,2745,419,140347,0
hopper-11,true,1.00,4685,502,4670,495,252565,0
hopper-12,true,1.00,4519,509,4507,503,256936,0
hopper-13,false,0.39,4248,276,4246,276,160458,0
hopper-14,true,1.00,6409,521,6398,514,313917,0
hopper-15,true,1.00,4895,538,4877,531,191506,0
hopper-16,false,0.54,5882,363,5875,363,272824,0
hopper-17,true,1.00,1724,373,1716,367,66437,0
hopper-18,true,1.00,2705,497,2694,490,145187,0
hopper-19,true,1.00,2258,453,2249,446,139090,0
hopper-20,true,1.00,5153,502,5146,496,244895,0
hopper-21,false,0.61,5256,373,5252,373,270883,0
hopper-22,false,0.32,3720,210,3719,210,163375,0
hopper-23,true,1.00,3437,483,3425,476,114111,0
hopper-24,true,1.00,1041,355,1027,349,45530,0
hopper-25,true,1.00,2869,425,2853,419,101302,0
hopper-26,true,1.00,5582,527,5576,519,224632,0
hopper-27,true,1.00,2311,455,2307,448,131324,0
hopper-28,false,0.57,7251,450,7240,450,437473,0
hopper-29,false,0.26,2726,164,2724,164,117938,0
hopper-30,true,1.00,3446,460,3441,454,188085,0
hopper-31,false,0.77,4764,437,4759,437,224245,0
hopper-32,true,1.00,9644,641,9631,634,447945,0
hopper-33,false,0.49,3165,262,3157,262,127801,0
hopper-34,false,0.31,2639,178,2634,178,88120,0
hopper-35,true,1.00,8002,624,7980,617,410465,0
hopper-36,true,1.00,2409,420,2400,414,124792,0
hopper-37,false,0.50,3179,265,3176,265,165190,0
hopper-38,false,0.52,4009,335,4003,335,196288,0
hopper-39,false,0.52,5058,324,5056,324,247343,0
hopper-40,true,1.00,5290,513,5279,506,240605,0
hopper-41,false,0.24,2407,149,2404,149,118271,0
hopper-42,true,1.00,5118,552,5108,545,286692,0
hopper-43,false,0.44,5358,337,5354,337,279298,0
hopper-44,true,1.00,7636,580,7631,573,371750,0
hopper-45,false,0.42,5206,314,5202,314,276107,0
hopper-46,false,0.66,9127,522,9120,522,479545,0
hopper-47,true,1.00,8339,608,8328,602,408576,0
hopper-48,true,1.00,7453,595,7442,589,366263,0
hopper-49,true,1.00,8006,603,7993,597,421545,0
hopper-50,false,0.62,5205,372,5203,372,284396,0
hopper-51,false,0.33,3561,224,3558,224,146543,0
hopper-52,true,1.00,2623,413,2616,407,153651,0
hopper-53,false,0.28,5488,294,5486,294,298142,0
hopper-54,true,1.00,2643,407,2636,400,144233,0
hopper-55,true,1.00,1848,457,1843,450,108055,0
hopper-56,true,1.00,2410,411,2401,404,139928,0
hopper-57,true,1.00,2742,423,2732,417,124277,0
hopper-58,false,0.58,3968,322,3955,322,144672,0
hopper-59,true,1.00,6058,558,6046,551,246126,0
hopper-60,true,1.00,5742,526,5735,518,345139,0
hopper-61,false,0.82,8182,519,8179,519,445796,0
hopper-62,true,1.00,5883,595,5877,588,318878,0
hopper-63,false,0.22,2129,134,2126,134,111405,0
hopper-64,true,1.00,5670,522,5662,515,287021,0
hopper-65,false,0.13,2035,114,2035,114,77220,0
hopper-66,false,0.74,2912,340,2902,340,127101,0
hopper-67,true,1.00,3091,427,3084,421,173281,0
hopper-68,true,1.00,1490,422,1476,416,83523,0
hopper-69,false,0.83,4963,440,4955,440,254287,0
hopper-70,true,1.00,5303,517,5297,511,298465,0
hopper-71,true,1.00,2936,408,2931,401,161725,0
hopper-72,false,0.55,2800,279,2798,279,149813,0
hopper-73,true,1.00,5832,513,5817,507,244330,0
hopper-74,true,1.00,2128,415,2117,409,89638,0
hopper-75,true,1.00,6317,533,6307,526,352381,0
hopper-76,true,1.00,4624,528,4620,521,257506,0
hopper-77,true,1.00,1882,478,1869,471,102071,0
hopper-78,true,1.00,6695,582,6691,576,381711,0
hopper-79,true,1.00,3180,424,3169,417,179547,0
hopper-80,false,0.24,2914,190,2910,190,152819,0
hopper-81,false,0.38,3869,253,3866,253,202721,0
hopper-82,false,0.45,3216,254,3210,254,171005,0
hopper-83,true,1.00,4877,506,4870,499,272090,0
hopper-84,true,1.00,7616,574,7602,568,436105,0
hopper-85,true,1.00,6314,588,6306,581,346319,0
hopper-86,false,0.46,6878,354,6875,354,376061,0
hopper-87,true,1.00,4507,491,4500,484,247443,0
hopper-88,false,0.23,3255,177,3255,177,193071,0
hopper-89,false,0.13,2003,114,2002,114,103973,0
hopper-90,false,0.76,4136,386,4132,386,245733,0
hopper-91,true,1.00,5259,516,5254,510,298537,0
hopper-92,true,1.00,5362,490,5355,484,283176,0
hopper-93,true,1.00,979,347,971,340,55257,0
hopper-94,false,0.64,4157,382,4150,382,222030,0
hopper-95,true,1.00,5808,566,5796,559,309933,0
hopper-96,false,0.13,2001,114,1998,114,104119,0
hopper-97,true,1.00,6699,538,6691,532,354725,0
hopper-98,true,1.00,5192,536,5181,529,275391,0
hopper-99,false,0.35,4315,283,4313,283,238570,0
hopper-100,false,0.21,2850,184,2847,184,145449,0
