NDW:0.0
TTFW:1.6
DFPT:2.0
DFPAP:3.0
DFPMP:50.0
RIGHT_WINDOW_BORDER_X:350.0
level,win/fail,% travelled,run time,game ticks,planning time,total plannings,nodes evaluated,most backtracked nodes
notch-1,true,1.00,1282,301,1280,268,145743,0
notch-2,true,1.00,1269,280,1264,248,153520,0
notch-3,true,1.00,782,251,781,220,92141,0
notch-4,true,1.00,804,265,803,233,94074,0
notch-5,true,1.00,727,250,726,218,84241,0
notch-6,true,1.00,763,295,760,257,88922,0
notch-7,true,1.00,485,293,482,254,58190,0
notch-8,true,1.00,498,284,497,244,59840,0
notch-9,true,1.00,967,280,965,248,111257,0
notch-10,true,1.00,791,295,789,262,94520,0
notch-11,true,1.00,868,266,866,233,101531,0
notch-12,true,1.00,672,258,672,226,78097,0
notch-13,true,1.00,741,259,739,227,90007,0
notch-14,true,1.00,664,263,663,218,76072,0
notch-15,true,1.00,778,264,776,232,86878,0
notch-16,true,1.00,809,291,808,246,97529,0
notch-17,true,1.00,731,290,731,254,86711,0
notch-18,true,1.00,1083,325,1080,275,136482,0
notch-19,true,1.00,887,261,887,218,106558,0
notch-20,true,1.00,788,299,785,267,93099,0
notch-21,true,1.00,739,302,739,270,90487,0
notch-22,true,1.00,464,241,462,208,51539,0
notch-23,true,1.00,1024,263,1022,225,119757,0
notch-24,true,1.00,603,265,603,233,70487,0
notch-25,true,1.00,917,283,914,250,103659,0
notch-26,true,1.00,992,292,992,248,115788,0
notch-27,true,1.00,1037,297,1035,258,127695,0
notch-28,true,1.00,682,257,681,209,81137,0
notch-29,true,1.00,1097,285,1095,247,131134,0
notch-30,true,1.00,722,238,719,196,83408,0
notch-31,true,1.00,805,281,804,240,90879,0
notch-32,true,1.00,605,279,602,238,69866,0
notch-33,true,1.00,807,251,803,219,89831,0
notch-34,true,1.00,634,261,631,229,77928,0
notch-35,true,1.00,715,292,714,259,83766,0
notch-36,true,1.00,904,297,900,254,105533,0
notch-37,true,1.00,1004,285,1002,233,121889,0
notch-38,true,1.00,753,314,750,244,87048,0
notch-39,true,1.00,570,228,569,196,65316,0
notch-40,true,1.00,756,261,755,223,94051,0
notch-41,true,1.00,1023,278,1018,246,123924,0
notch-42,true,1.00,818,254,816,223,92741,0
notch-43,true,1.00,659,252,659,219,78782,0
notch-44,true,1.00,697,247,695,216,82296,0
notch-45,true,1.00,598,244,597,212,72294,0
notch-46,true,1.00,711,253,710,221,84118,0
notch-47,true,1.00,899,293,897,252,107825,0
notch-48,true,1.00,1046,265,1045,225,125530,0
notch-49,true,1.00,625,286,624,232,73822,0
notch-50,true,1.00,1011,280,1009,237,119507,0
notch-51,true,1.00,564,256,564,219,67441,0
notch-52,true,1.00,679,277,678,243,79109,0
notch-53,true,1.00,273,271,271,212,28466,0
notch-54,true,1.00,818,301,816,262,96484,0
notch-55,true,1.00,957,286,954,253,115139,0
notch-56,true,1.00,966,296,966,264,112759,0
notch-57,true,1.00,548,268,545,228,64192,0
notch-58,true,1.00,1231,307,1229,270,145193,0
notch-59,true,1.00,698,283,696,251,79936,0
notch-60,true,1.00,918,269,917,237,105806,0
notch-61,true,1.00,778,263,776,231,92810,0
notch-62,true,1.00,825,289,822,258,95460,0
notch-63,true,1.00,716,287,715,255,87263,0
notch-64,true,1.00,964,275,962,234,107141,0
notch-65,true,1.00,1414,325,1413,268,182105,0
notch-66,true,1.00,1001,291,999,252,117602,0
notch-67,true,1.00,693,266,692,229,78573,0
notch-68,true,1.00,307,234,304,202,35402,0
notch-69,true,1.00,1175,286,1174,254,143046,0
notch-70,true,1.00,916,323,910,275,112602,0
notch-71,true,1.00,1037,267,1035,235,119606,0
notch-72,true,1.00,656,245,656,213,78927,0
notch-73,true,1.00,636,297,634,254,70894,0
notch-74,true,1.00,485,255,485,223,57395,0
notch-75,true,1.00,1187,283,1184,251,145658,0
notch-76,true,1.00,726,299,726,256,85284,0
notch-77,true,1.00,572,259,570,221,69382,0
notch-78,true,1.00,861,279,860,236,100324,0
notch-79,true,1.00,820,297,819,244,96437,0
notch-80,true,1.00,420,245,419,198,47118,0
notch-81,true,1.00,875,264,875,215,103637,0
notch-82,true,1.00,835,294,833,249,92105,0
notch-83,true,1.00,1196,294,1196,253,140413,0
notch-84,true,1.00,548,254,547,222,59302,0
notch-85,true,1.00,467,279,465,230,55577,0
notch-86,true,1.00,744,249,744,217,84888,0
notch-87,true,1.00,627,243,624,211,72161,0
notch-88,true,1.00,1082,301,1080,266,130569,0
notch-89,true,1.00,1356,300,1353,268,155474,0
notch-90,true,1.00,1259,281,1259,249,147560,0
notch-91,true,1.00,1040,290,1038,249,120635,0
notch-92,true,1.00,847,264,846,232,101061,0
notch-93,true,1.00,830,285,829,242,92027,0
notch-94,true,1.00,1004,305,1003,257,120622,0
notch-95,true,1.00,551,253,550,221,62840,0
notch-96,true,1.00,711,266,709,232,82563,0
notch-97,true,1.00,918,285,917,250,108736,0
notch-98,true,1.00,953,259,953,224,109195,0
notch-99,true,1.00,911,285,907,246,110577,0
notch-100,true,1.00,654,288,653,251,79494,0
