NDW:0.0
TTFW:0.8
DFPT:2.0
DFPAP:3.0
DFPMP:3.0
RIGHT_WINDOW_BORDER_X:115.0
level,win/fail,% travelled,run time,game ticks,planning time,total plannings,nodes evaluated,most backtracked nodes
Krys-1,true,1.00,6208,613,6198,600,286671,0
Krys-2,false,0.79,20912,999,20883,999,830338,0
Krys-3,false,0.70,24595,999,24588,999,1158129,0
Krys-4,true,1.00,3724,522,3719,506,183977,0
Krys-5,true,1.00,7096,513,7089,500,417053,0
Krys-6,true,1.00,3614,497,3600,480,148162,0
Krys-7,true,1.00,344,333,337,316,20636,0
Krys-8,true,1.00,2283,486,2270,473,129849,0
Krys-9,true,1.00,5047,463,5035,451,328012,0
Krys-10,true,1.00,2736,474,2726,461,165606,0
Krys-11,true,1.00,163,336,156,324,9200,0
Krys-12,false,0.70,24088,999,24076,999,1086738,0
Krys-13,false,0.69,2077,269,2072,269,120023,0
Krys-14,false,0.79,21609,999,21575,999,858261,0
Krys-15,true,1.00,6641,563,6624,550,382474,0
Krys-16,false,0.69,20360,999,20332,999,822508,0
Krys-17,true,1.00,2010,483,2002,470,105065,0
Krys-18,true,1.00,1221,484,1213,467,66153,0
Krys-19,false,0.84,8988,563,8983,563,514512,0
Krys-20,true,1.00,4996,619,4983,608,284275,0
Krys-21,true,1.00,5303,462,5294,450,331779,0
Krys-22,false,0.54,3081,253,3078,253,192674,0
Krys-23,true,1.00,1893,479,1884,465,103599,0
Krys-24,false,0.70,25051,999,25045,999,1014272,0
Krys-25,true,1.00,2176,412,2172,398,117628,0
Krys-26,true,1.00,9801,591,9795,575,588692,0
Krys-27,true,1.00,5460,541,5450,528,296728,0
Krys-28,true,1.00,5055,556,5042,542,264532,0
Krys-29,true,1.00,2322,470,2315,459,112279,0
Krys-30,true,1.00,2032,488,2025,477,98339,0
Krys-31,true,1.00,1580,400,1570,387,93402,0
Krys-32,true,1.00,493,381,487,371,25414,0
Krys-33,true,1.00,354,340,346,321,19621,0
Krys-34,true,1.00,3442,489,3432,478,174875,0
Krys-35,true,1.00,4861,442,4854,427,308553,0
Krys-36,false,0.91,23081,999,23069,999,1038690,0
Krys-37,true,1.00,9025,645,9015,634,486654,0
Krys-38,true,1.00,10955,685,10942,671,658283,0
Krys-39,true,1.00,9563,594,9555,583,557304,0
Krys-40,true,1.00,6798,604,6788,591,415648,0
Krys-41,false,0.54,4262,290,4255,290,241326,0
Krys-42,true,1.00,5598,559,5585,540,337311,0
Krys-43,true,1.00,5304,447,5295,436,335978,0
Krys-44,true,1.00,9262,682,9255,669,536159,0
Krys-45,true,1.00,979,429,968,414,44361,0
Krys-46,true,1.00,2212,462,2205,449,108100,0
Krys-47,true,1.00,1743,500,1732,488,94972,0
Krys-48,false,0.53,7444,391,7438,391,430532,0
Krys-49,true,1.00,1669,432,1656,418,88323,0
Krys-50,false,0.70,22380,999,22368,999,943381,0
Krys-51,true,1.00,6644,542,6638,529,419234,0
Krys-52,true,1.00,1793,491,1781,473,92464,0
Krys-53,true,1.00,2386,485,2372,472,117245,0
Krys-54,true,1.00,4687,567,4672,556,271229,0
Krys-55,true,1.00,3663,506,3653,492,189770,0
Krys-56,true,1.00,1147,400,1139,389,57064,0
Krys-57,true,1.00,4575,458,4569,447,253252,0
Krys-58,true,1.00,2117,478,2098,467,106346,0
Krys-59,false,0.89,19694,999,19671,999,785882,0
Krys-60,true,1.00,8179,562,8168,551,487651,0
Krys-61,true,1.00,2200,411,2190,400,111750,0
Krys-62,true,1.00,858,380,843,368,38096,0
Krys-63,true,1.00,4357,632,4345,619,207930,0
Krys-64,true,1.00,3216,538,3205,520,175096,0
Krys-65,true,1.00,2331,414,2327,403,110705,0
Krys-66,true,1.00,3369,494,3364,481,161700,0
Krys-67,true,1.00,2865,504,2852,485,148441,0
Krys-68,true,1.00,12367,675,12355,662,697459,0
Krys-69,false,0.48,26413,999,26405,999,991922,0
Krys-70,false,0.80,22896,999,22887,999,1008414,0
Krys-71,true,1.00,7450,588,7441,572,466291,0
Krys-72,true,1.00,1232,498,1219,479,66146,0
Krys-73,false,0.80,22140,999,22129,999,947936,0
Krys-74,true,1.00,5211,526,5203,512,273000,0
Krys-75,true,1.00,647,419,636,406,32368,0
Krys-76,true,1.00,8216,560,8204,549,480053,0
Krys-77,true,1.00,5026,480,5016,466,308519,0
Krys-78,false,0.24,4296,208,4293,208,268246,0
Krys-79,true,1.00,842,414,832,403,42093,0
Krys-80,true,1.00,559,409,550,391,30348,0
Krys-81,true,1.00,1478,395,1469,378,83852,0
Krys-82,true,1.00,1093,375,1086,361,54367,0
Krys-83,false,0.91,21371,999,21357,999,998883,0
Krys-84,true,1.00,286,342,278,328,16603,0
Krys-85,true,1.00,2306,487,2290,468,122160,0
Krys-86,true,1.00,2377,388,2367,373,118867,0
Krys-87,true,1.00,663,374,655,362,30468,0
Krys-88,true,1.00,1942,425,1939,408,104441,0
Krys-89,true,1.00,4103,513,4097,501,225707,0
Krys-90,true,1.00,6769,494,6763,472,401043,0
Krys-91,true,1.00,415,384,403,373,23980,0
Krys-92,false,0.91,21357,999,21346,999,904472,0
Krys-93,false,0.53,2483,213,2480,213,163931,0
Krys-94,true,1.00,3450,455,3442,442,218310,0
Krys-95,true,1.00,639,330,629,319,31501,0
Krys-96,true,1.00,9360,601,9350,588,542963,0
Krys-97,true,1.00,3924,502,3912,489,223835,0
Krys-98,true,1.00,4087,580,4080,568,197801,0
Krys-99,true,1.00,1033,449,1018,430,52860,0
Krys-100,true,1.00,7032,492,7025,480,442911,0
