NDW:0.0
TTFW:1.6
DFPT:2.0
DFPAP:3.0
DFPMP:10.0
RIGHT_WINDOW_BORDER_X:400.0
level,win/fail,% travelled,run time,game ticks,planning time,total plannings,nodes evaluated,most backtracked nodes
notch-1,true,1.00,792,289,791,249,93976,0
notch-2,true,1.00,989,289,988,252,122653,0
notch-3,true,1.00,913,251,911,215,107127,0
notch-4,true,1.00,720,259,720,221,84508,0
notch-5,true,1.00,657,258,654,215,79251,0
notch-6,true,1.00,769,287,768,244,93993,0
notch-7,true,1.00,497,303,496,248,59182,0
notch-8,true,1.00,598,286,598,236,70669,0
notch-9,true,1.00,1471,284,1471,248,181648,0
notch-10,true,1.00,816,273,815,235,101806,0
notch-11,true,1.00,1252,268,1251,229,149316,0
notch-12,true,1.00,684,260,683,223,79364,0
notch-13,true,1.00,682,257,678,221,81056,0
notch-14,true,1.00,754,266,753,215,88842,0
notch-15,true,1.00,919,263,916,226,112029,0
notch-16,true,1.00,984,278,982,221,120277,0
notch-17,true,1.00,837,276,836,233,104774,0
notch-18,true,1.00,1107,314,1106,267,137779,0
notch-19,true,1.00,898,245,896,201,110563,0
notch-20,true,1.00,1043,281,1042,245,129816,0
notch-21,true,1.00,863,309,862,271,108530,0
notch-22,true,1.00,605,241,603,202,68030,0
notch-23,true,1.00,921,254,920,217,109655,0
notch-24,true,1.00,623,267,622,231,74662,0
notch-25,true,1.00,1061,304,1058,262,127462,0
notch-26,true,1.00,847,276,845,227,98655,0
notch-27,true,1.00,1250,290,1250,245,155724,0
notch-28,true,1.00,681,256,679,205,83322,0
notch-29,true,1.00,989,285,986,242,119187,0
notch-30,true,1.00,707,244,704,191,82017,0
notch-31,true,1.00,734,279,731,233,86866,0
notch-32,true,1.00,666,275,665,228,78179,0
notch-33,true,1.00,621,256,621,212,71419,0
notch-34,true,1.00,679,257,678,221,85207,0
notch-35,true,1.00,649,280,648,242,78275,0
notch-36,true,1.00,949,288,949,239,110080,0
notch-37,true,1.00,981,272,979,230,122392,0
notch-38,true,1.00,762,309,762,234,89612,0
notch-39,true,1.00,623,228,623,192,74609,0
notch-40,true,1.00,717,273,715,218,90756,0
notch-41,true,1.00,1084,288,1081,240,131466,0
notch-42,true,1.00,588,276,586,229,69644,0
notch-43,true,1.00,650,264,649,224,79421,0
notch-44,true,1.00,555,259,555,211,66067,0
notch-45,true,1.00,582,244,579,208,68465,0
notch-46,true,1.00,796,255,795,219,96993,0
notch-47,true,1.00,774,279,774,240,93238,0
notch-48,true,1.00,1180,265,1178,220,140761,0
notch-49,true,1.00,654,294,652,234,77571,0
notch-50,true,1.00,864,302,861,248,98908,0
notch-51,true,1.00,653,245,653,209,78087,0
notch-52,true,1.00,726,274,725,233,85367,0
notch-53,true,1.00,290,271,288,206,29904,0
notch-54,true,1.00,861,304,860,259,104789,0
notch-55,true,1.00,921,288,920,249,113457,0
notch-56,true,1.00,702,279,699,243,80832,0
notch-57,true,1.00,794,291,794,241,94689,0
notch-58,true,1.00,1522,326,1522,284,174509,0
notch-59,true,1.00,702,276,701,234,81492,0
notch-60,true,1.00,893,271,890,235,107271,0
notch-61,true,1.00,710,258,710,222,82077,0
notch-62,true,1.00,589,293,587,257,65743,0
notch-63,true,1.00,778,297,775,261,97943,0
notch-64,true,1.00,875,274,875,226,99617,0
notch-65,true,1.00,1189,326,1187,263,148720,0
notch-66,true,1.00,1413,312,1410,265,166955,0
notch-67,true,1.00,745,258,745,217,84467,0
notch-68,true,1.00,404,240,402,204,47098,0
notch-69,true,1.00,1161,300,1159,263,140069,0
notch-70,true,1.00,979,318,979,258,122883,0
notch-71,true,1.00,1066,257,1063,221,125986,0
notch-72,true,1.00,742,245,739,209,88999,0
notch-73,true,1.00,638,277,634,229,74888,0
notch-74,true,1.00,555,266,553,219,66867,0
notch-75,true,1.00,1253,304,1251,261,156080,0
notch-76,true,1.00,733,274,732,232,86917,0
notch-77,true,1.00,649,255,646,219,80187,0
notch-78,true,1.00,813,277,811,229,97569,0
notch-79,true,1.00,839,292,838,235,100078,0
notch-80,true,1.00,463,230,461,194,53125,0
notch-81,true,1.00,1073,259,1073,212,125145,0
notch-82,true,1.00,632,278,631,239,72812,0
notch-83,true,1.00,795,299,793,243,93875,0
notch-84,true,1.00,485,259,484,216,52462,0
notch-85,true,1.00,547,288,547,231,65774,0
notch-86,true,1.00,739,245,737,208,89341,0
notch-87,true,1.00,639,243,635,205,72199,0
notch-88,true,1.00,1371,288,1371,245,174995,0
notch-89,true,1.00,1208,306,1206,252,148475,0
notch-90,true,1.00,1296,276,1296,240,157961,0
notch-91,true,1.00,966,286,966,238,113501,0
notch-92,true,1.00,1441,286,1440,250,172992,0
notch-93,true,1.00,812,290,811,234,94522,0
notch-94,true,1.00,1040,298,1039,238,126357,0
notch-95,true,1.00,548,255,547,213,63548,0
notch-96,true,1.00,551,271,550,226,65243,0
notch-97,true,1.00,629,295,629,251,75990,0
notch-98,true,1.00,1259,271,1258,217,155569,0
notch-99,true,1.00,1199,286,1199,237,147405,0
notch-100,true,1.00,730,270,729,234,89296,0
