NDW:0.0
TTFW:0.6
DFPT:2.0
DFPAP:3.0
DFPMP:10.0
RIGHT_WINDOW_BORDER_X:75.0
level,win/fail,% travelled,run time,game ticks,planning time,total plannings,nodes evaluated,most backtracked nodes
notchParamRand-1,false,0.28,2929,257,2928,257,249468,0
notchParamRand-2,true,1.00,93,379,92,372,9925,0
notchParamRand-3,false,0.24,2538,230,2538,230,226877,0
notchParamRand-4,false,0.19,3398,246,3398,246,292482,0
notchParamRand-5,true,1.00,593,468,591,461,52665,0
notchParamRand-6,true,1.00,2829,521,2828,514,240415,0
notchParamRand-7,true,1.00,986,557,983,548,88350,0
notchParamRand-8,true,1.00,3067,513,3064,505,232672,0
notchParamRand-9,true,1.00,3953,650,3952,642,350313,0
notchParamRand-10,true,1.00,3733,660,3728,653,322670,0
notchParamRand-11,true,1.00,184,462,182,455,19010,0
notchParamRand-12,true,1.00,3544,550,3539,543,301939,0
notchParamRand-13,false,0.51,10396,673,10390,673,845511,0
notchParamRand-14,false,0.80,6862,587,6858,587,552982,0
notchParamRand-15,true,1.00,4244,695,4242,685,363746,0
notchParamRand-16,true,1.00,2978,518,2977,511,272032,0
notchParamRand-17,true,1.00,34,399,34,392,5604,0
notchParamRand-18,false,0.18,3254,206,3254,206,290191,0
notchParamRand-19,true,1.00,737,446,734,438,66169,0
notchParamRand-20,false,0.57,11068,735,11065,735,974152,0
notchParamRand-21,true,1.00,40,419,39,411,6389,0
notchParamRand-22,true,1.00,3471,613,3469,606,306453,0
notchParamRand-23,false,0.24,1981,262,1979,262,169274,0
notchParamRand-24,true,1.00,495,449,491,442,45695,0
notchParamRand-25,true,1.00,71,560,69,550,11954,0
notchParamRand-26,false,0.65,774,398,770,398,68788,0
notchParamRand-27,true,1.00,2177,463,2173,455,205538,0
notchParamRand-28,true,1.00,1542,493,1538,486,136303,0
notchParamRand-29,true,1.00,37,403,37,396,6118,0
notchParamRand-30,false,0.32,8933,446,8933,446,730855,0
notchParamRand-31,true,1.00,2306,532,2306,524,205562,0
notchParamRand-32,true,1.00,232,389,227,382,22797,0
notchParamRand-33,false,0.19,2692,196,2691,196,231810,0
notchParamRand-34,false,0.24,2392,206,2392,206,196882,0
notchParamRand-35,true,1.00,3377,623,3373,616,285811,0
notchParamRand-36,true,1.00,30,385,30,378,4883,0
notchParamRand-37,true,1.00,2129,499,2126,492,187957,0
notchParamRand-38,false,0.19,1907,219,1907,219,165452,0
notchParamRand-39,false,0.32,3977,365,3975,365,339724,0
notchParamRand-40,false,0.17,782,153,780,153,64994,0
notchParamRand-41,true,1.00,71,556,70,546,11847,0
notchParamRand-42,true,1.00,1207,512,1204,502,108608,0
notchParamRand-43,true,1.00,1893,478,1892,471,162227,0
notchParamRand-44,false,0.34,397,225,396,225,41726,0
notchParamRand-45,false,0.29,2473,227,2470,227,211388,0
notchParamRand-46,false,0.67,4750,506,4750,506,412299,0
notchParamRand-47,true,1.00,4631,628,4625,621,390884,0
notchParamRand-48,false,0.44,8595,598,8594,598,724170,0
notchParamRand-49,true,1.00,6690,779,6687,771,569164,0
notchParamRand-50,true,1.00,8819,936,8812,929,776564,0
notchParamRand-51,true,1.00,139,423,135,416,14833,0
notchParamRand-52,true,1.00,5491,665,5489,657,464038,0
notchParamRand-53,true,1.00,6182,673,6177,666,517945,0
notchParamRand-54,false,0.29,6780,452,6780,452,577271,0
notchParamRand-55,false,0.19,2300,197,2299,197,192642,0
notchParamRand-56,false,0.36,2697,274,2697,274,217726,0
notchParamRand-57,false,0.24,2346,257,2345,257,204172,0
notchParamRand-58,true,1.00,5288,710,5284,703,455900,0
notchParamRand-59,true,1.00,2531,502,2530,494,220004,0
notchParamRand-60,true,1.00,3667,629,3660,622,326350,0
notchParamRand-61,true,1.00,1130,510,1126,501,102165,0
notchParamRand-62,true,1.00,1011,489,1008,481,86354,0
notchParamRand-63,false,0.19,2331,208,2330,208,200824,0
notchParamRand-64,true,1.00,1069,449,1068,442,94589,0
notchParamRand-65,false,0.18,2414,213,2413,213,199358,0
notchParamRand-66,true,1.00,2059,589,2053,580,176381,0
notchParamRand-67,true,1.00,711,468,708,461,59488,0
notchParamRand-68,false,0.31,3801,285,3800,285,321450,0
notchParamRand-69,true,1.00,1450,466,1448,457,133304,0
notchParamRand-70,true,1.00,5450,649,5443,642,477576,0
notchParamRand-71,true,1.00,789,498,786,491,69652,0
notchParamRand-72,true,1.00,154,455,151,446,17499,0
notchParamRand-73,true,1.00,1039,475,1035,468,91226,0
notchParamRand-74,true,1.00,30,375,29,368,4695,0
notchParamRand-75,true,1.00,45,431,41,424,7031,0
notchParamRand-76,true,1.00,5929,720,5925,713,506016,0
notchParamRand-77,false,0.21,1705,197,1705,197,143344,0
notchParamRand-78,false,0.43,5172,425,5172,425,446070,0
notchParamRand-79,true,1.00,1287,499,1285,491,116732,0
notchParamRand-80,true,1.00,2144,432,2142,425,162627,0
notchParamRand-81,true,1.00,1833,483,1826,475,167019,0
notchParamRand-82,true,1.00,4182,682,4179,675,357618,0
notchParamRand-83,true,1.00,8293,867,8289,858,705438,0
notchParamRand-84,true,1.00,739,490,736,483,71212,0
notchParamRand-85,true,1.00,25,363,24,356,3853,0
notchParamRand-86,false,0.35,769,245,765,245,71916,0
notchParamRand-87,false,0.17,3488,226,3487,226,286852,0
notchParamRand-88,true,1.00,2490,519,2486,509,231247,0
notchParamRand-89,false,0.52,2685,353,2682,353,239810,0
notchParamRand-90,false,0.37,2795,268,2793,268,227655,0
notchParamRand-91,true,1.00,29,396,25,382,4608,0
notchParamRand-92,true,1.00,4001,667,3999,658,345644,0
notchParamRand-93,true,1.00,2022,559,2022,550,176668,0
notchParamRand-94,true,1.00,12112,913,12110,905,992315,0
notchParamRand-95,true,1.00,5393,594,5387,587,440263,0
notchParamRand-96,true,1.00,2935,541,2931,534,252291,0
notchParamRand-97,true,1.00,7866,818,7863,809,659007,0
notchParamRand-98,true,1.00,1777,538,1775,528,170536,0
notchParamRand-99,true,1.00,467,408,463,401,41373,0
notchParamRand-100,false,0.19,46,110,46,110,4986,0
