NDW:0.0
TTFW:1.0
DFPT:2.0
DFPAP:3.0
DFPMP:5.0
RIGHT_WINDOW_BORDER_X:35.0
level,win/fail,% travelled,run time,game ticks,planning time,total plannings,nodes evaluated,most backtracked nodes
ge-1,false,0.21,371,115,370,115,30803,0
ge-2,false,0.49,822,294,820,294,71538,0
ge-3,false,0.96,590,398,588,398,51010,0
ge-4,false,0.37,1159,235,1156,235,106517,0
ge-5,true,1.00,30,366,26,362,5783,0
ge-6,false,0.55,1179,292,1179,292,97706,0
ge-7,true,1.00,557,421,551,417,51755,0
ge-8,false,0.69,1317,371,1312,371,108330,0
ge-9,false,0.59,1017,301,1017,301,84715,0
ge-10,true,1.00,26,359,25,350,4887,0
ge-11,false,0.92,1189,452,1183,452,102214,0
ge-12,true,1.00,26,363,25,359,4949,0
ge-13,false,0.37,1639,257,1638,257,130031,0
ge-14,false,0.22,771,161,770,161,60241,0
ge-15,false,0.36,1846,248,1844,248,161222,0
ge-16,false,0.11,1424,137,1422,137,135977,0
ge-17,false,0.23,1629,180,1629,180,136042,0
ge-18,false,0.09,306,68,306,68,30446,0
ge-19,false,0.18,2492,219,2491,219,200850,0
ge-20,false,0.50,1873,287,1872,287,148725,0
ge-21,false,0.35,637,162,637,162,49518,0
ge-22,false,0.69,1724,452,1724,452,141247,0
ge-23,false,0.28,1170,164,1170,164,101504,0
ge-24,false,0.70,3113,452,3112,452,259665,0
ge-25,false,0.63,881,312,880,312,76616,0
ge-26,false,0.48,1643,308,1642,308,143342,0
ge-27,true,1.00,30,375,28,371,5669,0
ge-28,false,0.36,905,211,905,211,74326,0
ge-29,false,0.37,1040,212,1040,212,84958,0
ge-30,false,0.10,1436,150,1434,150,141631,0
ge-31,false,0.23,2622,251,2622,251,222502,0
ge-32,true,1.00,1075,438,1074,434,90872,0
ge-33,true,1.00,277,401,275,396,26518,0
ge-34,false,0.14,1917,198,1916,198,165695,0
ge-35,false,0.84,3368,464,3367,464,266573,0
ge-36,false,0.42,2972,372,2972,372,261110,0
ge-37,false,0.89,3029,442,3027,442,241167,0
ge-38,false,0.50,1050,281,1048,281,89931,0
ge-39,false,0.20,1628,177,1628,177,143622,0
ge-40,true,1.00,21,333,17,329,4293,0
ge-41,false,0.50,2502,331,2502,331,211801,0
ge-42,false,0.19,1365,168,1364,168,113370,0
ge-43,false,0.38,916,232,915,232,76611,0
ge-44,false,0.33,1434,204,1433,204,117429,0
ge-45,false,0.21,371,107,371,107,32518,0
ge-46,false,0.31,1763,208,1761,208,140103,0
ge-47,false,0.16,608,111,608,111,61172,0
ge-48,false,0.31,20,159,20,159,3377,0
ge-49,false,0.90,889,397,886,397,73399,0
ge-50,false,0.34,1421,278,1421,278,118129,0
ge-51,true,1.00,1024,396,1020,392,85850,0
ge-52,true,1.00,3616,621,3614,617,310364,0
ge-53,false,0.22,369,109,368,109,29970,0
ge-54,false,0.86,666,393,665,393,60937,0
ge-55,false,0.84,360,363,357,363,31950,0
ge-56,false,0.11,29690,999,29689,999,2396893,0
ge-57,false,0.08,2,28,2,28,444,0
ge-58,true,1.00,159,486,156,476,17608,0
ge-59,false,0.38,1235,195,1235,195,106889,0
ge-60,false,0.23,2817,211,2816,211,226755,0
ge-61,false,0.80,1875,392,1874,392,154660,0
ge-62,false,0.29,2265,236,2263,236,192351,0
ge-63,false,0.21,1140,188,1139,188,100568,0
ge-64,false,0.71,426,327,425,327,37596,0
ge-65,false,0.40,1457,255,1457,255,128941,0
ge-66,false,0.25,936,167,935,167,80692,0
ge-67,false,0.94,1587,458,1586,458,128024,0
ge-68,false,0.21,466,84,466,84,34473,0
ge-69,false,0.83,1610,370,1609,370,131169,0
ge-70,false,0.85,1805,376,1803,376,152770,0
ge-71,false,0.29,1175,197,1175,197,106565,0
ge-72,true,1.00,941,436,938,429,81855,0
ge-73,false,0.95,1550,434,1548,434,132954,0
ge-74,false,0.44,1635,243,1633,243,139313,0
ge-75,false,0.83,2116,431,2113,431,177938,0
ge-76,false,0.13,838,119,837,119,72492,0
ge-77,false,0.10,2108,128,2106,128,184771,0
ge-78,false,0.56,2070,323,2069,323,172648,0
ge-79,false,0.99,1258,460,1258,460,102695,0
ge-80,true,1.00,45,397,41,388,7497,0
ge-81,true,1.00,33,375,31,370,5938,0
ge-82,true,1.00,38,369,33,365,6594,0
ge-83,false,0.10,280,71,280,71,27984,0
ge-84,false,0.13,2328,193,2326,193,204972,0
ge-85,false,0.41,972,221,971,221,85099,0
ge-86,false,0.36,1273,236,1271,236,113189,0
ge-87,false,0.61,2564,353,2563,353,219972,0
ge-88,false,0.17,1335,151,1335,151,115903,0
ge-89,true,1.00,316,436,315,429,30152,0
ge-90,true,1.00,25,343,23,339,4943,0
ge-91,false,0.87,1181,396,1177,396,97769,0
ge-92,true,1.00,36,405,35,396,6597,0
ge-93,false,0.39,2863,289,2860,289,227792,0
ge-94,false,0.72,2745,443,2743,443,232826,0
ge-95,true,1.00,43,415,42,411,7643,0
ge-96,false,0.32,2305,262,2303,262,195045,0
ge-97,false,0.61,1824,363,1822,363,156296,0
ge-98,true,1.00,24,356,21,352,4909,0
ge-99,true,1.00,2440,432,2439,428,181827,0
ge-100,false,0.12,1265,165,1264,165,105991,0
