NDW:0.0
TTFW:0.8
DFPT:2.0
DFPAP:3.0
DFPMP:1.0
RIGHT_WINDOW_BORDER_X:255.0
level,win/fail,% travelled,run time,game ticks,planning time,total plannings,nodes evaluated,most backtracked nodes
Mario-1,true,1.00,477,367,476,330,40970,0
Mario-2,true,1.00,826,319,825,296,67594,0
Mario-3,true,1.00,1449,299,1429,250,137245,0
Mario-4,true,1.00,1690,540,1686,491,133570,0
Mario-5,true,1.00,986,445,983,420,78287,0
Mario-6,true,1.00,1099,256,1097,232,117120,0
Mario-7,true,1.00,890,432,887,388,69465,0
Mario-8,true,1.00,1032,433,1031,390,80937,0
Mario-9,true,1.00,465,338,456,308,33420,0
Mario-10,true,1.00,1567,273,1565,228,150109,0
Mario-11,true,1.00,773,370,770,330,62607,0
Mario-12,true,1.00,1181,603,1176,557,75611,0
Mario-13,true,1.00,1398,329,1398,305,138250,0
Mario-14,true,1.00,272,357,270,317,20836,0
Mario-15,true,1.00,2275,818,2270,783,173329,0
