NDW:0.0
TTFW:1.0
DFPT:2.0
DFPAP:3.0
DFPMP:7.0
RIGHT_WINDOW_BORDER_X:215.0
level,win/fail,% travelled,run time,game ticks,planning time,total plannings,nodes evaluated,most backtracked nodes
Mario-1,true,1.00,501,357,485,331,18445,0
Mario-2,true,1.00,989,344,976,316,36030,0
Mario-3,true,1.00,2317,294,2311,266,96793,0
Mario-4,true,1.00,1452,385,1438,355,49987,0
Mario-5,true,1.00,1256,450,1232,430,42620,0
Mario-6,true,1.00,2108,270,2098,250,77225,0
Mario-7,true,1.00,912,429,896,372,33322,0
Mario-8,true,1.00,1401,440,1385,400,52604,0
Mario-9,true,1.00,577,402,562,362,22469,0
Mario-10,false,0.26,284,76,283,76,11964,0
Mario-11,true,1.00,961,383,948,352,36210,0
Mario-12,true,1.00,2270,620,2237,589,77021,0
Mario-13,true,1.00,2760,333,2753,312,110581,0
Mario-14,true,1.00,383,351,366,317,13457,0
Mario-15,true,1.00,2607,836,2564,808,95873,0
