NDW:0.0
TTFW:2.0
DFPT:2.0
DFPAP:3.0
DFPMP:50.0
RIGHT_WINDOW_BORDER_X:295.0
level,win/fail,% travelled,run time,game ticks,planning time,total plannings,nodes evaluated,most backtracked nodes
patternOccur-1,true,1.00,1306,490,1298,463,73854,0
patternOccur-2,true,1.00,1142,463,1130,436,62811,0
patternOccur-3,true,1.00,2084,526,2071,499,127748,0
patternOccur-4,true,1.00,1575,502,1562,475,93423,0
patternOccur-5,true,1.00,1182,506,1173,478,65825,0
patternOccur-6,true,1.00,1706,521,1697,494,100272,0
patternOccur-7,true,1.00,1885,577,1876,536,107910,0
patternOccur-8,true,1.00,1893,490,1879,463,113042,0
patternOccur-9,true,1.00,2128,518,2114,479,114927,0
patternOccur-10,true,1.00,1071,509,1065,477,61100,0
patternOccur-11,true,1.00,3220,517,3205,483,187513,0
patternOccur-12,true,1.00,1834,522,1827,477,109227,0
patternOccur-13,true,1.00,941,422,934,395,53589,0
patternOccur-14,true,1.00,4142,527,4132,499,242578,0
patternOccur-15,true,1.00,1599,506,1582,479,94330,0
patternOccur-16,true,1.00,4428,609,4419,543,249676,0
patternOccur-17,true,1.00,2088,549,2075,522,127721,0
patternOccur-18,true,1.00,1199,522,1195,488,67039,0
patternOccur-19,false,0.83,3799,485,3788,485,218862,0
patternOccur-20,true,1.00,1721,570,1707,543,96474,0
patternOccur-21,true,1.00,1596,481,1580,452,95622,0
patternOccur-22,false,0.84,3757,497,3748,497,207658,0
patternOccur-23,true,1.00,1999,503,1989,470,117122,0
patternOccur-24,true,1.00,1313,507,1294,480,72981,0
patternOccur-25,true,1.00,1852,516,1842,488,109125,0
patternOccur-26,true,1.00,1010,497,997,471,54953,0
patternOccur-27,true,1.00,3177,520,3165,463,179903,0
patternOccur-28,true,1.00,1661,527,1646,499,95767,0
patternOccur-29,true,1.00,1043,433,1030,394,59779,0
patternOccur-30,true,1.00,1360,512,1350,485,76558,0
patternOccur-31,true,1.00,4079,507,4067,471,239791,0
patternOccur-32,true,1.00,4300,549,4284,521,242113,0
patternOccur-33,true,1.00,1518,522,1507,494,85667,0
patternOccur-34,true,1.00,1528,567,1515,529,86818,0
patternOccur-35,true,1.00,1271,523,1255,494,66792,0
patternOccur-36,true,1.00,2703,486,2694,459,120999,0
patternOccur-37,true,1.00,3214,545,3199,506,163166,0
patternOccur-38,true,1.00,1594,543,1582,517,92647,0
patternOccur-39,true,1.00,3001,480,2990,452,175507,0
patternOccur-40,true,1.00,2023,523,2010,495,118636,0
patternOccur-41,true,1.00,1264,537,1251,501,72021,0
patternOccur-42,false,0.88,4419,512,4413,512,253655,0
patternOccur-43,true,1.00,1354,494,1345,467,79146,0
patternOccur-44,true,1.00,1800,496,1790,469,108835,0
patternOccur-45,true,1.00,1635,462,1627,416,94294,0
patternOccur-46,true,1.00,1304,504,1296,477,76106,0
patternOccur-47,true,1.00,3293,528,3282,482,191505,0
patternOccur-48,true,1.00,1354,482,1337,455,80729,0
patternOccur-49,true,1.00,1381,467,1369,440,80303,0
patternOccur-50,true,1.00,2064,526,2046,498,119723,0
patternOccur-51,true,1.00,2321,602,2305,562,140092,0
patternOccur-52,true,1.00,2150,570,2145,530,122858,0
patternOccur-53,true,1.00,1636,465,1626,438,97504,0
patternOccur-54,true,1.00,2632,531,2618,494,163100,0
patternOccur-55,true,1.00,1950,477,1943,451,117628,0
patternOccur-56,true,1.00,1605,501,1595,474,97004,0
patternOccur-57,true,1.00,1977,527,1966,490,118022,0
patternOccur-58,true,1.00,6726,612,6713,561,393796,0
patternOccur-59,true,1.00,1764,497,1763,469,106354,0
patternOccur-60,true,1.00,3700,518,3686,477,210584,0
patternOccur-61,true,1.00,2202,522,2189,486,134660,0
patternOccur-62,true,1.00,1417,489,1407,462,83163,0
patternOccur-63,true,1.00,1604,492,1596,452,97138,0
patternOccur-64,true,1.00,2029,600,2017,558,120178,0
patternOccur-65,true,1.00,1254,493,1245,466,73261,0
patternOccur-66,true,1.00,1779,478,1766,451,108016,0
patternOccur-67,false,0.88,3252,470,3240,470,183775,0
patternOccur-68,true,1.00,1247,560,1236,533,71188,0
patternOccur-69,true,1.00,3007,499,2997,454,171552,0
patternOccur-70,false,0.87,4164,449,4154,449,224247,0
patternOccur-71,true,1.00,2208,532,2190,505,134787,0
patternOccur-72,true,1.00,4853,586,4841,554,247737,0
patternOccur-73,true,1.00,4336,561,4325,520,242969,0
patternOccur-74,true,1.00,3145,472,3138,427,182551,0
patternOccur-75,true,1.00,2798,486,2790,454,165574,0
patternOccur-76,true,1.00,3041,532,3023,506,187563,0
patternOccur-77,true,1.00,1239,527,1219,500,69057,0
patternOccur-78,true,1.00,861,433,852,406,49282,0
patternOccur-79,true,1.00,1577,510,1564,483,91947,0
patternOccur-80,true,1.00,3109,528,3100,465,176048,0
patternOccur-81,true,1.00,3790,470,3784,442,210368,0
patternOccur-82,true,1.00,2841,514,2826,487,106700,0
patternOccur-83,false,0.82,4191,523,4186,523,217587,0
patternOccur-84,true,1.00,1808,519,1793,492,78070,0
patternOccur-85,true,1.00,3121,513,3103,486,162407,0
patternOccur-86,true,1.00,3462,495,3458,433,188655,0
patternOccur-87,true,1.00,1192,570,1181,533,68409,0
patternOccur-88,true,1.00,1531,495,1522,467,90404,0
patternOccur-89,true,1.00,2109,527,2098,500,125794,0
patternOccur-90,true,1.00,1938,533,1920,503,115384,0
patternOccur-91,true,1.00,1155,484,1143,444,64283,0
patternOccur-92,true,1.00,1101,477,1085,450,47994,0
patternOccur-93,true,1.00,2142,509,2131,481,73239,0
patternOccur-94,true,1.00,4392,512,4386,477,248672,0
patternOccur-95,true,1.00,1584,478,1575,451,94238,0
patternOccur-96,false,0.87,2674,487,2659,487,99281,0
patternOccur-97,true,1.00,1920,453,1909,426,111465,0
patternOccur-98,false,0.90,2664,501,2651,501,146721,0
patternOccur-99,true,1.00,964,471,946,443,54613,0
patternOccur-100,true,1.00,1510,487,1497,460,88662,0
