NDW:0.0
TTFW:0.8
DFPT:2.0
DFPAP:3.0
DFPMP:2.0
RIGHT_WINDOW_BORDER_X:400.0
level,win/fail,% travelled,run time,game ticks,planning time,total plannings,nodes evaluated,most backtracked nodes
patternWeightCount-1,true,1.00,2445,421,2440,372,244902,0
patternWeightCount-2,true,1.00,646,402,642,354,62895,0
patternWeightCount-3,true,1.00,980,396,977,360,92132,0
patternWeightCount-4,true,1.00,690,388,689,344,62336,0
patternWeightCount-5,true,1.00,1444,428,1439,378,138356,0
patternWeightCount-6,true,1.00,1582,408,1578,364,154968,0
patternWeightCount-7,true,1.00,937,427,935,391,85622,0
patternWeightCount-8,true,1.00,446,370,444,334,37891,0
patternWeightCount-9,true,1.00,916,418,915,379,86452,0
patternWeightCount-10,true,1.00,785,413,780,376,69359,0
patternWeightCount-11,true,1.00,537,376,534,340,45339,0
patternWeightCount-12,true,1.00,1106,430,1103,391,97988,0
patternWeightCount-13,true,1.00,785,361,783,325,78517,0
patternWeightCount-14,true,1.00,775,404,774,348,69784,0
patternWeightCount-15,true,1.00,1122,387,1119,351,110253,0
patternWeightCount-16,true,1.00,2273,442,2272,385,240408,0
patternWeightCount-17,true,1.00,683,414,681,378,62115,0
patternWeightCount-18,true,1.00,864,398,860,362,81863,0
patternWeightCount-19,true,1.00,632,399,629,363,51167,0
patternWeightCount-20,true,1.00,7441,494,7439,433,636486,0
patternWeightCount-21,true,1.00,544,395,540,358,44923,0
patternWeightCount-22,true,1.00,2346,458,2343,405,241973,0
patternWeightCount-23,true,1.00,785,439,784,389,72240,0
patternWeightCount-24,true,1.00,816,381,812,333,79200,0
patternWeightCount-25,true,1.00,1274,380,1273,344,127702,0
patternWeightCount-26,true,1.00,1068,398,1066,355,104310,0
patternWeightCount-27,true,1.00,1892,425,1888,382,186547,0
patternWeightCount-28,true,1.00,1036,379,1033,343,98670,0
patternWeightCount-29,true,1.00,906,393,901,357,81608,0
patternWeightCount-30,true,1.00,3529,444,3526,389,311006,0
patternWeightCount-31,true,1.00,1243,405,1243,369,102835,0
patternWeightCount-32,true,1.00,551,374,550,338,48524,0
patternWeightCount-33,true,1.00,602,380,602,344,54599,0
patternWeightCount-34,true,1.00,942,385,940,349,89291,0
patternWeightCount-35,true,1.00,1624,402,1623,366,143661,0
patternWeightCount-36,true,1.00,1380,407,1377,370,133998,0
patternWeightCount-37,true,1.00,705,394,701,358,62225,0
patternWeightCount-38,true,1.00,1717,416,1716,379,154443,0
patternWeightCount-39,true,1.00,970,394,966,358,89686,0
patternWeightCount-40,true,1.00,1048,407,1047,371,99747,0
patternWeightCount-41,true,1.00,1004,438,997,392,93399,0
patternWeightCount-42,false,0.88,2969,359,2967,359,260523,0
patternWeightCount-43,true,1.00,985,370,982,334,94155,0
patternWeightCount-44,true,1.00,1223,419,1216,366,121331,0
patternWeightCount-45,true,1.00,2920,467,2917,423,269373,0
patternWeightCount-46,true,1.00,3701,466,3698,412,320613,0
patternWeightCount-47,true,1.00,803,387,801,351,74622,0
patternWeightCount-48,true,1.00,566,386,562,350,50145,0
patternWeightCount-49,true,1.00,799,371,798,335,72936,0
patternWeightCount-50,true,1.00,665,389,664,353,60943,0
patternWeightCount-51,true,1.00,1020,401,1019,347,98052,0
patternWeightCount-52,true,1.00,1379,425,1375,376,132683,0
patternWeightCount-53,true,1.00,2180,413,2179,360,201280,0
patternWeightCount-54,true,1.00,1133,433,1129,396,105584,0
patternWeightCount-55,true,1.00,1259,413,1254,375,114101,0
patternWeightCount-56,true,1.00,853,379,849,343,79042,0
patternWeightCount-57,true,1.00,506,398,501,362,44111,0
patternWeightCount-58,true,1.00,1083,381,1083,335,103458,0
patternWeightCount-59,true,1.00,436,387,435,343,37245,0
patternWeightCount-60,true,1.00,1013,436,1008,380,91437,0
patternWeightCount-61,true,1.00,906,373,904,326,87252,0
patternWeightCount-62,true,1.00,1906,434,1905,372,185722,0
patternWeightCount-63,true,1.00,1134,418,1128,382,109372,0
patternWeightCount-64,true,1.00,1228,418,1223,382,116979,0
patternWeightCount-65,true,1.00,996,442,990,392,87774,0
patternWeightCount-66,true,1.00,921,393,918,357,80648,0
patternWeightCount-67,true,1.00,1010,397,1006,361,87214,0
patternWeightCount-68,true,1.00,2499,471,2494,435,146027,0
patternWeightCount-69,true,1.00,2049,451,2047,378,190127,0
patternWeightCount-70,true,1.00,892,434,886,373,80704,0
patternWeightCount-71,true,1.00,603,389,598,334,54693,0
patternWeightCount-72,true,1.00,3838,453,3836,414,320974,0
patternWeightCount-73,true,1.00,4113,429,4108,373,377218,0
patternWeightCount-74,true,1.00,731,396,726,360,69213,0
patternWeightCount-75,true,1.00,1139,403,1138,367,107968,0
patternWeightCount-76,true,1.00,849,402,848,365,79748,0
patternWeightCount-77,true,1.00,1005,406,1003,370,96390,0
patternWeightCount-78,true,1.00,2136,475,2133,425,190573,0
patternWeightCount-79,true,1.00,546,403,542,367,47367,0
patternWeightCount-80,true,1.00,1072,423,1069,386,102253,0
patternWeightCount-81,true,1.00,3441,448,3435,397,308841,0
patternWeightCount-82,true,1.00,299,405,294,357,21858,0
patternWeightCount-83,true,1.00,782,413,781,371,72598,0
patternWeightCount-84,true,1.00,771,425,769,389,69433,0
patternWeightCount-85,true,1.00,1327,402,1323,359,134961,0
patternWeightCount-86,false,0.94,2749,381,2746,381,247574,0
patternWeightCount-87,true,1.00,5238,477,5237,416,439423,0
patternWeightCount-88,true,1.00,1135,407,1132,360,105878,0
patternWeightCount-89,true,1.00,695,373,691,329,64094,0
patternWeightCount-90,true,1.00,3087,392,3083,341,291034,0
patternWeightCount-91,true,1.00,837,389,831,344,76584,0
patternWeightCount-92,true,1.00,3559,490,3557,420,348816,0
patternWeightCount-93,true,1.00,2506,384,2500,332,229251,0
patternWeightCount-94,true,1.00,991,417,987,380,87152,0
patternWeightCount-95,true,1.00,1122,409,1117,365,105367,0
patternWeightCount-96,true,1.00,697,388,692,349,62267,0
patternWeightCount-97,true,1.00,849,371,847,323,83143,0
patternWeightCount-98,true,1.00,3708,448,3708,392,368324,0
patternWeightCount-99,true,1.00,1335,456,1334,407,123332,0
patternWeightCount-100,true,1.00,1043,413,1040,377,91992,0
