NDW:0.0
TTFW:1.0
DFPT:2.0
DFPAP:3.0
DFPMP:0.0
RIGHT_WINDOW_BORDER_X:15.0
level,win/fail,% travelled,run time,game ticks,planning time,total plannings,nodes evaluated,most backtracked nodes
patternWeightCount-1,false,0.18,1466,400,1465,400,156434,0
patternWeightCount-2,false,0.15,1481,368,1479,368,165560,0
patternWeightCount-3,false,0.12,1358,352,1352,352,175173,0
patternWeightCount-4,false,0.02,154,1008,147,1008,39512,0
patternWeightCount-5,false,0.05,100,112,100,112,13933,0
patternWeightCount-6,false,0.09,936,209,935,209,88270,0
patternWeightCount-7,false,0.11,245,200,245,200,22125,0
patternWeightCount-8,false,0.30,716,478,712,478,75123,0
patternWeightCount-9,false,0.19,806,417,803,417,83655,0
patternWeightCount-10,false,0.00,559,999,555,999,185988,0
patternWeightCount-11,false,0.64,2576,999,2569,999,274361,0
patternWeightCount-12,false,0.33,1647,574,1642,574,156955,0
patternWeightCount-13,false,0.00,1,21,1,21,342,0
patternWeightCount-14,false,0.11,1324,342,1321,342,131847,0
patternWeightCount-15,false,0.13,1297,352,1292,352,133234,0
patternWeightCount-16,false,0.11,1105,187,1105,187,93123,0
patternWeightCount-17,false,0.06,405,167,404,167,51793,0
patternWeightCount-18,false,0.00,1,21,1,21,342,0
patternWeightCount-19,false,0.63,2532,999,2527,999,245937,0
patternWeightCount-20,false,0.01,3379,999,3374,999,748432,0
patternWeightCount-21,false,0.61,1848,1007,1842,1007,184862,0
patternWeightCount-22,false,0.13,2909,414,2906,414,318101,0
patternWeightCount-23,false,0.06,918,138,916,138,88221,0
patternWeightCount-24,false,0.06,93,136,89,136,12567,0
patternWeightCount-25,false,0.06,53,95,53,95,6464,0
patternWeightCount-26,false,0.20,629,321,628,321,66336,0
patternWeightCount-27,false,0.08,457,182,455,182,55842,0
patternWeightCount-28,false,0.05,273,155,272,155,36349,0
patternWeightCount-29,false,0.00,1,21,1,21,342,0
patternWeightCount-30,false,0.32,1478,841,1469,841,164281,0
patternWeightCount-31,false,0.03,59,86,58,86,11505,0
patternWeightCount-32,false,0.29,1157,502,1154,502,109940,0
patternWeightCount-33,false,0.03,91,105,91,105,19890,0
patternWeightCount-34,false,0.02,130,103,129,103,28953,0
patternWeightCount-35,false,0.11,895,265,895,265,87056,0
patternWeightCount-36,false,0.01,31,62,31,62,9860,0
patternWeightCount-37,false,0.59,2022,999,2015,999,207228,0
patternWeightCount-38,false,0.10,728,219,727,219,74830,0
patternWeightCount-39,false,0.03,68,67,68,67,12502,0
patternWeightCount-40,false,0.41,1646,710,1640,710,178245,0
patternWeightCount-41,false,0.10,1281,332,1280,332,142051,0
patternWeightCount-42,false,0.08,577,1008,570,1008,105696,0
patternWeightCount-43,false,0.05,196,125,196,125,27273,0
patternWeightCount-44,false,0.00,1,21,1,21,342,0
patternWeightCount-45,false,0.09,88,146,87,146,9647,0
patternWeightCount-46,false,0.26,2212,599,2211,599,207518,0
patternWeightCount-47,false,0.18,143,176,143,176,13608,0
patternWeightCount-48,false,0.08,271,130,270,130,25118,0
patternWeightCount-49,false,0.14,616,226,613,226,56170,0
patternWeightCount-50,false,0.00,1,21,1,21,342,0
patternWeightCount-51,false,0.17,739,271,738,271,71246,0
patternWeightCount-52,false,0.54,1965,999,1954,999,207264,0
patternWeightCount-53,false,0.01,31,62,31,62,9860,0
patternWeightCount-54,false,0.02,65,72,65,72,12990,0
patternWeightCount-55,false,0.23,611,347,606,347,56561,0
patternWeightCount-56,false,0.03,260,109,260,109,38130,0
patternWeightCount-57,false,0.00,1,21,1,21,342,0
patternWeightCount-58,false,0.41,1752,1008,1743,1008,171877,0
patternWeightCount-59,false,0.12,779,301,775,301,94399,0
patternWeightCount-60,false,0.05,463,202,461,202,83912,0
patternWeightCount-61,false,0.01,31,62,31,62,9860,0
patternWeightCount-62,false,0.04,286,126,286,126,38461,0
patternWeightCount-63,false,0.05,922,306,919,306,150166,0
patternWeightCount-64,false,0.15,1107,351,1107,351,123353,0
patternWeightCount-65,false,0.18,1332,335,1332,335,125008,0
patternWeightCount-66,false,0.04,309,129,308,129,46641,0
patternWeightCount-67,false,0.13,84,126,83,126,9205,0
patternWeightCount-68,false,0.37,2700,1017,2674,1017,263251,0
patternWeightCount-69,false,0.65,2300,1008,2293,1008,218921,0
patternWeightCount-70,false,0.04,67,86,66,86,11465,0
patternWeightCount-71,false,0.22,722,461,718,461,76706,0
patternWeightCount-72,false,0.07,973,244,972,244,106189,0
patternWeightCount-73,false,0.07,706,186,705,186,82045,0
patternWeightCount-74,false,0.03,247,100,246,100,39155,0
patternWeightCount-75,false,0.20,757,430,753,430,78188,0
patternWeightCount-76,false,0.06,552,156,552,156,53698,0
patternWeightCount-77,false,0.07,108,101,107,101,12038,0
patternWeightCount-78,false,0.04,97,108,96,108,18360,0
patternWeightCount-79,false,0.09,408,160,406,160,37880,0
patternWeightCount-80,false,0.07,707,170,705,170,79233,0
patternWeightCount-81,false,0.04,173,135,173,135,26172,0
patternWeightCount-82,false,0.63,1260,930,1256,930,133417,0
patternWeightCount-83,false,0.04,130,113,128,113,24222,0
patternWeightCount-84,false,0.19,866,446,851,446,95307,0
patternWeightCount-85,false,0.24,895,384,891,384,94324,0
patternWeightCount-86,false,0.28,577,478,574,478,65938,0
patternWeightCount-87,false,0.15,784,269,783,269,76320,0
patternWeightCount-88,false,0.08,626,147,625,147,69691,0
patternWeightCount-89,false,0.23,983,361,983,361,105440,0
patternWeightCount-90,false,0.04,90,133,88,133,16036,0
patternWeightCount-91,false,0.00,1,21,1,21,342,0
patternWeightCount-92,false,0.22,660,346,657,346,70796,0
patternWeightCount-93,false,0.24,1281,545,1277,545,149934,0
patternWeightCount-94,false,0.03,57,93,56,93,11631,0
patternWeightCount-95,false,0.10,725,231,725,231,86714,0
patternWeightCount-96,false,0.07,385,204,385,204,43239,0
patternWeightCount-97,false,0.24,1609,560,1604,560,162416,0
patternWeightCount-98,false,0.60,3066,999,3061,999,287313,0
patternWeightCount-99,false,0.08,271,126,271,126,32806,0
patternWeightCount-100,false,0.15,534,312,531,312,63106,0
