NDW:0.0
TTFW:2.0
DFPT:2.0
DFPAP:3.0
DFPMP:2.0
RIGHT_WINDOW_BORDER_X:235.0
level,win/fail,% travelled,run time,game ticks,planning time,total plannings,nodes evaluated,most backtracked nodes
hopper-1,true,1.00,1230,323,1219,302,69087,0
hopper-2,true,1.00,1160,317,1150,296,66167,0
hopper-3,false,0.25,762,83,759,83,37791,0
hopper-4,false,0.27,775,94,769,94,40909,0
hopper-5,true,1.00,981,316,973,295,55322,0
hopper-6,true,1.00,1079,314,1067,290,60266,0
hopper-7,false,0.84,1391,255,1387,255,73994,0
hopper-8,false,0.42,1020,140,1017,140,52159,0
hopper-9,true,1.00,1105,313,1097,292,62349,0
hopper-10,true,1.00,985,315,980,294,57122,0
hopper-11,true,1.00,740,321,729,300,41112,0
hopper-12,true,1.00,1155,325,1151,299,66725,0
hopper-13,false,0.40,1127,127,1124,127,58812,0
hopper-14,true,1.00,1109,326,1097,299,64266,0
hopper-15,true,1.00,1101,301,1094,280,63297,0
hopper-16,false,0.55,1250,173,1247,173,63122,0
hopper-17,true,1.00,950,311,941,290,54064,0
hopper-18,true,1.00,1115,310,1112,289,63406,0
hopper-19,true,1.00,1114,315,1106,294,63871,0
hopper-20,true,1.00,1270,334,1258,312,72518,0
hopper-21,false,0.62,1374,203,1364,203,71850,0
hopper-22,false,0.33,1426,126,1424,126,67460,0
hopper-23,true,1.00,1066,310,1056,289,62092,0
hopper-24,true,1.00,702,311,699,289,40114,0
hopper-25,true,1.00,1039,309,1033,288,61525,0
hopper-26,true,1.00,1220,301,1212,280,69456,0
hopper-27,true,1.00,1010,299,1004,278,60139,0
hopper-28,false,0.85,2134,290,2131,290,115070,0
hopper-29,false,0.26,767,88,765,88,38531,0
hopper-30,true,1.00,964,337,956,311,53954,0
hopper-31,false,0.78,1518,247,1512,247,80676,0
hopper-32,true,1.00,1366,299,1362,278,79863,0
hopper-33,false,0.50,947,169,944,169,48587,0
hopper-34,false,0.32,943,102,943,102,48573,0
hopper-35,true,1.00,1434,345,1426,323,83729,0
hopper-36,true,1.00,816,314,808,293,46218,0
hopper-37,false,0.51,1083,170,1078,170,52850,0
hopper-38,false,0.53,977,172,972,172,53243,0
hopper-39,false,0.53,1273,174,1269,174,65482,0
hopper-40,true,1.00,1110,324,1100,298,60875,0
hopper-41,true,1.00,1674,301,1669,280,95238,0
hopper-42,true,1.00,939,317,931,296,52356,0
hopper-43,false,0.45,1424,145,1420,145,74324,0
hopper-44,true,1.00,1340,320,1330,298,76463,0
hopper-45,false,0.43,1153,153,1148,153,59030,0
hopper-46,false,0.67,1512,231,1511,231,82108,0
hopper-47,true,1.00,1442,305,1434,284,81741,0
hopper-48,true,1.00,1285,329,1281,308,72380,0
hopper-49,true,1.00,1220,327,1215,306,69626,0
hopper-50,false,0.63,1238,201,1235,201,65804,0
hopper-51,false,0.34,915,111,914,111,46138,0
hopper-52,true,1.00,897,307,890,286,52758,0
hopper-53,false,0.63,1914,225,1910,225,100669,0
hopper-54,true,1.00,771,302,760,276,44307,0
hopper-55,true,1.00,804,341,798,315,45942,0
hopper-56,true,1.00,901,297,895,276,52925,0
hopper-57,true,1.00,1149,327,1138,306,63529,0
hopper-58,false,0.58,1267,181,1264,181,66983,0
hopper-59,true,1.00,874,306,858,285,50612,0
hopper-60,true,1.00,1077,321,1069,300,61772,0
hopper-61,false,0.82,1885,254,1881,254,100331,0
hopper-62,true,1.00,1238,339,1229,307,62805,0
hopper-63,false,0.23,1451,103,1449,103,63385,0
hopper-64,true,1.00,1457,317,1445,296,60512,0
hopper-65,true,1.00,1191,330,1180,292,62070,0
hopper-66,false,0.74,1459,255,1455,255,70751,0
hopper-67,true,1.00,1002,326,996,305,56644,0
hopper-68,true,1.00,815,326,802,305,45813,0
hopper-69,false,0.84,1503,269,1498,269,79183,0
hopper-70,true,1.00,1193,310,1182,288,67719,0
hopper-71,true,1.00,780,303,772,282,45201,0
hopper-72,true,1.00,1271,303,1258,282,70488,0
hopper-73,true,1.00,1031,315,1019,294,57990,0
hopper-74,true,1.00,939,307,931,286,52806,0
hopper-75,true,1.00,1106,317,1100,296,62963,0
hopper-76,false,0.48,1201,149,1198,149,63051,0
hopper-77,true,1.00,988,349,979,326,53969,0
hopper-78,true,1.00,1214,308,1208,286,72038,0
hopper-79,true,1.00,874,307,868,285,50033,0
hopper-80,true,1.00,808,311,800,290,45998,0
hopper-81,false,0.39,1118,123,1116,123,57799,0
hopper-82,false,0.46,2479,186,2477,186,115459,0
hopper-83,true,1.00,1356,324,1350,303,77833,0
hopper-84,true,1.00,1252,321,1245,300,71616,0
hopper-85,true,1.00,1277,343,1271,314,72174,0
hopper-86,true,1.00,1095,320,1082,299,62432,0
hopper-87,true,1.00,1039,313,1028,292,56405,0
hopper-88,true,1.00,910,327,899,306,51952,0
hopper-89,true,1.00,883,340,872,319,49931,0
hopper-90,true,1.00,964,318,957,296,55002,0
hopper-91,true,1.00,1089,322,1085,301,62957,0
hopper-92,true,1.00,1104,315,1098,294,61452,0
hopper-93,true,1.00,836,311,828,290,48179,0
hopper-94,false,0.65,1290,203,1285,203,67491,0
hopper-95,true,1.00,1091,309,1079,288,63153,0
hopper-96,true,1.00,1372,297,1358,276,80926,0
hopper-97,true,1.00,1328,312,1320,291,75818,0
hopper-98,true,1.00,1399,330,1395,309,78115,0
hopper-99,false,0.73,1959,246,1951,246,106946,0
hopper-100,true,1.00,1143,332,1135,302,64479,0
