NDW:0.0
TTFW:1.2
DFPT:2.0
DFPAP:3.0
DFPMP:20.0
RIGHT_WINDOW_BORDER_X:155.0
level,win/fail,% travelled,run time,game ticks,planning time,total plannings,nodes evaluated,most backtracked nodes
notchParam-1,true,1.00,2391,398,2388,384,221579,0
notchParam-2,true,1.00,1096,369,1094,355,105810,0
notchParam-3,true,1.00,494,313,490,299,55165,0
notchParam-4,true,1.00,493,310,490,296,51560,0
notchParam-5,true,1.00,556,308,552,294,57878,0
notchParam-6,true,1.00,527,322,526,308,55330,0
notchParam-7,true,1.00,740,313,737,299,78650,0
notchParam-8,true,1.00,992,319,990,305,107235,0
notchParam-9,true,1.00,575,346,574,332,62376,0
notchParam-10,true,1.00,954,318,954,304,100146,0
notchParam-11,true,1.00,493,316,491,302,51627,0
notchParam-12,true,1.00,1023,320,1023,306,111275,0
notchParam-13,true,1.00,195,316,194,302,20560,0
notchParam-14,true,1.00,194,306,193,292,19824,0
notchParam-15,true,1.00,1089,327,1089,313,102649,0
notchParam-16,true,1.00,1018,324,1016,310,107619,0
notchParam-17,true,1.00,766,309,764,295,77524,0
notchParam-18,true,1.00,176,329,173,315,18917,0
notchParam-19,true,1.00,192,309,188,295,20700,0
notchParam-20,true,1.00,262,310,262,296,26263,0
notchParam-21,true,1.00,190,298,187,284,18687,0
notchParam-22,true,1.00,202,312,199,298,22462,0
notchParam-23,true,1.00,1101,342,1097,328,117561,0
notchParam-24,true,1.00,974,331,974,317,104658,0
notchParam-25,true,1.00,1094,322,1094,308,113432,0
notchParam-26,true,1.00,1144,342,1139,328,123502,0
notchParam-27,true,1.00,225,312,222,298,23549,0
notchParam-28,true,1.00,511,349,510,335,56468,0
notchParam-29,true,1.00,531,324,526,310,57608,0
notchParam-30,true,1.00,197,310,195,296,20137,0
notchParam-31,true,1.00,1258,365,1257,351,129929,0
notchParam-32,true,1.00,737,309,736,295,78429,0
notchParam-33,true,1.00,256,300,254,286,26284,0
notchParam-34,true,1.00,1133,349,1131,335,111551,0
notchParam-35,true,1.00,1943,403,1941,389,198177,0
notchParam-36,true,1.00,756,301,755,287,76713,0
notchParam-37,true,1.00,190,302,189,288,18080,0
notchParam-38,true,1.00,193,306,190,292,20895,0
notchParam-39,true,1.00,1153,328,1151,314,111493,0
notchParam-40,true,1.00,496,312,495,298,52835,0
notchParam-41,true,1.00,498,314,495,300,54023,0
notchParam-42,true,1.00,196,310,194,296,22095,0
notchParam-43,true,1.00,965,316,965,302,101932,0
notchParam-44,true,1.00,995,330,993,316,107635,0
notchParam-45,true,1.00,1025,340,1023,321,111824,0
notchParam-46,true,1.00,1022,314,1020,300,104801,0
notchParam-47,true,1.00,193,296,190,282,22728,0
notchParam-48,true,1.00,204,329,201,315,24006,0
notchParam-49,true,1.00,197,317,195,298,21725,0
notchParam-50,true,1.00,226,326,224,312,24235,0
notchParam-51,true,1.00,191,308,188,294,19997,0
notchParam-52,true,1.00,1028,332,1026,318,101414,0
notchParam-53,true,1.00,1152,318,1148,304,118572,0
notchParam-54,true,1.00,1258,359,1255,345,128858,0
notchParam-55,true,1.00,215,316,214,302,24253,0
notchParam-56,true,1.00,194,304,194,290,20721,0
notchParam-57,true,1.00,1488,335,1484,321,164183,0
notchParam-58,true,1.00,504,346,504,332,54415,0
notchParam-59,true,1.00,1707,377,1704,363,178999,0
notchParam-60,true,1.00,451,343,450,329,49216,0
notchParam-61,true,1.00,1071,338,1069,324,115470,0
notchParam-62,true,1.00,696,304,694,290,69574,0
notchParam-63,true,1.00,641,340,638,326,69191,0
notchParam-64,true,1.00,499,324,497,310,53773,0
notchParam-65,true,1.00,531,316,530,302,57371,0
notchParam-66,true,1.00,501,341,498,327,53855,0
notchParam-67,true,1.00,1703,360,1703,346,160782,0
notchParam-68,true,1.00,1107,331,1106,317,105405,0
notchParam-69,true,1.00,687,306,686,292,65656,0
notchParam-70,true,1.00,2218,377,2215,363,218364,0
notchParam-71,true,1.00,507,333,506,319,58359,0
notchParam-72,true,1.00,467,316,464,302,53509,0
notchParam-73,true,1.00,464,310,463,296,50097,0
notchParam-74,true,1.00,538,330,537,316,54683,0
notchParam-75,true,1.00,531,315,529,301,61486,0
notchParam-76,true,1.00,1096,348,1095,334,114721,0
notchParam-77,true,1.00,498,306,498,292,55001,0
notchParam-78,true,1.00,1001,324,997,310,107603,0
notchParam-79,true,1.00,498,319,496,305,54868,0
notchParam-80,true,1.00,176,319,176,305,19984,0
notchParam-81,true,1.00,538,343,538,324,61123,0
notchParam-82,true,1.00,195,305,193,291,20383,0
notchParam-83,true,1.00,193,302,193,288,21951,0
notchParam-84,true,1.00,863,312,862,298,86212,0
notchParam-85,true,1.00,2005,401,2002,387,206914,0
notchParam-86,true,1.00,1029,319,1025,305,110652,0
notchParam-87,true,1.00,197,324,194,310,22363,0
notchParam-88,true,1.00,229,310,225,296,24240,0
notchParam-89,true,1.00,194,304,193,290,20522,0
notchParam-90,true,1.00,196,309,193,295,21142,0
notchParam-91,true,1.00,1159,343,1156,329,116843,0
notchParam-92,true,1.00,963,325,960,311,98111,0
notchParam-93,true,1.00,1208,351,1207,337,127905,0
notchParam-94,true,1.00,1435,345,1434,331,151155,0
notchParam-95,true,1.00,1048,340,1046,326,114551,0
notchParam-96,true,1.00,498,328,497,314,57099,0
notchParam-97,true,1.00,435,314,435,300,44101,0
notchParam-98,true,1.00,195,302,194,288,19500,0
notchParam-99,true,1.00,1264,359,1261,345,126645,0
notchParam-100,true,1.00,1150,339,1149,325,111263,0
