NDW:0.0
TTFW:0.8
DFPT:2.0
DFPAP:3.0
DFPMP:7.0
RIGHT_WINDOW_BORDER_X:15.0
level,win/fail,% travelled,run time,game ticks,planning time,total plannings,nodes evaluated,most backtracked nodes
ge-1,false,0.21,721,154,718,154,37341,0
ge-2,false,0.14,12,73,10,73,689,0
ge-3,false,0.50,27,223,22,223,1540,0
ge-4,false,0.11,847,134,844,134,45409,0
ge-5,false,0.43,19,166,13,166,1071,0
ge-6,false,0.17,13,85,11,85,717,0
ge-7,false,0.43,535,265,532,265,21042,0
ge-8,false,0.68,79,286,67,286,1843,0
ge-9,false,0.12,16,54,10,54,391,0
ge-10,false,0.07,14,38,13,38,329,0
ge-11,false,0.30,44,147,32,147,1097,0
ge-12,false,0.25,25,104,17,104,579,0
ge-13,false,0.20,29,98,28,98,744,0
ge-14,false,0.20,27,98,23,98,743,0
ge-15,false,0.36,35,137,23,137,910,0
ge-16,false,0.08,12,44,8,44,368,0
ge-17,false,0.24,216,128,213,128,6588,0
ge-18,false,0.08,708,119,705,119,27114,0
ge-19,false,0.18,316,117,312,117,16040,0
ge-20,false,0.51,438,269,435,269,22928,0
ge-21,false,0.35,292,182,287,182,15043,0
ge-22,false,0.67,35,258,27,258,1868,0
ge-23,false,0.31,322,173,318,173,16348,0
ge-24,false,0.71,384,345,374,345,20181,0
ge-25,false,0.12,7,56,6,56,403,0
ge-26,false,0.49,294,252,286,252,12097,0
ge-27,true,1.00,89,430,77,428,2876,0
ge-28,false,0.36,852,235,844,235,23810,0
ge-29,false,0.37,222,206,212,206,6914,0
ge-30,false,0.07,10,38,9,38,329,0
ge-31,false,0.21,454,133,452,133,13575,0
ge-32,false,0.78,88,319,74,319,2399,0
ge-33,false,0.60,47,238,38,238,1288,0
ge-34,false,0.12,182,100,176,100,5654,0
ge-35,false,0.18,273,142,267,142,8857,0
ge-36,false,0.09,557,110,552,110,24220,0
ge-37,false,0.33,22,157,21,157,1305,0
ge-38,false,0.52,26,222,20,222,1500,0
ge-39,false,0.17,9,73,8,73,526,0
ge-40,true,1.00,33,373,26,371,1781,0
ge-41,false,0.18,15,84,14,84,849,0
ge-42,false,0.17,9,72,7,72,457,0
ge-43,false,0.08,6,44,6,44,368,0
ge-44,false,0.34,703,236,692,236,36782,0
ge-45,false,0.10,11,61,11,61,698,0
ge-46,false,0.13,7,57,6,57,402,0
ge-47,false,0.17,223,127,219,127,12965,0
ge-48,false,0.62,552,399,543,399,30443,0
ge-49,false,0.61,20,229,16,229,1042,0
ge-50,false,0.34,420,191,418,191,22902,0
ge-51,false,0.35,19,159,16,159,1158,0
ge-52,false,0.12,7,54,7,54,391,0
ge-53,false,0.21,666,177,664,177,34939,0
ge-54,false,0.52,34,228,25,228,2033,0
ge-55,false,0.15,11,74,11,74,661,0
ge-56,false,0.12,1025,176,1021,176,54196,0
ge-57,false,0.06,5,30,4,30,304,0
ge-58,false,0.44,60,270,56,270,3585,0
ge-59,false,0.36,831,231,827,231,45920,0
ge-60,false,0.20,14,100,12,100,824,0
ge-61,false,0.20,12,94,11,94,710,0
ge-62,false,0.27,11,109,8,109,608,0
ge-63,false,0.20,8,83,5,83,493,0
ge-64,false,0.08,6,38,5,38,339,0
ge-65,false,0.39,411,228,403,228,23168,0
ge-66,false,0.24,10,95,8,95,547,0
ge-67,false,0.49,28,223,25,223,1568,0
ge-68,false,0.12,6,53,4,53,383,0
ge-69,false,0.06,5,30,5,30,309,0
ge-70,false,0.66,35,288,30,288,2015,0
ge-71,false,0.06,5,31,4,31,316,0
ge-72,false,0.56,25,230,20,230,1410,0
ge-73,false,0.14,248,94,248,94,13603,0
ge-74,false,0.23,23,110,22,110,1304,0
ge-75,false,0.17,8,74,8,74,465,0
ge-76,false,0.12,6,54,6,54,391,0
ge-77,false,0.11,249,90,246,90,13518,0
ge-78,false,0.29,15,126,11,126,883,0
ge-79,false,0.30,11,117,8,117,618,0
ge-80,true,1.00,54,415,43,413,2995,0
ge-81,true,1.00,46,395,38,393,2553,0
ge-82,false,0.41,13,156,12,156,759,0
ge-83,false,0.09,119,77,118,77,6798,0
ge-84,false,0.12,6,54,4,54,391,0
ge-85,false,0.40,17,166,11,166,922,0
ge-86,false,0.36,260,176,257,176,13948,0
ge-87,false,0.12,6,56,5,56,403,0
ge-88,false,0.17,446,127,443,127,25255,0
ge-89,false,0.21,17,105,16,105,1057,0
ge-90,false,0.83,33,316,25,316,1710,0
ge-91,false,0.86,42,358,35,358,2425,0
ge-92,false,0.78,43,337,29,337,2539,0
ge-93,false,0.40,765,231,756,231,40345,0
ge-94,false,0.16,13,85,10,85,753,0
ge-95,false,0.10,11,61,11,61,698,0
ge-96,false,0.07,5,38,5,38,329,0
ge-97,false,0.51,16,192,13,192,910,0
ge-98,true,1.00,35,373,29,371,1867,0
ge-99,false,0.20,14,98,13,98,832,0
ge-100,false,0.12,247,86,246,86,13470,0
