NDW:0.0
TTFW:0.2
DFPT:2.0
DFPAP:3.0
DFPMP:1.0
RIGHT_WINDOW_BORDER_X:235.0
level,win/fail,% travelled,run time,game ticks,planning time,total plannings,nodes evaluated,most backtracked nodes
ore-1,true,1.00,4851,391,4850,370,306835,0
ore-2,false,0.70,3226,250,3225,250,206725,0
ore-3,true,1.00,3505,343,3503,319,224870,0
ore-4,true,1.00,4666,369,4664,346,292128,0
ore-5,true,1.00,4698,393,4694,371,295818,0
ore-6,true,1.00,3343,331,3341,299,219792,0
ore-7,true,1.00,3473,343,3471,322,231500,0
ore-8,true,1.00,5863,409,5859,387,390794,0
ore-9,true,1.00,3791,346,3791,320,248064,0
ore-10,true,1.00,4031,367,4030,341,261595,0
ore-11,true,1.00,3961,362,3956,340,249527,0
ore-12,true,1.00,2867,329,2862,308,182177,0
ore-13,true,1.00,5433,407,5431,385,347386,0
ore-14,true,1.00,5283,416,5279,395,321290,0
ore-15,true,1.00,4077,353,4071,326,271123,0
ore-16,true,1.00,3591,344,3589,323,230508,0
ore-17,true,1.00,4064,375,4060,346,264320,0
ore-18,true,1.00,3876,348,3872,321,241920,0
ore-19,true,1.00,3413,330,3410,307,220376,0
ore-20,true,1.00,5050,396,5044,370,310000,0
ore-21,true,1.00,4057,357,4050,331,253266,0
ore-22,true,1.00,3802,349,3796,328,243813,0
ore-23,false,0.66,2333,225,2332,225,148498,0
ore-24,true,1.00,4760,386,4757,364,295650,0
ore-25,true,1.00,4270,352,4266,326,273298,0
ore-26,true,1.00,5013,421,5012,399,297199,0
ore-27,false,0.24,2066,121,2066,121,132055,0
ore-28,true,1.00,4541,390,4538,369,288449,0
ore-29,true,1.00,4015,367,4011,343,253483,0
ore-30,true,1.00,4606,391,4602,364,290104,0
ore-31,true,1.00,3678,356,3677,333,234928,0
ore-32,true,1.00,4143,356,4142,321,256257,0
ore-33,true,1.00,3486,338,3482,316,213222,0
ore-34,true,1.00,5267,426,5264,404,325904,0
ore-35,true,1.00,4311,388,4308,366,276714,0
ore-36,true,1.00,3611,350,3608,323,236600,0
ore-37,false,0.35,3343,176,3343,176,209229,0
ore-38,true,1.00,3461,348,3460,325,225559,0
ore-39,true,1.00,3843,368,3840,342,240474,0
ore-40,true,1.00,4413,371,4411,348,278381,0
ore-41,true,1.00,3633,345,3630,323,237335,0
ore-42,true,1.00,3980,338,3979,316,253440,0
ore-43,true,1.00,3772,367,3764,345,239147,0
ore-44,true,1.00,5285,397,5283,370,344739,0
ore-45,true,1.00,3804,349,3801,328,238982,0
ore-46,false,0.12,1053,53,1053,53,76197,0
ore-47,true,1.00,3365,352,3361,330,210836,0
ore-48,true,1.00,3624,357,3620,331,234994,0
ore-49,true,1.00,3252,339,3251,316,209187,0
ore-50,true,1.00,4334,365,4331,342,283916,0
ore-51,true,1.00,3663,340,3658,319,242975,0
ore-52,true,1.00,3855,352,3852,330,241366,0
ore-53,true,1.00,3375,341,3373,315,214253,0
ore-54,true,1.00,4443,368,4437,346,277102,0
ore-55,true,1.00,3625,349,3620,328,237786,0
ore-56,true,1.00,3511,339,3508,318,220770,0
ore-57,true,1.00,3995,360,3993,337,239750,0
ore-58,true,1.00,4938,376,4936,354,323797,0
ore-59,true,1.00,4367,382,4363,356,280296,0
ore-60,true,1.00,4956,396,4955,374,311766,0
ore-61,true,1.00,3279,343,3279,315,209862,0
ore-62,true,1.00,3980,387,3978,365,258004,0
ore-63,true,1.00,4800,397,4794,376,308253,0
ore-64,true,1.00,3554,344,3552,321,231498,0
ore-65,true,1.00,3864,357,3862,336,248081,0
ore-66,true,1.00,3951,363,3946,336,253077,0
ore-67,true,1.00,3328,335,3326,309,218037,0
ore-68,true,1.00,4920,387,4917,364,303554,0
ore-69,true,1.00,4654,355,4654,334,301507,0
ore-70,false,0.95,4740,353,4734,353,306168,0
ore-71,true,1.00,5086,403,5082,381,325612,0
ore-72,true,1.00,3907,357,3901,336,252298,0
ore-73,true,1.00,3795,350,3791,320,239692,0
ore-74,true,1.00,3810,352,3809,331,241289,0
ore-75,true,1.00,4979,388,4976,366,314349,0
ore-76,true,1.00,3954,364,3951,343,264057,0
ore-77,true,1.00,3998,356,3996,333,252008,0
ore-78,true,1.00,3632,340,3629,319,237889,0
ore-79,true,1.00,4556,360,4551,339,286437,0
ore-80,true,1.00,3650,346,3650,324,237737,0
ore-81,true,1.00,4264,363,4261,341,278515,0
ore-82,true,1.00,3932,345,3927,319,245845,0
ore-83,true,1.00,3763,355,3761,332,247717,0
ore-84,false,0.19,1031,72,1031,72,63365,0
ore-85,true,1.00,3887,371,3885,350,245159,0
ore-86,true,1.00,3962,363,3959,334,260103,0
ore-87,true,1.00,3426,343,3424,322,224172,0
ore-88,true,1.00,3415,327,3413,306,223870,0
ore-89,true,1.00,4728,379,4724,356,294671,0
ore-90,true,1.00,4812,400,4809,379,307076,0
ore-91,true,1.00,3716,348,3711,326,240068,0
ore-92,true,1.00,3890,357,3889,334,249960,0
ore-93,false,0.14,1277,64,1277,64,83994,0
ore-94,true,1.00,3990,361,3987,339,245100,0
ore-95,true,1.00,5990,427,5987,405,364336,0
ore-96,true,1.00,3920,349,3917,328,246510,0
ore-97,true,1.00,4014,361,4012,339,254948,0
ore-98,true,1.00,4429,377,4425,354,283541,0
ore-99,true,1.00,4957,399,4956,375,313348,0
ore-100,true,1.00,3534,359,3532,337,228447,0
