NDW:0.0
TTFW:0.4
DFPT:2.0
DFPAP:3.0
DFPMP:50.0
RIGHT_WINDOW_BORDER_X:295.0
level,win/fail,% travelled,run time,game ticks,planning time,total plannings,nodes evaluated,most backtracked nodes
ore-1,true,1.00,1952,358,1949,330,152022,0
ore-2,false,0.70,2042,259,2040,259,151839,0
ore-3,true,1.00,1847,361,1843,329,144450,0
ore-4,true,1.00,2186,405,2186,378,157261,0
ore-5,true,1.00,1982,392,1977,366,150539,0
ore-6,true,1.00,2724,391,2723,364,186939,0
ore-7,true,1.00,1271,330,1268,303,98341,0
ore-8,true,1.00,1386,343,1385,316,110223,0
ore-9,true,1.00,1815,345,1815,319,133428,0
ore-10,true,1.00,2016,400,2014,373,156623,0
ore-11,true,1.00,1729,352,1726,325,135991,0
ore-12,true,1.00,1275,349,1273,321,98955,0
ore-13,true,1.00,1745,377,1744,345,134422,0
ore-14,true,1.00,1786,356,1783,329,127449,0
ore-15,true,1.00,1835,338,1833,311,145071,0
ore-16,true,1.00,1929,375,1924,343,151278,0
ore-17,true,1.00,1789,347,1787,320,139790,0
ore-18,true,1.00,1270,362,1265,330,96595,0
ore-19,true,1.00,1702,367,1700,338,123889,0
ore-20,true,1.00,1967,351,1964,324,139331,0
ore-21,true,1.00,1575,357,1574,325,122028,0
ore-22,true,1.00,1630,343,1624,317,126093,0
ore-23,true,1.00,1427,342,1424,314,116836,0
ore-24,true,1.00,2336,400,2330,373,162771,0
ore-25,true,1.00,2047,352,2044,325,157692,0
ore-26,true,1.00,1891,396,1885,367,132003,0
ore-27,true,1.00,2174,382,2172,355,163399,0
ore-28,true,1.00,1369,409,1363,383,105657,0
ore-29,true,1.00,1736,355,1735,328,130811,0
ore-30,true,1.00,1654,380,1654,351,126888,0
ore-31,true,1.00,1361,350,1359,319,106589,0
ore-32,true,1.00,1567,353,1565,326,110452,0
ore-33,true,1.00,1886,416,1884,388,134873,0
ore-34,true,1.00,2022,423,2017,391,153638,0
ore-35,true,1.00,1620,347,1616,319,124511,0
ore-36,true,1.00,1592,350,1585,322,123991,0
ore-37,false,0.34,1617,143,1616,143,111142,0
ore-38,true,1.00,1286,331,1284,295,100437,0
ore-39,true,1.00,1723,366,1720,339,126379,0
ore-40,true,1.00,2218,375,2216,343,162634,0
ore-41,true,1.00,1329,358,1327,330,104529,0
ore-42,true,1.00,2089,363,2086,335,158335,0
ore-43,true,1.00,1240,334,1236,308,95345,0
ore-44,true,1.00,1750,371,1749,339,142420,0
ore-45,true,1.00,2441,369,2439,343,180033,0
ore-46,false,0.12,1331,64,1331,64,101886,0
ore-47,true,1.00,3687,468,3685,441,253413,0
ore-48,true,1.00,1730,375,1726,347,127054,0
ore-49,true,1.00,1426,354,1424,319,109025,0
ore-50,true,1.00,2686,372,2684,345,201257,0
ore-51,true,1.00,1394,330,1391,298,116267,0
ore-52,true,1.00,1688,361,1685,333,121379,0
ore-53,true,1.00,1707,367,1705,340,123749,0
ore-54,true,1.00,1488,367,1479,340,113588,0
ore-55,true,1.00,1832,403,1825,375,137799,0
ore-56,true,1.00,1235,336,1235,309,95960,0
ore-57,true,1.00,2414,385,2414,357,168598,0
ore-58,true,1.00,1520,340,1516,313,120090,0
ore-59,true,1.00,1738,359,1737,332,125353,0
ore-60,true,1.00,2199,366,2198,339,160183,0
ore-61,true,1.00,1596,363,1593,329,118218,0
ore-62,true,1.00,1289,298,1289,272,105353,0
ore-63,true,1.00,2159,362,2154,335,163188,0
ore-64,true,1.00,1342,351,1339,319,102500,0
ore-65,true,1.00,1541,335,1535,309,120217,0
ore-66,true,1.00,1770,369,1764,341,134808,0
ore-67,true,1.00,1608,371,1602,337,124441,0
ore-68,true,1.00,1472,356,1470,324,111664,0
ore-69,true,1.00,1968,360,1961,333,143586,0
ore-70,true,1.00,1631,330,1625,304,124655,0
ore-71,true,1.00,2291,424,2290,397,173069,0
ore-72,true,1.00,1178,354,1177,327,89499,0
ore-73,true,1.00,2370,383,2366,343,171928,0
ore-74,true,1.00,1726,399,1723,372,124546,0
ore-75,true,1.00,1422,342,1420,313,110470,0
ore-76,true,1.00,1280,313,1280,286,102884,0
ore-77,true,1.00,1651,357,1649,330,123258,0
ore-78,true,1.00,1431,313,1427,287,119613,0
ore-79,true,1.00,2567,387,2566,360,189885,0
ore-80,true,1.00,1622,353,1620,326,129273,0
ore-81,true,1.00,1726,346,1725,319,133923,0
ore-82,true,1.00,1944,363,1940,331,142789,0
ore-83,true,1.00,1840,349,1838,322,144382,0
ore-84,true,1.00,3245,392,3244,363,225148,0
ore-85,true,1.00,1888,382,1885,355,142272,0
ore-86,true,1.00,1566,338,1566,311,125762,0
ore-87,true,1.00,1723,381,1720,354,125959,0
ore-88,true,1.00,1996,363,1994,336,155257,0
ore-89,true,1.00,1841,363,1839,336,134058,0
ore-90,true,1.00,1608,335,1605,309,124041,0
ore-91,true,1.00,1368,345,1366,319,105770,0
ore-92,true,1.00,2150,355,2146,328,161817,0
ore-93,true,1.00,1883,326,1882,300,144198,0
ore-94,true,1.00,2169,369,2167,342,160642,0
ore-95,true,1.00,3155,405,3154,378,225157,0
ore-96,true,1.00,2312,379,2310,352,175803,0
ore-97,true,1.00,1653,376,1652,344,125641,0
ore-98,true,1.00,2793,402,2789,376,215716,0
ore-99,true,1.00,1945,381,1944,353,139704,0
ore-100,true,1.00,1170,325,1168,293,94142,0
