NDW:0.0
TTFW:0.4
DFPT:2.0
DFPAP:3.0
DFPMP:3.0
RIGHT_WINDOW_BORDER_X:95.0
level,win/fail,% travelled,run time,game ticks,planning time,total plannings,nodes evaluated,most backtracked nodes
Mario-1,true,1.00,747,502,747,492,73283,0
Mario-2,true,1.00,2045,458,2043,447,175609,0
Mario-3,true,1.00,4045,475,4040,465,427635,0
Mario-4,true,1.00,1618,553,1614,539,159337,0
Mario-5,true,1.00,3290,627,3288,613,301681,0
Mario-6,false,0.58,1606,241,1606,241,157181,0
Mario-7,true,1.00,1830,615,1824,604,158363,0
Mario-8,true,1.00,3145,646,3138,602,287555,0
Mario-9,true,1.00,1872,474,1869,460,169643,0
Mario-10,false,0.25,620,159,619,159,62076,0
Mario-11,true,1.00,1031,496,1029,486,102209,0
Mario-12,true,1.00,981,772,976,762,97268,0
Mario-13,true,1.00,2836,470,2833,456,300337,0
Mario-14,true,1.00,783,507,779,496,80107,0
Mario-15,false,0.84,7159,1055,7150,1055,627104,0
