NDW:0.0
TTFW:1.8
DFPT:2.0
DFPAP:3.0
DFPMP:20.0
RIGHT_WINDOW_BORDER_X:235.0
level,win/fail,% travelled,run time,game ticks,planning time,total plannings,nodes evaluated,most backtracked nodes
ge-1,true,1.00,471,252,469,215,54102,0
ge-2,true,1.00,390,238,388,217,48354,0
ge-3,true,1.00,176,231,175,205,19633,0
ge-4,true,1.00,905,252,905,231,107175,0
ge-5,true,1.00,57,199,54,178,8671,0
ge-6,true,1.00,352,282,348,250,40182,0
ge-7,true,1.00,100,226,99,204,12150,0
ge-8,true,1.00,160,221,157,200,19292,0
ge-9,true,1.00,526,218,526,196,63432,0
ge-10,true,1.00,58,199,54,178,8580,0
ge-11,true,1.00,164,213,164,192,20575,0
ge-12,true,1.00,60,199,59,178,9321,0
ge-13,true,1.00,276,249,275,226,32689,0
ge-14,true,1.00,160,240,159,199,18462,0
ge-15,true,1.00,489,218,488,197,54317,0
ge-16,true,1.00,91,251,90,230,9318,0
ge-17,true,1.00,246,216,246,186,30894,0
ge-18,true,1.00,180,264,179,240,19062,0
ge-19,true,1.00,444,262,443,241,55562,0
ge-20,true,1.00,320,231,320,210,37410,0
ge-21,true,1.00,189,201,188,180,23054,0
ge-22,true,1.00,322,206,319,182,38138,0
ge-23,true,1.00,493,205,493,184,59186,0
ge-24,true,1.00,377,252,375,220,42681,0
ge-25,true,1.00,287,201,285,180,35255,0
ge-26,true,1.00,204,205,203,184,25844,0
ge-27,true,1.00,59,224,56,203,7663,0
ge-28,true,1.00,446,203,442,182,51432,0
ge-29,true,1.00,222,222,222,178,27161,0
ge-30,true,1.00,466,248,465,207,54792,0
ge-31,true,1.00,520,222,518,199,60764,0
ge-32,true,1.00,131,222,131,201,15362,0
ge-33,true,1.00,129,231,126,197,15055,0
ge-34,true,1.00,780,214,778,190,92774,0
ge-35,true,1.00,328,287,326,265,36634,0
ge-36,true,1.00,540,259,539,223,61560,0
ge-37,true,1.00,250,200,249,178,32929,0
ge-38,true,1.00,542,257,539,236,64433,0
ge-39,true,1.00,214,223,214,201,27380,0
ge-40,true,1.00,58,199,57,178,9531,0
ge-41,true,1.00,187,205,184,184,24450,0
ge-42,true,1.00,531,243,531,222,59688,0
ge-43,true,1.00,260,229,257,205,30985,0
ge-44,true,1.00,455,230,455,204,54494,0
ge-45,true,1.00,366,221,366,200,41091,0
ge-46,true,1.00,762,246,761,225,86188,0
ge-47,true,1.00,718,236,715,215,81240,0
ge-48,true,1.00,277,234,274,213,32580,0
ge-49,true,1.00,162,200,160,178,22184,0
ge-50,true,1.00,448,216,448,195,52635,0
ge-51,true,1.00,127,234,126,212,14233,0
ge-52,true,1.00,416,303,414,281,42524,0
ge-53,true,1.00,219,213,218,192,27401,0
ge-54,true,1.00,241,242,238,220,32484,0
ge-55,true,1.00,269,218,268,197,33151,0
ge-56,true,1.00,498,237,497,202,58918,0
ge-57,true,1.00,665,229,665,191,81770,0
ge-58,true,1.00,163,282,161,261,16872,0
ge-59,true,1.00,675,222,673,193,83372,0
ge-60,true,1.00,515,201,514,180,61147,0
ge-61,true,1.00,255,209,254,179,33640,0
ge-62,true,1.00,516,215,513,194,65541,0
ge-63,true,1.00,673,226,672,197,85290,0
ge-64,true,1.00,620,237,617,200,67003,0
ge-65,true,1.00,488,234,488,208,59734,0
ge-66,true,1.00,546,226,545,183,65581,0
ge-67,true,1.00,208,255,208,223,22133,0
ge-68,true,1.00,131,223,130,202,14385,0
ge-69,true,1.00,318,199,318,178,39366,0
ge-70,true,1.00,321,216,319,195,37906,0
ge-71,true,1.00,1074,234,1074,213,130059,0
ge-72,true,1.00,142,255,141,234,14784,0
ge-73,true,1.00,296,225,295,188,39611,0
ge-74,true,1.00,702,248,702,227,77715,0
ge-75,true,1.00,191,252,190,210,24199,0
ge-76,true,1.00,845,226,844,197,98647,0
ge-77,true,1.00,991,232,988,211,117917,0
ge-78,true,1.00,534,239,533,212,61868,0
ge-79,true,1.00,161,220,160,199,20415,0
ge-80,true,1.00,76,218,74,193,10256,0
ge-81,true,1.00,65,214,65,193,8266,0
ge-82,true,1.00,68,239,67,196,8256,0
ge-83,false,1.00,137,253,135,218,15909,0
ge-84,true,1.00,695,207,693,186,82764,0
ge-85,true,1.00,266,209,265,188,33603,0
ge-86,true,1.00,651,212,647,180,78247,0
ge-87,true,1.00,471,237,470,216,56247,0
ge-88,true,1.00,466,249,465,210,59195,0
ge-89,true,1.00,417,255,416,233,44231,0
ge-90,true,1.00,56,199,54,178,8806,0
ge-91,true,1.00,259,199,259,178,33455,0
ge-92,true,1.00,51,205,51,184,7084,0
ge-93,true,1.00,521,215,521,194,65779,0
ge-94,true,1.00,395,210,393,188,49893,0
ge-95,true,1.00,118,290,116,268,10256,0
ge-96,true,1.00,800,249,800,212,89781,0
ge-97,true,1.00,360,215,359,193,44065,0
ge-98,true,1.00,58,199,57,178,9230,0
ge-99,true,1.00,160,199,157,178,19930,0
ge-100,true,1.00,326,207,326,186,41440,0
