NDW:0.0
TTFW:1.0
DFPT:2.0
DFPAP:3.0
DFPMP:3.0
RIGHT_WINDOW_BORDER_X:35.0
level,win/fail,% travelled,run time,game ticks,planning time,total plannings,nodes evaluated,most backtracked nodes
notchParamRand-1,false,0.29,1236,221,1235,221,103374,0
notchParamRand-2,false,0.52,650,342,645,342,55647,0
notchParamRand-3,false,0.24,1835,265,1834,265,160737,0
notchParamRand-4,false,0.18,1104,180,1103,180,94174,0
notchParamRand-5,false,0.52,628,395,625,395,53491,0
notchParamRand-6,false,0.26,617,235,616,235,52610,0
notchParamRand-7,false,0.52,982,361,979,361,84162,0
notchParamRand-8,false,0.36,2532,313,2531,313,180985,0
notchParamRand-9,false,0.29,1360,277,1359,277,114941,0
notchParamRand-10,false,0.24,2001,286,2000,286,173567,0
notchParamRand-11,true,1.00,171,543,166,538,17237,0
notchParamRand-12,false,0.36,981,300,981,300,81101,0
notchParamRand-13,false,0.17,1367,194,1365,194,113937,0
notchParamRand-14,false,0.24,806,204,804,204,66634,0
notchParamRand-15,false,0.29,1803,273,1802,273,152671,0
notchParamRand-16,false,0.36,941,251,937,251,81236,0
notchParamRand-17,true,1.00,38,535,36,526,7378,0
notchParamRand-18,false,0.14,745,174,743,174,68744,0
notchParamRand-19,false,0.37,704,310,704,310,61596,0
notchParamRand-20,false,0.18,3155,270,3154,270,244731,0
notchParamRand-21,true,1.00,35,536,31,532,7073,0
notchParamRand-22,false,0.12,5,73,5,73,897,0
notchParamRand-23,false,0.24,446,188,443,188,38342,0
notchParamRand-24,false,0.52,1412,369,1411,369,119288,0
notchParamRand-25,true,1.00,30,503,24,498,6200,0
notchParamRand-26,false,0.52,1449,494,1446,494,121714,0
notchParamRand-27,false,0.52,2282,454,2279,454,192431,0
notchParamRand-28,false,0.31,588,247,586,247,49887,0
notchParamRand-29,true,1.00,32,504,30,500,6463,0
notchParamRand-30,false,0.18,1245,204,1244,204,100454,0
notchParamRand-31,false,0.21,914,161,912,161,70663,0
notchParamRand-32,true,1.00,698,562,696,557,62814,0
notchParamRand-33,false,0.18,1868,240,1865,240,158461,0
notchParamRand-34,false,0.24,874,216,873,216,73091,0
notchParamRand-35,false,0.24,977,229,976,229,79674,0
notchParamRand-36,true,1.00,35,523,32,519,6828,0
notchParamRand-37,false,0.29,1042,259,1039,259,92465,0
notchParamRand-38,false,0.18,2035,225,2035,225,174883,0
notchParamRand-39,false,0.18,1132,167,1132,167,92997,0
notchParamRand-40,false,0.17,1273,235,1270,235,103639,0
notchParamRand-41,true,1.00,29,502,25,498,5916,0
notchParamRand-42,true,1.00,3315,820,3313,816,288233,0
notchParamRand-43,false,0.52,1017,369,1016,369,87459,0
notchParamRand-44,false,0.34,714,257,712,257,68448,0
notchParamRand-45,false,0.29,1235,217,1232,217,103004,0
notchParamRand-46,false,0.36,1173,271,1171,271,97985,0
notchParamRand-47,false,0.18,1535,241,1535,241,135191,0
notchParamRand-48,false,0.15,336,120,335,120,28110,0
notchParamRand-49,false,0.18,1661,191,1661,191,143588,0
notchParamRand-50,false,0.17,939,186,938,186,79912,0
notchParamRand-51,false,0.52,354,333,352,333,31506,0
notchParamRand-52,false,0.29,1110,248,1108,248,91405,0
notchParamRand-53,false,0.21,1037,197,1037,197,85334,0
notchParamRand-54,false,0.17,838,172,836,172,68243,0
notchParamRand-55,false,0.18,2198,255,2196,255,180929,0
notchParamRand-56,false,0.36,1898,283,1896,283,151975,0
notchParamRand-57,false,0.24,380,176,380,176,34103,0
notchParamRand-58,false,0.18,806,188,806,188,70378,0
notchParamRand-59,false,0.29,546,226,545,226,46158,0
notchParamRand-60,false,0.29,1417,287,1417,287,122768,0
notchParamRand-61,false,0.48,2247,1017,2228,1017,183715,0
notchParamRand-62,false,0.18,1008,225,1007,225,81953,0
notchParamRand-63,false,0.19,371,132,371,132,31754,0
notchParamRand-64,false,0.36,418,234,417,234,35933,0
notchParamRand-65,false,0.19,377,164,376,164,31228,0
notchParamRand-66,false,0.52,959,399,958,399,80708,0
notchParamRand-67,false,0.36,1204,255,1202,255,98503,0
notchParamRand-68,false,0.18,1131,167,1130,167,96746,0
notchParamRand-69,false,0.52,852,348,852,348,76000,0
notchParamRand-70,false,0.36,2146,349,2143,349,178327,0
notchParamRand-71,false,0.43,811,291,811,291,67241,0
notchParamRand-72,true,1.00,512,557,510,553,49787,0
notchParamRand-73,false,0.36,1778,359,1778,359,156248,0
notchParamRand-74,true,1.00,37,534,34,530,7272,0
notchParamRand-75,true,1.00,37,530,33,526,7388,0
notchParamRand-76,false,0.19,1040,193,1040,193,81817,0
notchParamRand-77,false,0.21,1180,262,1178,262,98718,0
notchParamRand-78,false,0.24,913,232,913,232,80693,0
notchParamRand-79,true,1.00,1918,733,1912,729,170334,0
notchParamRand-80,false,0.51,2264,360,2263,360,164240,0
notchParamRand-81,false,0.37,1145,267,1143,267,98026,0
notchParamRand-82,false,0.19,308,153,308,153,27260,0
notchParamRand-83,false,0.17,1339,220,1339,220,115154,0
notchParamRand-84,false,0.25,953,197,952,197,84872,0
notchParamRand-85,true,1.00,34,529,29,524,6767,0
notchParamRand-86,false,0.39,1762,422,1757,422,155366,0
notchParamRand-87,false,0.17,2127,216,2127,216,170273,0
notchParamRand-88,false,0.34,678,229,676,229,63676,0
notchParamRand-89,false,0.52,1187,383,1186,383,106585,0
notchParamRand-90,false,0.36,2335,338,2334,338,185797,0
notchParamRand-91,true,1.00,35,535,30,531,7004,0
notchParamRand-92,false,0.17,513,165,513,165,43076,0
notchParamRand-93,false,0.67,2614,535,2613,535,218888,0
notchParamRand-94,false,0.17,772,172,771,172,63672,0
notchParamRand-95,false,0.18,836,179,835,179,67011,0
notchParamRand-96,false,0.36,1319,326,1315,326,107622,0
notchParamRand-97,false,0.17,406,133,406,133,34199,0
notchParamRand-98,false,0.52,1280,370,1279,370,113359,0
notchParamRand-99,false,0.29,313,197,312,197,27425,0
notchParamRand-100,false,0.21,408,151,408,151,34749,0
