NDW:0.0
TTFW:2.0
DFPT:2.0
DFPAP:3.0
DFPMP:0.0
RIGHT_WINDOW_BORDER_X:255.0
level,win/fail,% travelled,run time,game ticks,planning time,total plannings,nodes evaluated,most backtracked nodes
notchParam-1,true,1.00,939,312,923,289,52981,0
notchParam-2,true,1.00,873,345,866,322,49395,0
notchParam-3,true,1.00,580,313,573,290,34279,0
notchParam-4,true,1.00,614,322,604,299,35553,0
notchParam-5,true,1.00,623,314,618,289,36340,0
notchParam-6,true,1.00,659,322,650,299,38724,0
notchParam-7,true,1.00,945,325,937,302,55396,0
notchParam-8,true,1.00,1186,319,1173,296,68756,0
notchParam-9,true,1.00,747,363,738,340,38696,0
notchParam-10,true,1.00,1134,314,1129,291,60271,0
notchParam-11,true,1.00,588,316,581,293,33690,0
notchParam-12,true,1.00,1162,327,1155,304,69762,0
notchParam-13,true,1.00,278,314,273,291,14636,0
notchParam-14,true,1.00,269,304,262,281,13858,0
notchParam-15,true,1.00,977,320,966,297,52353,0
notchParam-16,true,1.00,855,309,846,286,48343,0
notchParam-17,true,1.00,873,306,863,283,50222,0
notchParam-18,true,1.00,302,352,293,329,15284,0
notchParam-19,true,1.00,274,313,267,290,14845,0
notchParam-20,true,1.00,270,308,264,285,14243,0
notchParam-21,true,1.00,268,304,260,281,13817,0
notchParam-22,true,1.00,313,326,308,303,16691,0
notchParam-23,true,1.00,1330,363,1322,340,79956,0
notchParam-24,true,1.00,1215,340,1204,317,72790,0
notchParam-25,true,1.00,1188,322,1184,299,70622,0
notchParam-26,true,1.00,1296,352,1287,329,65844,0
notchParam-27,true,1.00,295,309,293,286,15203,0
notchParam-28,true,1.00,670,349,657,326,36571,0
notchParam-29,true,1.00,704,323,694,300,36873,0
notchParam-30,true,1.00,299,308,288,285,13008,0
notchParam-31,true,1.00,1113,326,1100,303,47590,0
notchParam-32,true,1.00,982,319,971,296,43754,0
notchParam-33,true,1.00,274,300,267,277,14169,0
notchParam-34,true,1.00,944,322,937,299,50453,0
notchParam-35,true,1.00,1027,322,1017,299,55947,0
notchParam-36,true,1.00,859,302,851,279,50023,0
notchParam-37,true,1.00,259,300,253,277,13467,0
notchParam-38,true,1.00,266,304,254,281,13836,0
notchParam-39,true,1.00,818,304,810,281,46673,0
notchParam-40,true,1.00,596,314,589,291,34389,0
notchParam-41,true,1.00,689,342,684,319,40053,0
notchParam-42,true,1.00,292,313,286,290,15801,0
notchParam-43,true,1.00,1120,317,1110,294,66690,0
notchParam-44,true,1.00,1202,342,1193,319,72066,0
notchParam-45,true,1.00,1173,328,1166,298,70714,0
notchParam-46,true,1.00,1189,316,1186,293,70702,0
notchParam-47,true,1.00,284,312,273,289,15635,0
notchParam-48,true,1.00,341,338,334,315,18575,0
notchParam-49,true,1.00,299,337,291,309,16224,0
notchParam-50,true,1.00,295,329,287,306,14092,0
notchParam-51,true,1.00,266,308,258,285,14117,0
notchParam-52,true,1.00,1328,347,1313,324,69116,0
notchParam-53,true,1.00,1235,346,1230,323,69486,0
notchParam-54,true,1.00,1006,324,997,301,56318,0
notchParam-55,true,1.00,303,319,290,296,16034,0
notchParam-56,true,1.00,255,314,248,291,13232,0
notchParam-57,true,1.00,1139,314,1130,291,69113,0
notchParam-58,true,1.00,728,341,719,318,42665,0
notchParam-59,true,1.00,1258,366,1249,343,73900,0
notchParam-60,true,1.00,639,334,625,311,36892,0
notchParam-61,true,1.00,1226,333,1218,310,74564,0
notchParam-62,true,1.00,728,298,720,275,42023,0
notchParam-63,true,1.00,688,338,679,315,40175,0
notchParam-64,true,1.00,600,328,589,305,34897,0
notchParam-65,true,1.00,705,352,698,329,41290,0
notchParam-66,true,1.00,645,335,637,312,37888,0
notchParam-67,true,1.00,974,316,967,293,55647,0
notchParam-68,true,1.00,845,308,842,285,47462,0
notchParam-69,true,1.00,743,312,735,289,42540,0
notchParam-70,true,1.00,874,310,865,287,49766,0
notchParam-71,true,1.00,757,359,749,336,44839,0
notchParam-72,true,1.00,672,352,666,329,39616,0
notchParam-73,true,1.00,611,324,603,301,35288,0
notchParam-74,true,1.00,759,346,756,323,44616,0
notchParam-75,true,1.00,697,347,691,324,41865,0
notchParam-76,true,1.00,1178,344,1169,321,68617,0
notchParam-77,true,1.00,762,354,755,331,44432,0
notchParam-78,true,1.00,1152,331,1143,308,68198,0
notchParam-79,true,1.00,661,321,654,298,38841,0
notchParam-80,true,1.00,321,371,307,348,16722,0
notchParam-81,true,1.00,661,336,653,313,39660,0
notchParam-82,true,1.00,274,307,263,284,14159,0
notchParam-83,true,1.00,271,302,260,279,14372,0
notchParam-84,true,1.00,887,319,881,296,50022,0
notchParam-85,true,1.00,1518,367,1508,344,79621,0
notchParam-86,true,1.00,1159,306,1155,283,68322,0
notchParam-87,true,1.00,286,322,276,299,15140,0
notchParam-88,true,1.00,302,308,295,285,16183,0
notchParam-89,true,1.00,275,304,267,281,14324,0
notchParam-90,true,1.00,284,311,276,288,14896,0
notchParam-91,true,1.00,1241,332,1234,309,69814,0
notchParam-92,true,1.00,1190,336,1184,313,69690,0
notchParam-93,true,1.00,1222,322,1213,299,74039,0
notchParam-94,true,1.00,1162,337,1152,314,69494,0
notchParam-95,true,1.00,1401,400,1388,377,84186,0
notchParam-96,true,1.00,696,331,684,308,40587,0
notchParam-97,true,1.00,590,319,584,296,32658,0
notchParam-98,true,1.00,274,300,260,277,14366,0
notchParam-99,true,1.00,1005,324,1000,301,56389,0
notchParam-100,true,1.00,868,304,861,281,49675,0
