NDW:0.0
TTFW:1.6
DFPT:2.0
DFPAP:3.0
DFPMP:2.0
RIGHT_WINDOW_BORDER_X:75.0
level,win/fail,% travelled,run time,game ticks,planning time,total plannings,nodes evaluated,most backtracked nodes
patternWeightCount-1,true,1.00,8009,813,7989,789,467637,0
patternWeightCount-2,true,1.00,1090,529,1086,520,63871,0
patternWeightCount-3,true,1.00,912,479,895,472,53853,0
patternWeightCount-4,true,1.00,2655,530,2643,522,104631,0
patternWeightCount-5,true,1.00,4239,592,4209,586,184123,0
patternWeightCount-6,true,1.00,3675,619,3662,611,199663,0
patternWeightCount-7,true,1.00,1334,535,1319,528,80270,0
patternWeightCount-8,true,1.00,1111,500,1102,493,63711,0
patternWeightCount-9,true,1.00,2202,600,2189,593,134901,0
patternWeightCount-10,true,1.00,2039,575,2028,569,120796,0
patternWeightCount-11,true,1.00,1804,491,1794,481,108870,0
patternWeightCount-12,true,1.00,2297,647,2281,640,134607,0
patternWeightCount-13,true,1.00,1686,503,1674,496,100024,0
patternWeightCount-14,true,1.00,2322,578,2312,571,139789,0
patternWeightCount-15,true,1.00,4045,622,4031,615,245981,0
patternWeightCount-16,true,1.00,8117,774,8099,749,492983,0
patternWeightCount-17,true,1.00,2097,607,2084,601,132828,0
patternWeightCount-18,false,0.01,79,21,78,21,5314,0
patternWeightCount-19,true,1.00,1366,550,1350,543,79015,0
patternWeightCount-20,false,0.61,10227,619,10209,619,557781,0
patternWeightCount-21,true,1.00,879,524,873,517,53739,0
patternWeightCount-22,true,1.00,4926,618,4910,607,299454,0
patternWeightCount-23,true,1.00,2962,644,2941,624,177360,0
patternWeightCount-24,true,1.00,3754,629,3743,621,222883,0
patternWeightCount-25,false,0.30,4787,283,4784,283,288479,0
patternWeightCount-26,true,1.00,3078,595,3068,587,190397,0
patternWeightCount-27,true,1.00,4213,660,4199,652,252524,0
patternWeightCount-28,true,1.00,1682,567,1669,561,103733,0
patternWeightCount-29,true,1.00,4444,605,4428,596,268400,0
patternWeightCount-30,false,0.82,6113,620,6104,620,360584,0
patternWeightCount-31,false,0.19,5258,261,5253,261,325734,0
patternWeightCount-32,true,1.00,1069,481,1057,474,64590,0
patternWeightCount-33,true,1.00,2060,593,2045,586,123410,0
patternWeightCount-34,true,1.00,4099,576,4087,570,245743,0
patternWeightCount-35,false,0.64,5965,517,5959,517,368166,0
patternWeightCount-36,true,1.00,4309,653,4297,647,262944,0
patternWeightCount-37,true,1.00,2630,568,2616,562,164099,0
patternWeightCount-38,false,0.95,7720,678,7713,678,481934,0
patternWeightCount-39,false,0.24,5003,303,4998,303,295322,0
patternWeightCount-40,true,1.00,5186,694,5172,687,321608,0
patternWeightCount-41,true,1.00,2743,633,2733,626,168049,0
patternWeightCount-42,false,0.87,9140,807,9132,807,556999,0
patternWeightCount-43,true,1.00,2182,536,2169,529,133383,0
patternWeightCount-44,true,1.00,3237,659,3215,644,213123,0
patternWeightCount-45,false,0.86,5722,670,5715,670,334474,0
patternWeightCount-46,false,0.82,16822,999,16808,999,1049431,0
patternWeightCount-47,true,1.00,2453,526,2440,520,147106,0
patternWeightCount-48,true,1.00,1179,471,1173,464,72691,0
patternWeightCount-49,true,1.00,2915,522,2907,515,176304,0
patternWeightCount-50,true,1.00,2202,474,2192,467,130062,0
patternWeightCount-51,true,1.00,1660,498,1650,485,100333,0
patternWeightCount-52,false,0.85,3032,546,3029,546,188603,0
patternWeightCount-53,false,0.72,4599,507,4591,507,271466,0
patternWeightCount-54,true,1.00,1128,522,1117,509,70125,0
patternWeightCount-55,false,0.97,5413,617,5403,617,297825,0
patternWeightCount-56,true,1.00,5624,643,5606,636,341625,0
patternWeightCount-57,true,1.00,854,455,845,449,52280,0
patternWeightCount-58,true,1.00,2067,585,2058,576,127728,0
patternWeightCount-59,true,1.00,780,453,766,446,47355,0
patternWeightCount-60,true,1.00,4085,653,4065,646,258956,0
patternWeightCount-61,true,1.00,2330,561,2320,553,139647,0
patternWeightCount-62,false,0.96,5908,723,5901,723,356683,0
patternWeightCount-63,true,1.00,4091,629,4074,623,247531,0
patternWeightCount-64,true,1.00,2656,569,2645,562,159822,0
patternWeightCount-65,true,1.00,2206,557,2198,550,130964,0
patternWeightCount-66,true,1.00,1685,581,1669,575,103381,0
patternWeightCount-67,true,1.00,1355,557,1345,551,78716,0
patternWeightCount-68,false,0.85,19760,999,19752,999,639382,0
patternWeightCount-69,false,0.81,3130,489,3110,489,155832,0
patternWeightCount-70,true,1.00,1760,567,1747,560,105968,0
patternWeightCount-71,true,1.00,1099,504,1087,497,63293,0
patternWeightCount-72,false,0.74,8286,590,8278,590,521205,0
patternWeightCount-73,false,0.65,8471,597,8465,597,516747,0
patternWeightCount-74,true,1.00,1415,490,1395,484,87430,0
patternWeightCount-75,true,1.00,3129,611,3114,605,192661,0
patternWeightCount-76,true,1.00,4030,663,4022,656,246536,0
patternWeightCount-77,true,1.00,3727,616,3715,609,227012,0
patternWeightCount-78,true,1.00,10519,887,10499,880,510008,0
patternWeightCount-79,true,1.00,864,430,852,423,52958,0
patternWeightCount-80,true,1.00,3975,677,3960,671,230743,0
patternWeightCount-81,false,0.82,3474,549,3461,549,205946,0
patternWeightCount-82,true,1.00,567,479,564,472,33386,0
patternWeightCount-83,true,1.00,2205,515,2192,508,135583,0
patternWeightCount-84,true,1.00,1254,539,1245,531,77552,0
patternWeightCount-85,true,1.00,2888,592,2876,585,173423,0
patternWeightCount-86,false,0.93,5835,666,5820,666,347702,0
patternWeightCount-87,false,0.72,6632,555,6624,555,385613,0
patternWeightCount-88,true,1.00,4222,575,4210,568,259396,0
patternWeightCount-89,true,1.00,933,424,927,418,55883,0
patternWeightCount-90,false,0.76,6028,616,6020,616,370249,0
patternWeightCount-91,true,1.00,2551,556,2536,548,160841,0
patternWeightCount-92,false,0.96,16026,999,16016,999,946572,0
patternWeightCount-93,false,0.89,8685,740,8667,740,524451,0
patternWeightCount-94,true,1.00,1938,588,1923,581,118703,0
patternWeightCount-95,true,1.00,2556,532,2543,526,160642,0
patternWeightCount-96,true,1.00,1141,569,1130,562,67851,0
patternWeightCount-97,true,1.00,2897,534,2887,527,179372,0
patternWeightCount-98,false,0.92,18615,999,18599,999,1069739,0
patternWeightCount-99,true,1.00,4255,678,4245,671,261882,0
patternWeightCount-100,true,1.00,1743,542,1729,536,105346,0
