NDW:0.0
TTFW:0.8
DFPT:2.0
DFPAP:3.0
DFPMP:7.0
RIGHT_WINDOW_BORDER_X:295.0
level,win/fail,% travelled,run time,game ticks,planning time,total plannings,nodes evaluated,most backtracked nodes
hopper-1,true,1.00,1013,319,1012,292,97604,0
hopper-2,true,1.00,1126,317,1125,290,103761,0
hopper-3,false,0.25,1070,86,1069,86,79886,0
hopper-4,false,0.28,908,94,908,94,75881,0
hopper-5,true,1.00,802,305,799,278,73748,0
hopper-6,true,1.00,939,313,937,282,86549,0
hopper-7,false,0.84,1605,260,1605,260,124295,0
hopper-8,true,1.00,948,334,946,298,91533,0
hopper-9,true,1.00,864,297,862,270,80373,0
hopper-10,true,1.00,807,305,805,278,77953,0
hopper-11,true,1.00,645,311,645,284,58849,0
hopper-12,true,1.00,948,315,945,283,93387,0
hopper-13,true,1.00,2362,343,2360,316,205825,0
hopper-14,true,1.00,934,313,932,281,93752,0
hopper-15,true,1.00,986,301,985,274,87917,0
hopper-16,false,0.54,1978,191,1978,191,147299,0
hopper-17,true,1.00,818,315,813,288,76006,0
hopper-18,true,1.00,928,301,925,274,82244,0
hopper-19,true,1.00,769,311,769,284,82953,0
hopper-20,true,1.00,1073,318,1070,290,97607,0
hopper-21,true,1.00,854,317,854,290,77908,0
hopper-22,false,0.33,1373,118,1373,118,102726,0
hopper-23,true,1.00,863,299,861,272,82794,0
hopper-24,true,1.00,581,299,579,272,54681,0
hopper-25,true,1.00,932,303,930,276,91596,0
hopper-26,true,1.00,1051,301,1050,274,93315,0
hopper-27,true,1.00,873,309,871,282,83659,0
hopper-28,false,0.85,2151,290,2147,290,194699,0
hopper-29,false,0.26,1467,102,1466,102,106939,0
hopper-30,true,1.00,794,305,793,274,74356,0
hopper-31,true,1.00,1021,309,1020,282,97087,0
hopper-32,true,1.00,1186,299,1185,272,114333,0
hopper-33,false,0.50,1071,173,1070,173,87231,0
hopper-34,true,1.00,1021,315,1020,288,96842,0
hopper-35,true,1.00,1174,316,1171,288,115879,0
hopper-36,true,1.00,614,316,611,290,55311,0
hopper-37,false,0.51,1203,171,1200,171,90081,0
hopper-38,false,0.59,1617,217,1615,217,136887,0
hopper-39,true,1.00,1019,309,1017,282,98735,0
hopper-40,true,1.00,1030,312,1025,280,87686,0
hopper-41,true,1.00,1612,301,1608,274,148525,0
hopper-42,true,1.00,794,303,794,276,73691,0
hopper-43,false,0.45,1714,151,1713,151,134144,0
hopper-44,true,1.00,1159,301,1159,274,115901,0
hopper-45,false,0.43,1220,143,1220,143,97005,0
hopper-46,false,0.67,1734,229,1734,229,149538,0
hopper-47,true,1.00,1462,313,1461,286,143386,0
hopper-48,true,1.00,971,303,967,276,92104,0
hopper-49,true,1.00,1192,329,1188,302,114226,0
hopper-50,false,0.63,1454,202,1453,202,114513,0
hopper-51,false,0.34,1569,124,1569,124,115335,0
hopper-52,true,1.00,694,308,694,281,69445,0
hopper-53,true,1.00,1554,327,1553,300,144468,0
hopper-54,true,1.00,560,297,558,270,49740,0
hopper-55,true,1.00,725,321,723,284,69889,0
hopper-56,true,1.00,657,297,655,270,62612,0
hopper-57,true,1.00,874,303,870,276,77075,0
hopper-58,true,1.00,1161,313,1160,286,123805,0
hopper-59,true,1.00,688,297,685,270,67306,0
hopper-60,true,1.00,1015,322,1011,295,100985,0
hopper-61,true,1.00,2261,335,2258,308,186815,0
hopper-62,true,1.00,1143,329,1139,302,101618,0
hopper-63,true,1.00,935,311,934,284,92597,0
hopper-64,true,1.00,1029,311,1027,284,94052,0
hopper-65,true,1.00,873,308,872,270,84044,0
hopper-66,true,1.00,806,311,805,284,78231,0
hopper-67,true,1.00,777,313,777,286,70856,0
hopper-68,true,1.00,726,326,724,299,63581,0
hopper-69,false,0.84,1477,258,1475,258,119899,0
hopper-70,true,1.00,1065,309,1065,282,101228,0
hopper-71,true,1.00,662,303,660,276,57552,0
hopper-72,true,1.00,1231,313,1228,286,114059,0
hopper-73,true,1.00,910,297,910,270,81776,0
hopper-74,true,1.00,762,305,761,278,65277,0
hopper-75,true,1.00,884,297,882,270,80181,0
hopper-76,true,1.00,2437,363,2435,336,208842,0
hopper-77,true,1.00,1070,330,1069,303,99204,0
hopper-78,true,1.00,1027,310,1026,281,102527,0
hopper-79,true,1.00,730,309,730,273,66708,0
hopper-80,true,1.00,673,315,672,288,58251,0
hopper-81,true,1.00,1041,325,1040,293,100539,0
hopper-82,false,0.54,3273,232,3272,232,238249,0
hopper-83,true,1.00,1199,309,1198,282,113329,0
hopper-84,true,1.00,1044,303,1042,276,97190,0
hopper-85,true,1.00,1048,347,1045,320,98639,0
hopper-86,true,1.00,994,303,991,276,93718,0
hopper-87,true,1.00,1003,315,1003,288,93942,0
hopper-88,true,1.00,724,333,722,302,73011,0
hopper-89,true,1.00,776,309,770,282,71826,0
hopper-90,true,1.00,867,316,864,288,82422,0
hopper-91,true,1.00,911,297,910,270,88271,0
hopper-92,true,1.00,1105,319,1102,292,100254,0
hopper-93,true,1.00,678,313,676,286,65310,0
hopper-94,true,1.00,1279,317,1279,290,124341,0
hopper-95,true,1.00,859,297,857,270,77852,0
hopper-96,true,1.00,1132,297,1128,270,107184,0
hopper-97,true,1.00,1130,301,1130,274,103630,0
hopper-98,true,1.00,1350,331,1349,304,126656,0
hopper-99,true,1.00,1538,346,1535,311,146708,0
hopper-100,true,1.00,1018,330,1016,292,94710,0
