NDW:0.0
TTFW:1.4
DFPT:2.0
DFPAP:3.0
DFPMP:7.0
RIGHT_WINDOW_BORDER_X:176.0
level,win/fail,% travelled,run time,game ticks,planning time,total plannings,nodes evaluated,most backtracked nodes
notchParamRand-1,true,1.00,1001,318,989,302,54761,0
notchParamRand-2,true,1.00,190,306,181,290,9523,0
notchParamRand-3,true,1.00,981,315,972,299,57415,0
notchParamRand-4,true,1.00,1403,345,1396,329,80952,0
notchParamRand-5,true,1.00,323,306,314,290,16525,0
notchParamRand-6,true,1.00,497,312,489,296,26976,0
notchParamRand-7,true,1.00,286,294,278,278,9713,0
notchParamRand-8,true,1.00,559,304,548,288,26174,0
notchParamRand-9,true,1.00,591,334,581,318,32635,0
notchParamRand-10,true,1.00,770,335,759,319,37686,0
notchParamRand-11,true,1.00,158,294,145,278,7290,0
notchParamRand-12,true,1.00,345,308,341,292,18259,0
notchParamRand-13,true,1.00,1656,320,1651,304,91217,0
notchParamRand-14,true,1.00,1020,312,1011,296,50523,0
notchParamRand-15,true,1.00,657,308,650,292,35116,0
notchParamRand-16,true,1.00,437,300,428,284,24546,0
notchParamRand-17,true,1.00,126,303,113,287,4710,0
notchParamRand-18,true,1.00,1697,324,1687,308,96296,0
notchParamRand-19,true,1.00,210,324,207,308,11135,0
notchParamRand-20,true,1.00,1446,331,1435,315,83271,0
notchParamRand-21,true,1.00,93,296,83,280,3997,0
notchParamRand-22,true,1.00,949,322,945,306,54596,0
notchParamRand-23,true,1.00,970,335,963,319,55677,0
notchParamRand-24,true,1.00,240,320,228,304,12791,0
notchParamRand-25,true,1.00,110,312,98,296,5245,0
notchParamRand-26,true,1.00,400,350,385,334,21535,0
notchParamRand-27,true,1.00,261,300,255,284,14421,0
notchParamRand-28,true,1.00,479,312,474,296,26800,0
notchParamRand-29,true,1.00,92,300,84,284,3950,0
notchParamRand-30,true,1.00,1801,326,1790,310,101893,0
notchParamRand-31,true,1.00,476,316,465,300,25991,0
notchParamRand-32,true,1.00,150,294,145,278,7262,0
notchParamRand-33,true,1.00,1667,310,1662,294,96065,0
notchParamRand-34,true,1.00,936,320,923,304,52408,0
notchParamRand-35,true,1.00,582,310,577,294,32843,0
notchParamRand-36,true,1.00,90,303,80,283,3869,0
notchParamRand-37,true,1.00,448,316,439,300,24953,0
notchParamRand-38,true,1.00,2125,352,2117,336,119595,0
notchParamRand-39,true,1.00,1530,350,1525,334,87127,0
notchParamRand-40,true,1.00,1981,316,1976,300,115494,0
notchParamRand-41,true,1.00,86,294,82,278,3848,0
notchParamRand-42,true,1.00,539,316,531,300,31894,0
notchParamRand-43,true,1.00,265,300,260,284,14671,0
notchParamRand-44,true,1.00,324,304,319,288,18297,0
notchParamRand-45,true,1.00,936,318,930,302,53460,0
notchParamRand-46,true,1.00,576,318,572,302,33913,0
notchParamRand-47,true,1.00,839,320,832,304,47686,0
notchParamRand-48,true,1.00,1385,322,1377,306,82129,0
notchParamRand-49,true,1.00,716,306,712,290,41572,0
notchParamRand-50,true,1.00,1357,340,1349,324,80506,0
notchParamRand-51,true,1.00,225,315,219,299,12152,0
notchParamRand-52,true,1.00,753,320,746,304,43723,0
notchParamRand-53,true,1.00,999,316,994,300,57803,0
notchParamRand-54,true,1.00,1942,371,1935,355,112653,0
notchParamRand-55,true,1.00,1783,320,1774,304,103615,0
notchParamRand-56,true,1.00,644,311,639,295,37277,0
notchParamRand-57,true,1.00,948,312,945,296,58192,0
notchParamRand-58,true,1.00,784,358,777,342,46024,0
notchParamRand-59,true,1.00,512,311,498,295,29731,0
notchParamRand-60,true,1.00,618,317,610,301,36798,0
notchParamRand-61,true,1.00,451,306,447,290,25947,0
notchParamRand-62,true,1.00,513,324,508,308,28875,0
notchParamRand-63,true,1.00,1462,314,1454,298,85435,0
notchParamRand-64,true,1.00,305,296,292,280,17407,0
notchParamRand-65,true,1.00,1887,334,1879,318,109187,0
notchParamRand-66,true,1.00,263,320,251,304,13846,0
notchParamRand-67,true,1.00,343,302,334,286,18828,0
notchParamRand-68,true,1.00,1425,336,1417,320,83241,0
notchParamRand-69,true,1.00,291,309,280,293,15839,0
notchParamRand-70,true,1.00,711,330,702,314,40572,0
notchParamRand-71,true,1.00,385,322,375,306,20937,0
notchParamRand-72,true,1.00,155,294,151,278,7391,0
notchParamRand-73,true,1.00,745,318,738,302,40141,0
notchParamRand-74,true,1.00,93,296,83,280,3985,0
notchParamRand-75,true,1.00,85,294,73,278,3436,0
notchParamRand-76,true,1.00,1056,340,1053,324,58585,0
notchParamRand-77,true,1.00,1579,348,1568,332,86573,0
notchParamRand-78,true,1.00,1015,306,1008,290,58029,0
notchParamRand-79,true,1.00,309,298,301,282,16427,0
notchParamRand-80,true,1.00,302,302,296,286,15735,0
notchParamRand-81,true,1.00,349,298,342,282,19619,0
notchParamRand-82,true,1.00,774,314,769,298,44406,0
notchParamRand-83,true,1.00,1283,322,1277,306,72601,0
notchParamRand-84,true,1.00,353,300,346,284,19721,0
notchParamRand-85,true,1.00,86,294,78,278,3476,0
notchParamRand-86,true,1.00,598,342,586,326,32327,0
notchParamRand-87,true,1.00,1617,314,1612,298,93675,0
notchParamRand-88,true,1.00,368,304,359,288,19867,0
notchParamRand-89,true,1.00,371,329,361,313,20586,0
notchParamRand-90,true,1.00,668,316,665,300,36887,0
notchParamRand-91,true,1.00,86,299,80,278,3462,0
notchParamRand-92,true,1.00,909,332,899,316,51344,0
notchParamRand-93,true,1.00,338,316,331,292,18404,0
notchParamRand-94,true,1.00,1723,316,1720,300,97028,0
notchParamRand-95,true,1.00,844,318,838,302,47812,0
notchParamRand-96,true,1.00,427,324,418,308,23370,0
notchParamRand-97,true,1.00,1347,352,1335,336,75451,0
notchParamRand-98,true,1.00,250,294,240,278,13567,0
notchParamRand-99,true,1.00,347,310,340,294,18486,0
notchParamRand-100,true,1.00,1493,314,1486,298,85768,0
