NDW:0.0
TTFW:0.8
DFPT:2.0
DFPAP:3.0
DFPMP:2.0
RIGHT_WINDOW_BORDER_X:115.0
level,win/fail,% travelled,run time,game ticks,planning time,total plannings,nodes evaluated,most backtracked nodes
patternCount-1,false,0.68,3938,386,3934,386,182870,0
patternCount-2,true,1.00,1340,495,1328,485,78994,0
patternCount-3,false,0.92,6234,594,6223,594,340431,0
patternCount-4,true,1.00,1297,436,1284,418,79929,0
patternCount-5,true,1.00,2260,558,2245,548,134725,0
patternCount-6,true,1.00,693,409,681,399,41407,0
patternCount-7,true,1.00,1692,480,1680,470,102178,0
patternCount-8,true,1.00,6689,670,6677,648,399702,0
patternCount-9,true,1.00,1602,472,1593,462,96466,0
patternCount-10,true,1.00,602,424,589,414,37484,0
patternCount-11,false,0.76,2890,436,2883,436,176929,0
patternCount-12,true,1.00,903,454,885,444,54710,0
patternCount-13,true,1.00,532,374,523,364,31878,0
patternCount-14,true,1.00,2703,453,2694,436,163876,0
patternCount-15,true,1.00,1487,460,1481,450,91986,0
patternCount-16,true,1.00,1207,534,1192,524,74122,0
patternCount-17,true,1.00,1317,454,1307,444,80250,0
patternCount-18,true,1.00,1745,431,1738,401,105053,0
patternCount-19,true,1.00,919,457,910,447,54601,0
patternCount-20,true,1.00,2423,447,2415,436,147128,0
patternCount-21,true,1.00,955,432,947,422,59032,0
patternCount-22,true,1.00,6488,647,6478,633,378841,0
patternCount-23,false,0.68,6739,509,6731,509,363229,0
patternCount-24,true,1.00,13499,894,13490,882,803650,0
patternCount-25,true,1.00,1499,466,1483,456,90081,0
patternCount-26,true,1.00,721,417,716,406,42849,0
patternCount-27,true,1.00,1781,461,1770,451,105843,0
patternCount-28,true,1.00,1445,447,1432,437,85671,0
patternCount-29,true,1.00,1187,416,1180,406,69594,0
patternCount-30,true,1.00,743,424,727,414,44138,0
patternCount-31,true,1.00,2437,553,2425,543,143635,0
patternCount-32,true,1.00,1906,503,1896,493,109954,0
patternCount-33,false,0.80,5646,624,5634,624,321541,0
patternCount-34,true,1.00,2909,561,2892,550,169787,0
patternCount-35,true,1.00,1039,438,1032,428,62219,0
patternCount-36,true,1.00,5282,624,5271,602,302789,0
patternCount-37,true,1.00,1241,428,1233,418,72217,0
patternCount-38,true,1.00,6378,666,6364,656,368262,0
patternCount-39,true,1.00,1294,468,1286,458,75771,0
patternCount-40,true,1.00,11929,770,11918,753,701498,0
patternCount-41,true,1.00,3238,493,3229,482,182197,0
patternCount-42,true,1.00,2076,522,2064,512,116040,0
patternCount-43,true,1.00,1082,442,1072,432,66658,0
patternCount-44,true,1.00,692,405,683,395,42418,0
patternCount-45,true,1.00,1801,486,1782,475,101649,0
patternCount-46,true,1.00,3556,548,3546,538,216672,0
patternCount-47,true,1.00,1552,420,1546,410,93138,0
patternCount-48,true,1.00,2004,474,1997,464,123186,0
patternCount-49,true,1.00,1991,530,1986,518,116414,0
patternCount-50,false,0.90,7195,655,7185,655,440229,0
patternCount-51,true,1.00,1238,480,1230,469,73609,0
patternCount-52,true,1.00,1428,468,1414,457,84818,0
patternCount-53,false,0.74,5217,483,5208,483,311005,0
patternCount-54,true,1.00,1894,487,1881,477,116107,0
patternCount-55,false,0.56,6757,470,6749,470,398646,0
patternCount-56,true,1.00,1674,482,1662,472,103659,0
patternCount-57,true,1.00,968,457,953,447,59330,0
patternCount-58,true,1.00,820,428,813,418,53908,0
patternCount-59,true,1.00,1539,424,1526,414,94889,0
patternCount-60,true,1.00,1497,456,1488,446,89493,0
patternCount-61,true,1.00,1485,498,1472,487,88072,0
patternCount-62,true,1.00,1209,490,1201,476,72755,0
patternCount-63,true,1.00,742,422,734,412,46561,0
patternCount-64,true,1.00,1343,403,1336,393,86292,0
patternCount-65,true,1.00,998,425,988,414,60867,0
patternCount-66,true,1.00,1752,455,1739,445,110397,0
patternCount-67,true,1.00,1683,434,1676,423,103255,0
patternCount-68,true,1.00,833,431,823,421,51924,0
patternCount-69,true,1.00,1173,433,1163,423,73145,0
patternCount-70,true,1.00,1037,422,1026,412,66078,0
patternCount-71,true,1.00,1863,510,1852,496,118049,0
patternCount-72,false,0.82,9383,669,9372,669,572168,0
patternCount-73,true,1.00,3279,561,3265,551,197416,0
patternCount-74,false,0.54,3070,399,3067,399,177529,0
patternCount-75,true,1.00,1261,468,1253,458,77522,0
patternCount-76,true,1.00,1683,466,1668,456,105056,0
patternCount-77,true,1.00,1386,454,1375,444,83410,0
patternCount-78,true,1.00,1997,471,1990,461,126668,0
patternCount-79,false,0.75,3063,437,3057,437,184920,0
patternCount-80,true,1.00,5278,622,5269,604,302812,0
patternCount-81,true,1.00,1280,442,1271,432,76251,0
patternCount-82,true,1.00,1257,433,1253,423,79311,0
patternCount-83,true,1.00,1282,487,1272,477,76787,0
patternCount-84,true,1.00,919,444,906,434,56503,0
patternCount-85,true,1.00,1086,471,1077,461,67978,0
patternCount-86,true,1.00,1818,457,1807,447,113572,0
patternCount-87,true,1.00,1559,434,1551,424,94592,0
patternCount-88,true,1.00,1745,461,1734,449,107807,0
patternCount-89,true,1.00,2372,512,2357,502,146181,0
patternCount-90,true,1.00,1157,451,1147,441,72557,0
patternCount-91,true,1.00,2226,531,2218,521,132539,0
patternCount-92,true,1.00,865,387,854,377,53304,0
patternCount-93,false,0.79,9654,684,9648,684,558778,0
patternCount-94,true,1.00,1418,423,1413,412,85521,0
patternCount-95,true,1.00,2923,537,2909,527,178657,0
patternCount-96,true,1.00,1426,545,1417,535,84882,0
patternCount-97,false,0.81,7955,539,7949,539,455227,0
patternCount-98,true,1.00,872,393,861,383,53726,0
patternCount-99,true,1.00,1071,448,1060,438,65020,0
patternCount-100,true,1.00,951,463,942,453,58483,0
