NDW:0.0
TTFW:0.8
DFPT:2.0
DFPAP:3.0
DFPMP:3.0
RIGHT_WINDOW_BORDER_X:75.0
level,win/fail,% travelled,run time,game ticks,planning time,total plannings,nodes evaluated,most backtracked nodes
hopper-1,false,0.50,4165,347,4158,347,171793,0
hopper-2,true,1.00,6152,638,6143,630,314684,0
hopper-3,false,0.24,3372,188,3370,188,159871,0
hopper-4,false,0.26,2987,190,2987,190,151953,0
hopper-5,false,0.49,5794,398,5790,398,293869,0
hopper-6,true,1.00,5620,547,5614,540,289851,0
hopper-7,false,0.83,5700,481,5693,481,274889,0
hopper-8,false,0.42,3295,248,3291,248,157718,0
hopper-9,true,1.00,9687,733,9662,726,449129,0
hopper-10,true,1.00,6001,571,5987,563,279726,0
hopper-11,true,1.00,3611,515,3602,508,188757,0
hopper-12,true,1.00,3500,473,3493,465,190981,0
hopper-13,true,1.00,8572,705,8559,698,466007,0
hopper-14,true,1.00,7259,639,7251,632,386257,0
hopper-15,true,1.00,4800,547,4795,538,243821,0
hopper-16,false,0.54,7117,426,7114,426,307084,0
hopper-17,true,1.00,4227,540,4220,533,216103,0
hopper-18,true,1.00,5479,557,5470,550,264699,0
hopper-19,true,1.00,4309,514,4297,507,221160,0
hopper-20,true,1.00,6360,609,6351,601,311321,0
hopper-21,false,0.61,6461,449,6451,449,309297,0
hopper-22,false,0.32,2806,204,2800,204,131523,0
hopper-23,true,1.00,5894,558,5882,551,295829,0
hopper-24,true,1.00,3127,469,3116,462,161347,0
hopper-25,true,1.00,6048,608,6036,600,319786,0
hopper-26,true,1.00,7223,636,7217,628,347769,0
hopper-27,true,1.00,6644,649,6626,642,314000,0
hopper-28,false,0.30,6219,362,6213,362,297165,0
hopper-29,false,0.26,3052,182,3049,182,145544,0
hopper-30,false,0.72,4132,412,4127,412,211334,0
hopper-31,false,0.78,6643,550,6635,550,307234,0
hopper-32,true,1.00,11640,782,11628,775,534714,0
hopper-33,false,0.48,26661,999,26657,999,1151691,0
hopper-34,false,0.30,3418,247,3415,247,135911,0
hopper-35,true,1.00,10396,739,10381,731,543261,0
hopper-36,true,1.00,4336,552,4326,545,220595,0
hopper-37,false,0.51,3287,296,3278,296,156998,0
hopper-38,false,0.52,4729,363,4724,363,229015,0
hopper-39,false,0.52,5487,354,5483,354,264840,0
hopper-40,true,1.00,6865,597,6853,590,287661,0
hopper-41,false,0.24,1075,118,1071,118,48331,0
hopper-42,true,1.00,4393,536,4379,528,181529,0
hopper-43,false,0.44,5970,357,5967,357,272471,0
hopper-44,false,0.40,7253,394,7250,394,346019,0
hopper-45,false,0.42,3453,283,3445,283,158469,0
hopper-46,false,0.65,24183,999,24171,999,1141838,0
hopper-47,true,1.00,8871,669,8859,661,398341,0
hopper-48,true,1.00,5559,578,5547,570,236338,0
hopper-49,false,0.37,9254,485,9252,485,477704,0
hopper-50,false,0.62,6634,452,6626,452,317265,0
hopper-51,false,0.33,2733,205,2723,205,103212,0
hopper-52,true,1.00,5354,568,5336,561,264658,0
hopper-53,false,0.62,10130,577,10122,577,467026,0
hopper-54,true,1.00,4926,499,4912,492,232172,0
hopper-55,true,1.00,6418,603,6403,596,325039,0
hopper-56,true,1.00,4102,525,4092,518,212180,0
hopper-57,true,1.00,3042,539,3032,532,142224,0
hopper-58,true,1.00,6561,623,6544,615,344976,0
hopper-59,false,0.20,2178,148,2176,148,115426,0
hopper-60,true,1.00,7334,641,7324,633,386556,0
hopper-61,false,0.82,10645,652,10628,652,450933,0
hopper-62,true,1.00,7850,642,7836,635,378749,0
hopper-63,false,0.22,2889,167,2889,167,124185,0
hopper-64,true,1.00,8461,663,8449,656,404530,0
hopper-65,false,0.13,1844,111,1843,111,81188,0
hopper-66,false,0.74,3426,367,3416,367,152817,0
hopper-67,true,1.00,4606,510,4600,502,235666,0
hopper-68,true,1.00,1788,448,1778,441,87895,0
hopper-69,false,0.83,21904,999,21893,999,963759,0
hopper-70,true,1.00,7718,619,7708,611,407478,0
hopper-71,true,1.00,4088,492,4076,485,205192,0
hopper-72,false,0.56,6130,404,6128,404,292176,0
hopper-73,false,0.82,6728,562,6718,562,328434,0
hopper-74,true,1.00,3859,507,3854,500,186468,0
hopper-75,true,1.00,7724,713,7713,706,393184,0
hopper-76,true,1.00,5066,562,5059,554,253694,0
hopper-77,true,1.00,2534,482,2526,475,121957,0
hopper-78,true,1.00,8830,701,8811,694,438582,0
hopper-79,true,1.00,3428,555,3416,547,160152,0
hopper-80,false,0.23,2950,203,2948,203,132571,0
hopper-81,false,0.38,4080,303,4073,303,181738,0
hopper-82,false,0.45,2604,284,2598,284,90477,0
hopper-83,true,1.00,6673,598,6663,591,328880,0
hopper-84,false,0.21,2645,217,2633,217,134970,0
hopper-85,false,0.79,5588,463,5576,463,269248,0
hopper-86,true,1.00,7966,683,7952,675,373606,0
hopper-87,true,1.00,7212,624,7191,617,320689,0
hopper-88,true,1.00,4641,574,4621,567,215716,0
hopper-89,false,0.13,1844,111,1843,111,83081,0
hopper-90,true,1.00,5709,602,5697,595,278662,0
hopper-91,true,1.00,9389,698,9382,691,449120,0
hopper-92,true,1.00,5554,627,5543,620,249661,0
hopper-93,true,1.00,3363,476,3345,468,163200,0
hopper-94,true,1.00,6444,639,6429,632,330357,0
hopper-95,false,0.65,5483,418,5478,418,250473,0
hopper-96,false,0.13,1841,111,1841,111,83315,0
hopper-97,true,1.00,8023,686,8013,678,373562,0
hopper-98,true,1.00,8549,657,8543,650,404593,0
hopper-99,false,0.78,10050,686,10038,686,478396,0
hopper-100,false,0.21,3257,197,3254,197,121540,0
