NDW:0.0
TTFW:0.6
DFPT:2.0
DFPAP:3.0
DFPMP:20.0
RIGHT_WINDOW_BORDER_X:155.0
level,win/fail,% travelled,run time,game ticks,planning time,total plannings,nodes evaluated,most backtracked nodes
patternOccur-1,true,1.00,901,393,892,379,44714,0
patternOccur-2,true,1.00,839,406,832,392,42651,0
patternOccur-3,true,1.00,1979,477,1972,463,101407,0
patternOccur-4,true,1.00,1644,448,1633,434,85984,0
patternOccur-5,true,1.00,1083,390,1073,376,54791,0
patternOccur-6,true,1.00,1633,437,1627,423,84046,0
patternOccur-7,true,1.00,1438,415,1429,401,74203,0
patternOccur-8,true,1.00,1416,395,1407,381,72790,0
patternOccur-9,true,1.00,2283,443,2270,429,116403,0
patternOccur-10,true,1.00,851,371,843,357,44749,0
patternOccur-11,false,0.87,4513,487,4503,487,194829,0
patternOccur-12,true,1.00,1808,469,1789,454,96221,0
patternOccur-13,true,1.00,1263,409,1258,395,67744,0
patternOccur-14,true,1.00,5127,490,5114,468,267563,0
patternOccur-15,true,1.00,1794,414,1782,400,95632,0
patternOccur-16,false,0.92,7104,508,7094,508,341848,0
patternOccur-17,true,1.00,2113,449,2099,435,80082,0
patternOccur-18,true,1.00,1547,444,1533,430,77607,0
patternOccur-19,false,0.82,7458,578,7446,578,377758,0
patternOccur-20,true,1.00,1447,433,1437,419,74523,0
patternOccur-21,true,1.00,1524,379,1517,365,79475,0
patternOccur-22,false,0.84,4379,436,4373,436,215352,0
patternOccur-23,true,1.00,2011,467,1995,453,102277,0
patternOccur-24,true,1.00,1419,491,1407,477,70903,0
patternOccur-25,true,1.00,1446,435,1436,421,72853,0
patternOccur-26,true,1.00,789,376,780,362,40582,0
patternOccur-27,false,0.90,3299,443,3290,443,167190,0
patternOccur-28,true,1.00,1547,404,1538,390,80978,0
patternOccur-29,true,1.00,1102,387,1090,369,55885,0
patternOccur-30,true,1.00,1167,439,1160,425,60089,0
patternOccur-31,false,0.77,4413,472,4406,472,218661,0
patternOccur-32,false,0.92,5362,534,5353,534,267720,0
patternOccur-33,true,1.00,1506,426,1489,412,77018,0
patternOccur-34,true,1.00,1411,405,1403,391,74376,0
patternOccur-35,true,1.00,1498,467,1485,453,76412,0
patternOccur-36,true,1.00,3721,470,3711,454,189487,0
patternOccur-37,false,0.96,4715,526,4704,526,234116,0
patternOccur-38,true,1.00,1166,381,1160,367,60563,0
patternOccur-39,false,0.79,5593,464,5581,464,277861,0
patternOccur-40,true,1.00,1804,414,1794,400,93941,0
patternOccur-41,true,1.00,1965,496,1955,471,99677,0
patternOccur-42,false,0.88,2260,383,2251,383,115296,0
patternOccur-43,true,1.00,1244,410,1237,396,64032,0
patternOccur-44,true,1.00,1395,404,1387,390,73381,0
patternOccur-45,true,1.00,4142,493,4132,473,203862,0
patternOccur-46,true,1.00,986,412,973,398,50562,0
patternOccur-47,false,0.87,3625,444,3619,444,184082,0
patternOccur-48,true,1.00,1414,400,1402,386,73355,0
patternOccur-49,true,1.00,1562,413,1545,399,81318,0
patternOccur-50,true,1.00,2216,445,2211,431,111802,0
patternOccur-51,true,1.00,1932,405,1919,391,102036,0
patternOccur-52,true,1.00,1662,482,1646,462,84521,0
patternOccur-53,true,1.00,1570,426,1555,412,79244,0
patternOccur-54,true,1.00,1929,432,1917,418,101190,0
patternOccur-55,true,1.00,2546,490,2538,476,130384,0
patternOccur-56,true,1.00,1447,422,1440,408,75279,0
patternOccur-57,true,1.00,2457,463,2450,447,127397,0
patternOccur-58,false,0.92,6362,545,6357,545,312163,0
patternOccur-59,true,1.00,1669,426,1658,412,86191,0
patternOccur-60,true,1.00,3702,486,3701,468,185706,0
patternOccur-61,true,1.00,1260,365,1253,351,67650,0
patternOccur-62,true,1.00,1175,386,1172,372,61502,0
patternOccur-63,true,1.00,1430,418,1421,404,75422,0
patternOccur-64,true,1.00,1989,436,1977,421,104334,0
patternOccur-65,true,1.00,1257,451,1243,437,64258,0
patternOccur-66,true,1.00,2126,484,2110,470,110736,0
patternOccur-67,false,0.88,5307,454,5302,454,258153,0
patternOccur-68,true,1.00,1134,397,1122,383,58619,0
patternOccur-69,false,0.86,3018,409,3006,409,147846,0
patternOccur-70,false,0.87,3551,433,3542,433,182232,0
patternOccur-71,true,1.00,2791,501,2781,487,147105,0
patternOccur-72,false,0.84,4287,519,4273,519,219070,0
patternOccur-73,true,1.00,6452,561,6444,541,318689,0
patternOccur-74,true,1.00,5425,530,5413,512,268478,0
patternOccur-75,true,1.00,1896,427,1884,411,96774,0
patternOccur-76,true,1.00,1317,376,1307,362,69391,0
patternOccur-77,true,1.00,727,402,720,388,36775,0
patternOccur-78,true,1.00,1226,404,1217,390,61510,0
patternOccur-79,true,1.00,1552,412,1545,398,82033,0
patternOccur-80,true,1.00,7479,647,7465,632,368484,0
patternOccur-81,false,0.90,4176,442,4170,442,201599,0
patternOccur-82,false,0.96,1687,381,1673,381,86750,0
patternOccur-83,true,1.00,1463,451,1454,437,73527,0
patternOccur-84,true,1.00,799,346,792,332,41008,0
patternOccur-85,true,1.00,3848,466,3840,441,192050,0
patternOccur-86,true,1.00,4323,483,4315,463,208663,0
patternOccur-87,true,1.00,841,389,834,375,44206,0
patternOccur-88,true,1.00,1537,420,1529,406,79621,0
patternOccur-89,true,1.00,1795,430,1782,416,92274,0
patternOccur-90,true,1.00,2169,467,2155,452,113200,0
patternOccur-91,true,1.00,1835,432,1820,418,95327,0
patternOccur-92,true,1.00,1002,384,991,370,50585,0
patternOccur-93,true,1.00,1511,407,1505,393,76994,0
patternOccur-94,false,0.91,6180,517,6165,517,300378,0
patternOccur-95,true,1.00,1407,437,1391,423,72862,0
patternOccur-96,false,0.86,2325,424,2315,424,113222,0
patternOccur-97,true,1.00,1936,399,1933,385,102901,0
patternOccur-98,false,0.90,4057,470,4050,470,197111,0
patternOccur-99,true,1.00,725,377,713,363,38023,0
patternOccur-100,true,1.00,1274,386,1262,372,64171,0
