NDW:0.0
TTFW:1.8
DFPT:2.0
DFPAP:3.0
DFPMP:1.0
RIGHT_WINDOW_BORDER_X:400.0
level,win/fail,% travelled,run time,game ticks,planning time,total plannings,nodes evaluated,most backtracked nodes
hopper-1,true,1.00,1453,321,1443,284,61100,0
hopper-2,true,1.00,1505,317,1497,280,64286,0
hopper-3,false,0.25,1254,83,1252,83,46749,0
hopper-4,false,0.28,1277,94,1275,94,51363,0
hopper-5,true,1.00,1267,328,1253,292,52808,0
hopper-6,true,1.00,1179,307,1171,271,50184,0
hopper-7,false,0.84,2115,255,2109,255,83691,0
hopper-8,false,0.42,1689,139,1685,139,65435,0
hopper-9,true,1.00,1296,320,1285,273,53705,0
hopper-10,true,1.00,1223,317,1211,281,51301,0
hopper-11,true,1.00,1050,325,1043,288,43417,0
hopper-12,true,1.00,1165,320,1148,283,46472,0
hopper-13,false,0.40,1833,127,1830,127,72176,0
hopper-14,true,1.00,1269,320,1259,284,53324,0
hopper-15,true,1.00,1349,301,1339,265,55665,0
hopper-16,false,0.55,1787,169,1778,169,69187,0
hopper-17,true,1.00,987,309,981,273,40777,0
hopper-18,true,1.00,1146,310,1131,274,46953,0
hopper-19,true,1.00,973,311,966,274,39544,0
hopper-20,true,1.00,1763,333,1748,288,72463,0
hopper-21,false,0.62,2012,199,2005,199,65000,0
hopper-22,false,0.33,1586,108,1582,108,39593,0
hopper-23,true,1.00,1339,310,1321,274,54083,0
hopper-24,true,1.00,1019,311,1003,268,39602,0
hopper-25,true,1.00,1346,309,1330,273,58326,0
hopper-26,true,1.00,1416,301,1408,265,57007,0
hopper-27,true,1.00,1234,299,1223,263,48789,0
hopper-28,false,0.86,2800,283,2791,283,103041,0
hopper-29,false,0.26,1263,87,1261,87,41937,0
hopper-30,true,1.00,1280,344,1270,290,49479,0
hopper-31,false,0.77,2306,244,2301,244,92635,0
hopper-32,true,1.00,1421,299,1410,263,61374,0
hopper-33,false,0.50,1446,169,1437,169,54111,0
hopper-34,false,0.32,1596,102,1592,102,62319,0
hopper-35,true,1.00,1883,332,1875,293,81880,0
hopper-36,true,1.00,1081,314,1072,278,45307,0
hopper-37,false,0.51,1487,166,1482,166,54493,0
hopper-38,true,1.00,2139,309,2132,273,80052,0
hopper-39,false,0.53,1694,171,1689,171,60466,0
hopper-40,true,1.00,1260,321,1244,285,48180,0
hopper-41,true,1.00,1714,301,1700,265,70192,0
hopper-42,true,1.00,1606,317,1598,281,65412,0
hopper-43,false,0.45,2066,142,2061,142,77519,0
hopper-44,true,1.00,1294,315,1282,279,50345,0
hopper-45,false,0.43,1806,150,1802,150,67797,0
hopper-46,false,0.68,2272,234,2265,234,89313,0
hopper-47,true,1.00,1559,305,1545,269,64681,0
hopper-48,true,1.00,1443,323,1433,286,59538,0
hopper-49,true,1.00,1564,321,1550,285,62402,0
hopper-50,false,0.63,2000,201,1995,201,75748,0
hopper-51,false,0.34,1537,109,1535,109,55500,0
hopper-52,true,1.00,983,307,967,270,34296,0
hopper-53,false,0.63,2346,226,2342,226,80119,0
hopper-54,true,1.00,823,297,809,261,27602,0
hopper-55,true,1.00,1476,354,1460,305,52444,0
hopper-56,true,1.00,958,297,947,261,32466,0
hopper-57,true,1.00,1288,327,1272,291,43575,0
hopper-58,false,0.58,1903,180,1895,180,68156,0
hopper-59,true,1.00,1036,306,1018,270,41887,0
hopper-60,true,1.00,1146,328,1133,284,46091,0
hopper-61,false,0.83,2468,250,2463,250,91886,0
hopper-62,true,1.00,1642,329,1629,291,59885,0
hopper-63,false,0.23,1251,78,1248,78,45798,0
hopper-64,true,1.00,1367,315,1355,279,49605,0
hopper-65,true,1.00,1449,318,1426,269,50657,0
hopper-66,false,0.75,1970,250,1967,250,63895,0
hopper-67,true,1.00,958,335,941,291,35253,0
hopper-68,true,1.00,921,328,909,290,32018,0
hopper-69,false,0.84,2162,273,2149,273,72660,0
hopper-70,true,1.00,1493,310,1484,272,50324,0
hopper-71,true,1.00,861,303,845,267,31209,0
hopper-72,true,1.00,1558,303,1544,267,60507,0
hopper-73,true,1.00,1412,315,1403,279,59208,0
hopper-74,true,1.00,1065,305,1054,269,44630,0
hopper-75,true,1.00,1329,317,1321,281,56187,0
hopper-76,false,0.48,1913,149,1910,149,73662,0
hopper-77,true,1.00,1352,350,1341,305,52896,0
hopper-78,true,1.00,1299,308,1291,260,52733,0
hopper-79,true,1.00,1106,321,1100,262,44438,0
hopper-80,true,1.00,1131,309,1120,273,46890,0
hopper-81,false,0.39,1770,123,1767,123,62714,0
hopper-82,true,1.00,2132,323,2121,278,73266,0
hopper-83,true,1.00,1643,313,1638,277,62949,0
hopper-84,true,1.00,1461,303,1447,267,55927,0
hopper-85,true,1.00,1346,339,1328,303,49423,0
hopper-86,true,1.00,1340,323,1329,287,52515,0
hopper-87,true,1.00,1437,313,1422,277,59804,0
hopper-88,true,1.00,1265,329,1249,293,50331,0
hopper-89,true,1.00,1227,336,1213,299,49173,0
hopper-90,true,1.00,1392,323,1384,276,56412,0
hopper-91,true,1.00,1357,322,1345,286,54232,0
hopper-92,true,1.00,1356,313,1349,277,54265,0
hopper-93,true,1.00,934,317,921,280,36355,0
hopper-94,false,0.65,1986,205,1983,205,73646,0
hopper-95,true,1.00,1120,309,1110,273,45678,0
hopper-96,true,1.00,1638,297,1627,261,67210,0
hopper-97,true,1.00,1641,323,1635,275,66883,0
hopper-98,true,1.00,1781,333,1765,297,71323,0
hopper-99,true,1.00,2360,317,2349,281,97588,0
hopper-100,true,1.00,1446,332,1429,285,63828,0
