NDW:0.0
TTFW:1.0
DFPT:2.0
DFPAP:3.0
DFPMP:20.0
RIGHT_WINDOW_BORDER_X:400.0
level,win/fail,% travelled,run time,game ticks,planning time,total plannings,nodes evaluated,most backtracked nodes
patternWeightCount-1,true,1.00,3239,442,3228,398,185056,0
patternWeightCount-2,true,1.00,817,404,809,367,42991,0
patternWeightCount-3,true,1.00,732,396,719,356,36188,0
patternWeightCount-4,true,1.00,818,376,803,333,41822,0
patternWeightCount-5,true,1.00,1669,457,1656,418,88345,0
patternWeightCount-6,true,1.00,1730,411,1718,373,93421,0
patternWeightCount-7,true,1.00,1100,441,1087,405,56337,0
patternWeightCount-8,true,1.00,1110,406,1103,370,48688,0
patternWeightCount-9,true,1.00,1336,441,1326,396,71516,0
patternWeightCount-10,true,1.00,1074,439,1061,403,55484,0
patternWeightCount-11,true,1.00,623,428,616,392,28654,0
patternWeightCount-12,true,1.00,1773,444,1762,407,93248,0
patternWeightCount-13,true,1.00,1306,415,1299,371,72962,0
patternWeightCount-14,true,1.00,971,417,959,367,49942,0
patternWeightCount-15,true,1.00,1621,398,1611,362,89850,0
patternWeightCount-16,true,1.00,3065,470,3054,416,176286,0
patternWeightCount-17,true,1.00,1163,484,1144,448,55327,0
patternWeightCount-18,true,1.00,1113,411,1102,375,57622,0
patternWeightCount-19,true,1.00,890,448,875,412,41156,0
patternWeightCount-20,true,1.00,5213,444,5205,389,276307,0
patternWeightCount-21,true,1.00,1019,456,1009,407,46047,0
patternWeightCount-22,true,1.00,2842,479,2834,414,159915,0
patternWeightCount-23,true,1.00,1268,465,1258,415,64987,0
patternWeightCount-24,true,1.00,1125,382,1118,334,61070,0
patternWeightCount-25,true,1.00,1915,440,1906,404,105782,0
patternWeightCount-26,true,1.00,1415,446,1405,409,75246,0
patternWeightCount-27,true,1.00,2149,448,2138,383,119127,0
patternWeightCount-28,true,1.00,1413,453,1403,417,73639,0
patternWeightCount-29,true,1.00,1144,423,1139,387,58465,0
patternWeightCount-30,true,1.00,3607,452,3592,391,178962,0
patternWeightCount-31,true,1.00,1707,406,1691,370,76230,0
patternWeightCount-32,true,1.00,901,419,890,382,45109,0
patternWeightCount-33,true,1.00,987,423,976,387,50879,0
patternWeightCount-34,true,1.00,1318,418,1312,382,68909,0
patternWeightCount-35,true,1.00,2124,427,2118,391,108860,0
patternWeightCount-36,true,1.00,1730,446,1718,410,91346,0
patternWeightCount-37,true,1.00,968,415,954,379,48046,0
patternWeightCount-38,true,1.00,2053,455,2050,402,105370,0
patternWeightCount-39,true,1.00,1161,377,1151,341,61094,0
patternWeightCount-40,true,1.00,1456,465,1447,429,76491,0
patternWeightCount-41,true,1.00,1460,477,1448,413,74822,0
patternWeightCount-42,false,0.88,2982,368,2974,368,150481,0
patternWeightCount-43,true,1.00,1386,391,1379,347,75042,0
patternWeightCount-44,true,1.00,1850,501,1844,448,100056,0
patternWeightCount-45,true,1.00,3170,483,3161,440,171075,0
patternWeightCount-46,true,1.00,4577,491,4570,439,227065,0
patternWeightCount-47,true,1.00,1007,424,996,388,49897,0
patternWeightCount-48,true,1.00,857,432,846,396,42194,0
patternWeightCount-49,true,1.00,915,390,901,354,47388,0
patternWeightCount-50,true,1.00,1089,412,1083,376,57583,0
patternWeightCount-51,true,1.00,1349,422,1340,368,73922,0
patternWeightCount-52,true,1.00,1697,452,1682,403,91145,0
patternWeightCount-53,true,1.00,2700,424,2694,371,148288,0
patternWeightCount-54,true,1.00,1148,429,1145,392,57174,0
patternWeightCount-55,true,1.00,1379,406,1367,369,74036,0
patternWeightCount-56,true,1.00,1302,425,1295,389,67925,0
patternWeightCount-57,true,1.00,591,387,584,351,29083,0
patternWeightCount-58,true,1.00,1505,445,1496,396,81269,0
patternWeightCount-59,true,1.00,761,407,756,363,37848,0
patternWeightCount-60,true,1.00,1610,513,1599,451,82063,0
patternWeightCount-61,true,1.00,1276,416,1264,363,69163,0
patternWeightCount-62,true,1.00,2498,475,2488,398,139389,0
patternWeightCount-63,true,1.00,1616,426,1604,390,76308,0
patternWeightCount-64,true,1.00,2035,462,2016,426,95411,0
patternWeightCount-65,true,1.00,1613,464,1603,414,88038,0
patternWeightCount-66,true,1.00,1291,434,1282,398,65078,0
patternWeightCount-67,true,1.00,1565,431,1557,395,79043,0
patternWeightCount-68,false,0.85,20831,999,20824,999,711827,0
patternWeightCount-69,true,1.00,1713,419,1701,354,91655,0
patternWeightCount-70,true,1.00,1252,468,1242,407,64469,0
patternWeightCount-71,true,1.00,971,419,960,363,49281,0
patternWeightCount-72,true,1.00,4671,489,4661,444,229509,0
patternWeightCount-73,true,1.00,5211,457,5204,411,282934,0
patternWeightCount-74,true,1.00,996,409,985,373,50535,0
patternWeightCount-75,true,1.00,1186,414,1177,378,61200,0
patternWeightCount-76,true,1.00,1163,465,1140,428,58574,0
patternWeightCount-77,true,1.00,1302,419,1295,383,68833,0
patternWeightCount-78,true,1.00,2424,477,2415,427,122568,0
patternWeightCount-79,true,1.00,833,388,824,352,41597,0
patternWeightCount-80,true,1.00,1602,459,1585,422,85042,0
patternWeightCount-81,true,1.00,3552,462,3541,385,190895,0
patternWeightCount-82,true,1.00,396,411,381,352,16628,0
patternWeightCount-83,true,1.00,821,389,815,347,41921,0
patternWeightCount-84,true,1.00,1079,447,1071,410,55325,0
patternWeightCount-85,true,1.00,1589,414,1577,366,87653,0
patternWeightCount-86,false,0.94,2953,395,2947,395,150209,0
patternWeightCount-87,true,1.00,5451,462,5437,407,233381,0
patternWeightCount-88,true,1.00,1451,421,1440,378,73903,0
patternWeightCount-89,true,1.00,1170,412,1162,376,59028,0
patternWeightCount-90,true,1.00,4760,473,4753,423,187238,0
patternWeightCount-91,true,1.00,1242,429,1230,384,62073,0
patternWeightCount-92,true,1.00,4086,492,4074,417,229616,0
patternWeightCount-93,true,1.00,3095,436,3083,383,164962,0
patternWeightCount-94,true,1.00,1556,449,1548,412,77185,0
patternWeightCount-95,true,1.00,1556,444,1544,408,79369,0
patternWeightCount-96,true,1.00,1067,434,1050,395,52317,0
patternWeightCount-97,true,1.00,942,366,934,318,49166,0
patternWeightCount-98,true,1.00,4555,464,4547,412,251012,0
patternWeightCount-99,true,1.00,1459,416,1447,369,76017,0
patternWeightCount-100,true,1.00,1251,427,1239,391,63436,0
