NDW:0.0
TTFW:0.8
DFPT:2.0
DFPAP:3.0
DFPMP:10.0
RIGHT_WINDOW_BORDER_X:195.0
level,win/fail,% travelled,run time,game ticks,planning time,total plannings,nodes evaluated,most backtracked nodes
patternOccur-1,true,1.00,897,430,894,413,86791,0
patternOccur-2,true,1.00,577,405,575,388,58697,0
patternOccur-3,true,1.00,1376,436,1372,418,137200,0
patternOccur-4,true,1.00,1390,418,1389,401,137950,0
patternOccur-5,true,1.00,570,408,566,391,57233,0
patternOccur-6,true,1.00,1385,442,1381,425,138552,0
patternOccur-7,true,1.00,1261,421,1257,403,126002,0
patternOccur-8,true,1.00,1588,412,1586,395,157804,0
patternOccur-9,true,1.00,1710,430,1706,409,165274,0
patternOccur-10,true,1.00,652,411,650,393,67367,0
patternOccur-11,true,1.00,4235,521,4231,503,377835,0
patternOccur-12,true,1.00,1334,469,1329,447,135327,0
patternOccur-13,true,1.00,814,421,813,404,80060,0
patternOccur-14,true,1.00,3565,429,3561,405,326913,0
patternOccur-15,true,1.00,1181,382,1179,365,115526,0
patternOccur-16,true,1.00,4290,449,4289,431,388177,0
patternOccur-17,true,1.00,1084,426,1078,409,105929,0
patternOccur-18,true,1.00,726,389,724,372,72662,0
patternOccur-19,false,0.82,5234,471,5231,471,470929,0
patternOccur-20,true,1.00,876,410,870,393,89892,0
patternOccur-21,true,1.00,970,441,968,422,97870,0
patternOccur-22,false,0.84,3064,424,3063,424,276116,0
patternOccur-23,true,1.00,1274,426,1269,409,122909,0
patternOccur-24,true,1.00,882,417,879,400,89225,0
patternOccur-25,true,1.00,1049,419,1048,402,107306,0
patternOccur-26,true,1.00,665,398,659,381,65858,0
patternOccur-27,true,1.00,4277,510,4274,467,384518,0
patternOccur-28,true,1.00,1135,435,1132,417,113063,0
patternOccur-29,true,1.00,696,375,695,348,68306,0
patternOccur-30,true,1.00,966,408,964,391,94824,0
patternOccur-31,false,0.88,6133,527,6127,527,551179,0
patternOccur-32,true,1.00,4519,459,4516,440,422231,0
patternOccur-33,true,1.00,1206,421,1205,404,118539,0
patternOccur-34,true,1.00,1177,426,1175,409,117086,0
patternOccur-35,true,1.00,1045,408,1042,390,102135,0
patternOccur-36,true,1.00,3013,483,3010,461,293700,0
patternOccur-37,true,1.00,3172,461,3171,425,285545,0
patternOccur-38,true,1.00,913,404,912,387,93505,0
patternOccur-39,false,0.78,22221,999,22218,999,1702187,0
patternOccur-40,true,1.00,1280,403,1275,386,133788,0
patternOccur-41,true,1.00,1113,392,1111,365,113199,0
patternOccur-42,false,0.89,3670,454,3669,454,323891,0
patternOccur-43,true,1.00,1019,398,1018,381,105327,0
patternOccur-44,true,1.00,1136,408,1134,390,111656,0
patternOccur-45,true,1.00,2576,458,2575,440,233892,0
patternOccur-46,true,1.00,896,457,893,440,86140,0
patternOccur-47,true,1.00,3358,466,3355,440,309489,0
patternOccur-48,true,1.00,1142,430,1139,413,113080,0
patternOccur-49,true,1.00,861,401,856,384,87715,0
patternOccur-50,true,1.00,1400,400,1398,382,134793,0
patternOccur-51,true,1.00,1361,458,1358,439,136980,0
patternOccur-52,true,1.00,1165,423,1163,405,119091,0
patternOccur-53,true,1.00,1223,413,1221,396,120562,0
patternOccur-54,true,1.00,2028,414,2023,396,204163,0
patternOccur-55,true,1.00,1171,396,1169,379,118180,0
patternOccur-56,true,1.00,1226,422,1225,405,122981,0
patternOccur-57,true,1.00,1493,430,1491,411,145839,0
patternOccur-58,true,1.00,6368,546,6364,528,554664,0
patternOccur-59,true,1.00,984,420,982,402,101445,0
patternOccur-60,true,1.00,2955,486,2952,457,264818,0
patternOccur-61,true,1.00,1068,435,1065,416,109475,0
patternOccur-62,true,1.00,1105,397,1103,380,110764,0
patternOccur-63,true,1.00,1079,447,1073,423,109207,0
patternOccur-64,true,1.00,1601,447,1598,430,163641,0
patternOccur-65,true,1.00,710,431,710,414,71793,0
patternOccur-66,true,1.00,1082,429,1077,411,110381,0
patternOccur-67,true,1.00,1222,424,1218,406,127689,0
patternOccur-68,true,1.00,846,436,843,419,84327,0
patternOccur-69,true,1.00,6391,604,6387,568,566185,0
patternOccur-70,false,0.86,6718,512,6715,512,595503,0
patternOccur-71,true,1.00,1572,419,1567,402,168803,0
patternOccur-72,false,0.87,5159,488,5154,488,426811,0
patternOccur-73,true,1.00,4265,474,4262,443,379075,0
patternOccur-74,true,1.00,2368,438,2366,407,216077,0
patternOccur-75,true,1.00,1689,448,1683,429,162409,0
patternOccur-76,true,1.00,1249,398,1246,381,126924,0
patternOccur-77,true,1.00,546,423,543,406,53800,0
patternOccur-78,true,1.00,555,364,553,347,55825,0
patternOccur-79,true,1.00,1105,430,1104,413,113493,0
patternOccur-80,true,1.00,5712,567,5709,535,516852,0
patternOccur-81,true,1.00,3471,440,3469,403,315739,0
patternOccur-82,true,1.00,1746,425,1745,395,162603,0
patternOccur-83,true,1.00,598,392,596,375,61407,0
patternOccur-84,true,1.00,845,425,843,408,84091,0
patternOccur-85,true,1.00,3339,461,3336,433,339146,0
patternOccur-86,true,1.00,5406,551,5403,510,468349,0
patternOccur-87,true,1.00,821,428,820,411,82807,0
patternOccur-88,true,1.00,1402,421,1399,403,141684,0
patternOccur-89,true,1.00,1183,433,1183,416,117910,0
patternOccur-90,true,1.00,1119,437,1116,419,116122,0
patternOccur-91,true,1.00,1224,444,1222,425,127533,0
patternOccur-92,true,1.00,599,401,597,384,59011,0
patternOccur-93,true,1.00,1276,411,1274,393,123873,0
patternOccur-94,true,1.00,4279,445,4273,427,391852,0
patternOccur-95,true,1.00,1219,425,1217,406,124083,0
patternOccur-96,false,0.87,1910,381,1907,381,169326,0
patternOccur-97,true,1.00,1924,402,1920,385,204388,0
patternOccur-98,false,0.90,2570,442,2568,442,228056,0
patternOccur-99,true,1.00,534,393,530,376,53659,0
patternOccur-100,true,1.00,1442,475,1437,458,133265,0
