NDW:0.0
TTFW:2.0
DFPT:2.0
DFPAP:3.0
DFPMP:2.0
RIGHT_WINDOW_BORDER_X:195.0
level,win/fail,% travelled,run time,game ticks,planning time,total plannings,nodes evaluated,most backtracked nodes
notchParamRand-1,true,1.00,880,312,876,295,50663,0
notchParamRand-2,true,1.00,122,308,113,291,5614,0
notchParamRand-3,true,1.00,933,306,925,289,56012,0
notchParamRand-4,true,1.00,1379,335,1371,318,83096,0
notchParamRand-5,true,1.00,194,306,185,289,10048,0
notchParamRand-6,true,1.00,400,314,395,297,22863,0
notchParamRand-7,true,1.00,209,294,200,277,10794,0
notchParamRand-8,true,1.00,473,306,468,289,25916,0
notchParamRand-9,true,1.00,600,336,592,319,35396,0
notchParamRand-10,true,1.00,813,361,802,344,47772,0
notchParamRand-11,true,1.00,104,294,95,277,4533,0
notchParamRand-12,true,1.00,307,324,299,307,16481,0
notchParamRand-13,true,1.00,1612,312,1606,295,97230,0
notchParamRand-14,true,1.00,935,312,923,295,54642,0
notchParamRand-15,true,1.00,529,308,522,291,31105,0
notchParamRand-16,true,1.00,349,300,338,283,20676,0
notchParamRand-17,true,1.00,78,303,69,286,2951,0
notchParamRand-18,true,1.00,1984,330,1978,313,99475,0
notchParamRand-19,true,1.00,207,328,197,311,10983,0
notchParamRand-20,true,1.00,1367,322,1359,305,82740,0
notchParamRand-21,true,1.00,72,296,65,279,2644,0
notchParamRand-22,true,1.00,827,314,818,297,49891,0
notchParamRand-23,true,1.00,987,340,980,323,58859,0
notchParamRand-24,true,1.00,209,339,204,322,10902,0
notchParamRand-25,true,1.00,83,308,74,290,3544,0
notchParamRand-26,true,1.00,461,340,453,323,25992,0
notchParamRand-27,true,1.00,210,300,201,283,11558,0
notchParamRand-28,true,1.00,418,315,410,298,23328,0
notchParamRand-29,true,1.00,74,298,65,281,2797,0
notchParamRand-30,true,1.00,1750,326,1743,309,104148,0
notchParamRand-31,true,1.00,377,316,366,299,21820,0
notchParamRand-32,true,1.00,103,294,97,277,4567,0
notchParamRand-33,true,1.00,1602,324,1595,307,98026,0
notchParamRand-34,true,1.00,926,316,915,299,50182,0
notchParamRand-35,true,1.00,520,318,510,301,28747,0
notchParamRand-36,true,1.00,128,302,112,283,2677,0
notchParamRand-37,true,1.00,393,310,386,293,22103,0
notchParamRand-38,true,1.00,1698,321,1691,304,97108,0
notchParamRand-39,true,1.00,1354,316,1349,299,71334,0
notchParamRand-40,true,1.00,1942,312,1934,295,107265,0
notchParamRand-41,true,1.00,67,294,58,277,2199,0
notchParamRand-42,true,1.00,467,316,458,299,27178,0
notchParamRand-43,true,1.00,206,300,199,283,11161,0
notchParamRand-44,true,1.00,318,302,312,285,18412,0
notchParamRand-45,true,1.00,845,320,835,303,47818,0
notchParamRand-46,true,1.00,525,311,519,294,30719,0
notchParamRand-47,true,1.00,781,316,771,299,44981,0
notchParamRand-48,true,1.00,1356,337,1349,320,80080,0
notchParamRand-49,true,1.00,812,306,804,289,27045,0
notchParamRand-50,true,1.00,1569,333,1550,316,56896,0
notchParamRand-51,true,1.00,197,315,184,298,9463,0
notchParamRand-52,true,1.00,695,304,686,287,40320,0
notchParamRand-53,true,1.00,912,326,902,309,53507,0
notchParamRand-54,true,1.00,1898,341,1894,324,112021,0
notchParamRand-55,true,1.00,1703,312,1697,295,100108,0
notchParamRand-56,true,1.00,626,319,616,302,37269,0
notchParamRand-57,true,1.00,943,312,939,295,56771,0
notchParamRand-58,true,1.00,827,349,820,332,47962,0
notchParamRand-59,true,1.00,499,311,491,294,29016,0
notchParamRand-60,true,1.00,636,311,627,294,37707,0
notchParamRand-61,true,1.00,484,306,480,289,28543,0
notchParamRand-62,true,1.00,484,320,477,303,27623,0
notchParamRand-63,true,1.00,1308,312,1303,295,77942,0
notchParamRand-64,true,1.00,270,296,263,279,15109,0
notchParamRand-65,true,1.00,1708,330,1696,313,102037,0
notchParamRand-66,true,1.00,277,327,270,310,14613,0
notchParamRand-67,true,1.00,285,300,278,283,15441,0
notchParamRand-68,true,1.00,1384,312,1377,295,82936,0
notchParamRand-69,true,1.00,220,309,214,292,12168,0
notchParamRand-70,true,1.00,657,323,649,306,39696,0
notchParamRand-71,true,1.00,306,326,296,309,16549,0
notchParamRand-72,true,1.00,106,294,101,277,4802,0
notchParamRand-73,true,1.00,519,308,513,291,29379,0
notchParamRand-74,true,1.00,76,296,69,279,2920,0
notchParamRand-75,true,1.00,67,294,58,277,2275,0
notchParamRand-76,true,1.00,1073,344,1065,327,62692,0
notchParamRand-77,true,1.00,1441,362,1433,345,82578,0
notchParamRand-78,true,1.00,973,310,966,293,58327,0
notchParamRand-79,true,1.00,186,298,175,281,9754,0
notchParamRand-80,true,1.00,271,304,267,287,14208,0
notchParamRand-81,true,1.00,280,298,272,281,16179,0
notchParamRand-82,true,1.00,756,312,752,295,44724,0
notchParamRand-83,true,1.00,1200,316,1196,299,71731,0
notchParamRand-84,true,1.00,316,300,308,283,17946,0
notchParamRand-85,true,1.00,65,294,54,277,2198,0
notchParamRand-86,true,1.00,556,352,555,335,32490,0
notchParamRand-87,true,1.00,1541,320,1535,303,94677,0
notchParamRand-88,true,1.00,275,300,270,283,15928,0
notchParamRand-89,true,1.00,313,300,302,283,17947,0
notchParamRand-90,true,1.00,617,317,611,300,35244,0
notchParamRand-91,true,1.00,66,294,62,277,2368,0
notchParamRand-92,true,1.00,894,324,885,307,51774,0
notchParamRand-93,true,1.00,293,317,285,290,16380,0
notchParamRand-94,true,1.00,1475,312,1466,295,88605,0
notchParamRand-95,true,1.00,750,316,746,299,44988,0
notchParamRand-96,true,1.00,439,321,430,304,24774,0
notchParamRand-97,true,1.00,1337,343,1326,326,79236,0
notchParamRand-98,true,1.00,198,294,190,277,11014,0
notchParamRand-99,true,1.00,199,310,194,293,10462,0
notchParamRand-100,true,1.00,1405,314,1401,297,84652,0
