NDW:0.0
TTFW:0.4
DFPT:2.0
DFPAP:3.0
DFPMP:5.0
RIGHT_WINDOW_BORDER_X:235.0
level,win/fail,% travelled,run time,game ticks,planning time,total plannings,nodes evaluated,most backtracked nodes
notch-1,true,1.00,1151,267,1151,245,100411,0
notch-2,true,1.00,1345,257,1342,236,116497,0
notch-3,true,1.00,1134,269,1134,247,97842,0
notch-4,true,1.00,1064,229,1063,203,96147,0
notch-5,true,1.00,856,258,855,237,77011,0
notch-6,true,1.00,838,259,835,238,75444,0
notch-7,true,1.00,649,241,646,220,57786,0
notch-8,true,1.00,803,286,801,263,66813,0
notch-9,true,1.00,1137,262,1133,241,99162,0
notch-10,true,1.00,933,247,930,226,84110,0
notch-11,true,1.00,1162,261,1162,240,101081,0
notch-12,true,1.00,739,253,739,227,62838,0
notch-13,true,1.00,813,239,810,218,71162,0
notch-14,true,1.00,1006,239,1006,216,89888,0
notch-15,true,1.00,827,241,823,220,70669,0
notch-16,true,1.00,1205,259,1205,232,107682,0
notch-17,true,1.00,1051,260,1048,239,91489,0
notch-18,true,1.00,1501,287,1500,262,114314,0
notch-19,true,1.00,1252,241,1248,220,113041,0
notch-20,true,1.00,1033,268,1032,247,88668,0
notch-21,true,1.00,987,268,985,242,88417,0
notch-22,true,1.00,768,243,767,222,66930,0
notch-23,true,1.00,1140,264,1137,241,98318,0
notch-24,true,1.00,723,265,718,243,63896,0
notch-25,true,1.00,1064,255,1060,229,94484,0
notch-26,true,1.00,935,242,934,221,81499,0
notch-27,true,1.00,2421,295,2417,269,199574,0
notch-28,true,1.00,853,251,852,226,73821,0
notch-29,true,1.00,1090,249,1090,228,94408,0
notch-30,true,1.00,1016,243,1015,222,88306,0
notch-31,true,1.00,1047,260,1046,238,90267,0
notch-32,true,1.00,897,258,896,237,77553,0
notch-33,true,1.00,908,231,906,205,79902,0
notch-34,true,1.00,978,251,973,230,86424,0
notch-35,true,1.00,854,244,853,223,74103,0
notch-36,true,1.00,1127,275,1126,249,97307,0
notch-37,true,1.00,1659,271,1658,250,145296,0
notch-38,true,1.00,1040,252,1040,229,91050,0
notch-39,true,1.00,841,253,839,230,74273,0
notch-40,true,1.00,952,240,951,218,85878,0
notch-41,true,1.00,1183,276,1178,254,104194,0
notch-42,true,1.00,1010,230,1010,209,90535,0
notch-43,true,1.00,897,238,895,217,80094,0
notch-44,true,1.00,666,227,663,206,59807,0
notch-45,true,1.00,1016,248,1015,227,90277,0
notch-46,true,1.00,760,247,759,226,66986,0
notch-47,true,1.00,1609,281,1609,259,141520,0
notch-48,true,1.00,1482,257,1482,235,132409,0
notch-49,true,1.00,835,256,831,227,69879,0
notch-50,true,1.00,1187,280,1186,256,93894,0
notch-51,true,1.00,1164,268,1164,247,99485,0
notch-52,true,1.00,770,238,769,215,68731,0
notch-53,true,1.00,547,260,542,227,43456,0
notch-54,true,1.00,1021,259,1019,238,88631,0
notch-55,true,1.00,1257,276,1251,250,104818,0
notch-56,true,1.00,726,260,725,239,64015,0
notch-57,true,1.00,767,248,767,226,64831,0
notch-58,true,1.00,1382,269,1382,248,113296,0
notch-59,true,1.00,893,252,891,231,76934,0
notch-60,true,1.00,1174,263,1174,242,102915,0
notch-61,true,1.00,1118,247,1116,226,98048,0
notch-62,true,1.00,1187,267,1185,241,96195,0
notch-63,true,1.00,951,280,949,259,79952,0
notch-64,true,1.00,1132,242,1129,221,99120,0
notch-65,true,1.00,1699,276,1697,253,141111,0
notch-66,true,1.00,1049,257,1047,234,90047,0
notch-67,true,1.00,967,231,965,210,83189,0
notch-68,true,1.00,639,236,637,215,56993,0
notch-69,true,1.00,1360,259,1360,233,116357,0
notch-70,true,1.00,1209,283,1206,260,105280,0
notch-71,true,1.00,1438,259,1436,238,128714,0
notch-72,true,1.00,860,247,858,226,77711,0
notch-73,true,1.00,965,259,963,238,80857,0
notch-74,true,1.00,848,259,846,237,71531,0
notch-75,true,1.00,1781,265,1779,239,149140,0
notch-76,true,1.00,933,245,931,224,82257,0
notch-77,true,1.00,721,238,720,217,62079,0
notch-78,true,1.00,986,242,984,221,87837,0
notch-79,true,1.00,1287,263,1285,241,109916,0
notch-80,true,1.00,640,238,639,217,54852,0
notch-81,true,1.00,1319,238,1317,217,116898,0
notch-82,true,1.00,1007,250,1006,229,86839,0
notch-83,true,1.00,1162,250,1159,229,99750,0
notch-84,true,1.00,833,235,828,209,72772,0
notch-85,true,1.00,700,236,698,213,60965,0
notch-86,true,1.00,992,253,991,232,86045,0
notch-87,true,1.00,1004,258,1002,232,90143,0
notch-88,true,1.00,1276,256,1275,233,113823,0
notch-89,true,1.00,989,245,989,224,89794,0
notch-90,true,1.00,1520,264,1518,241,132129,0
notch-91,true,1.00,1284,259,1281,233,111183,0
notch-92,true,1.00,925,239,924,213,84199,0
notch-93,true,1.00,891,251,891,230,76573,0
notch-94,true,1.00,1880,284,1877,259,163519,0
notch-95,true,1.00,682,236,681,214,60715,0
notch-96,true,1.00,732,242,729,221,68569,0
notch-97,true,1.00,1065,255,1064,234,91983,0
notch-98,true,1.00,1531,267,1526,245,132181,0
notch-99,true,1.00,1440,267,1439,246,126130,0
notch-100,true,1.00,848,243,847,222,75779,0
