NDW:0.0
TTFW:1.6
DFPT:2.0
DFPAP:3.0
DFPMP:7.0
RIGHT_WINDOW_BORDER_X:195.0
level,win/fail,% travelled,run time,game ticks,planning time,total plannings,nodes evaluated,most backtracked nodes
notchParam-1,true,1.00,864,310,864,293,88699,0
notchParam-2,true,1.00,708,352,706,335,75506,0
notchParam-3,true,1.00,585,319,583,302,69287,0
notchParam-4,true,1.00,525,323,522,306,59486,0
notchParam-5,true,1.00,543,316,541,298,64131,0
notchParam-6,true,1.00,574,318,572,301,67529,0
notchParam-7,true,1.00,784,313,784,296,93827,0
notchParam-8,true,1.00,1067,328,1065,311,124336,0
notchParam-9,true,1.00,526,348,524,331,62623,0
notchParam-10,true,1.00,993,322,992,305,114225,0
notchParam-11,true,1.00,491,316,489,299,58072,0
notchParam-12,true,1.00,1021,327,1019,310,121891,0
notchParam-13,true,1.00,188,314,188,297,21210,0
notchParam-14,true,1.00,171,304,168,287,18351,0
notchParam-15,true,1.00,733,304,731,287,79167,0
notchParam-16,true,1.00,1137,322,1136,305,130899,0
notchParam-17,true,1.00,743,312,740,295,81638,0
notchParam-18,true,1.00,238,335,236,318,28253,0
notchParam-19,true,1.00,171,311,170,294,19719,0
notchParam-20,true,1.00,152,310,150,293,17657,0
notchParam-21,true,1.00,171,306,169,289,17655,0
notchParam-22,true,1.00,164,319,162,302,20559,0
notchParam-23,true,1.00,1173,360,1170,343,137485,0
notchParam-24,true,1.00,1050,332,1050,315,124187,0
notchParam-25,true,1.00,1072,330,1072,313,121817,0
notchParam-26,true,1.00,996,326,994,309,120074,0
notchParam-27,true,1.00,170,309,167,292,18811,0
notchParam-28,true,1.00,588,335,586,318,68803,0
notchParam-29,true,1.00,561,331,560,314,65761,0
notchParam-30,true,1.00,152,308,152,291,16850,0
notchParam-31,true,1.00,1062,335,1058,318,122456,0
notchParam-32,true,1.00,761,306,760,289,89811,0
notchParam-33,true,1.00,150,298,148,281,17118,0
notchParam-34,true,1.00,824,328,819,311,90573,0
notchParam-35,true,1.00,909,318,907,301,105697,0
notchParam-36,true,1.00,729,298,728,281,79161,0
notchParam-37,true,1.00,168,300,165,283,17213,0
notchParam-38,true,1.00,157,304,156,287,18676,0
notchParam-39,true,1.00,1024,351,1022,334,110873,0
notchParam-40,true,1.00,572,312,569,295,64735,0
notchParam-41,true,1.00,557,341,554,324,66330,0
notchParam-42,true,1.00,166,313,165,296,20021,0
notchParam-43,true,1.00,1026,320,1026,303,119115,0
notchParam-44,true,1.00,1093,346,1092,329,132128,0
notchParam-45,true,1.00,1004,348,1003,328,122764,0
notchParam-46,true,1.00,1074,318,1073,301,116365,0
notchParam-47,true,1.00,177,312,173,295,22567,0
notchParam-48,true,1.00,210,331,208,314,26171,0
notchParam-49,true,1.00,184,333,182,311,22765,0
notchParam-50,true,1.00,268,338,267,321,29953,0
notchParam-51,true,1.00,169,308,168,291,18296,0
notchParam-52,true,1.00,934,344,932,327,104472,0
notchParam-53,true,1.00,1048,351,1047,334,125674,0
notchParam-54,true,1.00,924,352,922,335,102635,0
notchParam-55,true,1.00,194,319,192,302,23684,0
notchParam-56,true,1.00,239,306,237,289,26610,0
notchParam-57,true,1.00,1148,337,1145,320,138934,0
notchParam-58,true,1.00,525,340,524,323,60917,0
notchParam-59,true,1.00,1230,352,1229,335,141553,0
notchParam-60,true,1.00,582,333,582,316,64918,0
notchParam-61,true,1.00,1098,346,1094,329,128368,0
notchParam-62,true,1.00,693,314,688,297,76998,0
notchParam-63,true,1.00,527,329,527,312,60822,0
notchParam-64,true,1.00,542,328,536,311,65095,0
notchParam-65,true,1.00,463,326,462,309,54457,0
notchParam-66,true,1.00,570,335,569,318,67237,0
notchParam-67,true,1.00,843,315,841,298,97323,0
notchParam-68,true,1.00,747,324,746,306,78388,0
notchParam-69,true,1.00,879,326,879,309,89975,0
notchParam-70,true,1.00,854,318,850,301,94110,0
notchParam-71,true,1.00,602,355,601,338,74939,0
notchParam-72,true,1.00,526,333,523,315,64205,0
notchParam-73,true,1.00,536,314,535,297,62342,0
notchParam-74,true,1.00,529,335,528,318,61944,0
notchParam-75,true,1.00,585,339,580,322,73821,0
notchParam-76,true,1.00,1199,350,1197,333,138720,0
notchParam-77,true,1.00,621,339,621,322,72829,0
notchParam-78,true,1.00,1089,330,1088,313,124618,0
notchParam-79,true,1.00,526,319,523,302,63083,0
notchParam-80,true,1.00,178,311,176,294,20779,0
notchParam-81,true,1.00,507,331,507,314,63978,0
notchParam-82,true,1.00,173,305,173,288,19019,0
notchParam-83,true,1.00,172,302,170,285,20624,0
notchParam-84,true,1.00,989,328,985,311,111248,0
notchParam-85,true,1.00,1204,392,1202,375,131817,0
notchParam-86,true,1.00,1251,327,1251,310,143090,0
notchParam-87,true,1.00,166,324,165,307,20842,0
notchParam-88,true,1.00,270,312,268,295,30324,0
notchParam-89,true,1.00,152,304,151,287,17477,0
notchParam-90,true,1.00,161,311,160,294,19067,0
notchParam-91,true,1.00,1111,330,1109,313,121093,0
notchParam-92,true,1.00,977,310,974,293,109932,0
notchParam-93,true,1.00,1138,324,1136,307,130868,0
notchParam-94,true,1.00,1041,335,1038,318,121530,0
notchParam-95,true,1.00,1081,356,1079,339,130074,0
notchParam-96,true,1.00,547,349,545,332,68408,0
notchParam-97,true,1.00,517,310,514,293,56481,0
notchParam-98,true,1.00,185,316,183,299,20439,0
notchParam-99,true,1.00,918,352,916,335,103443,0
notchParam-100,true,1.00,768,304,767,287,83514,0
