NDW:0.0
TTFW:1.0
DFPT:2.0
DFPAP:3.0
DFPMP:10.0
RIGHT_WINDOW_BORDER_X:135.0
level,win/fail,% travelled,run time,game ticks,planning time,total plannings,nodes evaluated,most backtracked nodes
ge-1,true,1.00,640,253,634,231,35378,0
ge-2,true,1.00,455,223,448,211,26107,0
ge-3,true,1.00,194,218,189,206,10574,0
ge-4,true,1.00,1636,278,1627,263,91223,0
ge-5,true,1.00,62,199,59,187,3244,0
ge-6,true,1.00,511,257,508,244,28316,0
ge-7,true,1.00,159,220,154,208,8633,0
ge-8,true,1.00,214,209,205,197,11874,0
ge-9,true,1.00,632,225,622,213,35513,0
ge-10,true,1.00,56,199,50,187,2801,0
ge-11,true,1.00,177,214,169,202,8536,0
ge-12,true,1.00,90,199,81,187,3054,0
ge-13,true,1.00,443,238,433,225,17893,0
ge-14,true,1.00,234,225,230,206,12471,0
ge-15,true,1.00,595,221,592,209,33533,0
ge-16,true,1.00,409,293,401,281,22398,0
ge-17,true,1.00,349,214,344,202,21182,0
ge-18,true,1.00,764,281,762,269,43564,0
ge-19,true,1.00,788,334,775,311,44138,0
ge-20,true,1.00,451,223,441,211,23900,0
ge-21,true,1.00,202,201,194,189,11465,0
ge-22,true,1.00,377,216,373,204,21741,0
ge-23,true,1.00,628,208,622,193,36698,0
ge-24,true,1.00,527,236,518,221,30267,0
ge-25,true,1.00,333,205,329,193,19399,0
ge-26,true,1.00,370,213,368,201,22173,0
ge-27,true,1.00,87,220,84,208,4651,0
ge-28,true,1.00,635,211,632,199,34664,0
ge-29,true,1.00,307,220,302,193,17378,0
ge-30,true,1.00,951,232,946,220,54228,0
ge-31,true,1.00,898,256,891,244,51910,0
ge-32,true,1.00,166,219,161,207,9321,0
ge-33,true,1.00,144,215,139,193,7891,0
ge-34,true,1.00,702,226,697,213,40491,0
ge-35,true,1.00,612,254,607,242,33689,0
ge-36,true,1.00,1156,259,1149,239,66845,0
ge-37,true,1.00,283,204,281,191,15748,0
ge-38,true,1.00,1407,244,1400,232,79674,0
ge-39,true,1.00,336,228,331,216,19579,0
ge-40,true,1.00,62,199,58,187,3408,0
ge-41,true,1.00,273,213,269,201,15653,0
ge-42,true,1.00,816,237,814,225,46579,0
ge-43,true,1.00,342,222,336,210,19581,0
ge-44,true,1.00,554,217,550,205,31003,0
ge-45,true,1.00,435,227,433,215,24189,0
ge-46,true,1.00,756,237,748,225,42609,0
ge-47,true,1.00,793,233,790,221,45113,0
ge-48,true,1.00,323,238,316,226,18031,0
ge-49,true,1.00,168,200,163,188,9330,0
ge-50,true,1.00,819,221,815,209,43740,0
ge-51,true,1.00,162,218,159,206,8922,0
ge-52,true,1.00,397,266,390,254,21467,0
ge-53,true,1.00,282,212,273,200,15389,0
ge-54,true,1.00,281,238,277,226,16076,0
ge-55,true,1.00,320,226,314,213,18004,0
ge-56,true,1.00,624,260,617,234,34324,0
ge-57,true,1.00,631,225,626,212,36569,0
ge-58,true,1.00,270,273,266,261,13792,0
ge-59,true,1.00,1100,224,1098,212,62076,0
ge-60,true,1.00,1026,218,1019,206,56397,0
ge-61,true,1.00,266,203,263,191,15086,0
ge-62,true,1.00,512,211,510,199,28698,0
ge-63,true,1.00,2385,261,2383,249,139717,0
ge-64,true,1.00,402,248,395,220,21819,0
ge-65,true,1.00,590,217,584,200,33621,0
ge-66,true,1.00,753,224,743,211,42819,0
ge-67,true,1.00,248,242,243,230,13265,0
ge-68,true,1.00,208,234,198,222,10463,0
ge-69,true,1.00,233,205,227,193,12747,0
ge-70,true,1.00,304,204,300,192,17453,0
ge-71,true,1.00,994,237,986,225,56602,0
ge-72,true,1.00,180,251,178,232,9883,0
ge-73,true,1.00,364,210,355,194,20459,0
ge-74,true,1.00,813,241,803,229,44688,0
ge-75,true,1.00,321,244,308,215,16898,0
ge-76,true,1.00,1325,233,1319,221,66657,0
ge-77,true,1.00,1453,248,1449,236,81967,0
ge-78,true,1.00,1421,265,1417,252,80750,0
ge-79,true,1.00,221,210,215,197,12189,0
ge-80,true,1.00,89,217,84,204,4426,0
ge-81,true,1.00,106,216,100,204,5673,0
ge-82,true,1.00,124,236,118,206,6577,0
ge-83,true,1.00,581,248,576,220,32013,0
ge-84,true,1.00,1452,234,1447,222,81225,0
ge-85,true,1.00,267,203,265,191,15003,0
ge-86,true,1.00,896,212,893,199,49786,0
ge-87,true,1.00,612,233,604,221,34413,0
ge-88,true,1.00,486,243,480,228,27542,0
ge-89,true,1.00,243,244,236,232,12778,0
ge-90,true,1.00,63,199,59,187,3385,0
ge-91,true,1.00,259,204,256,192,14542,0
ge-92,true,1.00,73,205,71,193,4042,0
ge-93,true,1.00,505,207,497,195,28379,0
ge-94,true,1.00,415,212,410,200,23757,0
ge-95,true,1.00,151,246,146,234,7797,0
ge-96,true,1.00,640,242,637,229,35554,0
ge-97,true,1.00,762,231,756,219,40990,0
ge-98,true,1.00,63,199,58,187,3306,0
ge-99,true,1.00,169,205,166,193,9225,0
ge-100,true,1.00,297,207,294,195,16223,0
