NDW:0.0
TTFW:1.0
DFPT:2.0
DFPAP:3.0
DFPMP:7.0
RIGHT_WINDOW_BORDER_X:235.0
level,win/fail,% travelled,run time,game ticks,planning time,total plannings,nodes evaluated,most backtracked nodes
Krys-1,true,1.00,7974,591,7961,551,274451,0
Krys-2,false,0.79,25125,999,25115,999,588644,0
Krys-3,false,0.70,27073,999,27061,999,613131,0
Krys-4,true,1.00,3730,459,3708,399,89702,0
Krys-5,true,1.00,2019,345,1999,309,60847,0
Krys-6,true,1.00,1700,354,1682,315,46176,0
Krys-7,true,1.00,731,342,711,294,17859,0
Krys-8,true,1.00,3259,482,3233,437,82591,0
Krys-9,true,1.00,2246,329,2226,300,64751,0
Krys-10,true,1.00,3370,357,3348,303,87317,0
Krys-11,true,1.00,727,376,709,334,17769,0
Krys-12,true,1.00,3982,407,3974,361,112911,0
Krys-13,true,1.00,3772,447,3756,393,143651,0
Krys-14,true,1.00,2019,355,2007,318,60001,0
Krys-15,true,1.00,4099,393,4088,347,147754,0
Krys-16,false,0.69,24546,999,24539,999,762198,0
Krys-17,true,1.00,2807,412,2799,372,99766,0
Krys-18,true,1.00,2591,426,2570,380,90779,0
Krys-19,true,1.00,3380,405,3370,359,135210,0
Krys-20,true,1.00,4068,528,4050,480,146505,0
Krys-21,true,1.00,1695,320,1685,287,74778,0
Krys-22,true,1.00,2347,339,2338,293,101340,0
Krys-23,true,1.00,2170,378,2156,332,81757,0
Krys-24,true,1.00,6183,455,6175,409,223742,0
Krys-25,true,1.00,2876,379,2857,343,100989,0
Krys-26,true,1.00,2352,301,2345,258,102004,0
Krys-27,true,1.00,2947,345,2930,315,110615,0
Krys-28,true,1.00,4461,529,4446,477,169544,0
Krys-29,true,1.00,2039,382,2024,353,69409,0
Krys-30,true,1.00,3082,448,3065,403,104075,0
Krys-31,true,1.00,1842,434,1825,394,66871,0
Krys-32,true,1.00,905,372,888,341,30854,0
Krys-33,true,1.00,698,325,676,287,24706,0
Krys-34,true,1.00,4373,462,4365,420,153377,0
Krys-35,true,1.00,2315,378,2304,337,91228,0
Krys-36,false,0.91,25471,999,25463,999,830461,0
Krys-37,true,1.00,3371,390,3366,360,130593,0
Krys-38,true,1.00,4690,421,4683,384,178915,0
Krys-39,false,0.91,25174,999,25166,999,759635,0
Krys-40,true,1.00,4216,419,4203,376,148195,0
Krys-41,false,0.70,26984,999,26975,999,775741,0
Krys-42,true,1.00,2350,353,2344,315,92471,0
Krys-43,true,1.00,2146,323,2138,294,88256,0
Krys-44,true,1.00,4405,385,4390,339,165421,0
Krys-45,true,1.00,2761,442,2751,408,85072,0
Krys-46,true,1.00,2563,497,2549,454,85109,0
Krys-47,true,1.00,2184,452,2167,409,75868,0
Krys-48,true,1.00,1889,344,1877,310,80474,0
Krys-49,true,1.00,1967,412,1954,363,63027,0
Krys-50,true,1.00,5212,425,5196,382,190520,0
Krys-51,true,1.00,3570,369,3559,334,132497,0
Krys-52,true,1.00,3652,534,3634,493,122533,0
Krys-53,true,1.00,2288,413,2272,375,74688,0
Krys-54,true,1.00,4010,420,4004,383,149939,0
Krys-55,true,1.00,3336,471,3322,421,117817,0
Krys-56,true,1.00,664,335,660,293,25798,0
Krys-57,true,1.00,1648,335,1636,298,67232,0
Krys-58,true,1.00,2909,462,2898,432,105537,0
Krys-59,true,1.00,5032,479,5021,433,171043,0
Krys-60,true,1.00,3047,420,3034,338,120916,0
Krys-61,true,1.00,2810,447,2796,410,97278,0
Krys-62,true,1.00,2400,398,2385,353,71268,0
Krys-63,true,1.00,4566,541,4548,501,143178,0
Krys-64,true,1.00,3591,542,3571,505,115914,0
Krys-65,true,1.00,2664,433,2648,407,82665,0
Krys-66,true,1.00,3458,398,3444,361,112184,0
Krys-67,true,1.00,4439,485,4426,454,145342,0
Krys-68,true,1.00,4053,363,4036,317,169880,0
Krys-69,true,1.00,10142,646,10126,597,307833,0
Krys-70,true,1.00,6396,514,6381,465,216241,0
Krys-71,true,1.00,4186,394,4176,351,164719,0
Krys-72,true,1.00,2615,494,2597,449,79828,0
Krys-73,true,1.00,6362,536,6352,492,164569,0
Krys-74,true,1.00,1897,368,1888,322,58614,0
Krys-75,true,1.00,1098,340,1079,302,26373,0
Krys-76,true,1.00,3816,361,3807,324,123172,0
Krys-77,true,1.00,2007,360,1989,324,61958,0
Krys-78,false,0.91,24337,999,24320,999,626545,0
Krys-79,true,1.00,1963,378,1947,341,49198,0
Krys-80,true,1.00,958,400,934,357,26407,0
Krys-81,true,1.00,1929,405,1913,369,56157,0
Krys-82,true,1.00,1780,401,1758,355,45984,0
Krys-83,true,1.00,4301,431,4292,364,151207,0
Krys-84,true,1.00,464,331,450,296,17333,0
Krys-85,true,1.00,3585,546,3568,500,128105,0
Krys-86,true,1.00,1967,374,1949,333,75981,0
Krys-87,true,1.00,1508,346,1495,325,49222,0
Krys-88,true,1.00,2436,437,2421,389,85866,0
Krys-89,true,1.00,2235,386,2214,352,78730,0
Krys-90,true,1.00,4061,381,4050,325,177862,0
Krys-91,true,1.00,605,374,587,342,21932,0
Krys-92,false,0.91,24431,999,24430,999,746152,0
Krys-93,true,1.00,2696,354,2686,311,104441,0
Krys-94,true,1.00,1666,360,1656,314,69398,0
Krys-95,true,1.00,1617,354,1606,309,55480,0
Krys-96,true,1.00,3775,421,3763,375,164325,0
Krys-97,false,0.70,2508,268,2490,268,89676,0
Krys-98,true,1.00,6055,517,6044,489,199976,0
Krys-99,true,1.00,1870,414,1859,362,61425,0
Krys-100,true,1.00,2256,338,2246,305,100969,0
