NDW:0.0
TTFW:2.0
DFPT:2.0
DFPAP:3.0
DFPMP:10.0
RIGHT_WINDOW_BORDER_X:35.0
level,win/fail,% travelled,run time,game ticks,planning time,total plannings,nodes evaluated,most backtracked nodes
hopper-1,false,0.20,27340,999,27335,999,1323592,0
hopper-2,false,0.14,1860,178,1856,178,89853,0
hopper-3,false,0.24,2803,237,2799,237,133370,0
hopper-4,false,0.26,1956,248,1954,248,97192,0
hopper-5,false,0.14,1860,178,1857,178,90330,0
hopper-6,false,0.29,2828,289,2822,289,141076,0
hopper-7,false,0.14,1859,178,1856,178,89823,0
hopper-8,false,0.41,8051,538,8043,538,354536,0
hopper-9,false,0.14,1858,178,1856,178,92874,0
hopper-10,false,0.28,1950,228,1947,228,98072,0
hopper-11,false,0.22,3023,299,3021,299,159811,0
hopper-12,false,0.32,2553,275,2546,275,129235,0
hopper-13,false,0.14,1857,178,1854,178,92589,0
hopper-14,false,0.14,1859,178,1856,178,92724,0
hopper-15,false,0.14,1872,178,1868,178,78005,0
hopper-16,false,0.14,1887,178,1879,178,69602,0
hopper-17,false,0.31,2979,278,2975,278,150735,0
hopper-18,false,0.28,1462,244,1456,244,72182,0
hopper-19,false,0.40,2745,377,2741,377,143349,0
hopper-20,false,0.14,1859,178,1852,178,91232,0
hopper-21,false,0.14,1859,178,1856,178,91502,0
hopper-22,false,0.14,3366,214,3364,214,143319,0
hopper-23,false,0.14,1857,178,1856,178,92713,0
hopper-24,false,0.19,2725,251,2721,251,143357,0
hopper-25,false,0.31,1028,219,1023,219,50441,0
hopper-26,false,0.14,1858,178,1856,178,92129,0
hopper-27,false,0.14,1875,178,1872,178,73209,0
hopper-28,false,0.19,3019,280,3009,280,136381,0
hopper-29,false,0.25,3522,272,3521,272,172574,0
hopper-30,false,0.14,1858,178,1855,178,91002,0
hopper-31,false,0.14,1858,178,1856,178,91456,0
hopper-32,false,0.34,1900,279,1896,279,95249,0
hopper-33,false,0.30,2478,276,2465,276,122440,0
hopper-34,false,0.14,1888,178,1884,178,58619,0
hopper-35,false,0.14,1882,178,1878,178,73702,0
hopper-36,false,0.14,1858,178,1854,178,92278,0
hopper-37,false,0.50,23190,999,23179,999,1086470,0
hopper-38,false,0.13,1010,119,1009,119,51304,0
hopper-39,false,0.29,697,195,695,195,34644,0
hopper-40,false,0.22,4191,318,4184,318,174693,0
hopper-41,false,0.24,1556,191,1554,191,74026,0
hopper-42,false,0.14,1858,178,1856,178,92890,0
hopper-43,false,0.14,1856,178,1852,178,93672,0
hopper-44,false,0.30,3372,274,3366,274,168940,0
hopper-45,false,0.20,25933,999,25928,999,1351996,0
hopper-46,false,0.32,3824,358,3818,358,190712,0
hopper-47,false,0.32,2258,275,2250,275,110981,0
hopper-48,false,0.14,1858,178,1857,178,90903,0
hopper-49,false,0.14,1858,178,1854,178,91708,0
hopper-50,false,0.45,3652,450,3647,450,184152,0
hopper-51,false,0.33,4819,395,4816,395,239217,0
hopper-52,false,0.41,6815,489,6807,489,329250,0
hopper-53,false,0.14,1877,178,1871,178,81423,0
hopper-54,false,0.32,1323,219,1320,219,65621,0
hopper-55,false,0.32,3183,354,3176,354,164012,0
hopper-56,false,0.29,1855,222,1847,222,91807,0
hopper-57,false,0.29,2647,258,2644,258,130286,0
hopper-58,false,0.15,1749,172,1747,172,85534,0
hopper-59,false,0.20,2060,230,2057,230,104425,0
hopper-60,false,0.30,1973,268,1970,268,99800,0
hopper-61,false,0.14,1858,178,1855,178,91165,0
hopper-62,false,0.14,1874,178,1870,178,73395,0
hopper-63,false,0.23,1606,189,1598,189,60161,0
hopper-64,false,0.14,1859,178,1853,178,91386,0
hopper-65,false,0.14,1860,178,1857,178,92048,0
hopper-66,false,0.51,2361,410,2350,410,117684,0
hopper-67,false,0.31,701,213,695,213,33511,0
hopper-68,false,0.29,1816,224,1807,224,89749,0
hopper-69,false,0.31,4373,361,4368,361,215244,0
hopper-70,false,0.36,24452,999,24442,999,1201369,0
hopper-71,false,0.29,26827,999,26821,999,1334237,0
hopper-72,false,0.22,3712,292,3708,292,184132,0
hopper-73,false,0.14,1859,178,1857,178,92778,0
hopper-74,false,0.50,7063,600,7053,600,351242,0
hopper-75,false,0.14,1873,178,1870,178,73261,0
hopper-76,false,0.14,1875,178,1868,178,83328,0
hopper-77,false,0.39,4293,432,4283,432,218235,0
hopper-78,false,0.30,1725,259,1721,259,86200,0
hopper-79,false,0.14,1858,178,1854,178,92254,0
hopper-80,false,0.14,1857,178,1856,178,92087,0
hopper-81,false,0.14,1859,178,1858,178,91884,0
hopper-82,false,0.14,1856,178,1855,178,92048,0
hopper-83,false,0.14,1854,178,1854,178,94581,0
hopper-84,false,0.14,1855,178,1853,178,94625,0
hopper-85,false,0.30,498,199,494,199,25248,0
hopper-86,false,0.14,1870,178,1868,178,76231,0
hopper-87,false,0.14,1874,178,1867,178,83634,0
hopper-88,false,0.14,1862,178,1860,178,91866,0
hopper-89,false,0.14,1886,178,1880,178,74117,0
hopper-90,false,0.14,1856,178,1853,178,93286,0
hopper-91,false,0.39,3161,356,3157,356,158461,0
hopper-92,false,0.14,1860,178,1859,178,92715,0
hopper-93,false,0.29,2347,250,2342,250,119089,0
hopper-94,false,0.41,23338,999,23329,999,1149948,0
hopper-95,false,0.28,26800,999,26796,999,1336855,0
hopper-96,false,0.14,1856,178,1852,178,93721,0
hopper-97,false,0.14,1855,178,1852,178,94345,0
hopper-98,false,0.14,1857,178,1854,178,94234,0
hopper-99,false,0.14,1857,178,1855,178,93975,0
hopper-100,false,0.21,3873,294,3865,294,197186,0
