NDW:0.0
TTFW:0.4
DFPT:2.0
DFPAP:3.0
DFPMP:10.0
RIGHT_WINDOW_BORDER_X:215.0
level,win/fail,% travelled,run time,game ticks,planning time,total plannings,nodes evaluated,most backtracked nodes
patternCount-1,false,0.88,5448,441,5447,441,457127,0
patternCount-2,true,1.00,1331,377,1330,357,110601,0
patternCount-3,true,1.00,2954,413,2952,393,234889,0
patternCount-4,true,1.00,1539,416,1535,397,126266,0
patternCount-5,true,1.00,1321,389,1319,370,108756,0
patternCount-6,true,1.00,514,336,512,317,42953,0
patternCount-7,true,1.00,2082,459,2079,439,164897,0
patternCount-8,true,1.00,3692,469,3690,440,309408,0
patternCount-9,true,1.00,1845,440,1840,421,156256,0
patternCount-10,true,1.00,660,322,658,303,55977,0
patternCount-11,true,1.00,6062,513,6060,467,508027,0
patternCount-12,true,1.00,911,377,909,358,74514,0
patternCount-13,true,1.00,885,374,879,355,74055,0
patternCount-14,true,1.00,1364,358,1363,336,114646,0
patternCount-15,true,1.00,1254,389,1252,370,99936,0
patternCount-16,true,1.00,1002,389,999,370,81476,0
patternCount-17,true,1.00,1420,399,1417,379,111050,0
patternCount-18,true,1.00,1373,377,1373,358,110960,0
patternCount-19,true,1.00,769,356,765,337,63158,0
patternCount-20,true,1.00,1901,437,1900,418,149950,0
patternCount-21,true,1.00,1279,405,1277,386,104101,0
patternCount-22,true,1.00,3387,431,3387,400,291752,0
patternCount-23,true,1.00,7285,503,7282,482,609193,0
patternCount-24,true,1.00,8010,564,8005,543,701984,0
patternCount-25,true,1.00,991,339,988,320,83029,0
patternCount-26,true,1.00,1111,416,1108,397,87019,0
patternCount-27,true,1.00,1304,387,1301,367,107963,0
patternCount-28,true,1.00,870,372,867,343,70690,0
patternCount-29,true,1.00,1813,387,1808,368,148928,0
patternCount-30,true,1.00,868,370,865,351,71033,0
patternCount-31,true,1.00,1680,429,1678,410,135114,0
patternCount-32,true,1.00,1424,372,1421,353,117390,0
patternCount-33,true,1.00,4298,484,4295,461,348726,0
patternCount-34,true,1.00,2358,432,2355,410,197605,0
patternCount-35,true,1.00,1200,400,1196,377,97407,0
patternCount-36,true,1.00,2480,438,2476,417,202531,0
patternCount-37,true,1.00,1210,405,1207,386,98875,0
patternCount-38,true,1.00,3889,445,3885,425,320890,0
patternCount-39,true,1.00,1255,407,1254,387,101077,0
patternCount-40,true,1.00,5720,469,5718,436,483605,0
patternCount-41,true,1.00,1894,370,1893,351,158834,0
patternCount-42,true,1.00,1555,426,1554,407,125160,0
patternCount-43,true,1.00,634,338,632,319,54162,0
patternCount-44,true,1.00,1274,418,1272,399,105035,0
patternCount-45,true,1.00,1284,403,1280,384,101590,0
patternCount-46,true,1.00,1553,411,1549,392,128673,0
patternCount-47,true,1.00,2433,466,2423,447,192398,0
patternCount-48,true,1.00,1120,395,1115,376,90066,0
patternCount-49,true,1.00,1325,416,1321,388,109852,0
patternCount-50,true,1.00,6659,547,6658,516,552784,0
patternCount-51,true,1.00,1484,456,1479,437,119331,0
patternCount-52,true,1.00,1010,330,1008,311,88139,0
patternCount-53,true,1.00,5281,480,5277,455,438474,0
patternCount-54,true,1.00,2370,463,2366,444,183979,0
patternCount-55,true,1.00,8546,551,8545,525,710258,0
patternCount-56,true,1.00,1794,430,1791,411,144112,0
patternCount-57,true,1.00,967,372,964,353,79996,0
patternCount-58,false,0.80,6898,486,6894,486,526130,0
patternCount-59,true,1.00,1477,399,1475,380,119189,0
patternCount-60,true,1.00,1715,441,1713,420,139339,0
patternCount-61,true,1.00,792,357,786,331,67235,0
patternCount-62,true,1.00,1407,408,1405,389,112981,0
patternCount-63,true,1.00,1649,425,1647,406,125865,0
patternCount-64,true,1.00,883,378,882,359,73678,0
patternCount-65,true,1.00,1183,387,1181,368,93655,0
patternCount-66,true,1.00,2047,444,2045,425,164767,0
patternCount-67,true,1.00,1635,363,1633,340,135802,0
patternCount-68,true,1.00,1133,397,1132,378,92270,0
patternCount-69,true,1.00,1208,401,1207,382,96873,0
patternCount-70,true,1.00,1070,382,1067,363,84992,0
patternCount-71,true,1.00,1519,411,1516,392,125151,0
patternCount-72,true,1.00,5896,444,5895,423,482113,0
patternCount-73,true,1.00,2142,453,2141,433,170859,0
patternCount-74,true,1.00,9213,539,9212,513,747741,0
patternCount-75,true,1.00,1293,412,1290,391,103454,0
patternCount-76,true,1.00,1473,414,1469,395,120717,0
patternCount-77,true,1.00,1666,392,1664,369,131745,0
patternCount-78,true,1.00,1744,411,1743,392,139696,0
patternCount-79,true,1.00,4313,450,4309,425,368257,0
patternCount-80,true,1.00,4055,562,4049,516,332071,0
patternCount-81,true,1.00,1333,403,1329,384,103942,0
patternCount-82,true,1.00,1121,365,1119,346,94145,0
patternCount-83,true,1.00,1564,463,1559,444,125671,0
patternCount-84,true,1.00,1279,409,1275,390,103173,0
patternCount-85,true,1.00,1034,381,1034,362,86483,0
patternCount-86,true,1.00,1474,447,1470,428,114629,0
patternCount-87,true,1.00,1400,406,1396,387,111763,0
patternCount-88,true,1.00,1682,399,1681,380,138290,0
patternCount-89,true,1.00,1627,382,1626,363,138398,0
patternCount-90,true,1.00,986,382,984,363,78336,0
patternCount-91,true,1.00,1873,422,1870,403,151081,0
patternCount-92,true,1.00,1074,392,1070,373,86150,0
patternCount-93,true,1.00,5562,491,5560,456,457946,0
patternCount-94,true,1.00,2834,450,2832,429,227377,0
patternCount-95,true,1.00,1814,413,1809,394,145230,0
patternCount-96,true,1.00,1310,450,1304,430,108570,0
patternCount-97,true,1.00,1214,381,1213,362,101778,0
patternCount-98,true,1.00,1252,385,1251,366,104256,0
patternCount-99,true,1.00,947,366,947,347,79336,0
patternCount-100,true,1.00,736,358,731,339,59889,0
