NDW:0.0
TTFW:1.8
DFPT:2.0
DFPAP:3.0
DFPMP:3.0
RIGHT_WINDOW_BORDER_X:176.0
level,win/fail,% travelled,run time,game ticks,planning time,total plannings,nodes evaluated,most backtracked nodes
Mario-1,true,1.00,309,404,306,377,33242,0
Mario-2,true,1.00,819,360,819,338,93552,0
Mario-3,true,1.00,1665,302,1665,280,207618,0
Mario-4,true,1.00,620,486,617,461,68278,0
Mario-5,true,1.00,1124,477,1120,455,131316,0
Mario-6,true,1.00,1881,309,1880,292,231628,0
Mario-7,true,1.00,537,431,535,404,57819,0
Mario-8,true,1.00,1484,513,1480,469,156977,0
Mario-9,true,1.00,407,383,406,356,47813,0
Mario-10,true,1.00,2090,326,2087,304,263186,0
Mario-11,true,1.00,683,453,680,428,75210,0
Mario-12,true,1.00,1115,671,1111,643,115858,0
Mario-13,true,1.00,1289,341,1285,325,169036,0
Mario-14,true,1.00,179,389,176,367,20285,0
Mario-15,true,1.00,1718,847,1714,817,177683,0
