NDW:0.0
TTFW:1.4
DFPT:2.0
DFPAP:3.0
DFPMP:0.0
RIGHT_WINDOW_BORDER_X:215.0
level,win/fail,% travelled,run time,game ticks,planning time,total plannings,nodes evaluated,most backtracked nodes
Mario-1,true,1.00,1051,394,1026,356,28438,0
Mario-2,true,1.00,1239,336,1170,308,33089,0
Mario-3,true,1.00,1737,269,1728,226,81693,0
Mario-4,true,1.00,1643,429,1610,399,60371,0
Mario-5,true,1.00,1230,380,1189,360,41630,0
Mario-6,true,1.00,2017,278,2005,256,111682,0
Mario-7,true,1.00,1097,423,1064,377,28352,0
Mario-8,true,1.00,1330,425,1294,379,69609,0
Mario-9,true,1.00,741,407,710,364,22777,0
Mario-10,true,1.00,2471,339,2445,299,122152,0
Mario-11,true,1.00,1068,429,1054,393,57871,0
Mario-12,true,1.00,1985,692,1954,647,90885,0
Mario-13,true,1.00,2427,337,2407,316,138502,0
Mario-14,true,1.00,326,426,309,392,15809,0
Mario-15,true,1.00,2424,843,2373,807,121244,0
