NDW:0.0
TTFW:1.6
DFPT:2.0
DFPAP:3.0
DFPMP:50.0
RIGHT_WINDOW_BORDER_X:295.0
level,win/fail,% travelled,run time,game ticks,planning time,total plannings,nodes evaluated,most backtracked nodes
ge-1,true,1.00,447,248,446,205,50764,0
ge-2,true,1.00,371,230,370,203,44013,0
ge-3,true,1.00,212,228,211,202,21065,0
ge-4,true,1.00,1374,253,1372,226,167083,0
ge-5,true,1.00,40,199,37,172,2899,0
ge-6,true,1.00,331,247,328,220,36320,0
ge-7,true,1.00,127,224,126,195,12267,0
ge-8,true,1.00,386,223,384,196,41298,0
ge-9,true,1.00,559,222,556,194,68695,0
ge-10,true,1.00,38,199,35,172,2712,0
ge-11,true,1.00,147,211,142,184,15141,0
ge-12,true,1.00,38,199,38,172,2702,0
ge-13,true,1.00,306,246,304,217,33790,0
ge-14,true,1.00,162,235,159,193,16635,0
ge-15,true,1.00,821,220,821,193,88912,0
ge-16,true,1.00,139,272,137,245,11842,0
ge-17,true,1.00,249,216,248,180,29494,0
ge-18,true,1.00,191,258,191,232,19228,0
ge-19,true,1.00,966,265,964,238,121392,0
ge-20,true,1.00,558,223,557,196,62058,0
ge-21,true,1.00,206,201,205,174,21351,0
ge-22,true,1.00,286,208,285,176,31899,0
ge-23,true,1.00,530,215,528,177,60621,0
ge-24,true,1.00,402,229,400,196,44862,0
ge-25,true,1.00,282,201,282,174,32743,0
ge-26,true,1.00,173,205,171,178,20630,0
ge-27,true,1.00,53,221,52,195,4545,0
ge-28,true,1.00,469,205,469,178,52987,0
ge-29,true,1.00,170,222,168,172,17766,0
ge-30,true,1.00,534,247,533,200,62292,0
ge-31,true,1.00,537,222,535,192,61663,0
ge-32,true,1.00,142,226,140,199,13663,0
ge-33,true,1.00,103,254,102,216,9528,0
ge-34,true,1.00,482,212,481,180,58030,0
ge-35,true,1.00,335,264,332,237,37049,0
ge-36,false,1.00,575,258,574,223,65767,0
ge-37,true,1.00,234,204,234,172,27637,0
ge-38,true,1.00,508,244,505,217,57919,0
ge-39,true,1.00,248,221,246,193,27963,0
ge-40,true,1.00,36,199,32,172,2857,0
ge-41,true,1.00,174,205,173,178,20399,0
ge-42,true,1.00,543,220,542,193,61422,0
ge-43,true,1.00,270,233,270,190,31605,0
ge-44,true,1.00,448,213,447,182,52697,0
ge-45,true,1.00,469,219,465,193,49824,0
ge-46,true,1.00,778,235,775,208,84866,0
ge-47,true,1.00,662,226,658,199,77658,0
ge-48,true,1.00,326,234,324,208,34934,0
ge-49,true,1.00,137,204,137,172,15342,0
ge-50,true,1.00,516,212,516,185,57891,0
ge-51,true,1.00,104,229,103,202,10787,0
ge-52,true,1.00,231,266,227,238,24060,0
ge-53,true,1.00,216,209,215,183,25215,0
ge-54,true,1.00,880,260,879,230,128378,0
ge-55,true,1.00,263,220,262,188,29219,0
ge-56,true,1.00,301,240,299,185,33886,0
ge-57,true,1.00,469,229,468,185,54631,0
ge-58,true,1.00,192,307,189,271,18188,0
ge-59,true,1.00,786,217,784,190,96328,0
ge-60,true,1.00,501,201,500,174,56043,0
ge-61,true,1.00,239,203,239,176,28553,0
ge-62,true,1.00,489,213,489,186,58258,0
ge-63,true,1.00,674,224,672,192,85885,0
ge-64,false,1.00,196,236,194,195,20173,0
ge-65,true,1.00,535,232,534,206,64638,0
ge-66,true,1.00,503,228,502,182,58229,0
ge-67,true,1.00,210,232,209,205,21270,0
ge-68,true,1.00,132,221,132,195,11745,0
ge-69,true,1.00,140,199,139,172,14790,0
ge-70,true,1.00,286,215,282,187,32130,0
ge-71,true,1.00,801,266,801,240,97596,0
ge-72,true,1.00,177,251,177,224,18489,0
ge-73,true,1.00,243,229,242,186,29402,0
ge-74,true,1.00,661,273,659,246,71496,0
ge-75,true,1.00,190,236,189,189,22417,0
ge-76,true,1.00,621,217,620,190,75075,0
ge-77,true,1.00,840,238,838,211,99674,0
ge-78,true,1.00,557,243,556,216,65621,0
ge-79,true,1.00,154,219,153,192,17203,0
ge-80,true,1.00,56,221,54,172,3963,0
ge-81,true,1.00,61,213,58,186,4742,0
ge-82,true,1.00,65,238,65,187,5506,0
ge-83,true,1.00,142,255,141,194,15041,0
ge-84,true,1.00,472,209,470,182,54137,0
ge-85,true,1.00,257,213,256,186,29497,0
ge-86,true,1.00,647,212,647,174,77269,0
ge-87,true,1.00,454,225,454,199,53272,0
ge-88,true,1.00,515,244,512,208,65479,0
ge-89,true,1.00,163,254,163,224,15705,0
ge-90,true,1.00,38,199,38,172,2964,0
ge-91,true,1.00,235,199,235,172,26038,0
ge-92,true,1.00,43,205,41,178,3586,0
ge-93,true,1.00,505,213,505,186,61747,0
ge-94,true,1.00,347,208,346,178,40346,0
ge-95,true,1.00,140,285,136,255,11513,0
ge-96,true,1.00,606,258,604,212,69424,0
ge-97,true,1.00,322,211,322,184,37611,0
ge-98,true,1.00,36,199,34,172,2747,0
ge-99,true,1.00,134,199,132,172,12806,0
ge-100,true,1.00,45,205,42,178,3647,0
