NDW:0.0
TTFW:1.8
DFPT:2.0
DFPAP:3.0
DFPMP:5.0
RIGHT_WINDOW_BORDER_X:235.0
level,win/fail,% travelled,run time,game ticks,planning time,total plannings,nodes evaluated,most backtracked nodes
ore-1,true,1.00,1495,414,1492,391,204349,0
ore-2,false,0.70,1982,348,1981,348,227031,0
ore-3,true,1.00,1456,436,1455,393,201441,0
ore-4,true,1.00,2389,498,2387,465,316570,0
ore-5,true,1.00,1853,397,1850,376,249798,0
ore-6,true,1.00,1390,444,1389,411,179397,0
ore-7,true,1.00,1205,431,1201,400,161100,0
ore-8,true,1.00,2637,467,2636,427,315296,0
ore-9,true,1.00,1563,396,1563,375,204396,0
ore-10,true,1.00,1621,417,1617,396,228724,0
ore-11,true,1.00,1356,528,1352,495,178895,0
ore-12,true,1.00,3080,515,3078,493,311279,0
ore-13,true,1.00,1766,503,1763,464,238925,0
ore-14,true,1.00,1694,437,1687,416,230732,0
ore-15,true,1.00,1576,439,1576,412,206564,0
ore-16,true,1.00,1548,469,1547,443,209882,0
ore-17,true,1.00,1516,486,1510,441,209050,0
ore-18,true,1.00,1221,449,1220,412,171208,0
ore-19,true,1.00,1244,395,1242,374,174505,0
ore-20,true,1.00,1926,456,1918,430,254867,0
ore-21,true,1.00,1524,469,1519,436,211475,0
ore-22,false,0.62,1533,263,1531,263,169072,0
ore-23,true,1.00,1897,467,1892,445,250014,0
ore-24,true,1.00,1706,503,1699,471,229442,0
ore-25,true,1.00,1520,430,1520,394,215178,0
ore-26,true,1.00,1383,447,1381,422,173576,0
ore-27,true,1.00,2120,461,2119,439,272796,0
ore-28,true,1.00,1393,439,1390,413,164944,0
ore-29,true,1.00,2355,435,2351,414,303732,0
ore-30,true,1.00,1515,443,1513,402,196948,0
ore-31,true,1.00,1486,450,1483,411,208756,0
ore-32,true,1.00,1387,425,1387,399,178378,0
ore-33,true,1.00,2495,524,2491,500,359083,0
ore-34,true,1.00,1632,468,1632,437,211225,0
ore-35,true,1.00,1425,403,1421,381,197718,0
ore-36,true,1.00,1261,457,1256,430,173048,0
ore-37,false,0.34,1246,141,1246,141,126999,0
ore-38,true,1.00,1375,407,1373,381,167778,0
ore-39,true,1.00,1814,477,1814,437,235195,0
ore-40,true,1.00,1689,418,1686,389,208777,0
ore-41,true,1.00,2274,446,2272,415,293635,0
ore-42,true,1.00,2927,506,2924,483,355604,0
ore-43,true,1.00,2048,501,2045,472,259046,0
ore-44,true,1.00,1816,451,1813,406,245568,0
ore-45,false,0.74,22684,999,22681,999,1516765,0
ore-46,false,0.12,865,49,865,49,90412,0
ore-47,true,1.00,1938,528,1934,501,253910,0
ore-48,true,1.00,1520,428,1517,406,203132,0
ore-49,true,1.00,1367,452,1364,402,178645,0
ore-50,true,1.00,1559,393,1558,371,203332,0
ore-51,true,1.00,1330,430,1328,384,179265,0
ore-52,true,1.00,1464,458,1462,434,201138,0
ore-53,true,1.00,1615,416,1614,390,211560,0
ore-54,false,0.72,2938,399,2938,399,336343,0
ore-55,true,1.00,1202,415,1199,384,167725,0
ore-56,true,1.00,1210,407,1206,369,158118,0
ore-57,true,1.00,1408,457,1404,421,192997,0
ore-58,true,1.00,1990,435,1987,414,277175,0
ore-59,true,1.00,1830,465,1830,442,252375,0
ore-60,true,1.00,1547,351,1543,330,201064,0
ore-61,true,1.00,1379,451,1374,405,176471,0
ore-62,true,1.00,1810,480,1805,458,242172,0
ore-63,true,1.00,2369,457,2364,428,298833,0
ore-64,true,1.00,1280,417,1277,395,160714,0
ore-65,true,1.00,2334,474,2331,444,322204,0
ore-66,true,1.00,3456,538,3454,500,413720,0
ore-67,true,1.00,1609,452,1607,426,210272,0
ore-68,true,1.00,1893,459,1891,437,243550,0
ore-69,true,1.00,2398,492,2395,469,321729,0
ore-70,false,0.95,2989,450,2987,450,362783,0
ore-71,true,1.00,1319,415,1317,393,179036,0
ore-72,true,1.00,1237,437,1235,403,173362,0
ore-73,true,1.00,1932,441,1926,419,261853,0
ore-74,true,1.00,2289,491,2287,469,273856,0
ore-75,true,1.00,1603,486,1602,464,206110,0
ore-76,true,1.00,1513,407,1512,385,208391,0
ore-77,true,1.00,1236,459,1231,436,169648,0
ore-78,true,1.00,2152,459,2152,438,302342,0
ore-79,true,1.00,1586,481,1582,457,215313,0
ore-80,true,1.00,2412,462,2409,432,317351,0
ore-81,true,1.00,2420,481,2420,459,329300,0
ore-82,true,1.00,1975,437,1973,405,264097,0
ore-83,true,1.00,1255,427,1251,398,164508,0
ore-84,true,1.00,3063,494,3061,466,391848,0
ore-85,true,1.00,1325,472,1323,443,164821,0
ore-86,true,1.00,1976,513,1970,480,251699,0
ore-87,true,1.00,1186,435,1181,411,152652,0
ore-88,true,1.00,1927,429,1920,406,264297,0
ore-89,true,1.00,2072,436,2070,415,276234,0
ore-90,true,1.00,1847,494,1845,450,241937,0
ore-91,true,1.00,1519,422,1517,398,200198,0
ore-92,true,1.00,1535,396,1530,373,205420,0
ore-93,false,0.14,2385,106,2384,106,199033,0
ore-94,true,1.00,1819,491,1816,465,249644,0
ore-95,true,1.00,1984,494,1980,470,267019,0
ore-96,true,1.00,1851,452,1850,431,268020,0
ore-97,true,1.00,1889,499,1885,447,238020,0
ore-98,true,1.00,1467,412,1463,390,197147,0
ore-99,true,1.00,1879,456,1876,432,249696,0
ore-100,true,1.00,1464,440,1463,405,205688,0
