NDW:0.0
TTFW:2.0
DFPT:2.0
DFPAP:3.0
DFPMP:3.0
RIGHT_WINDOW_BORDER_X:75.0
level,win/fail,% travelled,run time,game ticks,planning time,total plannings,nodes evaluated,most backtracked nodes
hopper-1,false,0.48,4313,307,4303,307,166343,0
hopper-2,true,1.00,5869,545,5854,538,243798,0
hopper-3,false,0.24,2403,149,2400,149,98814,0
hopper-4,false,0.26,1520,131,1516,131,67727,0
hopper-5,true,1.00,5302,490,5292,483,225770,0
hopper-6,true,1.00,4897,467,4890,460,219820,0
hopper-7,false,0.83,6312,479,6303,479,263631,0
hopper-8,false,0.42,3460,248,3456,248,144679,0
hopper-9,true,1.00,6677,531,6668,525,279447,0
hopper-10,true,1.00,3747,457,3730,450,166750,0
hopper-11,true,1.00,3081,453,3063,447,132786,0
hopper-12,true,1.00,4559,509,4544,503,206973,0
hopper-13,false,0.39,4255,276,4250,276,175634,0
hopper-14,true,1.00,5240,520,5224,514,228260,0
hopper-15,true,1.00,3349,452,3328,444,95888,0
hopper-16,false,0.54,6034,363,6026,363,232915,0
hopper-17,true,1.00,4833,487,4822,481,234302,0
hopper-18,true,1.00,2768,497,2754,490,131176,0
hopper-19,true,1.00,1623,411,1606,404,85585,0
hopper-20,true,1.00,5557,529,5547,523,265527,0
hopper-21,false,0.61,5304,373,5299,373,233963,0
hopper-22,false,0.32,3728,210,3723,210,160794,0
hopper-23,true,1.00,3670,460,3663,453,158934,0
hopper-24,true,1.00,1007,355,995,349,44105,0
hopper-25,true,1.00,3243,440,3232,434,150412,0
hopper-26,true,1.00,5582,527,5569,519,237115,0
hopper-27,true,1.00,1989,466,1967,458,87388,0
hopper-28,false,0.85,13903,714,13895,714,613005,0
hopper-29,false,0.26,2738,164,2734,164,111992,0
hopper-30,true,1.00,3520,460,3505,454,150337,0
hopper-31,false,0.77,4814,437,4805,437,201091,0
hopper-32,true,1.00,10372,647,10357,640,450317,0
hopper-33,false,0.49,3137,262,3132,262,134888,0
hopper-34,false,0.31,2616,178,2613,178,109211,0
hopper-35,true,1.00,7105,569,7097,562,332099,0
hopper-36,true,1.00,2492,420,2483,414,105098,0
hopper-37,false,0.50,3203,265,3199,265,135459,0
hopper-38,false,0.52,3397,315,3390,315,145001,0
hopper-39,false,0.52,4005,290,3997,290,179020,0
hopper-40,true,1.00,5248,513,5232,506,234181,0
hopper-41,false,0.24,2401,149,2398,149,103788,0
hopper-42,true,1.00,4520,497,4506,490,206952,0
hopper-43,false,0.44,5402,337,5394,337,236890,0
hopper-44,true,1.00,8011,582,8004,575,375738,0
hopper-45,false,0.42,4957,318,4946,318,223177,0
hopper-46,false,0.67,9294,528,9283,528,429678,0
hopper-47,true,1.00,6374,534,6364,527,284756,0
hopper-48,true,1.00,4214,493,4205,487,187441,0
hopper-49,false,0.38,7520,357,7519,357,354028,0
hopper-50,false,0.62,3885,320,3877,320,175273,0
hopper-51,false,0.33,3900,235,3894,235,170997,0
hopper-52,true,1.00,2271,402,2260,396,109381,0
hopper-53,false,0.63,7189,429,7178,429,331920,0
hopper-54,true,1.00,2689,407,2681,400,120880,0
hopper-55,true,1.00,2778,482,2759,474,133701,0
hopper-56,true,1.00,2448,411,2439,404,118438,0
hopper-57,true,1.00,2517,439,2502,433,113566,0
hopper-58,false,0.57,3346,303,3334,303,154983,0
hopper-59,true,1.00,8093,566,8080,560,358246,0
hopper-60,true,1.00,4319,478,4300,471,201316,0
hopper-61,false,0.82,6486,470,6476,470,257048,0
hopper-62,true,1.00,6340,601,6328,595,285346,0
hopper-63,false,0.22,2139,134,2138,134,92832,0
hopper-64,true,1.00,4531,482,4515,476,195632,0
hopper-65,false,0.13,2023,114,2020,114,83032,0
hopper-66,false,0.74,2941,340,2930,340,123546,0
hopper-67,true,1.00,4200,468,4193,462,204584,0
hopper-68,true,1.00,1516,422,1500,416,75981,0
hopper-69,false,0.83,4982,440,4973,440,228178,0
hopper-70,true,1.00,5391,517,5379,511,230654,0
hopper-71,true,1.00,3007,408,2996,401,134689,0
hopper-72,false,0.55,2822,279,2814,279,123758,0
hopper-73,true,1.00,5319,501,5310,495,249719,0
hopper-74,true,1.00,2099,415,2086,409,95264,0
hopper-75,true,1.00,7181,549,7170,543,344710,0
hopper-76,false,0.47,5741,364,5732,364,259812,0
hopper-77,true,1.00,1910,478,1900,471,90451,0
hopper-78,true,1.00,7611,606,7601,600,373738,0
hopper-79,true,1.00,3602,450,3592,443,170273,0
hopper-80,false,0.24,2952,190,2949,190,135210,0
hopper-81,false,0.38,3882,253,3881,253,175318,0
hopper-82,false,0.45,3226,254,3222,254,150046,0
hopper-83,true,1.00,4921,506,4907,499,236041,0
hopper-84,true,1.00,7234,575,7218,569,350684,0
hopper-85,true,1.00,5373,544,5357,537,256917,0
hopper-86,false,0.37,5369,290,5367,290,258550,0
hopper-87,true,1.00,4552,491,4544,484,217069,0
hopper-88,true,1.00,2900,416,2891,410,96020,0
hopper-89,false,0.13,2071,114,2071,114,64838,0
hopper-90,true,1.00,4310,463,4302,456,203599,0
hopper-91,true,1.00,5393,499,5386,492,254619,0
hopper-92,true,1.00,2900,437,2881,430,90273,0
hopper-93,true,1.00,1008,347,997,340,46778,0
hopper-94,false,0.64,4219,382,4212,382,190086,0
hopper-95,true,1.00,5909,566,5893,559,264901,0
hopper-96,false,0.13,2022,114,2019,114,86622,0
hopper-97,true,1.00,6764,538,6755,532,302550,0
hopper-98,true,1.00,7050,552,7037,545,327701,0
hopper-99,false,0.73,7447,483,7438,483,353297,0
hopper-100,false,0.21,2905,184,2900,184,116401,0
