NDW:0.0
TTFW:1.0
DFPT:2.0
DFPAP:3.0
DFPMP:2.0
RIGHT_WINDOW_BORDER_X:15.0
level,win/fail,% travelled,run time,game ticks,planning time,total plannings,nodes evaluated,most backtracked nodes
ore-1,false,0.10,1019,240,1018,240,107568,0
ore-2,false,0.12,211,178,210,178,20909,0
ore-3,false,0.04,93,126,91,126,15410,0
ore-4,false,0.20,41,235,40,235,7607,0
ore-5,false,0.16,251,208,250,208,31445,0
ore-6,false,0.09,361,188,360,188,43766,0
ore-7,false,0.11,362,219,362,219,40922,0
ore-8,false,0.09,470,151,466,151,57812,0
ore-9,false,0.09,617,221,616,221,68624,0
ore-10,false,0.27,692,418,689,418,84921,0
ore-11,false,0.09,91,127,91,127,15447,0
ore-12,false,0.04,231,105,230,105,34098,0
ore-13,false,0.18,195,330,193,330,24986,0
ore-14,false,0.18,298,261,295,261,36310,0
ore-15,false,0.05,96,97,95,97,14821,0
ore-16,false,0.10,88,131,87,131,13439,0
ore-17,false,0.11,413,999,403,999,59330,0
ore-18,false,0.03,9,43,8,43,2004,0
ore-19,false,0.04,90,62,90,62,14648,0
ore-20,false,0.11,1206,213,1206,213,123643,0
ore-21,false,0.11,283,159,282,159,28988,0
ore-22,false,0.12,5,115,5,115,943,0
ore-23,false,0.05,199,102,199,102,29218,0
ore-24,false,0.03,9,43,9,43,2014,0
ore-25,false,0.08,585,166,583,166,62068,0
ore-26,false,0.08,256,170,255,170,29109,0
ore-27,false,0.09,359,197,358,197,48029,0
ore-28,false,0.07,290,144,288,144,35016,0
ore-29,false,0.03,4,53,3,53,983,0
ore-30,false,0.10,6,131,5,131,1343,0
ore-31,false,0.16,310,265,307,265,38473,0
ore-32,false,0.07,64,137,61,137,10079,0
ore-33,false,0.11,787,212,785,212,86701,0
ore-34,false,0.11,135,162,133,162,20516,0
ore-35,false,0.26,306,290,303,290,37384,0
ore-36,false,0.25,577,344,575,344,59175,0
ore-37,false,0.15,355,244,355,244,36710,0
ore-38,false,0.08,319,136,319,136,38648,0
ore-39,false,0.10,293,999,287,999,44144,0
ore-40,false,0.11,1873,340,1871,340,171158,0
ore-41,false,0.09,817,245,816,245,92578,0
ore-42,false,0.05,70,88,70,88,10882,0
ore-43,false,0.04,227,119,223,119,34080,0
ore-44,false,0.09,954,237,951,237,111820,0
ore-45,false,0.18,387,258,386,258,42743,0
ore-46,false,0.05,2,42,1,42,334,0
ore-47,false,0.15,274,216,273,216,32104,0
ore-48,false,0.11,58,142,57,142,9903,0
ore-49,false,0.12,1184,235,1181,235,119377,0
ore-50,false,0.04,144,104,142,104,21338,0
ore-51,false,0.16,203,236,202,236,28280,0
ore-52,false,0.05,72,88,70,88,10882,0
ore-53,false,0.07,633,174,632,174,84567,0
ore-54,false,0.12,93,150,91,150,15629,0
ore-55,false,0.11,113,135,110,135,17078,0
ore-56,false,0.13,1426,266,1426,266,152928,0
ore-57,false,0.15,696,220,696,220,70783,0
ore-58,false,0.09,473,149,472,149,48400,0
ore-59,false,0.08,704,181,704,181,69259,0
ore-60,false,0.03,7,49,7,49,1461,0
ore-61,false,0.10,19,125,18,125,3073,0
ore-62,false,0.04,103,95,102,95,15537,0
ore-63,false,0.10,1421,251,1421,251,146884,0
ore-64,false,0.04,93,116,93,116,14125,0
ore-65,false,0.18,83,260,82,260,9254,0
ore-66,false,0.11,7,121,7,121,1624,0
ore-67,false,0.13,187,187,185,187,19626,0
ore-68,false,0.04,120,106,119,106,17680,0
ore-69,false,0.19,111,195,111,195,19834,0
ore-70,false,0.04,6,58,6,58,1382,0
ore-71,false,0.09,16,95,16,95,3646,0
ore-72,false,0.05,57,98,55,98,9411,0
ore-73,false,0.20,427,302,426,302,49822,0
ore-74,false,0.05,5,65,5,65,1201,0
ore-75,false,0.08,657,173,656,173,72123,0
ore-76,false,0.13,209,162,208,162,22661,0
ore-77,false,0.17,639,239,637,239,61893,0
ore-78,false,0.10,706,175,706,175,72549,0
ore-79,false,0.18,1344,352,1343,352,146212,0
ore-80,false,0.07,66,91,66,91,11042,0
ore-81,false,0.09,259,143,258,143,28379,0
ore-82,false,0.13,849,250,846,250,87681,0
ore-83,false,0.14,806,217,805,217,81601,0
ore-84,false,0.05,72,88,72,88,10882,0
ore-85,false,0.03,10,43,9,43,2014,0
ore-86,false,0.14,397,217,396,217,47052,0
ore-87,false,0.08,289,166,286,166,31784,0
ore-88,false,0.11,207,148,204,148,22496,0
ore-89,false,0.04,75,102,72,102,11501,0
ore-90,false,0.01,1,13,1,13,245,0
ore-91,false,0.12,878,232,878,232,93931,0
ore-92,false,0.22,942,373,940,373,107264,0
ore-93,false,0.10,585,206,584,206,66013,0
ore-94,false,0.04,91,106,91,106,16086,0
ore-95,false,0.11,272,136,269,136,28540,0
ore-96,false,0.21,1063,364,1062,364,101288,0
ore-97,false,0.12,1384,237,1383,237,129186,0
ore-98,false,0.10,143,137,141,137,14532,0
ore-99,false,0.05,141,99,139,99,22399,0
ore-100,false,0.04,143,104,141,104,21338,0
