NDW:0.0
TTFW:1.0
DFPT:2.0
DFPAP:3.0
DFPMP:5.0
RIGHT_WINDOW_BORDER_X:35.0
level,win/fail,% travelled,run time,game ticks,planning time,total plannings,nodes evaluated,most backtracked nodes
patternWeightCount-1,false,0.18,1268,271,1266,271,153645,0
patternWeightCount-2,true,1.00,2769,971,2759,967,274834,0
patternWeightCount-3,false,0.12,2196,255,2194,255,219020,0
patternWeightCount-4,false,0.31,885,347,884,347,95503,0
patternWeightCount-5,false,0.21,4438,405,4437,405,482656,0
patternWeightCount-6,false,0.65,7531,1008,7523,1008,731318,0
patternWeightCount-7,false,0.45,2632,535,2631,535,244778,0
patternWeightCount-8,true,1.00,1339,864,1329,860,129266,0
patternWeightCount-9,false,0.27,2755,421,2754,421,253030,0
patternWeightCount-10,false,0.55,11469,999,11467,999,994960,0
patternWeightCount-11,true,1.00,2166,865,2160,860,231893,0
patternWeightCount-12,false,0.33,717,306,717,306,67516,0
patternWeightCount-13,false,0.37,4080,605,4070,605,379760,0
patternWeightCount-14,false,0.12,1546,156,1546,156,145121,0
patternWeightCount-15,false,0.12,290,155,290,155,31576,0
patternWeightCount-16,false,0.72,6395,996,6389,996,608508,0
patternWeightCount-17,false,0.94,2610,999,2606,999,267398,0
patternWeightCount-18,false,0.01,2,21,2,21,422,0
patternWeightCount-19,true,1.00,1802,882,1799,878,167241,0
patternWeightCount-20,false,0.58,6400,807,6395,807,608653,0
patternWeightCount-21,false,0.98,1519,999,1508,999,160878,0
patternWeightCount-22,false,0.05,1835,144,1835,144,197251,0
patternWeightCount-23,false,0.06,1961,159,1959,159,182634,0
patternWeightCount-24,false,0.13,1448,205,1446,205,148265,0
patternWeightCount-25,false,0.06,312,67,312,67,32081,0
patternWeightCount-26,false,0.19,1281,287,1280,287,125624,0
patternWeightCount-27,false,0.12,1950,258,1950,258,215893,0
patternWeightCount-28,false,0.47,3145,622,3139,622,314857,0
patternWeightCount-29,false,0.30,2824,459,2822,459,287480,0
patternWeightCount-30,false,0.32,1508,499,1505,499,156312,0
patternWeightCount-31,false,0.19,1920,353,1914,353,221056,0
patternWeightCount-32,false,0.11,52,1008,49,1008,8080,0
patternWeightCount-33,false,0.88,3650,999,3643,999,361654,0
patternWeightCount-34,false,0.09,2175,291,2175,291,272563,0
patternWeightCount-35,false,0.63,5788,889,5785,889,538614,0
patternWeightCount-36,false,0.81,5499,999,5491,999,522627,0
patternWeightCount-37,false,0.64,4373,911,4363,911,421958,0
patternWeightCount-38,false,0.10,924,116,923,116,82732,0
patternWeightCount-39,false,0.03,666,123,665,123,107841,0
patternWeightCount-40,false,0.56,3073,774,3066,774,310878,0
patternWeightCount-41,false,0.11,2122,241,2122,241,192070,0
patternWeightCount-42,false,0.35,2403,440,2402,440,225589,0
patternWeightCount-43,false,0.29,2109,393,2107,393,215431,0
patternWeightCount-44,false,0.89,2943,999,2937,999,304828,0
patternWeightCount-45,false,0.18,324,197,322,197,30205,0
patternWeightCount-46,false,0.27,2694,345,2692,345,236600,0
patternWeightCount-47,false,0.50,2789,613,2785,613,250196,0
patternWeightCount-48,true,1.00,2984,875,2979,866,283224,0
patternWeightCount-49,true,1.00,3815,903,3810,894,355149,0
patternWeightCount-50,false,0.91,4604,999,4597,999,417198,0
patternWeightCount-51,false,0.17,1867,236,1865,236,179834,0
patternWeightCount-52,false,0.63,2733,582,2728,582,254439,0
patternWeightCount-53,false,0.29,1760,422,1759,422,168181,0
patternWeightCount-54,false,0.03,219,104,219,104,38648,0
patternWeightCount-55,false,0.48,2464,408,2463,408,236903,0
patternWeightCount-56,false,0.11,1408,187,1406,187,131312,0
patternWeightCount-57,true,1.00,1414,838,1411,834,158884,0
patternWeightCount-58,false,0.79,5205,999,5199,999,494556,0
patternWeightCount-59,true,1.00,1344,786,1340,782,144903,0
patternWeightCount-60,false,0.01,271,64,271,64,47121,0
patternWeightCount-61,false,0.00,1855,999,1849,999,427415,0
patternWeightCount-62,false,0.87,5786,965,5780,965,549558,0
patternWeightCount-63,false,0.05,1061,129,1060,129,138433,0
patternWeightCount-64,false,0.40,4059,640,4057,640,388643,0
patternWeightCount-65,false,0.64,2852,784,2847,784,263056,0
patternWeightCount-66,false,0.87,4926,999,4921,999,480501,0
patternWeightCount-67,false,0.84,5687,999,5683,999,526438,0
patternWeightCount-68,false,0.85,4269,999,4262,999,379548,0
patternWeightCount-69,false,0.82,2460,903,2452,903,244624,0
patternWeightCount-70,false,0.66,4981,999,4973,999,504261,0
patternWeightCount-71,false,0.22,530,308,528,308,56230,0
patternWeightCount-72,false,0.07,856,999,852,999,92148,0
patternWeightCount-73,false,0.07,1503,168,1502,168,148202,0
patternWeightCount-74,false,0.25,2682,460,2679,460,274905,0
patternWeightCount-75,false,0.19,26802,999,26801,999,2330453,0
patternWeightCount-76,false,0.64,3763,763,3758,763,359354,0
patternWeightCount-77,false,0.13,1450,226,1449,226,146492,0
patternWeightCount-78,false,0.05,1276,193,1274,193,162703,0
patternWeightCount-79,false,0.35,3619,445,3618,445,351400,0
patternWeightCount-80,false,0.05,833,150,832,150,88926,0
patternWeightCount-81,false,0.41,3135,538,3130,538,316994,0
patternWeightCount-82,false,0.63,497,609,493,609,58327,0
patternWeightCount-83,false,0.19,2497,346,2497,346,258516,0
patternWeightCount-84,false,0.57,3467,807,3465,807,326610,0
patternWeightCount-85,false,0.24,1580,316,1579,316,150689,0
patternWeightCount-86,false,0.40,1507,464,1504,464,146825,0
patternWeightCount-87,false,0.15,1979,218,1978,218,169397,0
patternWeightCount-88,false,0.08,1386,174,1386,174,133326,0
patternWeightCount-89,false,0.23,820,267,820,267,91765,0
patternWeightCount-90,false,0.10,524,152,523,152,53298,0
patternWeightCount-91,false,0.61,3889,823,3887,823,365255,0
patternWeightCount-92,false,0.21,1175,229,1173,229,120355,0
patternWeightCount-93,false,0.40,4205,653,4202,653,408162,0
patternWeightCount-94,false,0.67,7218,1008,7213,1008,695946,0
patternWeightCount-95,false,0.25,4440,512,4438,512,436506,0
patternWeightCount-96,true,1.00,4514,984,4506,979,438296,0
patternWeightCount-97,false,0.24,2120,374,2118,374,204752,0
patternWeightCount-98,false,0.63,9508,999,9507,999,870517,0
patternWeightCount-99,false,0.13,2337,252,2337,252,215427,0
patternWeightCount-100,false,0.99,4128,999,4120,999,385727,0
