NDW:0.0
TTFW:0.4
DFPT:2.0
DFPAP:3.0
DFPMP:1.0
RIGHT_WINDOW_BORDER_X:115.0
level,win/fail,% travelled,run time,game ticks,planning time,total plannings,nodes evaluated,most backtracked nodes
patternCount-1,false,0.67,3587,430,3585,430,345556,0
patternCount-2,true,1.00,1594,568,1590,558,176194,0
patternCount-3,false,0.91,6245,766,6242,766,600254,0
patternCount-4,true,1.00,1766,486,1763,471,188697,0
patternCount-5,true,1.00,1640,524,1637,514,174397,0
patternCount-6,true,1.00,947,467,944,456,104308,0
patternCount-7,true,1.00,1502,505,1498,495,165230,0
patternCount-8,true,1.00,6276,732,6274,718,656036,0
patternCount-9,true,1.00,2327,572,2323,562,248049,0
patternCount-10,true,1.00,651,458,648,448,74295,0
patternCount-11,false,0.76,3464,506,3461,506,366004,0
patternCount-12,true,1.00,1261,515,1259,505,133875,0
patternCount-13,true,1.00,608,440,606,430,67577,0
patternCount-14,true,1.00,2882,631,2879,613,295850,0
patternCount-15,true,1.00,2053,529,2048,519,216251,0
patternCount-16,true,1.00,1356,559,1356,549,147345,0
patternCount-17,true,1.00,2100,491,2097,481,219139,0
patternCount-18,true,1.00,1728,567,1724,536,181708,0
patternCount-19,true,1.00,1635,578,1633,568,175751,0
patternCount-20,true,1.00,1368,397,1365,387,147184,0
patternCount-21,true,1.00,1149,560,1144,550,124838,0
patternCount-22,true,1.00,7221,725,7219,709,777107,0
patternCount-23,false,0.68,5372,509,5369,509,516736,0
patternCount-24,false,0.74,7805,665,7801,665,830111,0
patternCount-25,true,1.00,1439,513,1434,502,152602,0
patternCount-26,true,1.00,1012,580,1008,569,114002,0
patternCount-27,true,1.00,2122,591,2120,581,233241,0
patternCount-28,true,1.00,1653,481,1650,469,176372,0
patternCount-29,true,1.00,2776,590,2774,580,285355,0
patternCount-30,true,1.00,1193,489,1189,479,134132,0
patternCount-31,true,1.00,3352,682,3347,672,340182,0
patternCount-32,true,1.00,4098,716,4095,706,412122,0
patternCount-33,true,1.00,9445,877,9442,859,929990,0
patternCount-34,true,1.00,3637,644,3634,631,372206,0
patternCount-35,true,1.00,2056,552,2052,541,213977,0
patternCount-36,true,1.00,5031,763,5027,745,498837,0
patternCount-37,true,1.00,1194,519,1194,509,126818,0
patternCount-38,true,1.00,7638,813,7637,803,777952,0
patternCount-39,true,1.00,1599,473,1594,463,165782,0
patternCount-40,false,0.95,13234,898,13229,898,1376758,0
patternCount-41,true,1.00,5233,638,5228,628,552868,0
patternCount-42,true,1.00,1562,537,1558,527,171293,0
patternCount-43,true,1.00,790,485,787,475,92536,0
patternCount-44,true,1.00,712,458,708,448,79404,0
patternCount-45,true,1.00,1857,605,1855,594,188389,0
patternCount-46,true,1.00,4815,640,4811,630,505547,0
patternCount-47,true,1.00,2417,601,2414,591,253373,0
patternCount-48,true,1.00,1922,539,1920,528,207256,0
patternCount-49,true,1.00,1718,553,1717,539,176195,0
patternCount-50,false,0.90,7001,637,6998,637,716955,0
patternCount-51,true,1.00,1765,616,1762,606,187446,0
patternCount-52,true,1.00,1225,489,1223,479,131784,0
patternCount-53,false,0.74,5719,553,5719,553,583768,0
patternCount-54,true,1.00,4758,717,4752,706,502886,0
patternCount-55,false,0.55,5806,511,5802,511,588842,0
patternCount-56,true,1.00,2310,622,2307,612,249939,0
patternCount-57,true,1.00,1206,478,1205,468,126110,0
patternCount-58,true,1.00,1209,556,1205,546,136188,0
patternCount-59,true,1.00,2149,547,2146,537,225875,0
patternCount-60,true,1.00,1786,520,1783,509,179809,0
patternCount-61,true,1.00,2223,635,2221,622,228369,0
patternCount-62,true,1.00,1529,453,1524,443,160188,0
patternCount-63,true,1.00,1367,504,1362,494,150574,0
patternCount-64,true,1.00,937,437,937,427,108911,0
patternCount-65,true,1.00,1023,438,1022,428,107709,0
patternCount-66,true,1.00,2051,554,2048,544,217270,0
patternCount-67,true,1.00,3681,592,3679,572,368442,0
patternCount-68,true,1.00,550,453,547,443,64114,0
patternCount-69,true,1.00,2322,540,2321,529,246317,0
patternCount-70,true,1.00,1122,434,1119,424,127867,0
patternCount-71,true,1.00,2238,580,2235,570,241437,0
patternCount-72,false,0.82,8575,675,8574,675,869082,0
patternCount-73,true,1.00,3344,620,3337,610,340617,0
patternCount-74,false,0.54,2154,390,2154,390,221494,0
patternCount-75,true,1.00,1647,505,1643,495,168718,0
patternCount-76,true,1.00,1652,434,1649,424,176511,0
patternCount-77,true,1.00,1481,549,1478,539,160104,0
patternCount-78,true,1.00,1848,539,1843,529,204339,0
patternCount-79,false,0.79,12723,863,12719,863,1314228,0
patternCount-80,true,1.00,8009,843,8005,824,773140,0
patternCount-81,true,1.00,1331,530,1326,520,140507,0
patternCount-82,true,1.00,1957,563,1952,553,214570,0
patternCount-83,true,1.00,1810,662,1807,652,190950,0
patternCount-84,true,1.00,1047,481,1044,471,112522,0
patternCount-85,true,1.00,1227,592,1222,582,141113,0
patternCount-86,true,1.00,1573,492,1567,482,176995,0
patternCount-87,true,1.00,1714,581,1706,571,188984,0
patternCount-88,true,1.00,2442,554,2439,543,251622,0
patternCount-89,true,1.00,2334,540,2332,530,249358,0
patternCount-90,true,1.00,1088,510,1083,500,120025,0
patternCount-91,true,1.00,3661,693,3658,683,369660,0
patternCount-92,true,1.00,1097,430,1094,420,114336,0
patternCount-93,false,0.81,7938,999,7931,999,767749,0
patternCount-94,true,1.00,3021,546,3015,535,306046,0
patternCount-95,true,1.00,3020,573,3019,563,317192,0
patternCount-96,true,1.00,1849,700,1843,690,199573,0
patternCount-97,true,1.00,1927,475,1926,464,202925,0
patternCount-98,true,1.00,1490,547,1485,537,161776,0
patternCount-99,true,1.00,1286,530,1284,520,137019,0
patternCount-100,true,1.00,1037,520,1034,510,117771,0
