NDW:0.0
TTFW:0.8
DFPT:2.0
DFPAP:3.0
DFPMP:1.0
RIGHT_WINDOW_BORDER_X:275.0
level,win/fail,% travelled,run time,game ticks,planning time,total plannings,nodes evaluated,most backtracked nodes
patternCount-1,false,0.91,5212,437,5209,437,500020,0
patternCount-2,true,1.00,889,430,887,404,85024,0
patternCount-3,true,1.00,3209,484,3206,444,266687,0
patternCount-4,true,1.00,1062,368,1062,343,105498,0
patternCount-5,true,1.00,1053,405,1051,374,97379,0
patternCount-6,true,1.00,423,390,419,365,43054,0
patternCount-7,true,1.00,1074,396,1073,371,100525,0
patternCount-8,true,1.00,2895,446,2892,409,269985,0
patternCount-9,true,1.00,1182,405,1179,380,112171,0
patternCount-10,true,1.00,223,348,218,323,23451,0
patternCount-11,true,1.00,3933,443,3930,406,358280,0
patternCount-12,true,1.00,520,414,516,385,48745,0
patternCount-13,true,1.00,688,378,683,353,66689,0
patternCount-14,true,1.00,1011,378,1006,344,98662,0
patternCount-15,true,1.00,720,399,716,374,69558,0
patternCount-16,true,1.00,638,373,633,348,61036,0
patternCount-17,true,1.00,1156,406,1155,381,108225,0
patternCount-18,true,1.00,1165,408,1162,379,110879,0
patternCount-19,true,1.00,642,367,636,342,59649,0
patternCount-20,true,1.00,1024,402,1015,372,95231,0
patternCount-21,true,1.00,1006,408,1004,383,92526,0
patternCount-22,true,1.00,2625,471,2619,438,246262,0
patternCount-23,true,1.00,6066,544,6064,490,528926,0
patternCount-24,true,1.00,4392,430,4388,399,422075,0
patternCount-25,true,1.00,1138,408,1135,383,109181,0
patternCount-26,true,1.00,664,396,663,371,61565,0
patternCount-27,true,1.00,852,378,848,350,82387,0
patternCount-28,true,1.00,912,434,908,398,86383,0
patternCount-29,true,1.00,866,381,862,356,80352,0
patternCount-30,true,1.00,693,407,689,382,66197,0
patternCount-31,true,1.00,1246,436,1243,411,115777,0
patternCount-32,true,1.00,1114,422,1113,397,101357,0
patternCount-33,true,1.00,3011,512,3007,478,270490,0
patternCount-34,true,1.00,2181,449,2179,410,205391,0
patternCount-35,true,1.00,883,417,880,392,84162,0
patternCount-36,true,1.00,2361,484,2357,457,210496,0
patternCount-37,true,1.00,678,387,676,362,65151,0
patternCount-38,true,1.00,2282,451,2279,425,203642,0
patternCount-39,true,1.00,652,410,648,385,63696,0
patternCount-40,true,1.00,4998,506,4997,463,443708,0
patternCount-41,true,1.00,1974,452,1971,427,190107,0
patternCount-42,true,1.00,801,410,798,380,75930,0
patternCount-43,true,1.00,575,393,574,368,55113,0
patternCount-44,true,1.00,1085,363,1083,338,105308,0
patternCount-45,true,1.00,940,451,936,416,83058,0
patternCount-46,true,1.00,1007,387,1005,362,97600,0
patternCount-47,true,1.00,1577,448,1573,423,148590,0
patternCount-48,true,1.00,590,390,586,365,55497,0
patternCount-49,true,1.00,909,442,906,417,86907,0
patternCount-50,true,1.00,6312,533,6310,494,593809,0
patternCount-51,true,1.00,956,436,952,409,87460,0
patternCount-52,true,1.00,753,416,752,391,71206,0
patternCount-53,true,1.00,4646,448,4641,411,408271,0
patternCount-54,true,1.00,1259,420,1259,395,118891,0
patternCount-55,true,1.00,5769,442,5766,404,503368,0
patternCount-56,true,1.00,952,386,948,361,92046,0
patternCount-57,true,1.00,634,398,634,361,58678,0
patternCount-58,false,0.80,5160,395,5156,395,429541,0
patternCount-59,true,1.00,825,369,823,344,77446,0
patternCount-60,true,1.00,1409,418,1406,393,129091,0
patternCount-61,true,1.00,687,401,684,376,65878,0
patternCount-62,true,1.00,1024,405,1019,370,98620,0
patternCount-63,true,1.00,657,389,654,364,64072,0
patternCount-64,true,1.00,583,418,581,393,58392,0
patternCount-65,true,1.00,648,373,647,343,65669,0
patternCount-66,true,1.00,1067,390,1063,365,106220,0
patternCount-67,true,1.00,1332,403,1328,368,130722,0
patternCount-68,true,1.00,560,411,555,386,52785,0
patternCount-69,true,1.00,752,405,749,380,72429,0
patternCount-70,true,1.00,667,389,660,364,62003,0
patternCount-71,true,1.00,1118,447,1116,422,107374,0
patternCount-72,true,1.00,5976,473,5972,439,509594,0
patternCount-73,true,1.00,1445,414,1438,388,134504,0
patternCount-74,true,1.00,7280,545,7277,511,622957,0
patternCount-75,true,1.00,928,445,926,415,85946,0
patternCount-76,true,1.00,976,421,973,396,95929,0
patternCount-77,true,1.00,981,416,980,392,92328,0
patternCount-78,true,1.00,1144,428,1142,403,105881,0
patternCount-79,true,1.00,3615,445,3612,407,342885,0
patternCount-80,true,1.00,3339,502,3335,452,291071,0
patternCount-81,true,1.00,814,410,811,385,74460,0
patternCount-82,true,1.00,839,422,838,397,80981,0
patternCount-83,true,1.00,728,447,726,422,69718,0
patternCount-84,true,1.00,672,424,669,399,62707,0
patternCount-85,true,1.00,694,375,689,350,67147,0
patternCount-86,true,1.00,571,375,570,350,54769,0
patternCount-87,true,1.00,986,415,985,390,92445,0
patternCount-88,true,1.00,1778,440,1776,402,165633,0
patternCount-89,true,1.00,983,396,982,371,95471,0
patternCount-90,true,1.00,625,387,621,362,60159,0
patternCount-91,true,1.00,1526,481,1523,456,141332,0
patternCount-92,true,1.00,876,409,875,384,85879,0
patternCount-93,true,1.00,4898,434,4894,398,431127,0
patternCount-94,true,1.00,1266,422,1260,387,122306,0
patternCount-95,true,1.00,1253,408,1251,383,120447,0
patternCount-96,true,1.00,937,464,935,438,86814,0
patternCount-97,false,0.83,4463,401,4461,401,384350,0
patternCount-98,true,1.00,924,408,922,383,91484,0
patternCount-99,true,1.00,636,410,632,385,59798,0
patternCount-100,true,1.00,531,389,529,364,49986,0
