NDW:0.0
TTFW:1.6
DFPT:2.0
DFPAP:3.0
DFPMP:10.0
RIGHT_WINDOW_BORDER_X:255.0
level,win/fail,% travelled,run time,game ticks,planning time,total plannings,nodes evaluated,most backtracked nodes
ge-1,true,1.00,501,257,501,217,54428,0
ge-2,true,1.00,351,231,348,208,38550,0
ge-3,true,1.00,174,230,173,207,16300,0
ge-4,true,1.00,910,245,909,222,103522,0
ge-5,true,1.00,34,199,33,176,2391,0
ge-6,true,1.00,330,255,326,221,35751,0
ge-7,true,1.00,125,228,124,204,12145,0
ge-8,true,1.00,191,233,191,210,19816,0
ge-9,true,1.00,611,220,611,196,67264,0
ge-10,true,1.00,33,199,33,176,2268,0
ge-11,true,1.00,149,228,149,205,15136,0
ge-12,true,1.00,33,199,33,176,2205,0
ge-13,true,1.00,327,279,324,251,35565,0
ge-14,true,1.00,153,238,150,199,14764,0
ge-15,true,1.00,515,221,513,198,53621,0
ge-16,true,1.00,107,255,106,232,9640,0
ge-17,true,1.00,241,209,241,186,27518,0
ge-18,true,1.00,186,271,181,248,17923,0
ge-19,true,1.00,508,263,506,240,60734,0
ge-20,true,1.00,352,233,350,210,37505,0
ge-21,true,1.00,171,203,170,180,16895,0
ge-22,true,1.00,303,206,301,180,31808,0
ge-23,true,1.00,515,208,514,181,57279,0
ge-24,true,1.00,422,233,421,203,44328,0
ge-25,true,1.00,307,203,305,180,32295,0
ge-26,true,1.00,200,207,200,184,22510,0
ge-27,true,1.00,48,226,47,203,3995,0
ge-28,true,1.00,418,203,415,180,45823,0
ge-29,true,1.00,197,218,197,176,19907,0
ge-30,true,1.00,481,250,481,209,53259,0
ge-31,true,1.00,542,226,541,202,61120,0
ge-32,true,1.00,98,225,97,202,8658,0
ge-33,true,1.00,115,233,113,193,10664,0
ge-34,true,1.00,547,212,544,186,63196,0
ge-35,true,1.00,299,266,296,242,32493,0
ge-36,true,1.00,546,242,544,211,60203,0
ge-37,true,1.00,197,204,197,175,22747,0
ge-38,true,1.00,569,235,566,212,64632,0
ge-39,true,1.00,243,228,242,204,26775,0
ge-40,true,1.00,32,199,32,176,2312,0
ge-41,true,1.00,203,210,201,184,22653,0
ge-42,true,1.00,557,244,557,221,61039,0
ge-43,true,1.00,293,231,288,204,31137,0
ge-44,true,1.00,476,212,474,190,53736,0
ge-45,true,1.00,371,224,369,201,38189,0
ge-46,true,1.00,628,243,628,220,68048,0
ge-47,true,1.00,734,228,734,205,81879,0
ge-48,true,1.00,268,223,267,200,27757,0
ge-49,true,1.00,133,204,132,175,14627,0
ge-50,true,1.00,477,212,475,189,51529,0
ge-51,true,1.00,93,235,90,211,9335,0
ge-52,true,1.00,490,278,489,255,48774,0
ge-53,true,1.00,211,217,210,194,23684,0
ge-54,true,1.00,317,249,314,219,39321,0
ge-55,true,1.00,292,234,291,205,31378,0
ge-56,true,1.00,336,250,334,212,36077,0
ge-57,true,1.00,453,217,451,189,50447,0
ge-58,true,1.00,183,289,181,264,17809,0
ge-59,true,1.00,707,218,705,195,83104,0
ge-60,true,1.00,449,203,447,180,49322,0
ge-61,true,1.00,234,203,231,180,27209,0
ge-62,true,1.00,543,213,543,190,62777,0
ge-63,true,1.00,679,219,679,196,82593,0
ge-64,false,1.00,289,240,288,205,28672,0
ge-65,true,1.00,524,239,523,216,60207,0
ge-66,true,1.00,512,228,510,185,58166,0
ge-67,true,1.00,184,238,183,215,18182,0
ge-68,true,1.00,130,225,128,202,12135,0
ge-69,true,1.00,137,199,137,176,14213,0
ge-70,true,1.00,316,216,312,192,34591,0
ge-71,true,1.00,1107,232,1106,209,128999,0
ge-72,true,1.00,163,255,162,232,17115,0
ge-73,true,1.00,334,225,331,185,39327,0
ge-74,true,1.00,719,254,717,231,75094,0
ge-75,true,1.00,181,241,180,197,21182,0
ge-76,true,1.00,775,217,775,194,87365,0
ge-77,true,1.00,960,238,960,215,108445,0
ge-78,true,1.00,550,247,550,224,61365,0
ge-79,true,1.00,148,222,148,199,15646,0
ge-80,true,1.00,52,214,51,177,3307,0
ge-81,true,1.00,56,216,54,193,4512,0
ge-82,true,1.00,59,242,58,196,4551,0
ge-83,false,1.00,146,251,144,213,14465,0
ge-84,true,1.00,680,209,678,186,57208,0
ge-85,true,1.00,248,209,247,186,26144,0
ge-86,true,1.00,703,208,703,180,71786,0
ge-87,true,1.00,481,231,479,208,47984,0
ge-88,true,1.00,522,251,512,213,47339,0
ge-89,true,1.00,449,261,447,237,26058,0
ge-90,true,1.00,87,199,78,176,2411,0
ge-91,true,1.00,251,199,251,176,24916,0
ge-92,true,1.00,63,205,57,182,2492,0
ge-93,true,1.00,581,213,579,190,58759,0
ge-94,true,1.00,362,208,361,183,41031,0
ge-95,true,1.00,110,284,109,259,9023,0
ge-96,true,1.00,551,243,549,203,55106,0
ge-97,true,1.00,334,217,331,194,33340,0
ge-98,true,1.00,32,199,32,176,2221,0
ge-99,true,1.00,149,199,146,176,8455,0
ge-100,true,1.00,238,205,236,182,19282,0
