NDW:0.0
TTFW:1.0
DFPT:2.0
DFPAP:3.0
DFPMP:2.0
RIGHT_WINDOW_BORDER_X:295.0
level,win/fail,% travelled,run time,game ticks,planning time,total plannings,nodes evaluated,most backtracked nodes
patternOccur-1,true,1.00,1171,478,1155,451,60212,0
patternOccur-2,true,1.00,1125,432,1116,405,56615,0
patternOccur-3,true,1.00,2048,464,2037,436,112866,0
patternOccur-4,true,1.00,1615,481,1600,454,87812,0
patternOccur-5,true,1.00,993,449,983,421,51226,0
patternOccur-6,true,1.00,1459,439,1450,412,79023,0
patternOccur-7,true,1.00,1459,440,1443,404,78742,0
patternOccur-8,true,1.00,1639,426,1626,399,89347,0
patternOccur-9,true,1.00,1682,454,1670,418,90326,0
patternOccur-10,true,1.00,1133,428,1124,400,58517,0
patternOccur-11,true,1.00,3777,460,3766,426,190776,0
patternOccur-12,true,1.00,1849,500,1835,455,99328,0
patternOccur-13,true,1.00,861,421,846,394,44042,0
patternOccur-14,true,1.00,3486,438,3479,410,185618,0
patternOccur-15,true,1.00,1398,447,1387,420,76049,0
patternOccur-16,true,1.00,4120,497,4103,444,212589,0
patternOccur-17,true,1.00,1699,453,1693,426,89953,0
patternOccur-18,true,1.00,1154,458,1147,424,60555,0
patternOccur-19,false,0.83,3323,393,3307,393,172750,0
patternOccur-20,true,1.00,1193,443,1180,416,62871,0
patternOccur-21,true,1.00,1103,463,1091,429,59163,0
patternOccur-22,false,0.84,3907,438,3896,438,202320,0
patternOccur-23,true,1.00,1868,477,1858,451,99121,0
patternOccur-24,true,1.00,1204,472,1193,445,63240,0
patternOccur-25,true,1.00,1740,448,1727,420,93954,0
patternOccur-26,true,1.00,801,392,787,366,41767,0
patternOccur-27,true,1.00,3775,439,3765,406,197185,0
patternOccur-28,true,1.00,1736,472,1721,444,92353,0
patternOccur-29,true,1.00,1083,432,1071,396,58168,0
patternOccur-30,true,1.00,1124,467,1111,440,57217,0
patternOccur-31,true,1.00,4279,440,4263,405,225070,0
patternOccur-32,false,0.89,3026,415,3021,415,166024,0
patternOccur-33,true,1.00,1353,445,1343,417,72918,0
patternOccur-34,true,1.00,1306,431,1297,393,70544,0
patternOccur-35,true,1.00,1057,423,1038,395,56303,0
patternOccur-36,true,1.00,2405,405,2393,378,134116,0
patternOccur-37,true,1.00,2950,443,2939,406,154603,0
patternOccur-38,true,1.00,1165,415,1153,389,61670,0
patternOccur-39,true,1.00,2459,420,2450,392,132397,0
patternOccur-40,true,1.00,1656,425,1645,398,91783,0
patternOccur-41,true,1.00,1294,410,1281,374,69528,0
patternOccur-42,false,0.89,3442,447,3434,447,171767,0
patternOccur-43,true,1.00,1175,419,1167,392,63583,0
patternOccur-44,true,1.00,1177,407,1164,378,63711,0
patternOccur-45,true,1.00,1601,434,1591,377,84639,0
patternOccur-46,true,1.00,1377,441,1364,414,73560,0
patternOccur-47,true,1.00,3405,498,3397,451,175699,0
patternOccur-48,true,1.00,1242,424,1226,397,66415,0
patternOccur-49,true,1.00,1439,411,1432,384,79170,0
patternOccur-50,true,1.00,2118,440,2102,413,112719,0
patternOccur-51,true,1.00,1617,456,1607,416,88834,0
patternOccur-52,true,1.00,1588,444,1578,407,82605,0
patternOccur-53,true,1.00,1510,406,1497,379,77381,0
patternOccur-54,true,1.00,2023,423,2015,396,108335,0
patternOccur-55,true,1.00,1362,405,1353,378,71120,0
patternOccur-56,true,1.00,1548,490,1535,463,79108,0
patternOccur-57,true,1.00,1771,443,1764,404,94513,0
patternOccur-58,true,1.00,5154,500,5139,468,270039,0
patternOccur-59,true,1.00,1546,434,1533,406,83573,0
patternOccur-60,true,1.00,2608,465,2597,434,135690,0
patternOccur-61,true,1.00,1491,433,1480,397,79424,0
patternOccur-62,true,1.00,1427,436,1414,409,74520,0
patternOccur-63,true,1.00,1544,443,1533,406,81953,0
patternOccur-64,true,1.00,1724,501,1710,449,89652,0
patternOccur-65,true,1.00,1320,439,1312,412,66829,0
patternOccur-66,true,1.00,1606,461,1590,434,82765,0
patternOccur-67,false,0.89,2750,407,2738,407,136082,0
patternOccur-68,true,1.00,1243,469,1239,442,62885,0
patternOccur-69,true,1.00,2872,430,2863,393,146471,0
patternOccur-70,true,1.00,3944,477,3935,444,192055,0
patternOccur-71,true,1.00,1878,461,1867,434,101738,0
patternOccur-72,true,1.00,2659,460,2648,405,131321,0
patternOccur-73,true,1.00,4090,489,4078,448,205718,0
patternOccur-74,true,1.00,3141,469,3131,423,157573,0
patternOccur-75,true,1.00,2199,430,2190,402,116039,0
patternOccur-76,true,1.00,1459,413,1438,386,76218,0
patternOccur-77,true,1.00,1082,427,1072,400,53355,0
patternOccur-78,true,1.00,1006,417,997,390,51239,0
patternOccur-79,true,1.00,1316,444,1304,417,68689,0
patternOccur-80,true,1.00,2554,463,2541,419,132833,0
patternOccur-81,true,1.00,3377,440,3366,410,171881,0
patternOccur-82,true,1.00,2225,482,2215,455,114991,0
patternOccur-83,false,0.82,2974,405,2967,405,142387,0
patternOccur-84,true,1.00,1123,380,1112,353,58070,0
patternOccur-85,true,1.00,1960,452,1937,425,102389,0
patternOccur-86,true,1.00,4600,504,4591,439,220227,0
patternOccur-87,true,1.00,829,436,816,409,43341,0
patternOccur-88,true,1.00,1253,429,1241,401,68337,0
patternOccur-89,true,1.00,1399,470,1393,443,72974,0
patternOccur-90,true,1.00,1530,479,1515,441,82860,0
patternOccur-91,true,1.00,1249,423,1241,390,66870,0
patternOccur-92,true,1.00,954,436,940,409,47447,0
patternOccur-93,true,1.00,1318,420,1309,392,70973,0
patternOccur-94,true,1.00,3836,481,3825,440,191429,0
patternOccur-95,true,1.00,1245,484,1236,444,65424,0
patternOccur-96,false,0.87,2362,419,2349,419,119191,0
patternOccur-97,true,1.00,1516,407,1503,380,81317,0
patternOccur-98,false,0.90,2687,443,2676,443,132959,0
patternOccur-99,true,1.00,905,448,896,421,45887,0
patternOccur-100,true,1.00,1645,466,1625,434,82798,0
