NDW:0.0
TTFW:1.4
DFPT:2.0
DFPAP:3.0
DFPMP:7.0
RIGHT_WINDOW_BORDER_X:115.0
level,win/fail,% travelled,run time,game ticks,planning time,total plannings,nodes evaluated,most backtracked nodes
notchParamRand-1,true,1.00,1646,358,1638,348,80868,0
notchParamRand-2,true,1.00,121,302,111,292,5429,0
notchParamRand-3,true,1.00,1521,338,1516,328,73543,0
notchParamRand-4,true,1.00,3518,429,3510,419,188647,0
notchParamRand-5,true,1.00,244,298,237,288,12267,0
notchParamRand-6,true,1.00,698,328,685,318,36077,0
notchParamRand-7,true,1.00,382,306,378,296,18763,0
notchParamRand-8,true,1.00,546,306,538,296,27064,0
notchParamRand-9,true,1.00,2462,405,2455,395,138161,0
notchParamRand-10,true,1.00,1307,354,1299,344,72189,0
notchParamRand-11,true,1.00,129,310,122,300,6099,0
notchParamRand-12,true,1.00,468,322,463,312,24153,0
notchParamRand-13,true,1.00,3574,392,3559,382,163103,0
notchParamRand-14,true,1.00,1440,324,1414,314,38641,0
notchParamRand-15,true,1.00,731,308,710,298,20161,0
notchParamRand-16,true,1.00,409,314,389,304,14215,0
notchParamRand-17,true,1.00,72,303,61,293,2144,0
notchParamRand-18,true,1.00,4894,467,4886,457,242141,0
notchParamRand-19,true,1.00,208,326,195,316,10569,0
notchParamRand-20,true,1.00,3305,439,3290,429,157639,0
notchParamRand-21,true,1.00,103,296,85,286,1901,0
notchParamRand-22,true,1.00,1278,346,1257,336,40769,0
notchParamRand-23,true,1.00,1994,380,1987,370,104452,0
notchParamRand-24,true,1.00,293,336,281,326,14930,0
notchParamRand-25,true,1.00,59,312,48,302,2432,0
notchParamRand-26,true,1.00,469,366,461,356,24036,0
notchParamRand-27,true,1.00,589,318,584,308,34948,0
notchParamRand-28,true,1.00,517,328,505,318,26866,0
notchParamRand-29,true,1.00,50,298,42,288,1973,0
notchParamRand-30,true,1.00,5243,470,5234,460,269719,0
notchParamRand-31,true,1.00,406,326,390,316,21489,0
notchParamRand-32,true,1.00,124,308,115,298,6133,0
notchParamRand-33,true,1.00,8765,592,8759,582,473549,0
notchParamRand-34,true,1.00,1512,352,1503,342,79865,0
notchParamRand-35,true,1.00,1288,348,1278,338,70203,0
notchParamRand-36,true,1.00,50,303,44,289,1969,0
notchParamRand-37,true,1.00,574,332,565,322,31827,0
notchParamRand-38,true,1.00,6251,501,6236,491,334630,0
notchParamRand-39,true,1.00,3510,432,3505,422,190475,0
notchParamRand-40,true,1.00,5230,473,5222,463,271916,0
notchParamRand-41,true,1.00,44,294,32,284,1673,0
notchParamRand-42,true,1.00,446,332,438,322,24399,0
notchParamRand-43,true,1.00,312,304,305,294,16245,0
notchParamRand-44,true,1.00,487,324,476,314,27314,0
notchParamRand-45,true,1.00,2054,398,2044,388,105383,0
notchParamRand-46,true,1.00,2176,367,2170,357,122664,0
notchParamRand-47,true,1.00,874,328,869,318,46318,0
notchParamRand-48,true,1.00,5628,465,5620,455,307169,0
notchParamRand-49,true,1.00,1282,344,1272,334,70282,0
notchParamRand-50,true,1.00,1850,387,1840,377,99727,0
notchParamRand-51,true,1.00,175,317,168,307,8809,0
notchParamRand-52,true,1.00,1459,356,1445,346,75244,0
notchParamRand-53,true,1.00,1235,324,1231,314,61374,0
notchParamRand-54,true,1.00,5207,487,5195,477,276354,0
notchParamRand-55,true,1.00,5661,470,5649,460,289995,0
notchParamRand-56,true,1.00,3422,423,3414,413,183361,0
notchParamRand-57,true,1.00,2767,388,2752,378,145836,0
notchParamRand-58,true,1.00,1422,364,1411,354,77919,0
notchParamRand-59,true,1.00,635,328,629,318,34235,0
notchParamRand-60,true,1.00,1554,353,1550,343,85891,0
notchParamRand-61,true,1.00,527,320,518,310,28043,0
notchParamRand-62,true,1.00,531,340,519,330,27750,0
notchParamRand-63,true,1.00,3676,393,3662,383,187866,0
notchParamRand-64,true,1.00,754,324,746,314,38778,0
notchParamRand-65,true,1.00,5650,488,5646,478,293911,0
notchParamRand-66,true,1.00,275,323,265,313,13543,0
notchParamRand-67,true,1.00,282,298,277,288,14027,0
notchParamRand-68,true,1.00,3783,430,3774,420,199134,0
notchParamRand-69,true,1.00,428,315,415,305,23011,0
notchParamRand-70,true,1.00,1108,344,1101,334,60949,0
notchParamRand-71,true,1.00,344,334,339,324,17876,0
notchParamRand-72,true,1.00,115,298,110,288,5590,0
notchParamRand-73,true,1.00,441,312,432,302,22656,0
notchParamRand-74,true,1.00,49,296,43,286,1967,0
notchParamRand-75,true,1.00,47,294,38,284,1733,0
notchParamRand-76,true,1.00,1980,383,1970,373,105454,0
notchParamRand-77,true,1.00,3619,422,3608,412,179743,0
notchParamRand-78,true,1.00,1782,350,1775,340,94308,0
notchParamRand-79,true,1.00,240,310,232,300,12442,0
notchParamRand-80,true,1.00,345,306,337,296,16801,0
notchParamRand-81,true,1.00,456,318,451,308,25548,0
notchParamRand-82,true,1.00,1302,360,1291,350,70945,0
notchParamRand-83,true,1.00,3243,428,3237,418,173066,0
notchParamRand-84,true,1.00,376,324,363,314,20007,0
notchParamRand-85,true,1.00,46,294,39,284,1681,0
notchParamRand-86,true,1.00,447,357,438,347,23605,0
notchParamRand-87,true,1.00,4044,437,4040,427,215935,0
notchParamRand-88,true,1.00,753,332,741,322,41836,0
notchParamRand-89,true,1.00,1271,371,1263,361,66032,0
notchParamRand-90,true,1.00,1755,379,1748,369,88226,0
notchParamRand-91,true,1.00,49,296,44,285,1872,0
notchParamRand-92,true,1.00,1205,368,1197,358,64913,0
notchParamRand-93,true,1.00,339,319,328,309,17817,0
notchParamRand-94,true,1.00,5574,458,5567,448,291907,0
notchParamRand-95,true,1.00,1695,379,1686,369,90732,0
notchParamRand-96,true,1.00,1357,350,1350,340,75120,0
notchParamRand-97,true,1.00,3313,417,3304,407,176011,0
notchParamRand-98,true,1.00,396,308,384,298,22750,0
notchParamRand-99,true,1.00,333,328,326,318,17172,0
notchParamRand-100,true,1.00,5391,468,5388,458,285594,0
