NDW:0.0
TTFW:1.4
DFPT:2.0
DFPAP:3.0
DFPMP:20.0
RIGHT_WINDOW_BORDER_X:255.0
level,win/fail,% travelled,run time,game ticks,planning time,total plannings,nodes evaluated,most backtracked nodes
ore-1,true,1.00,1635,424,1622,399,96826,0
ore-2,false,0.70,2671,313,2661,313,146384,0
ore-3,true,1.00,1784,433,1776,391,110354,0
ore-4,true,1.00,1943,425,1931,395,111028,0
ore-5,true,1.00,1981,401,1979,372,119786,0
ore-6,true,1.00,1435,441,1426,408,84696,0
ore-7,true,1.00,2299,491,2280,460,132679,0
ore-8,false,0.13,1847,86,1846,86,96589,0
ore-9,true,1.00,1222,392,1214,349,72924,0
ore-10,true,1.00,1869,431,1861,408,109665,0
ore-11,true,1.00,1685,504,1675,467,96642,0
ore-12,false,0.46,1530,195,1526,195,82300,0
ore-13,true,1.00,1824,471,1807,429,106811,0
ore-14,true,1.00,1757,403,1745,378,105184,0
ore-15,true,1.00,1813,416,1801,393,107073,0
ore-16,true,1.00,3708,490,3701,458,187286,0
ore-17,true,1.00,1988,482,1973,437,120572,0
ore-18,true,1.00,1524,453,1517,416,90240,0
ore-19,true,1.00,1468,430,1456,406,87431,0
ore-20,true,1.00,2375,451,2366,419,141332,0
ore-21,true,1.00,2420,507,2406,482,144927,0
ore-22,false,0.59,1889,261,1884,261,99859,0
ore-23,true,1.00,1682,433,1672,409,98910,0
ore-24,true,1.00,2073,479,2065,444,122022,0
ore-25,true,1.00,1702,440,1691,407,102178,0
ore-26,true,1.00,2160,430,2143,399,120247,0
ore-27,false,0.24,1485,104,1485,104,73518,0
ore-28,true,1.00,1518,419,1510,390,82889,0
ore-29,true,1.00,2332,429,2322,406,124342,0
ore-30,true,1.00,1485,435,1473,402,62670,0
ore-31,true,1.00,1915,454,1898,430,75368,0
ore-32,true,1.00,1853,426,1844,404,100577,0
ore-33,true,1.00,1893,467,1876,424,105560,0
ore-34,true,1.00,2417,532,2398,501,133739,0
ore-35,true,1.00,2262,405,2249,381,134039,0
ore-36,true,1.00,1467,428,1458,396,84735,0
ore-37,false,0.34,1224,122,1224,122,62022,0
ore-38,true,1.00,1329,414,1319,391,74941,0
ore-39,true,1.00,2831,454,2821,429,163517,0
ore-40,true,1.00,1996,453,1977,418,109412,0
ore-41,true,1.00,1788,432,1776,393,102324,0
ore-42,true,1.00,3157,500,3140,465,172190,0
ore-43,true,1.00,2699,452,2693,429,146392,0
ore-44,true,1.00,2904,440,2891,389,166657,0
ore-45,false,0.74,23789,999,23776,999,873289,0
ore-46,false,0.12,823,53,822,53,41253,0
ore-47,false,0.84,2428,487,2417,487,129296,0
ore-48,true,1.00,2849,468,2837,445,160903,0
ore-49,true,1.00,1773,445,1764,396,102116,0
ore-50,true,1.00,2106,449,2096,424,117901,0
ore-51,true,1.00,2048,430,2040,390,115055,0
ore-52,true,1.00,1735,427,1727,390,96715,0
ore-53,true,1.00,1645,402,1636,374,92245,0
ore-54,false,0.72,2679,351,2673,351,140750,0
ore-55,true,1.00,1699,408,1689,374,101007,0
ore-56,true,1.00,1406,381,1401,353,80740,0
ore-57,true,1.00,1746,428,1738,387,98897,0
ore-58,true,1.00,1922,451,1914,423,109935,0
ore-59,true,1.00,2118,472,2107,449,123798,0
ore-60,true,1.00,2483,425,2468,396,139028,0
ore-61,true,1.00,1704,425,1694,396,92922,0
ore-62,true,1.00,1773,426,1763,402,100855,0
ore-63,false,0.32,2619,173,2615,173,127958,0
ore-64,true,1.00,1739,435,1727,410,100789,0
ore-65,true,1.00,2102,501,2083,470,118732,0
ore-66,true,1.00,2310,465,2299,421,132956,0
ore-67,true,1.00,2138,412,2124,378,122299,0
ore-68,true,1.00,1459,417,1446,391,83209,0
ore-69,true,1.00,2433,465,2417,439,129814,0
ore-70,false,0.95,3375,456,3363,456,181390,0
ore-71,true,1.00,1578,420,1568,396,90396,0
ore-72,true,1.00,1460,446,1453,411,82553,0
ore-73,true,1.00,1740,416,1732,386,97455,0
ore-74,true,1.00,3864,471,3855,446,193964,0
ore-75,true,1.00,1700,456,1692,431,95896,0
ore-76,true,1.00,1683,410,1673,375,97662,0
ore-77,true,1.00,1596,392,1582,360,93874,0
ore-78,true,1.00,2128,474,2112,451,122831,0
ore-79,true,1.00,1655,387,1647,364,96564,0
ore-80,true,1.00,1929,414,1922,379,111620,0
ore-81,true,1.00,2017,430,2008,406,116383,0
ore-82,true,1.00,1839,392,1828,357,106755,0
ore-83,true,1.00,1967,430,1956,407,113651,0
ore-84,true,1.00,4434,489,4425,465,219683,0
ore-85,true,1.00,1657,471,1640,439,93383,0
ore-86,false,0.62,2243,325,2235,325,124219,0
ore-87,true,1.00,1309,395,1301,364,74276,0
ore-88,true,1.00,2294,434,2289,409,132616,0
ore-89,true,1.00,2718,440,2698,417,150772,0
ore-90,true,1.00,2989,479,2980,437,174189,0
ore-91,true,1.00,2092,449,2078,426,116206,0
ore-92,true,1.00,2211,428,2198,402,128713,0
ore-93,false,0.13,1618,77,1617,77,74982,0
ore-94,true,1.00,1988,480,1974,448,112229,0
ore-95,true,1.00,2463,470,2459,431,141909,0
ore-96,true,1.00,2442,488,2429,463,139212,0
ore-97,true,1.00,2888,492,2885,448,162242,0
ore-98,true,1.00,2114,428,2103,403,124758,0
ore-99,true,1.00,2198,484,2182,453,126785,0
ore-100,true,1.00,1660,463,1646,428,95362,0
