NDW:0.0
TTFW:2.0
DFPT:2.0
DFPAP:3.0
DFPMP:5.0
RIGHT_WINDOW_BORDER_X:75.0
level,win/fail,% travelled,run time,game ticks,planning time,total plannings,nodes evaluated,most backtracked nodes
notch-1,true,1.00,2286,346,2283,339,115362,0
notch-2,true,1.00,2419,376,2411,370,123499,0
notch-3,true,1.00,1057,353,1049,346,51770,0
notch-4,true,1.00,1631,343,1625,334,76615,0
notch-5,true,1.00,824,289,817,282,38800,0
notch-6,true,1.00,2088,325,2082,318,103975,0
notch-7,true,1.00,620,307,608,300,30312,0
notch-8,true,1.00,1336,363,1330,356,67095,0
notch-9,true,1.00,2212,370,2200,363,108263,0
notch-10,true,1.00,1382,355,1366,349,70175,0
notch-11,true,1.00,2672,368,2659,362,130637,0
notch-12,true,1.00,1090,321,1080,314,54397,0
notch-13,true,1.00,945,325,937,318,45964,0
notch-14,true,1.00,1078,291,1072,284,51371,0
notch-15,false,0.12,78,40,77,40,3983,0
notch-16,true,1.00,1399,338,1392,331,70851,0
notch-17,true,1.00,2332,373,2320,367,117522,0
notch-18,true,1.00,2241,410,2229,403,116150,0
notch-19,false,0.86,1407,286,1399,286,73106,0
notch-20,true,1.00,1556,370,1549,364,79690,0
notch-21,true,1.00,2533,393,2523,387,131845,0
notch-22,true,1.00,2203,353,2191,346,105025,0
notch-23,true,1.00,1514,318,1499,311,76106,0
notch-24,true,1.00,1985,347,1979,340,103164,0
notch-25,true,1.00,2046,379,2033,371,105313,0
notch-26,true,1.00,2282,337,2272,329,120789,0
notch-27,true,1.00,2647,370,2643,363,143269,0
notch-28,true,1.00,2380,401,2371,394,128395,0
notch-29,true,1.00,1667,387,1655,380,84741,0
notch-30,true,1.00,1464,348,1455,341,74312,0
notch-31,true,1.00,1585,351,1572,344,83194,0
notch-32,true,1.00,1122,303,1118,296,57161,0
notch-33,true,1.00,2270,323,2266,317,121985,0
notch-34,true,1.00,1108,319,1101,313,59764,0
notch-35,true,1.00,890,328,880,321,46888,0
notch-36,true,1.00,3258,439,3249,432,169066,0
notch-37,false,0.71,2672,321,2662,321,140940,0
notch-38,true,1.00,3357,437,3347,429,171573,0
notch-39,true,1.00,2581,345,2576,339,123537,0
notch-40,true,1.00,1386,351,1375,344,67864,0
notch-41,true,1.00,2461,398,2448,391,122035,0
notch-42,false,0.10,76,37,76,37,3752,0
notch-43,true,1.00,1368,313,1360,305,67614,0
notch-44,true,1.00,928,301,924,294,43554,0
notch-45,true,1.00,1052,290,1047,284,51339,0
notch-46,true,1.00,1405,365,1395,358,67526,0
notch-47,true,1.00,1545,353,1536,346,75272,0
notch-48,true,1.00,2580,383,2572,376,126510,0
notch-49,true,1.00,1828,348,1815,341,90589,0
notch-50,true,1.00,1405,342,1399,335,70750,0
notch-51,true,1.00,1013,329,999,322,50941,0
notch-52,true,1.00,1861,341,1856,334,89070,0
notch-53,true,1.00,441,294,432,287,20640,0
notch-54,true,1.00,2033,406,2021,399,100497,0
notch-55,true,1.00,2192,379,2179,373,107029,0
notch-56,true,1.00,2225,352,2213,345,107064,0
notch-57,true,1.00,943,325,928,318,46533,0
notch-58,true,1.00,3064,451,3056,444,164921,0
notch-59,true,1.00,997,352,987,346,49061,0
notch-60,true,1.00,2103,379,2091,372,103838,0
notch-61,true,1.00,2381,350,2375,343,116808,0
notch-62,true,1.00,1235,358,1218,352,61790,0
notch-63,true,1.00,1867,350,1857,343,91807,0
notch-64,true,1.00,1906,330,1900,324,94084,0
notch-65,true,1.00,3924,424,3909,417,219011,0
notch-66,true,1.00,2880,430,2870,423,150476,0
notch-67,true,1.00,2068,340,2058,333,103625,0
notch-68,true,1.00,622,292,615,285,32464,0
notch-69,true,1.00,2710,410,2701,403,142978,0
notch-70,true,1.00,3600,433,3592,426,193137,0
notch-71,true,1.00,1876,336,1854,329,57948,0
notch-72,true,1.00,987,289,980,282,48497,0
notch-73,true,1.00,1217,324,1210,318,62661,0
notch-74,true,1.00,1396,348,1389,341,71266,0
notch-75,true,1.00,2337,368,2328,361,114183,0
notch-76,true,1.00,1722,358,1709,351,83116,0
notch-77,true,1.00,2000,378,1991,371,102507,0
notch-78,true,1.00,1091,316,1084,309,55234,0
notch-79,true,1.00,1982,399,1965,392,100314,0
notch-80,true,1.00,1226,302,1222,296,58219,0
notch-81,true,1.00,1371,302,1355,295,66258,0
notch-82,true,1.00,2664,391,2656,385,131308,0
notch-83,true,1.00,1290,359,1280,352,61068,0
notch-84,true,1.00,819,301,811,294,39135,0
notch-85,true,1.00,1922,379,1917,372,95403,0
notch-86,true,1.00,972,317,963,311,47213,0
notch-87,true,1.00,4139,427,4125,420,204637,0
notch-88,true,1.00,2518,378,2509,371,127733,0
notch-89,true,1.00,3772,398,3762,391,168059,0
notch-90,true,1.00,2734,363,2725,357,122159,0
notch-91,true,1.00,3454,444,3444,437,180543,0
notch-92,true,1.00,2419,417,2405,410,123406,0
notch-93,true,1.00,1240,349,1227,343,61954,0
notch-94,true,1.00,2099,328,2095,321,109056,0
notch-95,true,1.00,2437,340,2435,334,123507,0
notch-96,true,1.00,796,294,784,288,41094,0
notch-97,true,1.00,3020,384,3017,377,156440,0
notch-98,true,1.00,1600,388,1590,381,82953,0
notch-99,true,1.00,1651,369,1643,362,85368,0
notch-100,true,1.00,1426,339,1416,332,73186,0
