NDW:0.0
TTFW:1.4
DFPT:2.0
DFPAP:3.0
DFPMP:3.0
RIGHT_WINDOW_BORDER_X:215.0
level,win/fail,% travelled,run time,game ticks,planning time,total plannings,nodes evaluated,most backtracked nodes
notchParamRand-1,true,1.00,854,312,850,293,47225,0
notchParamRand-2,true,1.00,138,306,133,287,6083,0
notchParamRand-3,true,1.00,958,306,953,287,56013,0
notchParamRand-4,true,1.00,1388,331,1380,312,81638,0
notchParamRand-5,true,1.00,235,306,228,287,11606,0
notchParamRand-6,true,1.00,417,314,411,295,22821,0
notchParamRand-7,true,1.00,223,294,215,275,11189,0
notchParamRand-8,true,1.00,497,304,489,285,26159,0
notchParamRand-9,true,1.00,600,318,595,299,33597,0
notchParamRand-10,true,1.00,827,336,820,317,46767,0
notchParamRand-11,true,1.00,138,294,128,275,6363,0
notchParamRand-12,true,1.00,306,308,296,289,15722,0
notchParamRand-13,true,1.00,1616,312,1607,293,92440,0
notchParamRand-14,true,1.00,980,312,972,293,55134,0
notchParamRand-15,true,1.00,538,308,529,289,30053,0
notchParamRand-16,true,1.00,370,300,363,281,21147,0
notchParamRand-17,true,1.00,96,303,84,284,3671,0
notchParamRand-18,true,1.00,1668,318,1663,299,95255,0
notchParamRand-19,true,1.00,266,330,257,311,13615,0
notchParamRand-20,true,1.00,1429,335,1421,316,85930,0
notchParamRand-21,true,1.00,83,296,78,277,2929,0
notchParamRand-22,true,1.00,832,314,829,295,48250,0
notchParamRand-23,true,1.00,976,332,971,313,58305,0
notchParamRand-24,true,1.00,215,320,206,301,10884,0
notchParamRand-25,true,1.00,98,308,87,288,4079,0
notchParamRand-26,true,1.00,395,338,390,319,21339,0
notchParamRand-27,true,1.00,221,300,213,281,12073,0
notchParamRand-28,true,1.00,430,312,426,293,23637,0
notchParamRand-29,true,1.00,85,298,79,279,3103,0
notchParamRand-30,true,1.00,1830,328,1820,309,107406,0
notchParamRand-31,true,1.00,298,316,290,297,16274,0
notchParamRand-32,true,1.00,142,294,135,275,6684,0
notchParamRand-33,true,1.00,1643,310,1637,291,96652,0
notchParamRand-34,true,1.00,913,316,903,297,52185,0
notchParamRand-35,true,1.00,481,310,471,291,27271,0
notchParamRand-36,true,1.00,82,300,74,280,2995,0
notchParamRand-37,true,1.00,403,310,394,291,22373,0
notchParamRand-38,true,1.00,1725,315,1717,296,98951,0
notchParamRand-39,true,1.00,1467,339,1461,320,84198,0
notchParamRand-40,true,1.00,1960,310,1954,291,113815,0
notchParamRand-41,true,1.00,75,294,72,275,2456,0
notchParamRand-42,true,1.00,417,316,409,297,23754,0
notchParamRand-43,true,1.00,217,300,211,281,11367,0
notchParamRand-44,true,1.00,300,302,290,283,16548,0
notchParamRand-45,true,1.00,913,316,904,297,49947,0
notchParamRand-46,true,1.00,531,311,522,292,30189,0
notchParamRand-47,true,1.00,786,314,780,295,44261,0
notchParamRand-48,true,1.00,1366,337,1357,318,79020,0
notchParamRand-49,true,1.00,742,306,737,287,42021,0
notchParamRand-50,true,1.00,1458,321,1456,302,83598,0
notchParamRand-51,true,1.00,210,315,205,296,10343,0
notchParamRand-52,true,1.00,749,308,741,289,41945,0
notchParamRand-53,true,1.00,799,326,785,307,46158,0
notchParamRand-54,true,1.00,2247,335,2244,316,130809,0
notchParamRand-55,true,1.00,1831,314,1827,295,102823,0
notchParamRand-56,true,1.00,641,325,636,306,36510,0
notchParamRand-57,true,1.00,983,312,978,293,58740,0
notchParamRand-58,true,1.00,758,323,749,304,43886,0
notchParamRand-59,true,1.00,581,311,577,292,32644,0
notchParamRand-60,true,1.00,637,311,631,292,36922,0
notchParamRand-61,true,1.00,484,306,478,287,27563,0
notchParamRand-62,true,1.00,469,320,461,301,25426,0
notchParamRand-63,true,1.00,1387,312,1382,293,81217,0
notchParamRand-64,true,1.00,281,296,274,277,15287,0
notchParamRand-65,true,1.00,1817,330,1811,311,105565,0
notchParamRand-66,true,1.00,275,314,260,295,13711,0
notchParamRand-67,true,1.00,287,300,280,281,14698,0
notchParamRand-68,true,1.00,1425,312,1417,293,83147,0
notchParamRand-69,true,1.00,236,309,233,290,12582,0
notchParamRand-70,true,1.00,663,326,653,307,38575,0
notchParamRand-71,true,1.00,365,326,358,307,18726,0
notchParamRand-72,true,1.00,113,294,106,275,4861,0
notchParamRand-73,true,1.00,463,308,451,289,25127,0
notchParamRand-74,true,1.00,85,296,79,277,3235,0
notchParamRand-75,true,1.00,79,294,74,275,2641,0
notchParamRand-76,true,1.00,1022,332,1018,313,57517,0
notchParamRand-77,true,1.00,1705,411,1701,392,94495,0
notchParamRand-78,true,1.00,997,310,987,291,57728,0
notchParamRand-79,true,1.00,237,298,229,279,12398,0
notchParamRand-80,true,1.00,290,302,284,283,15012,0
notchParamRand-81,true,1.00,285,298,280,279,15545,0
notchParamRand-82,true,1.00,781,312,774,293,44921,0
notchParamRand-83,true,1.00,1363,332,1354,313,77816,0
notchParamRand-84,true,1.00,298,300,292,281,15942,0
notchParamRand-85,true,1.00,74,294,69,275,2456,0
notchParamRand-86,true,1.00,592,342,582,323,32620,0
notchParamRand-87,true,1.00,1641,320,1637,301,97729,0
notchParamRand-88,true,1.00,289,300,276,281,15989,0
notchParamRand-89,true,1.00,365,339,359,320,19886,0
notchParamRand-90,true,1.00,680,310,675,291,36946,0
notchParamRand-91,true,1.00,78,299,70,275,2710,0
notchParamRand-92,true,1.00,876,326,870,307,49958,0
notchParamRand-93,true,1.00,304,318,299,288,16217,0
notchParamRand-94,true,1.00,1543,310,1538,291,87778,0
notchParamRand-95,true,1.00,794,316,788,297,44719,0
notchParamRand-96,true,1.00,467,325,465,306,25116,0
notchParamRand-97,true,1.00,1415,345,1401,326,78417,0
notchParamRand-98,true,1.00,215,294,212,275,11239,0
notchParamRand-99,true,1.00,255,310,245,291,13312,0
notchParamRand-100,true,1.00,1337,314,1327,295,77960,0
