NDW:0.0
TTFW:1.2
DFPT:2.0
DFPAP:3.0
DFPMP:10.0
RIGHT_WINDOW_BORDER_X:215.0
level,win/fail,% travelled,run time,game ticks,planning time,total plannings,nodes evaluated,most backtracked nodes
patternOccur-1,true,1.00,886,475,886,452,107903,0
patternOccur-2,true,1.00,757,438,753,417,90418,0
patternOccur-3,true,1.00,1403,474,1401,453,173859,0
patternOccur-4,true,1.00,1896,506,1895,487,234277,0
patternOccur-5,true,1.00,655,478,653,458,81679,0
patternOccur-6,true,1.00,1048,469,1042,448,128811,0
patternOccur-7,true,1.00,1439,499,1432,477,175379,0
patternOccur-8,true,1.00,1404,435,1400,416,175611,0
patternOccur-9,true,1.00,1417,499,1415,479,167548,0
patternOccur-10,true,1.00,890,526,889,495,99172,0
patternOccur-11,true,1.00,3476,523,3474,503,324557,0
patternOccur-12,true,1.00,1139,500,1135,472,133517,0
patternOccur-13,true,1.00,717,430,716,411,83016,0
patternOccur-14,true,1.00,3201,457,3199,430,335000,0
patternOccur-15,true,1.00,1221,428,1218,409,132693,0
patternOccur-16,true,1.00,3658,468,3656,444,335387,0
patternOccur-17,true,1.00,1560,507,1557,486,179662,0
patternOccur-18,true,1.00,785,443,783,424,91363,0
patternOccur-19,false,0.82,4626,493,4622,493,483847,0
patternOccur-20,true,1.00,1110,493,1110,474,135928,0
patternOccur-21,true,1.00,774,484,767,464,97142,0
patternOccur-22,false,0.84,2853,431,2851,431,325793,0
patternOccur-23,true,1.00,1314,496,1308,477,148554,0
patternOccur-24,true,1.00,1073,488,1073,469,132572,0
patternOccur-25,true,1.00,1251,494,1249,474,151448,0
patternOccur-26,true,1.00,683,397,681,378,81465,0
patternOccur-27,true,1.00,3521,478,3521,457,374757,0
patternOccur-28,true,1.00,1356,489,1356,469,167393,0
patternOccur-29,true,1.00,1127,436,1125,407,133273,0
patternOccur-30,true,1.00,878,483,874,464,103140,0
patternOccur-31,true,1.00,4947,507,4945,486,474003,0
patternOccur-32,true,1.00,5535,554,5533,533,590678,0
patternOccur-33,true,1.00,1267,480,1266,460,152733,0
patternOccur-34,true,1.00,1480,478,1478,448,182629,0
patternOccur-35,true,1.00,1043,435,1040,415,124066,0
patternOccur-36,true,1.00,2431,466,2429,440,286358,0
patternOccur-37,true,1.00,3999,552,3998,496,447676,0
patternOccur-38,true,1.00,1040,480,1036,461,127682,0
patternOccur-39,true,1.00,4013,543,4009,523,432919,0
patternOccur-40,true,1.00,2490,471,2487,451,311446,0
patternOccur-41,true,1.00,1270,465,1266,435,159261,0
patternOccur-42,false,0.89,3238,459,3233,459,336969,0
patternOccur-43,true,1.00,914,461,912,442,111120,0
patternOccur-44,true,1.00,1096,443,1094,424,137480,0
patternOccur-45,true,1.00,1747,459,1745,438,188219,0
patternOccur-46,true,1.00,751,437,746,418,87678,0
patternOccur-47,true,1.00,3412,533,3409,500,372510,0
patternOccur-48,true,1.00,1163,476,1161,457,147425,0
patternOccur-49,true,1.00,886,418,885,399,108859,0
patternOccur-50,true,1.00,1881,499,1878,479,220075,0
patternOccur-51,true,1.00,1164,503,1161,478,147086,0
patternOccur-52,true,1.00,1435,456,1426,436,172209,0
patternOccur-53,true,1.00,1673,447,1673,428,199682,0
patternOccur-54,true,1.00,1817,464,1813,436,224992,0
patternOccur-55,true,1.00,1598,453,1597,434,199195,0
patternOccur-56,true,1.00,1407,536,1406,517,171655,0
patternOccur-57,true,1.00,1365,463,1364,441,164592,0
patternOccur-58,true,1.00,3709,505,3707,480,388770,0
patternOccur-59,true,1.00,893,445,887,425,109267,0
patternOccur-60,true,1.00,2414,506,2410,474,258503,0
patternOccur-61,true,1.00,1065,462,1063,440,133569,0
patternOccur-62,true,1.00,1006,471,1003,452,121227,0
patternOccur-63,true,1.00,1186,478,1182,447,153865,0
patternOccur-64,true,1.00,1697,512,1695,490,211569,0
patternOccur-65,true,1.00,888,455,879,436,112644,0
patternOccur-66,true,1.00,1648,463,1646,442,202621,0
patternOccur-67,true,1.00,1735,465,1729,446,211243,0
patternOccur-68,true,1.00,916,496,910,477,109630,0
patternOccur-69,true,1.00,6592,620,6588,584,653972,0
patternOccur-70,false,0.87,5789,563,5788,563,585576,0
patternOccur-71,true,1.00,1794,452,1790,433,230536,0
patternOccur-72,false,0.87,2036,476,2030,476,216069,0
patternOccur-73,true,1.00,4429,562,4428,530,458525,0
patternOccur-74,true,1.00,3945,565,3941,527,422683,0
patternOccur-75,true,1.00,1457,478,1454,450,160547,0
patternOccur-76,true,1.00,1414,450,1411,431,172986,0
patternOccur-77,true,1.00,617,446,616,427,73329,0
patternOccur-78,true,1.00,567,408,566,389,66361,0
patternOccur-79,true,1.00,983,448,979,429,128663,0
patternOccur-80,true,1.00,3410,527,3407,500,370902,0
patternOccur-81,true,1.00,4331,545,4324,502,480979,0
patternOccur-82,true,1.00,1492,485,1487,457,167994,0
patternOccur-83,false,0.82,3924,453,3920,453,394709,0
patternOccur-84,true,1.00,933,423,931,404,112774,0
patternOccur-85,true,1.00,3871,606,3864,575,421588,0
patternOccur-86,true,1.00,4404,489,4403,463,457927,0
patternOccur-87,true,1.00,1000,456,997,437,122651,0
patternOccur-88,true,1.00,1575,457,1570,437,195361,0
patternOccur-89,true,1.00,1018,449,1010,430,121865,0
patternOccur-90,true,1.00,1576,520,1573,500,202555,0
patternOccur-91,true,1.00,936,452,934,422,113470,0
patternOccur-92,true,1.00,750,417,745,398,91073,0
patternOccur-93,true,1.00,1118,433,1115,413,137863,0
patternOccur-94,true,1.00,5549,566,5544,536,555762,0
patternOccur-95,true,1.00,922,489,916,468,113776,0
patternOccur-96,false,0.87,2204,493,2203,493,220388,0
patternOccur-97,true,1.00,1653,444,1650,425,217285,0
patternOccur-98,false,0.90,2271,477,2269,477,261298,0
patternOccur-99,true,1.00,655,395,653,376,81056,0
patternOccur-100,true,1.00,901,447,900,428,103451,0
