NDW:0.0
TTFW:1.6
DFPT:2.0
DFPAP:3.0
DFPMP:50.0
RIGHT_WINDOW_BORDER_X:350.0
level,win/fail,% travelled,run time,game ticks,planning time,total plannings,nodes evaluated,most backtracked nodes
notchParamRand-1,true,1.00,845,312,844,280,91693,0
notchParamRand-2,true,1.00,138,306,135,274,11873,0
notchParamRand-3,true,1.00,892,306,891,274,106199,0
notchParamRand-4,true,1.00,2049,337,2049,305,243083,0
notchParamRand-5,true,1.00,268,306,265,274,25718,0
notchParamRand-6,true,1.00,378,314,375,282,40864,0
notchParamRand-7,true,1.00,230,294,230,262,23558,0
notchParamRand-8,true,1.00,434,306,429,275,42471,0
notchParamRand-9,true,1.00,563,346,562,314,63632,0
notchParamRand-10,true,1.00,788,347,784,315,90099,0
notchParamRand-11,true,1.00,132,294,131,262,11778,0
notchParamRand-12,true,1.00,306,310,303,278,31058,0
notchParamRand-13,true,1.00,1743,312,1742,280,191449,0
notchParamRand-14,true,1.00,901,310,900,278,93108,0
notchParamRand-15,true,1.00,586,308,585,276,64297,0
notchParamRand-16,true,1.00,406,300,403,268,47332,0
notchParamRand-17,true,1.00,76,303,74,271,4552,0
notchParamRand-18,true,1.00,1779,326,1777,294,200853,0
notchParamRand-19,true,1.00,188,328,186,296,18076,0
notchParamRand-20,true,1.00,1459,357,1457,325,174848,0
notchParamRand-21,true,1.00,67,296,66,264,4172,0
notchParamRand-22,true,1.00,953,314,948,282,111682,0
notchParamRand-23,true,1.00,1525,339,1523,307,184435,0
notchParamRand-24,true,1.00,189,325,188,293,18866,0
notchParamRand-25,true,1.00,63,313,60,268,4369,0
notchParamRand-26,true,1.00,977,359,977,327,109632,0
notchParamRand-27,true,1.00,230,300,228,268,27255,0
notchParamRand-28,true,1.00,356,317,355,285,37498,0
notchParamRand-29,true,1.00,66,298,65,266,4235,0
notchParamRand-30,true,1.00,1753,326,1752,294,205537,0
notchParamRand-31,true,1.00,359,316,359,284,40476,0
notchParamRand-32,true,1.00,128,294,126,262,12215,0
notchParamRand-33,true,1.00,1630,310,1628,278,187066,0
notchParamRand-34,true,1.00,836,314,834,282,95677,0
notchParamRand-35,true,1.00,451,318,449,286,51233,0
notchParamRand-36,true,1.00,61,303,59,262,3770,0
notchParamRand-37,true,1.00,372,310,372,278,41769,0
notchParamRand-38,true,1.00,1665,315,1664,283,185441,0
notchParamRand-39,true,1.00,1339,316,1339,284,155051,0
notchParamRand-40,true,1.00,2109,314,2108,282,240272,0
notchParamRand-41,true,1.00,61,294,57,262,3603,0
notchParamRand-42,true,1.00,429,316,426,284,50129,0
notchParamRand-43,true,1.00,230,300,230,268,24700,0
notchParamRand-44,true,1.00,276,302,272,270,30912,0
notchParamRand-45,true,1.00,945,320,944,288,100519,0
notchParamRand-46,true,1.00,501,311,498,279,57658,0
notchParamRand-47,true,1.00,691,314,690,282,78969,0
notchParamRand-48,true,1.00,1349,322,1346,290,153031,0
notchParamRand-49,true,1.00,685,306,684,274,77131,0
notchParamRand-50,true,1.00,1354,333,1353,301,157101,0
notchParamRand-51,true,1.00,144,315,143,283,13165,0
notchParamRand-52,true,1.00,749,304,748,272,82116,0
notchParamRand-53,true,1.00,912,328,911,296,100632,0
notchParamRand-54,true,1.00,1647,345,1646,313,184065,0
notchParamRand-55,true,1.00,1659,312,1657,280,177389,0
notchParamRand-56,true,1.00,686,333,682,301,77158,0
notchParamRand-57,true,1.00,876,312,875,280,104326,0
notchParamRand-58,true,1.00,693,323,691,291,80944,0
notchParamRand-59,true,1.00,386,311,382,279,42210,0
notchParamRand-60,true,1.00,520,313,517,281,58005,0
notchParamRand-61,true,1.00,424,306,422,274,48144,0
notchParamRand-62,true,1.00,373,320,369,288,40621,0
notchParamRand-63,true,1.00,1408,312,1407,280,158160,0
notchParamRand-64,true,1.00,274,296,271,264,30572,0
notchParamRand-65,true,1.00,1747,329,1747,297,198428,0
notchParamRand-66,true,1.00,265,313,263,281,25441,0
notchParamRand-67,true,1.00,265,300,264,268,25318,0
notchParamRand-68,true,1.00,1378,312,1376,280,161912,0
notchParamRand-69,true,1.00,240,311,240,279,26385,0
notchParamRand-70,true,1.00,610,326,609,294,72424,0
notchParamRand-71,true,1.00,256,318,252,286,25600,0
notchParamRand-72,true,1.00,131,294,130,262,11982,0
notchParamRand-73,true,1.00,401,308,400,276,40170,0
notchParamRand-74,true,1.00,67,296,67,264,4239,0
notchParamRand-75,true,1.00,64,294,64,262,3677,0
notchParamRand-76,true,1.00,1484,340,1482,308,161539,0
notchParamRand-77,true,1.00,1416,358,1416,326,152972,0
notchParamRand-78,true,1.00,858,310,858,278,98937,0
notchParamRand-79,true,1.00,272,298,270,266,27799,0
notchParamRand-80,true,1.00,274,302,272,270,27425,0
notchParamRand-81,true,1.00,266,298,265,266,29539,0
notchParamRand-82,true,1.00,664,312,663,280,76669,0
notchParamRand-83,true,1.00,1263,319,1262,287,143789,0
notchParamRand-84,true,1.00,304,302,303,270,32561,0
notchParamRand-85,true,1.00,62,294,62,262,3535,0
notchParamRand-86,true,1.00,509,336,507,304,53781,0
notchParamRand-87,true,1.00,1760,320,1756,288,205587,0
notchParamRand-88,true,1.00,275,300,271,268,31016,0
notchParamRand-89,true,1.00,311,300,308,268,34924,0
notchParamRand-90,true,1.00,567,310,566,278,60014,0
notchParamRand-91,true,1.00,65,294,62,262,3901,0
notchParamRand-92,true,1.00,977,332,977,300,112713,0
notchParamRand-93,true,1.00,274,318,268,276,29562,0
notchParamRand-94,true,1.00,1592,310,1592,278,179877,0
notchParamRand-95,true,1.00,765,316,764,284,85270,0
notchParamRand-96,true,1.00,361,322,358,290,38848,0
notchParamRand-97,true,1.00,1618,347,1615,315,177462,0
notchParamRand-98,true,1.00,226,294,224,262,26718,0
notchParamRand-99,true,1.00,280,310,275,278,28286,0
notchParamRand-100,true,1.00,1387,314,1385,282,157063,0
