NDW:0.0
TTFW:1.4
DFPT:2.0
DFPAP:3.0
DFPMP:0.0
RIGHT_WINDOW_BORDER_X:215.0
level,win/fail,% travelled,run time,game ticks,planning time,total plannings,nodes evaluated,most backtracked nodes
ore-1,true,1.00,1770,445,1760,425,107874,0
ore-2,false,0.70,2488,351,2485,351,139630,0
ore-3,true,1.00,1558,438,1548,410,97716,0
ore-4,true,1.00,1724,451,1713,426,101518,0
ore-5,true,1.00,2000,389,1988,369,120486,0
ore-6,true,1.00,1543,426,1530,396,92452,0
ore-7,true,1.00,1710,458,1691,435,103856,0
ore-8,true,1.00,2623,367,2618,337,152454,0
ore-9,true,1.00,1291,386,1283,361,80748,0
ore-10,false,0.55,791,278,781,278,48869,0
ore-11,true,1.00,1640,462,1634,430,100647,0
ore-12,false,0.46,1332,213,1328,213,74387,0
ore-13,true,1.00,2189,468,2179,432,136109,0
ore-14,true,1.00,1723,418,1715,398,109160,0
ore-15,true,1.00,1645,418,1637,394,101321,0
ore-16,true,1.00,2291,429,2280,407,144457,0
ore-17,true,1.00,2038,491,2023,452,129129,0
ore-18,true,1.00,1360,451,1350,419,84911,0
ore-19,true,1.00,1405,407,1397,387,83223,0
ore-20,true,1.00,2192,445,2177,411,116263,0
ore-21,true,1.00,2154,479,2143,450,114612,0
ore-22,false,0.59,2657,290,2647,290,127274,0
ore-23,true,1.00,2137,444,2126,424,134260,0
ore-24,true,1.00,1728,483,1719,454,107270,0
ore-25,true,1.00,1970,469,1962,440,125011,0
ore-26,true,1.00,1449,418,1439,396,86175,0
ore-27,false,0.24,1389,137,1387,137,73725,0
ore-28,true,1.00,2118,442,2111,423,119791,0
ore-29,true,1.00,2399,445,2392,426,135108,0
ore-30,true,1.00,1502,425,1477,404,88104,0
ore-31,true,1.00,1352,411,1342,370,84237,0
ore-32,true,1.00,1611,439,1597,414,98033,0
ore-33,true,1.00,1699,481,1688,453,104160,0
ore-34,true,1.00,2146,500,2130,472,128248,0
ore-35,true,1.00,2031,406,2021,386,126922,0
ore-36,true,1.00,1433,430,1422,410,87972,0
ore-37,false,0.34,1246,135,1244,135,66007,0
ore-38,true,1.00,1575,412,1564,383,94084,0
ore-39,true,1.00,1807,466,1793,429,109440,0
ore-40,true,1.00,2469,426,2455,398,149694,0
ore-41,true,1.00,1688,420,1680,389,104218,0
ore-42,true,1.00,2551,516,2538,489,146272,0
ore-43,true,1.00,3274,459,3260,439,192644,0
ore-44,true,1.00,2209,443,2195,380,136091,0
ore-45,false,0.74,22687,999,22678,999,876317,0
ore-46,false,0.12,811,50,811,50,45776,0
ore-47,false,0.84,3360,501,3337,501,161277,0
ore-48,true,1.00,1717,439,1706,419,103901,0
ore-49,true,1.00,1297,428,1285,399,78628,0
ore-50,true,1.00,1687,398,1680,378,105461,0
ore-51,true,1.00,1842,431,1836,394,113452,0
ore-52,true,1.00,2085,419,2074,388,129292,0
ore-53,true,1.00,2310,437,2298,415,141842,0
ore-54,false,0.72,2226,361,2216,361,124178,0
ore-55,true,1.00,1588,425,1572,400,102396,0
ore-56,true,1.00,1152,383,1143,358,69991,0
ore-57,true,1.00,1624,464,1611,419,100338,0
ore-58,true,1.00,2458,448,2449,429,153243,0
ore-59,true,1.00,2080,468,2071,448,125896,0
ore-60,true,1.00,2070,405,2057,383,122763,0
ore-61,true,1.00,1448,446,1441,411,86044,0
ore-62,true,1.00,2346,469,2335,449,146604,0
ore-63,false,0.32,2743,194,2740,194,143303,0
ore-64,true,1.00,1406,423,1392,403,85292,0
ore-65,true,1.00,2441,498,2429,470,148809,0
ore-66,true,1.00,2308,436,2297,414,144536,0
ore-67,true,1.00,1473,433,1460,403,87477,0
ore-68,true,1.00,1475,400,1468,381,89160,0
ore-69,true,1.00,2613,463,2599,442,146273,0
ore-70,false,0.95,2733,436,2725,436,162449,0
ore-71,true,1.00,1395,415,1387,395,86560,0
ore-72,true,1.00,1783,447,1773,416,111732,0
ore-73,true,1.00,2009,405,1999,385,124846,0
ore-74,true,1.00,2480,424,2468,404,143833,0
ore-75,true,1.00,1826,452,1816,432,112712,0
ore-76,true,1.00,1530,379,1524,359,94773,0
ore-77,true,1.00,1282,388,1277,366,77880,0
ore-78,true,1.00,2611,444,2597,425,164027,0
ore-79,true,1.00,2718,503,2710,482,162482,0
ore-80,true,1.00,2226,447,2218,420,139306,0
ore-81,true,1.00,1854,461,1848,441,113654,0
ore-82,true,1.00,1715,395,1702,370,105159,0
ore-83,true,1.00,1596,414,1591,395,97922,0
ore-84,true,1.00,4322,515,4306,488,233567,0
ore-85,true,1.00,1429,487,1414,463,85913,0
ore-86,true,1.00,3014,507,3006,474,176996,0
ore-87,true,1.00,1314,438,1301,411,77853,0
ore-88,true,1.00,2061,411,2049,391,127374,0
ore-89,true,1.00,1905,417,1894,396,112942,0
ore-90,true,1.00,1912,451,1904,407,118286,0
ore-91,true,1.00,1960,408,1953,387,113221,0
ore-92,true,1.00,1826,441,1812,420,111181,0
ore-93,false,0.13,2764,114,2763,114,125948,0
ore-94,true,1.00,3304,506,3295,483,206201,0
ore-95,true,1.00,2711,483,2701,462,165330,0
ore-96,true,1.00,2375,445,2364,426,150051,0
ore-97,false,0.78,2129,355,2122,355,124098,0
ore-98,true,1.00,2039,443,2024,421,126559,0
ore-99,true,1.00,2207,440,2196,418,130479,0
ore-100,true,1.00,2072,479,2064,444,124833,0
