NDW:0.0
TTFW:0.6
DFPT:2.0
DFPAP:3.0
DFPMP:20.0
RIGHT_WINDOW_BORDER_X:215.0
level,win/fail,% travelled,run time,game ticks,planning time,total plannings,nodes evaluated,most backtracked nodes
hopper-1,true,1.00,1092,311,1086,292,54965,0
hopper-2,true,1.00,1091,309,1084,290,56286,0
hopper-3,false,0.24,811,86,809,86,37097,0
hopper-4,false,0.27,687,94,686,94,33828,0
hopper-5,true,1.00,934,311,928,292,47386,0
hopper-6,true,1.00,1009,315,1004,295,50988,0
hopper-7,false,0.84,1277,257,1264,257,61302,0
hopper-8,false,0.42,905,133,902,133,43598,0
hopper-9,true,1.00,968,304,965,280,48973,0
hopper-10,true,1.00,895,303,889,284,46728,0
hopper-11,true,1.00,755,315,747,296,38183,0
hopper-12,true,1.00,1413,341,1405,322,73118,0
hopper-13,false,0.40,3100,190,3097,190,134084,0
hopper-14,true,1.00,1016,318,1010,294,52261,0
hopper-15,true,1.00,1033,305,1023,286,51736,0
hopper-16,false,0.55,1038,172,1036,172,49680,0
hopper-17,true,1.00,911,309,901,290,45440,0
hopper-18,true,1.00,955,301,947,282,46976,0
hopper-19,true,1.00,868,310,857,287,46414,0
hopper-20,true,1.00,1174,322,1167,302,58649,0
hopper-21,false,0.62,1157,196,1150,196,55660,0
hopper-22,false,0.33,795,108,792,108,37545,0
hopper-23,true,1.00,1396,319,1386,300,74294,0
hopper-24,true,1.00,639,299,631,280,32059,0
hopper-25,true,1.00,1037,309,1030,290,53762,0
hopper-26,true,1.00,1086,303,1080,284,54107,0
hopper-27,true,1.00,922,303,913,284,47117,0
hopper-28,false,0.85,3146,309,3136,309,148112,0
hopper-29,false,0.26,1604,113,1604,113,71955,0
hopper-30,true,1.00,873,315,865,287,44039,0
hopper-31,false,0.78,1536,255,1533,255,75735,0
hopper-32,true,1.00,1305,299,1299,280,68081,0
hopper-33,false,0.50,951,169,944,169,45494,0
hopper-34,false,0.31,858,104,856,104,39741,0
hopper-35,true,1.00,1254,317,1246,297,64976,0
hopper-36,true,1.00,736,307,727,288,36129,0
hopper-37,false,0.51,840,166,836,166,39588,0
hopper-38,true,1.00,1372,324,1361,305,72780,0
hopper-39,false,0.52,2007,200,2005,200,92953,0
hopper-40,true,1.00,996,314,986,289,49052,0
hopper-41,true,1.00,1616,303,1610,284,83022,0
hopper-42,true,1.00,858,305,849,286,42622,0
hopper-43,false,0.45,1610,166,1607,166,76512,0
hopper-44,true,1.00,1460,321,1454,302,75793,0
hopper-45,false,0.43,1316,151,1314,151,63130,0
hopper-46,false,0.67,1725,245,1721,245,85847,0
hopper-47,true,1.00,1327,307,1319,288,68628,0
hopper-48,true,1.00,1135,307,1126,288,57262,0
hopper-49,true,1.00,1146,313,1139,294,59459,0
hopper-50,false,0.63,2681,251,2678,251,121321,0
hopper-51,false,0.33,1715,135,1714,135,77026,0
hopper-52,true,1.00,770,311,763,291,39484,0
hopper-53,false,0.63,1773,215,1770,215,85321,0
hopper-54,true,1.00,644,302,638,277,32167,0
hopper-55,true,1.00,855,307,844,287,43848,0
hopper-56,true,1.00,714,297,707,278,37240,0
hopper-57,true,1.00,1010,307,1000,288,48300,0
hopper-58,false,0.58,1703,199,1699,199,75025,0
hopper-59,true,1.00,747,297,740,278,37420,0
hopper-60,true,1.00,1295,333,1285,314,68141,0
hopper-61,false,0.82,1979,265,1972,265,95761,0
hopper-62,true,1.00,1261,323,1258,303,62811,0
hopper-63,false,0.23,678,79,677,79,31713,0
hopper-64,true,1.00,1400,321,1393,302,69609,0
hopper-65,true,1.00,1013,309,1007,290,51878,0
hopper-66,false,0.74,1756,251,1749,251,80036,0
hopper-67,true,1.00,775,311,770,292,39499,0
hopper-68,true,1.00,694,303,688,284,33872,0
hopper-69,false,0.84,1337,261,1332,261,64146,0
hopper-70,true,1.00,1133,310,1129,287,58004,0
hopper-71,true,1.00,681,305,670,286,34284,0
hopper-72,true,1.00,1773,333,1767,312,90666,0
hopper-73,true,1.00,1038,305,1031,286,51232,0
hopper-74,true,1.00,804,305,796,286,39426,0
hopper-75,true,1.00,1097,307,1080,288,55534,0
hopper-76,false,0.47,2510,191,2508,191,111440,0
hopper-77,true,1.00,801,306,795,283,39968,0
hopper-78,true,1.00,1069,297,1066,278,56245,0
hopper-79,true,1.00,764,307,758,286,37723,0
hopper-80,true,1.00,734,307,730,288,35829,0
hopper-81,false,0.39,1026,125,1025,125,49065,0
hopper-82,false,0.46,971,151,966,151,47671,0
hopper-83,true,1.00,1360,301,1341,282,38011,0
hopper-84,true,1.00,1234,307,1221,288,45927,0
hopper-85,true,1.00,1167,313,1157,294,42054,0
hopper-86,true,1.00,1011,315,1005,296,52330,0
hopper-87,true,1.00,1111,315,1098,296,56582,0
hopper-88,true,1.00,713,311,704,292,37424,0
hopper-89,true,1.00,849,305,837,286,38906,0
hopper-90,true,1.00,892,316,882,293,44351,0
hopper-91,true,1.00,1015,299,1008,280,50664,0
hopper-92,true,1.00,1340,321,1333,302,65224,0
hopper-93,true,1.00,752,317,741,298,37075,0
hopper-94,false,0.65,1189,203,1186,203,57574,0
hopper-95,true,1.00,942,297,934,278,47885,0
hopper-96,true,1.00,1288,305,1283,286,67397,0
hopper-97,true,1.00,1210,307,1205,288,60992,0
hopper-98,true,1.00,1393,313,1385,294,70508,0
hopper-99,false,0.72,2997,264,2993,264,138231,0
hopper-100,true,1.00,1159,323,1151,302,59568,0
