NDW:0.0
TTFW:1.4
DFPT:2.0
DFPAP:3.0
DFPMP:5.0
RIGHT_WINDOW_BORDER_X:350.0
level,win/fail,% travelled,run time,game ticks,planning time,total plannings,nodes evaluated,most backtracked nodes
notchParamRand-1,true,1.00,940,312,932,280,50089,0
notchParamRand-2,true,1.00,211,306,203,274,8229,0
notchParamRand-3,true,1.00,1022,306,1011,274,55600,0
notchParamRand-4,true,1.00,1875,331,1867,299,104525,0
notchParamRand-5,true,1.00,339,306,330,274,15710,0
notchParamRand-6,true,1.00,470,314,463,282,23901,0
notchParamRand-7,true,1.00,290,294,286,262,13777,0
notchParamRand-8,true,1.00,548,318,540,286,27943,0
notchParamRand-9,true,1.00,681,346,675,314,36702,0
notchParamRand-10,true,1.00,926,349,918,317,50195,0
notchParamRand-11,true,1.00,196,294,188,262,8357,0
notchParamRand-12,true,1.00,395,310,388,278,19345,0
notchParamRand-13,true,1.00,1896,312,1889,280,107104,0
notchParamRand-14,true,1.00,1012,310,1002,278,55694,0
notchParamRand-15,true,1.00,672,308,661,276,37334,0
notchParamRand-16,true,1.00,473,300,463,268,25346,0
notchParamRand-17,true,1.00,133,303,125,271,4524,0
notchParamRand-18,true,1.00,1925,326,1917,294,111265,0
notchParamRand-19,true,1.00,280,337,268,305,12862,0
notchParamRand-20,true,1.00,1618,357,1605,325,92391,0
notchParamRand-21,true,1.00,125,296,115,264,4279,0
notchParamRand-22,true,1.00,1068,314,1064,282,60168,0
notchParamRand-23,true,1.00,1553,335,1544,303,90469,0
notchParamRand-24,true,1.00,281,325,275,293,13020,0
notchParamRand-25,true,1.00,123,313,114,268,4395,0
notchParamRand-26,true,1.00,970,338,963,306,52221,0
notchParamRand-27,true,1.00,289,300,282,268,14591,0
notchParamRand-28,true,1.00,508,312,502,280,26286,0
notchParamRand-29,true,1.00,125,298,115,266,4262,0
notchParamRand-30,true,1.00,1932,326,1925,294,110078,0
notchParamRand-31,true,1.00,478,316,471,284,25135,0
notchParamRand-32,true,1.00,185,294,178,262,7875,0
notchParamRand-33,true,1.00,1758,310,1750,278,101210,0
notchParamRand-34,true,1.00,919,314,912,282,50910,0
notchParamRand-35,true,1.00,545,310,542,278,29444,0
notchParamRand-36,true,1.00,114,303,104,262,3799,0
notchParamRand-37,true,1.00,451,310,442,278,23710,0
notchParamRand-38,true,1.00,1791,315,1785,283,101370,0
notchParamRand-39,true,1.00,1556,335,1547,303,88272,0
notchParamRand-40,true,1.00,2299,314,2290,282,131391,0
notchParamRand-41,true,1.00,113,294,106,262,3638,0
notchParamRand-42,true,1.00,547,316,536,284,29493,0
notchParamRand-43,true,1.00,289,300,282,268,14384,0
notchParamRand-44,true,1.00,353,302,343,270,17966,0
notchParamRand-45,true,1.00,1041,320,1032,288,56027,0
notchParamRand-46,true,1.00,643,311,635,279,34872,0
notchParamRand-47,true,1.00,809,314,802,282,44322,0
notchParamRand-48,true,1.00,1651,322,1633,290,50672,0
notchParamRand-49,true,1.00,874,306,864,274,31249,0
notchParamRand-50,true,1.00,1481,321,1471,289,61908,0
notchParamRand-51,true,1.00,222,315,212,283,9566,0
notchParamRand-52,true,1.00,853,308,843,276,47063,0
notchParamRand-53,true,1.00,1013,328,1005,296,56405,0
notchParamRand-54,true,1.00,1807,345,1798,313,102159,0
notchParamRand-55,true,1.00,1774,312,1766,280,97626,0
notchParamRand-56,true,1.00,860,345,852,313,46173,0
notchParamRand-57,true,1.00,970,312,965,280,55964,0
notchParamRand-58,true,1.00,838,323,834,291,46453,0
notchParamRand-59,true,1.00,469,311,463,279,24256,0
notchParamRand-60,true,1.00,620,313,617,281,33573,0
notchParamRand-61,true,1.00,530,306,522,274,28633,0
notchParamRand-62,true,1.00,505,320,495,288,26199,0
notchParamRand-63,true,1.00,1521,312,1515,280,85270,0
notchParamRand-64,true,1.00,353,296,342,264,18107,0
notchParamRand-65,true,1.00,1972,329,1965,297,110880,0
notchParamRand-66,true,1.00,389,315,384,283,17866,0
notchParamRand-67,true,1.00,329,300,318,268,16034,0
notchParamRand-68,true,1.00,1488,312,1478,280,85833,0
notchParamRand-69,true,1.00,309,311,304,279,15321,0
notchParamRand-70,true,1.00,725,326,717,294,40198,0
notchParamRand-71,true,1.00,353,318,343,286,16937,0
notchParamRand-72,true,1.00,188,294,174,262,8020,0
notchParamRand-73,true,1.00,474,308,466,276,23770,0
notchParamRand-74,true,1.00,125,296,121,264,4262,0
notchParamRand-75,true,1.00,115,294,107,262,3683,0
notchParamRand-76,true,1.00,1776,344,1768,312,98687,0
notchParamRand-77,true,1.00,1585,348,1577,316,85967,0
notchParamRand-78,true,1.00,969,310,965,278,54642,0
notchParamRand-79,true,1.00,341,298,334,266,16640,0
notchParamRand-80,true,1.00,349,302,340,270,17186,0
notchParamRand-81,true,1.00,344,298,335,266,17502,0
notchParamRand-82,true,1.00,785,312,776,280,43729,0
notchParamRand-83,true,1.00,1421,319,1411,287,80270,0
notchParamRand-84,true,1.00,352,302,342,270,17403,0
notchParamRand-85,true,1.00,112,294,106,262,3535,0
notchParamRand-86,true,1.00,646,336,637,304,33462,0
notchParamRand-87,true,1.00,1889,320,1880,288,110139,0
notchParamRand-88,true,1.00,347,300,337,268,17467,0
notchParamRand-89,true,1.00,459,329,452,297,23696,0
notchParamRand-90,true,1.00,682,310,676,278,36559,0
notchParamRand-91,true,1.00,119,294,111,262,3953,0
notchParamRand-92,true,1.00,1029,326,1019,294,57978,0
notchParamRand-93,true,1.00,349,318,341,276,17479,0
notchParamRand-94,true,1.00,1736,310,1732,278,98201,0
notchParamRand-95,true,1.00,886,316,875,284,49744,0
notchParamRand-96,true,1.00,513,336,506,304,26169,0
notchParamRand-97,true,1.00,1749,347,1742,315,97485,0
notchParamRand-98,true,1.00,281,294,271,262,14266,0
notchParamRand-99,true,1.00,362,310,354,278,17733,0
notchParamRand-100,true,1.00,1534,314,1526,282,87824,0
