NDW:0.0
TTFW:1.2
DFPT:2.0
DFPAP:3.0
DFPMP:50.0
RIGHT_WINDOW_BORDER_X:155.0
level,win/fail,% travelled,run time,game ticks,planning time,total plannings,nodes evaluated,most backtracked nodes
notch-1,true,1.00,1033,289,1032,275,111173,0
notch-2,true,1.00,1066,286,1064,272,118762,0
notch-3,true,1.00,817,253,815,239,85874,0
notch-4,true,1.00,1068,264,1067,248,115550,0
notch-5,true,1.00,699,256,699,241,75161,0
notch-6,true,1.00,736,287,736,273,83121,0
notch-7,true,1.00,879,285,879,271,107722,0
notch-8,true,1.00,610,294,608,277,67588,0
notch-9,true,1.00,1069,279,1068,265,113198,0
notch-10,true,1.00,930,275,928,261,102210,0
notch-11,true,1.00,910,263,907,249,98577,0
notch-12,true,1.00,531,259,529,245,56942,0
notch-13,true,1.00,699,276,697,262,73877,0
notch-14,true,1.00,763,269,760,255,81326,0
notch-15,true,1.00,764,271,763,257,79929,0
notch-16,true,1.00,1600,314,1598,293,191614,0
notch-17,true,1.00,911,297,911,283,101882,0
notch-18,true,1.00,1038,324,1033,310,119655,0
notch-19,true,1.00,1357,261,1357,247,148403,0
notch-20,true,1.00,902,286,901,272,99305,0
notch-21,true,1.00,902,301,900,287,101295,0
notch-22,true,1.00,454,241,454,227,47656,0
notch-23,true,1.00,991,260,990,245,106622,0
notch-24,true,1.00,1390,286,1388,272,153378,0
notch-25,true,1.00,1073,299,1072,284,116155,0
notch-26,true,1.00,759,263,755,249,81282,0
notch-27,true,1.00,1551,307,1549,293,180776,0
notch-28,true,1.00,845,256,843,242,93275,0
notch-29,true,1.00,847,278,844,264,92549,0
notch-30,true,1.00,833,256,833,242,85584,0
notch-31,true,1.00,693,261,691,247,75197,0
notch-32,true,1.00,740,287,738,271,82859,0
notch-33,true,1.00,727,249,727,235,79213,0
notch-34,true,1.00,727,259,727,245,80596,0
notch-35,true,1.00,565,275,565,261,63026,0
notch-36,true,1.00,1019,285,1019,271,113792,0
notch-37,true,1.00,1228,281,1227,266,136634,0
notch-38,true,1.00,900,303,897,286,94894,0
notch-39,true,1.00,624,236,622,221,65639,0
notch-40,true,1.00,926,267,924,252,101706,0
notch-41,true,1.00,1105,276,1102,262,120557,0
notch-42,true,1.00,1154,264,1150,250,126459,0
notch-43,true,1.00,865,268,865,254,95412,0
notch-44,true,1.00,795,249,795,235,86926,0
notch-45,true,1.00,752,258,752,244,81052,0
notch-46,true,1.00,789,265,786,251,85591,0
notch-47,true,1.00,1108,288,1108,274,125187,0
notch-48,true,1.00,1168,265,1164,251,130136,0
notch-49,true,1.00,843,284,838,268,91038,0
notch-50,true,1.00,674,281,673,267,75346,0
notch-51,true,1.00,657,250,654,231,71570,0
notch-52,true,1.00,631,262,630,248,67767,0
notch-53,true,1.00,295,261,293,245,30322,0
notch-54,true,1.00,1007,309,1006,287,112445,0
notch-55,true,1.00,1413,302,1413,288,151502,0
notch-56,true,1.00,611,275,609,261,65782,0
notch-57,true,1.00,705,283,704,269,74496,0
notch-58,true,1.00,1067,322,1065,307,123491,0
notch-59,true,1.00,736,286,735,265,75935,0
notch-60,true,1.00,1068,287,1067,273,115288,0
notch-61,true,1.00,1069,259,1068,245,113398,0
notch-62,true,1.00,956,294,952,280,105883,0
notch-63,true,1.00,859,299,859,285,99613,0
notch-64,true,1.00,924,254,923,240,97295,0
notch-65,true,1.00,1309,314,1306,300,155615,0
notch-66,true,1.00,949,302,949,287,107610,0
notch-67,true,1.00,887,247,884,233,90360,0
notch-68,true,1.00,436,246,432,232,48496,0
notch-69,true,1.00,1253,295,1250,281,137515,0
notch-70,true,1.00,1175,313,1172,298,132766,0
notch-71,true,1.00,926,254,926,240,98898,0
notch-72,true,1.00,834,261,833,247,93177,0
notch-73,true,1.00,813,275,812,261,88452,0
notch-74,true,1.00,525,241,525,227,60275,0
notch-75,true,1.00,1120,306,1117,291,122354,0
notch-76,true,1.00,1557,302,1554,283,170004,0
notch-77,true,1.00,740,269,739,255,81485,0
notch-78,true,1.00,1057,276,1055,257,114944,0
notch-79,true,1.00,965,280,961,265,106677,0
notch-80,true,1.00,361,236,360,222,38116,0
notch-81,true,1.00,1158,260,1157,242,124250,0
notch-82,true,1.00,826,276,825,262,87858,0
notch-83,true,1.00,879,285,877,263,95567,0
notch-84,true,1.00,697,266,697,252,72940,0
notch-85,true,1.00,703,282,700,267,77683,0
notch-86,true,1.00,861,255,860,241,96129,0
notch-87,true,1.00,901,255,900,241,97717,0
notch-88,true,1.00,1353,310,1351,295,154998,0
notch-89,true,1.00,1124,282,1123,268,124154,0
notch-90,true,1.00,966,261,965,247,106509,0
notch-91,true,1.00,1211,282,1209,268,134474,0
notch-92,true,1.00,1069,276,1067,262,117878,0
notch-93,true,1.00,716,256,715,242,77247,0
notch-94,true,1.00,1204,290,1203,275,130100,0
notch-95,true,1.00,624,240,624,226,64998,0
notch-96,true,1.00,693,274,693,260,78597,0
notch-97,true,1.00,1149,296,1144,282,127073,0
notch-98,true,1.00,1206,271,1205,257,133165,0
notch-99,true,1.00,1037,287,1034,267,120361,0
notch-100,true,1.00,951,305,951,289,107749,0
