NDW:0.0
TTFW:1.2
DFPT:2.0
DFPAP:3.0
DFPMP:1.0
RIGHT_WINDOW_BORDER_X:350.0
level,win/fail,% travelled,run time,game ticks,planning time,total plannings,nodes evaluated,most backtracked nodes
patternOccur-1,true,1.00,902,458,897,426,98293,0
patternOccur-2,true,1.00,936,433,936,401,106468,0
patternOccur-3,true,1.00,1485,476,1479,444,175769,0
patternOccur-4,true,1.00,1380,466,1371,434,164089,0
patternOccur-5,true,1.00,674,465,667,433,74357,0
patternOccur-6,true,1.00,1549,503,1543,471,184842,0
patternOccur-7,true,1.00,1513,512,1511,463,177523,0
patternOccur-8,true,1.00,1224,449,1222,417,146297,0
patternOccur-9,true,1.00,1462,476,1460,434,171845,0
patternOccur-10,true,1.00,863,508,861,474,93203,0
patternOccur-11,true,1.00,2962,471,2958,433,305506,0
patternOccur-12,true,1.00,1193,513,1191,451,140778,0
patternOccur-13,true,1.00,683,456,682,424,77358,0
patternOccur-14,true,1.00,3241,469,3241,416,354108,0
patternOccur-15,true,1.00,1331,427,1328,395,153844,0
patternOccur-16,true,1.00,3396,484,3390,438,358338,0
patternOccur-17,true,1.00,1282,487,1276,455,143278,0
patternOccur-18,true,1.00,946,483,942,452,101608,0
patternOccur-19,false,0.83,3037,420,3035,420,301161,0
patternOccur-20,true,1.00,1190,471,1185,439,137278,0
patternOccur-21,true,1.00,942,508,935,474,108416,0
patternOccur-22,true,1.00,3672,544,3666,494,395586,0
patternOccur-23,true,1.00,1783,475,1781,443,195220,0
patternOccur-24,true,1.00,1292,491,1284,458,152189,0
patternOccur-25,true,1.00,1420,505,1419,471,166455,0
patternOccur-26,true,1.00,688,428,685,396,76832,0
patternOccur-27,true,1.00,3857,479,3854,432,390824,0
patternOccur-28,true,1.00,1507,502,1506,451,170183,0
patternOccur-29,true,1.00,891,444,889,402,102641,0
patternOccur-30,true,1.00,1109,476,1107,444,123858,0
patternOccur-31,true,1.00,3685,446,3682,413,403316,0
patternOccur-32,true,1.00,4203,499,4202,466,450918,0
patternOccur-33,true,1.00,1056,510,1048,474,117775,0
patternOccur-34,true,1.00,986,461,984,418,109336,0
patternOccur-35,true,1.00,589,379,586,344,64939,0
patternOccur-36,true,1.00,2303,457,2302,425,255639,0
patternOccur-37,true,1.00,3118,520,3108,463,342238,0
patternOccur-38,true,1.00,903,453,900,421,100888,0
patternOccur-39,true,1.00,2557,463,2553,429,276974,0
patternOccur-40,true,1.00,1449,434,1445,398,175480,0
patternOccur-41,true,1.00,1130,468,1126,426,132986,0
patternOccur-42,false,0.89,3001,441,3000,441,311179,0
patternOccur-43,true,1.00,1306,449,1303,417,152541,0
patternOccur-44,true,1.00,880,414,879,380,105786,0
patternOccur-45,true,1.00,1411,440,1409,408,149157,0
patternOccur-46,true,1.00,937,452,937,419,103707,0
patternOccur-47,true,1.00,3012,460,3010,403,312687,0
patternOccur-48,true,1.00,1243,450,1241,418,148689,0
patternOccur-49,true,1.00,1112,423,1108,391,126184,0
patternOccur-50,true,1.00,1603,450,1600,417,174260,0
patternOccur-51,true,1.00,1343,492,1340,434,153935,0
patternOccur-52,true,1.00,1026,420,1022,365,105555,0
patternOccur-53,true,1.00,1451,442,1446,410,160295,0
patternOccur-54,true,1.00,1730,481,1728,448,207126,0
patternOccur-55,true,1.00,1298,435,1297,403,148204,0
patternOccur-56,true,1.00,1181,538,1176,506,139537,0
patternOccur-57,true,1.00,1505,495,1502,455,176078,0
patternOccur-58,true,1.00,4430,530,4429,492,477146,0
patternOccur-59,true,1.00,1194,466,1190,431,145555,0
patternOccur-60,true,1.00,3117,510,3114,450,315200,0
patternOccur-61,true,1.00,1208,468,1206,426,144976,0
patternOccur-62,true,1.00,1112,449,1109,417,127626,0
patternOccur-63,true,1.00,1296,438,1290,395,153928,0
patternOccur-64,true,1.00,1348,519,1341,467,154779,0
patternOccur-65,true,1.00,964,474,959,442,108415,0
patternOccur-66,true,1.00,1100,449,1099,407,126845,0
patternOccur-67,true,1.00,2745,478,2744,445,285881,0
patternOccur-68,true,1.00,807,468,804,436,86425,0
patternOccur-69,true,1.00,4977,559,4971,507,486563,0
patternOccur-70,true,1.00,3783,460,3781,422,391421,0
patternOccur-71,true,1.00,1689,471,1688,432,209123,0
patternOccur-72,true,1.00,3864,538,3863,495,365812,0
patternOccur-73,true,1.00,3320,512,3317,457,360889,0
patternOccur-74,true,1.00,2786,460,2781,410,306143,0
patternOccur-75,true,1.00,2154,500,2152,466,239168,0
patternOccur-76,true,1.00,1610,444,1606,412,195383,0
patternOccur-77,true,1.00,799,440,797,408,86074,0
patternOccur-78,true,1.00,658,415,657,383,73555,0
patternOccur-79,true,1.00,1196,535,1193,503,144390,0
patternOccur-80,true,1.00,3100,509,3097,462,332379,0
patternOccur-81,true,1.00,4038,503,4032,459,447193,0
patternOccur-82,true,1.00,1449,481,1447,443,158806,0
patternOccur-83,false,0.82,4226,443,4224,443,391676,0
patternOccur-84,true,1.00,1041,443,1041,411,118474,0
patternOccur-85,true,1.00,1384,452,1381,420,163802,0
patternOccur-86,true,1.00,2879,445,2878,396,309766,0
patternOccur-87,true,1.00,1113,461,1111,421,133594,0
patternOccur-88,true,1.00,1008,442,1008,407,126023,0
patternOccur-89,true,1.00,1048,482,1046,449,117932,0
patternOccur-90,true,1.00,1453,514,1448,472,180222,0
patternOccur-91,true,1.00,969,453,966,410,109802,0
patternOccur-92,true,1.00,729,447,727,415,78406,0
patternOccur-93,true,1.00,999,445,997,410,118040,0
patternOccur-94,true,1.00,4069,496,4067,439,422918,0
patternOccur-95,true,1.00,1112,503,1109,470,134039,0
patternOccur-96,false,0.86,2606,462,2598,462,249064,0
patternOccur-97,true,1.00,1819,437,1817,388,216259,0
patternOccur-98,false,0.90,3409,496,3403,496,352952,0
patternOccur-99,true,1.00,573,402,570,370,64980,0
patternOccur-100,true,1.00,1235,464,1231,432,141485,0
