NDW:0.0
TTFW:2.0
DFPT:2.0
DFPAP:3.0
DFPMP:50.0
RIGHT_WINDOW_BORDER_X:155.0
level,win/fail,% travelled,run time,game ticks,planning time,total plannings,nodes evaluated,most backtracked nodes
patternOccur-1,true,1.00,1190,503,1179,489,64991,0
patternOccur-2,true,1.00,935,446,928,432,51516,0
patternOccur-3,true,1.00,1872,504,1862,490,108900,0
patternOccur-4,true,1.00,1478,490,1463,476,86409,0
patternOccur-5,true,1.00,1094,484,1081,470,61923,0
patternOccur-6,true,1.00,2329,553,2316,539,132944,0
patternOccur-7,true,1.00,1898,533,1887,519,104595,0
patternOccur-8,true,1.00,2125,481,2113,467,117426,0
patternOccur-9,true,1.00,1565,514,1552,500,87550,0
patternOccur-10,true,1.00,1413,517,1392,500,78267,0
patternOccur-11,false,0.86,3820,507,3812,507,198480,0
patternOccur-12,true,1.00,2293,548,2281,532,128576,0
patternOccur-13,true,1.00,1407,440,1396,426,78754,0
patternOccur-14,true,1.00,4368,582,4349,550,235435,0
patternOccur-15,true,1.00,1742,478,1731,464,99301,0
patternOccur-16,false,0.92,3816,479,3807,479,205832,0
patternOccur-17,true,1.00,2116,553,2102,539,120795,0
patternOccur-18,true,1.00,1198,497,1185,483,66706,0
patternOccur-19,false,0.82,4539,555,4527,555,243589,0
patternOccur-20,true,1.00,1814,560,1793,546,100556,0
patternOccur-21,true,1.00,2638,522,2621,508,95241,0
patternOccur-22,false,0.84,4711,547,4699,547,249017,0
patternOccur-23,true,1.00,1919,486,1904,472,109200,0
patternOccur-24,true,1.00,1339,515,1322,501,74313,0
patternOccur-25,true,1.00,1833,503,1817,489,101126,0
patternOccur-26,true,1.00,1167,458,1156,444,61510,0
patternOccur-27,false,0.94,3851,520,3834,520,202413,0
patternOccur-28,true,1.00,2403,515,2372,501,73458,0
patternOccur-29,true,1.00,1073,443,1068,419,57073,0
patternOccur-30,true,1.00,1609,521,1593,507,86189,0
patternOccur-31,false,0.77,3705,442,3698,442,184049,0
patternOccur-32,false,0.92,3679,558,3666,558,183541,0
patternOccur-33,true,1.00,1669,524,1657,510,88737,0
patternOccur-34,true,1.00,1650,498,1634,482,87079,0
patternOccur-35,true,1.00,1152,556,1134,542,58951,0
patternOccur-36,true,1.00,3379,544,3367,528,177857,0
patternOccur-37,true,1.00,6050,618,6035,602,307844,0
patternOccur-38,true,1.00,1873,510,1861,496,103003,0
patternOccur-39,false,0.80,3180,451,3165,451,168784,0
patternOccur-40,true,1.00,1953,482,1939,468,107924,0
patternOccur-41,true,1.00,1868,527,1859,503,104262,0
patternOccur-42,false,0.88,4901,552,4888,552,248409,0
patternOccur-43,true,1.00,1677,506,1661,492,90873,0
patternOccur-44,true,1.00,1309,447,1296,433,69201,0
patternOccur-45,true,1.00,3838,504,3828,489,188029,0
patternOccur-46,true,1.00,1127,459,1119,445,59830,0
patternOccur-47,true,1.00,4536,536,4527,516,238547,0
patternOccur-48,true,1.00,1481,474,1471,460,82057,0
patternOccur-49,true,1.00,1480,486,1467,472,80522,0
patternOccur-50,true,1.00,2432,521,2427,507,132639,0
patternOccur-51,true,1.00,1869,572,1850,557,104359,0
patternOccur-52,true,1.00,1970,538,1961,524,108060,0
patternOccur-53,true,1.00,1493,463,1484,449,81503,0
patternOccur-54,true,1.00,3444,529,3435,498,196273,0
patternOccur-55,true,1.00,2206,448,2196,434,123218,0
patternOccur-56,true,1.00,2106,553,2095,539,117568,0
patternOccur-57,true,1.00,2292,523,2284,509,132057,0
patternOccur-58,true,1.00,6162,635,6148,616,326802,0
patternOccur-59,true,1.00,1429,469,1416,455,82038,0
patternOccur-60,true,1.00,5913,586,5897,569,313377,0
patternOccur-61,true,1.00,2614,532,2598,517,92432,0
patternOccur-62,true,1.00,1807,505,1796,491,99517,0
patternOccur-63,true,1.00,1578,505,1566,489,90969,0
patternOccur-64,true,1.00,2150,567,2130,551,124393,0
patternOccur-65,true,1.00,1247,491,1228,477,70738,0
patternOccur-66,true,1.00,1442,476,1424,462,82206,0
patternOccur-67,false,0.88,3413,486,3400,486,178976,0
patternOccur-68,true,1.00,1518,531,1504,517,85852,0
patternOccur-69,false,0.91,5373,591,5361,591,279967,0
patternOccur-70,false,0.87,4572,484,4563,484,217789,0
patternOccur-71,true,1.00,2988,566,2969,552,136867,0
patternOccur-72,false,0.86,4995,540,4983,540,238646,0
patternOccur-73,true,1.00,5544,572,5530,556,301103,0
patternOccur-74,true,1.00,6906,617,6898,588,367878,0
patternOccur-75,true,1.00,2727,509,2713,494,148865,0
patternOccur-76,true,1.00,2244,524,2227,510,124316,0
patternOccur-77,true,1.00,1488,515,1466,501,82304,0
patternOccur-78,true,1.00,1129,457,1114,443,62599,0
patternOccur-79,true,1.00,2174,510,2153,496,122039,0
patternOccur-80,true,1.00,3199,513,3186,498,173574,0
patternOccur-81,false,0.90,3781,504,3772,504,194585,0
patternOccur-82,false,0.95,2527,506,2514,506,140147,0
patternOccur-83,false,0.82,3541,524,3530,524,184550,0
patternOccur-84,true,1.00,1716,488,1691,474,60191,0
patternOccur-85,true,1.00,4003,661,3989,633,198264,0
patternOccur-86,true,1.00,6052,560,6039,540,302810,0
patternOccur-87,true,1.00,1688,477,1674,463,96906,0
patternOccur-88,true,1.00,2181,519,2170,505,123138,0
patternOccur-89,true,1.00,1569,494,1556,480,85210,0
patternOccur-90,true,1.00,2651,559,2640,545,150661,0
patternOccur-91,true,1.00,1927,490,1917,474,105685,0
patternOccur-92,true,1.00,1272,467,1256,453,70491,0
patternOccur-93,true,1.00,1866,533,1852,519,101667,0
patternOccur-94,false,0.83,20757,999,20746,999,905726,0
patternOccur-95,true,1.00,2373,482,2361,468,138634,0
patternOccur-96,false,0.86,5099,544,5088,544,248827,0
patternOccur-97,true,1.00,2602,458,2589,444,151153,0
patternOccur-98,false,0.90,3675,537,3661,537,187599,0
patternOccur-99,true,1.00,915,484,902,470,50676,0
patternOccur-100,true,1.00,1952,495,1941,481,106136,0
