NDW:0.0
TTFW:1.2
DFPT:2.0
DFPAP:3.0
DFPMP:50.0
RIGHT_WINDOW_BORDER_X:155.0
level,win/fail,% travelled,run time,game ticks,planning time,total plannings,nodes evaluated,most backtracked nodes
hopper-1,true,1.00,1062,327,1061,313,107129,0
hopper-2,true,1.00,1023,317,1022,303,98358,0
hopper-3,true,1.00,1067,345,1064,331,112992,0
hopper-4,true,1.00,1041,332,1038,318,115841,0
hopper-5,true,1.00,1596,334,1596,320,156130,0
hopper-6,true,1.00,858,313,857,299,84096,0
hopper-7,true,1.00,1176,343,1176,329,108774,0
hopper-8,true,1.00,1074,352,1071,337,106978,0
hopper-9,true,1.00,786,297,784,283,78377,0
hopper-10,true,1.00,757,315,755,301,79035,0
hopper-11,true,1.00,600,321,595,307,60535,0
hopper-12,true,1.00,965,326,961,312,97875,0
hopper-13,true,1.00,1374,369,1370,355,152043,0
hopper-14,true,1.00,1126,330,1123,315,111327,0
hopper-15,true,1.00,947,301,946,287,92825,0
hopper-16,true,1.00,1284,345,1283,326,133011,0
hopper-17,true,1.00,1036,319,1034,305,102263,0
hopper-18,true,1.00,1084,318,1083,304,105319,0
hopper-19,true,1.00,763,319,761,305,80604,0
hopper-20,true,1.00,1227,345,1224,331,119803,0
hopper-21,true,1.00,769,341,767,327,76593,0
hopper-22,true,1.00,1244,350,1241,334,127230,0
hopper-23,true,1.00,1694,345,1694,331,164856,0
hopper-24,true,1.00,566,327,565,313,56678,0
hopper-25,true,1.00,1083,311,1081,297,111720,0
hopper-26,true,1.00,982,301,981,287,95383,0
hopper-27,true,1.00,850,299,849,285,86936,0
hopper-28,true,1.00,1597,375,1595,361,171284,0
hopper-29,false,0.26,2973,163,2973,163,239684,0
hopper-30,true,1.00,1193,359,1192,340,122051,0
hopper-31,false,0.77,2488,285,2486,285,219774,0
hopper-32,true,1.00,1179,301,1177,287,119361,0
hopper-33,false,0.50,678,169,678,169,60850,0
hopper-34,true,1.00,768,323,766,309,83013,0
hopper-35,true,1.00,1329,348,1328,334,140218,0
hopper-36,true,1.00,633,314,632,300,62985,0
hopper-37,false,0.51,1276,189,1276,189,103930,0
hopper-38,true,1.00,1663,353,1661,339,190213,0
hopper-39,true,1.00,1063,337,1058,323,114744,0
hopper-40,true,1.00,906,342,906,327,84429,0
hopper-41,true,1.00,1484,343,1483,329,150269,0
hopper-42,true,1.00,927,323,925,309,88479,0
hopper-43,false,0.45,1102,146,1102,146,97254,0
hopper-44,true,1.00,1422,329,1422,315,138787,0
hopper-45,false,0.43,804,147,804,147,71419,0
hopper-46,false,0.66,2009,263,2007,263,187569,0
hopper-47,true,1.00,1479,319,1475,305,145595,0
hopper-48,true,1.00,1120,309,1118,295,108080,0
hopper-49,true,1.00,1089,323,1088,309,109491,0
hopper-50,true,1.00,1035,349,1031,335,107128,0
hopper-51,true,1.00,1425,356,1422,342,142663,0
hopper-52,true,1.00,686,307,685,293,72352,0
hopper-53,false,0.63,3089,277,3089,277,262771,0
hopper-54,true,1.00,555,306,553,284,55664,0
hopper-55,true,1.00,697,326,696,311,73266,0
hopper-56,true,1.00,659,303,659,289,70539,0
hopper-57,true,1.00,887,305,886,291,83078,0
hopper-58,true,1.00,1190,321,1189,307,130629,0
hopper-59,true,1.00,750,300,748,286,76780,0
hopper-60,true,1.00,927,326,927,312,97070,0
hopper-61,true,1.00,1310,329,1309,315,137824,0
hopper-62,true,1.00,1030,330,1028,316,102367,0
hopper-63,true,1.00,1084,344,1079,330,115582,0
hopper-64,true,1.00,1367,353,1366,339,134511,0
hopper-65,true,1.00,880,335,879,321,91938,0
hopper-66,true,1.00,924,353,923,339,97014,0
hopper-67,true,1.00,770,336,767,322,77545,0
hopper-68,true,1.00,1025,338,1022,324,103768,0
hopper-69,true,1.00,1021,371,1018,349,100916,0
hopper-70,true,1.00,1052,305,1051,291,103168,0
hopper-71,true,1.00,787,313,785,299,77010,0
hopper-72,true,1.00,1080,301,1078,287,104360,0
hopper-73,true,1.00,918,297,916,283,89349,0
hopper-74,true,1.00,725,307,722,293,68709,0
hopper-75,true,1.00,913,297,913,283,87363,0
hopper-76,true,1.00,1186,341,1184,327,129848,0
hopper-77,true,1.00,1162,363,1161,349,110020,0
hopper-78,true,1.00,1014,310,1013,296,110895,0
hopper-79,true,1.00,694,319,693,302,71399,0
hopper-80,true,1.00,625,311,623,297,59924,0
hopper-81,false,0.38,2837,186,2836,186,238515,0
hopper-82,false,0.46,2219,186,2218,186,185302,0
hopper-83,true,1.00,1327,330,1326,316,134797,0
hopper-84,true,1.00,1089,305,1087,291,109170,0
hopper-85,true,1.00,1219,354,1215,340,118247,0
hopper-86,true,1.00,899,306,896,292,90167,0
hopper-87,true,1.00,1058,317,1056,303,100838,0
hopper-88,true,1.00,603,317,603,303,64580,0
hopper-89,true,1.00,793,331,793,317,78708,0
hopper-90,true,1.00,823,314,821,300,83911,0
hopper-91,true,1.00,967,324,967,310,98992,0
hopper-92,true,1.00,1119,313,1117,299,106790,0
hopper-93,true,1.00,662,319,659,305,68607,0
hopper-94,true,1.00,1248,349,1248,335,132449,0
hopper-95,true,1.00,847,297,845,283,86028,0
hopper-96,true,1.00,1952,332,1951,318,186799,0
hopper-97,true,1.00,1214,316,1213,302,114441,0
hopper-98,true,1.00,1595,351,1594,337,156285,0
hopper-99,true,1.00,2201,369,2200,355,230095,0
hopper-100,true,1.00,1066,327,1064,313,106623,0
