NDW:0.0
TTFW:1.4
DFPT:2.0
DFPAP:3.0
DFPMP:0.0
RIGHT_WINDOW_BORDER_X:75.0
level,win/fail,% travelled,run time,game ticks,planning time,total plannings,nodes evaluated,most backtracked nodes
notch-1,true,1.00,1558,369,1549,362,93702,0
notch-2,true,1.00,3448,427,3441,420,222554,0
notch-3,true,1.00,1073,350,1066,343,66181,0
notch-4,false,0.28,248,89,248,89,14820,0
notch-5,true,1.00,1920,335,1917,328,119928,0
notch-6,false,0.10,40,37,39,37,2418,0
notch-7,true,1.00,782,354,776,347,48386,0
notch-8,true,1.00,1484,376,1478,369,92976,0
notch-9,true,1.00,2431,419,2426,412,149121,0
notch-10,true,1.00,1523,382,1518,376,93883,0
notch-11,true,1.00,2178,394,2168,387,135389,0
notch-12,true,1.00,1991,392,1984,385,118882,0
notch-13,true,1.00,1516,377,1511,370,92895,0
notch-14,true,1.00,1956,378,1950,371,117597,0
notch-15,true,1.00,1690,357,1681,351,105768,0
notch-16,true,1.00,3202,432,3196,424,198937,0
notch-17,true,1.00,3442,423,3436,417,209209,0
notch-18,true,1.00,3043,450,3033,443,194316,0
notch-19,true,1.00,2720,426,2714,419,167660,0
notch-20,true,1.00,3627,519,3611,512,219438,0
notch-21,true,1.00,2311,394,2300,387,145032,0
notch-22,true,1.00,1423,358,1414,351,85207,0
notch-23,true,1.00,2083,387,2076,380,124522,0
notch-24,false,0.60,1309,240,1306,240,82245,0
notch-25,true,1.00,4326,502,4318,495,266310,0
notch-26,true,1.00,2621,399,2617,392,164301,0
notch-27,true,1.00,3246,452,3238,445,211589,0
notch-28,true,1.00,2521,370,2515,363,162284,0
notch-29,true,1.00,1828,391,1817,384,111604,0
notch-30,true,1.00,1205,343,1196,335,70838,0
notch-31,true,1.00,1696,356,1689,348,105085,0
notch-32,true,1.00,1822,378,1817,371,113641,0
notch-33,true,1.00,1361,338,1347,330,51115,0
notch-34,true,1.00,1017,332,1013,326,55323,0
notch-35,true,1.00,1286,354,1276,347,81614,0
notch-36,true,1.00,2611,422,2604,415,159196,0
notch-37,true,1.00,3647,478,3639,471,226959,0
notch-38,true,1.00,2751,443,2745,436,159499,0
notch-39,true,1.00,1146,310,1136,303,67403,0
notch-40,true,1.00,3098,408,3086,401,189605,0
notch-41,true,1.00,3439,432,3431,425,205808,0
notch-42,true,1.00,1706,370,1701,362,101123,0
notch-43,true,1.00,2693,385,2685,378,158237,0
notch-44,true,1.00,834,316,828,309,48088,0
notch-45,true,1.00,1754,352,1747,345,103948,0
notch-46,false,0.54,975,214,970,214,58343,0
notch-47,true,1.00,2138,399,2134,392,128669,0
notch-48,true,1.00,3377,410,3371,403,205118,0
notch-49,true,1.00,1712,357,1706,349,102617,0
notch-50,true,1.00,3617,461,3611,454,222142,0
notch-51,true,1.00,1086,324,1082,317,65304,0
notch-52,true,1.00,2649,425,2637,418,157744,0
notch-53,true,1.00,443,308,438,301,24781,0
notch-54,true,1.00,1988,440,1982,431,120324,0
notch-55,true,1.00,1999,430,1987,423,117728,0
notch-56,true,1.00,2039,365,2034,357,121376,0
notch-57,true,1.00,1842,391,1837,385,110744,0
notch-58,true,1.00,3882,450,3870,442,244700,0
notch-59,true,1.00,1979,398,1971,390,116918,0
notch-60,true,1.00,2788,444,2783,437,157590,0
notch-61,true,1.00,1465,353,1450,346,56753,0
notch-62,true,1.00,2524,412,2517,405,154275,0
notch-63,false,0.59,1931,281,1923,281,126552,0
notch-64,true,1.00,1790,354,1780,347,107869,0
notch-65,true,1.00,3716,456,3706,449,242065,0
notch-66,true,1.00,3565,451,3560,444,215589,0
notch-67,true,1.00,1111,331,1104,324,65724,0
notch-68,true,1.00,965,339,958,331,58620,0
notch-69,true,1.00,2617,418,2611,411,164372,0
notch-70,true,1.00,3103,423,3093,416,195577,0
notch-71,true,1.00,2317,421,2310,414,142469,0
notch-72,true,1.00,1296,345,1291,338,79237,0
notch-73,true,1.00,2339,407,2335,400,147807,0
notch-74,true,1.00,1379,373,1370,366,86503,0
notch-75,true,1.00,2195,402,2187,395,132636,0
notch-76,true,1.00,2663,435,2655,428,154325,0
notch-77,true,1.00,1603,354,1595,347,100005,0
notch-78,true,1.00,1173,357,1165,350,72310,0
notch-79,false,0.10,41,36,41,36,2410,0
notch-80,true,1.00,1302,338,1292,332,75857,0
notch-81,true,1.00,2669,374,2661,367,162777,0
notch-82,true,1.00,1395,363,1386,356,75441,0
notch-83,true,1.00,1820,408,1801,401,91957,0
notch-84,true,1.00,877,351,871,343,52884,0
notch-85,true,1.00,970,322,961,314,60409,0
notch-86,true,1.00,2067,380,2060,373,123928,0
notch-87,true,1.00,1287,316,1280,309,77203,0
notch-88,true,1.00,5260,508,5247,501,319019,0
notch-89,true,1.00,3149,403,3145,396,194159,0
notch-90,true,1.00,2313,395,2306,388,140728,0
notch-91,true,1.00,3028,420,3022,413,182086,0
notch-92,true,1.00,1719,372,1716,365,102361,0
notch-93,true,1.00,1693,374,1688,367,99555,0
notch-94,true,1.00,5352,518,5343,511,318074,0
notch-95,true,1.00,1202,363,1191,356,69924,0
notch-96,true,1.00,1595,356,1585,348,98513,0
notch-97,true,1.00,931,348,922,339,55911,0
notch-98,true,1.00,2600,420,2594,413,155877,0
notch-99,true,1.00,1481,352,1474,345,90046,0
notch-100,true,1.00,1484,375,1480,368,91249,0
