NDW:0.0
TTFW:2.0
DFPT:2.0
DFPAP:3.0
DFPMP:1.0
RIGHT_WINDOW_BORDER_X:295.0
level,win/fail,% travelled,run time,game ticks,planning time,total plannings,nodes evaluated,most backtracked nodes
hopper-1,true,1.00,1088,321,1082,294,60820,0
hopper-2,true,1.00,1191,317,1185,290,67439,0
hopper-3,false,0.25,918,83,918,83,45252,0
hopper-4,false,0.28,929,94,929,94,47597,0
hopper-5,true,1.00,992,316,987,289,55280,0
hopper-6,true,1.00,1040,313,1033,282,58590,0
hopper-7,false,0.84,1485,255,1480,255,76400,0
hopper-8,false,0.42,1193,141,1189,141,60597,0
hopper-9,true,1.00,1226,317,1220,290,68590,0
hopper-10,true,1.00,964,315,955,288,55160,0
hopper-11,true,1.00,749,314,742,288,41049,0
hopper-12,true,1.00,1089,325,1085,293,60279,0
hopper-13,false,0.40,1953,146,1950,146,94645,0
hopper-14,true,1.00,973,328,965,290,55521,0
hopper-15,true,1.00,1047,301,1044,274,59296,0
hopper-16,false,0.55,1268,169,1265,169,65024,0
hopper-17,true,1.00,942,315,934,288,52769,0
hopper-18,true,1.00,1026,310,1021,283,56724,0
hopper-19,true,1.00,844,311,835,284,43245,0
hopper-20,true,1.00,1205,332,1198,304,65880,0
hopper-21,false,0.62,1449,199,1442,199,68103,0
hopper-22,false,0.33,1047,108,1044,108,46840,0
hopper-23,true,1.00,1028,310,1020,283,56587,0
hopper-24,true,1.00,689,311,682,283,37657,0
hopper-25,true,1.00,980,309,972,282,54931,0
hopper-26,true,1.00,1111,301,1102,274,62605,0
hopper-27,true,1.00,941,299,933,272,54393,0
hopper-28,false,0.86,2069,288,2064,288,113212,0
hopper-29,false,0.26,918,87,918,87,45844,0
hopper-30,true,1.00,888,332,879,303,50030,0
hopper-31,false,0.77,1706,242,1702,242,88407,0
hopper-32,true,1.00,1264,299,1260,272,73740,0
hopper-33,false,0.50,1105,173,1098,173,55308,0
hopper-34,false,0.32,1089,102,1088,102,54032,0
hopper-35,true,1.00,1495,344,1486,316,87439,0
hopper-36,true,1.00,707,314,699,288,39227,0
hopper-37,false,0.51,1107,166,1105,166,54361,0
hopper-38,false,0.53,1122,172,1118,172,61204,0
hopper-39,false,0.53,1279,171,1277,171,66239,0
hopper-40,true,1.00,1111,324,1102,292,60669,0
hopper-41,true,1.00,1677,301,1670,274,95715,0
hopper-42,true,1.00,875,317,867,290,47952,0
hopper-43,false,0.45,1512,142,1509,142,78555,0
hopper-44,true,1.00,1277,315,1273,287,72482,0
hopper-45,false,0.43,1192,150,1190,150,60473,0
hopper-46,false,0.67,1681,226,1675,226,91244,0
hopper-47,true,1.00,1474,305,1468,278,83007,0
hopper-48,true,1.00,1261,327,1254,300,70996,0
hopper-49,true,1.00,1233,331,1225,304,69087,0
hopper-50,false,0.63,1415,201,1411,201,73681,0
hopper-51,false,0.34,1023,109,1021,109,51070,0
hopper-52,true,1.00,763,307,751,280,43309,0
hopper-53,false,0.63,2123,222,2117,222,111533,0
hopper-54,true,1.00,628,297,616,270,34989,0
hopper-55,true,1.00,886,342,876,305,49594,0
hopper-56,true,1.00,753,297,747,270,43061,0
hopper-57,true,1.00,1191,325,1183,299,65576,0
hopper-58,false,0.58,1382,180,1377,180,71557,0
hopper-59,true,1.00,762,306,752,280,42469,0
hopper-60,true,1.00,1108,321,1099,294,63203,0
hopper-61,false,0.83,1844,250,1842,250,98348,0
hopper-62,true,1.00,1255,330,1248,303,70471,0
hopper-63,false,0.23,1246,88,1245,88,58672,0
hopper-64,true,1.00,1061,321,1052,294,58723,0
hopper-65,true,1.00,1006,328,994,289,57197,0
hopper-66,false,0.75,1434,251,1433,251,72822,0
hopper-67,true,1.00,985,326,980,299,55009,0
hopper-68,true,1.00,864,326,857,299,47639,0
hopper-69,false,0.84,1651,269,1643,269,86095,0
hopper-70,true,1.00,1198,310,1189,283,67305,0
hopper-71,true,1.00,698,303,690,276,38569,0
hopper-72,true,1.00,1226,305,1220,278,64564,0
hopper-73,true,1.00,1035,315,1027,288,58189,0
hopper-74,true,1.00,860,305,851,278,44696,0
hopper-75,true,1.00,1261,317,1257,291,71744,0
hopper-76,false,0.48,1342,149,1339,149,69039,0
hopper-77,true,1.00,966,339,957,302,50366,0
hopper-78,true,1.00,1116,308,1106,279,61575,0
hopper-79,true,1.00,833,316,830,279,45956,0
hopper-80,true,1.00,761,315,752,288,41817,0
hopper-81,false,0.39,1230,123,1229,123,61928,0
hopper-82,false,0.46,2276,176,2274,176,107345,0
hopper-83,true,1.00,1438,328,1431,302,81500,0
hopper-84,true,1.00,1256,313,1247,286,71398,0
hopper-85,true,1.00,1158,345,1150,318,63957,0
hopper-86,true,1.00,1071,315,1061,288,59714,0
hopper-87,true,1.00,1077,313,1060,286,60119,0
hopper-88,true,1.00,839,327,834,300,46407,0
hopper-89,true,1.00,915,338,897,311,51663,0
hopper-90,true,1.00,941,316,934,288,52765,0
hopper-91,true,1.00,1113,322,1099,296,63557,0
hopper-92,true,1.00,1218,319,1210,292,67253,0
hopper-93,true,1.00,787,313,780,286,44270,0
hopper-94,false,0.65,1543,211,1539,211,80318,0
hopper-95,true,1.00,1289,309,1286,282,72760,0
hopper-96,true,1.00,1231,297,1226,270,71488,0
hopper-97,true,1.00,1227,312,1217,285,68955,0
hopper-98,true,1.00,1469,323,1458,296,81527,0
hopper-99,true,1.00,1862,326,1853,291,102188,0
hopper-100,true,1.00,1165,328,1157,290,65572,0
