NDW:0.0
TTFW:1.8
DFPT:2.0
DFPAP:3.0
DFPMP:1.0
RIGHT_WINDOW_BORDER_X:400.0
level,win/fail,% travelled,run time,game ticks,planning time,total plannings,nodes evaluated,most backtracked nodes
notchParam-1,true,1.00,1344,312,1333,276,60899,0
notchParam-2,true,1.00,1126,342,1110,306,49732,0
notchParam-3,true,1.00,799,309,786,273,37197,0
notchParam-4,true,1.00,853,325,844,288,39255,0
notchParam-5,true,1.00,751,317,741,269,34885,0
notchParam-6,true,1.00,815,318,810,281,38051,0
notchParam-7,true,1.00,1254,323,1244,287,56687,0
notchParam-8,true,1.00,1501,315,1490,279,68931,0
notchParam-9,true,1.00,863,337,849,300,39070,0
notchParam-10,true,1.00,1356,314,1349,277,61155,0
notchParam-11,true,1.00,779,312,771,275,34461,0
notchParam-12,true,1.00,1415,331,1408,295,66639,0
notchParam-13,true,1.00,372,314,362,278,15070,0
notchParam-14,true,1.00,371,304,363,268,14575,0
notchParam-15,true,1.00,1395,320,1381,284,58821,0
notchParam-16,true,1.00,1381,307,1363,271,29383,0
notchParam-17,true,1.00,1252,304,1241,268,36616,0
notchParam-18,true,1.00,492,344,477,308,17560,0
notchParam-19,true,1.00,428,315,413,279,15801,0
notchParam-20,true,1.00,409,312,397,276,14623,0
notchParam-21,true,1.00,380,302,368,266,13537,0
notchParam-22,true,1.00,460,315,449,279,15851,0
notchParam-23,true,1.00,1978,363,1963,326,69574,0
notchParam-24,true,1.00,1820,344,1806,307,52238,0
notchParam-25,true,1.00,1453,324,1442,288,69457,0
notchParam-26,true,1.00,1577,340,1569,304,77204,0
notchParam-27,true,1.00,363,309,353,273,15190,0
notchParam-28,true,1.00,817,323,811,286,39200,0
notchParam-29,true,1.00,809,329,799,292,38390,0
notchParam-30,true,1.00,376,308,370,272,15773,0
notchParam-31,true,1.00,1458,328,1449,292,64449,0
notchParam-32,true,1.00,1171,319,1168,283,54206,0
notchParam-33,true,1.00,352,300,342,264,15186,0
notchParam-34,true,1.00,1208,308,1199,272,53907,0
notchParam-35,true,1.00,1243,313,1235,277,55144,0
notchParam-36,true,1.00,1042,302,1030,266,47874,0
notchParam-37,true,1.00,337,300,328,264,13656,0
notchParam-38,true,1.00,368,306,352,270,15191,0
notchParam-39,true,1.00,991,304,983,268,44906,0
notchParam-40,true,1.00,872,314,861,278,39923,0
notchParam-41,true,1.00,904,320,895,284,41463,0
notchParam-42,true,1.00,376,309,365,273,15692,0
notchParam-43,true,1.00,1327,313,1317,276,64236,0
notchParam-44,true,1.00,1500,334,1492,298,72017,0
notchParam-45,true,1.00,1488,330,1477,288,74030,0
notchParam-46,true,1.00,1415,314,1409,277,70685,0
notchParam-47,true,1.00,376,312,372,276,16436,0
notchParam-48,true,1.00,668,337,655,301,31153,0
notchParam-49,true,1.00,382,321,368,281,16207,0
notchParam-50,true,1.00,442,333,427,297,17884,0
notchParam-51,true,1.00,370,310,361,274,16101,0
notchParam-52,true,1.00,1499,310,1487,274,64834,0
notchParam-53,true,1.00,1192,318,1181,282,53044,0
notchParam-54,true,1.00,1210,314,1203,278,51910,0
notchParam-55,true,1.00,481,322,469,286,18836,0
notchParam-56,true,1.00,404,318,391,282,15942,0
notchParam-57,true,1.00,1453,322,1446,285,68516,0
notchParam-58,true,1.00,906,342,899,306,42826,0
notchParam-59,true,1.00,2376,368,2368,332,117885,0
notchParam-60,true,1.00,1029,359,1019,322,46438,0
notchParam-61,true,1.00,1535,349,1524,312,71738,0
notchParam-62,true,1.00,911,298,901,262,42280,0
notchParam-63,true,1.00,825,326,815,290,37727,0
notchParam-64,true,1.00,892,326,883,289,40310,0
notchParam-65,true,1.00,982,348,977,311,44538,0
notchParam-66,true,1.00,940,333,927,296,43317,0
notchParam-67,true,1.00,1212,314,1203,278,54288,0
notchParam-68,true,1.00,1151,310,1142,268,50370,0
notchParam-69,true,1.00,944,308,936,272,42967,0
notchParam-70,true,1.00,1113,308,1103,272,48641,0
notchParam-71,true,1.00,1090,356,1083,318,49911,0
notchParam-72,true,1.00,918,337,904,300,42953,0
notchParam-73,true,1.00,851,310,840,274,39389,0
notchParam-74,true,1.00,876,338,867,297,40123,0
notchParam-75,true,1.00,889,330,876,293,41048,0
notchParam-76,true,1.00,1521,357,1512,320,71244,0
notchParam-77,true,1.00,881,323,870,286,40789,0
notchParam-78,true,1.00,1567,330,1562,294,74283,0
notchParam-79,true,1.00,864,321,855,284,40467,0
notchParam-80,true,1.00,476,358,466,322,19886,0
notchParam-81,true,1.00,844,341,830,288,39895,0
notchParam-82,true,1.00,410,305,399,269,17754,0
notchParam-83,true,1.00,363,302,357,266,15645,0
notchParam-84,true,1.00,1232,334,1222,298,54269,0
notchParam-85,true,1.00,2112,358,2108,322,90046,0
notchParam-86,true,1.00,1302,304,1296,267,63858,0
notchParam-87,true,1.00,380,318,370,282,15808,0
notchParam-88,true,1.00,370,312,358,276,14802,0
notchParam-89,true,1.00,385,304,374,268,15300,0
notchParam-90,true,1.00,388,309,378,273,15153,0
notchParam-91,true,1.00,1493,332,1485,295,69568,0
notchParam-92,true,1.00,1361,308,1352,271,64338,0
notchParam-93,true,1.00,1490,327,1478,285,72268,0
notchParam-94,true,1.00,1585,343,1576,307,75407,0
notchParam-95,true,1.00,2000,358,1993,322,96416,0
notchParam-96,true,1.00,890,330,879,294,41625,0
notchParam-97,true,1.00,801,317,789,281,36828,0
notchParam-98,true,1.00,367,300,356,264,15806,0
notchParam-99,true,1.00,1483,333,1471,297,64483,0
notchParam-100,true,1.00,1277,304,1267,268,54542,0
