NDW:0.0
TTFW:0.8
DFPT:2.0
DFPAP:3.0
DFPMP:5.0
RIGHT_WINDOW_BORDER_X:350.0
level,win/fail,% travelled,run time,game ticks,planning time,total plannings,nodes evaluated,most backtracked nodes
ge-1,true,1.00,681,254,681,207,59825,0
ge-2,true,1.00,404,222,403,190,37681,0
ge-3,true,1.00,211,237,210,205,16767,0
ge-4,true,1.00,1103,238,1103,205,109407,0
ge-5,true,1.00,50,199,50,167,2812,0
ge-6,true,1.00,558,238,553,206,43404,0
ge-7,true,1.00,141,216,140,181,10660,0
ge-8,true,1.00,253,207,251,175,20079,0
ge-9,true,1.00,373,222,373,185,37241,0
ge-10,true,1.00,48,199,47,167,2619,0
ge-11,true,1.00,195,209,194,177,15354,0
ge-12,true,1.00,49,199,48,167,2547,0
ge-13,true,1.00,440,239,438,207,33310,0
ge-14,true,1.00,249,216,249,173,20922,0
ge-15,true,1.00,602,207,601,175,55591,0
ge-16,true,1.00,510,255,508,223,30603,0
ge-17,true,1.00,268,203,266,171,24099,0
ge-18,true,1.00,365,236,364,204,25705,0
ge-19,true,1.00,831,287,830,255,80050,0
ge-20,true,1.00,414,211,411,179,37012,0
ge-21,true,1.00,218,201,217,169,17905,0
ge-22,true,1.00,289,203,286,171,25393,0
ge-23,true,1.00,549,208,548,172,49886,0
ge-24,true,1.00,409,222,408,179,37106,0
ge-25,true,1.00,327,201,325,169,30254,0
ge-26,true,1.00,183,203,182,171,17175,0
ge-27,true,1.00,71,209,70,177,4431,0
ge-28,true,1.00,479,205,479,173,45629,0
ge-29,true,1.00,188,214,187,167,16201,0
ge-30,true,1.00,833,240,832,197,71404,0
ge-31,true,1.00,636,215,634,183,58649,0
ge-32,true,1.00,237,221,234,188,16857,0
ge-33,true,1.00,104,217,104,171,7679,0
ge-34,true,1.00,564,207,563,175,56658,0
ge-35,true,1.00,552,246,549,213,46534,0
ge-36,true,1.00,742,252,742,212,67009,0
ge-37,true,1.00,210,199,209,167,20027,0
ge-38,true,1.00,564,229,562,197,56022,0
ge-39,true,1.00,480,220,480,185,39639,0
ge-40,true,1.00,47,199,47,167,2734,0
ge-41,true,1.00,182,202,178,167,16192,0
ge-42,true,1.00,958,267,955,235,82151,0
ge-43,true,1.00,330,238,330,189,27256,0
ge-44,true,1.00,473,207,471,175,45943,0
ge-45,true,1.00,1577,237,1576,205,135558,0
ge-46,true,1.00,931,237,931,205,82091,0
ge-47,true,1.00,686,230,685,197,66630,0
ge-48,true,1.00,404,233,402,201,33502,0
ge-49,true,1.00,148,199,147,167,13034,0
ge-50,true,1.00,473,205,471,173,44250,0
ge-51,true,1.00,134,212,132,175,10607,0
ge-52,true,1.00,468,278,467,242,32242,0
ge-53,true,1.00,275,214,273,182,24912,0
ge-54,true,1.00,322,235,320,195,28861,0
ge-55,true,1.00,473,218,472,187,39827,0
ge-56,true,1.00,320,222,319,180,28397,0
ge-57,true,1.00,474,217,473,180,44594,0
ge-58,true,1.00,583,257,580,225,45626,0
ge-59,true,1.00,642,207,641,175,65634,0
ge-60,true,1.00,487,201,486,169,45246,0
ge-61,true,1.00,217,203,217,171,20400,0
ge-62,true,1.00,433,207,432,175,41305,0
ge-63,true,1.00,728,209,728,177,77702,0
ge-64,false,1.00,349,253,349,200,29583,0
ge-65,true,1.00,584,217,582,185,55195,0
ge-66,true,1.00,585,220,583,177,56942,0
ge-67,true,1.00,284,241,283,209,21468,0
ge-68,true,1.00,204,227,203,195,15055,0
ge-69,true,1.00,150,199,150,167,11919,0
ge-70,true,1.00,303,202,301,169,28746,0
ge-71,true,1.00,691,217,689,185,68459,0
ge-72,true,1.00,364,238,364,206,25424,0
ge-73,true,1.00,254,209,252,177,24858,0
ge-74,true,1.00,681,238,680,206,65987,0
ge-75,true,1.00,260,238,259,195,23054,0
ge-76,true,1.00,691,221,689,186,67581,0
ge-77,true,1.00,731,225,731,193,70016,0
ge-78,true,1.00,773,246,773,214,67688,0
ge-79,true,1.00,181,205,181,173,15264,0
ge-80,true,1.00,166,216,165,167,9317,0
ge-81,true,1.00,142,213,142,181,8781,0
ge-82,true,1.00,227,252,226,198,13950,0
ge-83,true,1.00,267,249,264,188,19977,0
ge-84,true,1.00,327,209,326,177,30107,0
ge-85,true,1.00,268,209,267,177,26072,0
ge-86,true,1.00,635,206,633,169,62263,0
ge-87,true,1.00,505,209,505,177,45184,0
ge-88,true,1.00,517,227,516,170,48277,0
ge-89,true,1.00,329,242,329,205,22377,0
ge-90,true,1.00,49,199,47,167,2858,0
ge-91,true,1.00,247,199,246,167,21489,0
ge-92,true,1.00,53,205,52,173,3259,0
ge-93,true,1.00,500,219,500,173,47606,0
ge-94,true,1.00,364,206,364,168,34832,0
ge-95,true,1.00,312,241,312,194,21005,0
ge-96,true,1.00,708,234,707,191,67040,0
ge-97,true,1.00,399,212,398,179,34751,0
ge-98,true,1.00,47,199,47,167,2611,0
ge-99,true,1.00,146,199,144,167,11006,0
ge-100,true,1.00,56,205,54,173,3466,0
