NDW:0.0
TTFW:1.8
DFPT:2.0
DFPAP:3.0
DFPMP:5.0
RIGHT_WINDOW_BORDER_X:155.0
level,win/fail,% travelled,run time,game ticks,planning time,total plannings,nodes evaluated,most backtracked nodes
Krys-1,false,0.38,21922,999,21912,999,1319479,0
Krys-2,true,1.00,1581,511,1580,475,147482,0
Krys-3,true,1.00,7384,636,7383,605,649812,0
Krys-4,true,1.00,2990,513,2985,492,265923,0
Krys-5,true,1.00,5390,490,5389,459,575087,0
Krys-6,true,1.00,1239,414,1233,380,136734,0
Krys-7,true,1.00,205,377,200,350,23112,0
Krys-8,true,1.00,1318,496,1313,475,144892,0
Krys-9,false,0.72,7768,476,7768,476,853553,0
Krys-10,true,1.00,1853,490,1849,468,197987,0
Krys-11,true,1.00,111,358,107,330,10154,0
Krys-12,true,1.00,2183,438,2182,418,185090,0
Krys-13,false,0.72,3392,362,3390,362,321703,0
Krys-14,true,1.00,594,391,593,376,42205,0
Krys-15,true,1.00,4625,496,4621,473,526778,0
Krys-16,true,1.00,967,487,962,460,80033,0
Krys-17,true,1.00,2016,479,2013,448,175931,0
Krys-18,true,1.00,1663,500,1659,477,177229,0
Krys-19,true,1.00,4249,473,4245,442,448634,0
Krys-20,false,0.73,4457,449,4454,449,506118,0
Krys-21,true,1.00,2236,372,2234,341,283450,0
Krys-22,false,0.83,3336,382,3335,382,408464,0
Krys-23,true,1.00,952,444,950,419,89631,0
Krys-24,true,1.00,3850,411,3848,388,360088,0
Krys-25,true,1.00,2741,434,2735,403,237883,0
Krys-26,true,1.00,4408,459,4407,428,494381,0
Krys-27,true,1.00,3195,471,3191,442,268758,0
Krys-28,true,1.00,5365,623,5362,598,467907,0
Krys-29,true,1.00,1579,428,1577,413,122254,0
Krys-30,true,1.00,1601,510,1598,483,123339,0
Krys-31,true,1.00,1248,475,1247,444,137673,0
Krys-32,true,1.00,265,411,265,395,20160,0
Krys-33,true,1.00,244,383,240,360,26197,0
Krys-34,true,1.00,2327,474,2324,445,191403,0
Krys-35,true,1.00,6171,508,6170,475,722795,0
Krys-36,true,1.00,5131,551,5128,526,525861,0
Krys-37,true,1.00,4870,497,4867,482,464217,0
Krys-38,false,0.72,5061,345,5059,345,589211,0
Krys-39,true,1.00,10784,677,10779,652,1061253,0
Krys-40,true,1.00,4400,472,4396,441,490563,0
Krys-41,true,1.00,4809,504,4806,475,462863,0
Krys-42,true,1.00,4059,524,4051,501,433289,0
Krys-43,true,1.00,2015,384,2012,356,227656,0
Krys-44,false,0.63,3796,354,3794,354,457164,0
Krys-45,true,1.00,578,479,577,456,42862,0
Krys-46,true,1.00,2272,529,2269,501,167286,0
Krys-47,true,1.00,1017,484,1015,461,105491,0
Krys-48,true,1.00,2891,383,2891,360,364997,0
Krys-49,true,1.00,930,384,927,353,93235,0
Krys-50,true,1.00,6345,509,6344,494,569633,0
Krys-51,true,1.00,3552,462,3548,440,384167,0
Krys-52,true,1.00,1659,521,1654,490,165706,0
Krys-53,true,1.00,1546,442,1539,422,117491,0
Krys-54,true,1.00,3115,466,3112,451,315770,0
Krys-55,true,1.00,2712,478,2709,447,236168,0
Krys-56,true,1.00,1135,411,1135,381,87561,0
Krys-57,true,1.00,3335,401,3332,386,305745,0
Krys-58,true,1.00,1832,448,1829,433,147918,0
Krys-59,true,1.00,1330,477,1326,452,86602,0
Krys-60,true,1.00,2742,442,2739,417,277148,0
Krys-61,false,0.48,20602,999,20596,999,1251990,0
Krys-62,true,1.00,741,464,737,437,50973,0
Krys-63,true,1.00,3331,510,3327,488,252980,0
Krys-64,true,1.00,2689,518,2686,495,258596,0
Krys-65,true,1.00,1830,445,1827,429,136009,0
Krys-66,true,1.00,3466,595,3462,564,297897,0
Krys-67,true,1.00,2076,540,2070,503,176451,0
Krys-68,false,0.83,3994,349,3994,349,371076,0
Krys-69,true,1.00,6214,698,6212,673,401266,0
Krys-70,true,1.00,4884,515,4879,485,406380,0
Krys-71,false,0.72,4009,340,4005,340,436328,0
Krys-72,true,1.00,2101,512,2094,485,243646,0
Krys-73,true,1.00,3597,542,3590,509,349913,0
Krys-74,true,1.00,1149,428,1148,403,96976,0
Krys-75,true,1.00,409,501,406,470,31205,0
Krys-76,true,1.00,5328,462,5327,446,497695,0
Krys-77,true,1.00,1544,418,1542,387,184369,0
Krys-78,true,1.00,4293,533,4292,512,410010,0
Krys-79,true,1.00,672,451,670,425,51524,0
Krys-80,true,1.00,320,462,316,439,27412,0
Krys-81,true,1.00,924,406,921,375,101042,0
Krys-82,true,1.00,495,372,493,349,40356,0
Krys-83,true,1.00,3799,471,3798,443,366639,0
Krys-84,true,1.00,147,364,147,339,16497,0
Krys-85,true,1.00,2176,569,2173,538,206209,0
Krys-86,true,1.00,1788,446,1784,423,141611,0
Krys-87,true,1.00,465,398,465,382,36052,0
Krys-88,true,1.00,1530,424,1523,397,127789,0
Krys-89,true,1.00,2087,469,2086,442,211483,0
Krys-90,true,1.00,3712,415,3711,393,365423,0
Krys-91,true,1.00,292,422,291,395,33721,0
Krys-92,true,1.00,4083,464,4078,431,362474,0
Krys-93,true,1.00,5373,500,5369,474,671255,0
Krys-94,true,1.00,1488,380,1486,357,177964,0
Krys-95,true,1.00,815,474,813,435,64596,0
Krys-96,false,0.83,4239,398,4235,398,428736,0
Krys-97,true,1.00,1360,407,1358,384,138524,0
Krys-98,true,1.00,3173,561,3170,541,254756,0
Krys-99,true,1.00,779,486,774,450,63942,0
Krys-100,false,0.62,3953,302,3953,302,461959,0
