NDW:0.0
TTFW:1.2
DFPT:2.0
DFPAP:3.0
DFPMP:0.0
RIGHT_WINDOW_BORDER_X:135.0
level,win/fail,% travelled,run time,game ticks,planning time,total plannings,nodes evaluated,most backtracked nodes
Mario-1,true,1.00,562,401,520,383,26155,0
Mario-2,true,1.00,1075,360,1043,346,44864,0
Mario-3,true,1.00,2455,316,2421,298,261909,0
Mario-4,true,1.00,874,413,848,394,40112,0
Mario-5,true,1.00,1931,478,1908,466,199639,0
Mario-6,true,1.00,1029,266,1026,254,124113,0
Mario-7,true,1.00,824,460,792,442,83981,0
Mario-8,true,1.00,1969,530,1946,507,206580,0
Mario-9,true,1.00,478,360,421,344,30403,0
Mario-10,true,1.00,2614,341,2572,323,301283,0
Mario-11,true,1.00,761,429,754,410,75493,0
Mario-12,true,1.00,609,734,597,715,68158,0
Mario-13,true,1.00,2185,360,2173,348,257519,0
Mario-14,true,1.00,141,381,132,365,13952,0
Mario-15,true,1.00,4345,982,4316,963,413514,0
