NDW:0.0
TTFW:1.8
DFPT:2.0
DFPAP:3.0
DFPMP:1.0
RIGHT_WINDOW_BORDER_X:115.0
level,win/fail,% travelled,run time,game ticks,planning time,total plannings,nodes evaluated,most backtracked nodes
ore-1,true,1.00,2048,486,2046,474,271595,0
ore-2,false,0.70,4072,411,4072,411,453049,0
ore-3,true,1.00,3522,590,3518,579,452917,0
ore-4,true,1.00,4573,616,4570,605,563804,0
ore-5,true,1.00,2208,447,2206,436,291579,0
ore-6,true,1.00,3072,511,3070,499,390444,0
ore-7,true,1.00,3687,560,3682,549,485109,0
ore-8,false,0.12,4757,242,4754,242,416017,0
ore-9,true,1.00,2039,430,2037,420,254555,0
ore-10,true,1.00,2775,483,2773,472,394917,0
ore-11,true,1.00,3586,574,3582,564,490553,0
ore-12,true,1.00,3067,632,3067,620,395934,0
ore-13,true,1.00,2985,559,2982,541,382246,0
ore-14,true,1.00,1976,525,1973,505,267361,0
ore-15,true,1.00,1624,435,1623,425,197735,0
ore-16,false,0.90,19112,999,19112,999,2782926,0
ore-17,true,1.00,3290,592,3288,575,452982,0
ore-18,true,1.00,3343,549,3341,537,445278,0
ore-19,true,1.00,2401,498,2399,486,297547,0
ore-20,true,1.00,2513,521,2510,510,321688,0
ore-21,true,1.00,4185,577,4182,567,592061,0
ore-22,false,0.58,3563,367,3562,367,368645,0
ore-23,true,1.00,2761,513,2759,503,347556,0
ore-24,true,1.00,3975,578,3972,566,530946,0
ore-25,true,1.00,1652,446,1650,434,229522,0
ore-26,true,1.00,2310,517,2306,506,277863,0
ore-27,true,1.00,3564,580,3562,569,463946,0
ore-28,true,1.00,1216,496,1212,481,146562,0
ore-29,true,1.00,1515,510,1514,497,189539,0
ore-30,true,1.00,3466,510,3464,499,405519,0
ore-31,true,1.00,2104,494,2100,471,268160,0
ore-32,true,1.00,3440,511,3437,500,460336,0
ore-33,true,1.00,2529,525,2528,504,359929,0
ore-34,true,1.00,3401,570,3396,560,418754,0
ore-35,true,1.00,3600,513,3595,503,475228,0
ore-36,true,1.00,2250,477,2248,467,280923,0
ore-37,false,0.34,1461,158,1459,158,135083,0
ore-38,true,1.00,5158,554,5155,543,684172,0
ore-39,true,1.00,3404,575,3402,563,462973,0
ore-40,true,1.00,4920,646,4917,635,634069,0
ore-41,true,1.00,2415,533,2411,521,321410,0
ore-42,true,1.00,2827,496,2824,484,370220,0
ore-43,true,1.00,1932,546,1930,536,248184,0
ore-44,true,1.00,3211,550,3208,539,464388,0
ore-45,false,0.74,22671,999,22668,999,1741951,0
ore-46,false,0.12,2774,133,2774,133,306347,0
ore-47,true,1.00,3760,596,3758,585,527254,0
ore-48,true,1.00,1900,498,1896,487,247686,0
ore-49,true,1.00,1807,483,1804,472,226791,0
ore-50,true,1.00,4920,559,4917,547,607636,0
ore-51,true,1.00,3521,524,3520,512,492446,0
ore-52,true,1.00,3910,532,3907,520,539982,0
ore-53,true,1.00,3136,523,3131,512,387305,0
ore-54,true,1.00,2318,576,2317,565,308801,0
ore-55,true,1.00,1531,470,1527,459,214391,0
ore-56,true,1.00,2866,479,2863,467,355694,0
ore-57,true,1.00,3911,593,3905,581,505187,0
ore-58,true,1.00,3476,586,3472,576,435750,0
ore-59,true,1.00,5952,656,5946,644,848893,0
ore-60,true,1.00,2708,494,2705,483,358932,0
ore-61,true,1.00,3315,506,3314,494,395700,0
ore-62,true,1.00,2435,525,2433,515,307304,0
ore-63,true,1.00,2287,468,2283,455,305908,0
ore-64,true,1.00,2721,509,2720,499,368748,0
ore-65,true,1.00,3241,506,3235,495,412473,0
ore-66,true,1.00,3231,530,3228,519,436307,0
ore-67,true,1.00,3375,532,3372,518,454109,0
ore-68,true,1.00,1617,467,1614,457,198248,0
ore-69,true,1.00,5445,600,5442,589,720017,0
ore-70,false,0.91,6773,652,6772,652,853267,0
ore-71,true,1.00,2403,461,2401,451,283764,0
ore-72,true,1.00,2212,526,2207,515,300302,0
ore-73,true,1.00,4096,627,4092,616,547122,0
ore-74,true,1.00,2773,496,2770,478,374066,0
ore-75,true,1.00,4399,611,4396,601,538668,0
ore-76,true,1.00,4080,529,4079,518,554560,0
ore-77,true,1.00,2573,521,2566,510,341188,0
ore-78,true,1.00,3864,558,3862,548,532944,0
ore-79,true,1.00,2551,509,2548,499,319332,0
ore-80,true,1.00,3820,538,3816,522,461312,0
ore-81,true,1.00,3512,530,3508,520,437830,0
ore-82,true,1.00,5029,584,5026,571,674354,0
ore-83,true,1.00,2807,498,2806,488,379210,0
ore-84,true,1.00,7312,656,7309,645,855335,0
ore-85,true,1.00,2245,576,2241,560,274841,0
ore-86,true,1.00,3935,598,3933,576,520180,0
ore-87,true,1.00,2120,494,2118,484,252468,0
ore-88,false,0.31,2091,168,2091,168,220138,0
ore-89,true,1.00,2536,491,2532,481,354469,0
ore-90,true,1.00,4156,572,4151,560,554310,0
ore-91,true,1.00,2426,535,2422,524,316952,0
ore-92,true,1.00,2762,505,2760,494,345846,0
ore-93,true,1.00,2481,513,2480,498,325554,0
ore-94,true,1.00,3300,543,3299,530,432698,0
ore-95,true,1.00,2368,494,2366,484,309692,0
ore-96,false,0.83,7941,606,7938,606,895246,0
ore-97,true,1.00,4073,589,4071,577,538059,0
ore-98,true,1.00,2748,485,2748,474,364790,0
ore-99,true,1.00,3064,528,3064,510,413288,0
ore-100,true,1.00,2504,582,2503,571,340028,0
