NDW:0.0
TTFW:1.4
DFPT:2.0
DFPAP:3.0
DFPMP:2.0
RIGHT_WINDOW_BORDER_X:35.0
level,win/fail,% travelled,run time,game ticks,planning time,total plannings,nodes evaluated,most backtracked nodes
notch-1,false,0.37,1005,217,1004,217,92843,0
notch-2,false,0.24,1133,189,1133,189,110571,0
notch-3,false,0.24,1909,236,1908,236,181764,0
notch-4,false,0.13,1117,110,1117,110,99314,0
notch-5,false,0.64,3482,563,3477,563,326466,0
notch-6,false,0.31,6123,484,6122,484,573927,0
notch-7,false,0.39,405,192,404,192,35518,0
notch-8,false,0.26,3751,336,3750,336,361797,0
notch-9,false,0.26,1372,190,1372,190,121438,0
notch-10,false,0.11,1330,156,1330,156,120525,0
notch-11,false,0.17,367,104,367,104,31261,0
notch-12,false,0.31,374,176,373,176,36426,0
notch-13,false,0.45,1417,375,1416,375,129702,0
notch-14,false,0.12,663,84,663,84,59463,0
notch-15,true,1.00,6102,811,6099,807,556991,0
notch-16,false,0.12,367,84,367,84,33761,0
notch-17,false,0.18,1801,190,1800,190,170592,0
notch-18,false,0.13,1094,101,1094,101,107890,0
notch-19,false,0.57,4874,622,4869,622,452949,0
notch-20,false,0.24,469,135,467,135,44993,0
notch-21,false,0.13,2259,155,2259,155,200730,0
notch-22,false,0.40,1214,241,1212,241,113646,0
notch-23,false,0.31,1607,309,1606,309,159145,0
notch-24,false,0.45,1036,279,1034,279,96505,0
notch-25,false,0.17,469,121,469,121,41810,0
notch-26,false,0.32,1398,208,1398,208,118998,0
notch-27,false,0.10,29035,999,29034,999,2856922,0
notch-28,false,0.31,25090,999,25089,999,2447930,0
notch-29,false,0.32,4136,405,4135,405,408825,0
notch-30,false,0.27,4039,339,4039,339,329668,0
notch-31,false,0.24,403,132,403,132,34047,0
notch-32,false,0.27,1171,255,1170,255,115024,0
notch-33,false,0.23,24556,999,24552,999,2317353,0
notch-34,false,0.34,2625,317,2625,317,251663,0
notch-35,false,0.23,2649,219,2648,219,250620,0
notch-36,false,0.32,1609,296,1608,296,151951,0
notch-37,false,0.12,1824,162,1824,162,159744,0
notch-38,false,0.11,235,88,235,88,23873,0
notch-39,false,0.30,504,167,503,167,43076,0
notch-40,false,0.49,4978,459,4976,459,456089,0
notch-41,false,0.31,2166,321,2165,321,201278,0
notch-42,false,0.17,2556,213,2556,213,240835,0
notch-43,false,0.23,2793,298,2792,298,252027,0
notch-44,false,0.25,3394,310,3393,310,284530,0
notch-45,false,0.21,2653,239,2653,239,230054,0
notch-46,false,0.32,3615,292,3614,292,341138,0
notch-47,false,0.12,1100,118,1100,118,105926,0
notch-48,false,0.27,973,200,972,200,92327,0
notch-49,false,0.51,2953,353,2951,353,241861,0
notch-50,false,0.23,2254,216,2254,216,216850,0
notch-51,false,0.20,2129,224,2129,224,211363,0
notch-52,false,0.20,1464,216,1462,216,138973,0
notch-53,false,0.46,3481,356,3480,356,301163,0
notch-54,false,0.13,1127,121,1127,121,100445,0
notch-55,false,0.20,1136,216,1135,216,99783,0
notch-56,false,0.12,995,120,995,120,91894,0
notch-57,false,0.13,30418,999,30418,999,2433364,0
notch-58,false,0.56,5752,679,5751,679,585337,0
notch-59,false,0.28,1576,266,1576,266,149813,0
notch-60,false,0.18,4207,286,4207,286,351590,0
notch-61,false,0.13,105,89,104,89,10477,0
notch-62,false,0.23,1805,249,1805,249,178658,0
notch-63,false,0.43,2664,429,2662,429,275477,0
notch-64,false,0.13,1196,130,1195,130,112625,0
notch-65,false,0.37,3464,380,3462,380,329453,0
notch-66,false,0.39,2001,296,2000,296,194671,0
notch-67,false,0.12,237,81,236,81,20560,0
notch-68,false,0.13,1361,155,1361,155,114682,0
notch-69,false,0.13,442,88,442,88,39530,0
notch-70,false,0.17,1891,220,1889,220,181946,0
notch-71,false,0.55,6570,714,6568,714,597422,0
notch-72,false,0.27,971,209,970,209,95125,0
notch-73,false,0.22,2072,229,2071,229,204487,0
notch-74,false,0.19,1704,174,1704,174,157473,0
notch-75,false,0.37,1687,288,1687,288,167556,0
notch-76,false,0.13,600,97,598,97,51673,0
notch-77,false,0.21,1001,139,1000,139,98310,0
notch-78,false,0.20,947,179,944,179,92846,0
notch-79,false,0.62,7569,701,7568,701,718987,0
notch-80,false,0.33,1974,279,1974,279,182322,0
notch-81,false,0.12,1064,115,1063,115,95577,0
notch-82,false,0.13,2450,180,2449,180,212586,0
notch-83,false,0.47,2503,431,2501,431,242681,0
notch-84,false,0.12,929,109,929,109,87640,0
notch-85,false,0.06,2,25,2,25,338,0
notch-86,false,0.54,2237,327,2236,327,194432,0
notch-87,false,0.08,1194,111,1194,111,116660,0
notch-88,false,0.33,4038,422,4036,422,365403,0
notch-89,false,0.17,2646,197,2645,197,246272,0
notch-90,false,0.20,2294,241,2293,241,210275,0
notch-91,false,0.14,1161,130,1161,130,91513,0
notch-92,false,0.32,2085,356,2083,356,201482,0
notch-93,false,0.10,1491,118,1491,118,149012,0
notch-94,false,0.25,26210,999,26210,999,2342301,0
notch-95,false,0.72,2887,592,2886,592,286014,0
notch-96,false,0.25,1311,232,1310,232,125282,0
notch-97,false,0.11,1732,162,1729,162,176271,0
notch-98,false,0.11,1227,125,1225,125,112166,0
notch-99,false,0.10,334,78,334,78,30798,0
notch-100,false,0.16,28455,999,28455,999,2783331,0
