NDW:0.0
TTFW:1.8
DFPT:2.0
DFPAP:3.0
DFPMP:7.0
RIGHT_WINDOW_BORDER_X:215.0
level,win/fail,% travelled,run time,game ticks,planning time,total plannings,nodes evaluated,most backtracked nodes
notchParam-1,true,1.00,898,322,895,303,101171,0
notchParam-2,true,1.00,788,362,787,343,87531,0
notchParam-3,true,1.00,542,309,539,290,66031,0
notchParam-4,true,1.00,518,316,516,297,61276,0
notchParam-5,true,1.00,540,312,537,292,64461,0
notchParam-6,true,1.00,608,324,605,305,73108,0
notchParam-7,true,1.00,795,343,792,324,98931,0
notchParam-8,true,1.00,1087,319,1083,300,131246,0
notchParam-9,true,1.00,545,350,543,331,65737,0
notchParam-10,true,1.00,1016,314,1016,295,120102,0
notchParam-11,true,1.00,482,319,478,296,58163,0
notchParam-12,true,1.00,1155,331,1154,312,140941,0
notchParam-13,true,1.00,181,314,180,295,20573,0
notchParam-14,true,1.00,173,304,172,285,19047,0
notchParam-15,true,1.00,694,294,694,275,78458,0
notchParam-16,true,1.00,806,307,806,288,96892,0
notchParam-17,true,1.00,724,302,720,283,84299,0
notchParam-18,true,1.00,199,342,197,323,23719,0
notchParam-19,true,1.00,206,311,204,292,24526,0
notchParam-20,true,1.00,173,308,172,289,20103,0
notchParam-21,true,1.00,176,306,173,287,19112,0
notchParam-22,true,1.00,196,321,196,302,24552,0
notchParam-23,true,1.00,1180,370,1178,351,147805,0
notchParam-24,true,1.00,1154,336,1153,317,138881,0
notchParam-25,true,1.00,1088,322,1087,303,128084,0
notchParam-26,true,1.00,1075,342,1074,323,134580,0
notchParam-27,true,1.00,174,309,171,290,21063,0
notchParam-28,true,1.00,585,339,583,320,71513,0
notchParam-29,true,1.00,541,323,538,304,65307,0
notchParam-30,true,1.00,174,308,171,289,19009,0
notchParam-31,true,1.00,792,320,791,301,96704,0
notchParam-32,true,1.00,792,337,790,318,98748,0
notchParam-33,true,1.00,177,300,176,281,21013,0
notchParam-34,true,1.00,797,318,797,299,92834,0
notchParam-35,true,1.00,718,313,717,294,85098,0
notchParam-36,true,1.00,752,300,750,281,86948,0
notchParam-37,true,1.00,180,300,180,281,19158,0
notchParam-38,true,1.00,176,304,175,285,21316,0
notchParam-39,true,1.00,1066,348,1065,329,114822,0
notchParam-40,true,1.00,545,312,545,293,65554,0
notchParam-41,true,1.00,585,331,583,312,70760,0
notchParam-42,true,1.00,187,321,186,292,23561,0
notchParam-43,true,1.00,1010,308,1008,289,121600,0
notchParam-44,true,1.00,1085,338,1083,319,133000,0
notchParam-45,true,1.00,997,338,994,310,127561,0
notchParam-46,true,1.00,1143,318,1142,299,128527,0
notchParam-47,true,1.00,210,312,207,293,26614,0
notchParam-48,true,1.00,225,333,221,314,28488,0
notchParam-49,true,1.00,216,332,215,308,25720,0
notchParam-50,true,1.00,213,329,212,310,24237,0
notchParam-51,true,1.00,171,308,170,289,19522,0
notchParam-52,true,1.00,701,300,700,281,86437,0
notchParam-53,true,1.00,1233,375,1232,356,148739,0
notchParam-54,true,1.00,821,329,821,310,96763,0
notchParam-55,true,1.00,224,321,221,302,26740,0
notchParam-56,true,1.00,175,312,174,293,20371,0
notchParam-57,true,1.00,1078,332,1077,313,135244,0
notchParam-58,true,1.00,555,341,555,322,65573,0
notchParam-59,true,1.00,1103,357,1100,338,132023,0
notchParam-60,true,1.00,518,333,516,314,60147,0
notchParam-61,true,1.00,1033,348,1029,329,127564,0
notchParam-62,true,1.00,698,298,696,279,78684,0
notchParam-63,true,1.00,560,333,559,314,64584,0
notchParam-64,true,1.00,515,324,512,305,62870,0
notchParam-65,true,1.00,588,339,587,320,70510,0
notchParam-66,true,1.00,554,335,554,316,67494,0
notchParam-67,true,1.00,780,328,778,309,96212,0
notchParam-68,true,1.00,804,316,800,296,87786,0
notchParam-69,true,1.00,736,308,734,289,78853,0
notchParam-70,true,1.00,787,310,784,291,93126,0
notchParam-71,true,1.00,664,357,662,336,83047,0
notchParam-72,true,1.00,562,350,561,330,70994,0
notchParam-73,true,1.00,514,310,513,291,61184,0
notchParam-74,true,1.00,589,341,587,322,69203,0
notchParam-75,true,1.00,552,338,551,319,72105,0
notchParam-76,true,1.00,1065,362,1064,343,128587,0
notchParam-77,true,1.00,682,333,679,314,82096,0
notchParam-78,true,1.00,1053,333,1051,314,125694,0
notchParam-79,true,1.00,553,319,551,300,67524,0
notchParam-80,true,1.00,193,319,190,300,20415,0
notchParam-81,true,1.00,523,333,519,314,63724,0
notchParam-82,true,1.00,211,305,208,286,23156,0
notchParam-83,true,1.00,210,302,207,283,24416,0
notchParam-84,true,1.00,784,337,784,318,92000,0
notchParam-85,true,1.00,1299,385,1299,366,139953,0
notchParam-86,true,1.00,1009,304,1007,285,118331,0
notchParam-87,true,1.00,185,322,184,303,21999,0
notchParam-88,true,1.00,240,306,237,287,25946,0
notchParam-89,true,1.00,177,304,176,285,18488,0
notchParam-90,true,1.00,211,309,210,290,23600,0
notchParam-91,true,1.00,1215,334,1212,315,134710,0
notchParam-92,true,1.00,1005,308,1004,289,115548,0
notchParam-93,true,1.00,1158,326,1156,307,141791,0
notchParam-94,true,1.00,1104,353,1102,334,129682,0
notchParam-95,true,1.00,1082,375,1079,356,138283,0
notchParam-96,true,1.00,522,326,520,307,67238,0
notchParam-97,true,1.00,610,321,609,302,67966,0
notchParam-98,true,1.00,175,300,172,281,20107,0
notchParam-99,true,1.00,817,329,810,310,96941,0
notchParam-100,true,1.00,764,298,759,279,88547,0
