NDW:0.0
TTFW:1.8
DFPT:2.0
DFPAP:3.0
DFPMP:3.0
RIGHT_WINDOW_BORDER_X:275.0
level,win/fail,% travelled,run time,game ticks,planning time,total plannings,nodes evaluated,most backtracked nodes
Krys-1,true,1.00,8728,591,8717,556,374436,0
Krys-2,false,0.79,24960,999,24956,999,919574,0
Krys-3,true,1.00,10143,609,10135,545,450924,0
Krys-4,true,1.00,2972,440,2963,376,120244,0
Krys-5,true,1.00,2176,388,2167,339,118454,0
Krys-6,true,1.00,1916,376,1906,326,91825,0
Krys-7,true,1.00,560,400,552,354,25339,0
Krys-8,true,1.00,3651,578,3638,494,164845,0
Krys-9,true,1.00,2213,408,2202,345,128329,0
Krys-10,true,1.00,3821,451,3807,385,179638,0
Krys-11,true,1.00,374,432,367,368,14635,0
Krys-12,true,1.00,4420,420,4412,359,189666,0
Krys-13,true,1.00,3653,429,3645,368,201685,0
Krys-14,false,0.79,25984,999,25978,999,940181,0
Krys-15,true,1.00,4148,431,4144,379,206394,0
Krys-16,false,0.69,24850,999,24843,999,907687,0
Krys-17,true,1.00,2474,496,2457,432,113526,0
Krys-18,true,1.00,2943,500,2926,433,120339,0
Krys-19,true,1.00,4025,382,4020,333,196322,0
Krys-20,true,1.00,4215,557,4199,480,188599,0
Krys-21,true,1.00,1980,382,1969,330,113797,0
Krys-22,true,1.00,2379,360,2375,311,144768,0
Krys-23,true,1.00,2063,454,2053,384,88267,0
Krys-24,true,1.00,4627,425,4616,376,234124,0
Krys-25,true,1.00,3229,455,3221,383,149267,0
Krys-26,true,1.00,3052,331,3049,289,172238,0
Krys-27,true,1.00,3051,441,3043,381,144428,0
Krys-28,true,1.00,7508,524,7501,475,356612,0
Krys-29,true,1.00,2536,484,2523,429,105915,0
Krys-30,true,1.00,3334,530,3320,461,130975,0
Krys-31,true,1.00,1464,447,1455,387,68082,0
Krys-32,true,1.00,736,413,726,361,29047,0
Krys-33,true,1.00,707,405,695,341,34740,0
Krys-34,true,1.00,3194,439,3188,385,153561,0
Krys-35,true,1.00,2303,412,2295,362,116314,0
Krys-36,true,1.00,4922,409,4917,334,254482,0
Krys-37,true,1.00,5266,469,5259,428,279589,0
Krys-38,true,1.00,4273,417,4267,374,240119,0
Krys-39,true,1.00,3525,392,3518,319,185759,0
Krys-40,true,1.00,3995,416,3986,363,203326,0
Krys-41,true,1.00,4784,422,4778,379,236544,0
Krys-42,true,1.00,4072,490,4059,423,229190,0
Krys-43,true,1.00,1707,337,1699,294,98059,0
Krys-44,true,1.00,6259,470,6256,421,308899,0
Krys-45,true,1.00,1971,431,1960,384,75114,0
Krys-46,true,1.00,2086,521,2076,463,84605,0
Krys-47,true,1.00,1576,488,1565,429,69263,0
Krys-48,true,1.00,2109,404,2100,357,110807,0
Krys-49,true,1.00,1175,426,1165,380,50739,0
Krys-50,true,1.00,7473,524,7453,473,308163,0
Krys-51,true,1.00,4145,429,4136,366,194426,0
Krys-52,true,1.00,2341,438,2328,382,88444,0
Krys-53,true,1.00,1975,467,1959,417,78478,0
Krys-54,true,1.00,6404,468,6394,428,292667,0
Krys-55,true,1.00,3442,516,3426,446,143065,0
Krys-56,false,0.59,26438,999,26432,999,924335,0
Krys-57,true,1.00,2513,370,2505,326,123643,0
Krys-58,true,1.00,2510,471,2500,431,104783,0
Krys-59,false,0.89,24066,999,24052,999,863826,0
Krys-60,true,1.00,3058,427,3047,354,151267,0
Krys-61,true,1.00,3555,512,3543,458,142433,0
Krys-62,true,1.00,1810,443,1795,392,65131,0
Krys-63,true,1.00,4281,603,4270,515,170315,0
Krys-64,true,1.00,3480,502,3469,447,153551,0
Krys-65,true,1.00,2305,471,2295,419,90886,0
Krys-66,true,1.00,4660,442,4650,399,181622,0
Krys-67,true,1.00,4260,548,4246,484,190641,0
Krys-68,true,1.00,2565,325,2555,276,135835,0
Krys-69,true,1.00,9350,704,9333,661,351576,0
Krys-70,true,1.00,9323,596,9321,553,398729,0
Krys-71,true,1.00,2329,343,2319,298,136103,0
Krys-72,true,1.00,1798,487,1789,431,75262,0
Krys-73,true,1.00,4375,515,4369,452,195285,0
Krys-74,true,1.00,2560,434,2554,382,135467,0
Krys-75,true,1.00,1317,463,1302,394,48266,0
Krys-76,true,1.00,3773,340,3769,300,190216,0
Krys-77,true,1.00,1763,414,1750,342,100199,0
Krys-78,false,0.91,24965,999,24961,999,1018332,0
Krys-79,true,1.00,1076,446,1065,367,43705,0
Krys-80,true,1.00,656,412,640,358,28306,0
Krys-81,true,1.00,1890,456,1881,398,97727,0
Krys-82,true,1.00,1666,398,1658,361,65702,0
Krys-83,false,0.91,22734,999,22724,999,861966,0
Krys-84,true,1.00,369,385,357,333,15944,0
Krys-85,true,1.00,3727,584,3718,503,161056,0
Krys-86,true,1.00,1941,430,1937,368,83959,0
Krys-87,true,1.00,1457,406,1447,364,57677,0
Krys-88,true,1.00,1801,471,1783,425,84921,0
Krys-89,true,1.00,1438,409,1426,364,64956,0
Krys-90,true,1.00,2719,333,2710,278,149345,0
Krys-91,true,1.00,478,434,463,383,20839,0
Krys-92,true,1.00,4441,444,4433,354,209146,0
Krys-93,true,1.00,3008,403,2996,356,146108,0
Krys-94,true,1.00,1392,394,1382,335,81177,0
Krys-95,true,1.00,2170,422,2158,353,100477,0
Krys-96,true,1.00,3583,392,3577,340,208229,0
Krys-97,true,1.00,1912,428,1901,369,93782,0
Krys-98,true,1.00,5789,532,5780,491,251939,0
Krys-99,true,1.00,2453,498,2444,434,92162,0
Krys-100,true,1.00,2393,373,2385,334,142988,0
