NDW:0.0
TTFW:1.0
DFPT:2.0
DFPAP:3.0
DFPMP:50.0
RIGHT_WINDOW_BORDER_X:235.0
level,win/fail,% travelled,run time,game ticks,planning time,total plannings,nodes evaluated,most backtracked nodes
ore-1,true,1.00,1587,403,1579,380,88002,0
ore-2,false,0.70,1774,300,1769,300,91705,0
ore-3,true,1.00,1907,457,1892,427,98642,0
ore-4,true,1.00,3035,438,3025,410,160562,0
ore-5,true,1.00,1870,363,1861,342,90001,0
ore-6,true,1.00,1913,478,1894,440,88711,0
ore-7,true,1.00,1681,472,1664,447,77552,0
ore-8,true,1.00,2615,352,2607,321,125197,0
ore-9,true,1.00,1354,376,1342,355,68137,0
ore-10,false,0.55,898,251,889,251,44299,0
ore-11,true,1.00,1663,483,1654,448,78472,0
ore-12,false,0.46,2300,231,2292,231,98229,0
ore-13,true,1.00,2213,456,2199,417,105994,0
ore-14,true,1.00,1847,405,1833,382,91860,0
ore-15,true,1.00,2008,404,1993,377,103158,0
ore-16,true,1.00,1780,415,1767,390,90059,0
ore-17,true,1.00,2165,521,2146,477,101762,0
ore-18,true,1.00,1581,435,1574,398,76722,0
ore-19,true,1.00,1639,412,1628,386,77788,0
ore-20,true,1.00,2436,438,2418,408,108823,0
ore-21,true,1.00,2265,453,2244,421,108934,0
ore-22,false,0.62,2271,296,2265,296,107589,0
ore-23,true,1.00,1447,377,1438,355,74924,0
ore-24,true,1.00,1792,438,1781,406,90943,0
ore-25,true,1.00,1848,419,1835,383,96704,0
ore-26,true,1.00,1500,405,1492,380,76241,0
ore-27,false,0.24,1408,111,1407,111,65509,0
ore-28,true,1.00,1967,446,1951,420,95774,0
ore-29,false,0.48,3189,263,3185,263,136880,0
ore-30,true,1.00,1214,374,1205,350,61446,0
ore-31,true,1.00,1778,479,1769,443,89523,0
ore-32,true,1.00,1543,404,1530,371,71809,0
ore-33,true,1.00,1595,399,1579,368,73288,0
ore-34,true,1.00,1742,418,1726,387,78705,0
ore-35,true,1.00,2020,422,2007,400,96036,0
ore-36,true,1.00,1612,404,1598,375,72232,0
ore-37,false,0.34,1476,149,1472,149,59487,0
ore-38,true,1.00,1614,424,1601,394,72729,0
ore-39,true,1.00,2043,428,2029,404,97297,0
ore-40,true,1.00,1928,398,1913,376,86879,0
ore-41,true,1.00,2349,437,2328,398,108041,0
ore-42,true,1.00,2455,429,2445,406,111779,0
ore-43,true,1.00,2661,427,2646,406,118934,0
ore-44,true,1.00,2224,402,2210,368,105124,0
ore-45,false,0.74,23142,999,23130,999,742460,0
ore-46,false,0.12,978,53,978,53,41959,0
ore-47,false,0.85,2425,425,2411,425,107093,0
ore-48,true,1.00,1835,420,1821,391,83023,0
ore-49,true,1.00,1609,426,1596,399,73319,0
ore-50,true,1.00,1976,386,1963,364,96626,0
ore-51,true,1.00,2215,405,2204,373,108123,0
ore-52,true,1.00,2092,440,2074,417,100122,0
ore-53,true,1.00,2137,425,2124,399,104333,0
ore-54,false,0.72,2097,307,2088,307,97499,0
ore-55,true,1.00,1473,403,1460,372,75369,0
ore-56,true,1.00,1380,404,1369,372,69076,0
ore-57,true,1.00,1814,425,1795,400,91276,0
ore-58,true,1.00,2031,401,2023,380,106118,0
ore-59,true,1.00,2169,448,2153,425,107067,0
ore-60,true,1.00,2034,377,2016,349,97913,0
ore-61,true,1.00,1767,436,1760,411,83198,0
ore-62,true,1.00,2217,465,2202,443,109499,0
ore-63,false,0.32,2375,162,2369,162,100658,0
ore-64,true,1.00,1197,386,1186,364,57404,0
ore-65,true,1.00,2364,422,2345,395,114731,0
ore-66,true,1.00,2193,449,2179,427,105306,0
ore-67,true,1.00,1903,415,1886,388,91897,0
ore-68,true,1.00,1945,404,1937,382,93008,0
ore-69,true,1.00,3355,500,3342,471,154247,0
ore-70,false,0.96,2614,408,2598,408,120790,0
ore-71,true,1.00,1533,414,1521,392,72771,0
ore-72,true,1.00,1677,437,1660,403,79958,0
ore-73,true,1.00,2174,414,2156,392,106407,0
ore-74,true,1.00,2280,402,2269,365,100699,0
ore-75,true,1.00,1861,473,1851,451,88723,0
ore-76,true,1.00,1562,354,1553,333,78431,0
ore-77,true,1.00,1587,417,1575,393,76842,0
ore-78,true,1.00,1758,383,1748,362,86236,0
ore-79,true,1.00,1599,415,1590,385,81425,0
ore-80,true,1.00,2060,409,2053,387,105432,0
ore-81,true,1.00,1976,394,1965,371,101178,0
ore-82,true,1.00,1924,406,1918,373,94606,0
ore-83,true,1.00,1574,413,1567,384,74412,0
ore-84,true,1.00,4441,494,4426,466,198914,0
ore-85,true,1.00,1399,419,1386,389,64575,0
ore-86,false,0.62,1921,284,1912,284,87381,0
ore-87,true,1.00,1304,338,1291,317,61541,0
ore-88,true,1.00,2012,408,2002,385,97962,0
ore-89,true,1.00,2451,414,2438,393,113636,0
ore-90,true,1.00,1942,433,1930,410,89451,0
ore-91,true,1.00,1780,408,1764,379,83632,0
ore-92,true,1.00,2390,453,2378,430,110778,0
ore-93,false,0.13,1476,73,1475,73,58404,0
ore-94,true,1.00,2179,414,2160,387,104580,0
ore-95,true,1.00,2172,443,2161,410,106608,0
ore-96,true,1.00,2195,411,2185,389,113534,0
ore-97,true,1.00,2008,467,1993,426,99280,0
ore-98,true,1.00,1760,401,1750,379,81661,0
ore-99,true,1.00,2889,470,2868,445,131782,0
ore-100,true,1.00,1673,399,1655,370,80313,0
