NDW:0.0
TTFW:0.2
DFPT:2.0
DFPAP:3.0
DFPMP:10.0
RIGHT_WINDOW_BORDER_X:255.0
level,win/fail,% travelled,run time,game ticks,planning time,total plannings,nodes evaluated,most backtracked nodes
ore-1,true,1.00,5083,379,5080,356,314221,0
ore-2,false,0.70,2979,238,2978,238,190672,0
ore-3,true,1.00,5045,394,5043,365,313619,0
ore-4,true,1.00,5257,406,5254,381,322798,0
ore-5,true,1.00,4502,384,4500,361,286894,0
ore-6,true,1.00,4558,378,4557,343,283586,0
ore-7,true,1.00,3594,355,3593,332,229422,0
ore-8,true,1.00,6090,406,6088,383,417633,0
ore-9,true,1.00,4037,358,4032,333,263650,0
ore-10,true,1.00,4912,378,4909,355,311205,0
ore-11,true,1.00,4255,370,4252,347,261559,0
ore-12,true,1.00,4746,393,4743,370,293836,0
ore-13,true,1.00,5468,404,5467,375,339640,0
ore-14,true,1.00,4647,371,4646,348,280142,0
ore-15,true,1.00,4185,374,4181,347,261997,0
ore-16,true,1.00,3737,356,3735,333,241989,0
ore-17,true,1.00,4311,369,4307,338,272442,0
ore-18,true,1.00,3248,337,3244,305,203885,0
ore-19,true,1.00,4585,380,4580,356,280937,0
ore-20,true,1.00,5025,377,5022,354,297488,0
ore-21,true,1.00,3547,346,3546,323,217182,0
ore-22,true,1.00,4821,355,4818,332,300943,0
ore-23,true,1.00,3263,344,3259,321,210629,0
ore-24,true,1.00,3213,340,3210,316,200820,0
ore-25,true,1.00,4206,340,4201,317,263594,0
ore-26,true,1.00,4463,372,4459,349,273781,0
ore-27,false,0.24,1724,95,1724,95,117273,0
ore-28,true,1.00,5270,406,5269,383,331625,0
ore-29,true,1.00,4229,370,4225,347,261789,0
ore-30,true,1.00,3239,328,3239,304,206588,0
ore-31,true,1.00,3103,342,3099,312,200547,0
ore-32,true,1.00,4055,370,4051,341,241728,0
ore-33,true,1.00,3913,363,3903,340,234937,0
ore-34,true,1.00,4541,397,4538,374,284842,0
ore-35,true,1.00,3523,350,3521,321,230432,0
ore-36,true,1.00,4252,390,4248,361,273710,0
ore-37,false,0.34,2423,148,2421,148,155534,0
ore-38,true,1.00,4279,377,4273,344,274001,0
ore-39,true,1.00,4959,383,4956,358,301397,0
ore-40,true,1.00,5475,381,5474,356,340431,0
ore-41,true,1.00,4413,360,4411,335,281328,0
ore-42,true,1.00,5078,392,5076,368,308541,0
ore-43,true,1.00,5932,409,5925,385,391293,0
ore-44,true,1.00,4262,354,4259,330,287304,0
ore-45,false,0.74,26790,999,26788,999,1540407,0
ore-46,true,1.00,3013,328,3012,305,192011,0
ore-47,true,1.00,4222,364,4221,341,256404,0
ore-48,true,1.00,4654,388,4648,365,289085,0
ore-49,true,1.00,3269,334,3265,311,202688,0
ore-50,true,1.00,4454,357,4450,334,287389,0
ore-51,true,1.00,3693,343,3689,320,237525,0
ore-52,true,1.00,5565,400,5561,375,340815,0
ore-53,true,1.00,3870,372,3868,349,237581,0
ore-54,true,1.00,4473,383,4470,348,281586,0
ore-55,true,1.00,3010,330,3008,307,193477,0
ore-56,true,1.00,3312,346,3307,322,206144,0
ore-57,true,1.00,3868,363,3864,332,239044,0
ore-58,true,1.00,3460,334,3459,311,228501,0
ore-59,true,1.00,3742,354,3738,331,233244,0
ore-60,true,1.00,4160,367,4158,344,257152,0
ore-61,true,1.00,3480,346,3475,323,212956,0
ore-62,true,1.00,3519,356,3516,333,225993,0
ore-63,true,1.00,3529,361,3524,338,226674,0
ore-64,true,1.00,4618,373,4614,349,289186,0
ore-65,true,1.00,3531,345,3530,322,228180,0
ore-66,true,1.00,3258,352,3256,323,210060,0
ore-67,true,1.00,3016,327,3010,304,195106,0
ore-68,true,1.00,5279,408,5272,376,324592,0
ore-69,true,1.00,4193,353,4186,330,265765,0
ore-70,true,1.00,4607,370,4603,347,280170,0
ore-71,true,1.00,4525,364,4523,341,296025,0
ore-72,true,1.00,3997,362,3996,339,257302,0
ore-73,true,1.00,3869,364,3867,330,237358,0
ore-74,true,1.00,3615,354,3610,329,218375,0
ore-75,true,1.00,5085,406,5083,383,322450,0
ore-76,true,1.00,3966,344,3965,321,270317,0
ore-77,true,1.00,4367,363,4366,338,267415,0
ore-78,true,1.00,4635,384,4631,360,293580,0
ore-79,true,1.00,4441,361,4436,338,276560,0
ore-80,true,1.00,3534,351,3532,328,223173,0
ore-81,true,1.00,4348,370,4346,347,277209,0
ore-82,true,1.00,5134,373,5132,350,305531,0
ore-83,true,1.00,3715,356,3708,333,239414,0
ore-84,true,1.00,5888,428,5886,405,348048,0
ore-85,true,1.00,4125,372,4123,347,254678,0
ore-86,true,1.00,4529,388,4527,363,286901,0
ore-87,true,1.00,3691,355,3690,332,234744,0
ore-88,true,1.00,3422,346,3415,323,221373,0
ore-89,true,1.00,4550,355,4548,332,276076,0
ore-90,true,1.00,4306,362,4304,339,266656,0
ore-91,true,1.00,3081,339,3080,316,202590,0
ore-92,true,1.00,5381,397,5377,371,336057,0
ore-93,false,0.13,2137,83,2137,83,133380,0
ore-94,true,1.00,4573,378,4569,351,276073,0
ore-95,true,1.00,4530,368,4527,345,280750,0
ore-96,true,1.00,4361,379,4358,356,268200,0
ore-97,false,0.77,4469,308,4467,308,285101,0
ore-98,true,1.00,3759,339,3754,316,246958,0
ore-99,true,1.00,3662,354,3660,330,230993,0
ore-100,true,1.00,4225,390,4219,367,270583,0
