NDW:0.0
TTFW:1.0
DFPT:2.0
DFPAP:3.0
DFPMP:3.0
RIGHT_WINDOW_BORDER_X:55.0
level,win/fail,% travelled,run time,game ticks,planning time,total plannings,nodes evaluated,most backtracked nodes
notchParam-1,false,0.36,2168,328,2167,328,174265,0
notchParam-2,false,0.36,25498,999,25498,999,2306818,0
notchParam-3,true,1.00,5018,818,5016,811,435825,0
notchParam-4,true,1.00,3559,684,3556,677,280169,0
notchParam-5,true,1.00,4495,761,4490,755,378174,0
notchParam-6,false,0.19,895,177,894,177,75882,0
notchParam-7,false,0.37,2065,270,2065,270,198157,0
notchParam-8,false,0.57,8602,650,8599,650,755260,0
notchParam-9,true,1.00,4423,796,4420,790,384811,0
notchParam-10,false,0.18,873,185,872,185,69942,0
notchParam-11,true,1.00,5100,792,5096,787,405610,0
notchParam-12,false,0.18,2027,204,2026,204,177871,0
notchParam-13,true,1.00,2462,674,2460,662,209620,0
notchParam-14,false,0.68,1206,475,1205,475,104653,0
notchParam-15,false,0.36,2099,310,2098,310,173104,0
notchParam-16,false,0.35,24693,999,24692,999,2254120,0
notchParam-17,false,0.37,1028,288,1028,288,88256,0
notchParam-18,true,1.00,1188,586,1184,581,110073,0
notchParam-19,true,1.00,1544,607,1542,601,137426,0
notchParam-20,true,1.00,916,620,909,613,79739,0
notchParam-21,true,1.00,867,532,864,525,68576,0
notchParam-22,true,1.00,2194,663,2186,656,202648,0
notchParam-23,false,0.44,6645,468,6642,468,622102,0
notchParam-24,false,0.19,971,173,971,173,90133,0
notchParam-25,false,0.19,1700,206,1700,206,137084,0
notchParam-26,false,0.19,2058,189,2057,189,190002,0
notchParam-27,true,1.00,2511,701,2510,694,223358,0
notchParam-28,false,0.44,2172,368,2169,368,194308,0
notchParam-29,false,0.19,897,177,896,177,75415,0
notchParam-30,true,1.00,1811,654,1807,647,151350,0
notchParam-31,false,0.36,3951,382,3947,382,321242,0
notchParam-32,false,0.37,1026,288,1025,288,87489,0
notchParam-33,true,1.00,1613,658,1610,651,136130,0
notchParam-34,false,0.37,811,260,810,260,65731,0
notchParam-35,false,0.36,4013,333,4010,333,341360,0
notchParam-36,false,0.36,2265,297,2264,297,191628,0
notchParam-37,true,1.00,2299,639,2297,632,179676,0
notchParam-38,false,0.36,1673,276,1669,276,155246,0
notchParam-39,false,0.37,1341,279,1339,279,124803,0
notchParam-40,true,1.00,2954,771,2948,764,243584,0
notchParam-41,true,1.00,5369,718,5366,711,436754,0
notchParam-42,true,1.00,1145,589,1144,582,108407,0
notchParam-43,false,0.19,2785,199,2783,199,213162,0
notchParam-44,false,0.19,2914,264,2913,264,213207,0
notchParam-45,false,0.18,2124,221,2102,221,146704,0
notchParam-46,false,0.19,1075,179,1075,179,87972,0
notchParam-47,true,1.00,1943,630,1941,623,195952,0
notchParam-48,true,1.00,1656,624,1651,617,163781,0
notchParam-49,true,1.00,1376,619,1375,612,122268,0
notchParam-50,true,1.00,311,592,307,585,31790,0
notchParam-51,true,1.00,1277,610,1270,603,110043,0
notchParam-52,false,0.36,2825,310,2824,310,259187,0
notchParam-53,false,0.37,2267,360,2267,360,193728,0
notchParam-54,false,0.36,3978,337,3977,337,337833,0
notchParam-55,true,1.00,1841,657,1837,650,177097,0
notchParam-56,true,1.00,1634,619,1631,612,149021,0
notchParam-57,false,0.44,2675,393,2672,393,236056,0
notchParam-58,true,1.00,6859,890,6854,883,562594,0
notchParam-59,false,0.31,5787,420,5786,420,506426,0
notchParam-60,true,1.00,3825,700,3822,690,331235,0
notchParam-61,false,0.18,2254,178,2253,178,196954,0
notchParam-62,false,0.36,4080,344,4079,344,299156,0
notchParam-63,false,0.19,1061,185,1060,185,87243,0
notchParam-64,true,1.00,3807,735,3801,728,310366,0
notchParam-65,true,1.00,3748,726,3742,719,322759,0
notchParam-66,true,1.00,4470,725,4468,718,379513,0
notchParam-67,false,0.36,25322,999,25320,999,2333545,0
notchParam-68,false,0.36,2790,310,2789,310,225591,0
notchParam-69,false,0.35,24804,999,24802,999,1756505,0
notchParam-70,false,0.36,3683,321,3682,321,312724,0
notchParam-71,true,1.00,4535,764,4532,757,394473,0
notchParam-72,true,1.00,3644,726,3640,719,329600,0
notchParam-73,true,1.00,4875,785,4873,778,401473,0
notchParam-74,true,1.00,4207,813,4201,807,348772,0
notchParam-75,true,1.00,4665,765,4661,759,426104,0
notchParam-76,false,0.31,4315,344,4314,344,372761,0
notchParam-77,true,1.00,4790,729,4786,722,416475,0
notchParam-78,false,0.44,4048,452,4046,452,330086,0
notchParam-79,false,0.19,1075,179,1075,179,87998,0
notchParam-80,false,0.67,1859,460,1858,460,175167,0
notchParam-81,false,0.19,896,177,895,177,76050,0
notchParam-82,true,1.00,1910,666,1905,654,166954,0
notchParam-83,false,0.36,1902,280,1901,280,175848,0
notchParam-84,false,0.36,1303,275,1302,275,110810,0
notchParam-85,false,0.36,25178,999,25176,999,2272706,0
notchParam-86,false,0.18,1297,175,1296,175,114608,0
notchParam-87,true,1.00,562,592,558,585,52853,0
notchParam-88,true,1.00,1935,605,1935,599,170704,0
notchParam-89,true,1.00,967,519,965,512,85645,0
notchParam-90,false,0.36,1079,286,1077,286,97236,0
notchParam-91,false,0.32,3986,315,3986,315,302889,0
notchParam-92,false,0.43,24655,999,24653,999,1751453,0
notchParam-93,false,0.18,2845,211,2845,211,228188,0
notchParam-94,false,0.31,5840,420,5839,420,491606,0
notchParam-95,false,0.18,28218,999,28217,999,2588561,0
notchParam-96,false,0.18,1598,171,1598,171,147480,0
notchParam-97,false,0.45,3546,398,3546,398,282753,0
notchParam-98,true,1.00,1562,605,1559,593,131923,0
notchParam-99,false,0.36,4012,333,4012,333,340032,0
notchParam-100,false,0.36,1538,277,1538,277,126769,0
