NDW:0.0
TTFW:1.0
DFPT:2.0
DFPAP:3.0
DFPMP:7.0
RIGHT_WINDOW_BORDER_X:400.0
level,win/fail,% travelled,run time,game ticks,planning time,total plannings,nodes evaluated,most backtracked nodes
patternWeightCount-1,true,1.00,3265,442,3254,398,178189,0
patternWeightCount-2,true,1.00,839,404,828,367,42137,0
patternWeightCount-3,true,1.00,750,396,744,356,35469,0
patternWeightCount-4,true,1.00,837,376,826,333,40893,0
patternWeightCount-5,true,1.00,1700,457,1688,418,85667,0
patternWeightCount-6,true,1.00,1743,411,1731,373,91015,0
patternWeightCount-7,true,1.00,1125,441,1115,405,55265,0
patternWeightCount-8,true,1.00,1143,406,1135,370,48097,0
patternWeightCount-9,true,1.00,1363,441,1354,396,69286,0
patternWeightCount-10,true,1.00,1099,439,1086,403,54262,0
patternWeightCount-11,true,1.00,646,428,633,392,28260,0
patternWeightCount-12,true,1.00,1803,444,1793,407,91615,0
patternWeightCount-13,true,1.00,1331,415,1318,371,70163,0
patternWeightCount-14,true,1.00,997,417,983,367,49131,0
patternWeightCount-15,true,1.00,1637,398,1625,362,87652,0
patternWeightCount-16,true,1.00,3094,470,3080,416,172663,0
patternWeightCount-17,true,1.00,1173,484,1159,448,54541,0
patternWeightCount-18,true,1.00,1121,411,1108,375,56506,0
patternWeightCount-19,true,1.00,908,448,899,412,40920,0
patternWeightCount-20,true,1.00,5228,444,5220,389,268230,0
patternWeightCount-21,true,1.00,1057,456,1043,407,45832,0
patternWeightCount-22,true,1.00,2882,479,2868,414,155857,0
patternWeightCount-23,true,1.00,1300,465,1287,415,63962,0
patternWeightCount-24,true,1.00,1160,382,1150,334,59072,0
patternWeightCount-25,true,1.00,1969,440,1954,404,103577,0
patternWeightCount-26,true,1.00,1443,446,1433,409,73623,0
patternWeightCount-27,true,1.00,2184,448,2176,383,116036,0
patternWeightCount-28,true,1.00,1428,454,1419,418,72406,0
patternWeightCount-29,true,1.00,1154,423,1144,387,57801,0
patternWeightCount-30,true,1.00,3572,452,3561,391,185173,0
patternWeightCount-31,true,1.00,1671,406,1661,370,76860,0
patternWeightCount-32,true,1.00,912,419,895,382,44239,0
patternWeightCount-33,true,1.00,996,423,982,387,49871,0
patternWeightCount-34,true,1.00,1324,418,1318,382,67077,0
patternWeightCount-35,true,1.00,2158,427,2148,391,107528,0
patternWeightCount-36,true,1.00,1747,446,1736,410,89639,0
patternWeightCount-37,true,1.00,979,415,973,379,47361,0
patternWeightCount-38,true,1.00,2073,455,2065,402,104377,0
patternWeightCount-39,true,1.00,1170,377,1157,341,60253,0
patternWeightCount-40,true,1.00,1472,465,1460,429,75696,0
patternWeightCount-41,true,1.00,1472,477,1458,413,74174,0
patternWeightCount-42,false,0.88,2990,368,2979,368,148773,0
patternWeightCount-43,true,1.00,1391,391,1382,347,74046,0
patternWeightCount-44,true,1.00,1865,501,1852,448,99088,0
patternWeightCount-45,true,1.00,3183,483,3177,440,168178,0
patternWeightCount-46,true,1.00,4403,485,4390,433,214210,0
patternWeightCount-47,true,1.00,1011,424,1003,388,49527,0
patternWeightCount-48,true,1.00,866,432,859,396,41775,0
patternWeightCount-49,true,1.00,914,390,907,354,46958,0
patternWeightCount-50,true,1.00,1099,412,1094,376,57209,0
patternWeightCount-51,true,1.00,1375,422,1358,368,72124,0
patternWeightCount-52,true,1.00,1727,452,1717,403,88850,0
patternWeightCount-53,true,1.00,2732,424,2727,371,143285,0
patternWeightCount-54,true,1.00,1178,429,1169,392,55588,0
patternWeightCount-55,true,1.00,1419,406,1408,369,71808,0
patternWeightCount-56,true,1.00,1335,425,1327,389,65953,0
patternWeightCount-57,true,1.00,618,387,614,351,28847,0
patternWeightCount-58,true,1.00,1533,445,1525,396,78955,0
patternWeightCount-59,true,1.00,786,407,776,363,37102,0
patternWeightCount-60,true,1.00,1651,513,1636,451,80313,0
patternWeightCount-61,true,1.00,1320,416,1310,363,66860,0
patternWeightCount-62,true,1.00,2560,475,2550,398,133784,0
patternWeightCount-63,true,1.00,1502,426,1494,390,78120,0
patternWeightCount-64,true,1.00,1949,462,1934,426,99970,0
patternWeightCount-65,true,1.00,1642,464,1632,414,84971,0
patternWeightCount-66,true,1.00,1318,434,1306,398,64094,0
patternWeightCount-67,true,1.00,1616,431,1604,395,76544,0
patternWeightCount-68,false,0.85,20881,999,20871,999,732953,0
patternWeightCount-69,true,1.00,1736,419,1724,354,89579,0
patternWeightCount-70,true,1.00,1273,468,1264,407,63228,0
patternWeightCount-71,true,1.00,988,419,977,363,48710,0
patternWeightCount-72,true,1.00,4418,497,4410,435,213547,0
patternWeightCount-73,true,1.00,5233,457,5227,411,276194,0
patternWeightCount-74,true,1.00,1013,409,1001,373,50011,0
patternWeightCount-75,true,1.00,1205,414,1194,378,59896,0
patternWeightCount-76,true,1.00,1179,465,1166,428,57827,0
patternWeightCount-77,true,1.00,1314,419,1298,383,67694,0
patternWeightCount-78,true,1.00,2455,477,2441,427,120172,0
patternWeightCount-79,true,1.00,848,388,834,352,40982,0
patternWeightCount-80,true,1.00,1627,459,1615,422,82765,0
patternWeightCount-81,true,1.00,3565,462,3560,385,184871,0
patternWeightCount-82,true,1.00,413,411,406,352,16628,0
patternWeightCount-83,true,1.00,837,389,830,347,41534,0
patternWeightCount-84,true,1.00,1106,447,1092,410,54421,0
patternWeightCount-85,true,1.00,1615,414,1610,366,84996,0
patternWeightCount-86,false,0.94,2972,395,2960,395,148127,0
patternWeightCount-87,true,1.00,5033,462,5023,407,259090,0
patternWeightCount-88,true,1.00,1464,421,1449,378,73050,0
patternWeightCount-89,true,1.00,1174,412,1164,376,58727,0
patternWeightCount-90,true,1.00,4461,473,4455,423,232223,0
patternWeightCount-91,true,1.00,1244,429,1236,384,62127,0
patternWeightCount-92,true,1.00,4085,492,4073,417,229941,0
patternWeightCount-93,true,1.00,3094,436,3085,383,166646,0
patternWeightCount-94,true,1.00,1557,449,1548,412,77354,0
patternWeightCount-95,true,1.00,1558,444,1548,408,79988,0
patternWeightCount-96,true,1.00,1085,434,1071,395,52316,0
patternWeightCount-97,true,1.00,940,366,929,318,49595,0
patternWeightCount-98,true,1.00,4550,464,4545,412,253995,0
patternWeightCount-99,true,1.00,1460,416,1451,369,76765,0
patternWeightCount-100,true,1.00,1246,427,1234,391,63974,0
