NDW:0.0
TTFW:1.4
DFPT:2.0
DFPAP:3.0
DFPMP:7.0
RIGHT_WINDOW_BORDER_X:215.0
level,win/fail,% travelled,run time,game ticks,planning time,total plannings,nodes evaluated,most backtracked nodes
patternWeightCount-1,true,1.00,3232,548,3219,527,191859,0
patternWeightCount-2,true,1.00,591,443,572,421,33159,0
patternWeightCount-3,true,1.00,622,420,609,401,34605,0
patternWeightCount-4,true,1.00,971,420,962,401,55783,0
patternWeightCount-5,true,1.00,1881,499,1870,480,106483,0
patternWeightCount-6,true,1.00,1786,502,1772,482,103008,0
patternWeightCount-7,true,1.00,849,412,839,393,47638,0
patternWeightCount-8,true,1.00,906,436,897,417,44911,0
patternWeightCount-9,true,1.00,1533,505,1515,485,88564,0
patternWeightCount-10,true,1.00,1231,453,1217,434,71237,0
patternWeightCount-11,true,1.00,651,486,640,467,36046,0
patternWeightCount-12,true,1.00,1230,494,1215,475,69991,0
patternWeightCount-13,true,1.00,961,452,955,433,55047,0
patternWeightCount-14,true,1.00,1074,457,1065,435,62346,0
patternWeightCount-15,true,1.00,1266,412,1259,392,74170,0
patternWeightCount-16,true,1.00,2969,503,2960,475,179996,0
patternWeightCount-17,true,1.00,908,512,898,493,49329,0
patternWeightCount-18,true,1.00,854,407,842,388,48288,0
patternWeightCount-19,true,1.00,639,458,623,439,34466,0
patternWeightCount-20,true,1.00,6668,495,6658,465,358933,0
patternWeightCount-21,true,1.00,866,516,851,496,46452,0
patternWeightCount-22,true,1.00,2331,537,2323,503,140964,0
patternWeightCount-23,true,1.00,1124,488,1110,458,66566,0
patternWeightCount-24,true,1.00,1538,420,1533,401,90603,0
patternWeightCount-25,true,1.00,1597,482,1590,463,92979,0
patternWeightCount-26,true,1.00,1395,443,1384,414,82482,0
patternWeightCount-27,true,1.00,2059,507,2043,475,121193,0
patternWeightCount-28,true,1.00,1426,480,1417,461,83844,0
patternWeightCount-29,true,1.00,1125,437,1114,417,64947,0
patternWeightCount-30,true,1.00,4420,533,4415,501,237853,0
patternWeightCount-31,true,1.00,1143,465,1135,446,62909,0
patternWeightCount-32,true,1.00,673,428,664,400,38661,0
patternWeightCount-33,true,1.00,882,499,871,480,50656,0
patternWeightCount-34,true,1.00,1420,429,1411,410,84088,0
patternWeightCount-35,true,1.00,1727,435,1717,416,99459,0
patternWeightCount-36,true,1.00,1879,476,1867,457,111918,0
patternWeightCount-37,true,1.00,706,451,697,432,37711,0
patternWeightCount-38,true,1.00,2587,494,2578,451,136245,0
patternWeightCount-39,true,1.00,973,410,960,389,53509,0
patternWeightCount-40,true,1.00,1403,488,1394,469,81666,0
patternWeightCount-41,true,1.00,1402,492,1388,467,80143,0
patternWeightCount-42,false,0.87,4066,516,4058,516,207347,0
patternWeightCount-43,true,1.00,1030,423,1022,404,58487,0
patternWeightCount-44,true,1.00,1577,472,1562,432,94044,0
patternWeightCount-45,true,1.00,3578,557,3568,521,205301,0
patternWeightCount-46,true,1.00,4407,501,4401,475,235335,0
patternWeightCount-47,true,1.00,879,447,863,428,47117,0
patternWeightCount-48,true,1.00,836,426,826,407,46339,0
patternWeightCount-49,true,1.00,718,440,710,421,39752,0
patternWeightCount-50,true,1.00,1039,460,1031,432,57945,0
patternWeightCount-51,true,1.00,1399,463,1385,430,80986,0
patternWeightCount-52,true,1.00,1660,450,1648,422,96331,0
patternWeightCount-53,true,1.00,2891,493,2874,473,160882,0
patternWeightCount-54,true,1.00,1087,495,1075,476,59430,0
patternWeightCount-55,true,1.00,1334,476,1321,457,75055,0
patternWeightCount-56,true,1.00,1343,470,1331,440,76957,0
patternWeightCount-57,true,1.00,623,424,605,405,34128,0
patternWeightCount-58,true,1.00,2164,472,2146,451,128353,0
patternWeightCount-59,true,1.00,515,399,512,378,27965,0
patternWeightCount-60,true,1.00,1999,528,1983,496,115214,0
patternWeightCount-61,true,1.00,983,424,971,405,56089,0
patternWeightCount-62,true,1.00,2103,473,2086,433,121022,0
patternWeightCount-63,true,1.00,1415,479,1409,460,81781,0
patternWeightCount-64,true,1.00,1783,465,1775,446,104476,0
patternWeightCount-65,true,1.00,1284,479,1271,449,73400,0
patternWeightCount-66,true,1.00,1169,471,1148,451,66270,0
patternWeightCount-67,true,1.00,1153,468,1136,449,58229,0
patternWeightCount-68,false,0.85,20608,999,20591,999,742919,0
patternWeightCount-69,true,1.00,1697,445,1687,413,95860,0
patternWeightCount-70,true,1.00,1179,486,1168,461,66676,0
patternWeightCount-71,true,1.00,819,425,806,392,44984,0
patternWeightCount-72,true,1.00,5725,536,5717,496,297737,0
patternWeightCount-73,true,1.00,6744,580,6729,543,378000,0
patternWeightCount-74,true,1.00,1252,477,1238,458,72922,0
patternWeightCount-75,true,1.00,1319,472,1305,453,77743,0
patternWeightCount-76,true,1.00,1308,471,1294,450,77984,0
patternWeightCount-77,true,1.00,953,441,944,422,56206,0
patternWeightCount-78,true,1.00,2005,505,1994,485,114054,0
patternWeightCount-79,true,1.00,669,391,660,372,37854,0
patternWeightCount-80,true,1.00,1628,551,1619,532,94480,0
patternWeightCount-81,true,1.00,3483,482,3468,463,191678,0
patternWeightCount-82,true,1.00,296,426,284,392,15060,0
patternWeightCount-83,true,1.00,760,404,751,384,43923,0
patternWeightCount-84,true,1.00,902,464,894,445,51140,0
patternWeightCount-85,true,1.00,1799,447,1793,428,105330,0
patternWeightCount-86,false,0.94,3330,458,3326,458,173717,0
patternWeightCount-87,true,1.00,6097,505,6088,471,324251,0
patternWeightCount-88,true,1.00,1684,493,1672,473,97506,0
patternWeightCount-89,true,1.00,1227,464,1216,445,72143,0
patternWeightCount-90,true,1.00,5326,539,5317,518,302693,0
patternWeightCount-91,true,1.00,1318,461,1313,440,78042,0
patternWeightCount-92,true,1.00,3292,506,3284,471,196970,0
patternWeightCount-93,true,1.00,3399,452,3389,424,195136,0
patternWeightCount-94,true,1.00,1760,495,1742,476,102140,0
patternWeightCount-95,true,1.00,1407,470,1397,451,80337,0
patternWeightCount-96,true,1.00,791,455,783,436,42062,0
patternWeightCount-97,true,1.00,1019,378,1011,358,59523,0
patternWeightCount-98,true,1.00,5993,561,5986,505,347362,0
patternWeightCount-99,true,1.00,1648,497,1636,477,101106,0
patternWeightCount-100,true,1.00,1143,436,1135,417,66767,0
