NDW:0.0
TTFW:0.4
DFPT:2.0
DFPAP:3.0
DFPMP:3.0
RIGHT_WINDOW_BORDER_X:275.0
level,win/fail,% travelled,run time,game ticks,planning time,total plannings,nodes evaluated,most backtracked nodes
ge-1,true,1.00,744,221,742,186,58094,0
ge-2,true,1.00,563,211,562,186,44809,0
ge-3,true,1.00,291,201,288,176,24960,0
ge-4,true,1.00,1017,223,1015,198,78594,0
ge-5,true,1.00,180,199,180,174,15461,0
ge-6,true,1.00,1366,263,1365,238,89841,0
ge-7,true,1.00,257,201,256,176,20511,0
ge-8,true,1.00,359,201,358,176,28649,0
ge-9,true,1.00,487,201,487,176,41499,0
ge-10,true,1.00,174,199,173,174,14957,0
ge-11,true,1.00,498,213,495,188,38544,0
ge-12,true,1.00,210,199,208,174,17999,0
ge-13,true,1.00,953,223,953,198,65333,0
ge-14,true,1.00,373,199,373,174,29593,0
ge-15,true,1.00,615,199,615,174,51714,0
ge-16,true,1.00,1192,237,1191,212,75567,0
ge-17,true,1.00,396,206,396,175,32265,0
ge-18,true,1.00,953,237,953,202,63258,0
ge-19,true,1.00,727,223,725,198,58836,0
ge-20,true,1.00,608,215,607,190,46951,0
ge-21,true,1.00,366,201,365,176,29882,0
ge-22,true,1.00,513,210,512,179,40921,0
ge-23,true,1.00,707,205,707,175,57972,0
ge-24,true,1.00,647,204,646,178,49981,0
ge-25,true,1.00,450,201,448,176,39272,0
ge-26,true,1.00,378,201,378,176,32854,0
ge-27,true,1.00,229,203,227,178,18503,0
ge-28,true,1.00,559,199,556,174,46476,0
ge-29,true,1.00,426,204,424,174,35981,0
ge-30,true,1.00,1026,217,1026,192,77662,0
ge-31,true,1.00,930,216,930,191,72971,0
ge-32,true,1.00,522,215,519,190,36528,0
ge-33,true,1.00,265,205,265,175,21009,0
ge-34,true,1.00,622,209,621,184,52534,0
ge-35,true,1.00,937,234,935,208,63590,0
ge-36,true,1.00,715,207,714,178,60377,0
ge-37,true,1.00,386,199,386,174,33968,0
ge-38,true,1.00,827,207,824,182,65340,0
ge-39,true,1.00,808,217,805,191,61570,0
ge-40,true,1.00,206,199,205,174,19252,0
ge-41,true,1.00,361,203,361,178,30197,0
ge-42,true,1.00,1043,236,1041,211,74925,0
ge-43,true,1.00,853,227,853,201,60733,0
ge-44,true,1.00,672,203,671,178,54307,0
ge-45,true,1.00,953,218,951,193,67013,0
ge-46,true,1.00,1159,227,1159,202,84190,0
ge-47,true,1.00,800,207,798,182,65352,0
ge-48,true,1.00,702,215,702,190,50812,0
ge-49,true,1.00,307,199,307,174,27293,0
ge-50,true,1.00,570,199,569,174,46869,0
ge-51,true,1.00,257,210,256,183,20231,0
ge-52,true,1.00,1046,264,1044,239,68923,0
ge-53,true,1.00,410,203,409,178,33721,0
ge-54,true,1.00,577,218,573,193,41661,0
ge-55,true,1.00,861,217,857,192,64324,0
ge-56,true,1.00,424,207,422,177,34921,0
ge-57,true,1.00,601,215,600,190,50557,0
ge-58,true,1.00,547,229,545,204,35884,0
ge-59,true,1.00,783,201,783,176,67334,0
ge-60,true,1.00,664,201,662,176,54116,0
ge-61,true,1.00,386,199,384,174,33469,0
ge-62,true,1.00,666,207,664,182,55756,0
ge-63,true,1.00,862,205,861,180,71232,0
ge-64,true,1.00,398,201,398,176,30979,0
ge-65,true,1.00,792,223,792,198,61642,0
ge-66,true,1.00,775,216,774,179,63364,0
ge-67,true,1.00,505,199,504,174,37991,0
ge-68,true,1.00,267,205,263,180,21766,0
ge-69,true,1.00,287,201,286,176,24800,0
ge-70,true,1.00,436,203,436,178,37495,0
ge-71,true,1.00,867,219,865,194,72738,0
ge-72,true,1.00,686,222,686,197,46545,0
ge-73,true,1.00,530,200,528,175,45993,0
ge-74,true,1.00,769,205,768,180,63439,0
ge-75,true,1.00,588,231,584,196,42483,0
ge-76,true,1.00,790,217,788,192,64734,0
ge-77,true,1.00,998,216,995,191,76583,0
ge-78,true,1.00,1023,215,1020,190,76312,0
ge-79,true,1.00,365,201,365,176,28821,0
ge-80,true,1.00,730,226,728,187,46516,0
ge-81,true,1.00,264,199,263,174,21367,0
ge-82,true,1.00,717,241,715,202,45859,0
ge-83,false,1.00,694,238,692,205,47465,0
ge-84,true,1.00,729,203,729,178,62959,0
ge-85,true,1.00,444,199,441,174,37352,0
ge-86,true,1.00,835,209,835,184,69473,0
ge-87,true,1.00,762,209,761,184,60643,0
ge-88,true,1.00,795,232,794,201,61418,0
ge-89,true,1.00,937,241,936,215,60257,0
ge-90,true,1.00,194,199,193,174,17612,0
ge-91,true,1.00,406,199,405,174,35936,0
ge-92,true,1.00,199,199,198,174,17271,0
ge-93,true,1.00,608,201,606,176,52096,0
ge-94,true,1.00,517,199,517,174,41814,0
ge-95,true,1.00,994,238,992,211,63694,0
ge-96,true,1.00,815,229,812,197,64630,0
ge-97,true,1.00,1011,233,1009,208,73256,0
ge-98,true,1.00,191,199,191,174,17461,0
ge-99,true,1.00,315,199,313,174,27356,0
ge-100,true,1.00,224,199,223,174,20042,0
