NDW:0.0
TTFW:1.4
DFPT:2.0
DFPAP:3.0
DFPMP:0.0
RIGHT_WINDOW_BORDER_X:55.0
level,win/fail,% travelled,run time,game ticks,planning time,total plannings,nodes evaluated,most backtracked nodes
notchParam-1,false,0.36,2271,300,2267,300,121765,0
notchParam-2,false,0.36,3451,355,3448,355,202547,0
notchParam-3,true,1.00,4887,764,4871,758,271280,0
notchParam-4,true,1.00,3914,700,3899,694,207444,0
notchParam-5,false,0.83,3561,578,3552,578,191514,0
notchParam-6,false,0.83,7275,756,7264,756,394471,0
notchParam-7,false,0.36,3854,325,3851,325,225357,0
notchParam-8,false,0.18,1095,166,1088,166,49145,0
notchParam-9,false,0.44,2339,361,2329,361,105243,0
notchParam-10,false,0.18,1221,176,1218,176,67216,0
notchParam-11,true,1.00,3914,730,3909,723,215766,0
notchParam-12,false,0.18,2990,249,2985,249,167786,0
notchParam-13,true,1.00,905,482,895,475,52716,0
notchParam-14,false,0.68,1911,459,1904,459,109527,0
notchParam-15,false,0.36,1214,262,1212,262,67569,0
notchParam-16,false,0.36,2865,309,2863,309,174466,0
notchParam-17,false,0.37,1419,278,1412,278,80772,0
notchParam-18,true,1.00,1857,576,1845,570,110023,0
notchParam-19,true,1.00,1606,605,1592,598,94843,0
notchParam-20,true,1.00,1821,529,1814,524,101309,0
notchParam-21,true,1.00,1903,644,1881,637,101641,0
notchParam-22,false,0.68,3344,448,3337,448,193978,0
notchParam-23,false,0.44,4707,392,4693,392,227532,0
notchParam-24,false,0.18,1817,172,1816,172,108696,0
notchParam-25,false,0.31,4276,342,4271,342,221835,0
notchParam-26,false,0.44,3113,338,3107,338,170641,0
notchParam-27,true,1.00,3097,669,3090,662,170673,0
notchParam-28,true,1.00,4572,774,4565,768,247046,0
notchParam-29,false,0.83,6232,667,6222,667,341079,0
notchParam-30,true,1.00,1961,649,1943,643,105840,0
notchParam-31,false,0.36,1865,294,1859,294,99782,0
notchParam-32,false,0.37,1426,278,1419,278,76483,0
notchParam-33,true,1.00,1054,609,1038,602,58124,0
notchParam-34,false,0.36,2702,289,2696,289,143059,0
notchParam-35,false,0.36,2732,277,2725,277,152972,0
notchParam-36,false,0.37,1425,278,1422,278,76677,0
notchParam-37,true,1.00,1885,621,1867,614,97924,0
notchParam-38,false,0.37,2111,268,2104,268,122322,0
notchParam-39,false,0.36,4480,329,4477,329,256470,0
notchParam-40,false,0.70,3590,575,3576,575,192886,0
notchParam-41,true,1.00,4535,696,4522,689,243770,0
notchParam-42,true,1.00,1907,632,1893,625,110100,0
notchParam-43,false,0.31,4710,337,4708,337,242260,0
notchParam-44,false,0.19,996,173,996,173,54274,0
notchParam-45,false,0.18,2478,202,2477,202,134532,0
notchParam-46,false,0.44,6255,433,6245,433,334212,0
notchParam-47,false,0.67,1715,469,1707,469,100737,0
notchParam-48,true,1.00,1484,564,1470,557,90753,0
notchParam-49,true,1.00,1563,612,1551,605,89849,0
notchParam-50,true,1.00,872,556,856,550,46992,0
notchParam-51,true,1.00,972,606,960,596,55916,0
notchParam-52,false,0.36,4477,329,4472,329,276025,0
notchParam-53,false,0.36,1820,300,1815,300,107439,0
notchParam-54,false,0.36,877,233,873,233,51562,0
notchParam-55,true,1.00,1552,601,1537,593,94594,0
notchParam-56,true,1.00,1670,621,1644,614,70812,0
notchParam-57,false,0.44,1666,328,1662,328,76436,0
notchParam-58,true,1.00,5681,800,5669,794,312692,0
notchParam-59,false,0.18,2790,212,2786,212,159874,0
notchParam-60,true,1.00,5804,828,5791,821,313159,0
notchParam-61,false,0.18,2404,210,2398,210,116696,0
notchParam-62,false,0.36,2258,256,2249,256,114158,0
notchParam-63,true,1.00,3648,708,3639,701,203011,0
notchParam-64,false,0.70,2529,487,2516,487,139713,0
notchParam-65,true,1.00,3904,761,3890,755,194649,0
notchParam-66,true,1.00,7118,793,7103,786,392594,0
notchParam-67,false,0.36,5403,363,5397,363,296247,0
notchParam-68,false,0.36,4143,347,4132,347,187755,0
notchParam-69,false,0.36,852,233,849,233,45312,0
notchParam-70,false,0.36,2728,277,2724,277,158733,0
notchParam-71,true,1.00,5061,760,5049,748,245811,0
notchParam-72,true,1.00,5606,768,5590,753,294215,0
notchParam-73,true,1.00,4196,755,4187,748,234447,0
notchParam-74,false,0.57,4337,514,4322,514,221517,0
notchParam-75,true,1.00,6296,765,6287,760,328811,0
notchParam-76,false,0.31,3085,352,3079,352,180346,0
notchParam-77,false,0.70,5349,570,5338,570,316017,0
notchParam-78,false,0.19,1561,226,1556,226,85502,0
notchParam-79,false,0.32,3209,286,3206,286,146801,0
notchParam-80,true,1.00,1553,547,1533,540,73304,0
notchParam-81,true,1.00,6309,764,6289,757,268430,0
notchParam-82,false,0.67,859,361,853,361,49385,0
notchParam-83,true,1.00,1335,518,1319,513,79910,0
notchParam-84,false,0.36,1374,248,1369,248,77764,0
notchParam-85,false,0.36,3131,267,3123,267,153200,0
notchParam-86,false,0.17,29812,999,29807,999,1426907,0
notchParam-87,true,1.00,919,528,892,522,43977,0
notchParam-88,true,1.00,1901,597,1882,590,72156,0
notchParam-89,true,1.00,1348,601,1324,595,51962,0
notchParam-90,false,0.37,715,245,710,245,34338,0
notchParam-91,false,0.44,10630,633,10617,633,540637,0
notchParam-92,false,0.31,3457,302,3451,302,184712,0
notchParam-93,false,0.19,1757,188,1754,188,97021,0
notchParam-94,false,0.31,2138,302,2134,302,120393,0
notchParam-95,false,0.19,2090,176,2087,176,118821,0
notchParam-96,true,1.00,6651,927,6619,920,334990,0
notchParam-97,true,1.00,3555,605,3536,598,161578,0
notchParam-98,true,1.00,2153,580,2144,575,121957,0
notchParam-99,false,0.36,4162,337,4159,337,231078,0
notchParam-100,false,0.36,1416,276,1408,276,77159,0
