NDW:0.0
TTFW:1.0
DFPT:2.0
DFPAP:3.0
DFPMP:20.0
RIGHT_WINDOW_BORDER_X:176.0
level,win/fail,% travelled,run time,game ticks,planning time,total plannings,nodes evaluated,most backtracked nodes
patternWeightCount-1,true,1.00,3171,463,3152,445,129783,0
patternWeightCount-2,true,1.00,675,417,659,394,32880,0
patternWeightCount-3,true,1.00,738,396,725,380,35186,0
patternWeightCount-4,true,1.00,859,388,851,372,41231,0
patternWeightCount-5,true,1.00,1893,463,1879,447,90380,0
patternWeightCount-6,true,1.00,2214,452,2201,436,108754,0
patternWeightCount-7,true,1.00,1117,438,1103,422,54095,0
patternWeightCount-8,true,1.00,1042,416,1032,400,42514,0
patternWeightCount-9,true,1.00,1169,457,1153,441,57332,0
patternWeightCount-10,true,1.00,846,454,840,438,39585,0
patternWeightCount-11,true,1.00,675,431,665,415,31596,0
patternWeightCount-12,true,1.00,1354,470,1344,454,63854,0
patternWeightCount-13,true,1.00,1089,396,1079,380,51900,0
patternWeightCount-14,true,1.00,907,431,895,414,42146,0
patternWeightCount-15,true,1.00,1440,392,1431,376,68373,0
patternWeightCount-16,true,1.00,2859,469,2845,449,140289,0
patternWeightCount-17,true,1.00,908,448,892,432,40961,0
patternWeightCount-18,true,1.00,878,414,866,398,40461,0
patternWeightCount-19,true,1.00,670,427,662,411,29667,0
patternWeightCount-20,false,0.61,4485,379,4474,379,201462,0
patternWeightCount-21,true,1.00,695,474,684,458,30423,0
patternWeightCount-22,true,1.00,2944,504,2932,480,145095,0
patternWeightCount-23,true,1.00,1206,467,1197,432,57192,0
patternWeightCount-24,true,1.00,1313,425,1304,409,62680,0
patternWeightCount-25,true,1.00,1921,422,1902,406,59731,0
patternWeightCount-26,true,1.00,1673,456,1659,440,72737,0
patternWeightCount-27,true,1.00,2015,466,2001,437,105056,0
patternWeightCount-28,true,1.00,1355,445,1344,429,68330,0
patternWeightCount-29,true,1.00,1441,421,1420,405,61663,0
patternWeightCount-30,true,1.00,4021,489,4005,452,160627,0
patternWeightCount-31,true,1.00,952,430,939,414,45303,0
patternWeightCount-32,true,1.00,737,415,726,399,33514,0
patternWeightCount-33,true,1.00,959,427,936,411,46284,0
patternWeightCount-34,true,1.00,1830,429,1821,413,90606,0
patternWeightCount-35,true,1.00,2130,496,2111,480,92575,0
patternWeightCount-36,true,1.00,1616,461,1605,445,76948,0
patternWeightCount-37,true,1.00,867,412,860,396,39788,0
patternWeightCount-38,false,0.94,3464,452,3459,452,152565,0
patternWeightCount-39,true,1.00,1031,416,1019,399,47704,0
patternWeightCount-40,true,1.00,1125,451,1110,435,52897,0
patternWeightCount-41,true,1.00,1616,474,1600,456,76377,0
patternWeightCount-42,false,0.87,5339,449,5329,449,226055,0
patternWeightCount-43,true,1.00,1416,392,1394,376,37386,0
patternWeightCount-44,true,1.00,1871,473,1855,448,88404,0
patternWeightCount-45,true,1.00,3349,530,3343,489,160629,0
patternWeightCount-46,false,0.85,2672,427,2654,427,97480,0
patternWeightCount-47,true,1.00,1092,450,1071,434,29494,0
patternWeightCount-48,true,1.00,779,399,762,383,35472,0
patternWeightCount-49,true,1.00,1409,390,1395,374,69355,0
patternWeightCount-50,true,1.00,868,427,854,412,42485,0
patternWeightCount-51,true,1.00,1164,411,1153,384,59645,0
patternWeightCount-52,true,1.00,1832,463,1819,438,93019,0
patternWeightCount-53,true,1.00,4226,530,4213,510,191588,0
patternWeightCount-54,true,1.00,810,407,801,391,36208,0
patternWeightCount-55,true,1.00,1151,435,1140,415,52854,0
patternWeightCount-56,true,1.00,1161,438,1146,414,51880,0
patternWeightCount-57,true,1.00,648,395,631,379,28381,0
patternWeightCount-58,true,1.00,1690,428,1667,412,59508,0
patternWeightCount-59,true,1.00,863,396,837,380,22286,0
patternWeightCount-60,true,1.00,1550,508,1533,483,69108,0
patternWeightCount-61,true,1.00,1131,409,1118,393,53333,0
patternWeightCount-62,true,1.00,2061,475,2053,445,96706,0
patternWeightCount-63,true,1.00,1226,454,1219,438,55715,0
patternWeightCount-64,true,1.00,1496,431,1480,415,66843,0
patternWeightCount-65,true,1.00,1702,471,1675,455,43845,0
patternWeightCount-66,true,1.00,1263,426,1248,410,46708,0
patternWeightCount-67,true,1.00,1109,447,1102,431,51842,0
patternWeightCount-68,false,0.85,21029,999,21020,999,665141,0
patternWeightCount-69,true,1.00,2291,429,2280,401,116284,0
patternWeightCount-70,true,1.00,1215,477,1199,459,63232,0
patternWeightCount-71,true,1.00,832,371,823,354,43322,0
patternWeightCount-72,true,1.00,5512,536,5503,504,263467,0
patternWeightCount-73,true,1.00,6992,550,6983,510,351315,0
patternWeightCount-74,true,1.00,853,392,842,376,44323,0
patternWeightCount-75,true,1.00,1090,407,1076,391,56736,0
patternWeightCount-76,true,1.00,1247,480,1237,464,66766,0
patternWeightCount-77,true,1.00,1159,419,1144,403,61119,0
patternWeightCount-78,true,1.00,2525,480,2517,464,124724,0
patternWeightCount-79,true,1.00,767,407,757,391,40150,0
patternWeightCount-80,true,1.00,1505,454,1490,438,80591,0
patternWeightCount-81,false,0.94,5733,500,5717,500,275305,0
patternWeightCount-82,true,1.00,397,399,384,382,19010,0
patternWeightCount-83,true,1.00,856,389,848,373,43657,0
patternWeightCount-84,true,1.00,773,418,764,402,37680,0
patternWeightCount-85,true,1.00,1309,442,1300,415,66103,0
patternWeightCount-86,false,0.94,4863,503,4856,503,231601,0
patternWeightCount-87,true,1.00,4680,483,4672,455,218458,0
patternWeightCount-88,true,1.00,1999,434,1986,414,94596,0
patternWeightCount-89,true,1.00,878,398,867,382,41182,0
patternWeightCount-90,true,1.00,4697,514,4688,486,226943,0
patternWeightCount-91,true,1.00,925,397,916,381,45932,0
patternWeightCount-92,true,1.00,4381,495,4369,475,218433,0
patternWeightCount-93,true,1.00,4730,508,4718,491,227636,0
patternWeightCount-94,true,1.00,1576,457,1557,441,71117,0
patternWeightCount-95,true,1.00,1406,404,1387,388,63717,0
patternWeightCount-96,true,1.00,1388,472,1377,456,63929,0
patternWeightCount-97,true,1.00,974,363,966,347,44990,0
patternWeightCount-98,true,1.00,5193,510,5182,493,238499,0
patternWeightCount-99,true,1.00,1381,439,1366,423,62858,0
patternWeightCount-100,true,1.00,918,415,902,399,39204,0
