NDW:0.0
TTFW:2.0
DFPT:2.0
DFPAP:3.0
DFPMP:10.0
RIGHT_WINDOW_BORDER_X:255.0
level,win/fail,% travelled,run time,game ticks,planning time,total plannings,nodes evaluated,most backtracked nodes
ge-1,true,1.00,570,257,565,217,32653,0
ge-2,true,1.00,416,231,412,208,23367,0
ge-3,true,1.00,231,228,225,205,11482,0
ge-4,true,1.00,1000,245,996,222,58205,0
ge-5,true,1.00,67,199,62,176,2367,0
ge-6,true,1.00,417,260,409,226,22654,0
ge-7,true,1.00,181,228,178,204,8969,0
ge-8,true,1.00,267,233,262,210,14442,0
ge-9,true,1.00,688,220,681,196,39699,0
ge-10,true,1.00,65,199,60,176,2251,0
ge-11,true,1.00,188,215,183,192,9744,0
ge-12,true,1.00,64,199,60,176,2194,0
ge-13,true,1.00,415,279,408,251,22616,0
ge-14,true,1.00,209,238,200,199,10624,0
ge-15,true,1.00,572,220,568,197,32305,0
ge-16,true,1.00,196,255,184,232,8537,0
ge-17,true,1.00,296,225,292,192,16297,0
ge-18,true,1.00,269,271,258,248,12941,0
ge-19,true,1.00,599,263,590,240,34046,0
ge-20,true,1.00,411,233,406,210,22304,0
ge-21,true,1.00,214,203,212,180,10990,0
ge-22,true,1.00,344,206,341,180,18801,0
ge-23,true,1.00,583,208,576,181,33181,0
ge-24,true,1.00,488,233,483,203,27668,0
ge-25,true,1.00,353,203,345,180,19851,0
ge-26,true,1.00,234,207,231,184,12728,0
ge-27,true,1.00,96,226,89,203,3821,0
ge-28,true,1.00,493,203,487,180,27804,0
ge-29,true,1.00,229,220,222,176,11994,0
ge-30,true,1.00,574,250,568,209,32875,0
ge-31,true,1.00,644,226,637,202,36538,0
ge-32,true,1.00,183,222,179,199,8466,0
ge-33,true,1.00,163,233,159,193,7496,0
ge-34,true,1.00,608,212,604,186,35597,0
ge-35,true,1.00,415,266,407,242,21768,0
ge-36,false,1.00,656,254,653,222,36606,0
ge-37,true,1.00,233,204,229,175,12727,0
ge-38,true,1.00,607,245,601,222,33397,0
ge-39,true,1.00,321,228,317,204,17408,0
ge-40,true,1.00,76,199,68,176,2276,0
ge-41,true,1.00,238,210,232,184,13071,0
ge-42,true,1.00,663,244,660,221,37220,0
ge-43,true,1.00,353,231,348,204,19012,0
ge-44,true,1.00,546,246,539,206,31036,0
ge-45,true,1.00,441,224,435,201,23668,0
ge-46,true,1.00,1003,242,996,219,58783,0
ge-47,true,1.00,804,228,798,205,46409,0
ge-48,true,1.00,448,253,443,230,22200,0
ge-49,true,1.00,166,204,163,175,8718,0
ge-50,true,1.00,539,212,536,189,29993,0
ge-51,true,1.00,159,235,154,211,7359,0
ge-52,true,1.00,600,282,592,259,31220,0
ge-53,true,1.00,260,217,258,194,14302,0
ge-54,true,1.00,408,252,400,227,22599,0
ge-55,true,1.00,355,234,352,205,19164,0
ge-56,true,1.00,403,244,400,206,21918,0
ge-57,true,1.00,528,217,527,189,30891,0
ge-58,true,1.00,264,278,257,253,13055,0
ge-59,true,1.00,773,218,768,195,45474,0
ge-60,true,1.00,505,203,500,180,28875,0
ge-61,true,1.00,273,203,270,180,14996,0
ge-62,true,1.00,598,213,594,190,34954,0
ge-63,true,1.00,756,219,752,196,43798,0
ge-64,false,1.00,285,240,279,205,14246,0
ge-65,true,1.00,591,234,588,211,32885,0
ge-66,true,1.00,611,228,607,185,35655,0
ge-67,true,1.00,269,239,260,216,13266,0
ge-68,true,1.00,201,227,193,204,9599,0
ge-69,true,1.00,187,199,182,176,9780,0
ge-70,true,1.00,381,218,378,194,21230,0
ge-71,true,1.00,1799,258,1794,235,107337,0
ge-72,true,1.00,248,263,242,235,12144,0
ge-73,true,1.00,370,225,367,185,20782,0
ge-74,true,1.00,832,255,827,232,46556,0
ge-75,true,1.00,272,254,267,210,14869,0
ge-76,true,1.00,820,217,815,194,47676,0
ge-77,true,1.00,982,234,973,211,57845,0
ge-78,true,1.00,631,247,624,224,35743,0
ge-79,true,1.00,197,222,193,199,10038,0
ge-80,true,1.00,89,214,85,177,3056,0
ge-81,true,1.00,105,216,99,193,4171,0
ge-82,true,1.00,110,244,102,196,4230,0
ge-83,false,1.00,225,251,214,213,11130,0
ge-84,true,1.00,721,209,716,186,42613,0
ge-85,true,1.00,297,209,293,186,16362,0
ge-86,true,1.00,759,208,757,180,44581,0
ge-87,true,1.00,547,233,542,210,31799,0
ge-88,true,1.00,509,251,499,213,28931,0
ge-89,true,1.00,434,262,427,238,22755,0
ge-90,true,1.00,65,199,59,176,2376,0
ge-91,true,1.00,263,199,259,176,14618,0
ge-92,true,1.00,70,205,63,182,2492,0
ge-93,true,1.00,617,213,613,190,36351,0
ge-94,true,1.00,425,208,419,183,24040,0
ge-95,true,1.00,169,258,159,233,7388,0
ge-96,true,1.00,584,243,579,203,33088,0
ge-97,true,1.00,392,217,382,194,21199,0
ge-98,true,1.00,61,199,58,176,2185,0
ge-99,true,1.00,159,199,154,176,8103,0
ge-100,true,1.00,248,205,243,182,12853,0
