NDW:0.0
TTFW:1.2
DFPT:2.0
DFPAP:3.0
DFPMP:10.0
RIGHT_WINDOW_BORDER_X:55.0
level,win/fail,% travelled,run time,game ticks,planning time,total plannings,nodes evaluated,most backtracked nodes
ore-1,false,0.83,7258,988,7254,988,858444,0
ore-2,false,0.27,2155,387,2153,387,257892,0
ore-3,true,1.00,6243,934,6236,929,681495,0
ore-4,false,0.14,56,146,55,146,10754,0
ore-5,false,0.88,9074,999,9072,999,1051208,0
ore-6,false,0.84,7246,966,7243,966,776751,0
ore-7,false,0.75,7686,846,7685,846,832397,0
ore-8,false,0.13,4369,230,4368,230,420005,0
ore-9,true,1.00,6957,918,6956,911,743190,0
ore-10,false,0.67,2636,599,2635,599,317290,0
ore-11,false,0.16,569,112,569,112,59198,0
ore-12,false,0.28,2596,327,2591,327,293618,0
ore-13,false,0.93,6019,999,6016,999,719287,0
ore-14,false,0.50,2184,513,2183,513,254357,0
ore-15,true,1.00,8017,955,8008,948,945010,0
ore-16,false,0.65,1513,506,1508,506,180524,0
ore-17,true,1.00,7992,976,7984,970,940850,0
ore-18,false,0.61,4736,608,4731,608,552611,0
ore-19,false,0.90,6394,999,6388,999,722235,0
ore-20,false,0.84,6979,999,6976,999,820064,0
ore-21,false,0.94,8248,999,8244,999,1036603,0
ore-22,false,0.15,1230,154,1230,154,131404,0
ore-23,false,0.76,5887,757,5885,757,665046,0
ore-24,false,0.96,6388,876,6388,876,712268,0
ore-25,false,0.35,5082,435,5080,435,638675,0
ore-26,false,0.95,7243,999,7241,999,814427,0
ore-27,false,0.08,536,87,536,87,65370,0
ore-28,false,0.18,1922,282,1918,282,224625,0
ore-29,false,0.46,1922,479,1920,479,203427,0
ore-30,true,1.00,6055,903,6049,896,634957,0
ore-31,false,0.83,8544,999,8537,999,1024180,0
ore-32,false,0.55,3667,453,3666,453,413210,0
ore-33,false,0.84,9387,999,9386,999,1141377,0
ore-34,false,0.81,5595,833,5588,833,625556,0
ore-35,false,0.93,8662,999,8659,999,1004327,0
ore-36,false,0.42,3702,541,3701,541,438710,0
ore-37,false,0.33,21962,999,21958,999,2078838,0
ore-38,false,0.96,6186,999,6184,999,752158,0
ore-39,false,0.37,2547,337,2547,337,317454,0
ore-40,false,0.94,6498,999,6492,999,782283,0
ore-41,false,0.09,1055,139,1055,139,123971,0
ore-42,false,0.34,3690,392,3690,392,443074,0
ore-43,false,0.98,8087,999,8081,999,910484,0
ore-44,false,0.44,3243,458,3242,458,408201,0
ore-45,false,0.32,1367,247,1367,247,156522,0
ore-46,false,0.35,2885,366,2885,366,344805,0
ore-47,false,0.87,7099,999,7093,999,863844,0
ore-48,false,0.96,6713,976,6710,976,790131,0
ore-49,false,0.26,2750,313,2750,313,314795,0
ore-50,false,0.98,7797,951,7795,951,852724,0
ore-51,false,0.42,3059,436,3058,436,355586,0
ore-52,false,0.38,4383,467,4380,467,533965,0
ore-53,false,0.14,2939,239,2937,239,332447,0
ore-54,false,0.95,7908,990,7902,990,997761,0
ore-55,false,0.94,9409,999,9407,999,1138237,0
ore-56,false,0.84,5910,832,5908,832,669232,0
ore-57,false,0.16,838,176,838,176,106161,0
ore-58,false,0.52,4805,630,4803,630,549356,0
ore-59,false,0.68,9417,996,9407,996,1172150,0
ore-60,false,0.03,302,119,302,119,37986,0
ore-61,false,0.22,854,246,852,246,102495,0
ore-62,false,0.29,1667,295,1666,295,173537,0
ore-63,false,0.19,2254,284,2252,284,261045,0
ore-64,false,0.84,5510,790,5504,790,612982,0
ore-65,false,0.25,1372,233,1372,233,145295,0
ore-66,false,0.99,6106,999,6098,999,748280,0
ore-67,false,0.29,942,290,942,290,121350,0
ore-68,false,0.68,7188,814,7181,814,826537,0
ore-69,false,0.96,8041,999,8037,999,971755,0
ore-70,false,0.15,1542,177,1542,177,174880,0
ore-71,false,0.66,8568,779,8566,779,981506,0
ore-72,false,0.05,303,51,302,51,38267,0
ore-73,true,1.00,6847,977,6841,970,833991,0
ore-74,false,0.56,3324,623,3322,623,392670,0
ore-75,false,0.90,9120,999,9113,999,1043343,0
ore-76,false,0.26,488,207,488,207,58258,0
ore-77,false,0.21,1734,239,1733,239,199973,0
ore-78,false,0.93,9640,999,9637,999,1160187,0
ore-79,false,0.92,8873,999,8866,999,1022543,0
ore-80,false,0.08,223,108,222,108,28025,0
ore-81,false,0.11,1349,117,1348,117,156183,0
ore-82,false,0.97,7017,999,7009,999,826742,0
ore-83,false,0.32,5205,486,5203,486,627255,0
ore-84,false,0.59,7587,898,7583,898,926486,0
ore-85,false,0.94,8416,999,8411,999,893572,0
ore-86,false,0.54,2508,520,2501,520,291503,0
ore-87,false,0.44,3044,424,3042,424,340338,0
ore-88,false,0.63,5497,775,5493,775,642603,0
ore-89,true,1.00,8942,958,8938,950,1061624,0
ore-90,false,0.16,2118,227,2118,227,279666,0
ore-91,false,0.33,2623,340,2622,340,293966,0
ore-92,false,0.95,8576,917,8570,917,966499,0
ore-93,false,0.45,4821,610,4818,610,537300,0
ore-94,true,1.00,7352,898,7348,891,870899,0
ore-95,false,0.65,7863,914,7861,914,937687,0
ore-96,false,0.28,1183,289,1180,289,128368,0
ore-97,false,0.47,1863,999,1861,999,207763,0
ore-98,false,0.18,2169,227,2169,227,248001,0
ore-99,false,0.57,5002,999,4998,999,592917,0
ore-100,true,1.00,5606,910,5601,903,677941,0
