NDW:0.0
TTFW:1.4
DFPT:2.0
DFPAP:3.0
DFPMP:10.0
RIGHT_WINDOW_BORDER_X:400.0
level,win/fail,% travelled,run time,game ticks,planning time,total plannings,nodes evaluated,most backtracked nodes
notch-1,true,1.00,931,287,925,248,54190,0
notch-2,true,1.00,1103,281,1099,244,66473,0
notch-3,true,1.00,1022,251,1021,215,60551,0
notch-4,true,1.00,858,263,854,218,50835,0
notch-5,true,1.00,784,258,778,215,46149,0
notch-6,true,1.00,889,287,882,244,52115,0
notch-7,true,1.00,583,276,573,235,32948,0
notch-8,true,1.00,763,287,756,237,43253,0
notch-9,true,1.00,1581,266,1576,230,95961,0
notch-10,true,1.00,959,273,953,235,56641,0
notch-11,true,1.00,1096,256,1092,217,65082,0
notch-12,true,1.00,798,260,793,223,45323,0
notch-13,true,1.00,836,270,829,234,48306,0
notch-14,true,1.00,861,266,857,215,50640,0
notch-15,true,1.00,1031,263,1028,226,60003,0
notch-16,true,1.00,1333,290,1329,240,77090,0
notch-17,true,1.00,963,276,957,233,56825,0
notch-18,true,1.00,1388,317,1379,270,82338,0
notch-19,true,1.00,987,245,982,201,59498,0
notch-20,true,1.00,1159,294,1155,258,69338,0
notch-21,true,1.00,1013,309,1004,271,60612,0
notch-22,true,1.00,695,241,689,202,39811,0
notch-23,true,1.00,1067,252,1063,215,63972,0
notch-24,true,1.00,744,267,738,231,43224,0
notch-25,true,1.00,1199,302,1192,260,72230,0
notch-26,true,1.00,994,276,991,227,58497,0
notch-27,true,1.00,1399,290,1395,245,84284,0
notch-28,true,1.00,788,256,785,205,47139,0
notch-29,true,1.00,1044,284,1039,241,60760,0
notch-30,true,1.00,924,254,918,201,53713,0
notch-31,true,1.00,852,279,845,233,48875,0
notch-32,true,1.00,834,275,827,228,48351,0
notch-33,true,1.00,738,256,732,212,42369,0
notch-34,true,1.00,773,257,769,221,45986,0
notch-35,true,1.00,788,282,784,244,46565,0
notch-36,true,1.00,1101,288,1095,239,63827,0
notch-37,true,1.00,1091,269,1086,227,65532,0
notch-38,true,1.00,908,309,904,234,52597,0
notch-39,true,1.00,740,228,733,192,43427,0
notch-40,true,1.00,843,273,839,218,50124,0
notch-41,true,1.00,1199,311,1193,268,69942,0
notch-42,true,1.00,700,276,696,229,40081,0
notch-43,true,1.00,755,254,751,215,43735,0
notch-44,true,1.00,656,247,652,199,37821,0
notch-45,true,1.00,680,244,676,208,40339,0
notch-46,true,1.00,926,255,921,219,54451,0
notch-47,true,1.00,960,277,954,238,56245,0
notch-48,true,1.00,1289,265,1284,220,77319,0
notch-49,true,1.00,823,279,815,228,47170,0
notch-50,true,1.00,1015,304,1007,250,58497,0
notch-51,true,1.00,753,245,749,209,44552,0
notch-52,true,1.00,864,274,857,233,49810,0
notch-53,true,1.00,387,269,385,204,20513,0
notch-54,true,1.00,1001,304,993,259,58386,0
notch-55,true,1.00,1081,286,1077,247,63431,0
notch-56,true,1.00,807,269,802,230,45834,0
notch-57,true,1.00,904,291,897,241,52034,0
notch-58,true,1.00,1484,318,1480,276,84898,0
notch-59,true,1.00,901,286,893,244,50614,0
notch-60,true,1.00,973,285,965,249,57380,0
notch-61,true,1.00,793,247,788,211,46129,0
notch-62,true,1.00,714,282,706,246,39017,0
notch-63,true,1.00,949,297,940,261,54916,0
notch-64,true,1.00,877,250,871,214,51830,0
notch-65,true,1.00,1458,343,1451,280,86978,0
notch-66,true,1.00,1672,305,1661,250,99951,0
notch-67,true,1.00,829,247,821,205,48391,0
notch-68,true,1.00,511,250,505,214,28582,0
notch-69,true,1.00,1408,301,1401,264,82142,0
notch-70,true,1.00,1170,300,1166,253,69174,0
notch-71,true,1.00,1188,257,1181,221,70132,0
notch-72,true,1.00,829,245,823,209,49161,0
notch-73,true,1.00,761,277,759,229,43604,0
notch-74,true,1.00,637,246,629,202,36935,0
notch-75,true,1.00,1385,303,1374,260,80849,0
notch-76,true,1.00,861,274,854,232,49529,0
notch-77,true,1.00,846,276,840,228,47674,0
notch-78,true,1.00,996,277,991,230,57695,0
notch-79,true,1.00,991,292,985,235,57266,0
notch-80,true,1.00,558,230,553,194,30819,0
notch-81,true,1.00,1161,259,1156,212,66423,0
notch-82,true,1.00,750,274,746,235,41077,0
notch-83,true,1.00,938,278,934,235,53005,0
notch-84,true,1.00,594,259,587,216,31964,0
notch-85,true,1.00,688,288,682,231,38258,0
notch-86,true,1.00,845,245,838,208,48138,0
notch-87,true,1.00,732,243,729,205,40065,0
notch-88,true,1.00,1625,288,1618,245,89899,0
notch-89,true,1.00,1586,308,1574,254,57089,0
notch-90,true,1.00,1225,272,1216,236,65796,0
notch-91,true,1.00,1636,296,1625,246,49590,0
notch-92,true,1.00,1573,281,1568,245,87026,0
notch-93,true,1.00,871,274,869,224,49541,0
notch-94,true,1.00,1207,278,1200,224,70739,0
notch-95,true,1.00,649,255,644,213,35314,0
notch-96,true,1.00,655,271,652,226,38490,0
notch-97,true,1.00,818,295,810,251,46991,0
notch-98,true,1.00,974,263,966,203,57353,0
notch-99,true,1.00,1804,306,1794,257,110827,0
notch-100,true,1.00,773,262,766,226,44795,0
