NDW:0.0
TTFW:1.6
DFPT:2.0
DFPAP:3.0
DFPMP:50.0
RIGHT_WINDOW_BORDER_X:195.0
level,win/fail,% travelled,run time,game ticks,planning time,total plannings,nodes evaluated,most backtracked nodes
ge-1,true,1.00,424,253,423,222,48613,0
ge-2,true,1.00,336,229,336,212,40297,0
ge-3,true,1.00,161,240,156,218,16072,0
ge-4,true,1.00,1003,262,1003,243,117716,0
ge-5,true,1.00,24,199,24,182,1897,0
ge-6,true,1.00,294,248,294,224,33399,0
ge-7,true,1.00,73,228,70,210,7406,0
ge-8,true,1.00,173,227,172,210,19388,0
ge-9,true,1.00,418,228,416,210,51003,0
ge-10,true,1.00,24,199,23,182,1846,0
ge-11,true,1.00,131,215,128,198,14001,0
ge-12,true,1.00,23,199,21,182,1688,0
ge-13,true,1.00,281,248,279,229,31634,0
ge-14,true,1.00,135,236,134,199,14156,0
ge-15,true,1.00,477,223,477,206,51501,0
ge-16,true,1.00,314,268,312,251,36352,0
ge-17,true,1.00,229,209,227,192,27557,0
ge-18,true,1.00,405,284,402,266,48254,0
ge-19,true,1.00,521,279,521,251,63340,0
ge-20,true,1.00,279,229,277,212,32764,0
ge-21,true,1.00,222,201,222,184,23042,0
ge-22,true,1.00,293,206,292,187,32224,0
ge-23,true,1.00,490,209,489,189,56593,0
ge-24,true,1.00,339,241,337,218,37686,0
ge-25,true,1.00,287,201,284,184,31750,0
ge-26,true,1.00,158,207,157,190,18526,0
ge-27,true,1.00,32,218,32,201,3012,0
ge-28,true,1.00,520,209,520,192,56214,0
ge-29,true,1.00,192,224,190,183,21170,0
ge-30,true,1.00,715,254,714,216,82369,0
ge-31,true,1.00,517,222,515,204,59500,0
ge-32,true,1.00,116,231,115,214,12406,0
ge-33,true,1.00,67,228,63,197,6663,0
ge-34,true,1.00,706,218,705,198,82346,0
ge-35,true,1.00,364,265,358,247,41648,0
ge-36,false,1.00,531,248,530,222,61253,0
ge-37,true,1.00,220,200,219,182,26483,0
ge-38,true,1.00,642,238,642,221,80764,0
ge-39,true,1.00,211,226,209,208,24586,0
ge-40,true,1.00,23,199,23,182,1823,0
ge-41,true,1.00,159,213,157,190,19163,0
ge-42,true,1.00,535,287,534,270,59877,0
ge-43,true,1.00,252,233,251,214,30228,0
ge-44,true,1.00,430,217,428,195,49926,0
ge-45,true,1.00,374,226,373,209,40349,0
ge-46,true,1.00,535,239,532,222,58252,0
ge-47,true,1.00,600,228,600,211,66555,0
ge-48,true,1.00,277,225,277,208,30961,0
ge-49,true,1.00,124,200,124,182,14588,0
ge-50,true,1.00,435,212,434,195,50537,0
ge-51,true,1.00,109,231,107,214,12527,0
ge-52,true,1.00,373,262,371,244,39839,0
ge-53,true,1.00,196,215,196,198,23198,0
ge-54,true,1.00,211,244,209,226,27446,0
ge-55,true,1.00,238,222,237,203,26464,0
ge-56,true,1.00,478,250,476,218,54435,0
ge-57,true,1.00,740,226,737,201,86880,0
ge-58,true,1.00,148,235,147,218,15899,0
ge-59,true,1.00,771,221,771,204,94037,0
ge-60,true,1.00,460,201,459,184,52514,0
ge-61,true,1.00,226,203,224,186,28009,0
ge-62,true,1.00,417,225,415,208,47778,0
ge-63,true,1.00,697,228,696,210,88781,0
ge-64,false,1.00,337,238,336,209,35364,0
ge-65,true,1.00,484,236,483,214,59681,0
ge-66,true,1.00,548,242,544,205,65010,0
ge-67,true,1.00,157,251,155,228,16215,0
ge-68,true,1.00,82,225,79,208,8293,0
ge-69,true,1.00,189,199,188,182,20582,0
ge-70,true,1.00,330,216,329,198,36656,0
ge-71,true,1.00,1199,232,1199,215,139277,0
ge-72,true,1.00,129,258,129,240,13432,0
ge-73,true,1.00,268,210,266,192,32495,0
ge-74,true,1.00,855,259,853,242,91769,0
ge-75,true,1.00,199,237,197,199,24262,0
ge-76,true,1.00,812,219,809,201,96239,0
ge-77,true,1.00,1200,238,1199,221,138981,0
ge-78,true,1.00,555,246,553,226,62499,0
ge-79,true,1.00,165,218,163,199,19172,0
ge-80,true,1.00,41,221,40,202,3131,0
ge-81,true,1.00,37,216,36,199,3085,0
ge-82,true,1.00,44,242,44,202,3922,0
ge-83,true,1.00,391,258,389,224,46574,0
ge-84,true,1.00,646,217,645,200,72201,0
ge-85,true,1.00,233,207,233,190,27099,0
ge-86,true,1.00,762,212,762,193,88734,0
ge-87,true,1.00,447,237,447,220,53796,0
ge-88,true,1.00,486,271,485,253,61427,0
ge-89,true,1.00,183,273,183,255,19828,0
ge-90,true,1.00,24,199,22,182,1897,0
ge-91,true,1.00,223,199,223,182,24971,0
ge-92,true,1.00,28,205,28,188,2518,0
ge-93,true,1.00,499,219,495,202,60291,0
ge-94,true,1.00,361,212,358,194,43439,0
ge-95,true,1.00,62,256,60,238,6425,0
ge-96,true,1.00,552,255,551,230,63667,0
ge-97,true,1.00,364,221,364,203,41387,0
ge-98,true,1.00,23,199,20,182,1757,0
ge-99,true,1.00,122,199,120,182,11609,0
ge-100,true,1.00,258,205,257,188,29877,0
