NDW:0.0
TTFW:0.6
DFPT:2.0
DFPAP:3.0
DFPMP:5.0
RIGHT_WINDOW_BORDER_X:176.0
level,win/fail,% travelled,run time,game ticks,planning time,total plannings,nodes evaluated,most backtracked nodes
notch-1,true,1.00,839,250,835,234,45541,0
notch-2,true,1.00,1170,281,1166,265,65119,0
notch-3,true,1.00,793,259,789,243,43385,0
notch-4,true,1.00,1023,245,1019,229,55699,0
notch-5,true,1.00,684,232,679,215,37353,0
notch-6,true,1.00,718,267,714,251,38232,0
notch-7,true,1.00,592,268,588,252,32707,0
notch-8,true,1.00,830,292,823,276,44851,0
notch-9,true,1.00,971,254,967,238,52303,0
notch-10,true,1.00,979,271,971,255,53829,0
notch-11,true,1.00,890,246,888,230,48311,0
notch-12,true,1.00,637,234,630,218,34169,0
notch-13,true,1.00,739,251,731,235,40641,0
notch-14,true,1.00,835,247,832,231,45849,0
notch-15,true,1.00,719,255,711,239,38517,0
notch-16,true,1.00,995,249,991,234,54489,0
notch-17,true,1.00,908,260,903,244,49186,0
notch-18,true,1.00,1183,281,1177,264,60658,0
notch-19,true,1.00,1155,233,1147,217,64271,0
notch-20,true,1.00,901,268,896,252,48291,0
notch-21,true,1.00,927,264,920,248,51138,0
notch-22,true,1.00,586,250,579,234,31303,0
notch-23,true,1.00,1056,248,1050,231,58304,0
notch-24,true,1.00,648,256,645,240,35019,0
notch-25,true,1.00,1045,267,1044,251,56966,0
notch-26,true,1.00,787,253,780,236,41745,0
notch-27,true,1.00,1659,296,1657,280,91646,0
notch-28,true,1.00,945,257,940,240,52540,0
notch-29,true,1.00,987,259,984,243,53841,0
notch-30,true,1.00,910,239,908,223,48925,0
notch-31,true,1.00,922,275,914,259,49294,0
notch-32,true,1.00,767,269,763,246,41946,0
notch-33,true,1.00,665,225,663,209,35883,0
notch-34,true,1.00,705,253,699,237,38723,0
notch-35,true,1.00,768,252,762,236,41317,0
notch-36,true,1.00,1141,283,1139,267,61307,0
notch-37,true,1.00,1239,266,1233,243,67595,0
notch-38,true,1.00,1123,275,1115,259,60182,0
notch-39,true,1.00,689,232,680,216,37171,0
notch-40,true,1.00,1676,281,1669,263,92991,0
notch-41,true,1.00,1636,284,1630,268,89709,0
notch-42,true,1.00,920,246,917,230,49984,0
notch-43,true,1.00,650,226,646,210,35040,0
notch-44,true,1.00,792,254,783,238,33063,0
notch-45,true,1.00,1618,275,1607,259,63806,0
notch-46,true,1.00,820,249,813,233,45555,0
notch-47,true,1.00,1026,265,1019,249,57827,0
notch-48,true,1.00,1145,261,1139,245,65505,0
notch-49,true,1.00,856,263,849,241,46803,0
notch-50,true,1.00,928,293,923,276,50705,0
notch-51,true,1.00,708,249,705,228,40308,0
notch-52,true,1.00,707,262,695,245,39979,0
notch-53,true,1.00,459,263,454,245,24569,0
notch-54,true,1.00,896,266,886,250,50522,0
notch-55,true,1.00,1273,275,1270,259,71508,0
notch-56,true,1.00,784,276,778,260,43905,0
notch-57,true,1.00,908,276,899,260,49388,0
notch-58,true,1.00,1161,278,1152,261,63501,0
notch-59,true,1.00,1294,283,1290,260,71423,0
notch-60,true,1.00,1068,253,1063,237,60399,0
notch-61,true,1.00,942,235,937,219,53016,0
notch-62,true,1.00,892,260,889,244,49840,0
notch-63,true,1.00,869,270,862,249,49673,0
notch-64,true,1.00,1056,250,1047,234,58794,0
notch-65,true,1.00,1455,296,1453,279,83475,0
notch-66,true,1.00,955,266,950,246,54081,0
notch-67,true,1.00,821,233,819,217,45532,0
notch-68,true,1.00,530,242,525,226,30039,0
notch-69,true,1.00,1479,293,1475,277,82172,0
notch-70,true,1.00,1203,275,1200,258,68565,0
notch-71,true,1.00,991,228,986,212,56131,0
notch-72,true,1.00,708,247,701,231,40708,0
notch-73,true,1.00,803,258,797,241,44822,0
notch-74,true,1.00,565,231,559,215,32286,0
notch-75,true,1.00,1320,265,1319,249,74084,0
notch-76,true,1.00,884,259,878,243,49930,0
notch-77,true,1.00,1204,259,1190,243,46329,0
notch-78,true,1.00,1520,262,1515,246,57472,0
notch-79,true,1.00,942,257,938,241,51604,0
notch-80,true,1.00,425,226,417,210,23214,0
notch-81,true,1.00,1266,248,1259,232,69320,0
notch-82,true,1.00,811,250,809,234,43713,0
notch-83,true,1.00,1121,266,1116,250,60968,0
notch-84,true,1.00,670,247,666,231,36750,0
notch-85,true,1.00,667,256,663,238,36082,0
notch-86,true,1.00,879,243,875,227,47257,0
notch-87,true,1.00,939,247,932,231,51435,0
notch-88,true,1.00,2180,319,2174,302,121626,0
notch-89,true,1.00,1246,269,1236,253,68500,0
notch-90,true,1.00,1160,261,1155,245,63577,0
notch-91,true,1.00,1759,286,1747,270,96935,0
notch-92,true,1.00,994,255,990,239,54662,0
notch-93,true,1.00,1056,265,1051,249,57193,0
notch-94,true,1.00,1430,286,1422,269,77062,0
notch-95,true,1.00,617,238,610,222,32983,0
notch-96,true,1.00,745,261,740,245,41349,0
notch-97,true,1.00,1069,272,1063,256,57941,0
notch-98,true,1.00,1156,255,1143,238,62146,0
notch-99,true,1.00,1150,279,1144,258,63790,0
notch-100,true,1.00,970,301,964,285,51989,0
