NDW:0.0
TTFW:0.6
DFPT:2.0
DFPAP:3.0
DFPMP:1.0
RIGHT_WINDOW_BORDER_X:75.0
level,win/fail,% travelled,run time,game ticks,planning time,total plannings,nodes evaluated,most backtracked nodes
patternOccur-1,true,1.00,1995,725,1988,718,195462,0
patternOccur-2,true,1.00,2340,713,2334,705,237630,0
patternOccur-3,true,1.00,5314,894,5311,887,522245,0
patternOccur-4,true,1.00,4304,902,4298,895,411008,0
patternOccur-5,true,1.00,2199,789,2195,780,231512,0
patternOccur-6,true,1.00,3168,735,3163,728,314852,0
patternOccur-7,true,1.00,2201,758,2201,751,222629,0
patternOccur-8,true,1.00,1774,576,1768,568,176479,0
patternOccur-9,true,1.00,5595,926,5592,919,523889,0
patternOccur-10,true,1.00,2818,823,2810,813,295924,0
patternOccur-11,false,0.86,7016,857,7010,857,678004,0
patternOccur-12,true,1.00,2488,816,2484,809,269689,0
patternOccur-13,true,1.00,4252,849,4248,840,445490,0
patternOccur-14,false,0.82,6233,797,6229,797,591229,0
patternOccur-15,true,1.00,4433,780,4430,772,422591,0
patternOccur-16,false,0.84,8391,783,8391,783,757248,0
patternOccur-17,true,1.00,3265,857,3260,847,318884,0
patternOccur-18,true,1.00,3402,841,3392,834,338667,0
patternOccur-19,false,0.82,9772,912,9764,912,1060257,0
patternOccur-20,false,0.45,2342,482,2341,482,225449,0
patternOccur-21,true,1.00,4515,851,4507,844,456462,0
patternOccur-22,false,0.83,9107,999,9100,999,851093,0
patternOccur-23,true,1.00,6220,869,6213,862,602890,0
patternOccur-24,true,1.00,2335,781,2333,773,261242,0
patternOccur-25,true,1.00,4482,866,4477,859,436121,0
patternOccur-26,true,1.00,2362,680,2360,673,233068,0
patternOccur-27,false,0.77,4570,782,4566,782,436500,0
patternOccur-28,true,1.00,1949,701,1946,693,195697,0
patternOccur-29,true,1.00,1784,694,1778,681,175585,0
patternOccur-30,true,1.00,2618,804,2613,797,259736,0
patternOccur-31,false,0.77,8508,821,8503,821,845911,0
patternOccur-32,false,0.86,5589,760,5583,760,571685,0
patternOccur-33,true,1.00,3516,791,3509,782,346105,0
patternOccur-34,true,1.00,3668,826,3662,816,355513,0
patternOccur-35,true,1.00,2778,782,2772,775,277190,0
patternOccur-36,false,0.88,8369,999,8359,999,794574,0
patternOccur-37,false,0.85,7944,999,7939,999,759936,0
patternOccur-38,true,1.00,2925,784,2921,775,306527,0
patternOccur-39,false,0.80,6510,876,6504,876,629619,0
patternOccur-40,true,1.00,5057,925,5051,918,500242,0
patternOccur-41,true,1.00,3165,833,3159,824,336743,0
patternOccur-42,false,0.89,7373,878,7365,878,711845,0
patternOccur-43,true,1.00,3836,790,3834,782,391189,0
patternOccur-44,false,0.22,1908,184,1908,184,171167,0
patternOccur-45,false,0.90,3715,715,3712,715,358388,0
patternOccur-46,true,1.00,4096,819,4091,812,388180,0
patternOccur-47,false,0.87,8914,982,8911,982,840725,0
patternOccur-48,false,0.61,5693,628,5692,628,541507,0
patternOccur-49,true,1.00,4571,789,4568,782,426853,0
patternOccur-50,false,0.83,5992,778,5986,778,552648,0
patternOccur-51,true,1.00,2756,831,2748,821,286301,0
patternOccur-52,true,1.00,3654,749,3650,742,361292,0
patternOccur-53,true,1.00,3894,820,3890,812,371503,0
patternOccur-54,false,0.89,6436,816,6433,816,616748,0
patternOccur-55,true,1.00,4044,800,4040,793,388608,0
patternOccur-56,true,1.00,3970,773,3966,764,369260,0
patternOccur-57,true,1.00,5163,870,5161,861,491091,0
patternOccur-58,false,0.72,4455,605,4451,605,387559,0
patternOccur-59,true,1.00,3036,752,3033,743,295292,0
patternOccur-60,false,0.87,3852,764,3847,764,349613,0
patternOccur-61,true,1.00,4844,813,4839,806,467219,0
patternOccur-62,true,1.00,2098,701,2093,694,213259,0
patternOccur-63,true,1.00,2308,750,2305,741,227067,0
patternOccur-64,true,1.00,5231,806,5221,798,498214,0
patternOccur-65,true,1.00,3515,798,3511,789,355172,0
patternOccur-66,true,1.00,2763,790,2759,780,308298,0
patternOccur-67,true,1.00,2430,844,2421,837,254076,0
patternOccur-68,true,1.00,3704,809,3701,801,355267,0
patternOccur-69,false,0.84,14644,999,14639,999,1339474,0
patternOccur-70,false,0.86,8392,884,8386,884,898410,0
patternOccur-71,true,1.00,9865,948,9859,939,1050400,0
patternOccur-72,false,0.87,6731,832,6729,832,633161,0
patternOccur-73,false,0.87,7089,848,7085,848,656873,0
patternOccur-74,false,0.86,4309,776,4302,776,437595,0
patternOccur-75,false,0.96,4802,999,4794,999,450094,0
patternOccur-76,true,1.00,4598,761,4594,753,448236,0
patternOccur-77,true,1.00,1016,673,1011,664,104788,0
patternOccur-78,true,1.00,1916,761,1912,752,189454,0
patternOccur-79,true,1.00,3317,782,3308,775,332231,0
patternOccur-80,false,0.89,9181,988,9180,988,940989,0
patternOccur-81,false,0.85,9930,987,9923,987,932150,0
patternOccur-82,false,0.94,11442,999,11440,999,951973,0
patternOccur-83,true,1.00,1551,652,1546,643,162904,0
patternOccur-84,true,1.00,2498,693,2494,686,247362,0
patternOccur-85,false,0.93,7755,964,7753,964,718677,0
patternOccur-86,false,0.91,11372,937,11368,937,1095155,0
patternOccur-87,false,0.72,3466,1008,3462,1008,338898,0
patternOccur-88,true,1.00,4998,885,4992,876,501992,0
patternOccur-89,true,1.00,3841,802,3836,794,385584,0
patternOccur-90,true,1.00,5974,819,5963,812,606759,0
patternOccur-91,false,0.34,24907,1008,24903,1008,2209881,0
patternOccur-92,true,1.00,3884,771,3881,764,372054,0
patternOccur-93,true,1.00,2863,815,2856,806,281801,0
patternOccur-94,false,0.79,12414,999,12409,999,1232587,0
patternOccur-95,true,1.00,4103,877,4097,869,421367,0
patternOccur-96,false,0.85,13537,999,13535,999,1100916,0
patternOccur-97,true,1.00,3936,742,3932,734,412133,0
patternOccur-98,false,0.90,7027,960,7023,960,675121,0
patternOccur-99,true,1.00,1339,690,1337,682,145411,0
patternOccur-100,true,1.00,3383,769,3382,762,309749,0
