NDW:0.0
TTFW:1.8
DFPT:2.0
DFPAP:3.0
DFPMP:50.0
RIGHT_WINDOW_BORDER_X:255.0
level,win/fail,% travelled,run time,game ticks,planning time,total plannings,nodes evaluated,most backtracked nodes
ore-1,true,1.00,1534,400,1534,375,219701,0
ore-2,false,0.70,2688,339,2686,339,311054,0
ore-3,true,1.00,1409,467,1409,421,201535,0
ore-4,true,1.00,2193,491,2188,468,303863,0
ore-5,true,1.00,1900,424,1897,401,271729,0
ore-6,true,1.00,1257,446,1256,413,164622,0
ore-7,true,1.00,1527,419,1522,387,208962,0
ore-8,true,1.00,2917,474,2913,440,367445,0
ore-9,true,1.00,1174,439,1173,396,158092,0
ore-10,true,1.00,1450,437,1444,414,204080,0
ore-11,true,1.00,1285,512,1283,468,172495,0
ore-12,true,1.00,1582,552,1577,528,207646,0
ore-13,true,1.00,1477,516,1472,474,202681,0
ore-14,true,1.00,1671,433,1669,408,233589,0
ore-15,true,1.00,1666,422,1666,399,229991,0
ore-16,true,1.00,1727,458,1723,427,229986,0
ore-17,true,1.00,1554,499,1551,454,221958,0
ore-18,true,1.00,1198,449,1193,412,170476,0
ore-19,true,1.00,1523,423,1522,398,212407,0
ore-20,true,1.00,2376,459,2374,427,337380,0
ore-21,true,1.00,2944,519,2943,494,434067,0
ore-22,false,0.62,1580,292,1576,292,172348,0
ore-23,true,1.00,1757,453,1756,429,241079,0
ore-24,true,1.00,1543,492,1537,457,205803,0
ore-25,true,1.00,1273,387,1265,354,183784,0
ore-26,true,1.00,1764,430,1763,401,224036,0
ore-27,true,1.00,3061,488,3058,464,404523,0
ore-28,true,1.00,1230,413,1229,390,153110,0
ore-29,true,1.00,1817,439,1815,416,235390,0
ore-30,true,1.00,1095,442,1090,398,146861,0
ore-31,true,1.00,1508,445,1506,421,208846,0
ore-32,true,1.00,1476,426,1476,397,193498,0
ore-33,true,1.00,1503,492,1501,447,211162,0
ore-34,true,1.00,1960,505,1957,474,260386,0
ore-35,true,1.00,1477,406,1473,382,211983,0
ore-36,true,1.00,1253,439,1248,407,170937,0
ore-37,false,0.35,1150,125,1150,125,118311,0
ore-38,true,1.00,1064,415,1062,378,147821,0
ore-39,true,1.00,1977,444,1975,407,281099,0
ore-40,true,1.00,1529,422,1527,399,202563,0
ore-41,true,1.00,1534,453,1531,407,208966,0
ore-42,true,1.00,2399,522,2396,491,345959,0
ore-43,true,1.00,1777,474,1774,451,242272,0
ore-44,true,1.00,1805,432,1802,381,250374,0
ore-45,false,0.74,23133,999,23130,999,1651650,0
ore-46,false,0.12,800,53,800,53,76994,0
ore-47,true,1.00,2097,521,2095,492,283356,0
ore-48,true,1.00,1956,521,1950,498,269853,0
ore-49,true,1.00,1425,446,1425,397,193756,0
ore-50,true,1.00,1762,439,1755,414,234947,0
ore-51,true,1.00,1551,501,1549,452,216449,0
ore-52,true,1.00,1294,464,1293,427,179689,0
ore-53,true,1.00,1346,412,1344,384,178257,0
ore-54,false,0.72,2414,329,2414,329,274114,0
ore-55,true,1.00,1427,444,1425,410,203605,0
ore-56,true,1.00,1309,408,1307,380,177656,0
ore-57,true,1.00,1448,433,1444,392,206145,0
ore-58,true,1.00,1474,450,1469,427,205343,0
ore-59,true,1.00,1877,481,1873,458,268156,0
ore-60,true,1.00,1656,388,1655,365,221554,0
ore-61,true,1.00,1309,428,1304,381,172598,0
ore-62,true,1.00,1713,419,1711,396,231102,0
ore-63,true,1.00,2598,476,2593,438,316721,0
ore-64,true,1.00,1585,450,1584,425,208450,0
ore-65,true,1.00,1782,498,1779,464,244499,0
ore-66,true,1.00,2432,491,2429,450,296879,0
ore-67,true,1.00,2060,434,2058,411,272948,0
ore-68,true,1.00,1253,412,1250,388,169159,0
ore-69,true,1.00,2216,487,2213,461,299933,0
ore-70,false,0.96,2476,433,2473,433,323066,0
ore-71,true,1.00,1345,417,1341,393,188197,0
ore-72,true,1.00,1147,441,1144,406,158888,0
ore-73,true,1.00,1898,453,1896,423,264647,0
ore-74,true,1.00,2461,489,2460,464,295794,0
ore-75,true,1.00,1441,471,1437,446,189752,0
ore-76,true,1.00,1353,406,1350,371,196151,0
ore-77,true,1.00,1422,414,1421,377,200796,0
ore-78,true,1.00,1735,456,1732,433,248451,0
ore-79,true,1.00,1407,446,1404,394,199736,0
ore-80,true,1.00,1938,438,1932,393,263449,0
ore-81,true,1.00,1822,468,1820,444,250583,0
ore-82,true,1.00,1605,421,1604,386,223174,0
ore-83,true,1.00,1223,426,1217,403,164366,0
ore-84,true,1.00,2526,433,2522,409,307675,0
ore-85,true,1.00,1511,463,1505,431,203909,0
ore-86,true,1.00,2440,508,2440,469,337328,0
ore-87,true,1.00,1276,515,1273,475,167438,0
ore-88,true,1.00,2037,431,2035,406,274376,0
ore-89,true,1.00,2262,461,2260,438,310547,0
ore-90,true,1.00,3541,531,3538,484,463936,0
ore-91,true,1.00,1872,464,1868,440,236901,0
ore-92,true,1.00,1725,432,1724,406,213891,0
ore-93,false,0.14,2433,106,2433,106,184561,0
ore-94,true,1.00,1613,496,1609,464,220126,0
ore-95,true,1.00,1756,472,1751,433,237580,0
ore-96,true,1.00,2011,500,2008,465,280729,0
ore-97,true,1.00,2069,485,2066,427,261939,0
ore-98,true,1.00,1829,436,1825,411,248208,0
ore-99,true,1.00,2946,486,2944,455,413541,0
ore-100,true,1.00,1501,463,1498,428,222890,0
