NDW:0.0
TTFW:0.6
DFPT:2.0
DFPAP:3.0
DFPMP:10.0
RIGHT_WINDOW_BORDER_X:176.0
level,win/fail,% travelled,run time,game ticks,planning time,total plannings,nodes evaluated,most backtracked nodes
patternWeightCount-1,true,1.00,2643,407,2632,387,140584,0
patternWeightCount-2,true,1.00,642,371,627,355,33634,0
patternWeightCount-3,true,1.00,728,374,723,358,37435,0
patternWeightCount-4,true,1.00,674,368,664,352,35597,0
patternWeightCount-5,true,1.00,1770,457,1759,440,91540,0
patternWeightCount-6,true,1.00,1606,385,1599,369,85034,0
patternWeightCount-7,true,1.00,958,373,950,357,49170,0
patternWeightCount-8,true,1.00,797,399,790,383,37954,0
patternWeightCount-9,true,1.00,1288,409,1280,393,66790,0
patternWeightCount-10,true,1.00,738,368,731,352,38669,0
patternWeightCount-11,true,1.00,627,352,617,336,32080,0
patternWeightCount-12,true,1.00,1650,443,1643,427,84809,0
patternWeightCount-13,true,1.00,1302,368,1296,352,70078,0
patternWeightCount-14,true,1.00,1056,427,1045,410,54903,0
patternWeightCount-15,true,1.00,1171,379,1160,363,61678,0
patternWeightCount-16,true,1.00,3002,456,2993,440,160488,0
patternWeightCount-17,true,1.00,920,436,908,420,47336,0
patternWeightCount-18,true,1.00,1417,423,1400,407,72596,0
patternWeightCount-19,true,1.00,1125,393,1114,377,56171,0
patternWeightCount-20,false,0.62,3412,294,3404,294,135753,0
patternWeightCount-21,true,1.00,570,375,561,359,28969,0
patternWeightCount-22,true,1.00,2944,446,2933,422,151958,0
patternWeightCount-23,true,1.00,1572,384,1554,368,49199,0
patternWeightCount-24,true,1.00,1444,411,1433,395,78348,0
patternWeightCount-25,true,1.00,2109,427,2096,411,115708,0
patternWeightCount-26,true,1.00,1585,468,1576,452,84470,0
patternWeightCount-27,true,1.00,2706,458,2681,431,79523,0
patternWeightCount-28,true,1.00,1339,395,1329,379,65728,0
patternWeightCount-29,true,1.00,916,348,912,332,49583,0
patternWeightCount-30,true,1.00,4131,505,4120,481,218113,0
patternWeightCount-31,true,1.00,1497,429,1489,413,74327,0
patternWeightCount-32,true,1.00,657,365,650,349,35000,0
patternWeightCount-33,true,1.00,896,428,884,412,48235,0
patternWeightCount-34,true,1.00,1410,405,1405,389,75929,0
patternWeightCount-35,true,1.00,2151,475,2142,459,111023,0
patternWeightCount-36,true,1.00,2321,484,2307,468,126325,0
patternWeightCount-37,true,1.00,694,371,682,355,37098,0
patternWeightCount-38,true,1.00,3634,478,3628,429,187542,0
patternWeightCount-39,true,1.00,1072,370,1063,354,58451,0
patternWeightCount-40,true,1.00,1779,416,1771,400,97700,0
patternWeightCount-41,true,1.00,1722,393,1718,377,93996,0
patternWeightCount-42,false,0.87,4808,480,4795,480,238967,0
patternWeightCount-43,true,1.00,1099,366,1093,350,59603,0
patternWeightCount-44,true,1.00,1759,440,1752,420,96325,0
patternWeightCount-45,true,1.00,3424,514,3415,470,184092,0
patternWeightCount-46,false,0.87,3802,446,3795,446,194107,0
patternWeightCount-47,true,1.00,638,381,634,365,33928,0
patternWeightCount-48,true,1.00,812,368,800,352,43540,0
patternWeightCount-49,true,1.00,934,370,921,354,48879,0
patternWeightCount-50,true,1.00,1035,382,1023,366,43931,0
patternWeightCount-51,true,1.00,1477,409,1468,385,51914,0
patternWeightCount-52,true,1.00,2489,443,2477,417,131873,0
patternWeightCount-53,true,1.00,5446,505,5423,485,212634,0
patternWeightCount-54,true,1.00,785,396,776,380,42565,0
patternWeightCount-55,true,1.00,1150,364,1137,347,61254,0
patternWeightCount-56,true,1.00,1049,386,1044,365,57203,0
patternWeightCount-57,true,1.00,587,361,579,345,32575,0
patternWeightCount-58,true,1.00,1288,396,1277,376,63043,0
patternWeightCount-59,true,1.00,605,371,592,355,29949,0
patternWeightCount-60,true,1.00,1627,442,1614,426,84780,0
patternWeightCount-61,true,1.00,1343,382,1327,365,40669,0
patternWeightCount-62,true,1.00,2133,406,2122,362,99868,0
patternWeightCount-63,true,1.00,1409,387,1399,371,74233,0
patternWeightCount-64,true,1.00,1809,431,1800,415,94409,0
patternWeightCount-65,true,1.00,1440,440,1427,424,73644,0
patternWeightCount-66,true,1.00,870,388,861,372,44650,0
patternWeightCount-67,true,1.00,850,401,842,385,42181,0
patternWeightCount-68,false,0.85,22889,999,22882,999,721073,0
patternWeightCount-69,true,1.00,2701,418,2686,390,140690,0
patternWeightCount-70,true,1.00,1504,396,1492,379,40535,0
patternWeightCount-71,true,1.00,1082,371,1068,355,31971,0
patternWeightCount-72,true,1.00,5900,507,5874,476,254052,0
patternWeightCount-73,true,1.00,7962,538,7949,513,369655,0
patternWeightCount-74,true,1.00,846,376,835,360,43521,0
patternWeightCount-75,true,1.00,1006,392,998,376,52993,0
patternWeightCount-76,true,1.00,1195,404,1188,388,63442,0
patternWeightCount-77,true,1.00,1318,402,1304,386,64012,0
patternWeightCount-78,true,1.00,1738,418,1731,402,90420,0
patternWeightCount-79,true,1.00,816,344,805,328,42432,0
patternWeightCount-80,true,1.00,1574,390,1565,374,80768,0
patternWeightCount-81,false,0.94,2749,411,2741,411,108921,0
patternWeightCount-82,true,1.00,261,342,253,325,12032,0
patternWeightCount-83,true,1.00,878,366,871,350,47873,0
patternWeightCount-84,true,1.00,862,374,854,358,45880,0
patternWeightCount-85,true,1.00,1185,386,1177,370,64916,0
patternWeightCount-86,false,0.94,4641,452,4632,452,236863,0
patternWeightCount-87,true,1.00,5457,462,5441,445,212920,0
patternWeightCount-88,true,1.00,1907,413,1901,393,103060,0
patternWeightCount-89,true,1.00,637,345,630,329,34442,0
patternWeightCount-90,true,1.00,4554,449,4548,433,202088,0
patternWeightCount-91,true,1.00,1011,367,1004,351,55592,0
patternWeightCount-92,true,1.00,4203,455,4191,429,222403,0
patternWeightCount-93,true,1.00,3866,473,3854,426,149735,0
patternWeightCount-94,true,1.00,1824,419,1808,403,53453,0
patternWeightCount-95,true,1.00,1302,405,1289,389,63506,0
patternWeightCount-96,true,1.00,881,366,869,350,47073,0
patternWeightCount-97,true,1.00,929,399,919,383,50702,0
patternWeightCount-98,true,1.00,6220,503,6209,481,327898,0
patternWeightCount-99,true,1.00,1533,433,1524,417,80784,0
patternWeightCount-100,true,1.00,943,382,932,366,42968,0
