NDW:0.0
TTFW:0.8
DFPT:2.0
DFPAP:3.0
DFPMP:7.0
RIGHT_WINDOW_BORDER_X:135.0
level,win/fail,% travelled,run time,game ticks,planning time,total plannings,nodes evaluated,most backtracked nodes
Krys-1,false,0.38,28762,999,28756,999,1076987,0
Krys-2,false,0.79,21707,999,21683,999,820885,0
Krys-3,true,1.00,8854,573,8838,551,448823,0
Krys-4,true,1.00,3323,527,3312,511,152013,0
Krys-5,false,0.63,3875,359,3868,359,213067,0
Krys-6,true,1.00,1427,419,1418,400,76543,0
Krys-7,true,1.00,343,319,339,299,18373,0
Krys-8,true,1.00,1877,504,1869,487,95670,0
Krys-9,true,1.00,5545,499,5539,485,318998,0
Krys-10,true,1.00,2329,429,2322,407,126423,0
Krys-11,true,1.00,261,329,251,316,12799,0
Krys-12,true,1.00,3778,495,3764,473,178821,0
Krys-13,false,0.72,2993,320,2985,320,154239,0
Krys-14,false,0.79,23954,999,23937,999,868100,0
Krys-15,true,1.00,5974,508,5961,491,331364,0
Krys-16,false,0.69,21766,999,21746,999,828824,0
Krys-17,true,1.00,2642,446,2636,424,124863,0
Krys-18,true,1.00,1501,480,1491,460,75552,0
Krys-19,true,1.00,3727,414,3713,398,192821,0
Krys-20,true,1.00,3890,479,3872,465,172770,0
Krys-21,true,1.00,2921,365,2907,350,131564,0
Krys-22,true,1.00,5412,475,5402,453,286213,0
Krys-23,true,1.00,1863,479,1850,451,89834,0
Krys-24,false,0.70,25355,999,25348,999,975255,0
Krys-25,true,1.00,2926,404,2918,379,142487,0
Krys-26,true,1.00,4618,367,4609,352,261159,0
Krys-27,false,0.62,2968,334,2955,334,151901,0
Krys-28,true,1.00,5138,589,5130,564,245299,0
Krys-29,true,1.00,2210,456,2197,444,99772,0
Krys-30,true,1.00,2892,569,2875,544,130838,0
Krys-31,true,1.00,1943,445,1931,429,100265,0
Krys-32,true,1.00,602,409,590,397,28873,0
Krys-33,true,1.00,812,360,803,338,42229,0
Krys-34,true,1.00,4234,540,4225,515,200523,0
Krys-35,true,1.00,5614,490,5606,465,319617,0
Krys-36,true,1.00,7081,512,7072,495,376068,0
Krys-37,true,1.00,6299,534,6295,521,327804,0
Krys-38,false,0.71,26150,999,26142,999,1404226,0
Krys-39,false,0.91,22441,999,22431,999,947611,0
Krys-40,true,1.00,5395,506,5389,490,297747,0
Krys-41,false,0.84,10151,561,10142,561,550568,0
Krys-42,true,1.00,5036,501,5027,479,283241,0
Krys-43,true,1.00,3506,374,3501,362,199074,0
Krys-44,true,1.00,7056,575,7043,554,359487,0
Krys-45,true,1.00,1143,433,1125,412,49115,0
Krys-46,true,1.00,2236,438,2225,415,99773,0
Krys-47,true,1.00,1373,460,1367,443,71123,0
Krys-48,true,1.00,3909,402,3905,381,223680,0
Krys-49,true,1.00,1558,431,1547,412,75665,0
Krys-50,false,0.70,23191,999,23182,999,881299,0
Krys-51,false,0.65,4786,345,4779,345,274764,0
Krys-52,true,1.00,1877,518,1865,499,83382,0
Krys-53,true,1.00,1538,432,1527,412,70291,0
Krys-54,true,1.00,3087,445,3080,422,157008,0
Krys-55,true,1.00,3179,442,3169,420,154029,0
Krys-56,true,1.00,1605,390,1594,365,70710,0
Krys-57,false,0.82,5275,432,5265,432,271552,0
Krys-58,true,1.00,2338,431,2330,419,110128,0
Krys-59,false,0.89,20841,999,20816,999,751462,0
Krys-60,true,1.00,5190,499,5184,482,259873,0
Krys-61,true,1.00,2678,412,2668,399,127367,0
Krys-62,true,1.00,1371,401,1357,387,56422,0
Krys-63,true,1.00,5353,613,5333,585,240731,0
Krys-64,true,1.00,3409,559,3398,544,161482,0
Krys-65,true,1.00,2934,394,2922,382,130175,0
Krys-66,true,1.00,4907,596,4896,574,213834,0
Krys-67,true,1.00,3883,597,3859,575,174255,0
Krys-68,false,0.62,3731,329,3728,329,201621,0
Krys-69,true,1.00,6582,670,6575,651,267341,0
Krys-70,false,0.80,23444,999,23439,999,862642,0
Krys-71,true,1.00,4266,447,4259,427,243676,0
Krys-72,true,1.00,2118,492,2112,476,111199,0
Krys-73,true,1.00,4588,506,4576,494,230051,0
Krys-74,true,1.00,2324,399,2316,382,112788,0
Krys-75,true,1.00,769,362,765,337,33178,0
Krys-76,true,1.00,6717,526,6713,512,367150,0
Krys-77,true,1.00,3465,417,3455,392,203551,0
Krys-78,true,1.00,6844,583,6833,564,366620,0
Krys-79,true,1.00,1057,416,1048,391,46493,0
Krys-80,true,1.00,540,391,529,373,25122,0
Krys-81,true,1.00,2695,427,2686,411,86656,0
Krys-82,true,1.00,1364,415,1355,395,58829,0
Krys-83,false,0.91,23265,999,23253,999,882139,0
Krys-84,true,1.00,336,354,326,332,17497,0
Krys-85,true,1.00,2604,466,2594,441,126209,0
Krys-86,true,1.00,3302,398,3294,380,151811,0
Krys-87,true,1.00,784,355,775,343,33788,0
Krys-88,true,1.00,2914,446,2903,426,137713,0
Krys-89,true,1.00,2264,361,2255,349,116214,0
Krys-90,true,1.00,4718,391,4713,373,246269,0
Krys-91,true,1.00,421,355,409,341,22725,0
Krys-92,true,1.00,8474,625,8466,603,436189,0
Krys-93,true,1.00,4173,441,4163,428,238239,0
Krys-94,true,1.00,1573,369,1565,352,88109,0
Krys-95,true,1.00,1210,435,1200,410,53605,0
Krys-96,false,0.72,2455,262,2449,262,136608,0
Krys-97,true,1.00,2932,429,2926,413,144690,0
Krys-98,true,1.00,5424,639,5404,618,207821,0
Krys-99,true,1.00,1468,420,1459,395,49949,0
Krys-100,false,0.62,3769,279,3759,279,192926,0
