NDW:0.0
TTFW:1.2
DFPT:2.0
DFPAP:3.0
DFPMP:2.0
RIGHT_WINDOW_BORDER_X:15.0
level,win/fail,% travelled,run time,game ticks,planning time,total plannings,nodes evaluated,most backtracked nodes
Krys-1,false,0.04,7,33,6,33,315,0
Krys-2,false,0.04,6,33,4,33,315,0
Krys-3,false,0.04,6,33,6,33,351,0
Krys-4,false,0.04,6,33,2,33,315,0
Krys-5,false,0.04,5,33,4,33,315,0
Krys-6,false,0.15,91,103,87,103,4884,0
Krys-7,false,0.04,6,33,6,33,351,0
Krys-8,false,0.04,6,33,6,33,351,0
Krys-9,false,0.04,6,33,5,33,351,0
Krys-10,false,0.13,45,80,44,80,2304,0
Krys-11,false,0.04,7,33,6,33,351,0
Krys-12,false,0.12,163,111,160,111,8739,0
Krys-13,false,0.18,28076,999,28067,999,1169657,0
Krys-14,false,0.15,91,103,91,103,4905,0
Krys-15,false,0.12,507,189,503,189,27764,0
Krys-16,false,0.04,6,33,5,33,315,0
Krys-17,false,0.04,5,33,4,33,315,0
Krys-18,false,0.13,10,66,8,66,502,0
Krys-19,false,0.04,6,33,6,33,351,0
Krys-20,false,0.04,5,33,4,33,315,0
Krys-21,false,0.04,6,33,4,33,315,0
Krys-22,false,0.12,213,95,210,95,10746,0
Krys-23,false,0.36,1559,999,1531,999,100189,0
Krys-24,false,0.04,5,33,5,33,315,0
Krys-25,false,0.04,5,33,5,33,315,0
Krys-26,false,0.12,212,95,209,95,10867,0
Krys-27,false,0.04,11,33,5,33,351,0
Krys-28,false,0.04,6,33,4,33,351,0
Krys-29,false,0.04,6,33,5,33,315,0
Krys-30,false,0.04,5,33,4,33,315,0
Krys-31,false,0.10,6,47,4,47,313,0
Krys-32,false,0.37,62,269,53,269,3587,0
Krys-33,false,0.13,9,58,8,58,532,0
Krys-34,false,0.32,51,232,47,232,2985,0
Krys-35,false,0.23,740,237,730,237,41597,0
Krys-36,false,0.12,10,64,9,64,584,0
Krys-37,false,0.12,211,95,211,95,10788,0
Krys-38,false,0.04,7,33,5,33,351,0
Krys-39,false,0.20,947,220,941,220,50595,0
Krys-40,false,0.09,113,63,111,63,5834,0
Krys-41,false,0.12,213,95,211,95,10525,0
Krys-42,false,0.04,6,33,6,33,351,0
Krys-43,false,0.12,12,72,11,72,648,0
Krys-44,false,0.15,1721,999,1700,999,111560,0
Krys-45,false,0.08,6,39,5,39,336,0
Krys-46,false,0.28,96,227,87,227,5352,0
Krys-47,false,0.46,131,341,121,341,8328,0
Krys-48,false,0.04,7,33,5,33,351,0
Krys-49,false,0.21,36,150,33,150,2090,0
Krys-50,false,0.34,2577,545,2566,545,137800,0
Krys-51,false,0.04,6,33,6,33,315,0
Krys-52,false,0.04,6,33,6,33,351,0
Krys-53,false,0.13,10,58,9,58,532,0
Krys-54,false,0.36,2161,999,2138,999,126573,0
Krys-55,false,0.23,463,200,459,200,23391,0
Krys-56,false,0.22,452,234,446,234,23151,0
Krys-57,false,0.26,784,241,781,241,41353,0
Krys-58,false,0.20,526,204,524,204,26683,0
Krys-59,false,0.15,91,103,87,103,4968,0
Krys-60,false,0.08,6,39,6,39,336,0
Krys-61,false,0.04,6,33,4,33,315,0
Krys-62,false,0.13,44,80,42,80,2288,0
Krys-63,false,0.23,182,188,177,188,9837,0
Krys-64,false,0.04,5,33,4,33,315,0
Krys-65,false,0.12,11,64,10,64,584,0
Krys-66,false,0.04,6,33,5,33,351,0
Krys-67,false,0.37,62,269,57,269,3587,0
Krys-68,false,0.04,6,33,5,33,351,0
Krys-69,false,0.04,5,33,5,33,315,0
Krys-70,false,0.46,2544,999,2529,999,138866,0
Krys-71,false,0.04,6,33,5,33,351,0
Krys-72,false,0.04,6,33,5,33,315,0
Krys-73,false,0.04,5,33,5,33,315,0
Krys-74,false,0.04,7,33,7,33,351,0
Krys-75,false,0.04,6,33,6,33,351,0
Krys-76,false,0.04,6,33,5,33,315,0
Krys-77,false,0.12,691,137,688,137,37718,0
Krys-78,false,0.04,5,33,3,33,315,0
Krys-79,false,0.04,7,33,6,33,351,0
Krys-80,false,0.22,19,125,16,125,999,0
Krys-81,false,0.04,7,33,7,33,351,0
Krys-82,false,0.04,6,33,6,33,351,0
Krys-83,false,0.04,6,33,5,33,315,0
Krys-84,false,0.04,6,33,4,33,315,0
Krys-85,false,0.23,74,157,66,157,4208,0
Krys-86,false,0.21,36,150,35,150,2090,0
Krys-87,false,0.13,10,58,9,58,532,0
Krys-88,false,0.04,6,33,5,33,315,0
Krys-89,false,0.04,5,33,4,33,351,0
Krys-90,false,0.12,212,95,211,95,10793,0
Krys-91,false,0.04,5,33,5,33,315,0
Krys-92,false,0.04,6,33,6,33,351,0
Krys-93,false,0.08,6,39,5,39,336,0
Krys-94,false,0.04,6,33,5,33,351,0
Krys-95,false,0.04,6,33,6,33,315,0
Krys-96,false,0.12,11,72,11,72,648,0
Krys-97,false,0.10,6,47,6,47,313,0
Krys-98,false,0.04,6,33,3,33,351,0
Krys-99,false,0.04,7,33,7,33,351,0
Krys-100,false,0.04,5,33,5,33,315,0
