NDW:0.0
TTFW:0.2
DFPT:2.0
DFPAP:3.0
DFPMP:2.0
RIGHT_WINDOW_BORDER_X:35.0
level,win/fail,% travelled,run time,game ticks,planning time,total plannings,nodes evaluated,most backtracked nodes
Mario-1,true,1.00,2597,839,2591,829,230671,0
Mario-2,false,0.51,1523,369,1519,369,120957,0
Mario-3,false,0.34,3569,354,3568,354,352680,0
Mario-4,false,0.94,4690,958,4682,958,443549,0
Mario-5,false,0.20,1179,235,1179,235,106361,0
Mario-6,false,0.36,1407,351,1404,351,153734,0
Mario-7,false,0.33,1430,310,1424,310,119247,0
Mario-8,false,0.08,2056,144,2056,144,183951,0
Mario-9,false,0.76,4384,680,4379,680,399047,0
Mario-10,false,0.24,1170,226,1170,226,114530,0
Mario-11,false,0.08,324,79,324,79,35093,0
Mario-12,false,0.53,559,567,550,567,63889,0
Mario-13,false,0.31,3172,411,3167,411,295041,0
Mario-14,true,1.00,718,749,713,740,81741,0
Mario-15,false,0.20,303,280,301,280,33967,0
