NDW:0.0
TTFW:1.0
DFPT:2.0
DFPAP:3.0
DFPMP:10.0
RIGHT_WINDOW_BORDER_X:15.0
level,win/fail,% travelled,run time,game ticks,planning time,total plannings,nodes evaluated,most backtracked nodes
notch-1,false,0.12,1,60,0,60,406,0
notch-2,false,0.10,1,52,1,52,367,0
notch-3,false,0.14,2,67,2,67,429,0
notch-4,false,0.11,204,110,203,110,17663,0
notch-5,false,0.24,139,157,138,157,12317,0
notch-6,false,0.10,1,53,1,53,376,0
notch-7,false,0.11,2,66,2,66,627,0
notch-8,false,0.11,461,134,459,134,38005,0
notch-9,false,0.20,900,181,899,181,72946,0
notch-10,false,0.11,533,104,533,104,45595,0
notch-11,false,0.18,302,122,301,122,24805,0
notch-12,false,0.31,160,199,159,199,15653,0
notch-13,false,0.11,635,140,634,140,52757,0
notch-14,false,0.11,2,57,2,57,395,0
notch-15,false,0.13,269,110,267,110,25103,0
notch-16,false,0.12,305,104,304,104,26903,0
notch-17,false,0.12,537,114,535,114,46049,0
notch-18,false,0.10,2,53,2,53,376,0
notch-19,false,0.12,534,100,534,100,44197,0
notch-20,false,0.11,1,57,1,57,395,0
notch-21,false,0.10,2,57,2,57,404,0
notch-22,false,0.23,3,108,2,108,580,0
notch-23,false,0.17,509,167,506,167,43842,0
notch-24,false,0.17,4,96,3,96,785,0
notch-25,false,0.18,5,112,3,112,968,0
notch-26,false,0.30,780,205,780,205,60141,0
notch-27,false,0.12,237,114,235,114,22945,0
notch-28,false,0.09,256,96,256,96,25287,0
notch-29,false,0.11,1,53,1,53,378,0
notch-30,false,0.12,1128,152,1128,152,84415,0
notch-31,false,0.12,2,55,1,55,387,0
notch-32,false,0.15,3,80,2,80,648,0
notch-33,false,0.17,1743,234,1741,234,144915,0
notch-34,false,0.10,2,56,2,56,396,0
notch-35,false,0.23,271,153,270,153,24984,0
notch-36,false,0.13,203,104,203,104,17218,0
notch-37,false,0.12,235,101,234,101,19728,0
notch-38,false,0.11,400,113,399,113,37436,0
notch-39,false,0.13,1,61,1,61,407,0
notch-40,false,0.19,1899,293,1898,293,166737,0
notch-41,false,0.10,610,147,610,147,52920,0
notch-42,false,0.10,2,55,2,55,403,0
notch-43,false,0.15,232,115,231,115,20529,0
notch-44,false,0.15,403,134,400,134,35494,0
notch-45,false,0.11,172,112,171,112,15003,0
notch-46,false,0.19,74,146,73,146,6833,0
notch-47,false,0.12,470,146,469,146,43491,0
notch-48,false,0.14,480,136,480,136,43967,0
notch-49,false,0.30,138,178,137,178,12282,0
notch-50,false,0.24,240,174,239,174,23060,0
notch-51,false,0.11,2,57,2,57,404,0
notch-52,false,0.21,170,138,170,138,15571,0
notch-53,false,0.09,1155,148,1154,148,106743,0
notch-54,false,0.12,235,95,234,95,20381,0
notch-55,false,0.13,170,101,170,101,14606,0
notch-56,false,0.10,404,147,404,147,35812,0
notch-57,false,0.14,731,137,731,137,54871,0
notch-58,false,0.18,470,169,470,169,44996,0
notch-59,false,0.13,205,136,204,136,19038,0
notch-60,false,0.12,1128,152,1127,152,84600,0
notch-61,false,0.14,237,123,237,123,21509,0
notch-62,false,0.11,238,117,238,117,22490,0
notch-63,false,0.09,2,55,2,55,403,0
notch-64,false,0.13,965,174,964,174,85878,0
notch-65,false,0.10,2,57,1,57,400,0
notch-66,false,0.16,237,122,234,122,21683,0
notch-67,false,0.12,172,112,171,112,14174,0
notch-68,false,0.13,171,102,171,102,13873,0
notch-69,false,0.13,204,100,202,100,17558,0
notch-70,false,0.12,269,100,269,100,24800,0
notch-71,false,0.11,669,158,668,158,57428,0
notch-72,false,0.07,2,40,2,40,337,0
notch-73,false,0.11,470,144,468,144,44116,0
notch-74,false,0.20,1042,257,1042,257,87709,0
notch-75,false,0.22,335,187,333,187,29842,0
notch-76,false,0.13,205,115,205,115,17269,0
notch-77,false,0.14,467,128,467,128,41647,0
notch-78,false,0.14,239,134,239,134,21168,0
notch-79,false,0.10,1,52,1,52,367,0
notch-80,false,0.17,2,85,1,85,519,0
notch-81,false,0.12,204,99,203,99,17838,0
notch-82,false,0.11,2,57,1,57,395,0
notch-83,false,0.12,139,122,138,122,13396,0
notch-84,false,0.13,665,124,664,124,59977,0
notch-85,false,0.16,372,155,372,155,31299,0
notch-86,false,0.18,399,106,399,106,30317,0
notch-87,false,0.10,242,80,241,80,22678,0
notch-88,false,0.12,441,120,441,120,39009,0
notch-89,false,0.17,969,197,969,197,87034,0
notch-90,false,0.15,742,160,741,160,65856,0
notch-91,false,0.15,1488,160,1487,160,108978,0
notch-92,false,0.11,2,57,2,57,404,0
notch-93,false,0.09,289,88,288,88,28901,0
notch-94,false,0.12,767,127,767,127,62258,0
notch-95,false,0.21,378,209,378,209,36223,0
notch-96,false,0.15,2,74,2,74,452,0
notch-97,false,0.09,866,136,865,136,83392,0
notch-98,false,0.11,636,158,635,158,56214,0
notch-99,false,0.11,203,90,202,90,17993,0
notch-100,false,0.12,203,95,203,95,17802,0
