NDW:0.0
TTFW:1.0
DFPT:2.0
DFPAP:3.0
DFPMP:10.0
RIGHT_WINDOW_BORDER_X:35.0
level,win/fail,% travelled,run time,game ticks,planning time,total plannings,nodes evaluated,most backtracked nodes
notch-1,false,0.45,2149,323,2148,323,178564,0
notch-2,false,0.23,1394,208,1393,208,129328,0
notch-3,false,0.79,9798,846,9796,846,850985,0
notch-4,false,0.12,670,129,670,129,56872,0
notch-5,false,0.65,2586,525,2582,525,235563,0
notch-6,false,0.23,2707,302,2707,302,237752,0
notch-7,false,0.39,507,205,506,205,43124,0
notch-8,false,0.16,585,104,585,104,51603,0
notch-9,false,0.26,3284,267,3284,267,281097,0
notch-10,false,0.11,1331,156,1331,156,113525,0
notch-11,false,0.17,965,135,965,135,77197,0
notch-12,false,0.66,2405,447,2403,447,213054,0
notch-13,false,0.12,704,88,704,88,57146,0
notch-14,false,0.13,1334,143,1333,143,113471,0
notch-15,false,0.11,205,82,204,82,18875,0
notch-16,false,0.11,999,127,999,127,85279,0
notch-17,false,0.13,2651,199,2650,199,231323,0
notch-18,false,0.27,1241,187,1241,187,117454,0
notch-19,false,0.12,746,118,744,118,62508,0
notch-20,false,0.25,1386,197,1384,197,126862,0
notch-21,false,0.12,736,131,736,131,62144,0
notch-22,false,0.62,3559,497,3556,497,308103,0
notch-23,false,0.31,2858,288,2858,288,264373,0
notch-24,false,0.45,923,300,920,300,82533,0
notch-25,false,0.19,443,136,441,136,37947,0
notch-26,false,0.32,2037,268,2036,268,165560,0
notch-27,false,0.10,29815,999,29814,999,2855104,0
notch-28,false,0.08,30539,999,30537,999,2762236,0
notch-29,false,0.31,2287,319,2286,319,212054,0
notch-30,false,0.13,2845,143,2845,143,210609,0
notch-31,false,0.24,1801,200,1799,200,141134,0
notch-32,false,0.29,1212,224,1211,224,111040,0
notch-33,false,0.13,735,131,735,131,64364,0
notch-34,false,0.34,712,225,712,225,64574,0
notch-35,false,0.23,2057,179,2056,179,184076,0
notch-36,false,0.13,602,98,601,98,50149,0
notch-37,false,0.24,26730,999,26729,999,2174931,0
notch-38,false,0.11,239,88,238,88,22775,0
notch-39,false,0.30,1250,255,1247,255,102357,0
notch-40,false,0.49,5821,499,5818,499,507395,0
notch-41,false,0.32,2050,279,2048,279,186556,0
notch-42,false,0.13,2758,160,2758,160,233212,0
notch-43,false,0.18,1608,174,1608,174,135493,0
notch-44,false,0.16,1152,214,1151,214,101100,0
notch-45,false,0.11,997,113,997,113,80662,0
notch-46,false,0.32,4325,316,4324,316,374768,0
notch-47,false,0.21,995,162,995,162,89940,0
notch-48,false,0.27,648,193,646,193,58077,0
notch-49,false,0.38,1606,269,1603,269,126366,0
notch-50,false,0.24,1068,186,1067,186,99165,0
notch-51,false,0.43,2505,355,2502,355,235418,0
notch-52,false,0.21,772,173,771,173,69531,0
notch-53,false,0.46,2872,392,2869,392,237601,0
notch-54,false,0.14,1115,125,1114,125,95793,0
notch-55,false,0.20,1706,236,1706,236,140871,0
notch-56,false,0.28,4088,414,4087,414,356484,0
notch-57,false,0.14,997,122,995,122,74979,0
notch-58,false,0.25,1112,230,1112,230,107740,0
notch-59,false,0.28,1117,238,1116,238,99720,0
notch-60,false,0.13,2845,143,2845,143,210915,0
notch-61,false,0.14,272,91,271,91,24302,0
notch-62,false,0.23,2879,270,2877,270,264969,0
notch-63,false,0.43,3530,502,3529,502,348222,0
notch-64,false,0.12,29345,999,29345,999,2593499,0
notch-65,false,0.24,1535,208,1534,208,126901,0
notch-66,false,0.39,2105,301,2104,301,187219,0
notch-67,false,0.12,238,81,237,81,19677,0
notch-68,false,0.13,273,87,273,87,22330,0
notch-69,false,0.50,5326,549,5325,549,475966,0
notch-70,false,0.17,2003,193,2002,193,178331,0
notch-71,false,0.11,1093,112,1091,112,92109,0
notch-72,false,0.26,1633,216,1633,216,150629,0
notch-73,false,0.16,1219,183,1219,183,117458,0
notch-74,false,0.14,738,85,738,85,54963,0
notch-75,false,0.56,3338,493,3333,493,304745,0
notch-76,false,0.13,2187,166,2187,166,176654,0
notch-77,false,0.56,6165,595,6161,595,537937,0
notch-78,false,0.35,3813,398,3811,398,331534,0
notch-79,false,0.25,25952,999,25952,999,2398585,0
notch-80,false,0.33,1614,273,1611,273,144578,0
notch-81,false,0.30,8595,522,8594,522,734044,0
notch-82,false,0.13,1591,152,1590,152,130421,0
notch-83,false,0.20,1745,189,1745,189,156262,0
notch-84,false,0.13,1725,151,1725,151,155352,0
notch-85,false,0.06,2,25,2,25,436,0
notch-86,false,0.38,1280,253,1278,253,102055,0
notch-87,false,0.08,477,88,477,88,44347,0
notch-88,false,0.24,1990,302,1990,302,169840,0
notch-89,false,0.17,2055,159,2055,159,181869,0
notch-90,false,0.42,3236,461,3235,461,293565,0
notch-91,false,0.15,996,122,996,122,74327,0
notch-92,false,0.25,1894,255,1893,255,174686,0
notch-93,false,0.09,1453,135,1453,135,138038,0
notch-94,false,0.13,1628,144,1627,144,130926,0
notch-95,false,0.72,2713,561,2710,561,252288,0
notch-96,false,0.17,564,142,564,142,49793,0
notch-97,false,0.10,937,132,937,132,89870,0
notch-98,false,0.20,4083,297,4082,297,371805,0
notch-99,false,0.19,1923,211,1923,211,171295,0
notch-100,false,0.20,2390,239,2389,239,215645,0
