NDW:0.0
TTFW:0.8
DFPT:2.0
DFPAP:3.0
DFPMP:5.0
RIGHT_WINDOW_BORDER_X:235.0
level,win/fail,% travelled,run time,game ticks,planning time,total plannings,nodes evaluated,most backtracked nodes
patternWeightCount-1,true,1.00,2868,423,2866,395,280723,0
patternWeightCount-2,true,1.00,569,396,567,374,55810,0
patternWeightCount-3,true,1.00,571,387,562,366,55375,0
patternWeightCount-4,true,1.00,434,379,434,358,41696,0
patternWeightCount-5,true,1.00,1356,413,1352,389,129031,0
patternWeightCount-6,true,1.00,1431,416,1428,394,139174,0
patternWeightCount-7,true,1.00,971,409,968,386,92950,0
patternWeightCount-8,true,1.00,769,392,768,371,67599,0
patternWeightCount-9,true,1.00,1105,455,1101,433,110465,0
patternWeightCount-10,true,1.00,763,401,759,379,72381,0
patternWeightCount-11,true,1.00,442,382,439,361,40611,0
patternWeightCount-12,true,1.00,907,400,904,379,87087,0
patternWeightCount-13,true,1.00,1192,398,1187,377,121573,0
patternWeightCount-14,true,1.00,754,403,753,378,76093,0
patternWeightCount-15,true,1.00,1455,385,1453,364,143156,0
patternWeightCount-16,true,1.00,2639,466,2638,438,270970,0
patternWeightCount-17,true,1.00,629,432,627,411,63589,0
patternWeightCount-18,true,1.00,692,383,691,362,69097,0
patternWeightCount-19,true,1.00,642,393,639,372,58064,0
patternWeightCount-20,false,0.62,2220,283,2219,283,206803,0
patternWeightCount-21,true,1.00,350,404,348,382,33310,0
patternWeightCount-22,true,1.00,2813,481,2810,447,291605,0
patternWeightCount-23,true,1.00,456,413,456,379,46632,0
patternWeightCount-24,true,1.00,919,361,915,340,93793,0
patternWeightCount-25,true,1.00,1169,375,1161,354,116269,0
patternWeightCount-26,true,1.00,1082,447,1082,418,109253,0
patternWeightCount-27,true,1.00,1430,444,1430,413,144368,0
patternWeightCount-28,true,1.00,1689,404,1686,383,169553,0
patternWeightCount-29,true,1.00,1113,385,1112,364,107762,0
patternWeightCount-30,true,1.00,4484,502,4481,477,398525,0
patternWeightCount-31,true,1.00,897,403,894,382,85277,0
patternWeightCount-32,true,1.00,623,396,620,375,60840,0
patternWeightCount-33,true,1.00,826,427,825,406,83357,0
patternWeightCount-34,true,1.00,1137,391,1135,370,114652,0
patternWeightCount-35,true,1.00,1836,445,1832,424,175345,0
patternWeightCount-36,true,1.00,1470,444,1467,423,144366,0
patternWeightCount-37,true,1.00,602,380,597,359,58817,0
patternWeightCount-38,true,1.00,1802,434,1798,390,167099,0
patternWeightCount-39,true,1.00,961,383,960,362,91726,0
patternWeightCount-40,true,1.00,1377,422,1375,401,137831,0
patternWeightCount-41,true,1.00,1329,415,1326,382,130732,0
patternWeightCount-42,false,0.87,3697,430,3696,430,312212,0
patternWeightCount-43,true,1.00,846,379,842,358,85361,0
patternWeightCount-44,true,1.00,1348,453,1343,428,140706,0
patternWeightCount-45,true,1.00,4371,517,4369,493,404717,0
patternWeightCount-46,true,1.00,3347,470,3342,436,288192,0
patternWeightCount-47,true,1.00,658,396,654,375,64254,0
patternWeightCount-48,true,1.00,603,403,598,382,61777,0
patternWeightCount-49,true,1.00,779,370,777,349,75523,0
patternWeightCount-50,true,1.00,755,389,752,368,70667,0
patternWeightCount-51,true,1.00,725,401,723,362,72974,0
patternWeightCount-52,true,1.00,1054,407,1050,369,107887,0
patternWeightCount-53,true,1.00,3859,472,3858,450,368499,0
patternWeightCount-54,true,1.00,722,429,719,408,70793,0
patternWeightCount-55,true,1.00,1001,419,996,396,94513,0
patternWeightCount-56,true,1.00,1309,414,1306,393,127046,0
patternWeightCount-57,true,1.00,350,368,348,347,36759,0
patternWeightCount-58,true,1.00,1127,419,1122,393,109867,0
patternWeightCount-59,true,1.00,526,374,520,353,49543,0
patternWeightCount-60,true,1.00,1138,431,1134,404,111114,0
patternWeightCount-61,true,1.00,806,383,804,362,82082,0
patternWeightCount-62,true,1.00,1775,416,1773,392,173973,0
patternWeightCount-63,true,1.00,1015,392,1012,371,100677,0
patternWeightCount-64,true,1.00,1555,409,1551,388,154716,0
patternWeightCount-65,true,1.00,1379,436,1376,414,129780,0
patternWeightCount-66,true,1.00,698,386,692,365,68186,0
patternWeightCount-67,true,1.00,754,396,750,375,72193,0
patternWeightCount-68,true,1.00,972,462,970,441,77740,0
patternWeightCount-69,true,1.00,1551,411,1547,376,148841,0
patternWeightCount-70,true,1.00,878,455,875,425,86583,0
patternWeightCount-71,true,1.00,648,429,648,397,61577,0
patternWeightCount-72,true,1.00,5326,517,5325,477,451151,0
patternWeightCount-73,true,1.00,4341,437,4337,391,403639,0
patternWeightCount-74,true,1.00,676,380,675,359,67100,0
patternWeightCount-75,true,1.00,1113,396,1112,375,106678,0
patternWeightCount-76,true,1.00,746,419,743,398,76449,0
patternWeightCount-77,true,1.00,862,403,861,382,85987,0
patternWeightCount-78,true,1.00,1765,467,1763,445,164835,0
patternWeightCount-79,true,1.00,547,386,547,365,53130,0
patternWeightCount-80,true,1.00,1226,442,1217,421,118816,0
patternWeightCount-81,true,1.00,4171,495,4171,468,364933,0
patternWeightCount-82,true,1.00,197,398,193,362,18563,0
patternWeightCount-83,true,1.00,645,406,641,384,65669,0
patternWeightCount-84,true,1.00,802,432,798,403,75930,0
patternWeightCount-85,true,1.00,1179,404,1179,371,119741,0
patternWeightCount-86,false,0.94,2040,374,2039,374,195553,0
patternWeightCount-87,true,1.00,5636,483,5635,461,483033,0
patternWeightCount-88,true,1.00,1167,402,1163,380,115540,0
patternWeightCount-89,true,1.00,606,352,603,331,60488,0
patternWeightCount-90,true,1.00,4120,429,4117,398,386252,0
patternWeightCount-91,true,1.00,785,393,780,371,78008,0
patternWeightCount-92,true,1.00,4447,544,4444,513,434781,0
patternWeightCount-93,true,1.00,4851,473,4851,446,436125,0
patternWeightCount-94,true,1.00,1409,411,1406,390,135409,0
patternWeightCount-95,true,1.00,1315,422,1309,401,128761,0
patternWeightCount-96,true,1.00,562,406,560,384,53676,0
patternWeightCount-97,true,1.00,901,353,898,332,88741,0
patternWeightCount-98,true,1.00,4165,479,4163,432,396169,0
patternWeightCount-99,true,1.00,1595,461,1593,438,164288,0
patternWeightCount-100,true,1.00,979,429,975,408,94325,0
