NDW:0.0
TTFW:1.6
DFPT:2.0
DFPAP:3.0
DFPMP:20.0
RIGHT_WINDOW_BORDER_X:275.0
level,win/fail,% travelled,run time,game ticks,planning time,total plannings,nodes evaluated,most backtracked nodes
ge-1,true,1.00,502,249,499,209,57322,0
ge-2,true,1.00,522,231,520,206,65238,0
ge-3,true,1.00,204,257,202,232,21770,0
ge-4,true,1.00,1441,254,1440,224,172456,0
ge-5,true,1.00,61,199,60,174,8174,0
ge-6,true,1.00,357,234,357,209,39727,0
ge-7,true,1.00,144,225,141,199,15629,0
ge-8,true,1.00,203,219,201,194,23255,0
ge-9,true,1.00,431,222,431,196,54064,0
ge-10,true,1.00,57,199,56,174,7747,0
ge-11,true,1.00,167,212,166,187,21018,0
ge-12,true,1.00,61,199,60,174,9054,0
ge-13,true,1.00,303,235,303,207,34827,0
ge-14,true,1.00,165,227,163,188,18520,0
ge-15,true,1.00,602,219,600,194,68575,0
ge-16,true,1.00,177,303,176,278,14284,0
ge-17,true,1.00,261,215,260,182,29698,0
ge-18,true,1.00,197,254,196,224,19788,0
ge-19,true,1.00,639,274,637,249,72476,0
ge-20,true,1.00,393,220,392,195,45381,0
ge-21,true,1.00,223,201,222,176,26165,0
ge-22,true,1.00,303,208,301,177,32261,0
ge-23,true,1.00,553,205,551,180,53813,0
ge-24,true,1.00,363,240,361,204,39272,0
ge-25,true,1.00,330,201,327,176,40261,0
ge-26,true,1.00,224,205,223,180,29505,0
ge-27,true,1.00,60,213,60,188,7618,0
ge-28,true,1.00,499,205,497,180,51652,0
ge-29,true,1.00,223,221,222,174,27010,0
ge-30,true,1.00,494,246,493,202,59171,0
ge-31,true,1.00,552,222,549,195,64297,0
ge-32,true,1.00,154,244,154,219,16798,0
ge-33,true,1.00,134,223,132,186,15466,0
ge-34,true,1.00,491,212,486,181,61145,0
ge-35,true,1.00,288,242,287,217,32758,0
ge-36,false,1.00,564,248,563,216,65568,0
ge-37,true,1.00,250,199,250,174,32955,0
ge-38,true,1.00,495,217,495,192,62281,0
ge-39,true,1.00,290,222,290,196,34467,0
ge-40,true,1.00,63,199,62,174,9162,0
ge-41,true,1.00,227,210,225,180,28422,0
ge-42,true,1.00,504,220,504,195,56239,0
ge-43,true,1.00,271,236,270,192,31460,0
ge-44,true,1.00,456,209,455,184,55570,0
ge-45,true,1.00,407,220,403,195,46133,0
ge-46,true,1.00,564,257,562,232,65176,0
ge-47,true,1.00,670,232,669,207,80747,0
ge-48,true,1.00,278,221,277,196,31993,0
ge-49,true,1.00,157,199,157,174,21271,0
ge-50,true,1.00,485,212,484,187,56969,0
ge-51,true,1.00,99,224,97,198,11895,0
ge-52,true,1.00,402,248,400,222,45430,0
ge-53,true,1.00,227,211,227,186,29104,0
ge-54,true,1.00,735,241,734,214,103863,0
ge-55,true,1.00,316,245,315,220,36471,0
ge-56,true,1.00,354,249,352,208,41816,0
ge-57,true,1.00,468,223,467,187,56207,0
ge-58,true,1.00,143,234,140,209,15571,0
ge-59,true,1.00,767,217,767,192,97305,0
ge-60,true,1.00,520,201,519,176,62359,0
ge-61,true,1.00,255,203,255,178,33979,0
ge-62,true,1.00,533,213,533,188,67147,0
ge-63,true,1.00,740,219,738,194,96717,0
ge-64,false,1.00,241,244,238,206,27231,0
ge-65,true,1.00,537,233,537,208,66729,0
ge-66,true,1.00,504,230,501,184,61655,0
ge-67,true,1.00,228,253,227,228,24842,0
ge-68,true,1.00,139,221,136,196,14860,0
ge-69,true,1.00,158,199,158,174,20215,0
ge-70,true,1.00,323,216,322,189,37523,0
ge-71,true,1.00,660,236,658,211,84040,0
ge-72,true,1.00,179,278,178,243,18564,0
ge-73,true,1.00,394,211,393,186,52409,0
ge-74,true,1.00,704,225,701,200,79174,0
ge-75,true,1.00,193,240,191,195,24542,0
ge-76,true,1.00,593,217,591,192,73832,0
ge-77,true,1.00,899,238,896,213,108487,0
ge-78,true,1.00,550,243,545,207,64850,0
ge-79,true,1.00,161,216,160,186,19927,0
ge-80,true,1.00,78,220,78,174,9945,0
ge-81,true,1.00,75,213,73,188,9094,0
ge-82,true,1.00,81,241,78,193,9282,0
ge-83,false,1.00,143,252,143,196,16436,0
ge-84,true,1.00,545,209,544,184,66567,0
ge-85,true,1.00,269,209,269,184,34017,0
ge-86,true,1.00,653,212,652,176,79989,0
ge-87,true,1.00,473,234,472,209,56928,0
ge-88,true,1.00,461,232,460,204,60643,0
ge-89,true,1.00,149,244,148,218,15877,0
ge-90,true,1.00,57,199,57,174,8348,0
ge-91,true,1.00,257,199,257,174,32535,0
ge-92,true,1.00,56,205,56,180,7316,0
ge-93,true,1.00,559,215,556,190,69927,0
ge-94,true,1.00,392,208,390,181,48595,0
ge-95,true,1.00,92,246,91,219,8569,0
ge-96,true,1.00,570,239,570,196,66355,0
ge-97,true,1.00,365,213,364,188,45743,0
ge-98,true,1.00,58,199,55,174,8645,0
ge-99,true,1.00,159,199,157,174,19620,0
ge-100,true,1.00,64,205,59,180,9230,0
