NDW:0.0
TTFW:0.2
DFPT:2.0
DFPAP:3.0
DFPMP:3.0
RIGHT_WINDOW_BORDER_X:195.0
level,win/fail,% travelled,run time,game ticks,planning time,total plannings,nodes evaluated,most backtracked nodes
Mario-1,true,1.00,1426,332,1425,312,103329,0
Mario-2,true,1.00,2957,309,2955,289,203427,0
Mario-3,true,1.00,2414,277,2413,260,195658,0
Mario-4,true,1.00,2703,366,2702,345,187477,0
Mario-5,true,1.00,4468,431,4466,412,282959,0
Mario-6,true,1.00,1522,248,1521,230,128486,0
Mario-7,true,1.00,3496,437,3494,411,248418,0
Mario-8,true,1.00,4784,467,4779,428,310965,0
Mario-9,true,1.00,2103,351,2100,332,148486,0
Mario-10,true,1.00,1939,250,1938,233,167777,0
Mario-11,true,1.00,3753,422,3752,403,261921,0
Mario-12,true,1.00,7890,581,7889,554,515663,0
Mario-13,true,1.00,1790,291,1789,273,150485,0
Mario-14,true,1.00,1218,300,1216,275,86636,0
Mario-15,true,1.00,8928,839,8921,818,594435,0
